404
0
32
64
96
192
288
384
429
525
621
653
749
814
846
942
1051
1084
1180
1276
1404
1532
1596
1692
1788
1884
1980
2076
2172
2268
2364
2492
2556
2652
2780
2876
2972
3068
3164
3222
3261
3338
3434
3530
3626
3722
3818
3882
3978
4139
4142
4206
4270
4334
4398
4462
4494
4526
4590
4622
4654
4686
4750
4814
4878
4942
4974
5006
5070
5134
5230
5358
5454
5550
5646
5742
5774
5806
5870
5934
5979
5992
6057
6089
6166
6243
6339
6435
6531
6595
6691
6723
6787
6883
6979
7043
7171
7235
7331
7427
7459
7555
7651
7664
7722
7788
7853
7981
8077
8109
8205
8237
8301
8397
8461
8557
8621
8653
8749
8781
8846
8942
9008
9326
9512
9940
9973
10005
10069
10101
10385
10574
10638
10734
11120
11181
11213
11397
11429
11461
11729
11814
11876
11940
12036
12105
12233
12340
12683
12852
12909
13197
13443
13479
13623
13870
13902
14323
14673
14799
15239
15303
15417
15730
15762
15794
15934
16126
16350
16443
16600
16641
16907
16916
17076
17108
17184
17251
17264
17277
17309
17341
17437
17501
17533
17597
17693
17885
17981
18045
18141
18237
18333
18365
18461
18525
18653
18749
18845
18909
18941
19005
19044
19076
19172
19204
19268
19364
19428
19492
19524
19556
19652
19684
19748
19844
19908
19972
20017
20062
20152
20204
20217
20260
20326
20400
20404
20417
20481
20577
20673
20769
20865
20897
20993
21089
21153
21308
21340
21372
21450
21578
21643
21708
21773
21909
21929
22034
22083
22087
22126
22406
22493
22525
22532
22636
22720
22760
22929
23062
23487
23582
23700
23732
23964
24272
24428
24508
24643
24675
24784
24835
24902
25068
25100
25193
25257
25289
25321
25417
25481
25637
25646
25747
25934
26043
26188
26281
26313
26383
26401
26434
26466
26498
26530
26562
26626
26658
26722
26786
26818
26882
26914
26946
27010
27074
27106
27170
27202
27234
27298
27330
27394
27426
27490
27554
27586
27650
27714
27746
27810
27874
27906
27938
28002
28066
28098
28162
28226
28239
28265
28291
28323
28355
28419
28483
28547
28611
28675
28707
28739
28771
28803
28835
28880
28906
28970
29034
29066
29098
29162
29226
29258
29290
29354
29418
29450
29514
29546
29578
29610
29642
29674
29706
29738
29770
29802
29834
29866
29898
29962
29994
30026
30058
30090
30122
30154
30186
30218
30250
30314
30346
30442
30474
30506
30538
30602
30634
30666
30698
30730
30762
30826
30858
30922
30954
31018
31050
31114
31146
31242
31274
31306
31319
31332
