261
0
32
64
160
193
225
353
417
481
609
668
732
860
924
1052
1148
1212
1340
1372
1436
1564
1628
1724
1788
1884
1948
2076
2108
2217
2256
2365
2397
2525
2589
2653
2781
2845
2909
3005
3101
3229
3293
3325
3357
3454
3521
3585
3649
3713
3777
3841
3905
3969
4033
4097
4161
4193
4225
4289
4315
4380
4445
4541
4637
4733
4829
4893
5021
5117
5149
5245
5309
5405
5501
5597
5629
5693
5706
5764
5828
5924
5991
6416
6511
6543
6634
6914
7018
7021
7061
7198
7230
7616
7743
7936
7968
8394
8398
8449
8616
8696
8728
9169
9227
9341
9527
9598
9630
9694
10056
10148
10224
10232
10278
10279
10441
10473
10898
10906
11040
11097
11254
11318
11662
11682
11711
11743
11877
12005
12133
12219
12402
12434
12498
12766
12767
12791
12852
12921
12950
13034
13166
13195
13241
13248
13468
13499
13531
13595
13627
13969
13978
14140
14309
14373
14545
14705
14740
14817
15243
15368
15532
15541
15665
15697
15852
15893
15984
16176
16308
16366
16789
16985
17021
17060
17134
17308
17340
17539
17670
17823
17886
18082
18159
18191
18261
18364
18482
18499
18502
18536
18568
18632
18664
18728
18760
18824
18856
18920
18952
18984
19016
19080
19112
19144
19208
19240
19304
19336
19368
19400
19464
19477
19503
19535
19567
19631
19663
19727
19759
19823
19887
19951
20015
20047
20111
20143
20175
20239
20271
20335
20367
20399
20431
20463
20495
20559
20591
20623
20655
20687
20719
20783
20815
20847
20879
20911
20943
21007
21039
21103
21135
21199
21231
21263
21295
21359
21391
21423
21436
21462
