SETZERO,7,1 142 1581
SETZERO,6,1 142 1580
SETZERO,5,1 142 1579
SETZERO,4,1 142 1578
SETZERO,3,1 142 1577
SETZERO,2,1 142 1576
SETZERO,1,1 142 1575
SETZERO,0,1 142 1574
SETZERO,23,1 140 1573
SETZERO,22,1 140 1572
SETZERO,21,1 140 1571
SETZERO,20,1 140 1570
SETZERO,19,1 140 1569
SETZERO,18,1 140 1568
SETZERO,17,1 140 1567
SETZERO,16,1 140 1566
_AX,15 37 1565
_AX,14 37 1564
_AX,13 37 1563
_AX,12 37 1562
_AX,11 37 1561
_AX,10 37 1560
_AX,9 37 1559
_AX,8 37 1558
_AX,7 28 1557
_AX,6 28 1556
_AX,5 28 1555
_AX,4 28 1554
_AX,3 28 1553
_AX,2 28 1552
_AX,1 28 1551
_AX,0 28 1550
_P,15 11 1549
_P,14 11 1548
_P,13 11 1547
_P,12 11 1546
_P,11 11 1545
_P,10 11 1544
_P,9 11 1543
_P,8 11 1542
RESET,RN 3 1541
_P,23 3 1540
_P,22 3 1539
_P,21 3 1538
_P,20 3 1537
_P,19 3 1536
_P,18 3 1535
_P,17 3 1534
_P,16 3 1533
_X,7 3 1532
_X,6 3 1531
_X,5 3 1530
_X,4 3 1529
_X,3 3 1528
_X,2 3 1527
_X,1 3 1526
_X,0 3 1525
_X,25 2 1524
_X,24 2 1523
_AX,23 2 1522
_AX,22 2 1521
_AX,21 2 1520
_AX,20 2 1519
_AX,19 2 1518
_AX,18 2 1517
_AX,17 2 1516
_AX,16 2 1515
_lambda 4 1514
XY,24,1 4 1513
XY,25,1 4 1512
_AX,25 27 1511
SUB,25,1 27 1510
_AX,24 27 1509
SUB,24,1 27 1508
MULT,24 36 1507
COL,24,4 36 1506
MULT,25 36 1505
COL,25,5 36 1504
XY,0,1 10 1503
XY,1,1 10 1502
XY,2,1 10 1501
XY,3,1 10 1500
XY,4,1 10 1499
XY,5,1 10 1498
XY,6,1 10 1497
XY,7,1 10 1496
SUB,7,1 34 1495
MULT,7 34 1494
SUB,6,1 34 1493
MULT,6 34 1492
SUB,5,1 34 1491
MULT,5 34 1490
SUB,4,1 34 1489
MULT,4 34 1488
SUB,3,1 34 1487
MULT,3 34 1486
SUB,2,1 34 1485
MULT,2 34 1484
SUB,1,1 34 1483
MULT,1 34 1482
SUB,0,1 34 1481
MULT,0 34 1480
COL,0,0 35 1479
COL,1,1 35 1478
COL,2,2 35 1477
COL,3,3 35 1476
COL,4,4 35 1475
COL,5,5 35 1474
COL,6,6 35 1473
COL,7,7 35 1472
_X,15 17 1471
XY,15,1 17 1470
_X,14 17 1469
XY,14,1 17 1468
_X,13 17 1467
XY,13,1 17 1466
_X,12 17 1465
XY,12,1 17 1464
_X,11 17 1463
XY,11,1 17 1462
_X,10 17 1461
XY,10,1 17 1460
_X,9 17 1459
XY,9,1 17 1458
_X,8 17 1457
XY,8,1 17 1456
SUB,8,1 43 1455
MULT,8 43 1454
COL,8,8 43 1453
SUB,9,1 43 1452
MULT,9 43 1451
COL,9,9 43 1450
SUB,10,1 43 1449
MULT,10 43 1448
COL,10,10 43 1447
SUB,11,1 43 1446
MULT,11 43 1445
COL,11,11 43 1444
SUB,12,1 43 1443
MULT,12 43 1442
COL,12,12 43 1441
SUB,13,1 43 1440
MULT,13 43 1439
COL,13,13 43 1438
SUB,14,1 43 1437
MULT,14 43 1436
COL,14,14 43 1435
SUB,15,1 43 1434
MULT,15 43 1433
COL,15,15 43 1432
_X,23 23 1431
XY,23,1 23 1430
_X,22 23 1429
XY,22,1 23 1428
_X,21 23 1427
XY,21,1 23 1426
_X,20 23 1425
XY,20,1 23 1424
_X,19 23 1423
XY,19,1 23 1422
_X,18 23 1421
XY,18,1 23 1420
_X,17 23 1419
XY,17,1 23 1418
_X,16 23 1417
XY,16,1 23 1416
SUB,16,1 24 1415
SUB,17,1 24 1414
SUB,18,1 24 1413
SUB,19,1 24 1412
SUB,20,1 24 1411
SUB,21,1 24 1410
SUB,22,1 24 1409
SUB,23,1 24 1408
MULT,23 25 1407
MULT,22 25 1406
MULT,21 25 1405
MULT,20 25 1404
MULT,19 25 1403
MULT,18 25 1402
MULT,17 25 1401
MULT,16 25 1400
COL,16,16 26 1399
COL,17,17 26 1398
COL,18,18 26 1397
COL,19,19 26 1396
COL,20,0 26 1395
COL,21,1 26 1394
COL,22,2 26 1393
COL,23,3 26 1392
RNRED,RNBUF 44 1391
SQRT,RN 44 1390
_AP,7 44 1389
_AP,6 44 1388
_AP,5 44 1387
_AP,4 44 1386
_AP,3 44 1385
_AP,2 44 1384
_AP,1 44 1383
_AP,0 44 1382
RESET,actMask 45 1381
CONV,actMask 45 1380
GET,0,3 45 1379
GET,1,3 45 1378
GET,2,3 45 1377
GET,3,3 45 1376
GET,4,3 45 1375
GET,5,3 45 1374
GET,6,3 45 1373
GET,7,3 45 1372
GET,0,1 59 1371
GET,1,1 59 1370
GET,2,1 59 1369
GET,3,1 59 1368
GET,4,1 59 1367
GET,5,1 59 1366
GET,6,1 59 1365
GET,7,1 59 1364
XTY,7,7,1 60 1363
XTY,6,6,1 60 1362
XTY,5,5,1 60 1361
XTY,4,4,1 60 1360
XTY,3,3,1 60 1359
XTY,2,2,1 60 1358
XTY,1,1,1 60 1357
XTY,0,0,1 60 1356
GET,8,1 46 1355
GET,9,1 46 1354
GET,10,1 46 1353
GET,11,1 46 1352
GET,12,1 46 1351
GET,13,1 46 1350
GET,14,1 46 1349
GET,15,1 46 1348
XTY,15,15,1 48 1347
XTY,14,14,1 48 1346
XTY,13,13,1 48 1345
XTY,12,12,1 48 1344
XTY,11,11,1 48 1343
XTY,10,10,1 48 1342
XTY,9,9,1 48 1341
XTY,8,8,1 48 1340
GET,24,1 54 1339
XTY,24,4,1 54 1338
GET,25,1 54 1337
XTY,25,5,1 54 1336
GET,16,1 66 1335
XTY,16,16,1 66 1334
GET,17,1 66 1333
XTY,17,17,1 66 1332
GET,18,1 66 1331
XTY,18,18,1 66 1330
GET,19,1 66 1329
XTY,19,19,1 66 1328
GET,20,1 66 1327
XTY,20,0,1 66 1326
GET,21,1 66 1325
XTY,21,1,1 66 1324
GET,22,1 66 1323
XTY,22,2,1 66 1322
GET,23,1 66 1321
XTY,23,3,1 66 1320
RED,temp2BUF,0 66 1319
XY,0,2 68 1318
XY,1,2 68 1317
XY,2,2 68 1316
XY,3,2 68 1315
XY,4,2 68 1314
XY,5,2 68 1313
XY,6,2 68 1312
XY,7,2 68 1311
SUB,7,2 70 1310
SUB,6,2 70 1309
SUB,5,2 70 1308
SUB,4,2 70 1307
SUB,3,2 70 1306
SUB,2,2 70 1305
SUB,1,2 70 1304
SUB,0,2 70 1303
XTY,0,0,2 76 1302
XTY,1,1,2 76 1301
XTY,2,2,2 76 1300
XTY,3,3,2 76 1299
XTY,4,4,2 76 1298
XTY,5,5,2 76 1297
XTY,6,6,2 76 1296
XTY,7,7,2 76 1295
XY,8,2 72 1294
XY,9,2 72 1293
XY,10,2 72 1292
XY,11,2 72 1291
XY,12,2 72 1290
XY,13,2 72 1289
XY,14,2 72 1288
XY,15,2 72 1287
SUB,15,2 73 1286
XTY,15,15,2 73 1285
SUB,14,2 73 1284
XTY,14,14,2 73 1283
SUB,13,2 73 1282
XTY,13,13,2 73 1281
SUB,12,2 73 1280
XTY,12,12,2 73 1279
SUB,11,2 73 1278
XTY,11,11,2 73 1277
SUB,10,2 73 1276
XTY,10,10,2 73 1275
SUB,9,2 73 1274
XTY,9,9,2 73 1273
SUB,8,2 73 1272
XTY,8,8,2 73 1271
XY,16,2 67 1270
XY,17,2 67 1269
XY,18,2 67 1268
XY,19,2 67 1267
XY,20,2 67 1266
XY,21,2 67 1265
XY,22,2 67 1264
XY,23,2 67 1263
SUB,23,2 75 1262
XTY,23,3,2 75 1261
SUB,22,2 75 1260
XTY,22,2,2 75 1259
SUB,21,2 75 1258
XTY,21,1,2 75 1257
SUB,20,2 75 1256
XTY,20,0,2 75 1255
SUB,19,2 75 1254
XTY,19,19,2 75 1253
SUB,18,2 75 1252
XTY,18,18,2 75 1251
SUB,17,2 75 1250
XTY,17,17,2 75 1249
SUB,16,2 75 1248
XTY,16,16,2 75 1247
XY,24,2 136 1246
SUB,24,2 136 1245
XTY,24,4,2 136 1244
XY,25,2 136 1243
SUB,25,2 136 1242
XTY,25,5,2 136 1241
RED,RBRBUF,0 137 1240
CHOL,RBR 138 1239
INV,RBR 138 1238
XY,0,3 138 1237
XY,1,3 138 1236
XY,2,3 138 1235
XY,3,3 138 1234
XY,4,3 138 1233
XY,5,3 138 1232
XY,6,3 138 1231
XY,7,3 138 1230
DLACPY,7,1 155 1229
SPMM,1,7,0 155 1228
SPMM,2,7,0 155 1227
SPMM,3,7,0 155 1226
SPMM,4,7,0 155 1225
SPMM,5,7,0 155 1224
SPMM,6,7,0 155 1223
SPMM,7,7,0 155 1222
DLACPY,6,1 155 1221
SPMM,1,6,0 155 1220
SPMM,2,6,0 155 1219
SPMM,3,6,0 155 1218
SPMM,4,6,0 155 1217
SPMM,5,6,0 155 1216
SPMM,6,6,0 155 1215
SPMM,7,6,0 155 1214
DLACPY,5,1 155 1213
SPMM,0,5,0 155 1212
SPMM,1,5,0 155 1211
SPMM,2,5,0 155 1210
SPMM,3,5,0 155 1209
SPMM,4,5,0 155 1208
SPMM,5,5,0 155 1207
SPMM,6,5,0 155 1206
SPMM,7,5,0 155 1205
DLACPY,4,1 155 1204
SPMM,1,4,0 155 1203
SPMM,2,4,0 155 1202
SPMM,3,4,0 155 1201
SPMM,4,4,0 155 1200
SPMM,5,4,0 155 1199
SPMM,6,4,0 155 1198
SPMM,7,4,0 155 1197
DLACPY,3,1 155 1196
SPMM,1,3,0 155 1195
SPMM,2,3,0 155 1194
SPMM,3,3,0 155 1193
SPMM,4,3,0 155 1192
SPMM,5,3,0 155 1191
SPMM,6,3,0 155 1190
SPMM,7,3,0 155 1189
DLACPY,2,1 155 1188
SPMM,1,2,0 155 1187
SPMM,2,2,0 155 1186
SPMM,3,2,0 155 1185
SPMM,4,2,0 155 1184
SPMM,5,2,0 155 1183
SPMM,6,2,0 155 1182
SPMM,7,2,0 155 1181
DLACPY,1,1 155 1180
SPMM,0,1,0 155 1179
SPMM,1,1,0 155 1178
SPMM,2,1,0 155 1177
SPMM,3,1,0 155 1176
SPMM,4,1,0 155 1175
SPMM,5,1,0 155 1174
SPMM,6,1,0 155 1173
SPMM,7,1,0 155 1172
DLACPY,0,1 155 1171
SPMM,0,0,0 155 1170
SPMM,1,0,0 155 1169
SPMM,5,0,0 155 1168
SPMM,16,7,0 157 1167
SPMM,17,7,0 157 1166
SPMM,18,7,0 157 1165
SPMM,19,7,0 157 1164
SPMM,20,7,0 157 1163
SPMM,21,7,0 157 1162
SPMM,22,7,0 157 1161
SPMM,23,7,0 157 1160
UPDATE,0,1 159 1159
XTY,0,0,4 159 1158
UPDATE,1,1 159 1157
XTY,1,1,4 159 1156
UPDATE,2,1 159 1155
XTY,2,2,4 159 1154
UPDATE,3,1 159 1153
XTY,3,3,4 159 1152
UPDATE,4,1 159 1151
XTY,4,4,4 159 1150
UPDATE,5,1 159 1149
XTY,5,5,4 159 1148
UPDATE,6,1 159 1147
XTY,6,6,4 159 1146
UPDATE,7,1 159 1145
XTY,7,7,4 159 1144
XY,8,3 141 1143
XY,9,3 141 1142
XY,10,3 141 1141
XY,11,3 141 1140
XY,12,3 141 1139
XY,13,3 141 1138
XY,14,3 141 1137
XY,15,3 141 1136
XY,16,3 160 1135
XY,17,3 160 1134
XY,18,3 160 1133
XY,19,3 160 1132
XY,20,3 160 1131
XY,21,3 160 1130
XY,22,3 160 1129
XY,23,3 160 1128
DLACPY,23,1 166 1127
SPMM,16,23,0 166 1126
SPMM,17,23,0 166 1125
SPMM,18,23,0 166 1124
SPMM,19,23,0 166 1123
SPMM,20,23,0 166 1122
SPMM,21,23,0 166 1121
SPMM,22,23,0 166 1120
SPMM,23,23,0 166 1119
DLACPY,22,1 166 1118
SPMM,16,22,0 166 1117
SPMM,17,22,0 166 1116
SPMM,18,22,0 166 1115
SPMM,19,22,0 166 1114
SPMM,20,22,0 166 1113
SPMM,21,22,0 166 1112
SPMM,22,22,0 166 1111
SPMM,23,22,0 166 1110
DLACPY,21,1 166 1109
SPMM,16,21,0 166 1108
SPMM,17,21,0 166 1107
SPMM,18,21,0 166 1106
SPMM,19,21,0 166 1105
SPMM,20,21,0 166 1104
SPMM,21,21,0 166 1103
SPMM,22,21,0 166 1102
SPMM,23,21,0 166 1101
DLACPY,20,1 166 1100
SPMM,16,20,0 166 1099
SPMM,17,20,0 166 1098
SPMM,18,20,0 166 1097
SPMM,19,20,0 166 1096
SPMM,20,20,0 166 1095
SPMM,21,20,0 166 1094
SPMM,22,20,0 166 1093
SPMM,23,20,0 166 1092
DLACPY,19,1 166 1091
SPMM,16,19,0 166 1090
SPMM,17,19,0 166 1089
SPMM,18,19,0 166 1088
SPMM,19,19,0 166 1087
SPMM,20,19,0 166 1086
SPMM,21,19,0 166 1085
SPMM,22,19,0 166 1084
SPMM,23,19,0 166 1083
DLACPY,18,1 166 1082
SPMM,16,18,0 166 1081
SPMM,17,18,0 166 1080
SPMM,18,18,0 166 1079
SPMM,19,18,0 166 1078
SPMM,20,18,0 166 1077
SPMM,21,18,0 166 1076
SPMM,22,18,0 166 1075
SPMM,23,18,0 166 1074
DLACPY,17,1 166 1073
SPMM,16,17,0 166 1072
SPMM,17,17,0 166 1071
SPMM,18,17,0 166 1070
SPMM,19,17,0 166 1069
SPMM,20,17,0 166 1068
SPMM,21,17,0 166 1067
SPMM,22,17,0 166 1066
SPMM,23,17,0 166 1065
DLACPY,16,1 166 1064
SPMM,16,16,0 166 1063
SPMM,17,16,0 166 1062
SPMM,18,16,0 166 1061
SPMM,19,16,0 166 1060
SPMM,20,16,0 166 1059
SPMM,21,16,0 166 1058
SPMM,22,16,0 166 1057
SPMM,23,16,0 166 1056
SETZERO,25,1 199 1055
SPMM,25,16,0 199 1054
SPMM,25,17,0 199 1053
SPMM,25,18,0 199 1052
SPMM,25,19,0 199 1051
SPMM,25,20,0 199 1050
SPMM,25,21,0 199 1049
SPMM,25,22,0 199 1048
SPMM,25,23,0 199 1047
SETZERO,24,1 199 1046
SPMM,24,16,0 199 1045
SPMM,24,17,0 199 1044
SPMM,24,18,0 199 1043
SPMM,24,19,0 199 1042
SPMM,24,20,0 199 1041
SPMM,24,21,0 199 1040
SPMM,24,22,0 199 1039
SPMM,24,23,0 199 1038
SPMM,24,7,0 201 1037
SPMM,25,7,0 201 1036
XY,24,3 139 1035
XY,25,3 139 1034
GET,8,2 74 1033
XTY,8,8,3 74 1032
GET,9,2 74 1031
XTY,9,9,3 74 1030
GET,10,2 74 1029
XTY,10,10,3 74 1028
GET,11,2 74 1027
XTY,11,11,3 74 1026
GET,12,2 74 1025
XTY,12,12,3 74 1024
GET,13,2 74 1023
XTY,13,13,3 74 1022
GET,14,2 74 1021
XTY,14,14,3 74 1020
GET,15,2 74 1019
XTY,15,15,3 74 1018
_AP,15 47 1017
GET,15,3 47 1016
_AP,14 47 1015
GET,14,3 47 1014
_AP,13 47 1013
GET,13,3 47 1012
_AP,12 47 1011
GET,12,3 47 1010
_AP,11 47 1009
GET,11,3 47 1008
_AP,10 47 1007
GET,10,3 47 1006
_AP,9 47 1005
GET,9,3 47 1004
_AP,8 47 1003
GET,8,3 47 1002
_AP,25 69 1001
GET,25,3 69 1000
_AP,24 69 999
GET,24,3 69 998
_AP,23 1 997
_AP,22 1 996
_AP,21 1 995
_AP,20 1 994
_AP,19 1 993
_AP,18 1 992
_AP,17 1 991
_AP,16 1 990
GET,16,3 55 989
GET,17,3 55 988
GET,18,3 55 987
GET,19,3 55 986
GET,20,3 55 985
GET,21,3 55 984
GET,22,3 55 983
GET,23,3 55 982
_P,25 0 981
_P,24 0 980
_P,7 0 979
_P,6 0 978
_P,5 0 977
_P,4 0 976
_P,3 0 975
_P,2 0 974
_P,1 0 973
_P,0 0 972
GET,24,2 77 971
XTY,24,4,3 77 970
GET,25,2 77 969
XTY,25,5,3 77 968
GET,0,2 71 967
XTY,0,0,3 71 966
GET,1,2 71 965
XTY,1,1,3 71 964
GET,2,2 71 963
XTY,2,2,3 71 962
GET,3,2 71 961
XTY,3,3,3 71 960
GET,4,2 71 959
XTY,4,4,3 71 958
GET,5,2 71 957
XTY,5,5,3 71 956
GET,6,2 71 955
XTY,6,6,3 71 954
GET,7,2 71 953
XTY,7,7,3 71 952
GET,16,2 78 951
XTY,16,16,3 78 950
GET,17,2 78 949
XTY,17,17,3 78 948
GET,18,2 78 947
XTY,18,18,3 78 946
GET,19,2 78 945
XTY,19,19,3 78 944
GET,20,2 78 943
XTY,20,0,3 78 942
GET,21,2 78 941
XTY,21,1,3 78 940
GET,22,2 78 939
XTY,22,2,3 78 938
GET,23,2 78 937
XTY,23,3,3 78 936
RED,PBPBUF,0 78 935
CHOL,PBP 79 934
INV,PBP 85 933
XY,16,4 85 932
XY,17,4 85 931
XY,18,4 85 930
XY,19,4 85 929
XY,20,4 85 928
XY,21,4 85 927
XY,22,4 85 926
XY,23,4 85 925
XY,8,5 85 924
XY,9,5 85 923
XY,10,5 85 922
XY,11,5 85 921
XY,12,5 85 920
XY,13,5 85 919
XY,14,5 85 918
XY,15,5 85 917
DLACPY,15,3 92 916
DLACPY,14,3 92 915
DLACPY,13,3 92 914
DLACPY,12,3 92 913
DLACPY,11,3 92 912
DLACPY,10,3 92 911
DLACPY,9,3 92 910
DLACPY,8,3 92 909
UPDATE,8,3 94 908
UPDATE,9,3 94 907
UPDATE,10,3 94 906
UPDATE,11,3 94 905
UPDATE,12,3 94 904
UPDATE,13,3 94 903
UPDATE,14,3 94 902
UPDATE,15,3 94 901
XY,0,4 87 900
XY,1,4 87 899
XY,2,4 87 898
XY,3,4 87 897
XY,4,4 87 896
XY,5,4 87 895
XY,6,4 87 894
XY,7,4 87 893
DLACPY,7,2 100 892
XTY,7,7,6 100 891
DLACPY,6,2 100 890
XTY,6,6,6 100 889
DLACPY,5,2 100 888
XTY,5,5,6 100 887
DLACPY,4,2 100 886
XTY,4,4,6 100 885
DLACPY,3,2 100 884
XTY,3,3,6 100 883
DLACPY,2,2 100 882
XTY,2,2,6 100 881
DLACPY,1,2 100 880
XTY,1,1,6 100 879
DLACPY,0,2 100 878
XTY,0,0,6 100 877
UPDATE,0,2 102 876
UPDATE,1,2 102 875
UPDATE,2,2 102 874
UPDATE,3,2 102 873
UPDATE,4,2 102 872
UPDATE,5,2 102 871
UPDATE,6,2 102 870
UPDATE,7,2 102 869
XTY,0,0,9 101 868
XTY,1,1,9 101 867
XTY,2,2,9 101 866
XTY,3,3,9 101 865
XTY,4,4,9 101 864
XTY,5,5,9 101 863
XTY,6,6,9 101 862
XTY,7,7,9 101 861
XTY,0,0,10 158 860
XTY,1,1,10 158 859
XTY,2,2,10 158 858
XTY,3,3,10 158 857
XTY,4,4,10 158 856
XTY,5,5,10 158 855
XTY,6,6,10 158 854
XTY,7,7,10 158 853
XY,8,4 90 852
XY,9,4 90 851
XY,10,4 90 850
XY,11,4 90 849
XY,12,4 90 848
XY,13,4 90 847
XY,14,4 90 846
XY,15,4 90 845
DLACPY,15,2 126 844
XTY,15,15,6 126 843
DLACPY,14,2 126 842
XTY,14,14,6 126 841
DLACPY,13,2 126 840
XTY,13,13,6 126 839
DLACPY,12,2 126 838
XTY,12,12,6 126 837
DLACPY,11,2 126 836
XTY,11,11,6 126 835
DLACPY,10,2 126 834
XTY,10,10,6 126 833
DLACPY,9,2 126 832
XTY,9,9,6 126 831
DLACPY,8,2 126 830
XTY,8,8,6 126 829
UPDATE,8,2 127 828
UPDATE,9,2 127 827
UPDATE,10,2 127 826
UPDATE,11,2 127 825
UPDATE,12,2 127 824
UPDATE,13,2 127 823
UPDATE,14,2 127 822
UPDATE,15,2 127 821
XTY,8,8,9 128 820
XTY,9,9,9 128 819
XTY,10,10,9 128 818
XTY,11,11,9 128 817
XTY,12,12,9 128 816
XTY,13,13,9 128 815
XTY,14,14,9 128 814
XTY,15,15,9 128 813
XY,24,4 91 812
XY,25,4 91 811
DLACPY,25,2 108 810
XTY,25,5,9 108 809
DLACPY,24,2 108 808
XTY,24,4,9 108 807
UPDATE,24,2 110 806
UPDATE,25,2 110 805
XTY,24,4,6 109 804
XTY,25,5,6 109 803
XY,0,5 89 802
XY,1,5 89 801
XY,2,5 89 800
XY,3,5 89 799
XY,4,5 89 798
XY,5,5 89 797
XY,6,5 89 796
XY,7,5 89 795
DLACPY,7,3 93 794
UPDATE,7,3 93 793
DLACPY,6,3 93 792
UPDATE,6,3 93 791
DLACPY,5,3 93 790
UPDATE,5,3 93 789
DLACPY,4,3 93 788
UPDATE,4,3 93 787
DLACPY,3,3 93 786
UPDATE,3,3 93 785
DLACPY,2,3 93 784
UPDATE,2,3 93 783
DLACPY,1,3 93 782
UPDATE,1,3 93 781
DLACPY,0,3 93 780
UPDATE,0,3 93 779
XTY,0,0,8 113 778
XTY,1,1,8 113 777
XTY,2,2,8 113 776
XTY,3,3,8 113 775
XTY,4,4,8 113 774
XTY,5,5,8 113 773
XTY,6,6,8 113 772
XTY,7,7,8 113 771
XY,16,5 86 770
XY,17,5 86 769
XY,18,5 86 768
XY,19,5 86 767
XY,20,5 86 766
XY,21,5 86 765
XY,22,5 86 764
XY,23,5 86 763
DLACPY,23,3 95 762
UPDATE,23,3 95 761
DLACPY,22,3 95 760
UPDATE,22,3 95 759
DLACPY,21,3 95 758
UPDATE,21,3 95 757
DLACPY,20,3 95 756
UPDATE,20,3 95 755
DLACPY,19,3 95 754
UPDATE,19,3 95 753
DLACPY,18,3 95 752
UPDATE,18,3 95 751
DLACPY,17,3 95 750
UPDATE,17,3 95 749
DLACPY,16,3 95 748
UPDATE,16,3 95 747
DLACPY,23,2 119 746
XTY,23,3,6 119 745
XTY,23,3,8 119 744
XTY,23,3,9 119 743
DLACPY,22,2 119 742
XTY,22,2,6 119 741
XTY,22,2,8 119 740
XTY,22,2,9 119 739
DLACPY,21,2 119 738
XTY,21,1,6 119 737
XTY,21,1,8 119 736
XTY,21,1,9 119 735
DLACPY,20,2 119 734
XTY,20,0,6 119 733
XTY,20,0,8 119 732
XTY,20,0,9 119 731
DLACPY,19,2 119 730
XTY,19,19,6 119 729
XTY,19,19,8 119 728
XTY,19,19,9 119 727
DLACPY,18,2 119 726
XTY,18,18,6 119 725
XTY,18,18,8 119 724
XTY,18,18,9 119 723
DLACPY,17,2 119 722
XTY,17,17,6 119 721
XTY,17,17,8 119 720
XTY,17,17,9 119 719
DLACPY,16,2 119 718
XTY,16,16,6 119 717
XTY,16,16,8 119 716
XTY,16,16,9 119 715
UPDATE,16,2 120 714
UPDATE,17,2 120 713
UPDATE,18,2 120 712
UPDATE,19,2 120 711
UPDATE,20,2 120 710
UPDATE,21,2 120 709
UPDATE,22,2 120 708
UPDATE,23,2 120 707
XY,24,5 88 706
XY,25,5 88 705
DLACPY,25,3 111 704
UPDATE,25,3 111 703
DLACPY,24,3 111 702
UPDATE,24,3 111 701
XTY,24,4,8 112 700
XTY,25,5,8 112 699
XTY,8,8,8 129 698
XTY,9,9,8 129 697
XTY,10,10,8 129 696
XTY,11,11,8 129 695
XTY,12,12,8 129 694
XTY,13,13,8 129 693
XTY,14,14,8 129 692
XTY,15,15,8 129 691
RED,PAPBUF,0 129 690
SPEUPDATE,PAP 130 689
RED,XBPBUF,0 130 688
SETZERO,15,1 130 687
SETZERO,14,1 130 686
SETZERO,13,1 130 685
SETZERO,12,1 130 684
SETZERO,11,1 130 683
SETZERO,10,1 130 682
SETZERO,9,1 130 681
SETZERO,8,1 130 680
SPMM,8,7,0 156 679
SPMM,9,0,0 156 678
SPMM,9,1,0 156 677
SPMM,9,2,0 156 676
SPMM,9,7,0 156 675
SPMM,10,0,0 156 674
SPMM,10,1,0 156 673
SPMM,10,2,0 156 672
SPMM,10,7,0 156 671
SPMM,11,7,0 156 670
SPMM,12,0,0 156 669
SPMM,12,1,0 156 668
SPMM,12,2,0 156 667
SPMM,12,7,0 156 666
SPMM,13,0,0 156 665
SPMM,13,1,0 156 664
SPMM,13,2,0 156 663
SPMM,13,7,0 156 662
SPMM,14,7,0 156 661
SPMM,15,7,0 156 660
SPMM,8,16,0 167 659
SPMM,8,17,0 167 658
SPMM,8,18,0 167 657
SPMM,8,19,0 167 656
SPMM,8,20,0 167 655
SPMM,8,21,0 167 654
SPMM,8,22,0 167 653
SPMM,8,23,0 167 652
SPMM,9,16,0 167 651
SPMM,9,17,0 167 650
SPMM,9,18,0 167 649
SPMM,9,19,0 167 648
SPMM,9,20,0 167 647
SPMM,9,21,0 167 646
SPMM,9,22,0 167 645
SPMM,9,23,0 167 644
SPMM,10,16,0 167 643
SPMM,10,17,0 167 642
SPMM,10,18,0 167 641
SPMM,10,19,0 167 640
SPMM,10,20,0 167 639
SPMM,10,21,0 167 638
SPMM,10,22,0 167 637
SPMM,10,23,0 167 636
SPMM,11,16,0 167 635
SPMM,11,17,0 167 634
SPMM,11,18,0 167 633
SPMM,11,19,0 167 632
SPMM,11,20,0 167 631
SPMM,11,21,0 167 630
SPMM,11,22,0 167 629
SPMM,11,23,0 167 628
SPMM,12,16,0 167 627
SPMM,12,17,0 167 626
SPMM,12,18,0 167 625
SPMM,12,19,0 167 624
SPMM,12,20,0 167 623
SPMM,12,21,0 167 622
SPMM,12,22,0 167 621
SPMM,12,23,0 167 620
SPMM,13,16,0 167 619
SPMM,13,17,0 167 618
SPMM,13,18,0 167 617
SPMM,13,19,0 167 616
SPMM,13,20,0 167 615
SPMM,13,21,0 167 614
SPMM,13,22,0 167 613
SPMM,13,23,0 167 612
SPMM,14,16,0 167 611
SPMM,14,17,0 167 610
SPMM,14,18,0 167 609
SPMM,14,19,0 167 608
SPMM,14,20,0 167 607
SPMM,14,21,0 167 606
SPMM,14,22,0 167 605
SPMM,14,23,0 167 604
SPMM,15,16,0 167 603
SPMM,15,17,0 167 602
SPMM,15,18,0 167 601
SPMM,15,19,0 167 600
SPMM,15,20,0 167 599
SPMM,15,21,0 167 598
SPMM,15,22,0 167 597
SPMM,15,23,0 167 596
RED,XAPBUF,0 167 595
UPDATE,16,1 167 594
UPDATE,17,1 167 593
UPDATE,18,1 167 592
UPDATE,19,1 167 591
UPDATE,20,1 167 590
UPDATE,21,1 167 589
UPDATE,22,1 167 588
UPDATE,23,1 167 587
DLACPY,25,1 147 586
SPMM,8,25,0 147 585
SPMM,9,25,0 147 584
SPMM,10,25,0 147 583
SPMM,11,25,0 147 582
SPMM,12,25,0 147 581
SPMM,13,25,0 147 580
SPMM,14,25,0 147 579
SPMM,15,25,0 147 578
SPMM,16,25,0 147 577
SPMM,17,25,0 147 576
SPMM,18,25,0 147 575
SPMM,19,25,0 147 574
SPMM,20,25,0 147 573
SPMM,21,25,0 147 572
SPMM,22,25,0 147 571
SPMM,23,25,0 147 570
DLACPY,24,1 147 569
SPMM,8,24,0 147 568
SPMM,9,24,0 147 567
SPMM,10,24,0 147 566
SPMM,11,24,0 147 565
SPMM,12,24,0 147 564
SPMM,13,24,0 147 563
SPMM,14,24,0 147 562
SPMM,15,24,0 147 561
SPMM,16,24,0 147 560
SPMM,17,24,0 147 559
SPMM,18,24,0 147 558
SPMM,19,24,0 147 557
SPMM,20,24,0 147 556
SPMM,21,24,0 147 555
SPMM,22,24,0 147 554
SPMM,23,24,0 147 553
DLACPY,15,1 173 552
SPMM,8,15,0 173 551
SPMM,9,15,0 173 550
SPMM,10,15,0 173 549
SPMM,11,15,0 173 548
SPMM,12,15,0 173 547
SPMM,13,15,0 173 546
SPMM,14,15,0 173 545
SPMM,15,15,0 173 544
DLACPY,14,1 173 543
SPMM,8,14,0 173 542
SPMM,9,14,0 173 541
SPMM,10,14,0 173 540
SPMM,11,14,0 173 539
SPMM,12,14,0 173 538
SPMM,13,14,0 173 537
SPMM,14,14,0 173 536
SPMM,15,14,0 173 535
DLACPY,13,1 173 534
SPMM,8,13,0 173 533
SPMM,9,13,0 173 532
SPMM,10,13,0 173 531
SPMM,11,13,0 173 530
SPMM,12,13,0 173 529
SPMM,13,13,0 173 528
SPMM,14,13,0 173 527
SPMM,15,13,0 173 526
DLACPY,12,1 173 525
SPMM,8,12,0 173 524
SPMM,9,12,0 173 523
SPMM,10,12,0 173 522
SPMM,11,12,0 173 521
SPMM,12,12,0 173 520
SPMM,13,12,0 173 519
SPMM,14,12,0 173 518
SPMM,15,12,0 173 517
DLACPY,11,1 173 516
SPMM,8,11,0 173 515
SPMM,9,11,0 173 514
SPMM,10,11,0 173 513
SPMM,11,11,0 173 512
SPMM,12,11,0 173 511
SPMM,13,11,0 173 510
SPMM,14,11,0 173 509
SPMM,15,11,0 173 508
DLACPY,10,1 173 507
SPMM,9,10,0 173 506
SPMM,10,10,0 173 505
SPMM,11,10,0 173 504
SPMM,12,10,0 173 503
SPMM,13,10,0 173 502
SPMM,14,10,0 173 501
SPMM,15,10,0 173 500
DLACPY,9,1 173 499
SPMM,8,9,0 173 498
SPMM,9,9,0 173 497
SPMM,10,9,0 173 496
XTY,10,10,5 173 495
SPMM,11,9,0 173 494
SPMM,12,9,0 173 493
SPMM,13,9,0 173 492
SPMM,14,9,0 173 491
SPMM,15,9,0 173 490
DLACPY,8,1 173 489
SPMM,8,8,0 173 488
XTY,8,8,5 173 487
SPMM,9,8,0 173 486
XTY,9,9,5 173 485
SPMM,11,8,0 173 484
XTY,11,11,5 173 483
SPMM,12,8,0 173 482
XTY,12,12,5 173 481
SPMM,13,8,0 173 480
XTY,13,13,5 173 479
SPMM,14,8,0 173 478
XTY,14,14,5 173 477
SPMM,15,8,0 173 476
XTY,15,15,5 173 475
XTY,15,15,7 195 474
XTY,14,14,7 195 473
XTY,13,13,7 195 472
XTY,12,12,7 195 471
XTY,11,11,7 195 470
XTY,9,9,7 195 469
XTY,8,8,7 195 468
XTY,10,10,7 195 467
SPMM,7,8,0 184 466
SPMM,0,9,0 184 465
SPMM,1,9,0 184 464
SPMM,2,9,0 184 463
SPMM,7,9,0 184 462
SPMM,0,10,0 184 461
SPMM,1,10,0 184 460
SPMM,2,10,0 184 459
SPMM,7,10,0 184 458
SPMM,7,11,0 184 457
SPMM,0,12,0 184 456
SPMM,1,12,0 184 455
SPMM,2,12,0 184 454
SPMM,7,12,0 184 453
SPMM,0,13,0 184 452
SPMM,1,13,0 184 451
SPMM,2,13,0 184 450
SPMM,7,13,0 184 449
SPMM,7,14,0 184 448
SPMM,7,15,0 184 447
SPMM,16,8,0 181 446
SPMM,17,8,0 181 445
SPMM,18,8,0 181 444
SPMM,19,8,0 181 443
SPMM,20,8,0 181 442
SPMM,21,8,0 181 441
SPMM,22,8,0 181 440
SPMM,23,8,0 181 439
SPMM,16,9,0 181 438
SPMM,17,9,0 181 437
SPMM,18,9,0 181 436
SPMM,19,9,0 181 435
SPMM,20,9,0 181 434
SPMM,21,9,0 181 433
SPMM,22,9,0 181 432
SPMM,23,9,0 181 431
SPMM,16,10,0 181 430
SPMM,17,10,0 181 429
SPMM,18,10,0 181 428
SPMM,19,10,0 181 427
SPMM,20,10,0 181 426
SPMM,21,10,0 181 425
SPMM,22,10,0 181 424
SPMM,23,10,0 181 423
SPMM,16,11,0 181 422
SPMM,17,11,0 181 421
SPMM,18,11,0 181 420
SPMM,19,11,0 181 419
SPMM,20,11,0 181 418
SPMM,21,11,0 181 417
SPMM,22,11,0 181 416
SPMM,23,11,0 181 415
SPMM,16,12,0 181 414
SPMM,17,12,0 181 413
SPMM,18,12,0 181 412
SPMM,19,12,0 181 411
SPMM,20,12,0 181 410
SPMM,21,12,0 181 409
SPMM,22,12,0 181 408
SPMM,23,12,0 181 407
SPMM,16,13,0 181 406
SPMM,17,13,0 181 405
SPMM,18,13,0 181 404
SPMM,19,13,0 181 403
SPMM,20,13,0 181 402
SPMM,21,13,0 181 401
SPMM,22,13,0 181 400
SPMM,23,13,0 181 399
SPMM,16,14,0 181 398
SPMM,17,14,0 181 397
SPMM,18,14,0 181 396
SPMM,19,14,0 181 395
SPMM,20,14,0 181 394
SPMM,21,14,0 181 393
SPMM,22,14,0 181 392
SPMM,23,14,0 181 391
SPMM,16,15,0 181 390
XTY,16,16,7 181 389
SPMM,17,15,0 181 388
XTY,17,17,7 181 387
SPMM,18,15,0 181 386
XTY,18,18,7 181 385
SPMM,19,15,0 181 384
XTY,19,19,7 181 383
SPMM,20,15,0 181 382
XTY,20,0,7 181 381
SPMM,21,15,0 181 380
XTY,21,1,7 181 379
SPMM,22,15,0 181 378
XTY,22,2,7 181 377
SPMM,23,15,0 181 376
XTY,23,3,7 181 375
XTY,23,3,5 194 374
XTY,22,2,5 194 373
XTY,21,1,5 194 372
XTY,20,0,5 194 371
XTY,19,19,5 194 370
XTY,18,18,5 194 369
XTY,17,17,5 194 368
XTY,16,16,5 194 367
UPDATE,8,1 174 366
UPDATE,9,1 174 365
UPDATE,10,1 174 364
UPDATE,11,1 174 363
UPDATE,12,1 174 362
UPDATE,13,1 174 361
UPDATE,14,1 174 360
UPDATE,15,1 174 359
XTY,8,8,4 175 358
XTY,9,9,4 175 357
XTY,10,10,4 175 356
XTY,11,11,4 175 355
XTY,12,12,4 175 354
XTY,13,13,4 175 353
XTY,14,14,4 175 352
XTY,15,15,4 175 351
XTY,8,8,10 182 350
XTY,9,9,10 182 349
XTY,10,10,10 182 348
XTY,11,11,10 182 347
XTY,12,12,10 182 346
XTY,13,13,10 182 345
XTY,14,14,10 182 344
XTY,15,15,10 182 343
SPMM,7,24,0 148 342
SPMM,7,25,0 148 341
XTY,2,2,7 191 340
XTY,1,1,7 191 339
XTY,0,0,7 191 338
XTY,3,3,7 191 337
XTY,4,4,7 191 336
XTY,5,5,7 191 335
XTY,6,6,7 191 334
SPMM,7,16,0 191 333
SPMM,7,17,0 191 332
SPMM,7,18,0 191 331
SPMM,7,19,0 191 330
SPMM,7,20,0 191 329
SPMM,7,21,0 191 328
SPMM,7,22,0 191 327
SPMM,7,23,0 191 326
XTY,7,7,7 191 325
XTY,7,7,5 192 324
XTY,2,2,5 192 323
XTY,1,1,5 192 322
XTY,0,0,5 192 321
XTY,5,5,5 192 320
XTY,6,6,5 192 319
XTY,4,4,5 192 318
XTY,3,3,5 192 317
SPMM,24,24,0 200 316
SPMM,25,24,0 200 315
SPMM,24,25,0 200 314
SPMM,25,25,0 200 313
SPMM,24,8,0 207 312
SPMM,25,8,0 207 311
SPMM,24,9,0 207 310
SPMM,25,9,0 207 309
SPMM,24,10,0 207 308
SPMM,25,10,0 207 307
SPMM,24,11,0 207 306
SPMM,25,11,0 207 305
SPMM,24,12,0 207 304
SPMM,25,12,0 207 303
SPMM,24,13,0 207 302
SPMM,25,13,0 207 301
SPMM,24,14,0 207 300
SPMM,25,14,0 207 299
SPMM,24,15,0 207 298
XTY,24,4,7 207 297
SPMM,25,15,0 207 296
XTY,25,5,7 207 295
XTY,25,5,5 208 294
XTY,24,4,5 208 293
XTY,24,4,4 149 292
XTY,25,5,4 149 291
XTY,16,16,4 185 290
XTY,17,17,4 185 289
XTY,18,18,4 185 288
XTY,19,19,4 185 287
XTY,20,0,4 185 286
XTY,21,1,4 185 285
XTY,22,2,4 185 284
XTY,23,3,4 185 283
RED,XARBUF,0 185 282
CONSTRUCTGA1 185 281
UPDATE,24,1 150 280
XTY,24,4,10 150 279
UPDATE,25,1 150 278
XTY,25,5,10 150 277
XTY,16,16,10 183 276
XTY,17,17,10 183 275
XTY,18,18,10 183 274
XTY,19,19,10 183 273
XTY,20,0,10 183 272
XTY,21,1,10 183 271
XTY,22,2,10 183 270
XTY,23,3,10 183 269
RED,RBPBUF,0 183 268
CONSTRUCTGB 193 267
RED,RARBUF,0 209 266
TRANS,RAR 209 265
SPEUPDATE,RAR 209 264
RED,RAPBUF,0 209 263
CONSTRUCTGA2 209 262
EIGEN 209 261
XY,0,6 235 260
XY,1,6 235 259
XY,2,6 235 258
XY,3,6 235 257
XY,4,6 235 256
XY,5,6 235 255
XY,6,6 235 254
XY,7,6 235 253
XY,0,7 241 252
ADD,0,1 241 251
XY,1,7 241 250
ADD,1,1 241 249
XY,2,7 241 248
ADD,2,1 241 247
XY,3,7 241 246
ADD,3,1 241 245
XY,4,7 241 244
ADD,4,1 241 243
XY,5,7 241 242
ADD,5,1 241 241
XY,6,7 241 240
ADD,6,1 241 239
XY,7,7 241 238
ADD,7,1 241 237
XY,0,10 337 236
ADD,0,3 337 235
XY,1,10 337 234
ADD,1,3 337 233
XY,2,10 337 232
ADD,2,3 337 231
XY,3,10 337 230
ADD,3,3 337 229
XY,4,10 337 228
ADD,4,3 337 227
XY,5,10 337 226
ADD,5,3 337 225
XY,6,10 337 224
ADD,6,3 337 223
XY,7,10 337 222
ADD,7,3 337 221
XY,8,6 224 220
XY,9,6 224 219
XY,10,6 224 218
XY,11,6 224 217
XY,12,6 224 216
XY,13,6 224 215
XY,14,6 224 214
XY,15,6 224 213
XY,8,7 330 212
ADD,8,1 330 211
XY,9,7 330 210
ADD,9,1 330 209
XY,10,7 330 208
ADD,10,1 330 207
XY,11,7 330 206
ADD,11,1 330 205
XY,12,7 330 204
ADD,12,1 330 203
XY,13,7 330 202
ADD,13,1 330 201
XY,14,7 330 200
ADD,14,1 330 199
XY,15,7 330 198
ADD,15,1 330 197
XY,16,6 219 196
XY,17,6 219 195
XY,18,6 219 194
XY,19,6 219 193
XY,20,6 219 192
XY,21,6 219 191
XY,22,6 219 190
XY,23,6 219 189
XY,16,7 229 188
XY,17,7 229 187
XY,18,7 229 186
XY,19,7 229 185
XY,20,7 229 184
XY,21,7 229 183
XY,22,7 229 182
XY,23,7 229 181
ADD,23,1 293 180
ADD,22,1 293 179
ADD,21,1 293 178
ADD,20,1 293 177
ADD,19,1 293 176
ADD,18,1 293 175
ADD,17,1 293 174
ADD,16,1 293 173
XY,16,10 312 172
ADD,16,3 312 171
XY,17,10 312 170
ADD,17,3 312 169
XY,18,10 312 168
ADD,18,3 312 167
XY,19,10 312 166
ADD,19,3 312 165
XY,20,10 312 164
ADD,20,3 312 163
XY,21,10 312 162
ADD,21,3 312 161
XY,22,10 312 160
ADD,22,3 312 159
XY,23,10 312 158
ADD,23,3 312 157
XY,24,7 214 156
XY,25,7 214 155
XY,24,6 253 154
ADD,24,1 253 153
XY,25,6 253 152
ADD,25,1 253 151
XY,24,10 343 150
ADD,24,3 343 149
XY,25,10 343 148
ADD,25,3 343 147
XY,0,8 294 146
XY,1,8 294 145
XY,2,8 294 144
XY,3,8 294 143
XY,4,8 294 142
XY,5,8 294 141
XY,6,8 294 140
XY,7,8 294 139
XY,8,8 344 138
XY,9,8 344 137
XY,10,8 344 136
XY,11,8 344 135
XY,12,8 344 134
XY,13,8 344 133
XY,14,8 344 132
XY,15,8 344 131
XY,0,9 292 130
XY,1,9 292 129
XY,2,9 292 128
XY,3,9 292 127
XY,4,9 292 126
XY,5,9 292 125
XY,6,9 292 124
XY,7,9 292 123
XY,8,9 287 122
XY,9,9 287 121
XY,10,9 287 120
XY,11,9 287 119
XY,12,9 287 118
XY,13,9 287 117
XY,14,9 287 116
XY,15,9 287 115
XY,16,9 270 114
XY,17,9 270 113
XY,18,9 270 112
XY,19,9 270 111
XY,20,9 270 110
XY,21,9 270 109
XY,22,9 270 108
XY,23,9 270 107
XY,16,8 275 106
ADD,16,2 275 105
XY,17,8 275 104
ADD,17,2 275 103
XY,18,8 275 102
ADD,18,2 275 101
XY,19,8 275 100
ADD,19,2 275 99
XY,20,8 275 98
ADD,20,2 275 97
XY,21,8 275 96
ADD,21,2 275 95
XY,22,8 275 94
ADD,22,2 275 93
XY,23,8 275 92
ADD,23,2 275 91
XY,16,11 281 90
ADD,16,4 281 89
XY,17,11 281 88
ADD,17,4 281 87
XY,18,11 281 86
ADD,18,4 281 85
XY,19,11 281 84
ADD,19,4 281 83
XY,20,11 281 82
ADD,20,4 281 81
XY,21,11 281 80
ADD,21,4 281 79
XY,22,11 281 78
ADD,22,4 281 77
XY,23,11 281 76
ADD,23,4 281 75
XY,24,9 259 74
XY,25,9 259 73
XY,24,8 265 72
ADD,24,2 265 71
XY,25,8 265 70
ADD,25,2 265 69
XY,24,11 324 68
ADD,24,4 324 67
XY,25,11 324 66
ADD,25,4 324 65
XY,8,10 306 64
XY,9,10 306 63
XY,10,10 306 62
XY,11,10 306 61
XY,12,10 306 60
XY,13,10 306 59
XY,14,10 306 58
XY,15,10 306 57
ADD,15,3 331 56
ADD,14,3 331 55
ADD,13,3 331 54
ADD,12,3 331 53
ADD,11,3 331 52
ADD,10,3 331 51
ADD,9,3 331 50
ADD,8,3 331 49
XY,0,11 247 48
XY,1,11 247 47
XY,2,11 247 46
XY,3,11 247 45
XY,4,11 247 44
XY,5,11 247 43
XY,6,11 247 42
XY,7,11 247 41
ADD,7,2 300 40
ADD,7,4 300 39
ADD,6,2 300 38
ADD,6,4 300 37
ADD,5,2 300 36
ADD,5,4 300 35
ADD,4,2 300 34
ADD,4,4 300 33
ADD,3,2 300 32
ADD,3,4 300 31
ADD,2,2 300 30
ADD,2,4 300 29
ADD,1,2 300 28
ADD,1,4 300 27
ADD,0,2 300 26
ADD,0,4 300 25
XY,8,11 318 24
XY,9,11 318 23
XY,10,11 318 22
XY,11,11 318 21
XY,12,11 318 20
XY,13,11 318 19
XY,14,11 318 18
XY,15,11 318 17
ADD,15,2 350 16
ADD,15,4 350 15
ADD,14,2 350 14
ADD,14,4 350 13
ADD,13,2 350 12
ADD,13,4 350 11
ADD,12,2 350 10
ADD,12,4 350 9
ADD,11,2 350 8
ADD,11,4 350 7
ADD,10,2 350 6
ADD,10,4 350 5
ADD,9,2 350 4
ADD,9,4 350 3
ADD,8,2 350 2
ADD,8,4 350 1
