SETZERO,31,1 18 4729
SETZERO,30,1 18 4728
SETZERO,29,1 18 4727
SETZERO,28,1 18 4726
SETZERO,27,1 18 4725
SETZERO,26,1 18 4724
SETZERO,25,1 18 4723
SETZERO,24,1 18 4722
SETZERO,15,1 18 4721
SETZERO,14,1 18 4720
SETZERO,13,1 18 4719
SETZERO,12,1 18 4718
SETZERO,11,1 18 4717
SETZERO,10,1 18 4716
SETZERO,9,1 18 4715
SETZERO,8,1 18 4714
_AX,23 18 4713
_AX,22 18 4712
_AX,21 18 4711
_AX,20 18 4710
_AX,19 18 4709
_AX,18 18 4708
_AX,17 18 4707
_AX,16 18 4706
SETZERO,111,1 11 4705
SETZERO,110,1 11 4704
SETZERO,109,1 11 4703
SETZERO,108,1 11 4702
SETZERO,107,1 11 4701
SETZERO,106,1 11 4700
SETZERO,105,1 11 4699
SETZERO,104,1 11 4698
SETZERO,47,1 11 4697
SETZERO,46,1 11 4696
SETZERO,45,1 11 4695
SETZERO,44,1 11 4694
SETZERO,43,1 11 4693
SETZERO,42,1 11 4692
SETZERO,41,1 11 4691
SETZERO,40,1 11 4690
_AX,95 11 4689
_AX,94 11 4688
_AX,93 11 4687
_AX,92 11 4686
_AX,91 11 4685
_AX,90 11 4684
_AX,89 11 4683
_AX,88 11 4682
_AX,55 11 4681
_AX,54 11 4680
_AX,53 11 4679
_AX,52 11 4678
_AX,51 11 4677
_AX,50 11 4676
_AX,49 11 4675
_AX,48 11 4674
SETZERO,122,1 10 4673
SETZERO,121,1 10 4672
SETZERO,120,1 10 4671
SETZERO,103,1 10 4670
SETZERO,102,1 10 4669
SETZERO,101,1 10 4668
SETZERO,100,1 10 4667
SETZERO,99,1 10 4666
SETZERO,98,1 10 4665
SETZERO,97,1 10 4664
SETZERO,96,1 10 4663
SETZERO,23,1 10 4662
SETZERO,22,1 10 4661
SETZERO,21,1 10 4660
SETZERO,20,1 10 4659
SETZERO,19,1 10 4658
SETZERO,18,1 10 4657
SETZERO,17,1 10 4656
SETZERO,16,1 10 4655
SETZERO,55,1 7 4654
SETZERO,54,1 7 4653
SETZERO,53,1 7 4652
SETZERO,52,1 7 4651
SETZERO,51,1 7 4650
SETZERO,50,1 7 4649
SETZERO,49,1 7 4648
SETZERO,48,1 7 4647
_AX,119 2 4646
_AX,118 2 4645
_AX,117 2 4644
_AX,116 2 4643
_AX,115 2 4642
_AX,114 2 4641
_AX,113 2 4640
_AX,112 2 4639
_X,95 2 4638
_X,94 2 4637
_X,93 2 4636
_X,92 2 4635
_X,91 2 4634
_X,90 2 4633
_X,89 2 4632
_X,88 2 4631
_AX,39 2 4630
_AX,38 2 4629
_AX,37 2 4628
_AX,36 2 4627
_AX,35 2 4626
_AX,34 2 4625
_AX,33 2 4624
_AX,32 2 4623
SETZERO,87,1 1 4622
SETZERO,86,1 1 4621
SETZERO,85,1 1 4620
SETZERO,84,1 1 4619
SETZERO,83,1 1 4618
SETZERO,82,1 1 4617
SETZERO,81,1 1 4616
SETZERO,80,1 1 4615
SETZERO,79,1 1 4614
SETZERO,78,1 1 4613
SETZERO,77,1 1 4612
SETZERO,76,1 1 4611
SETZERO,75,1 1 4610
SETZERO,74,1 1 4609
SETZERO,73,1 1 4608
SETZERO,72,1 1 4607
SETZERO,39,1 1 4606
SETZERO,38,1 1 4605
SETZERO,37,1 1 4604
SETZERO,36,1 1 4603
SETZERO,35,1 1 4602
SETZERO,34,1 1 4601
SETZERO,33,1 1 4600
SETZERO,32,1 1 4599
SETZERO,7,1 1 4598
SETZERO,6,1 1 4597
SETZERO,5,1 1 4596
SETZERO,4,1 1 4595
SETZERO,3,1 1 4594
SETZERO,2,1 1 4593
SETZERO,1,1 1 4592
SETZERO,0,1 1 4591
SETZERO,95,1 0 4590
SETZERO,94,1 0 4589
SETZERO,93,1 0 4588
SETZERO,92,1 0 4587
SETZERO,91,1 0 4586
SETZERO,90,1 0 4585
SETZERO,89,1 0 4584
SETZERO,88,1 0 4583
_X,119 0 4582
_X,118 0 4581
_X,117 0 4580
_X,116 0 4579
_X,115 0 4578
_X,114 0 4577
_X,113 0 4576
_X,112 0 4575
_X,15 0 4574
_X,14 0 4573
_X,13 0 4572
_X,12 0 4571
_X,11 0 4570
_X,10 0 4569
_X,9 0 4568
_X,8 0 4567
_lambda 3 4566
XY,112,1 3 4565
SUB,112,1 3 4564
XY,113,1 3 4563
SUB,113,1 3 4562
XY,114,1 3 4561
SUB,114,1 3 4560
XY,115,1 3 4559
SUB,115,1 3 4558
XY,116,1 3 4557
SUB,116,1 3 4556
XY,117,1 3 4555
SUB,117,1 3 4554
XY,118,1 3 4553
SUB,118,1 3 4552
XY,119,1 3 4551
SUB,119,1 3 4550
XY,8,1 5 4549
XY,9,1 5 4548
XY,10,1 5 4547
XY,11,1 5 4546
XY,12,1 5 4545
XY,13,1 5 4544
XY,14,1 5 4543
XY,15,1 5 4542
_AX,15 24 4541
SUB,15,1 24 4540
MULT,15 24 4539
_AX,14 24 4538
SUB,14,1 24 4537
MULT,14 24 4536
_AX,13 24 4535
SUB,13,1 24 4534
MULT,13 24 4533
_AX,12 24 4532
SUB,12,1 24 4531
MULT,12 24 4530
_AX,11 24 4529
SUB,11,1 24 4528
MULT,11 24 4527
_AX,10 24 4526
SUB,10,1 24 4525
MULT,10 24 4524
_AX,9 24 4523
SUB,9,1 24 4522
MULT,9 24 4521
_AX,8 24 4520
SUB,8,1 24 4519
MULT,8 24 4518
_X,23 19 4517
XY,23,1 19 4516
SUB,23,1 19 4515
MULT,23 19 4514
COL,23,3 19 4513
_X,22 19 4512
XY,22,1 19 4511
SUB,22,1 19 4510
MULT,22 19 4509
COL,22,2 19 4508
_X,21 19 4507
XY,21,1 19 4506
SUB,21,1 19 4505
MULT,21 19 4504
COL,21,1 19 4503
_X,20 19 4502
XY,20,1 19 4501
SUB,20,1 19 4500
MULT,20 19 4499
COL,20,0 19 4498
_X,19 19 4497
XY,19,1 19 4496
SUB,19,1 19 4495
MULT,19 19 4494
COL,19,19 19 4493
_X,18 19 4492
XY,18,1 19 4491
SUB,18,1 19 4490
MULT,18 19 4489
COL,18,18 19 4488
_X,17 19 4487
XY,17,1 19 4486
SUB,17,1 19 4485
MULT,17 19 4484
COL,17,17 19 4483
_X,16 19 4482
XY,16,1 19 4481
SUB,16,1 19 4480
MULT,16 19 4479
COL,16,16 19 4478
_X,39 21 4477
XY,39,1 21 4476
SUB,39,1 21 4475
MULT,39 21 4474
_X,38 21 4473
XY,38,1 21 4472
SUB,38,1 21 4471
MULT,38 21 4470
_X,37 21 4469
XY,37,1 21 4468
SUB,37,1 21 4467
MULT,37 21 4466
_X,36 21 4465
XY,36,1 21 4464
SUB,36,1 21 4463
MULT,36 21 4462
_X,35 21 4461
XY,35,1 21 4460
SUB,35,1 21 4459
MULT,35 21 4458
_X,34 21 4457
XY,34,1 21 4456
SUB,34,1 21 4455
MULT,34 21 4454
_X,33 21 4453
XY,33,1 21 4452
SUB,33,1 21 4451
MULT,33 21 4450
_X,32 21 4449
XY,32,1 21 4448
SUB,32,1 21 4447
MULT,32 21 4446
COL,32,12 26 4445
COL,33,13 26 4444
COL,34,14 26 4443
COL,35,15 26 4442
COL,36,16 26 4441
COL,37,17 26 4440
COL,38,18 26 4439
COL,39,19 26 4438
_X,71 26 4437
XY,71,1 26 4436
_X,70 26 4435
XY,70,1 26 4434
_X,69 26 4433
XY,69,1 26 4432
_X,68 26 4431
XY,68,1 26 4430
_X,67 26 4429
XY,67,1 26 4428
_X,66 26 4427
XY,66,1 26 4426
_X,65 26 4425
XY,65,1 26 4424
_X,64 26 4423
XY,64,1 26 4422
_AX,71 27 4421
SUB,71,1 27 4420
MULT,71 27 4419
_AX,70 27 4418
SUB,70,1 27 4417
MULT,70 27 4416
_AX,69 27 4415
SUB,69,1 27 4414
MULT,69 27 4413
_AX,68 27 4412
SUB,68,1 27 4411
MULT,68 27 4410
_AX,67 27 4409
SUB,67,1 27 4408
MULT,67 27 4407
_AX,66 27 4406
SUB,66,1 27 4405
MULT,66 27 4404
_AX,65 27 4403
SUB,65,1 27 4402
MULT,65 27 4401
_AX,64 27 4400
SUB,64,1 27 4399
MULT,64 27 4398
_AX,47 27 4397
_AX,46 27 4396
_AX,45 27 4395
_AX,44 27 4394
_AX,43 27 4393
_AX,42 27 4392
_AX,41 27 4391
_AX,40 27 4390
COL,64,4 28 4389
COL,65,5 28 4388
COL,66,6 28 4387
COL,67,7 28 4386
COL,68,8 28 4385
COL,69,9 28 4384
COL,70,10 28 4383
COL,71,11 28 4382
_X,7 28 4381
XY,7,1 28 4380
_X,6 28 4379
XY,6,1 28 4378
_X,5 28 4377
XY,5,1 28 4376
_X,4 28 4375
XY,4,1 28 4374
_X,3 28 4373
XY,3,1 28 4372
_X,2 28 4371
XY,2,1 28 4370
_X,1 28 4369
XY,1,1 28 4368
_X,0 28 4367
XY,0,1 28 4366
COL,8,8 31 4365
COL,9,9 31 4364
COL,10,10 31 4363
COL,11,11 31 4362
COL,12,12 31 4361
COL,13,13 31 4360
COL,14,14 31 4359
COL,15,15 31 4358
_AX,7 31 4357
SUB,7,1 31 4356
MULT,7 31 4355
_AX,6 31 4354
SUB,6,1 31 4353
MULT,6 31 4352
_AX,5 31 4351
SUB,5,1 31 4350
MULT,5 31 4349
_AX,4 31 4348
SUB,4,1 31 4347
MULT,4 31 4346
_AX,3 31 4345
SUB,3,1 31 4344
MULT,3 31 4343
_AX,2 31 4342
SUB,2,1 31 4341
MULT,2 31 4340
_AX,1 31 4339
SUB,1,1 31 4338
MULT,1 31 4337
_AX,0 31 4336
SUB,0,1 31 4335
MULT,0 31 4334
_X,47 29 4333
XY,47,1 29 4332
SUB,47,1 29 4331
MULT,47 29 4330
COL,47,7 29 4329
_X,46 29 4328
XY,46,1 29 4327
SUB,46,1 29 4326
MULT,46 29 4325
COL,46,6 29 4324
_X,45 29 4323
XY,45,1 29 4322
SUB,45,1 29 4321
MULT,45 29 4320
COL,45,5 29 4319
_X,44 29 4318
XY,44,1 29 4317
SUB,44,1 29 4316
MULT,44 29 4315
COL,44,4 29 4314
_X,43 29 4313
XY,43,1 29 4312
SUB,43,1 29 4311
MULT,43 29 4310
COL,43,3 29 4309
_X,42 29 4308
XY,42,1 29 4307
SUB,42,1 29 4306
MULT,42 29 4305
COL,42,2 29 4304
_X,41 29 4303
XY,41,1 29 4302
SUB,41,1 29 4301
MULT,41 29 4300
COL,41,1 29 4299
_X,40 29 4298
XY,40,1 29 4297
SUB,40,1 29 4296
MULT,40 29 4295
COL,40,0 29 4294
_X,55 13 4293
XY,55,1 13 4292
SUB,55,1 13 4291
MULT,55 13 4290
COL,55,15 13 4289
_X,54 13 4288
XY,54,1 13 4287
SUB,54,1 13 4286
MULT,54 13 4285
COL,54,14 13 4284
_X,53 13 4283
XY,53,1 13 4282
SUB,53,1 13 4281
MULT,53 13 4280
COL,53,13 13 4279
_X,52 13 4278
XY,52,1 13 4277
SUB,52,1 13 4276
MULT,52 13 4275
COL,52,12 13 4274
_X,51 13 4273
XY,51,1 13 4272
SUB,51,1 13 4271
MULT,51 13 4270
COL,51,11 13 4269
_X,50 13 4268
XY,50,1 13 4267
SUB,50,1 13 4266
MULT,50 13 4265
COL,50,10 13 4264
_X,49 13 4263
XY,49,1 13 4262
SUB,49,1 13 4261
MULT,49 13 4260
COL,49,9 13 4259
_X,48 13 4258
XY,48,1 13 4257
SUB,48,1 13 4256
MULT,48 13 4255
COL,48,8 13 4254
SETZERO,63,1 12 4253
SETZERO,62,1 12 4252
SETZERO,61,1 12 4251
SETZERO,60,1 12 4250
SETZERO,59,1 12 4249
SETZERO,58,1 12 4248
SETZERO,57,1 12 4247
SETZERO,56,1 12 4246
_X,79 12 4245
XY,79,1 12 4244
_X,78 12 4243
XY,78,1 12 4242
_X,77 12 4241
XY,77,1 12 4240
_X,76 12 4239
XY,76,1 12 4238
_X,75 12 4237
XY,75,1 12 4236
_X,74 12 4235
XY,74,1 12 4234
_X,73 12 4233
XY,73,1 12 4232
_X,72 12 4231
XY,72,1 12 4230
_AX,79 15 4229
SUB,79,1 15 4228
MULT,79 15 4227
COL,79,19 15 4226
_AX,78 15 4225
SUB,78,1 15 4224
MULT,78 15 4223
COL,78,18 15 4222
_AX,77 15 4221
SUB,77,1 15 4220
MULT,77 15 4219
COL,77,17 15 4218
_AX,76 15 4217
SUB,76,1 15 4216
MULT,76 15 4215
COL,76,16 15 4214
_AX,75 15 4213
SUB,75,1 15 4212
MULT,75 15 4211
COL,75,15 15 4210
_AX,74 15 4209
SUB,74,1 15 4208
MULT,74 15 4207
COL,74,14 15 4206
_AX,73 15 4205
SUB,73,1 15 4204
MULT,73 15 4203
COL,73,13 15 4202
_AX,72 15 4201
SUB,72,1 15 4200
MULT,72 15 4199
COL,72,12 15 4198
SETZERO,119,1 6 4197
SETZERO,118,1 6 4196
SETZERO,117,1 6 4195
SETZERO,116,1 6 4194
SETZERO,115,1 6 4193
SETZERO,114,1 6 4192
SETZERO,113,1 6 4191
SETZERO,112,1 6 4190
_X,122 6 4189
_X,121 6 4188
_X,120 6 4187
_X,87 6 4186
XY,87,1 6 4185
_X,86 6 4184
XY,86,1 6 4183
_X,85 6 4182
XY,85,1 6 4181
_X,84 6 4180
XY,84,1 6 4179
_X,83 6 4178
XY,83,1 6 4177
_X,82 6 4176
XY,82,1 6 4175
_X,81 6 4174
XY,81,1 6 4173
_X,80 6 4172
XY,80,1 6 4171
_AX,87 30 4170
SUB,87,1 30 4169
MULT,87 30 4168
COL,87,7 30 4167
_AX,86 30 4166
SUB,86,1 30 4165
MULT,86 30 4164
COL,86,6 30 4163
_AX,85 30 4162
SUB,85,1 30 4161
MULT,85 30 4160
COL,85,5 30 4159
_AX,84 30 4158
SUB,84,1 30 4157
MULT,84 30 4156
COL,84,4 30 4155
_AX,83 30 4154
SUB,83,1 30 4153
MULT,83 30 4152
COL,83,3 30 4151
_AX,82 30 4150
SUB,82,1 30 4149
MULT,82 30 4148
COL,82,2 30 4147
_AX,81 30 4146
SUB,81,1 30 4145
MULT,81 30 4144
COL,81,1 30 4143
_AX,80 30 4142
SUB,80,1 30 4141
MULT,80 30 4140
COL,80,0 30 4139
XY,120,1 8 4138
XY,121,1 8 4137
XY,122,1 8 4136
MULT,119 8 4135
COL,119,19 8 4134
MULT,118 8 4133
COL,118,18 8 4132
MULT,117 8 4131
COL,117,17 8 4130
MULT,116 8 4129
COL,116,16 8 4128
MULT,115 8 4127
COL,115,15 8 4126
MULT,114 8 4125
COL,114,14 8 4124
MULT,113 8 4123
COL,113,13 8 4122
MULT,112 8 4121
COL,112,12 8 4120
_AX,122 14 4119
SUB,122,1 14 4118
_AX,121 14 4117
SUB,121,1 14 4116
_AX,120 14 4115
SUB,120,1 14 4114
_AX,103 14 4113
_AX,102 14 4112
_AX,101 14 4111
_AX,100 14 4110
_AX,99 14 4109
_AX,98 14 4108
_AX,97 14 4107
_AX,96 14 4106
MULT,120 20 4105
MULT,121 20 4104
MULT,122 20 4103
_X,63 20 4102
XY,63,1 20 4101
_X,62 20 4100
XY,62,1 20 4099
_X,61 20 4098
XY,61,1 20 4097
_X,60 20 4096
XY,60,1 20 4095
_X,59 20 4094
XY,59,1 20 4093
_X,58 20 4092
XY,58,1 20 4091
_X,57 20 4090
XY,57,1 20 4089
_X,56 20 4088
XY,56,1 20 4087
COL,122,2 22 4086
COL,121,1 22 4085
COL,120,0 22 4084
SETZERO,71,1 22 4083
SETZERO,70,1 22 4082
SETZERO,69,1 22 4081
SETZERO,68,1 22 4080
SETZERO,67,1 22 4079
SETZERO,66,1 22 4078
SETZERO,65,1 22 4077
SETZERO,64,1 22 4076
_AX,31 22 4075
_AX,30 22 4074
_AX,29 22 4073
_AX,28 22 4072
_AX,27 22 4071
_AX,26 22 4070
_AX,25 22 4069
_AX,24 22 4068
_X,31 23 4067
XY,31,1 23 4066
SUB,31,1 23 4065
MULT,31 23 4064
COL,31,11 23 4063
_X,30 23 4062
XY,30,1 23 4061
SUB,30,1 23 4060
MULT,30 23 4059
COL,30,10 23 4058
_X,29 23 4057
XY,29,1 23 4056
SUB,29,1 23 4055
MULT,29 23 4054
COL,29,9 23 4053
_X,28 23 4052
XY,28,1 23 4051
SUB,28,1 23 4050
MULT,28 23 4049
COL,28,8 23 4048
_X,27 23 4047
XY,27,1 23 4046
SUB,27,1 23 4045
MULT,27 23 4044
COL,27,7 23 4043
_X,26 23 4042
XY,26,1 23 4041
SUB,26,1 23 4040
MULT,26 23 4039
COL,26,6 23 4038
_X,25 23 4037
XY,25,1 23 4036
SUB,25,1 23 4035
MULT,25 23 4034
COL,25,5 23 4033
_X,24 23 4032
XY,24,1 23 4031
SUB,24,1 23 4030
MULT,24 23 4029
COL,24,4 23 4028
_AX,63 25 4027
SUB,63,1 25 4026
MULT,63 25 4025
COL,63,3 25 4024
_AX,62 25 4023
SUB,62,1 25 4022
MULT,62 25 4021
COL,62,2 25 4020
_AX,61 25 4019
SUB,61,1 25 4018
MULT,61 25 4017
COL,61,1 25 4016
_AX,60 25 4015
SUB,60,1 25 4014
MULT,60 25 4013
COL,60,0 25 4012
_AX,59 25 4011
SUB,59,1 25 4010
MULT,59 25 4009
COL,59,19 25 4008
_AX,58 25 4007
SUB,58,1 25 4006
MULT,58 25 4005
COL,58,18 25 4004
_AX,57 25 4003
SUB,57,1 25 4002
MULT,57 25 4001
COL,57,17 25 4000
_AX,56 25 3999
SUB,56,1 25 3998
MULT,56 25 3997
COL,56,16 25 3996
_X,103 17 3995
XY,103,1 17 3994
SUB,103,1 17 3993
MULT,103 17 3992
COL,103,3 17 3991
_X,102 17 3990
XY,102,1 17 3989
SUB,102,1 17 3988
MULT,102 17 3987
COL,102,2 17 3986
_X,101 17 3985
XY,101,1 17 3984
SUB,101,1 17 3983
MULT,101 17 3982
COL,101,1 17 3981
_X,100 17 3980
XY,100,1 17 3979
SUB,100,1 17 3978
MULT,100 17 3977
COL,100,0 17 3976
_X,99 17 3975
XY,99,1 17 3974
SUB,99,1 17 3973
MULT,99 17 3972
COL,99,19 17 3971
_X,98 17 3970
XY,98,1 17 3969
SUB,98,1 17 3968
MULT,98 17 3967
COL,98,18 17 3966
_X,97 17 3965
XY,97,1 17 3964
SUB,97,1 17 3963
MULT,97 17 3962
COL,97,17 17 3961
_X,96 17 3960
XY,96,1 17 3959
SUB,96,1 17 3958
MULT,96 17 3957
COL,96,16 17 3956
XY,88,1 4 3955
XY,89,1 4 3954
XY,90,1 4 3953
XY,91,1 4 3952
XY,92,1 4 3951
XY,93,1 4 3950
XY,94,1 4 3949
XY,95,1 4 3948
SUB,95,1 16 3947
MULT,95 16 3946
COL,95,15 16 3945
SUB,94,1 16 3944
MULT,94 16 3943
COL,94,14 16 3942
SUB,93,1 16 3941
MULT,93 16 3940
COL,93,13 16 3939
SUB,92,1 16 3938
MULT,92 16 3937
COL,92,12 16 3936
SUB,91,1 16 3935
MULT,91 16 3934
COL,91,11 16 3933
SUB,90,1 16 3932
MULT,90 16 3931
COL,90,10 16 3930
SUB,89,1 16 3929
MULT,89 16 3928
COL,89,9 16 3927
SUB,88,1 16 3926
MULT,88 16 3925
COL,88,8 16 3924
RESET,RN 9 3923
_AX,111 9 3922
_AX,110 9 3921
_AX,109 9 3920
_AX,108 9 3919
_AX,107 9 3918
_AX,106 9 3917
_AX,105 9 3916
_AX,104 9 3915
_X,111 9 3914
XY,111,1 9 3913
SUB,111,1 9 3912
MULT,111 9 3911
COL,111,11 9 3910
_X,110 9 3909
XY,110,1 9 3908
SUB,110,1 9 3907
MULT,110 9 3906
COL,110,10 9 3905
_X,109 9 3904
XY,109,1 9 3903
SUB,109,1 9 3902
MULT,109 9 3901
COL,109,9 9 3900
_X,108 9 3899
XY,108,1 9 3898
SUB,108,1 9 3897
MULT,108 9 3896
COL,108,8 9 3895
_X,107 9 3894
XY,107,1 9 3893
SUB,107,1 9 3892
MULT,107 9 3891
COL,107,7 9 3890
_X,106 9 3889
XY,106,1 9 3888
SUB,106,1 9 3887
MULT,106 9 3886
COL,106,6 9 3885
_X,105 9 3884
XY,105,1 9 3883
SUB,105,1 9 3882
MULT,105 9 3881
COL,105,5 9 3880
_X,104 9 3879
XY,104,1 9 3878
SUB,104,1 9 3877
MULT,104 9 3876
COL,104,4 9 3875
COL,0,0 32 3874
COL,1,1 32 3873
COL,2,2 32 3872
COL,3,3 32 3871
COL,4,4 32 3870
COL,5,5 32 3869
COL,6,6 32 3868
COL,7,7 32 3867
RNRED,RNBUF 32 3866
SQRT,RN 32 3865
RESET,actMask 32 3864
CONV,actMask 32 3863
GET,0,1 32 3862
GET,1,1 32 3861
GET,2,1 32 3860
GET,3,1 32 3859
GET,4,1 32 3858
GET,5,1 32 3857
GET,6,1 32 3856
GET,7,1 32 3855
CONSTRUCTGB 32 3854
XTY,7,7,1 40 3853
XTY,6,6,1 40 3852
XTY,5,5,1 40 3851
XTY,4,4,1 40 3850
XTY,3,3,1 40 3849
XTY,2,2,1 40 3848
XTY,1,1,1 40 3847
XTY,0,0,1 40 3846
GET,16,1 40 3845
XTY,16,16,1 40 3844
GET,17,1 40 3843
XTY,17,17,1 40 3842
GET,18,1 40 3841
XTY,18,18,1 40 3840
GET,19,1 40 3839
XTY,19,19,1 40 3838
GET,20,1 40 3837
XTY,20,0,1 40 3836
GET,21,1 40 3835
XTY,21,1,1 40 3834
GET,22,1 40 3833
XTY,22,2,1 40 3832
GET,23,1 40 3831
XTY,23,3,1 40 3830
GET,24,1 42 3829
XTY,24,4,1 42 3828
GET,25,1 42 3827
XTY,25,5,1 42 3826
GET,26,1 42 3825
XTY,26,6,1 42 3824
GET,27,1 42 3823
XTY,27,7,1 42 3822
GET,28,1 42 3821
XTY,28,8,1 42 3820
GET,29,1 42 3819
XTY,29,9,1 42 3818
GET,30,1 42 3817
XTY,30,10,1 42 3816
GET,31,1 42 3815
XTY,31,11,1 42 3814
GET,32,1 39 3813
XTY,32,12,1 39 3812
GET,33,1 39 3811
XTY,33,13,1 39 3810
GET,34,1 39 3809
XTY,34,14,1 39 3808
GET,35,1 39 3807
XTY,35,15,1 39 3806
GET,36,1 39 3805
XTY,36,16,1 39 3804
GET,37,1 39 3803
XTY,37,17,1 39 3802
GET,38,1 39 3801
XTY,38,18,1 39 3800
GET,39,1 39 3799
XTY,39,19,1 39 3798
GET,40,1 36 3797
XTY,40,0,1 36 3796
GET,41,1 36 3795
XTY,41,1,1 36 3794
GET,42,1 36 3793
XTY,42,2,1 36 3792
GET,43,1 36 3791
XTY,43,3,1 36 3790
GET,44,1 36 3789
XTY,44,4,1 36 3788
GET,45,1 36 3787
XTY,45,5,1 36 3786
GET,46,1 36 3785
XTY,46,6,1 36 3784
GET,47,1 36 3783
XTY,47,7,1 36 3782
GET,64,1 38 3781
XTY,64,4,1 38 3780
GET,65,1 38 3779
XTY,65,5,1 38 3778
GET,66,1 38 3777
XTY,66,6,1 38 3776
GET,67,1 38 3775
XTY,67,7,1 38 3774
GET,68,1 38 3773
XTY,68,8,1 38 3772
GET,69,1 38 3771
XTY,69,9,1 38 3770
GET,70,1 38 3769
XTY,70,10,1 38 3768
GET,71,1 38 3767
XTY,71,11,1 38 3766
GET,72,1 35 3765
XTY,72,12,1 35 3764
GET,73,1 35 3763
XTY,73,13,1 35 3762
GET,74,1 35 3761
XTY,74,14,1 35 3760
GET,75,1 35 3759
XTY,75,15,1 35 3758
GET,76,1 35 3757
XTY,76,16,1 35 3756
GET,77,1 35 3755
XTY,77,17,1 35 3754
GET,78,1 35 3753
XTY,78,18,1 35 3752
GET,79,1 35 3751
XTY,79,19,1 35 3750
GET,80,1 45 3749
XTY,80,0,1 45 3748
GET,81,1 45 3747
XTY,81,1,1 45 3746
GET,82,1 45 3745
XTY,82,2,1 45 3744
GET,83,1 45 3743
XTY,83,3,1 45 3742
GET,84,1 45 3741
XTY,84,4,1 45 3740
GET,85,1 45 3739
XTY,85,5,1 45 3738
GET,86,1 45 3737
XTY,86,6,1 45 3736
GET,87,1 45 3735
XTY,87,7,1 45 3734
GET,88,1 34 3733
XTY,88,8,1 34 3732
GET,89,1 34 3731
XTY,89,9,1 34 3730
GET,90,1 34 3729
XTY,90,10,1 34 3728
GET,91,1 34 3727
XTY,91,11,1 34 3726
GET,92,1 34 3725
XTY,92,12,1 34 3724
GET,93,1 34 3723
XTY,93,13,1 34 3722
GET,94,1 34 3721
XTY,94,14,1 34 3720
GET,95,1 34 3719
XTY,95,15,1 34 3718
GET,96,1 44 3717
XTY,96,16,1 44 3716
GET,97,1 44 3715
XTY,97,17,1 44 3714
GET,98,1 44 3713
XTY,98,18,1 44 3712
GET,99,1 44 3711
XTY,99,19,1 44 3710
GET,100,1 44 3709
XTY,100,0,1 44 3708
GET,101,1 44 3707
XTY,101,1,1 44 3706
GET,102,1 44 3705
XTY,102,2,1 44 3704
GET,103,1 44 3703
XTY,103,3,1 44 3702
GET,48,1 41 3701
GET,49,1 41 3700
GET,50,1 41 3699
GET,51,1 41 3698
GET,52,1 41 3697
GET,53,1 41 3696
GET,54,1 41 3695
GET,55,1 41 3694
GET,104,1 41 3693
XTY,104,4,1 41 3692
GET,105,1 41 3691
XTY,105,5,1 41 3690
GET,106,1 41 3689
XTY,106,6,1 41 3688
GET,107,1 41 3687
XTY,107,7,1 41 3686
GET,108,1 41 3685
XTY,108,8,1 41 3684
GET,109,1 41 3683
XTY,109,9,1 41 3682
GET,110,1 41 3681
XTY,110,10,1 41 3680
GET,111,1 41 3679
XTY,111,11,1 41 3678
XTY,55,15,1 43 3677
XTY,54,14,1 43 3676
XTY,53,13,1 43 3675
XTY,52,12,1 43 3674
XTY,51,11,1 43 3673
XTY,50,10,1 43 3672
XTY,49,9,1 43 3671
XTY,48,8,1 43 3670
GET,56,1 43 3669
XTY,56,16,1 43 3668
GET,57,1 43 3667
XTY,57,17,1 43 3666
GET,58,1 43 3665
XTY,58,18,1 43 3664
GET,59,1 43 3663
XTY,59,19,1 43 3662
GET,60,1 43 3661
XTY,60,0,1 43 3660
GET,61,1 43 3659
XTY,61,1,1 43 3658
GET,62,1 43 3657
XTY,62,2,1 43 3656
GET,63,1 43 3655
XTY,63,3,1 43 3654
GET,8,1 33 3653
XTY,8,8,1 33 3652
GET,9,1 33 3651
XTY,9,9,1 33 3650
GET,10,1 33 3649
XTY,10,10,1 33 3648
GET,11,1 33 3647
XTY,11,11,1 33 3646
GET,12,1 33 3645
XTY,12,12,1 33 3644
GET,13,1 33 3643
XTY,13,13,1 33 3642
GET,14,1 33 3641
XTY,14,14,1 33 3640
GET,15,1 33 3639
XTY,15,15,1 33 3638
GET,112,1 33 3637
GET,113,1 33 3636
GET,114,1 33 3635
GET,115,1 33 3634
GET,116,1 33 3633
GET,117,1 33 3632
GET,118,1 33 3631
GET,119,1 33 3630
XTY,119,19,1 37 3629
XTY,118,18,1 37 3628
XTY,117,17,1 37 3627
XTY,116,16,1 37 3626
XTY,115,15,1 37 3625
XTY,114,14,1 37 3624
XTY,113,13,1 37 3623
XTY,112,12,1 37 3622
GET,120,1 37 3621
XTY,120,0,1 37 3620
GET,121,1 37 3619
XTY,121,1,1 37 3618
GET,122,1 37 3617
XTY,122,2,1 37 3616
RED,temp2BUF,0 46 3615
XY,32,2 46 3614
SUB,32,2 46 3613
XTY,32,12,2 46 3612
XY,33,2 46 3611
SUB,33,2 46 3610
XTY,33,13,2 46 3609
XY,34,2 46 3608
SUB,34,2 46 3607
XTY,34,14,2 46 3606
XY,35,2 46 3605
SUB,35,2 46 3604
XTY,35,15,2 46 3603
XY,36,2 46 3602
SUB,36,2 46 3601
XTY,36,16,2 46 3600
XY,37,2 46 3599
SUB,37,2 46 3598
XTY,37,17,2 46 3597
XY,38,2 46 3596
SUB,38,2 46 3595
XTY,38,18,2 46 3594
XY,39,2 46 3593
SUB,39,2 46 3592
XTY,39,19,2 46 3591
XY,8,2 55 3590
XY,9,2 55 3589
XY,10,2 55 3588
XY,11,2 55 3587
XY,12,2 55 3586
XY,13,2 55 3585
XY,14,2 55 3584
XY,15,2 55 3583
XY,16,2 55 3582
SUB,16,2 55 3581
XTY,16,16,2 55 3580
XY,17,2 55 3579
SUB,17,2 55 3578
XTY,17,17,2 55 3577
XY,18,2 55 3576
SUB,18,2 55 3575
XTY,18,18,2 55 3574
XY,19,2 55 3573
SUB,19,2 55 3572
XTY,19,19,2 55 3571
XY,20,2 55 3570
SUB,20,2 55 3569
XTY,20,0,2 55 3568
XY,21,2 55 3567
SUB,21,2 55 3566
XTY,21,1,2 55 3565
XY,22,2 55 3564
SUB,22,2 55 3563
XTY,22,2,2 55 3562
XY,23,2 55 3561
SUB,23,2 55 3560
XTY,23,3,2 55 3559
SUB,15,2 57 3558
XTY,15,15,2 57 3557
SUB,14,2 57 3556
XTY,14,14,2 57 3555
SUB,13,2 57 3554
XTY,13,13,2 57 3553
SUB,12,2 57 3552
XTY,12,12,2 57 3551
SUB,11,2 57 3550
XTY,11,11,2 57 3549
SUB,10,2 57 3548
XTY,10,10,2 57 3547
SUB,9,2 57 3546
XTY,9,9,2 57 3545
SUB,8,2 57 3544
XTY,8,8,2 57 3543
XY,104,2 57 3542
SUB,104,2 57 3541
XTY,104,4,2 57 3540
XY,105,2 57 3539
SUB,105,2 57 3538
XTY,105,5,2 57 3537
XY,106,2 57 3536
SUB,106,2 57 3535
XTY,106,6,2 57 3534
XY,107,2 57 3533
SUB,107,2 57 3532
XTY,107,7,2 57 3531
XY,108,2 57 3530
SUB,108,2 57 3529
XTY,108,8,2 57 3528
XY,109,2 57 3527
SUB,109,2 57 3526
XTY,109,9,2 57 3525
XY,110,2 57 3524
SUB,110,2 57 3523
XTY,110,10,2 57 3522
XY,111,2 57 3521
SUB,111,2 57 3520
XTY,111,11,2 57 3519
XY,56,2 50 3518
SUB,56,2 50 3517
XTY,56,16,2 50 3516
XY,57,2 50 3515
SUB,57,2 50 3514
XTY,57,17,2 50 3513
XY,58,2 50 3512
SUB,58,2 50 3511
XTY,58,18,2 50 3510
XY,59,2 50 3509
SUB,59,2 50 3508
XTY,59,19,2 50 3507
XY,60,2 50 3506
SUB,60,2 50 3505
XTY,60,0,2 50 3504
XY,61,2 50 3503
SUB,61,2 50 3502
XTY,61,1,2 50 3501
XY,62,2 50 3500
SUB,62,2 50 3499
XTY,62,2,2 50 3498
XY,63,2 50 3497
SUB,63,2 50 3496
XTY,63,3,2 50 3495
XY,72,2 54 3494
SUB,72,2 54 3493
XTY,72,12,2 54 3492
XY,73,2 54 3491
SUB,73,2 54 3490
XTY,73,13,2 54 3489
XY,74,2 54 3488
SUB,74,2 54 3487
XTY,74,14,2 54 3486
XY,75,2 54 3485
SUB,75,2 54 3484
XTY,75,15,2 54 3483
XY,76,2 54 3482
SUB,76,2 54 3481
XTY,76,16,2 54 3480
XY,77,2 54 3479
SUB,77,2 54 3478
XTY,77,17,2 54 3477
XY,78,2 54 3476
SUB,78,2 54 3475
XTY,78,18,2 54 3474
XY,79,2 54 3473
SUB,79,2 54 3472
XTY,79,19,2 54 3471
XY,24,2 52 3470
SUB,24,2 52 3469
XY,25,2 52 3468
SUB,25,2 52 3467
XY,26,2 52 3466
SUB,26,2 52 3465
XY,27,2 52 3464
SUB,27,2 52 3463
XY,28,2 52 3462
SUB,28,2 52 3461
XY,29,2 52 3460
SUB,29,2 52 3459
XY,30,2 52 3458
SUB,30,2 52 3457
XY,31,2 52 3456
SUB,31,2 52 3455
XY,80,2 52 3454
XY,81,2 52 3453
XY,82,2 52 3452
XY,83,2 52 3451
XY,84,2 52 3450
XY,85,2 52 3449
XY,86,2 52 3448
XY,87,2 52 3447
SUB,87,2 53 3446
XTY,87,7,2 53 3445
SUB,86,2 53 3444
XTY,86,6,2 53 3443
SUB,85,2 53 3442
XTY,85,5,2 53 3441
SUB,84,2 53 3440
XTY,84,4,2 53 3439
SUB,83,2 53 3438
XTY,83,3,2 53 3437
SUB,82,2 53 3436
XTY,82,2,2 53 3435
SUB,81,2 53 3434
XTY,81,1,2 53 3433
SUB,80,2 53 3432
XTY,80,0,2 53 3431
XY,48,2 53 3430
SUB,48,2 53 3429
XTY,48,8,2 53 3428
XY,49,2 53 3427
SUB,49,2 53 3426
XTY,49,9,2 53 3425
XY,50,2 53 3424
SUB,50,2 53 3423
XTY,50,10,2 53 3422
XY,51,2 53 3421
SUB,51,2 53 3420
XTY,51,11,2 53 3419
XY,52,2 53 3418
SUB,52,2 53 3417
XTY,52,12,2 53 3416
XY,53,2 53 3415
SUB,53,2 53 3414
XTY,53,13,2 53 3413
XY,54,2 53 3412
SUB,54,2 53 3411
XTY,54,14,2 53 3410
XY,55,2 53 3409
SUB,55,2 53 3408
XTY,55,15,2 53 3407
XY,88,2 48 3406
SUB,88,2 48 3405
XTY,88,8,2 48 3404
XY,89,2 48 3403
SUB,89,2 48 3402
XTY,89,9,2 48 3401
XY,90,2 48 3400
SUB,90,2 48 3399
XTY,90,10,2 48 3398
XY,91,2 48 3397
SUB,91,2 48 3396
XTY,91,11,2 48 3395
XY,92,2 48 3394
SUB,92,2 48 3393
XTY,92,12,2 48 3392
XY,93,2 48 3391
SUB,93,2 48 3390
XTY,93,13,2 48 3389
XY,94,2 48 3388
SUB,94,2 48 3387
XTY,94,14,2 48 3386
XY,95,2 48 3385
SUB,95,2 48 3384
XTY,95,15,2 48 3383
XY,40,2 47 3382
SUB,40,2 47 3381
XTY,40,0,2 47 3380
XY,41,2 47 3379
SUB,41,2 47 3378
XTY,41,1,2 47 3377
XY,42,2 47 3376
SUB,42,2 47 3375
XTY,42,2,2 47 3374
XY,43,2 47 3373
SUB,43,2 47 3372
XTY,43,3,2 47 3371
XY,44,2 47 3370
SUB,44,2 47 3369
XTY,44,4,2 47 3368
XY,45,2 47 3367
SUB,45,2 47 3366
XTY,45,5,2 47 3365
XY,46,2 47 3364
SUB,46,2 47 3363
XTY,46,6,2 47 3362
XY,47,2 47 3361
SUB,47,2 47 3360
XTY,47,7,2 47 3359
XY,96,2 47 3358
XY,97,2 47 3357
XY,98,2 47 3356
XY,99,2 47 3355
XY,100,2 47 3354
XY,101,2 47 3353
XY,102,2 47 3352
XY,103,2 47 3351
SUB,103,2 49 3350
XTY,103,3,2 49 3349
SUB,102,2 49 3348
XTY,102,2,2 49 3347
SUB,101,2 49 3346
XTY,101,1,2 49 3345
SUB,100,2 49 3344
XTY,100,0,2 49 3343
SUB,99,2 49 3342
XTY,99,19,2 49 3341
SUB,98,2 49 3340
XTY,98,18,2 49 3339
SUB,97,2 49 3338
XTY,97,17,2 49 3337
SUB,96,2 49 3336
XTY,96,16,2 49 3335
XY,64,2 49 3334
SUB,64,2 49 3333
XY,65,2 49 3332
SUB,65,2 49 3331
XY,66,2 49 3330
SUB,66,2 49 3329
XY,67,2 49 3328
SUB,67,2 49 3327
XY,68,2 49 3326
SUB,68,2 49 3325
XY,69,2 49 3324
SUB,69,2 49 3323
XY,70,2 49 3322
SUB,70,2 49 3321
XY,71,2 49 3320
SUB,71,2 49 3319
XTY,71,11,2 51 3318
XTY,70,10,2 51 3317
XTY,69,9,2 51 3316
XTY,68,8,2 51 3315
XTY,67,7,2 51 3314
XTY,66,6,2 51 3313
XTY,65,5,2 51 3312
XTY,64,4,2 51 3311
XY,120,2 51 3310
SUB,120,2 51 3309
XTY,120,0,2 51 3308
XY,121,2 51 3307
SUB,121,2 51 3306
XTY,121,1,2 51 3305
XY,122,2 51 3304
SUB,122,2 51 3303
XTY,122,2,2 51 3302
XY,112,2 56 3301
SUB,112,2 56 3300
XTY,112,12,2 56 3299
XY,113,2 56 3298
SUB,113,2 56 3297
XTY,113,13,2 56 3296
XY,114,2 56 3295
SUB,114,2 56 3294
XTY,114,14,2 56 3293
XY,115,2 56 3292
SUB,115,2 56 3291
XTY,115,15,2 56 3290
XY,116,2 56 3289
SUB,116,2 56 3288
XTY,116,16,2 56 3287
XY,117,2 56 3286
SUB,117,2 56 3285
XTY,117,17,2 56 3284
XY,118,2 56 3283
SUB,118,2 56 3282
XTY,118,18,2 56 3281
XY,119,2 56 3280
SUB,119,2 56 3279
XTY,119,19,2 56 3278
XTY,31,11,2 58 3277
XTY,30,10,2 58 3276
XTY,29,9,2 58 3275
XTY,28,8,2 58 3274
XTY,27,7,2 58 3273
XTY,26,6,2 58 3272
XTY,25,5,2 58 3271
XTY,24,4,2 58 3270
XY,0,2 58 3269
SUB,0,2 58 3268
XTY,0,0,2 58 3267
XY,1,2 58 3266
SUB,1,2 58 3265
XTY,1,1,2 58 3264
XY,2,2 58 3263
SUB,2,2 58 3262
XTY,2,2,2 58 3261
XY,3,2 58 3260
SUB,3,2 58 3259
XTY,3,3,2 58 3258
XY,4,2 58 3257
SUB,4,2 58 3256
XTY,4,4,2 58 3255
XY,5,2 58 3254
SUB,5,2 58 3253
XTY,5,5,2 58 3252
XY,6,2 58 3251
SUB,6,2 58 3250
XTY,6,6,2 58 3249
XY,7,2 58 3248
SUB,7,2 58 3247
XTY,7,7,2 58 3246
RED,RBRBUF,0 58 3245
CHOL,RBR 58 3244
INV,RBR 58 3243
XY,8,3 61 3242
XY,9,3 61 3241
XY,10,3 61 3240
XY,11,3 61 3239
XY,12,3 61 3238
XY,13,3 61 3237
XY,14,3 61 3236
XY,15,3 61 3235
XY,16,3 61 3234
XY,17,3 61 3233
XY,18,3 61 3232
XY,19,3 61 3231
XY,20,3 61 3230
XY,21,3 61 3229
XY,22,3 61 3228
XY,23,3 61 3227
DLACPY,23,1 72 3226
SPMM,23,23,0 72 3225
SPMM,32,23,0 72 3224
SPMM,33,23,0 72 3223
SPMM,34,23,0 72 3222
DLACPY,22,1 72 3221
SPMM,22,22,0 72 3220
SPMM,23,22,0 72 3219
SPMM,32,22,0 72 3218
SPMM,33,22,0 72 3217
SPMM,34,22,0 72 3216
DLACPY,21,1 72 3215
SPMM,21,21,0 72 3214
SPMM,22,21,0 72 3213
SPMM,23,21,0 72 3212
SPMM,32,21,0 72 3211
SPMM,33,21,0 72 3210
SPMM,34,21,0 72 3209
DLACPY,20,1 72 3208
SPMM,20,20,0 72 3207
SPMM,21,20,0 72 3206
SPMM,32,20,0 72 3205
SPMM,33,20,0 72 3204
SPMM,34,20,0 72 3203
DLACPY,19,1 72 3202
SPMM,19,19,0 72 3201
SPMM,20,19,0 72 3200
SPMM,21,19,0 72 3199
SPMM,22,19,0 72 3198
SPMM,32,19,0 72 3197
SPMM,33,19,0 72 3196
SPMM,34,19,0 72 3195
DLACPY,18,1 72 3194
SPMM,18,18,0 72 3193
SPMM,19,18,0 72 3192
SPMM,20,18,0 72 3191
SPMM,21,18,0 72 3190
SPMM,22,18,0 72 3189
SPMM,23,18,0 72 3188
SPMM,32,18,0 72 3187
SPMM,33,18,0 72 3186
SPMM,34,18,0 72 3185
DLACPY,17,1 72 3184
SPMM,17,17,0 72 3183
SPMM,18,17,0 72 3182
SPMM,22,17,0 72 3181
SPMM,23,17,0 72 3180
SPMM,32,17,0 72 3179
SPMM,33,17,0 72 3178
SPMM,34,17,0 72 3177
DLACPY,16,1 72 3176
SPMM,16,16,0 72 3175
SPMM,17,16,0 72 3174
SPMM,22,16,0 72 3173
SPMM,23,16,0 72 3172
SPMM,32,16,0 72 3171
SPMM,33,16,0 72 3170
SPMM,34,16,0 72 3169
XTY,16,16,4 85 3168
XTY,17,17,4 85 3167
XTY,18,18,4 85 3166
XTY,19,19,4 85 3165
XTY,20,0,4 85 3164
XTY,21,1,4 85 3163
XTY,22,2,4 85 3162
XTY,23,3,4 85 3161
DLACPY,15,1 77 3160
SPMM,15,15,0 77 3159
SPMM,16,15,0 77 3158
SPMM,17,15,0 77 3157
SPMM,18,15,0 77 3156
SPMM,19,15,0 77 3155
SPMM,21,15,0 77 3154
SPMM,22,15,0 77 3153
SPMM,23,15,0 77 3152
SPMM,24,15,0 77 3151
SPMM,25,15,0 77 3150
SPMM,26,15,0 77 3149
SPMM,27,15,0 77 3148
SPMM,28,15,0 77 3147
SPMM,29,15,0 77 3146
SPMM,30,15,0 77 3145
SPMM,31,15,0 77 3144
DLACPY,14,1 77 3143
SPMM,14,14,0 77 3142
SPMM,15,14,0 77 3141
SPMM,19,14,0 77 3140
SPMM,20,14,0 77 3139
SPMM,21,14,0 77 3138
SPMM,22,14,0 77 3137
SPMM,25,14,0 77 3136
SPMM,30,14,0 77 3135
SPMM,31,14,0 77 3134
DLACPY,13,1 77 3133
SPMM,13,13,0 77 3132
SPMM,14,13,0 77 3131
SPMM,18,13,0 77 3130
SPMM,19,13,0 77 3129
SPMM,20,13,0 77 3128
SPMM,21,13,0 77 3127
SPMM,25,13,0 77 3126
SPMM,30,13,0 77 3125
SPMM,31,13,0 77 3124
DLACPY,12,1 77 3123
SPMM,12,12,0 77 3122
SPMM,13,12,0 77 3121
SPMM,14,12,0 77 3120
SPMM,18,12,0 77 3119
SPMM,19,12,0 77 3118
SPMM,20,12,0 77 3117
SPMM,21,12,0 77 3116
SPMM,25,12,0 77 3115
SPMM,26,12,0 77 3114
SPMM,27,12,0 77 3113
SPMM,29,12,0 77 3112
SPMM,30,12,0 77 3111
SPMM,31,12,0 77 3110
DLACPY,11,1 77 3109
SPMM,11,11,0 77 3108
SPMM,12,11,0 77 3107
SPMM,13,11,0 77 3106
SPMM,14,11,0 77 3105
SPMM,15,11,0 77 3104
SPMM,16,11,0 77 3103
SPMM,17,11,0 77 3102
SPMM,18,11,0 77 3101
SPMM,19,11,0 77 3100
SPMM,21,11,0 77 3099
SPMM,22,11,0 77 3098
SPMM,24,11,0 77 3097
SPMM,25,11,0 77 3096
SPMM,26,11,0 77 3095
SPMM,27,11,0 77 3094
SPMM,30,11,0 77 3093
SPMM,31,11,0 77 3092
DLACPY,10,1 77 3091
SPMM,10,10,0 77 3090
SPMM,11,10,0 77 3089
SPMM,12,10,0 77 3088
SPMM,13,10,0 77 3087
SPMM,14,10,0 77 3086
SPMM,15,10,0 77 3085
SPMM,16,10,0 77 3084
SPMM,17,10,0 77 3083
SPMM,18,10,0 77 3082
SPMM,23,10,0 77 3081
SPMM,24,10,0 77 3080
SPMM,25,10,0 77 3079
SPMM,26,10,0 77 3078
SPMM,27,10,0 77 3077
SPMM,28,10,0 77 3076
SPMM,29,10,0 77 3075
SPMM,30,10,0 77 3074
SPMM,31,10,0 77 3073
DLACPY,9,1 77 3072
SPMM,9,9,0 77 3071
SPMM,10,9,0 77 3070
SPMM,12,9,0 77 3069
SPMM,13,9,0 77 3068
SPMM,18,9,0 77 3067
SPMM,19,9,0 77 3066
SPMM,25,9,0 77 3065
SPMM,29,9,0 77 3064
SPMM,30,9,0 77 3063
SPMM,31,9,0 77 3062
DLACPY,8,1 77 3061
SPMM,8,8,0 77 3060
SPMM,9,8,0 77 3059
SPMM,10,8,0 77 3058
SPMM,11,8,0 77 3057
SPMM,12,8,0 77 3056
SPMM,13,8,0 77 3055
SPMM,14,8,0 77 3054
SPMM,15,8,0 77 3053
SPMM,16,8,0 77 3052
SPMM,17,8,0 77 3051
SPMM,18,8,0 77 3050
SPMM,19,8,0 77 3049
SPMM,20,8,0 77 3048
SPMM,21,8,0 77 3047
SPMM,22,8,0 77 3046
SPMM,23,8,0 77 3045
SPMM,24,8,0 77 3044
SPMM,25,8,0 77 3043
SPMM,26,8,0 77 3042
SPMM,27,8,0 77 3041
SPMM,28,8,0 77 3040
SPMM,29,8,0 77 3039
SPMM,30,8,0 77 3038
SPMM,31,8,0 77 3037
SPMM,64,8,0 78 3036
SPMM,69,8,0 78 3035
SPMM,70,8,0 78 3034
SPMM,71,8,0 78 3033
SPMM,64,9,0 78 3032
SPMM,69,9,0 78 3031
SPMM,70,9,0 78 3030
SPMM,71,9,0 78 3029
SPMM,64,10,0 78 3028
SPMM,69,10,0 78 3027
SPMM,70,10,0 78 3026
SPMM,71,10,0 78 3025
SPMM,61,8,0 80 3024
SPMM,86,8,0 80 3023
SPMM,61,9,0 80 3022
SPMM,48,10,0 80 3021
SPMM,51,10,0 80 3020
SPMM,55,10,0 80 3019
SPMM,56,10,0 80 3018
SPMM,60,10,0 80 3017
SPMM,61,10,0 80 3016
SPMM,86,10,0 80 3015
SPMM,87,10,0 80 3014
SPMM,32,8,0 79 3013
SPMM,33,8,0 79 3012
SPMM,34,8,0 79 3011
SPMM,91,8,0 79 3010
SPMM,32,9,0 79 3009
SPMM,33,9,0 79 3008
SPMM,34,9,0 79 3007
SPMM,91,9,0 79 3006
SPMM,95,9,0 79 3005
SPMM,32,10,0 79 3004
SPMM,33,10,0 79 3003
SPMM,34,10,0 79 3002
SPMM,89,10,0 79 3001
SPMM,90,10,0 79 3000
SPMM,91,10,0 79 2999
SPMM,92,10,0 79 2998
SPMM,93,10,0 79 2997
SPMM,94,10,0 79 2996
SPMM,95,10,0 79 2995
SPMM,32,11,0 79 2994
SPMM,33,11,0 79 2993
SPMM,34,11,0 79 2992
SPMM,32,12,0 79 2991
SPMM,33,12,0 79 2990
SPMM,34,12,0 79 2989
SPMM,32,13,0 79 2988
SPMM,33,13,0 79 2987
SPMM,34,13,0 79 2986
SPMM,32,14,0 79 2985
SPMM,33,14,0 79 2984
SPMM,34,14,0 79 2983
SPMM,32,15,0 79 2982
SPMM,33,15,0 79 2981
SPMM,34,15,0 79 2980
XY,24,3 60 2979
XY,25,3 60 2978
XY,26,3 60 2977
XY,27,3 60 2976
XY,28,3 60 2975
XY,29,3 60 2974
XY,30,3 60 2973
XY,31,3 60 2972
XY,64,3 60 2971
XY,65,3 60 2970
XY,66,3 60 2969
XY,67,3 60 2968
XY,68,3 60 2967
XY,69,3 60 2966
XY,70,3 60 2965
XY,71,3 60 2964
DLACPY,71,1 107 2963
SPMM,112,71,0 107 2962
SPMM,116,71,0 107 2961
SPMM,117,71,0 107 2960
DLACPY,70,1 107 2959
DLACPY,69,1 107 2958
SPMM,112,69,0 107 2957
SPMM,113,69,0 107 2956
SPMM,114,69,0 107 2955
SPMM,115,69,0 107 2954
SPMM,116,69,0 107 2953
SPMM,117,69,0 107 2952
SPMM,118,69,0 107 2951
SPMM,119,69,0 107 2950
DLACPY,68,1 107 2949
SPMM,112,68,0 107 2948
SPMM,113,68,0 107 2947
SPMM,114,68,0 107 2946
SPMM,115,68,0 107 2945
SPMM,116,68,0 107 2944
SPMM,117,68,0 107 2943
SPMM,118,68,0 107 2942
SPMM,119,68,0 107 2941
DLACPY,67,1 107 2940
SPMM,112,67,0 107 2939
SPMM,113,67,0 107 2938
SPMM,114,67,0 107 2937
SPMM,115,67,0 107 2936
SPMM,116,67,0 107 2935
SPMM,117,67,0 107 2934
SPMM,118,67,0 107 2933
SPMM,119,67,0 107 2932
DLACPY,66,1 107 2931
SPMM,112,66,0 107 2930
SPMM,113,66,0 107 2929
SPMM,114,66,0 107 2928
SPMM,117,66,0 107 2927
SPMM,119,66,0 107 2926
DLACPY,65,1 107 2925
SPMM,112,65,0 107 2924
SPMM,113,65,0 107 2923
SPMM,117,65,0 107 2922
SPMM,118,65,0 107 2921
SPMM,119,65,0 107 2920
DLACPY,64,1 107 2919
SPMM,112,64,0 107 2918
SPMM,113,64,0 107 2917
SPMM,114,64,0 107 2916
SPMM,116,64,0 107 2915
SPMM,117,64,0 107 2914
SPMM,118,64,0 107 2913
SPMM,119,64,0 107 2912
SPMM,80,64,0 111 2911
SPMM,81,64,0 111 2910
SPMM,82,64,0 111 2909
SPMM,83,64,0 111 2908
SPMM,84,64,0 111 2907
SPMM,85,64,0 111 2906
SPMM,86,64,0 111 2905
SPMM,87,64,0 111 2904
SPMM,80,68,0 111 2903
SPMM,87,68,0 111 2902
SPMM,80,69,0 111 2901
SPMM,81,69,0 111 2900
SPMM,82,69,0 111 2899
SPMM,83,69,0 111 2898
SPMM,84,69,0 111 2897
SPMM,85,69,0 111 2896
SPMM,86,69,0 111 2895
SPMM,87,69,0 111 2894
SPMM,80,70,0 111 2893
SPMM,81,70,0 111 2892
SPMM,82,70,0 111 2891
SPMM,83,70,0 111 2890
SPMM,84,70,0 111 2889
SPMM,85,70,0 111 2888
SPMM,86,70,0 111 2887
SPMM,87,70,0 111 2886
SPMM,80,71,0 111 2885
SPMM,81,71,0 111 2884
SPMM,84,71,0 111 2883
SPMM,85,71,0 111 2882
SPMM,86,71,0 111 2881
SPMM,87,71,0 111 2880
XTY,64,4,4 109 2879
XTY,65,5,4 109 2878
XTY,66,6,4 109 2877
XTY,67,7,4 109 2876
XTY,68,8,4 109 2875
XTY,69,9,4 109 2874
XTY,70,10,4 109 2873
XTY,71,11,4 109 2872
DLACPY,31,1 73 2871
SPMM,31,31,0 73 2870
SPMM,32,31,0 73 2869
SPMM,33,31,0 73 2868
SPMM,34,31,0 73 2867
DLACPY,30,1 73 2866
SPMM,30,30,0 73 2865
SPMM,31,30,0 73 2864
SPMM,32,30,0 73 2863
SPMM,33,30,0 73 2862
SPMM,34,30,0 73 2861
SPMM,48,30,0 73 2860
SPMM,51,30,0 73 2859
SPMM,52,30,0 73 2858
SPMM,55,30,0 73 2857
DLACPY,29,1 73 2856
SPMM,29,29,0 73 2855
SPMM,30,29,0 73 2854
SPMM,31,29,0 73 2853
SPMM,32,29,0 73 2852
SPMM,33,29,0 73 2851
SPMM,34,29,0 73 2850
SPMM,48,29,0 73 2849
DLACPY,28,1 73 2848
SPMM,28,28,0 73 2847
SPMM,29,28,0 73 2846
SPMM,30,28,0 73 2845
SPMM,31,28,0 73 2844
SPMM,32,28,0 73 2843
SPMM,33,28,0 73 2842
SPMM,34,28,0 73 2841
SPMM,48,28,0 73 2840
DLACPY,27,1 73 2839
SPMM,27,27,0 73 2838
SPMM,28,27,0 73 2837
SPMM,29,27,0 73 2836
SPMM,30,27,0 73 2835
SPMM,31,27,0 73 2834
SPMM,32,27,0 73 2833
SPMM,33,27,0 73 2832
SPMM,34,27,0 73 2831
SPMM,48,27,0 73 2830
DLACPY,26,1 73 2829
SPMM,26,26,0 73 2828
SPMM,27,26,0 73 2827
SPMM,28,26,0 73 2826
SPMM,29,26,0 73 2825
SPMM,30,26,0 73 2824
SPMM,31,26,0 73 2823
SPMM,32,26,0 73 2822
SPMM,33,26,0 73 2821
SPMM,34,26,0 73 2820
SPMM,48,26,0 73 2819
DLACPY,25,1 73 2818
SPMM,25,25,0 73 2817
SPMM,26,25,0 73 2816
SPMM,27,25,0 73 2815
SPMM,30,25,0 73 2814
SPMM,31,25,0 73 2813
SPMM,32,25,0 73 2812
SPMM,33,25,0 73 2811
SPMM,34,25,0 73 2810
DLACPY,24,1 73 2809
SPMM,24,24,0 73 2808
SPMM,25,24,0 73 2807
SPMM,26,24,0 73 2806
SPMM,27,24,0 73 2805
SPMM,30,24,0 73 2804
SPMM,31,24,0 73 2803
SPMM,32,24,0 73 2802
SPMM,33,24,0 73 2801
SPMM,34,24,0 73 2800
SPMM,47,26,0 74 2799
SPMM,47,27,0 74 2798
SPMM,47,29,0 74 2797
SPMM,47,30,0 74 2796
UPDATE,24,1 81 2795
UPDATE,25,1 81 2794
UPDATE,26,1 81 2793
UPDATE,27,1 81 2792
UPDATE,28,1 81 2791
UPDATE,29,1 81 2790
UPDATE,30,1 81 2789
UPDATE,31,1 81 2788
XTY,8,8,4 81 2787
XTY,9,9,4 81 2786
XTY,10,10,4 81 2785
XTY,11,11,4 81 2784
XTY,12,12,4 81 2783
XTY,13,13,4 81 2782
XTY,14,14,4 81 2781
XTY,15,15,4 81 2780
SPMM,56,18,0 81 2779
SPMM,57,18,0 81 2778
SPMM,59,18,0 81 2777
SPMM,60,18,0 81 2776
XY,40,3 63 2775
DLACPY,40,1 63 2774
XY,41,3 63 2773
DLACPY,41,1 63 2772
XY,42,3 63 2771
DLACPY,42,1 63 2770
XY,43,3 63 2769
DLACPY,43,1 63 2768
XY,44,3 63 2767
DLACPY,44,1 63 2766
XY,45,3 63 2765
DLACPY,45,1 63 2764
XY,46,3 63 2763
DLACPY,46,1 63 2762
XY,47,3 63 2761
DLACPY,47,1 63 2760
XY,80,3 63 2759
XY,81,3 63 2758
XY,82,3 63 2757
XY,83,3 63 2756
XY,84,3 63 2755
XY,85,3 63 2754
XY,86,3 63 2753
XY,87,3 63 2752
SPMM,47,47,0 105 2751
SPMM,46,46,0 105 2750
SPMM,47,46,0 105 2749
SPMM,45,45,0 105 2748
SPMM,46,45,0 105 2747
SPMM,47,45,0 105 2746
SPMM,44,44,0 105 2745
SPMM,45,44,0 105 2744
SPMM,46,44,0 105 2743
SPMM,47,44,0 105 2742
SPMM,43,43,0 105 2741
SPMM,44,43,0 105 2740
SPMM,45,43,0 105 2739
SPMM,46,43,0 105 2738
SPMM,47,43,0 105 2737
SPMM,42,42,0 105 2736
SPMM,43,42,0 105 2735
SPMM,44,42,0 105 2734
SPMM,45,42,0 105 2733
SPMM,46,42,0 105 2732
SPMM,47,42,0 105 2731
SPMM,41,41,0 105 2730
SPMM,42,41,0 105 2729
SPMM,43,41,0 105 2728
SPMM,44,41,0 105 2727
SPMM,45,41,0 105 2726
SPMM,46,41,0 105 2725
SPMM,47,41,0 105 2724
SPMM,40,40,0 105 2723
SPMM,41,40,0 105 2722
SPMM,42,40,0 105 2721
SPMM,43,40,0 105 2720
SPMM,44,40,0 105 2719
SPMM,45,40,0 105 2718
SPMM,46,40,0 105 2717
SPMM,47,40,0 105 2716
UPDATE,8,1 105 2715
UPDATE,9,1 105 2714
UPDATE,10,1 105 2713
UPDATE,11,1 105 2712
UPDATE,12,1 105 2711
UPDATE,13,1 105 2710
UPDATE,14,1 105 2709
UPDATE,15,1 105 2708
UPDATE,16,1 105 2707
UPDATE,17,1 105 2706
UPDATE,18,1 105 2705
UPDATE,19,1 105 2704
UPDATE,20,1 105 2703
UPDATE,21,1 105 2702
UPDATE,22,1 105 2701
UPDATE,23,1 105 2700
UPDATE,47,1 122 2699
UPDATE,46,1 122 2698
UPDATE,45,1 122 2697
UPDATE,44,1 122 2696
UPDATE,43,1 122 2695
UPDATE,42,1 122 2694
UPDATE,41,1 122 2693
UPDATE,40,1 122 2692
SPMM,120,64,0 122 2691
SPMM,121,64,0 122 2690
SPMM,122,64,0 122 2689
SPMM,121,65,0 122 2688
SPMM,122,65,0 122 2687
SPMM,121,66,0 122 2686
SPMM,122,66,0 122 2685
SPMM,120,67,0 122 2684
SPMM,121,67,0 122 2683
SPMM,122,67,0 122 2682
SPMM,120,68,0 122 2681
SPMM,121,68,0 122 2680
SPMM,122,68,0 122 2679
SPMM,121,69,0 122 2678
SPMM,122,69,0 122 2677
SPMM,122,70,0 122 2676
SPMM,121,71,0 122 2675
XTY,47,7,4 125 2674
XTY,46,6,4 125 2673
XTY,45,5,4 125 2672
XTY,44,4,4 125 2671
XTY,43,3,4 125 2670
XTY,42,2,4 125 2669
XTY,41,1,4 125 2668
XTY,40,0,4 125 2667
SPMM,122,25,0 125 2666
SPMM,122,27,0 125 2665
DLACPY,87,1 87 2664
SPMM,87,87,0 87 2663
SPMM,88,87,0 87 2662
SPMM,89,87,0 87 2661
SPMM,90,87,0 87 2660
SPMM,91,87,0 87 2659
SPMM,92,87,0 87 2658
SPMM,93,87,0 87 2657
SPMM,94,87,0 87 2656
SPMM,95,87,0 87 2655
SPMM,96,87,0 87 2654
DLACPY,86,1 87 2653
SPMM,86,86,0 87 2652
SPMM,87,86,0 87 2651
SPMM,89,86,0 87 2650
SPMM,91,86,0 87 2649
SPMM,92,86,0 87 2648
SPMM,93,86,0 87 2647
SPMM,94,86,0 87 2646
SPMM,95,86,0 87 2645
SPMM,96,86,0 87 2644
DLACPY,85,1 87 2643
SPMM,85,85,0 87 2642
SPMM,86,85,0 87 2641
SPMM,87,85,0 87 2640
SPMM,88,85,0 87 2639
SPMM,89,85,0 87 2638
SPMM,91,85,0 87 2637
SPMM,92,85,0 87 2636
SPMM,93,85,0 87 2635
SPMM,94,85,0 87 2634
SPMM,95,85,0 87 2633
SPMM,96,85,0 87 2632
DLACPY,84,1 87 2631
SPMM,84,84,0 87 2630
SPMM,85,84,0 87 2629
SPMM,87,84,0 87 2628
SPMM,88,84,0 87 2627
SPMM,89,84,0 87 2626
SPMM,91,84,0 87 2625
SPMM,92,84,0 87 2624
SPMM,93,84,0 87 2623
SPMM,94,84,0 87 2622
SPMM,95,84,0 87 2621
SPMM,96,84,0 87 2620
DLACPY,83,1 87 2619
SPMM,83,83,0 87 2618
SPMM,84,83,0 87 2617
SPMM,85,83,0 87 2616
SPMM,86,83,0 87 2615
SPMM,87,83,0 87 2614
SPMM,88,83,0 87 2613
SPMM,89,83,0 87 2612
SPMM,91,83,0 87 2611
SPMM,92,83,0 87 2610
SPMM,93,83,0 87 2609
SPMM,94,83,0 87 2608
SPMM,95,83,0 87 2607
SPMM,96,83,0 87 2606
DLACPY,82,1 87 2605
SPMM,82,82,0 87 2604
SPMM,83,82,0 87 2603
SPMM,86,82,0 87 2602
SPMM,89,82,0 87 2601
SPMM,91,82,0 87 2600
SPMM,92,82,0 87 2599
SPMM,93,82,0 87 2598
SPMM,94,82,0 87 2597
SPMM,95,82,0 87 2596
SPMM,96,82,0 87 2595
DLACPY,81,1 87 2594
SPMM,81,81,0 87 2593
SPMM,82,81,0 87 2592
SPMM,86,81,0 87 2591
SPMM,90,81,0 87 2590
SPMM,91,81,0 87 2589
SPMM,92,81,0 87 2588
SPMM,93,81,0 87 2587
SPMM,94,81,0 87 2586
SPMM,95,81,0 87 2585
SPMM,96,81,0 87 2584
DLACPY,80,1 87 2583
SPMM,80,80,0 87 2582
SPMM,81,80,0 87 2581
SPMM,82,80,0 87 2580
SPMM,83,80,0 87 2579
SPMM,84,80,0 87 2578
SPMM,85,80,0 87 2577
SPMM,86,80,0 87 2576
SPMM,89,80,0 87 2575
SPMM,90,80,0 87 2574
SPMM,91,80,0 87 2573
SPMM,92,80,0 87 2572
SPMM,93,80,0 87 2571
SPMM,94,80,0 87 2570
SPMM,95,80,0 87 2569
SPMM,96,80,0 87 2568
SPMM,109,80,0 88 2567
SPMM,109,87,0 88 2566
UPDATE,80,1 89 2565
XTY,80,0,4 89 2564
UPDATE,81,1 89 2563
XTY,81,1,4 89 2562
UPDATE,82,1 89 2561
XTY,82,2,4 89 2560
UPDATE,83,1 89 2559
XTY,83,3,4 89 2558
UPDATE,84,1 89 2557
XTY,84,4,4 89 2556
UPDATE,85,1 89 2555
XTY,85,5,4 89 2554
UPDATE,86,1 89 2553
XTY,86,6,4 89 2552
UPDATE,87,1 89 2551
XTY,87,7,4 89 2550
SPMM,24,16,0 89 2549
SPMM,25,16,0 89 2548
SPMM,27,16,0 89 2547
SPMM,28,16,0 89 2546
SPMM,30,16,0 89 2545
SPMM,31,16,0 89 2544
SPMM,24,17,0 89 2543
SPMM,27,17,0 89 2542
SPMM,28,17,0 89 2541
SPMM,30,17,0 89 2540
SPMM,31,17,0 89 2539
SPMM,24,18,0 89 2538
SPMM,25,18,0 89 2537
SPMM,26,18,0 89 2536
SPMM,27,18,0 89 2535
SPMM,28,18,0 89 2534
SPMM,29,18,0 89 2533
SPMM,30,18,0 89 2532
SPMM,31,18,0 89 2531
SPMM,25,19,0 89 2530
SPMM,27,19,0 89 2529
SPMM,29,19,0 89 2528
SPMM,30,19,0 89 2527
SPMM,31,19,0 89 2526
SPMM,25,20,0 89 2525
SPMM,29,20,0 89 2524
SPMM,30,20,0 89 2523
SPMM,31,20,0 89 2522
SPMM,24,21,0 89 2521
SPMM,25,21,0 89 2520
SPMM,27,21,0 89 2519
SPMM,30,21,0 89 2518
SPMM,31,21,0 89 2517
SPMM,24,22,0 89 2516
SPMM,26,22,0 89 2515
SPMM,27,22,0 89 2514
SPMM,30,22,0 89 2513
SPMM,31,22,0 89 2512
SPMM,24,23,0 89 2511
SPMM,25,23,0 89 2510
SPMM,26,23,0 89 2509
SPMM,27,23,0 89 2508
SPMM,28,23,0 89 2507
SPMM,30,23,0 89 2506
SPMM,31,23,0 89 2505
XY,88,3 67 2504
XY,89,3 67 2503
XY,90,3 67 2502
XY,91,3 67 2501
XY,92,3 67 2500
XY,93,3 67 2499
XY,94,3 67 2498
XY,95,3 67 2497
DLACPY,95,1 75 2496
SPMM,95,95,0 75 2495
SPMM,96,95,0 75 2494
DLACPY,94,1 75 2493
SPMM,94,94,0 75 2492
SPMM,95,94,0 75 2491
SPMM,96,94,0 75 2490
DLACPY,93,1 75 2489
SPMM,93,93,0 75 2488
SPMM,94,93,0 75 2487
SPMM,95,93,0 75 2486
SPMM,96,93,0 75 2485
DLACPY,92,1 75 2484
SPMM,92,92,0 75 2483
SPMM,93,92,0 75 2482
SPMM,94,92,0 75 2481
SPMM,95,92,0 75 2480
SPMM,96,92,0 75 2479
DLACPY,91,1 75 2478
SPMM,91,91,0 75 2477
SPMM,92,91,0 75 2476
SPMM,93,91,0 75 2475
SPMM,94,91,0 75 2474
SPMM,95,91,0 75 2473
SPMM,96,91,0 75 2472
SPMM,112,91,0 75 2471
SPMM,113,91,0 75 2470
SPMM,114,91,0 75 2469
SPMM,116,91,0 75 2468
SPMM,117,91,0 75 2467
SPMM,118,91,0 75 2466
SPMM,119,91,0 75 2465
DLACPY,90,1 75 2464
SPMM,90,90,0 75 2463
SPMM,91,90,0 75 2462
SPMM,92,90,0 75 2461
SPMM,93,90,0 75 2460
SPMM,94,90,0 75 2459
SPMM,95,90,0 75 2458
SPMM,96,90,0 75 2457
DLACPY,89,1 75 2456
SPMM,89,89,0 75 2455
SPMM,90,89,0 75 2454
SPMM,91,89,0 75 2453
SPMM,92,89,0 75 2452
SPMM,93,89,0 75 2451
SPMM,94,89,0 75 2450
SPMM,95,89,0 75 2449
SPMM,96,89,0 75 2448
DLACPY,88,1 75 2447
SPMM,88,88,0 75 2446
SPMM,89,88,0 75 2445
SPMM,90,88,0 75 2444
SPMM,91,88,0 75 2443
SPMM,92,88,0 75 2442
SPMM,93,88,0 75 2441
SPMM,94,88,0 75 2440
SPMM,95,88,0 75 2439
SPMM,96,88,0 75 2438
SPMM,109,89,0 99 2437
SPMM,109,90,0 99 2436
SPMM,108,91,0 99 2435
SPMM,109,91,0 99 2434
SPMM,56,47,0 99 2433
SPMM,57,47,0 99 2432
SPMM,58,47,0 99 2431
SPMM,59,47,0 99 2430
SPMM,60,47,0 99 2429
SPMM,61,47,0 99 2428
SPMM,56,46,0 99 2427
SPMM,58,46,0 99 2426
SPMM,60,46,0 99 2425
SPMM,60,43,0 99 2424
UPDATE,88,1 76 2423
XTY,88,8,4 76 2422
UPDATE,89,1 76 2421
XTY,89,9,4 76 2420
UPDATE,90,1 76 2419
XTY,90,10,4 76 2418
UPDATE,91,1 76 2417
XTY,91,11,4 76 2416
UPDATE,92,1 76 2415
XTY,92,12,4 76 2414
UPDATE,93,1 76 2413
XTY,93,13,4 76 2412
UPDATE,94,1 76 2411
XTY,94,14,4 76 2410
UPDATE,95,1 76 2409
XTY,95,15,4 76 2408
XTY,24,4,4 76 2407
XTY,25,5,4 76 2406
XTY,26,6,4 76 2405
XTY,27,7,4 76 2404
XTY,28,8,4 76 2403
XTY,29,9,4 76 2402
XTY,30,10,4 76 2401
XTY,31,11,4 76 2400
XY,32,3 62 2399
XY,33,3 62 2398
XY,34,3 62 2397
XY,35,3 62 2396
XY,36,3 62 2395
XY,37,3 62 2394
XY,38,3 62 2393
XY,39,3 62 2392
XY,96,3 62 2391
XY,97,3 62 2390
XY,98,3 62 2389
XY,99,3 62 2388
XY,100,3 62 2387
XY,101,3 62 2386
XY,102,3 62 2385
XY,103,3 62 2384
DLACPY,103,1 82 2383
UPDATE,103,1 82 2382
DLACPY,102,1 82 2381
UPDATE,102,1 82 2380
DLACPY,101,1 82 2379
SPMM,112,101,0 82 2378
SPMM,117,101,0 82 2377
SPMM,118,101,0 82 2376
SPMM,119,101,0 82 2375
UPDATE,101,1 82 2374
DLACPY,100,1 82 2373
SPMM,112,100,0 82 2372
UPDATE,100,1 82 2371
DLACPY,99,1 82 2370
SPMM,112,99,0 82 2369
UPDATE,99,1 82 2368
DLACPY,98,1 82 2367
SPMM,112,98,0 82 2366
SPMM,113,98,0 82 2365
UPDATE,98,1 82 2364
DLACPY,97,1 82 2363
SPMM,112,97,0 82 2362
SPMM,113,97,0 82 2361
SPMM,117,97,0 82 2360
SPMM,118,97,0 82 2359
SPMM,119,97,0 82 2358
UPDATE,97,1 82 2357
DLACPY,96,1 82 2356
UPDATE,96,1 82 2355
SPMM,47,10,0 82 2354
SPMM,96,96,0 96 2353
SPMM,97,96,0 96 2352
SPMM,98,96,0 96 2351
SPMM,99,96,0 96 2350
SPMM,100,96,0 96 2349
SPMM,101,96,0 96 2348
SPMM,102,96,0 96 2347
SPMM,103,96,0 96 2346
SPMM,104,96,0 96 2345
SPMM,105,96,0 96 2344
SPMM,106,96,0 96 2343
SPMM,107,96,0 96 2342
SPMM,108,96,0 96 2341
SPMM,97,97,0 96 2340
SPMM,98,97,0 96 2339
SPMM,99,97,0 96 2338
SPMM,100,97,0 96 2337
SPMM,101,97,0 96 2336
SPMM,103,97,0 96 2335
SPMM,104,97,0 96 2334
SPMM,105,97,0 96 2333
SPMM,106,97,0 96 2332
SPMM,108,97,0 96 2331
SPMM,109,97,0 96 2330
SPMM,111,97,0 96 2329
SPMM,98,98,0 96 2328
SPMM,99,98,0 96 2327
SPMM,100,98,0 96 2326
SPMM,101,98,0 96 2325
SPMM,102,98,0 96 2324
SPMM,103,98,0 96 2323
SPMM,104,98,0 96 2322
SPMM,105,98,0 96 2321
SPMM,106,98,0 96 2320
SPMM,107,98,0 96 2319
SPMM,108,98,0 96 2318
SPMM,110,98,0 96 2317
SPMM,111,98,0 96 2316
SPMM,99,99,0 96 2315
SPMM,100,99,0 96 2314
SPMM,101,99,0 96 2313
SPMM,102,99,0 96 2312
SPMM,103,99,0 96 2311
SPMM,105,99,0 96 2310
SPMM,107,99,0 96 2309
SPMM,108,99,0 96 2308
SPMM,111,99,0 96 2307
SPMM,100,100,0 96 2306
SPMM,101,100,0 96 2305
SPMM,102,100,0 96 2304
SPMM,103,100,0 96 2303
SPMM,104,100,0 96 2302
SPMM,105,100,0 96 2301
SPMM,106,100,0 96 2300
SPMM,107,100,0 96 2299
SPMM,108,100,0 96 2298
SPMM,111,100,0 96 2297
SPMM,101,101,0 96 2296
SPMM,102,101,0 96 2295
SPMM,103,101,0 96 2294
SPMM,104,101,0 96 2293
SPMM,105,101,0 96 2292
SPMM,106,101,0 96 2291
SPMM,107,101,0 96 2290
SPMM,108,101,0 96 2289
SPMM,109,101,0 96 2288
SPMM,110,101,0 96 2287
SPMM,102,102,0 96 2286
SPMM,103,102,0 96 2285
SPMM,104,102,0 96 2284
SPMM,105,102,0 96 2283
SPMM,106,102,0 96 2282
SPMM,107,102,0 96 2281
SPMM,108,102,0 96 2280
SPMM,103,103,0 96 2279
SPMM,104,103,0 96 2278
SPMM,105,103,0 96 2277
SPMM,106,103,0 96 2276
SPMM,107,103,0 96 2275
SPMM,108,103,0 96 2274
XY,48,3 68 2273
XY,49,3 68 2272
XY,50,3 68 2271
XY,51,3 68 2270
XY,52,3 68 2269
XY,53,3 68 2268
XY,54,3 68 2267
XY,55,3 68 2266
XY,104,3 68 2265
XY,105,3 68 2264
XY,106,3 68 2263
XY,107,3 68 2262
XY,108,3 68 2261
XY,109,3 68 2260
XY,110,3 68 2259
XY,111,3 68 2258
DLACPY,111,1 70 2257
SPMM,111,111,0 70 2256
SPMM,112,111,0 70 2255
SPMM,113,111,0 70 2254
SPMM,114,111,0 70 2253
SPMM,115,111,0 70 2252
SPMM,116,111,0 70 2251
SPMM,117,111,0 70 2250
SPMM,118,111,0 70 2249
SPMM,119,111,0 70 2248
SPMM,120,111,0 70 2247
SPMM,122,111,0 70 2246
DLACPY,110,1 70 2245
SPMM,110,110,0 70 2244
SPMM,111,110,0 70 2243
SPMM,112,110,0 70 2242
SPMM,113,110,0 70 2241
SPMM,114,110,0 70 2240
SPMM,115,110,0 70 2239
SPMM,116,110,0 70 2238
SPMM,117,110,0 70 2237
SPMM,118,110,0 70 2236
SPMM,119,110,0 70 2235
SPMM,120,110,0 70 2234
SPMM,121,110,0 70 2233
SPMM,122,110,0 70 2232
DLACPY,109,1 70 2231
SPMM,109,109,0 70 2230
SPMM,110,109,0 70 2229
SPMM,111,109,0 70 2228
SPMM,112,109,0 70 2227
SPMM,113,109,0 70 2226
SPMM,114,109,0 70 2225
SPMM,115,109,0 70 2224
SPMM,116,109,0 70 2223
SPMM,117,109,0 70 2222
SPMM,118,109,0 70 2221
SPMM,119,109,0 70 2220
SPMM,120,109,0 70 2219
SPMM,121,109,0 70 2218
SPMM,122,109,0 70 2217
DLACPY,108,1 70 2216
SPMM,108,108,0 70 2215
SPMM,109,108,0 70 2214
SPMM,110,108,0 70 2213
SPMM,111,108,0 70 2212
SPMM,112,108,0 70 2211
SPMM,113,108,0 70 2210
SPMM,114,108,0 70 2209
SPMM,115,108,0 70 2208
SPMM,116,108,0 70 2207
SPMM,117,108,0 70 2206
SPMM,118,108,0 70 2205
SPMM,119,108,0 70 2204
SPMM,120,108,0 70 2203
SPMM,121,108,0 70 2202
SPMM,122,108,0 70 2201
DLACPY,107,1 70 2200
SPMM,107,107,0 70 2199
SPMM,108,107,0 70 2198
SPMM,109,107,0 70 2197
SPMM,110,107,0 70 2196
SPMM,111,107,0 70 2195
SPMM,112,107,0 70 2194
SPMM,113,107,0 70 2193
SPMM,114,107,0 70 2192
SPMM,117,107,0 70 2191
SPMM,119,107,0 70 2190
SPMM,122,107,0 70 2189
DLACPY,106,1 70 2188
SPMM,106,106,0 70 2187
SPMM,107,106,0 70 2186
SPMM,108,106,0 70 2185
SPMM,122,106,0 70 2184
DLACPY,105,1 70 2183
SPMM,105,105,0 70 2182
SPMM,106,105,0 70 2181
SPMM,107,105,0 70 2180
SPMM,108,105,0 70 2179
SPMM,112,105,0 70 2178
SPMM,113,105,0 70 2177
SPMM,114,105,0 70 2176
SPMM,121,105,0 70 2175
SPMM,122,105,0 70 2174
DLACPY,104,1 70 2173
SPMM,104,104,0 70 2172
SPMM,105,104,0 70 2171
SPMM,106,104,0 70 2170
SPMM,107,104,0 70 2169
SPMM,108,104,0 70 2168
SPMM,122,104,0 70 2167
DLACPY,55,1 69 2166
SPMM,56,55,0 69 2165
SPMM,57,55,0 69 2164
SPMM,58,55,0 69 2163
SPMM,59,55,0 69 2162
SPMM,60,55,0 69 2161
SPMM,61,55,0 69 2160
UPDATE,55,1 69 2159
XTY,55,15,4 69 2158
DLACPY,54,1 69 2157
SPMM,56,54,0 69 2156
SPMM,57,54,0 69 2155
SPMM,58,54,0 69 2154
SPMM,59,54,0 69 2153
SPMM,60,54,0 69 2152
SPMM,61,54,0 69 2151
SPMM,122,54,0 69 2150
UPDATE,54,1 69 2149
XTY,54,14,4 69 2148
DLACPY,53,1 69 2147
SPMM,56,53,0 69 2146
SPMM,57,53,0 69 2145
SPMM,58,53,0 69 2144
SPMM,59,53,0 69 2143
SPMM,60,53,0 69 2142
SPMM,61,53,0 69 2141
SPMM,122,53,0 69 2140
UPDATE,53,1 69 2139
XTY,53,13,4 69 2138
DLACPY,52,1 69 2137
SPMM,56,52,0 69 2136
SPMM,57,52,0 69 2135
SPMM,58,52,0 69 2134
SPMM,59,52,0 69 2133
SPMM,60,52,0 69 2132
SPMM,61,52,0 69 2131
SPMM,122,52,0 69 2130
UPDATE,52,1 69 2129
XTY,52,12,4 69 2128
DLACPY,51,1 69 2127
SPMM,56,51,0 69 2126
SPMM,58,51,0 69 2125
SPMM,59,51,0 69 2124
SPMM,60,51,0 69 2123
SPMM,61,51,0 69 2122
SPMM,122,51,0 69 2121
UPDATE,51,1 69 2120
XTY,51,11,4 69 2119
DLACPY,50,1 69 2118
SPMM,56,50,0 69 2117
SPMM,58,50,0 69 2116
SPMM,59,50,0 69 2115
SPMM,60,50,0 69 2114
SPMM,61,50,0 69 2113
UPDATE,50,1 69 2112
XTY,50,10,4 69 2111
DLACPY,49,1 69 2110
SPMM,56,49,0 69 2109
SPMM,57,49,0 69 2108
SPMM,58,49,0 69 2107
SPMM,59,49,0 69 2106
SPMM,60,49,0 69 2105
SPMM,61,49,0 69 2104
UPDATE,49,1 69 2103
XTY,49,9,4 69 2102
DLACPY,48,1 69 2101
SPMM,56,48,0 69 2100
SPMM,57,48,0 69 2099
SPMM,58,48,0 69 2098
SPMM,59,48,0 69 2097
SPMM,60,48,0 69 2096
SPMM,61,48,0 69 2095
SPMM,122,48,0 69 2094
UPDATE,48,1 69 2093
XTY,48,8,4 69 2092
SPMM,48,48,0 71 2091
SPMM,49,48,0 71 2090
SPMM,50,48,0 71 2089
SPMM,51,48,0 71 2088
SPMM,52,48,0 71 2087
SPMM,53,48,0 71 2086
SPMM,54,48,0 71 2085
SPMM,55,48,0 71 2084
SPMM,49,49,0 71 2083
SPMM,50,49,0 71 2082
SPMM,51,49,0 71 2081
SPMM,52,49,0 71 2080
SPMM,53,49,0 71 2079
SPMM,54,49,0 71 2078
SPMM,50,50,0 71 2077
SPMM,51,50,0 71 2076
SPMM,53,50,0 71 2075
SPMM,51,51,0 71 2074
SPMM,52,51,0 71 2073
SPMM,53,51,0 71 2072
SPMM,54,51,0 71 2071
SPMM,55,51,0 71 2070
SPMM,52,52,0 71 2069
SPMM,53,52,0 71 2068
SPMM,54,52,0 71 2067
SPMM,53,53,0 71 2066
SPMM,54,53,0 71 2065
SPMM,54,54,0 71 2064
SPMM,55,54,0 71 2063
SPMM,55,55,0 71 2062
UPDATE,104,1 71 2061
XTY,104,4,4 71 2060
UPDATE,105,1 71 2059
XTY,105,5,4 71 2058
UPDATE,106,1 71 2057
XTY,106,6,4 71 2056
UPDATE,107,1 71 2055
XTY,107,7,4 71 2054
UPDATE,108,1 71 2053
XTY,108,8,4 71 2052
UPDATE,109,1 71 2051
XTY,109,9,4 71 2050
UPDATE,110,1 71 2049
XTY,110,10,4 71 2048
UPDATE,111,1 71 2047
XTY,111,11,4 71 2046
XY,112,3 65 2045
DLACPY,112,1 65 2044
SPMM,112,112,0 65 2043
SPMM,113,112,0 65 2042
SPMM,114,112,0 65 2041
SPMM,115,112,0 65 2040
SPMM,116,112,0 65 2039
SPMM,117,112,0 65 2038
SPMM,119,112,0 65 2037
SPMM,120,112,0 65 2036
SPMM,121,112,0 65 2035
SPMM,122,112,0 65 2034
XY,113,3 65 2033
DLACPY,113,1 65 2032
SPMM,113,113,0 65 2031
SPMM,114,113,0 65 2030
SPMM,115,113,0 65 2029
SPMM,116,113,0 65 2028
SPMM,117,113,0 65 2027
SPMM,118,113,0 65 2026
SPMM,119,113,0 65 2025
SPMM,120,113,0 65 2024
SPMM,121,113,0 65 2023
SPMM,122,113,0 65 2022
XY,114,3 65 2021
DLACPY,114,1 65 2020
SPMM,114,114,0 65 2019
SPMM,115,114,0 65 2018
SPMM,116,114,0 65 2017
SPMM,117,114,0 65 2016
SPMM,118,114,0 65 2015
SPMM,119,114,0 65 2014
SPMM,120,114,0 65 2013
SPMM,121,114,0 65 2012
SPMM,122,114,0 65 2011
XY,115,3 65 2010
DLACPY,115,1 65 2009
SPMM,115,115,0 65 2008
SPMM,116,115,0 65 2007
SPMM,117,115,0 65 2006
SPMM,118,115,0 65 2005
SPMM,119,115,0 65 2004
SPMM,120,115,0 65 2003
SPMM,121,115,0 65 2002
SPMM,122,115,0 65 2001
XY,116,3 65 2000
DLACPY,116,1 65 1999
SPMM,116,116,0 65 1998
SPMM,117,116,0 65 1997
SPMM,118,116,0 65 1996
SPMM,119,116,0 65 1995
SPMM,120,116,0 65 1994
SPMM,121,116,0 65 1993
SPMM,122,116,0 65 1992
XY,117,3 65 1991
DLACPY,117,1 65 1990
SPMM,117,117,0 65 1989
SPMM,118,117,0 65 1988
SPMM,119,117,0 65 1987
SPMM,120,117,0 65 1986
SPMM,121,117,0 65 1985
SPMM,122,117,0 65 1984
XY,118,3 65 1983
DLACPY,118,1 65 1982
SPMM,118,118,0 65 1981
SPMM,119,118,0 65 1980
SPMM,120,118,0 65 1979
SPMM,121,118,0 65 1978
SPMM,122,118,0 65 1977
XY,119,3 65 1976
DLACPY,119,1 65 1975
SPMM,119,119,0 65 1974
SPMM,120,119,0 65 1973
SPMM,121,119,0 65 1972
SPMM,122,119,0 65 1971
UPDATE,119,1 66 1970
XTY,119,19,4 66 1969
UPDATE,118,1 66 1968
XTY,118,18,4 66 1967
UPDATE,117,1 66 1966
XTY,117,17,4 66 1965
UPDATE,116,1 66 1964
XTY,116,16,4 66 1963
UPDATE,115,1 66 1962
XTY,115,15,4 66 1961
UPDATE,114,1 66 1960
XTY,114,14,4 66 1959
UPDATE,113,1 66 1958
XTY,113,13,4 66 1957
UPDATE,112,1 66 1956
XTY,112,12,4 66 1955
XY,56,3 66 1954
XY,57,3 66 1953
XY,58,3 66 1952
XY,59,3 66 1951
XY,60,3 66 1950
XY,61,3 66 1949
XY,62,3 66 1948
XY,63,3 66 1947
DLACPY,63,1 102 1946
SPMM,63,63,0 102 1945
SPMM,72,63,0 102 1944
SPMM,73,63,0 102 1943
SPMM,74,63,0 102 1942
SPMM,75,63,0 102 1941
SPMM,76,63,0 102 1940
SPMM,77,63,0 102 1939
SPMM,78,63,0 102 1938
SPMM,79,63,0 102 1937
SPMM,80,63,0 102 1936
SPMM,81,63,0 102 1935
SPMM,82,63,0 102 1934
SPMM,83,63,0 102 1933
SPMM,84,63,0 102 1932
SPMM,85,63,0 102 1931
SPMM,86,63,0 102 1930
SPMM,87,63,0 102 1929
DLACPY,62,1 102 1928
SPMM,62,62,0 102 1927
SPMM,63,62,0 102 1926
SPMM,72,62,0 102 1925
SPMM,73,62,0 102 1924
SPMM,74,62,0 102 1923
SPMM,75,62,0 102 1922
SPMM,76,62,0 102 1921
SPMM,77,62,0 102 1920
SPMM,78,62,0 102 1919
SPMM,79,62,0 102 1918
SPMM,80,62,0 102 1917
SPMM,81,62,0 102 1916
SPMM,82,62,0 102 1915
SPMM,83,62,0 102 1914
SPMM,84,62,0 102 1913
SPMM,85,62,0 102 1912
SPMM,86,62,0 102 1911
SPMM,87,62,0 102 1910
DLACPY,61,1 102 1909
SPMM,61,61,0 102 1908
SPMM,62,61,0 102 1907
SPMM,63,61,0 102 1906
SPMM,72,61,0 102 1905
SPMM,73,61,0 102 1904
SPMM,74,61,0 102 1903
SPMM,75,61,0 102 1902
SPMM,76,61,0 102 1901
SPMM,77,61,0 102 1900
SPMM,78,61,0 102 1899
SPMM,79,61,0 102 1898
SPMM,80,61,0 102 1897
SPMM,81,61,0 102 1896
SPMM,82,61,0 102 1895
SPMM,83,61,0 102 1894
SPMM,84,61,0 102 1893
SPMM,85,61,0 102 1892
SPMM,86,61,0 102 1891
SPMM,87,61,0 102 1890
DLACPY,60,1 102 1889
SPMM,60,60,0 102 1888
SPMM,61,60,0 102 1887
DLACPY,59,1 102 1886
SPMM,59,59,0 102 1885
SPMM,60,59,0 102 1884
SPMM,61,59,0 102 1883
DLACPY,58,1 102 1882
SPMM,58,58,0 102 1881
SPMM,59,58,0 102 1880
SPMM,60,58,0 102 1879
SPMM,61,58,0 102 1878
DLACPY,57,1 102 1877
SPMM,57,57,0 102 1876
SPMM,58,57,0 102 1875
SPMM,60,57,0 102 1874
SPMM,61,57,0 102 1873
DLACPY,56,1 102 1872
SPMM,56,56,0 102 1871
SPMM,57,56,0 102 1870
SPMM,58,56,0 102 1869
SPMM,59,56,0 102 1868
SPMM,60,56,0 102 1867
SPMM,61,56,0 102 1866
SPMM,64,61,0 103 1865
SPMM,68,61,0 103 1864
SPMM,69,61,0 103 1863
SPMM,70,61,0 103 1862
SPMM,71,61,0 103 1861
SPMM,64,62,0 103 1860
SPMM,68,62,0 103 1859
SPMM,69,62,0 103 1858
SPMM,70,62,0 103 1857
SPMM,71,62,0 103 1856
SPMM,64,63,0 103 1855
SPMM,68,63,0 103 1854
SPMM,69,63,0 103 1853
SPMM,70,63,0 103 1852
SPMM,71,63,0 103 1851
SPMM,88,61,0 104 1850
SPMM,89,61,0 104 1849
SPMM,90,61,0 104 1848
SPMM,91,61,0 104 1847
SPMM,92,61,0 104 1846
SPMM,93,61,0 104 1845
SPMM,94,61,0 104 1844
SPMM,95,61,0 104 1843
SPMM,96,61,0 104 1842
SPMM,109,61,0 104 1841
SPMM,88,62,0 104 1840
SPMM,89,62,0 104 1839
SPMM,90,62,0 104 1838
SPMM,91,62,0 104 1837
SPMM,92,62,0 104 1836
SPMM,93,62,0 104 1835
SPMM,94,62,0 104 1834
SPMM,95,62,0 104 1833
SPMM,96,62,0 104 1832
SPMM,109,62,0 104 1831
SPMM,88,63,0 104 1830
SPMM,89,63,0 104 1829
SPMM,90,63,0 104 1828
SPMM,91,63,0 104 1827
SPMM,92,63,0 104 1826
SPMM,93,63,0 104 1825
SPMM,94,63,0 104 1824
SPMM,95,63,0 104 1823
SPMM,96,63,0 104 1822
SPMM,109,63,0 104 1821
UPDATE,56,1 106 1820
XTY,56,16,4 106 1819
UPDATE,57,1 106 1818
XTY,57,17,4 106 1817
UPDATE,58,1 106 1816
XTY,58,18,4 106 1815
UPDATE,59,1 106 1814
XTY,59,19,4 106 1813
UPDATE,60,1 106 1812
XTY,60,0,4 106 1811
SPMM,112,61,0 106 1810
SPMM,116,61,0 106 1809
SPMM,117,61,0 106 1808
UPDATE,61,1 106 1807
XTY,61,1,4 106 1806
SPMM,117,62,0 106 1805
SPMM,118,62,0 106 1804
SPMM,119,62,0 106 1803
UPDATE,62,1 106 1802
XTY,62,2,4 106 1801
SPMM,117,63,0 106 1800
SPMM,118,63,0 106 1799
UPDATE,63,1 106 1798
XTY,63,3,4 106 1797
SPMM,96,10,0 106 1796
XY,120,3 64 1795
DLACPY,120,1 64 1794
SPMM,120,120,0 64 1793
SPMM,121,120,0 64 1792
SPMM,122,120,0 64 1791
UPDATE,120,1 64 1790
XTY,120,0,4 64 1789
XY,121,3 64 1788
DLACPY,121,1 64 1787
SPMM,121,121,0 64 1786
SPMM,122,121,0 64 1785
UPDATE,121,1 64 1784
XTY,121,1,4 64 1783
XY,122,3 64 1782
DLACPY,122,1 64 1781
SPMM,122,122,0 64 1780
UPDATE,122,1 64 1779
XTY,122,2,4 64 1778
XY,0,3 59 1777
XY,1,3 59 1776
XY,2,3 59 1775
XY,3,3 59 1774
XY,4,3 59 1773
XY,5,3 59 1772
XY,6,3 59 1771
XY,7,3 59 1770
XY,72,3 59 1769
XY,73,3 59 1768
XY,74,3 59 1767
XY,75,3 59 1766
XY,76,3 59 1765
XY,77,3 59 1764
XY,78,3 59 1763
XY,79,3 59 1762
DLACPY,79,1 83 1761
SPMM,79,79,0 83 1760
SPMM,88,79,0 83 1759
SPMM,89,79,0 83 1758
SPMM,90,79,0 83 1757
SPMM,91,79,0 83 1756
SPMM,92,79,0 83 1755
SPMM,93,79,0 83 1754
SPMM,94,79,0 83 1753
SPMM,95,79,0 83 1752
DLACPY,78,1 83 1751
SPMM,78,78,0 83 1750
SPMM,79,78,0 83 1749
SPMM,89,78,0 83 1748
SPMM,91,78,0 83 1747
SPMM,92,78,0 83 1746
SPMM,93,78,0 83 1745
SPMM,94,78,0 83 1744
SPMM,95,78,0 83 1743
DLACPY,77,1 83 1742
SPMM,77,77,0 83 1741
SPMM,78,77,0 83 1740
SPMM,89,77,0 83 1739
SPMM,91,77,0 83 1738
SPMM,92,77,0 83 1737
SPMM,93,77,0 83 1736
SPMM,94,77,0 83 1735
SPMM,95,77,0 83 1734
DLACPY,76,1 83 1733
SPMM,76,76,0 83 1732
SPMM,77,76,0 83 1731
SPMM,78,76,0 83 1730
SPMM,79,76,0 83 1729
SPMM,89,76,0 83 1728
SPMM,90,76,0 83 1727
SPMM,91,76,0 83 1726
SPMM,92,76,0 83 1725
SPMM,93,76,0 83 1724
SPMM,94,76,0 83 1723
SPMM,95,76,0 83 1722
DLACPY,75,1 83 1721
SPMM,75,75,0 83 1720
SPMM,76,75,0 83 1719
SPMM,91,75,0 83 1718
SPMM,92,75,0 83 1717
SPMM,93,75,0 83 1716
SPMM,94,75,0 83 1715
SPMM,95,75,0 83 1714
DLACPY,74,1 83 1713
SPMM,74,74,0 83 1712
SPMM,75,74,0 83 1711
SPMM,79,74,0 83 1710
SPMM,90,74,0 83 1709
SPMM,91,74,0 83 1708
SPMM,92,74,0 83 1707
SPMM,93,74,0 83 1706
SPMM,94,74,0 83 1705
SPMM,95,74,0 83 1704
DLACPY,73,1 83 1703
SPMM,73,73,0 83 1702
SPMM,74,73,0 83 1701
SPMM,75,73,0 83 1700
SPMM,89,73,0 83 1699
SPMM,90,73,0 83 1698
SPMM,91,73,0 83 1697
SPMM,92,73,0 83 1696
SPMM,93,73,0 83 1695
SPMM,94,73,0 83 1694
SPMM,95,73,0 83 1693
DLACPY,72,1 83 1692
SPMM,72,72,0 83 1691
SPMM,73,72,0 83 1690
SPMM,74,72,0 83 1689
SPMM,75,72,0 83 1688
SPMM,76,72,0 83 1687
SPMM,77,72,0 83 1686
SPMM,78,72,0 83 1685
SPMM,79,72,0 83 1684
SPMM,89,72,0 83 1683
SPMM,90,72,0 83 1682
SPMM,91,72,0 83 1681
SPMM,92,72,0 83 1680
SPMM,93,72,0 83 1679
SPMM,94,72,0 83 1678
SPMM,95,72,0 83 1677
SPMM,117,79,0 84 1676
SPMM,118,79,0 84 1675
SPMM,119,79,0 84 1674
SPMM,80,72,0 97 1673
SPMM,82,72,0 97 1672
SPMM,83,72,0 97 1671
SPMM,84,72,0 97 1670
SPMM,85,72,0 97 1669
SPMM,86,72,0 97 1668
SPMM,87,72,0 97 1667
SPMM,80,73,0 97 1666
SPMM,81,73,0 97 1665
SPMM,82,73,0 97 1664
SPMM,83,73,0 97 1663
SPMM,86,73,0 97 1662
SPMM,80,74,0 97 1661
SPMM,81,74,0 97 1660
SPMM,86,74,0 97 1659
SPMM,87,74,0 97 1658
SPMM,80,75,0 97 1657
SPMM,81,75,0 97 1656
SPMM,82,75,0 97 1655
SPMM,86,75,0 97 1654
SPMM,80,76,0 97 1653
SPMM,81,76,0 97 1652
SPMM,82,76,0 97 1651
SPMM,83,76,0 97 1650
SPMM,84,76,0 97 1649
SPMM,85,76,0 97 1648
SPMM,86,76,0 97 1647
SPMM,87,76,0 97 1646
SPMM,83,77,0 97 1645
SPMM,85,77,0 97 1644
SPMM,86,77,0 97 1643
SPMM,83,78,0 97 1642
SPMM,84,78,0 97 1641
SPMM,85,78,0 97 1640
SPMM,86,78,0 97 1639
SPMM,80,79,0 97 1638
SPMM,81,79,0 97 1637
SPMM,82,79,0 97 1636
SPMM,83,79,0 97 1635
SPMM,84,79,0 97 1634
SPMM,85,79,0 97 1633
SPMM,86,79,0 97 1632
SPMM,87,79,0 97 1631
SPMM,47,18,0 97 1630
SPMM,96,72,0 95 1629
UPDATE,72,1 95 1628
SPMM,96,73,0 95 1627
UPDATE,73,1 95 1626
SPMM,96,74,0 95 1625
UPDATE,74,1 95 1624
SPMM,96,75,0 95 1623
UPDATE,75,1 95 1622
SPMM,96,76,0 95 1621
UPDATE,76,1 95 1620
SPMM,96,77,0 95 1619
UPDATE,77,1 95 1618
SPMM,96,78,0 95 1617
UPDATE,78,1 95 1616
SPMM,96,79,0 95 1615
UPDATE,79,1 95 1614
SPMM,64,25,0 95 1613
SPMM,71,25,0 95 1612
SPMM,64,29,0 95 1611
SPMM,69,29,0 95 1610
SPMM,71,29,0 95 1609
SPMM,90,29,0 95 1608
SPMM,91,29,0 95 1607
SPMM,64,30,0 95 1606
SPMM,71,30,0 95 1605
SPMM,91,30,0 95 1604
XTY,72,12,4 86 1603
XTY,73,13,4 86 1602
XTY,74,14,4 86 1601
XTY,75,15,4 86 1600
XTY,76,16,4 86 1599
XTY,77,17,4 86 1598
XTY,78,18,4 86 1597
XTY,79,19,4 86 1596
SPMM,60,26,0 86 1595
SPMM,61,26,0 86 1594
SPMM,60,27,0 86 1593
SPMM,60,28,0 86 1592
SPMM,60,29,0 86 1591
SPMM,56,30,0 86 1590
SPMM,57,30,0 86 1589
SPMM,59,30,0 86 1588
SPMM,60,30,0 86 1587
SPMM,61,30,0 86 1586
SPMM,72,64,0 108 1585
SPMM,73,64,0 108 1584
SPMM,74,64,0 108 1583
SPMM,75,64,0 108 1582
SPMM,76,64,0 108 1581
SPMM,77,64,0 108 1580
SPMM,78,64,0 108 1579
SPMM,79,64,0 108 1578
SPMM,79,68,0 108 1577
SPMM,72,69,0 108 1576
SPMM,73,69,0 108 1575
SPMM,74,69,0 108 1574
SPMM,75,69,0 108 1573
SPMM,76,69,0 108 1572
SPMM,77,69,0 108 1571
SPMM,78,69,0 108 1570
SPMM,79,69,0 108 1569
SPMM,72,70,0 108 1568
SPMM,73,70,0 108 1567
SPMM,74,70,0 108 1566
XTY,74,14,5 108 1565
SPMM,75,70,0 108 1564
XTY,75,15,5 108 1563
SPMM,76,70,0 108 1562
SPMM,77,70,0 108 1561
SPMM,78,70,0 108 1560
SPMM,79,70,0 108 1559
SPMM,72,71,0 108 1558
XTY,72,12,5 108 1557
SPMM,73,71,0 108 1556
XTY,73,13,5 108 1555
SPMM,76,71,0 108 1554
XTY,76,16,5 108 1553
SPMM,77,71,0 108 1552
XTY,77,17,5 108 1551
SPMM,78,71,0 108 1550
XTY,78,18,5 108 1549
SPMM,79,71,0 108 1548
XTY,79,19,5 108 1547
DLACPY,7,1 90 1546
SPMM,7,7,0 90 1545
SPMM,56,7,0 90 1544
SPMM,57,7,0 90 1543
SPMM,58,7,0 90 1542
SPMM,59,7,0 90 1541
SPMM,60,7,0 90 1540
SPMM,61,7,0 90 1539
DLACPY,6,1 90 1538
SPMM,6,6,0 90 1537
SPMM,7,6,0 90 1536
SPMM,56,6,0 90 1535
SPMM,57,6,0 90 1534
SPMM,58,6,0 90 1533
SPMM,59,6,0 90 1532
SPMM,60,6,0 90 1531
SPMM,61,6,0 90 1530
DLACPY,5,1 90 1529
SPMM,5,5,0 90 1528
SPMM,6,5,0 90 1527
SPMM,7,5,0 90 1526
SPMM,56,5,0 90 1525
SPMM,57,5,0 90 1524
SPMM,58,5,0 90 1523
SPMM,59,5,0 90 1522
SPMM,60,5,0 90 1521
SPMM,61,5,0 90 1520
DLACPY,4,1 90 1519
SPMM,4,4,0 90 1518
SPMM,5,4,0 90 1517
SPMM,6,4,0 90 1516
SPMM,7,4,0 90 1515
SPMM,56,4,0 90 1514
SPMM,57,4,0 90 1513
SPMM,58,4,0 90 1512
SPMM,60,4,0 90 1511
DLACPY,3,1 90 1510
SPMM,3,3,0 90 1509
SPMM,4,3,0 90 1508
XTY,4,4,5 90 1507
SPMM,5,3,0 90 1506
XTY,5,5,5 90 1505
SPMM,6,3,0 90 1504
SPMM,7,3,0 90 1503
SPMM,56,3,0 90 1502
SPMM,57,3,0 90 1501
SPMM,59,3,0 90 1500
SPMM,60,3,0 90 1499
SPMM,61,3,0 90 1498
SPMM,89,3,0 90 1497
SPMM,90,3,0 90 1496
SPMM,91,3,0 90 1495
SPMM,93,3,0 90 1494
DLACPY,2,1 90 1493
SPMM,2,2,0 90 1492
SPMM,3,2,0 90 1491
SPMM,7,2,0 90 1490
SPMM,60,2,0 90 1489
SPMM,61,2,0 90 1488
DLACPY,1,1 90 1487
SPMM,1,1,0 90 1486
SPMM,2,1,0 90 1485
SPMM,3,1,0 90 1484
SPMM,6,1,0 90 1483
SPMM,7,1,0 90 1482
SPMM,56,1,0 90 1481
SPMM,57,1,0 90 1480
SPMM,59,1,0 90 1479
SPMM,60,1,0 90 1478
DLACPY,0,1 90 1477
SPMM,0,0,0 90 1476
XTY,0,0,5 90 1475
SPMM,1,0,0 90 1474
XTY,1,1,5 90 1473
SPMM,2,0,0 90 1472
XTY,2,2,5 90 1471
SPMM,3,0,0 90 1470
XTY,3,3,5 90 1469
SPMM,6,0,0 90 1468
XTY,6,6,5 90 1467
SPMM,7,0,0 90 1466
XTY,7,7,5 90 1465
SPMM,56,0,0 90 1464
SPMM,60,0,0 90 1463
SPMM,61,0,0 90 1462
SPMM,89,0,0 90 1461
SPMM,90,0,0 90 1460
SPMM,91,0,0 90 1459
SPMM,92,0,0 90 1458
SPMM,93,0,0 90 1457
SPMM,94,0,0 90 1456
SPMM,95,0,0 90 1455
SPMM,88,64,0 110 1454
SPMM,89,64,0 110 1453
SPMM,90,64,0 110 1452
SPMM,91,64,0 110 1451
SPMM,92,64,0 110 1450
SPMM,93,64,0 110 1449
SPMM,94,64,0 110 1448
SPMM,95,64,0 110 1447
UPDATE,64,1 110 1446
UPDATE,65,1 110 1445
UPDATE,66,1 110 1444
SPMM,90,67,0 110 1443
SPMM,91,67,0 110 1442
UPDATE,67,1 110 1441
SPMM,90,68,0 110 1440
SPMM,91,68,0 110 1439
UPDATE,68,1 110 1438
SPMM,88,69,0 110 1437
SPMM,89,69,0 110 1436
SPMM,90,69,0 110 1435
SPMM,91,69,0 110 1434
SPMM,92,69,0 110 1433
SPMM,93,69,0 110 1432
SPMM,94,69,0 110 1431
SPMM,95,69,0 110 1430
UPDATE,69,1 110 1429
SPMM,88,70,0 110 1428
SPMM,89,70,0 110 1427
SPMM,90,70,0 110 1426
SPMM,91,70,0 110 1425
SPMM,92,70,0 110 1424
SPMM,93,70,0 110 1423
SPMM,94,70,0 110 1422
SPMM,95,70,0 110 1421
UPDATE,70,1 110 1420
SPMM,88,71,0 110 1419
XTY,88,8,5 110 1418
SPMM,89,71,0 110 1417
XTY,89,9,5 110 1416
SPMM,90,71,0 110 1415
XTY,90,10,5 110 1414
SPMM,91,71,0 110 1413
XTY,91,11,5 110 1412
SPMM,92,71,0 110 1411
XTY,92,12,5 110 1410
SPMM,93,71,0 110 1409
XTY,93,13,5 110 1408
SPMM,94,71,0 110 1407
XTY,94,14,5 110 1406
SPMM,95,71,0 110 1405
XTY,95,15,5 110 1404
UPDATE,71,1 110 1403
SPMM,8,0,0 94 1402
SPMM,9,0,0 94 1401
SPMM,10,0,0 94 1400
SPMM,11,0,0 94 1399
SPMM,12,0,0 94 1398
SPMM,13,0,0 94 1397
SPMM,14,0,0 94 1396
SPMM,15,0,0 94 1395
SPMM,8,1,0 94 1394
SPMM,9,1,0 94 1393
SPMM,10,1,0 94 1392
SPMM,11,1,0 94 1391
SPMM,12,1,0 94 1390
SPMM,13,1,0 94 1389
SPMM,14,1,0 94 1388
SPMM,15,1,0 94 1387
SPMM,8,2,0 94 1386
SPMM,9,2,0 94 1385
SPMM,10,2,0 94 1384
SPMM,11,2,0 94 1383
SPMM,12,2,0 94 1382
SPMM,13,2,0 94 1381
SPMM,14,2,0 94 1380
SPMM,15,2,0 94 1379
SPMM,8,3,0 94 1378
SPMM,9,3,0 94 1377
SPMM,10,3,0 94 1376
SPMM,11,3,0 94 1375
SPMM,12,3,0 94 1374
SPMM,13,3,0 94 1373
SPMM,14,3,0 94 1372
SPMM,15,3,0 94 1371
SPMM,10,6,0 94 1370
SPMM,8,7,0 94 1369
XTY,8,8,5 94 1368
SPMM,9,7,0 94 1367
XTY,9,9,5 94 1366
SPMM,10,7,0 94 1365
XTY,10,10,5 94 1364
SPMM,11,7,0 94 1363
XTY,11,11,5 94 1362
SPMM,12,7,0 94 1361
XTY,12,12,5 94 1360
SPMM,13,7,0 94 1359
XTY,13,13,5 94 1358
SPMM,14,7,0 94 1357
XTY,14,14,5 94 1356
SPMM,15,7,0 94 1355
XTY,15,15,5 94 1354
SPMM,24,0,0 93 1353
SPMM,25,0,0 93 1352
SPMM,26,0,0 93 1351
SPMM,27,0,0 93 1350
SPMM,28,0,0 93 1349
SPMM,29,0,0 93 1348
SPMM,30,0,0 93 1347
SPMM,31,0,0 93 1346
SPMM,24,1,0 93 1345
SPMM,25,1,0 93 1344
SPMM,26,1,0 93 1343
SPMM,27,1,0 93 1342
SPMM,28,1,0 93 1341
SPMM,29,1,0 93 1340
SPMM,30,1,0 93 1339
SPMM,31,1,0 93 1338
SPMM,24,2,0 93 1337
SPMM,25,2,0 93 1336
SPMM,26,2,0 93 1335
SPMM,27,2,0 93 1334
SPMM,28,2,0 93 1333
SPMM,29,2,0 93 1332
SPMM,30,2,0 93 1331
SPMM,31,2,0 93 1330
SPMM,24,3,0 93 1329
SPMM,25,3,0 93 1328
SPMM,26,3,0 93 1327
SPMM,27,3,0 93 1326
SPMM,28,3,0 93 1325
SPMM,29,3,0 93 1324
SPMM,30,3,0 93 1323
SPMM,31,3,0 93 1322
SPMM,29,5,0 93 1321
SPMM,30,5,0 93 1320
SPMM,30,6,0 93 1319
SPMM,24,7,0 93 1318
XTY,24,4,5 93 1317
SPMM,25,7,0 93 1316
XTY,25,5,5 93 1315
SPMM,26,7,0 93 1314
XTY,26,6,5 93 1313
SPMM,27,7,0 93 1312
XTY,27,7,5 93 1311
SPMM,28,7,0 93 1310
XTY,28,8,5 93 1309
SPMM,29,7,0 93 1308
XTY,29,9,5 93 1307
SPMM,30,7,0 93 1306
XTY,30,10,5 93 1305
SPMM,31,7,0 93 1304
XTY,31,11,5 93 1303
SPMM,47,0,0 98 1302
SPMM,47,1,0 98 1301
SPMM,47,2,0 98 1300
SPMM,40,3,0 98 1299
SPMM,41,3,0 98 1298
SPMM,42,3,0 98 1297
SPMM,43,3,0 98 1296
SPMM,44,3,0 98 1295
SPMM,45,3,0 98 1294
SPMM,46,3,0 98 1293
SPMM,47,3,0 98 1292
SPMM,40,4,0 98 1291
SPMM,41,4,0 98 1290
SPMM,42,4,0 98 1289
SPMM,43,4,0 98 1288
SPMM,44,4,0 98 1287
SPMM,45,4,0 98 1286
SPMM,46,4,0 98 1285
SPMM,47,4,0 98 1284
SPMM,40,5,0 98 1283
SPMM,41,5,0 98 1282
SPMM,42,5,0 98 1281
SPMM,43,5,0 98 1280
SPMM,44,5,0 98 1279
SPMM,45,5,0 98 1278
SPMM,46,5,0 98 1277
SPMM,47,5,0 98 1276
SPMM,43,6,0 98 1275
SPMM,46,6,0 98 1274
SPMM,47,6,0 98 1273
SPMM,43,7,0 98 1272
SPMM,46,7,0 98 1271
SPMM,47,7,0 98 1270
SPMM,48,0,0 101 1269
SPMM,51,0,0 101 1268
SPMM,55,0,0 101 1267
SPMM,48,1,0 101 1266
SPMM,48,2,0 101 1265
SPMM,48,3,0 101 1264
SPMM,49,3,0 101 1263
SPMM,50,3,0 101 1262
SPMM,51,3,0 101 1261
SPMM,52,3,0 101 1260
SPMM,55,3,0 101 1259
SPMM,49,4,0 101 1258
SPMM,51,4,0 101 1257
SPMM,52,4,0 101 1256
SPMM,53,4,0 101 1255
SPMM,48,5,0 101 1254
SPMM,49,5,0 101 1253
SPMM,50,5,0 101 1252
SPMM,51,5,0 101 1251
SPMM,52,5,0 101 1250
SPMM,53,5,0 101 1249
SPMM,54,5,0 101 1248
SPMM,55,5,0 101 1247
SPMM,48,6,0 101 1246
SPMM,49,6,0 101 1245
SPMM,50,6,0 101 1244
SPMM,51,6,0 101 1243
SPMM,52,6,0 101 1242
SPMM,53,6,0 101 1241
SPMM,54,6,0 101 1240
SPMM,55,6,0 101 1239
SPMM,48,7,0 101 1238
SPMM,49,7,0 101 1237
SPMM,50,7,0 101 1236
SPMM,51,7,0 101 1235
SPMM,52,7,0 101 1234
SPMM,53,7,0 101 1233
SPMM,54,7,0 101 1232
SPMM,55,7,0 101 1231
SPMM,117,80,0 101 1230
SPMM,118,80,0 101 1229
XTY,118,18,5 112 1228
XTY,117,17,5 112 1227
XTY,119,19,5 112 1226
XTY,116,16,5 112 1225
XTY,112,12,5 112 1224
XTY,115,15,5 112 1223
XTY,114,14,5 112 1222
XTY,113,13,5 112 1221
SPMM,104,64,0 112 1220
SPMM,105,64,0 112 1219
SPMM,106,64,0 112 1218
SPMM,108,64,0 112 1217
SPMM,109,64,0 112 1216
SPMM,104,65,0 112 1215
SPMM,105,65,0 112 1214
SPMM,106,65,0 112 1213
SPMM,107,65,0 112 1212
SPMM,108,65,0 112 1211
SPMM,109,65,0 112 1210
SPMM,110,65,0 112 1209
SPMM,111,65,0 112 1208
SPMM,104,66,0 112 1207
SPMM,105,66,0 112 1206
SPMM,106,66,0 112 1205
SPMM,107,66,0 112 1204
SPMM,108,66,0 112 1203
SPMM,109,66,0 112 1202
SPMM,110,66,0 112 1201
SPMM,111,66,0 112 1200
SPMM,105,67,0 112 1199
SPMM,107,67,0 112 1198
SPMM,108,67,0 112 1197
SPMM,109,67,0 112 1196
SPMM,110,67,0 112 1195
SPMM,111,67,0 112 1194
SPMM,107,68,0 112 1193
SPMM,108,68,0 112 1192
SPMM,109,68,0 112 1191
SPMM,110,68,0 112 1190
SPMM,111,68,0 112 1189
SPMM,105,69,0 112 1188
SPMM,108,69,0 112 1187
SPMM,109,69,0 112 1186
SPMM,110,69,0 112 1185
SPMM,109,71,0 112 1184
XTY,110,10,5 113 1183
XTY,108,8,5 113 1182
XTY,105,5,5 113 1181
XTY,111,11,5 113 1180
XTY,107,7,5 113 1179
XTY,106,6,5 113 1178
XTY,104,4,5 113 1177
SPMM,109,79,0 113 1176
XTY,109,9,5 113 1175
SPMM,16,0,0 91 1174
SPMM,17,0,0 91 1173
SPMM,18,0,0 91 1172
SPMM,19,0,0 91 1171
SPMM,20,0,0 91 1170
SPMM,21,0,0 91 1169
SPMM,22,0,0 91 1168
SPMM,23,0,0 91 1167
SPMM,86,0,0 91 1166
SPMM,87,0,0 91 1165
SPMM,16,1,0 91 1164
SPMM,17,1,0 91 1163
SPMM,18,1,0 91 1162
SPMM,19,1,0 91 1161
SPMM,20,1,0 91 1160
SPMM,21,1,0 91 1159
SPMM,22,1,0 91 1158
SPMM,23,1,0 91 1157
SPMM,16,2,0 91 1156
SPMM,17,2,0 91 1155
SPMM,18,2,0 91 1154
SPMM,19,2,0 91 1153
SPMM,20,2,0 91 1152
SPMM,21,2,0 91 1151
SPMM,22,2,0 91 1150
SPMM,23,2,0 91 1149
SPMM,86,2,0 91 1148
SPMM,87,2,0 91 1147
SPMM,16,3,0 91 1146
SPMM,18,3,0 91 1145
SPMM,19,3,0 91 1144
SPMM,20,3,0 91 1143
SPMM,21,3,0 91 1142
SPMM,22,3,0 91 1141
SPMM,23,3,0 91 1140
SPMM,18,6,0 91 1139
SPMM,16,7,0 91 1138
XTY,16,16,5 91 1137
SPMM,17,7,0 91 1136
XTY,17,17,5 91 1135
SPMM,18,7,0 91 1134
XTY,18,18,5 91 1133
SPMM,19,7,0 91 1132
XTY,19,19,5 91 1131
SPMM,20,7,0 91 1130
XTY,20,0,5 91 1129
SPMM,21,7,0 91 1128
XTY,21,1,5 91 1127
SPMM,22,7,0 91 1126
XTY,22,2,5 91 1125
SPMM,23,7,0 91 1124
XTY,23,3,5 91 1123
XTY,87,7,5 114 1122
XTY,85,5,5 114 1121
XTY,84,4,5 114 1120
XTY,83,3,5 114 1119
XTY,82,2,5 114 1118
XTY,81,1,5 114 1117
XTY,80,0,5 114 1116
SPMM,86,25,0 114 1115
XTY,86,6,5 114 1114
SPMM,96,0,0 100 1113
SPMM,48,47,0 100 1112
SPMM,49,47,0 100 1111
SPMM,50,47,0 100 1110
SPMM,51,47,0 100 1109
SPMM,52,47,0 100 1108
SPMM,53,47,0 100 1107
SPMM,54,47,0 100 1106
SPMM,55,47,0 100 1105
SPMM,49,46,0 100 1104
SPMM,50,46,0 100 1103
SPMM,51,46,0 100 1102
SPMM,52,46,0 100 1101
SPMM,53,46,0 100 1100
SPMM,51,43,0 100 1099
SPMM,52,43,0 100 1098
SPMM,53,43,0 100 1097
SPMM,96,64,0 117 1096
SPMM,97,64,0 117 1095
SPMM,100,64,0 117 1094
SPMM,101,64,0 117 1093
SPMM,96,65,0 117 1092
SPMM,97,65,0 117 1091
SPMM,98,65,0 117 1090
SPMM,99,65,0 117 1089
SPMM,100,65,0 117 1088
SPMM,101,65,0 117 1087
SPMM,102,65,0 117 1086
SPMM,103,65,0 117 1085
SPMM,96,66,0 117 1084
SPMM,97,66,0 117 1083
SPMM,98,66,0 117 1082
SPMM,99,66,0 117 1081
SPMM,100,66,0 117 1080
SPMM,101,66,0 117 1079
SPMM,102,66,0 117 1078
XTY,102,2,5 117 1077
SPMM,103,66,0 117 1076
XTY,103,3,5 117 1075
SPMM,97,67,0 117 1074
SPMM,98,67,0 117 1073
XTY,98,18,5 117 1072
SPMM,99,67,0 117 1071
XTY,99,19,5 117 1070
SPMM,100,67,0 117 1069
XTY,100,0,5 117 1068
SPMM,101,67,0 117 1067
SPMM,97,68,0 117 1066
SPMM,101,68,0 117 1065
XTY,101,1,5 117 1064
SPMM,96,69,0 117 1063
SPMM,97,69,0 117 1062
XTY,97,17,5 117 1061
SPMM,96,70,0 117 1060
SPMM,96,71,0 117 1059
XTY,96,16,5 117 1058
SPMM,32,0,0 92 1057
SPMM,33,0,0 92 1056
SPMM,34,0,0 92 1055
SPMM,64,0,0 92 1054
SPMM,69,0,0 92 1053
SPMM,70,0,0 92 1052
SPMM,71,0,0 92 1051
UPDATE,0,1 92 1050
SPMM,32,1,0 92 1049
SPMM,33,1,0 92 1048
SPMM,34,1,0 92 1047
UPDATE,1,1 92 1046
SPMM,32,2,0 92 1045
SPMM,33,2,0 92 1044
SPMM,34,2,0 92 1043
SPMM,64,2,0 92 1042
SPMM,69,2,0 92 1041
SPMM,71,2,0 92 1040
UPDATE,2,1 92 1039
SPMM,32,3,0 92 1038
SPMM,33,3,0 92 1037
SPMM,34,3,0 92 1036
SPMM,35,3,0 92 1035
SPMM,36,3,0 92 1034
SPMM,37,3,0 92 1033
SPMM,38,3,0 92 1032
SPMM,39,3,0 92 1031
SPMM,64,3,0 92 1030
SPMM,69,3,0 92 1029
SPMM,70,3,0 92 1028
SPMM,71,3,0 92 1027
UPDATE,3,1 92 1026
SPMM,34,4,0 92 1025
SPMM,35,4,0 92 1024
SPMM,36,4,0 92 1023
SPMM,37,4,0 92 1022
SPMM,38,4,0 92 1021
SPMM,39,4,0 92 1020
UPDATE,4,1 92 1019
SPMM,34,5,0 92 1018
SPMM,35,5,0 92 1017
SPMM,36,5,0 92 1016
SPMM,37,5,0 92 1015
SPMM,38,5,0 92 1014
SPMM,39,5,0 92 1013
UPDATE,5,1 92 1012
SPMM,36,6,0 92 1011
SPMM,39,6,0 92 1010
UPDATE,6,1 92 1009
SPMM,32,7,0 92 1008
SPMM,33,7,0 92 1007
SPMM,34,7,0 92 1006
SPMM,36,7,0 92 1005
SPMM,39,7,0 92 1004
UPDATE,7,1 92 1003
SPMM,64,64,0 119 1002
XTY,64,4,5 119 1001
SPMM,65,64,0 119 1000
SPMM,66,64,0 119 999
SPMM,67,64,0 119 998
SPMM,68,64,0 119 997
SPMM,69,64,0 119 996
SPMM,70,64,0 119 995
SPMM,71,64,0 119 994
SPMM,65,65,0 119 993
XTY,65,5,5 119 992
SPMM,66,65,0 119 991
SPMM,67,65,0 119 990
SPMM,68,65,0 119 989
SPMM,69,65,0 119 988
SPMM,66,66,0 119 987
XTY,66,6,5 119 986
SPMM,67,66,0 119 985
SPMM,68,66,0 119 984
SPMM,69,66,0 119 983
SPMM,67,67,0 119 982
XTY,67,7,5 119 981
SPMM,68,67,0 119 980
SPMM,69,67,0 119 979
SPMM,68,68,0 119 978
XTY,68,8,5 119 977
SPMM,69,68,0 119 976
SPMM,71,68,0 119 975
SPMM,69,69,0 119 974
XTY,69,9,5 119 973
SPMM,70,69,0 119 972
SPMM,71,69,0 119 971
SPMM,70,70,0 119 970
XTY,70,10,5 119 969
SPMM,71,70,0 119 968
SPMM,71,71,0 119 967
XTY,71,11,5 119 966
DLACPY,39,1 115 965
SPMM,39,39,0 115 964
SPMM,40,39,0 115 963
SPMM,41,39,0 115 962
SPMM,42,39,0 115 961
SPMM,43,39,0 115 960
SPMM,44,39,0 115 959
SPMM,46,39,0 115 958
SPMM,47,39,0 115 957
SPMM,49,39,0 115 956
SPMM,51,39,0 115 955
DLACPY,38,1 115 954
SPMM,38,38,0 115 953
SPMM,39,38,0 115 952
SPMM,41,38,0 115 951
SPMM,42,38,0 115 950
SPMM,43,38,0 115 949
SPMM,44,38,0 115 948
SPMM,45,38,0 115 947
SPMM,46,38,0 115 946
SPMM,47,38,0 115 945
SPMM,50,38,0 115 944
SPMM,51,38,0 115 943
DLACPY,37,1 115 942
SPMM,37,37,0 115 941
SPMM,38,37,0 115 940
SPMM,39,37,0 115 939
SPMM,40,37,0 115 938
SPMM,41,37,0 115 937
SPMM,42,37,0 115 936
SPMM,43,37,0 115 935
SPMM,46,37,0 115 934
SPMM,47,37,0 115 933
SPMM,50,37,0 115 932
SPMM,51,37,0 115 931
DLACPY,36,1 115 930
SPMM,36,36,0 115 929
SPMM,37,36,0 115 928
SPMM,38,36,0 115 927
SPMM,39,36,0 115 926
SPMM,40,36,0 115 925
SPMM,41,36,0 115 924
SPMM,42,36,0 115 923
SPMM,43,36,0 115 922
SPMM,44,36,0 115 921
SPMM,45,36,0 115 920
SPMM,46,36,0 115 919
SPMM,47,36,0 115 918
SPMM,49,36,0 115 917
SPMM,50,36,0 115 916
SPMM,51,36,0 115 915
SPMM,52,36,0 115 914
DLACPY,35,1 115 913
SPMM,35,35,0 115 912
SPMM,36,35,0 115 911
SPMM,37,35,0 115 910
SPMM,38,35,0 115 909
SPMM,39,35,0 115 908
SPMM,40,35,0 115 907
SPMM,41,35,0 115 906
SPMM,42,35,0 115 905
SPMM,43,35,0 115 904
SPMM,44,35,0 115 903
SPMM,45,35,0 115 902
SPMM,46,35,0 115 901
SPMM,47,35,0 115 900
SPMM,50,35,0 115 899
SPMM,51,35,0 115 898
DLACPY,34,1 115 897
SPMM,34,34,0 115 896
SPMM,35,34,0 115 895
XTY,35,15,5 115 894
SPMM,36,34,0 115 893
XTY,36,16,5 115 892
SPMM,37,34,0 115 891
XTY,37,17,5 115 890
SPMM,38,34,0 115 889
XTY,38,18,5 115 888
SPMM,39,34,0 115 887
XTY,39,19,5 115 886
SPMM,40,34,0 115 885
SPMM,41,34,0 115 884
SPMM,42,34,0 115 883
SPMM,43,34,0 115 882
SPMM,44,34,0 115 881
SPMM,45,34,0 115 880
SPMM,46,34,0 115 879
SPMM,47,34,0 115 878
DLACPY,33,1 115 877
SPMM,33,33,0 115 876
SPMM,34,33,0 115 875
DLACPY,32,1 115 874
SPMM,32,32,0 115 873
XTY,32,12,5 115 872
SPMM,33,32,0 115 871
XTY,33,13,5 115 870
SPMM,34,32,0 115 869
XTY,34,14,5 115 868
XTY,47,7,5 116 867
XTY,46,6,5 116 866
XTY,45,5,5 116 865
XTY,44,4,5 116 864
XTY,43,3,5 116 863
XTY,42,2,5 116 862
XTY,41,1,5 116 861
XTY,40,0,5 116 860
SPMM,56,36,0 120 859
SPMM,57,36,0 120 858
XTY,57,17,5 120 857
SPMM,60,36,0 120 856
SPMM,56,39,0 120 855
XTY,56,16,5 120 854
SPMM,58,39,0 120 853
XTY,58,18,5 120 852
SPMM,60,39,0 120 851
XTY,60,0,5 120 850
XTY,61,1,5 120 849
XTY,59,19,5 120 848
XTY,63,3,5 120 847
XTY,62,2,5 120 846
SPMM,122,33,0 121 845
SPMM,122,34,0 121 844
SPMM,122,35,0 121 843
SPMM,122,39,0 121 842
SPMM,122,96,0 121 841
SPMM,121,97,0 121 840
SPMM,122,97,0 121 839
SPMM,122,101,0 121 838
SPMM,121,89,0 121 837
SPMM,122,89,0 121 836
SPMM,121,90,0 121 835
SPMM,120,91,0 121 834
SPMM,121,91,0 121 833
SPMM,122,94,0 121 832
SPMM,122,95,0 121 831
SPMM,122,47,0 121 830
SPMM,122,44,0 121 829
SPMM,122,43,0 121 828
SPMM,122,40,0 121 827
UPDATE,32,1 118 826
UPDATE,33,1 118 825
UPDATE,34,1 118 824
XTY,51,11,5 118 823
XTY,50,10,5 118 822
UPDATE,35,1 118 821
XTY,52,12,5 118 820
XTY,49,9,5 118 819
UPDATE,36,1 118 818
UPDATE,37,1 118 817
UPDATE,38,1 118 816
UPDATE,39,1 118 815
XTY,53,13,5 118 814
XTY,55,15,5 118 813
XTY,54,14,5 118 812
SPMM,48,18,0 118 811
XTY,48,8,5 118 810
XTY,32,12,4 123 809
XTY,33,13,4 123 808
XTY,34,14,4 123 807
XTY,35,15,4 123 806
XTY,36,16,4 123 805
XTY,37,17,4 123 804
XTY,38,18,4 123 803
XTY,39,19,4 123 802
SPMM,122,56,0 123 801
SPMM,122,57,0 123 800
SPMM,121,61,0 123 799
SPMM,122,61,0 123 798
SPMM,120,62,0 123 797
SPMM,121,62,0 123 796
SPMM,122,62,0 123 795
SPMM,122,63,0 123 794
XTY,0,0,4 124 793
XTY,1,1,4 124 792
XTY,2,2,4 124 791
XTY,3,3,4 124 790
XTY,4,4,4 124 789
XTY,5,5,4 124 788
XTY,6,6,4 124 787
XTY,7,7,4 124 786
SPMM,122,72,0 126 785
SPMM,122,73,0 126 784
SPMM,122,75,0 126 783
SPMM,122,76,0 126 782
SPMM,122,77,0 126 781
SPMM,122,78,0 126 780
SPMM,120,79,0 126 779
SPMM,121,79,0 126 778
XTY,96,16,4 126 777
XTY,97,17,4 126 776
XTY,98,18,4 126 775
XTY,99,19,4 126 774
XTY,100,0,4 126 773
XTY,101,1,4 126 772
XTY,102,2,4 126 771
XTY,103,3,4 126 770
RED,XARBUF,0 126 769
SPMM,122,80,0 126 768
SPMM,122,82,0 126 767
SPMM,122,83,0 126 766
SPMM,122,86,0 126 765
SPMM,121,87,0 126 764
SPMM,122,87,0 126 763
XTY,121,1,5 127 762
XTY,120,0,5 127 761
SPMM,122,0,0 127 760
SPMM,122,1,0 127 759
SPMM,122,4,0 127 758
SPMM,122,5,0 127 757
SPMM,122,6,0 127 756
SPMM,122,8,0 127 755
SPMM,122,10,0 127 754
SPMM,122,11,0 127 753
SPMM,122,12,0 127 752
SPMM,122,14,0 127 751
SPMM,122,15,0 127 750
SPMM,122,17,0 127 749
SPMM,122,18,0 127 748
SPMM,122,19,0 127 747
SPMM,122,21,0 127 746
SPMM,122,22,0 127 745
XTY,122,2,5 127 744
RED,RARBUF,0 127 743
TRANS,RAR 127 742
SPEUPDATE,RAR 127 741
CONSTRUCTGA 128 740
EIGEN 129 739
XY,32,6 129 738
XY,33,6 129 737
XY,34,6 129 736
XY,35,6 129 735
XY,36,6 129 734
XY,37,6 129 733
XY,38,6 129 732
XY,39,6 129 731
XY,96,6 129 730
XY,97,6 129 729
XY,98,6 129 728
XY,99,6 129 727
XY,100,6 129 726
XY,101,6 129 725
XY,102,6 129 724
XY,103,6 129 723
XY,16,6 130 722
XY,17,6 130 721
XY,18,6 130 720
XY,19,6 130 719
XY,20,6 130 718
XY,21,6 130 717
XY,22,6 130 716
XY,23,6 130 715
XY,16,10 152 714
ADD,16,3 152 713
XY,17,10 152 712
ADD,17,3 152 711
XY,18,10 152 710
ADD,18,3 152 709
XY,19,10 152 708
ADD,19,3 152 707
XY,20,10 152 706
ADD,20,3 152 705
XY,21,10 152 704
ADD,21,3 152 703
XY,22,10 152 702
ADD,22,3 152 701
XY,23,10 152 700
ADD,23,3 152 699
XY,8,6 145 698
XY,9,6 145 697
XY,10,6 145 696
XY,11,6 145 695
XY,12,6 145 694
XY,13,6 145 693
XY,14,6 145 692
XY,15,6 145 691
XY,48,6 145 690
XY,49,6 145 689
XY,50,6 145 688
XY,51,6 145 687
XY,52,6 145 686
XY,53,6 145 685
XY,54,6 145 684
XY,55,6 145 683
XY,48,10 165 682
ADD,48,3 165 681
XY,49,10 165 680
ADD,49,3 165 679
XY,50,10 165 678
ADD,50,3 165 677
XY,51,10 165 676
ADD,51,3 165 675
XY,52,10 165 674
ADD,52,3 165 673
XY,53,10 165 672
ADD,53,3 165 671
XY,54,10 165 670
ADD,54,3 165 669
XY,55,10 165 668
ADD,55,3 165 667
XY,8,10 177 666
ADD,8,3 177 665
XY,9,10 177 664
ADD,9,3 177 663
XY,10,10 177 662
ADD,10,3 177 661
XY,11,10 177 660
ADD,11,3 177 659
XY,12,10 177 658
ADD,12,3 177 657
XY,13,10 177 656
ADD,13,3 177 655
XY,14,10 177 654
ADD,14,3 177 653
XY,15,10 177 652
ADD,15,3 177 651
XY,72,6 141 650
XY,73,6 141 649
XY,74,6 141 648
XY,75,6 141 647
XY,76,6 141 646
XY,77,6 141 645
XY,78,6 141 644
XY,79,6 141 643
XY,72,10 150 642
ADD,72,3 150 641
XY,73,10 150 640
ADD,73,3 150 639
XY,74,10 150 638
ADD,74,3 150 637
XY,75,10 150 636
ADD,75,3 150 635
XY,76,10 150 634
ADD,76,3 150 633
XY,77,10 150 632
ADD,77,3 150 631
XY,78,10 150 630
ADD,78,3 150 629
XY,79,10 150 628
ADD,79,3 150 627
XY,56,6 143 626
XY,57,6 143 625
XY,58,6 143 624
XY,59,6 143 623
XY,60,6 143 622
XY,61,6 143 621
XY,62,6 143 620
XY,63,6 143 619
XY,104,6 143 618
XY,105,6 143 617
XY,106,6 143 616
XY,107,6 143 615
XY,108,6 143 614
XY,109,6 143 613
XY,110,6 143 612
XY,111,6 143 611
XY,104,10 144 610
ADD,104,3 144 609
XY,105,10 144 608
ADD,105,3 144 607
XY,106,10 144 606
ADD,106,3 144 605
XY,107,10 144 604
ADD,107,3 144 603
XY,108,10 144 602
ADD,108,3 144 601
XY,109,10 144 600
ADD,109,3 144 599
XY,110,10 144 598
ADD,110,3 144 597
XY,111,10 144 596
ADD,111,3 144 595
XY,56,10 154 594
ADD,56,3 154 593
XY,57,10 154 592
ADD,57,3 154 591
XY,58,10 154 590
ADD,58,3 154 589
XY,59,10 154 588
ADD,59,3 154 587
XY,60,10 154 586
ADD,60,3 154 585
XY,61,10 154 584
ADD,61,3 154 583
XY,62,10 154 582
ADD,62,3 154 581
XY,63,10 154 580
ADD,63,3 154 579
XY,112,6 135 578
XY,113,6 135 577
XY,114,6 135 576
XY,115,6 135 575
XY,116,6 135 574
XY,117,6 135 573
XY,118,6 135 572
XY,119,6 135 571
XY,112,10 136 570
ADD,112,3 136 569
XY,113,10 136 568
ADD,113,3 136 567
XY,114,10 136 566
ADD,114,3 136 565
XY,115,10 136 564
ADD,115,3 136 563
XY,116,10 136 562
ADD,116,3 136 561
XY,117,10 136 560
ADD,117,3 136 559
XY,118,10 136 558
ADD,118,3 136 557
XY,119,10 136 556
ADD,119,3 136 555
XY,16,8 151 554
XY,17,8 151 553
XY,18,8 151 552
XY,19,8 151 551
XY,20,8 151 550
XY,21,8 151 549
XY,22,8 151 548
XY,23,8 151 547
XY,16,11 156 546
ADD,16,4 156 545
XY,17,11 156 544
ADD,17,4 156 543
XY,18,11 156 542
ADD,18,4 156 541
XY,19,11 156 540
ADD,19,4 156 539
XY,20,11 156 538
ADD,20,4 156 537
XY,21,11 156 536
ADD,21,4 156 535
XY,22,11 156 534
ADD,22,4 156 533
XY,23,11 156 532
ADD,23,4 156 531
XY,56,8 162 530
XY,57,8 162 529
XY,58,8 162 528
XY,59,8 162 527
XY,60,8 162 526
XY,61,8 162 525
XY,62,8 162 524
XY,63,8 162 523
XY,64,8 162 522
XY,65,8 162 521
XY,66,8 162 520
XY,67,8 162 519
XY,68,8 162 518
XY,69,8 162 517
XY,70,8 162 516
XY,71,8 162 515
XY,64,11 163 514
ADD,64,4 163 513
XY,65,11 163 512
ADD,65,4 163 511
XY,66,11 163 510
ADD,66,4 163 509
XY,67,11 163 508
ADD,67,4 163 507
XY,68,11 163 506
ADD,68,4 163 505
XY,69,11 163 504
ADD,69,4 163 503
XY,70,11 163 502
ADD,70,4 163 501
XY,71,11 163 500
ADD,71,4 163 499
XY,112,8 166 498
XY,113,8 166 497
XY,114,8 166 496
XY,115,8 166 495
XY,116,8 166 494
XY,117,8 166 493
XY,118,8 166 492
XY,119,8 166 491
XY,24,6 132 490
XY,25,6 132 489
XY,26,6 132 488
XY,27,6 132 487
XY,28,6 132 486
XY,29,6 132 485
XY,30,6 132 484
XY,31,6 132 483
XY,120,8 132 482
XY,121,8 132 481
XY,122,8 132 480
XY,120,11 149 479
ADD,120,4 149 478
XY,121,11 149 477
ADD,121,4 149 476
XY,122,11 149 475
ADD,122,4 149 474
XY,24,10 155 473
ADD,24,3 155 472
XY,25,10 155 471
ADD,25,3 155 470
XY,26,10 155 469
ADD,26,3 155 468
XY,27,10 155 467
ADD,27,3 155 466
XY,28,10 155 465
ADD,28,3 155 464
XY,29,10 155 463
ADD,29,3 155 462
XY,30,10 155 461
ADD,30,3 155 460
XY,31,10 155 459
ADD,31,3 155 458
XY,40,6 146 457
XY,41,6 146 456
XY,42,6 146 455
XY,43,6 146 454
XY,44,6 146 453
XY,45,6 146 452
XY,46,6 146 451
XY,47,6 146 450
XY,0,10 146 449
XY,1,10 146 448
XY,2,10 146 447
XY,3,10 146 446
XY,4,10 146 445
XY,5,10 146 444
XY,6,10 146 443
XY,7,10 146 442
XY,40,10 180 441
ADD,40,3 180 440
XY,41,10 180 439
ADD,41,3 180 438
XY,42,10 180 437
ADD,42,3 180 436
XY,43,10 180 435
ADD,43,3 180 434
XY,44,10 180 433
ADD,44,3 180 432
XY,45,10 180 431
ADD,45,3 180 430
XY,46,10 180 429
ADD,46,3 180 428
XY,47,10 180 427
ADD,47,3 180 426
XY,32,10 161 425
ADD,32,3 161 424
XY,33,10 161 423
ADD,33,3 161 422
XY,34,10 161 421
ADD,34,3 161 420
XY,35,10 161 419
ADD,35,3 161 418
XY,36,10 161 417
ADD,36,3 161 416
XY,37,10 161 415
ADD,37,3 161 414
XY,38,10 161 413
ADD,38,3 161 412
XY,39,10 161 411
ADD,39,3 161 410
XY,80,6 134 409
XY,81,6 134 408
XY,82,6 134 407
XY,83,6 134 406
XY,84,6 134 405
XY,85,6 134 404
XY,86,6 134 403
XY,87,6 134 402
XY,88,10 134 401
XY,89,10 134 400
XY,90,10 134 399
XY,91,10 134 398
XY,92,10 134 397
XY,93,10 134 396
XY,94,10 134 395
XY,95,10 134 394
XY,88,6 139 393
ADD,88,3 139 392
XY,89,6 139 391
ADD,89,3 139 390
XY,90,6 139 389
ADD,90,3 139 388
XY,91,6 139 387
ADD,91,3 139 386
XY,92,6 139 385
ADD,92,3 139 384
XY,93,6 139 383
ADD,93,3 139 382
XY,94,6 139 381
ADD,94,3 139 380
XY,95,6 139 379
ADD,95,3 139 378
XY,80,10 167 377
ADD,80,3 167 376
XY,81,10 167 375
ADD,81,3 167 374
XY,82,10 167 373
ADD,82,3 167 372
XY,83,10 167 371
ADD,83,3 167 370
XY,84,10 167 369
ADD,84,3 167 368
XY,85,10 167 367
ADD,85,3 167 366
XY,86,10 167 365
ADD,86,3 167 364
XY,87,10 167 363
ADD,87,3 167 362
XY,96,10 153 361
ADD,96,3 153 360
XY,97,10 153 359
ADD,97,3 153 358
XY,98,10 153 357
ADD,98,3 153 356
XY,99,10 153 355
ADD,99,3 153 354
XY,100,10 153 353
ADD,100,3 153 352
XY,101,10 153 351
ADD,101,3 153 350
XY,102,10 153 349
ADD,102,3 153 348
XY,103,10 153 347
ADD,103,3 153 346
XY,120,10 140 345
XY,121,10 140 344
XY,122,10 140 343
XY,120,6 142 342
ADD,120,3 142 341
XY,121,6 142 340
ADD,121,3 142 339
XY,122,6 142 338
ADD,122,3 142 337
XY,0,11 137 336
XY,1,11 137 335
XY,2,11 137 334
XY,3,11 137 333
XY,4,11 137 332
XY,5,11 137 331
XY,6,11 137 330
XY,7,11 137 329
XY,0,8 173 328
ADD,0,4 173 327
XY,1,8 173 326
ADD,1,4 173 325
XY,2,8 173 324
ADD,2,4 173 323
XY,3,8 173 322
ADD,3,4 173 321
XY,4,8 173 320
ADD,4,4 173 319
XY,5,8 173 318
ADD,5,4 173 317
XY,6,8 173 316
ADD,6,4 173 315
XY,7,8 173 314
ADD,7,4 173 313
XY,40,11 133 312
XY,41,11 133 311
XY,42,11 133 310
XY,43,11 133 309
XY,44,11 133 308
XY,45,11 133 307
XY,46,11 133 306
XY,47,11 133 305
XY,40,8 176 304
ADD,40,4 176 303
XY,41,8 176 302
ADD,41,4 176 301
XY,42,8 176 300
ADD,42,4 176 299
XY,43,8 176 298
ADD,43,4 176 297
XY,44,8 176 296
ADD,44,4 176 295
XY,45,8 176 294
ADD,45,4 176 293
XY,46,8 176 292
ADD,46,4 176 291
XY,47,8 176 290
ADD,47,4 176 289
XY,48,11 131 288
XY,49,11 131 287
XY,50,11 131 286
XY,51,11 131 285
XY,52,11 131 284
XY,53,11 131 283
XY,54,11 131 282
XY,55,11 131 281
XY,48,8 169 280
ADD,48,4 169 279
XY,49,8 169 278
ADD,49,4 169 277
XY,50,8 169 276
ADD,50,4 169 275
XY,51,8 169 274
ADD,51,4 169 273
XY,52,8 169 272
ADD,52,4 169 271
XY,53,8 169 270
ADD,53,4 169 269
XY,54,8 169 268
ADD,54,4 169 267
XY,55,8 169 266
ADD,55,4 169 265
XY,0,6 138 264
XY,1,6 138 263
XY,2,6 138 262
XY,3,6 138 261
XY,4,6 138 260
XY,5,6 138 259
XY,6,6 138 258
XY,7,6 138 257
XY,56,11 138 256
XY,57,11 138 255
XY,58,11 138 254
XY,59,11 138 253
XY,60,11 138 252
XY,61,11 138 251
XY,62,11 138 250
XY,63,11 138 249
ADD,63,4 170 248
ADD,62,4 170 247
ADD,61,4 170 246
ADD,60,4 170 245
ADD,59,4 170 244
ADD,58,4 170 243
ADD,57,4 170 242
ADD,56,4 170 241
XY,24,11 170 240
XY,25,11 170 239
XY,26,11 170 238
XY,27,11 170 237
XY,28,11 170 236
XY,29,11 170 235
XY,30,11 170 234
XY,31,11 170 233
XY,24,8 171 232
ADD,24,4 171 231
XY,25,8 171 230
ADD,25,4 171 229
XY,26,8 171 228
ADD,26,4 171 227
XY,27,8 171 226
ADD,27,4 171 225
XY,28,8 171 224
ADD,28,4 171 223
XY,29,8 171 222
ADD,29,4 171 221
XY,30,8 171 220
ADD,30,4 171 219
XY,31,8 171 218
ADD,31,4 171 217
ADD,7,3 147 216
ADD,6,3 147 215
ADD,5,3 147 214
ADD,4,3 147 213
ADD,3,3 147 212
ADD,2,3 147 211
ADD,1,3 147 210
ADD,0,3 147 209
XY,32,11 168 208
XY,33,11 168 207
XY,34,11 168 206
XY,35,11 168 205
XY,36,11 168 204
XY,37,11 168 203
XY,38,11 168 202
XY,39,11 168 201
XY,72,11 168 200
XY,73,11 168 199
XY,74,11 168 198
XY,75,11 168 197
XY,76,11 168 196
XY,77,11 168 195
XY,78,11 168 194
XY,79,11 168 193
XY,72,8 172 192
ADD,72,4 172 191
XY,73,8 172 190
ADD,73,4 172 189
XY,74,8 172 188
ADD,74,4 172 187
XY,75,8 172 186
ADD,75,4 172 185
XY,76,8 172 184
ADD,76,4 172 183
XY,77,8 172 182
ADD,77,4 172 181
XY,78,8 172 180
ADD,78,4 172 179
XY,79,8 172 178
ADD,79,4 172 177
XY,32,8 181 176
ADD,32,4 181 175
XY,33,8 181 174
ADD,33,4 181 173
XY,34,8 181 172
ADD,34,4 181 171
XY,35,8 181 170
ADD,35,4 181 169
XY,36,8 181 168
ADD,36,4 181 167
XY,37,8 181 166
ADD,37,4 181 165
XY,38,8 181 164
ADD,38,4 181 163
XY,39,8 181 162
ADD,39,4 181 161
XY,80,8 159 160
XY,81,8 159 159
XY,82,8 159 158
XY,83,8 159 157
XY,84,8 159 156
XY,85,8 159 155
XY,86,8 159 154
XY,87,8 159 153
XY,80,11 159 152
ADD,80,4 159 151
XY,81,11 159 150
ADD,81,4 159 149
XY,82,11 159 148
ADD,82,4 159 147
XY,83,11 159 146
ADD,83,4 159 145
XY,84,11 159 144
ADD,84,4 159 143
XY,85,11 159 142
ADD,85,4 159 141
XY,86,11 159 140
ADD,86,4 159 139
XY,87,11 159 138
ADD,87,4 159 137
XY,104,8 157 136
XY,105,8 157 135
XY,106,8 157 134
XY,107,8 157 133
XY,108,8 157 132
XY,109,8 157 131
XY,110,8 157 130
XY,111,8 157 129
XY,88,11 157 128
XY,89,11 157 127
XY,90,11 157 126
XY,91,11 157 125
XY,92,11 157 124
XY,93,11 157 123
XY,94,11 157 122
XY,95,11 157 121
XY,88,8 160 120
ADD,88,4 160 119
XY,89,8 160 118
ADD,89,4 160 117
XY,90,8 160 116
ADD,90,4 160 115
XY,91,8 160 114
ADD,91,4 160 113
XY,92,8 160 112
ADD,92,4 160 111
XY,93,8 160 110
ADD,93,4 160 109
XY,94,8 160 108
ADD,94,4 160 107
XY,95,8 160 106
ADD,95,4 160 105
XY,104,11 158 104
ADD,104,4 158 103
XY,105,11 158 102
ADD,105,4 158 101
XY,106,11 158 100
ADD,106,4 158 99
XY,107,11 158 98
ADD,107,4 158 97
XY,108,11 158 96
ADD,108,4 158 95
XY,109,11 158 94
ADD,109,4 158 93
XY,110,11 158 92
ADD,110,4 158 91
XY,111,11 158 90
ADD,111,4 158 89
XY,96,11 174 88
XY,97,11 174 87
XY,98,11 174 86
XY,99,11 174 85
XY,100,11 174 84
XY,101,11 174 83
XY,102,11 174 82
XY,103,11 174 81
XY,96,8 178 80
ADD,96,4 178 79
XY,97,8 178 78
ADD,97,4 178 77
XY,98,8 178 76
ADD,98,4 178 75
XY,99,8 178 74
ADD,99,4 178 73
XY,100,8 178 72
ADD,100,4 178 71
XY,101,8 178 70
ADD,101,4 178 69
XY,102,8 178 68
ADD,102,4 178 67
XY,103,8 178 66
ADD,103,4 178 65
XY,64,6 148 64
XY,65,6 148 63
XY,66,6 148 62
XY,67,6 148 61
XY,68,6 148 60
XY,69,6 148 59
XY,70,6 148 58
XY,71,6 148 57
XY,112,11 148 56
XY,113,11 148 55
XY,114,11 148 54
XY,115,11 148 53
XY,116,11 148 52
XY,117,11 148 51
XY,118,11 148 50
XY,119,11 148 49
ADD,119,4 175 48
ADD,118,4 175 47
ADD,117,4 175 46
ADD,116,4 175 45
ADD,115,4 175 44
ADD,114,4 175 43
ADD,113,4 175 42
ADD,112,4 175 41
XY,8,11 175 40
XY,9,11 175 39
XY,10,11 175 38
XY,11,11 175 37
XY,12,11 175 36
XY,13,11 175 35
XY,14,11 175 34
XY,15,11 175 33
XY,8,8 179 32
ADD,8,4 179 31
XY,9,8 179 30
ADD,9,4 179 29
XY,10,8 179 28
ADD,10,4 179 27
XY,11,8 179 26
ADD,11,4 179 25
XY,12,8 179 24
ADD,12,4 179 23
XY,13,8 179 22
ADD,13,4 179 21
XY,14,8 179 20
ADD,14,4 179 19
XY,15,8 179 18
ADD,15,4 179 17
XY,64,10 164 16
ADD,64,3 164 15
XY,65,10 164 14
ADD,65,3 164 13
XY,66,10 164 12
ADD,66,3 164 11
XY,67,10 164 10
ADD,67,3 164 9
XY,68,10 164 8
ADD,68,3 164 7
XY,69,10 164 6
ADD,69,3 164 5
XY,70,10 164 4
ADD,70,3 164 3
XY,71,10 164 2
ADD,71,3 164 1
