SETZERO,15,1 112 703
SETZERO,14,1 112 702
SETZERO,13,1 112 701
SETZERO,12,1 112 700
SETZERO,11,1 112 699
SETZERO,10,1 112 698
SETZERO,9,1 112 697
SETZERO,8,1 112 696
_X,15 4 695
XTY,15,15,20 4 694
_X,14 4 693
XTY,14,14,20 4 692
_X,13 4 691
XTY,13,13,20 4 690
_X,12 4 689
XTY,12,12,20 4 688
_X,11 4 687
XTY,11,11,20 4 686
_X,10 4 685
XTY,10,10,20 4 684
_X,9 4 683
XTY,9,9,20 4 682
_X,8 4 681
XTY,8,8,20 4 680
SETZERO,25,1 3 679
SETZERO,24,1 3 678
SETZERO,23,1 2 677
SETZERO,22,1 2 676
SETZERO,21,1 2 675
SETZERO,20,1 2 674
SETZERO,19,1 2 673
SETZERO,18,1 2 672
SETZERO,17,1 2 671
SETZERO,16,1 2 670
_X,23 1 669
XTY,23,3,20 1 668
_X,22 1 667
XTY,22,2,20 1 666
_X,21 1 665
XTY,21,1,20 1 664
_X,20 1 663
XTY,20,0,20 1 662
_X,19 1 661
XTY,19,19,20 1 660
_X,18 1 659
XTY,18,18,20 1 658
_X,17 1 657
XTY,17,17,20 1 656
_X,16 1 655
XTY,16,16,20 1 654
_X,7 0 653
XTY,7,7,20 0 652
_X,6 0 651
XTY,6,6,20 0 650
_X,5 0 649
XTY,5,5,20 0 648
_X,4 0 647
XTY,4,4,20 0 646
_X,3 0 645
XTY,3,3,20 0 644
_X,2 0 643
XTY,2,2,20 0 642
_X,1 0 641
XTY,1,1,20 0 640
_X,0 0 639
XTY,0,0,20 0 638
_X,25 5 637
XTY,25,5,20 5 636
_X,24 5 635
XTY,24,4,20 5 634
RED,XBXBUF,0 5 633
CHOL,XBX 6 632
DLACPY,0,20 7 631
INV,XBX 7 630
XY,0,20 22 629
XY,1,20 22 628
XY,2,20 22 627
XY,3,20 22 626
XY,4,20 22 625
XY,5,20 22 624
XY,6,20 22 623
XY,7,20 22 622
DLACPY,7,21 30 621
SPMM,24,7,0 30 620
SPMM,25,7,0 30 619
DLACPY,6,21 30 618
DLACPY,5,21 30 617
DLACPY,4,21 30 616
DLACPY,3,21 30 615
DLACPY,2,21 30 614
DLACPY,1,21 30 613
DLACPY,0,21 30 612
SPMM,16,7,0 84 611
SPMM,17,7,0 84 610
SPMM,18,7,0 84 609
SPMM,19,7,0 84 608
SPMM,20,7,0 84 607
SPMM,21,7,0 84 606
SPMM,22,7,0 84 605
SPMM,23,7,0 84 604
SETZERO,7,1 120 603
SPMM,7,1,0 120 602
SPMM,7,2,0 120 601
SPMM,7,3,0 120 600
SPMM,7,4,0 120 599
SPMM,7,5,0 120 598
SPMM,7,6,0 120 597
SPMM,7,7,0 120 596
SETZERO,6,1 120 595
SPMM,6,1,0 120 594
SPMM,6,2,0 120 593
SPMM,6,3,0 120 592
SPMM,6,4,0 120 591
SPMM,6,5,0 120 590
SPMM,6,6,0 120 589
SPMM,6,7,0 120 588
SETZERO,5,1 120 587
SPMM,5,0,0 120 586
SPMM,5,1,0 120 585
SPMM,5,2,0 120 584
SPMM,5,3,0 120 583
SPMM,5,4,0 120 582
SPMM,5,5,0 120 581
SPMM,5,6,0 120 580
SPMM,5,7,0 120 579
SETZERO,4,1 120 578
SPMM,4,1,0 120 577
SPMM,4,2,0 120 576
SPMM,4,3,0 120 575
SPMM,4,4,0 120 574
SPMM,4,5,0 120 573
SPMM,4,6,0 120 572
SPMM,4,7,0 120 571
SETZERO,3,1 120 570
SPMM,3,1,0 120 569
SPMM,3,2,0 120 568
SPMM,3,3,0 120 567
SPMM,3,4,0 120 566
SPMM,3,5,0 120 565
SPMM,3,6,0 120 564
SPMM,3,7,0 120 563
SETZERO,2,1 120 562
SPMM,2,1,0 120 561
SPMM,2,2,0 120 560
SPMM,2,3,0 120 559
SPMM,2,4,0 120 558
SPMM,2,5,0 120 557
SPMM,2,6,0 120 556
SPMM,2,7,0 120 555
SETZERO,1,1 120 554
SPMM,1,0,0 120 553
SPMM,1,1,0 120 552
SPMM,1,2,0 120 551
SPMM,1,3,0 120 550
SPMM,1,4,0 120 549
SPMM,1,5,0 120 548
SPMM,1,6,0 120 547
SPMM,1,7,0 120 546
SETZERO,0,1 120 545
SPMM,0,0,0 120 544
SPMM,0,1,0 120 543
SPMM,0,5,0 120 542
SPMM,9,0,0 164 541
SPMM,10,0,0 164 540
SPMM,12,0,0 164 539
SPMM,13,0,0 164 538
SPMM,9,1,0 164 537
SPMM,10,1,0 164 536
SPMM,12,1,0 164 535
SPMM,13,1,0 164 534
SPMM,9,2,0 164 533
SPMM,10,2,0 164 532
SPMM,12,2,0 164 531
SPMM,13,2,0 164 530
SPMM,8,7,0 164 529
SPMM,9,7,0 164 528
SPMM,10,7,0 164 527
SPMM,11,7,0 164 526
SPMM,12,7,0 164 525
SPMM,13,7,0 164 524
SPMM,14,7,0 164 523
SPMM,15,7,0 164 522
XY,8,20 63 521
DLACPY,8,21 63 520
XY,9,20 63 519
DLACPY,9,21 63 518
XY,10,20 63 517
DLACPY,10,21 63 516
XY,11,20 63 515
DLACPY,11,21 63 514
XY,12,20 63 513
DLACPY,12,21 63 512
XY,13,20 63 511
DLACPY,13,21 63 510
XY,14,20 63 509
DLACPY,14,21 63 508
XY,15,20 63 507
DLACPY,15,21 63 506
SPMM,8,15,0 150 505
SPMM,9,15,0 150 504
SPMM,10,15,0 150 503
SPMM,11,15,0 150 502
SPMM,12,15,0 150 501
SPMM,13,15,0 150 500
SPMM,14,15,0 150 499
SPMM,15,15,0 150 498
SPMM,8,14,0 150 497
SPMM,9,14,0 150 496
SPMM,10,14,0 150 495
SPMM,11,14,0 150 494
SPMM,12,14,0 150 493
SPMM,13,14,0 150 492
SPMM,14,14,0 150 491
SPMM,15,14,0 150 490
SPMM,8,13,0 150 489
SPMM,9,13,0 150 488
SPMM,10,13,0 150 487
SPMM,11,13,0 150 486
SPMM,12,13,0 150 485
SPMM,13,13,0 150 484
SPMM,14,13,0 150 483
SPMM,15,13,0 150 482
SPMM,8,12,0 150 481
SPMM,9,12,0 150 480
SPMM,10,12,0 150 479
SPMM,11,12,0 150 478
SPMM,12,12,0 150 477
SPMM,13,12,0 150 476
SPMM,14,12,0 150 475
SPMM,15,12,0 150 474
SPMM,8,11,0 150 473
SPMM,9,11,0 150 472
SPMM,10,11,0 150 471
SPMM,11,11,0 150 470
SPMM,12,11,0 150 469
SPMM,13,11,0 150 468
SPMM,14,11,0 150 467
SPMM,15,11,0 150 466
SPMM,9,10,0 150 465
SPMM,10,10,0 150 464
SPMM,11,10,0 150 463
SPMM,12,10,0 150 462
SPMM,13,10,0 150 461
SPMM,14,10,0 150 460
SPMM,15,10,0 150 459
SPMM,8,9,0 150 458
SPMM,9,9,0 150 457
SPMM,10,9,0 150 456
SPMM,11,9,0 150 455
SPMM,12,9,0 150 454
SPMM,13,9,0 150 453
SPMM,14,9,0 150 452
SPMM,15,9,0 150 451
SPMM,8,8,0 150 450
SPMM,9,8,0 150 449
SPMM,11,8,0 150 448
SPMM,12,8,0 150 447
SPMM,13,8,0 150 446
SPMM,14,8,0 150 445
SPMM,15,8,0 150 444
SPMM,16,15,0 70 443
SPMM,17,15,0 70 442
SPMM,18,15,0 70 441
SPMM,19,15,0 70 440
SPMM,20,15,0 70 439
SPMM,21,15,0 70 438
SPMM,22,15,0 70 437
SPMM,23,15,0 70 436
SPMM,16,14,0 70 435
SPMM,17,14,0 70 434
SPMM,18,14,0 70 433
SPMM,19,14,0 70 432
SPMM,20,14,0 70 431
SPMM,21,14,0 70 430
SPMM,22,14,0 70 429
SPMM,23,14,0 70 428
SPMM,16,13,0 70 427
SPMM,17,13,0 70 426
SPMM,18,13,0 70 425
SPMM,19,13,0 70 424
SPMM,20,13,0 70 423
SPMM,21,13,0 70 422
SPMM,22,13,0 70 421
SPMM,23,13,0 70 420
SPMM,16,12,0 70 419
SPMM,17,12,0 70 418
SPMM,18,12,0 70 417
SPMM,19,12,0 70 416
SPMM,20,12,0 70 415
SPMM,21,12,0 70 414
SPMM,22,12,0 70 413
SPMM,23,12,0 70 412
SPMM,16,11,0 70 411
SPMM,17,11,0 70 410
SPMM,18,11,0 70 409
SPMM,19,11,0 70 408
SPMM,20,11,0 70 407
SPMM,21,11,0 70 406
SPMM,22,11,0 70 405
SPMM,23,11,0 70 404
SPMM,16,10,0 70 403
SPMM,17,10,0 70 402
SPMM,18,10,0 70 401
SPMM,19,10,0 70 400
SPMM,20,10,0 70 399
SPMM,21,10,0 70 398
SPMM,22,10,0 70 397
SPMM,23,10,0 70 396
SPMM,16,9,0 70 395
SPMM,17,9,0 70 394
SPMM,18,9,0 70 393
SPMM,19,9,0 70 392
SPMM,20,9,0 70 391
SPMM,21,9,0 70 390
SPMM,22,9,0 70 389
SPMM,23,9,0 70 388
SPMM,16,8,0 70 387
SPMM,17,8,0 70 386
SPMM,18,8,0 70 385
SPMM,19,8,0 70 384
SPMM,20,8,0 70 383
SPMM,21,8,0 70 382
SPMM,22,8,0 70 381
SPMM,23,8,0 70 380
SPMM,24,15,0 77 379
SPMM,25,15,0 77 378
SPMM,24,14,0 77 377
SPMM,25,14,0 77 376
SPMM,24,13,0 77 375
SPMM,25,13,0 77 374
SPMM,24,12,0 77 373
SPMM,25,12,0 77 372
SPMM,24,11,0 77 371
SPMM,25,11,0 77 370
SPMM,24,10,0 77 369
SPMM,25,10,0 77 368
SPMM,24,9,0 77 367
SPMM,25,9,0 77 366
SPMM,24,8,0 77 365
SPMM,25,8,0 77 364
XY,16,20 38 363
XY,17,20 38 362
XY,18,20 38 361
XY,19,20 38 360
XY,20,20 38 359
XY,21,20 38 358
XY,22,20 38 357
XY,23,20 38 356
DLACPY,23,21 44 355
DLACPY,22,21 44 354
DLACPY,21,21 44 353
DLACPY,20,21 44 352
DLACPY,19,21 44 351
DLACPY,18,21 44 350
DLACPY,17,21 44 349
DLACPY,16,21 44 348
SPMM,7,16,0 134 347
SPMM,7,17,0 134 346
SPMM,7,18,0 134 345
SPMM,7,19,0 134 344
SPMM,7,20,0 134 343
SPMM,7,21,0 134 342
SPMM,7,22,0 134 341
SPMM,7,23,0 134 340
SPMM,8,16,0 157 339
SPMM,9,16,0 157 338
SPMM,10,16,0 157 337
SPMM,11,16,0 157 336
SPMM,12,16,0 157 335
SPMM,13,16,0 157 334
SPMM,14,16,0 157 333
SPMM,15,16,0 157 332
SPMM,8,17,0 157 331
SPMM,9,17,0 157 330
SPMM,10,17,0 157 329
SPMM,11,17,0 157 328
SPMM,12,17,0 157 327
SPMM,13,17,0 157 326
SPMM,14,17,0 157 325
SPMM,15,17,0 157 324
SPMM,8,18,0 157 323
SPMM,9,18,0 157 322
SPMM,10,18,0 157 321
SPMM,11,18,0 157 320
SPMM,12,18,0 157 319
SPMM,13,18,0 157 318
SPMM,14,18,0 157 317
SPMM,15,18,0 157 316
SPMM,8,19,0 157 315
SPMM,9,19,0 157 314
SPMM,10,19,0 157 313
SPMM,11,19,0 157 312
SPMM,12,19,0 157 311
SPMM,13,19,0 157 310
SPMM,14,19,0 157 309
SPMM,15,19,0 157 308
SPMM,8,20,0 157 307
SPMM,9,20,0 157 306
SPMM,10,20,0 157 305
SPMM,11,20,0 157 304
SPMM,12,20,0 157 303
SPMM,13,20,0 157 302
SPMM,14,20,0 157 301
SPMM,15,20,0 157 300
SPMM,8,21,0 157 299
SPMM,9,21,0 157 298
SPMM,10,21,0 157 297
SPMM,11,21,0 157 296
SPMM,12,21,0 157 295
SPMM,13,21,0 157 294
SPMM,14,21,0 157 293
SPMM,15,21,0 157 292
SPMM,8,22,0 157 291
SPMM,9,22,0 157 290
SPMM,10,22,0 157 289
SPMM,11,22,0 157 288
SPMM,12,22,0 157 287
SPMM,13,22,0 157 286
SPMM,14,22,0 157 285
SPMM,15,22,0 157 284
SPMM,8,23,0 157 283
SPMM,9,23,0 157 282
SPMM,10,23,0 157 281
SPMM,11,23,0 157 280
SPMM,12,23,0 157 279
SPMM,13,23,0 157 278
SPMM,14,23,0 157 277
SPMM,15,23,0 157 276
SPMM,16,16,0 49 275
SPMM,17,16,0 49 274
SPMM,18,16,0 49 273
SPMM,19,16,0 49 272
SPMM,20,16,0 49 271
SPMM,21,16,0 49 270
SPMM,22,16,0 49 269
SPMM,23,16,0 49 268
SPMM,16,17,0 49 267
SPMM,17,17,0 49 266
SPMM,18,17,0 49 265
SPMM,19,17,0 49 264
SPMM,20,17,0 49 263
SPMM,21,17,0 49 262
SPMM,22,17,0 49 261
SPMM,23,17,0 49 260
SPMM,16,18,0 49 259
SPMM,17,18,0 49 258
SPMM,18,18,0 49 257
SPMM,19,18,0 49 256
SPMM,20,18,0 49 255
SPMM,21,18,0 49 254
SPMM,22,18,0 49 253
SPMM,23,18,0 49 252
SPMM,16,19,0 49 251
SPMM,17,19,0 49 250
SPMM,18,19,0 49 249
SPMM,19,19,0 49 248
SPMM,20,19,0 49 247
SPMM,21,19,0 49 246
SPMM,22,19,0 49 245
SPMM,23,19,0 49 244
SPMM,16,20,0 49 243
SPMM,17,20,0 49 242
SPMM,18,20,0 49 241
SPMM,19,20,0 49 240
SPMM,20,20,0 49 239
SPMM,21,20,0 49 238
SPMM,22,20,0 49 237
SPMM,23,20,0 49 236
SPMM,16,21,0 49 235
SPMM,17,21,0 49 234
SPMM,18,21,0 49 233
SPMM,19,21,0 49 232
SPMM,20,21,0 49 231
SPMM,21,21,0 49 230
SPMM,22,21,0 49 229
SPMM,23,21,0 49 228
SPMM,16,22,0 49 227
SPMM,17,22,0 49 226
SPMM,18,22,0 49 225
SPMM,19,22,0 49 224
SPMM,20,22,0 49 223
SPMM,21,22,0 49 222
SPMM,22,22,0 49 221
SPMM,23,22,0 49 220
SPMM,16,23,0 49 219
SPMM,17,23,0 49 218
SPMM,18,23,0 49 217
SPMM,19,23,0 49 216
SPMM,20,23,0 49 215
SPMM,21,23,0 49 214
SPMM,22,23,0 49 213
SPMM,23,23,0 49 212
SPMM,24,16,0 56 211
SPMM,25,16,0 56 210
SPMM,24,17,0 56 209
SPMM,25,17,0 56 208
SPMM,24,18,0 56 207
SPMM,25,18,0 56 206
SPMM,24,19,0 56 205
SPMM,25,19,0 56 204
SPMM,24,20,0 56 203
SPMM,25,20,0 56 202
SPMM,24,21,0 56 201
SPMM,25,21,0 56 200
SPMM,24,22,0 56 199
SPMM,25,22,0 56 198
SPMM,24,23,0 56 197
SPMM,25,23,0 56 196
XY,24,20 14 195
XY,25,20 14 194
DLACPY,25,21 91 193
SPMM,24,25,0 91 192
SPMM,25,25,0 91 191
DLACPY,24,21 91 190
SPMM,24,24,0 91 189
SPMM,25,24,0 91 188
SPMM,7,24,0 127 187
SPMM,7,25,0 127 186
SPMM,7,15,0 142 185
SPMM,7,14,0 142 184
SPMM,0,13,0 142 183
SPMM,1,13,0 142 182
SPMM,2,13,0 142 181
SPMM,7,13,0 142 180
SPMM,0,12,0 142 179
SPMM,1,12,0 142 178
SPMM,2,12,0 142 177
SPMM,7,12,0 142 176
SPMM,7,11,0 142 175
SPMM,0,10,0 142 174
SPMM,1,10,0 142 173
SPMM,2,10,0 142 172
SPMM,7,10,0 142 171
SPMM,0,9,0 142 170
XTY,0,0,21 142 169
SPMM,1,9,0 142 168
XTY,1,1,21 142 167
SPMM,2,9,0 142 166
XTY,2,2,21 142 165
SPMM,7,9,0 142 164
SPMM,7,8,0 142 163
XTY,7,7,21 142 162
XTY,3,3,21 142 161
XTY,4,4,21 142 160
XTY,5,5,21 142 159
XTY,6,6,21 142 158
SPMM,8,24,0 170 157
SPMM,9,24,0 170 156
SPMM,10,24,0 170 155
SPMM,11,24,0 170 154
SPMM,12,24,0 170 153
SPMM,13,24,0 170 152
SPMM,14,24,0 170 151
SPMM,15,24,0 170 150
SPMM,8,25,0 170 149
SPMM,9,25,0 170 148
SPMM,10,25,0 170 147
SPMM,11,25,0 170 146
SPMM,12,25,0 170 145
SPMM,13,25,0 170 144
SPMM,14,25,0 170 143
SPMM,15,25,0 170 142
XTY,15,15,21 175 141
XTY,14,14,21 175 140
XTY,13,13,21 175 139
XTY,12,12,21 175 138
XTY,11,11,21 175 137
XTY,10,10,21 175 136
XTY,9,9,21 175 135
XTY,8,8,21 175 134
SPMM,16,24,0 105 133
SPMM,17,24,0 105 132
SPMM,18,24,0 105 131
SPMM,19,24,0 105 130
SPMM,20,24,0 105 129
SPMM,21,24,0 105 128
SPMM,22,24,0 105 127
SPMM,23,24,0 105 126
SPMM,16,25,0 105 125
SPMM,17,25,0 105 124
SPMM,18,25,0 105 123
SPMM,19,25,0 105 122
SPMM,20,25,0 105 121
SPMM,21,25,0 105 120
SPMM,22,25,0 105 119
SPMM,23,25,0 105 118
XTY,23,3,21 111 117
XTY,22,2,21 111 116
XTY,21,1,21 111 115
XTY,20,0,21 111 114
XTY,19,19,21 111 113
XTY,18,18,21 111 112
XTY,17,17,21 111 111
XTY,16,16,21 111 110
XTY,25,5,21 98 109
XTY,24,4,21 98 108
RED,XAXBUF,0 176 107
SPEUPDATE,XAX 177 106
EIGEN 177 105
XY,0,21 209 104
DLACPY,0,22 209 103
XY,1,21 209 102
DLACPY,1,22 209 101
XY,2,21 209 100
DLACPY,2,22 209 99
XY,3,21 209 98
DLACPY,3,22 209 97
XY,4,21 209 96
DLACPY,4,22 209 95
XY,5,21 209 94
DLACPY,5,22 209 93
XY,6,21 209 92
DLACPY,6,22 209 91
XY,7,21 209 90
DLACPY,7,22 209 89
XY,8,21 241 88
DLACPY,8,22 241 87
XY,9,21 241 86
DLACPY,9,22 241 85
XY,10,21 241 84
DLACPY,10,22 241 83
XY,11,21 241 82
DLACPY,11,22 241 81
XY,12,21 241 80
DLACPY,12,22 241 79
XY,13,21 241 78
DLACPY,13,22 241 77
XY,14,21 241 76
DLACPY,14,22 241 75
XY,15,21 241 74
DLACPY,15,22 241 73
XY,16,21 225 72
DLACPY,16,22 225 71
XY,17,21 225 70
DLACPY,17,22 225 69
XY,18,21 225 68
DLACPY,18,22 225 67
XY,19,21 225 66
DLACPY,19,22 225 65
XY,20,21 225 64
DLACPY,20,22 225 63
XY,21,21 225 62
DLACPY,21,22 225 61
XY,22,21 225 60
DLACPY,22,22 225 59
XY,23,21 225 58
DLACPY,23,22 225 57
XY,24,21 217 56
DLACPY,24,22 217 55
XY,25,21 217 54
DLACPY,25,22 217 53
XY,0,22 193 52
DLACPY,0,23 193 51
XY,1,22 193 50
DLACPY,1,23 193 49
XY,2,22 193 48
DLACPY,2,23 193 47
XY,3,22 193 46
DLACPY,3,23 193 45
XY,4,22 193 44
DLACPY,4,23 193 43
XY,5,22 193 42
DLACPY,5,23 193 41
XY,6,22 193 40
DLACPY,6,23 193 39
XY,7,22 193 38
DLACPY,7,23 193 37
XY,8,22 201 36
DLACPY,8,23 201 35
XY,9,22 201 34
DLACPY,9,23 201 33
XY,10,22 201 32
DLACPY,10,23 201 31
XY,11,22 201 30
DLACPY,11,23 201 29
XY,12,22 201 28
DLACPY,12,23 201 27
XY,13,22 201 26
DLACPY,13,23 201 25
XY,14,22 201 24
DLACPY,14,23 201 23
XY,15,22 201 22
DLACPY,15,23 201 21
XY,16,22 233 20
DLACPY,16,23 233 19
XY,17,22 233 18
DLACPY,17,23 233 17
XY,18,22 233 16
DLACPY,18,23 233 15
XY,19,22 233 14
DLACPY,19,23 233 13
XY,20,22 233 12
DLACPY,20,23 233 11
XY,21,22 233 10
DLACPY,21,23 233 9
XY,22,22 233 8
DLACPY,22,23 233 7
XY,23,22 233 6
DLACPY,23,23 233 5
XY,24,22 185 4
DLACPY,24,23 185 3
XY,25,22 185 2
DLACPY,25,23 185 1
