SETZERO,23,1 340 1581
SETZERO,22,1 340 1580
SETZERO,21,1 340 1579
SETZERO,20,1 340 1578
SETZERO,19,1 340 1577
SETZERO,18,1 340 1576
SETZERO,17,1 340 1575
SETZERO,16,1 340 1574
_AP,25 70 1573
_AP,24 70 1572
_AX,15 62 1571
_AX,14 62 1570
_AX,13 62 1569
_AX,12 62 1568
_AX,11 62 1567
_AX,10 62 1566
_AX,9 62 1565
_AX,8 62 1564
_AX,25 51 1563
_AX,24 51 1562
_AX,7 27 1561
_AX,6 27 1560
_AX,5 27 1559
_AX,4 27 1558
_AX,3 27 1557
_AX,2 27 1556
_AX,1 27 1555
_AX,0 27 1554
_P,15 21 1553
_P,14 21 1552
_P,13 21 1551
_P,12 21 1550
_P,11 21 1549
_P,10 21 1548
_P,9 21 1547
_P,8 21 1546
_X,15 13 1545
_X,14 13 1544
_X,13 13 1543
_X,12 13 1542
_X,11 13 1541
_X,10 13 1540
_X,9 13 1539
_X,8 13 1538
_lambda 8 1537
XY,8,1 14 1536
XY,9,1 14 1535
XY,10,1 14 1534
XY,11,1 14 1533
XY,12,1 14 1532
XY,13,1 14 1531
XY,14,1 14 1530
XY,15,1 14 1529
SUB,15,1 63 1528
SUB,14,1 63 1527
SUB,13,1 63 1526
SUB,12,1 63 1525
SUB,11,1 63 1524
SUB,10,1 63 1523
SUB,9,1 63 1522
SUB,8,1 63 1521
MULT,8 69 1520
MULT,9 69 1519
MULT,10 69 1518
MULT,11 69 1517
MULT,12 69 1516
MULT,13 69 1515
MULT,14 69 1514
MULT,15 69 1513
_X,23 43 1512
XY,23,1 43 1511
_X,22 43 1510
XY,22,1 43 1509
_X,21 43 1508
XY,21,1 43 1507
_X,20 43 1506
XY,20,1 43 1505
_X,19 43 1504
XY,19,1 43 1503
_X,18 43 1502
XY,18,1 43 1501
_X,17 43 1500
XY,17,1 43 1499
_X,16 43 1498
XY,16,1 43 1497
_P,23 7 1496
_P,22 7 1495
_P,21 7 1494
_P,20 7 1493
_P,19 7 1492
_P,18 7 1491
_P,17 7 1490
_P,16 7 1489
_X,7 6 1488
_X,6 6 1487
_X,5 6 1486
_X,4 6 1485
_X,3 6 1484
_X,2 6 1483
_X,1 6 1482
_X,0 6 1481
XY,0,1 26 1480
XY,1,1 26 1479
XY,2,1 26 1478
XY,3,1 26 1477
XY,4,1 26 1476
XY,5,1 26 1475
XY,6,1 26 1474
XY,7,1 26 1473
SUB,7,1 32 1472
SUB,6,1 32 1471
SUB,5,1 32 1470
SUB,4,1 32 1469
SUB,3,1 32 1468
SUB,2,1 32 1467
SUB,1,1 32 1466
SUB,0,1 32 1465
MULT,0 36 1464
MULT,1 36 1463
MULT,2 36 1462
MULT,3 36 1461
MULT,4 36 1460
MULT,5 36 1459
MULT,6 36 1458
MULT,7 36 1457
COL,7,7 37 1456
COL,6,6 37 1455
COL,5,5 37 1454
COL,4,4 37 1453
COL,3,3 37 1452
COL,2,2 37 1451
COL,1,1 37 1450
COL,0,0 37 1449
RESET,RN 5 1448
_X,25 4 1447
_X,24 4 1446
XY,24,1 20 1445
XY,25,1 20 1444
SUB,25,1 55 1443
SUB,24,1 55 1442
MULT,24 56 1441
MULT,25 56 1440
COL,25,5 57 1439
COL,24,4 57 1438
_AX,23 3 1437
_AX,22 3 1436
_AX,21 3 1435
_AX,20 3 1434
_AX,19 3 1433
_AX,18 3 1432
_AX,17 3 1431
_AX,16 3 1430
SUB,16,1 49 1429
MULT,16 49 1428
SUB,17,1 49 1427
MULT,17 49 1426
SUB,18,1 49 1425
MULT,18 49 1424
SUB,19,1 49 1423
MULT,19 49 1422
SUB,20,1 49 1421
MULT,20 49 1420
SUB,21,1 49 1419
MULT,21 49 1418
SUB,22,1 49 1417
MULT,22 49 1416
SUB,23,1 49 1415
MULT,23 49 1414
COL,23,3 50 1413
COL,22,2 50 1412
COL,21,1 50 1411
COL,20,0 50 1410
COL,19,19 50 1409
COL,18,18 50 1408
COL,17,17 50 1407
COL,16,16 50 1406
COL,15,15 71 1405
COL,14,14 71 1404
COL,13,13 71 1403
COL,12,12 71 1402
COL,11,11 71 1401
COL,10,10 71 1400
COL,9,9 71 1399
COL,8,8 71 1398
RNRED,RNBUF 71 1397
SQRT,RN 72 1396
RESET,actMask 74 1395
CONV,actMask 78 1394
GET,24,3 78 1393
GET,25,3 78 1392
GET,0,1 102 1391
XTY,0,0,1 102 1390
GET,1,1 102 1389
XTY,1,1,1 102 1388
GET,2,1 102 1387
XTY,2,2,1 102 1386
GET,3,1 102 1385
XTY,3,3,1 102 1384
GET,4,1 102 1383
XTY,4,4,1 102 1382
GET,5,1 102 1381
XTY,5,5,1 102 1380
GET,6,1 102 1379
XTY,6,6,1 102 1378
GET,7,1 102 1377
XTY,7,7,1 102 1376
GET,8,1 84 1375
GET,9,1 84 1374
GET,10,1 84 1373
GET,11,1 84 1372
GET,12,1 84 1371
GET,13,1 84 1370
GET,14,1 84 1369
GET,15,1 84 1368
XTY,15,15,1 96 1367
XTY,14,14,1 96 1366
XTY,13,13,1 96 1365
XTY,12,12,1 96 1364
XTY,11,11,1 96 1363
XTY,10,10,1 96 1362
XTY,9,9,1 96 1361
XTY,8,8,1 96 1360
GET,16,1 114 1359
XTY,16,16,1 114 1358
GET,17,1 114 1357
XTY,17,17,1 114 1356
GET,18,1 114 1355
XTY,18,18,1 114 1354
GET,19,1 114 1353
XTY,19,19,1 114 1352
GET,20,1 114 1351
XTY,20,0,1 114 1350
GET,21,1 114 1349
XTY,21,1,1 114 1348
GET,22,1 114 1347
XTY,22,2,1 114 1346
GET,23,1 114 1345
XTY,23,3,1 114 1344
GET,24,1 120 1343
XTY,24,4,1 120 1342
GET,25,1 120 1341
XTY,25,5,1 120 1340
RED,temp2BUF,0 121 1339
XY,0,2 132 1338
XY,1,2 132 1337
XY,2,2 132 1336
XY,3,2 132 1335
XY,4,2 132 1334
XY,5,2 132 1333
XY,6,2 132 1332
XY,7,2 132 1331
SUB,7,2 143 1330
SUB,6,2 143 1329
SUB,5,2 143 1328
SUB,4,2 143 1327
SUB,3,2 143 1326
SUB,2,2 143 1325
SUB,1,2 143 1324
SUB,0,2 143 1323
XTY,0,0,2 150 1322
XTY,1,1,2 150 1321
XTY,2,2,2 150 1320
XTY,3,3,2 150 1319
XTY,4,4,2 150 1318
XTY,5,5,2 150 1317
XTY,6,6,2 150 1316
XTY,7,7,2 150 1315
XY,8,2 174 1314
XY,9,2 174 1313
XY,10,2 174 1312
XY,11,2 174 1311
XY,12,2 174 1310
XY,13,2 174 1309
XY,14,2 174 1308
XY,15,2 174 1307
SUB,15,2 180 1306
XTY,15,15,2 180 1305
SUB,14,2 180 1304
XTY,14,14,2 180 1303
SUB,13,2 180 1302
XTY,13,13,2 180 1301
SUB,12,2 180 1300
XTY,12,12,2 180 1299
SUB,11,2 180 1298
XTY,11,11,2 180 1297
SUB,10,2 180 1296
XTY,10,10,2 180 1295
SUB,9,2 180 1294
XTY,9,9,2 180 1293
SUB,8,2 180 1292
XTY,8,8,2 180 1291
XY,16,2 127 1290
XY,17,2 127 1289
XY,18,2 127 1288
XY,19,2 127 1287
XY,20,2 127 1286
XY,21,2 127 1285
XY,22,2 127 1284
XY,23,2 127 1283
SUB,23,2 168 1282
XTY,23,3,2 168 1281
SUB,22,2 168 1280
XTY,22,2,2 168 1279
SUB,21,2 168 1278
XTY,21,1,2 168 1277
SUB,20,2 168 1276
XTY,20,0,2 168 1275
SUB,19,2 168 1274
XTY,19,19,2 168 1273
SUB,18,2 168 1272
XTY,18,18,2 168 1271
SUB,17,2 168 1270
XTY,17,17,2 168 1269
SUB,16,2 168 1268
XTY,16,16,2 168 1267
XY,24,2 310 1266
SUB,24,2 310 1265
XTY,24,4,2 310 1264
XY,25,2 310 1263
SUB,25,2 310 1262
XTY,25,5,2 310 1261
RED,RBRBUF,0 311 1260
CHOL,RBR 312 1259
INV,RBR 312 1258
XY,0,3 376 1257
DLACPY,0,1 376 1256
XY,1,3 376 1255
DLACPY,1,1 376 1254
XY,2,3 376 1253
DLACPY,2,1 376 1252
XY,3,3 376 1251
DLACPY,3,1 376 1250
XY,4,3 376 1249
DLACPY,4,1 376 1248
XY,5,3 376 1247
DLACPY,5,1 376 1246
XY,6,3 376 1245
DLACPY,6,1 376 1244
XY,7,3 376 1243
DLACPY,7,1 376 1242
UPDATE,7,1 377 1241
UPDATE,6,1 377 1240
UPDATE,5,1 377 1239
UPDATE,4,1 377 1238
UPDATE,3,1 377 1237
UPDATE,2,1 377 1236
UPDATE,1,1 377 1235
UPDATE,0,1 377 1234
XTY,7,7,4 388 1233
XTY,6,6,4 388 1232
XTY,5,5,4 388 1231
XTY,4,4,4 388 1230
XTY,3,3,4 388 1229
XTY,2,2,4 388 1228
XTY,1,1,4 388 1227
XTY,0,0,4 388 1226
XY,8,3 318 1225
XY,9,3 318 1224
XY,10,3 318 1223
XY,11,3 318 1222
XY,12,3 318 1221
XY,13,3 318 1220
XY,14,3 318 1219
XY,15,3 318 1218
XY,16,3 329 1217
XY,17,3 329 1216
XY,18,3 329 1215
XY,19,3 329 1214
XY,20,3 329 1213
XY,21,3 329 1212
XY,22,3 329 1211
XY,23,3 329 1210
XY,24,3 324 1209
XY,25,3 324 1208
DLACPY,25,1 351 1207
SPMM,16,25,0 351 1206
SPMM,17,25,0 351 1205
SPMM,18,25,0 351 1204
SPMM,19,25,0 351 1203
SPMM,20,25,0 351 1202
SPMM,21,25,0 351 1201
SPMM,22,25,0 351 1200
SPMM,23,25,0 351 1199
DLACPY,24,1 351 1198
SPMM,16,24,0 351 1197
SPMM,17,24,0 351 1196
SPMM,18,24,0 351 1195
SPMM,19,24,0 351 1194
SPMM,20,24,0 351 1193
SPMM,21,24,0 351 1192
SPMM,22,24,0 351 1191
SPMM,23,24,0 351 1190
UPDATE,24,1 370 1189
UPDATE,25,1 370 1188
XTY,24,4,4 369 1187
XTY,25,5,4 369 1186
GET,8,2 162 1185
XTY,8,8,3 162 1184
GET,9,2 162 1183
XTY,9,9,3 162 1182
GET,10,2 162 1181
XTY,10,10,3 162 1180
GET,11,2 162 1179
XTY,11,11,3 162 1178
GET,12,2 162 1177
XTY,12,12,3 162 1176
GET,13,2 162 1175
XTY,13,13,3 162 1174
GET,14,2 162 1173
XTY,14,14,3 162 1172
GET,15,2 162 1171
XTY,15,15,3 162 1170
GET,16,2 186 1169
XTY,16,16,3 186 1168
GET,17,2 186 1167
XTY,17,17,3 186 1166
GET,18,2 186 1165
XTY,18,18,3 186 1164
GET,19,2 186 1163
XTY,19,19,3 186 1162
GET,20,2 186 1161
XTY,20,0,3 186 1160
GET,21,2 186 1159
XTY,21,1,3 186 1158
GET,22,2 186 1157
XTY,22,2,3 186 1156
GET,23,2 186 1155
XTY,23,3,3 186 1154
_AP,7 90 1153
GET,7,3 90 1152
_AP,6 90 1151
GET,6,3 90 1150
_AP,5 90 1149
GET,5,3 90 1148
_AP,4 90 1147
GET,4,3 90 1146
_AP,3 90 1145
GET,3,3 90 1144
_AP,2 90 1143
GET,2,3 90 1142
_AP,1 90 1141
GET,1,3 90 1140
_AP,0 90 1139
GET,0,3 90 1138
_AP,15 108 1137
GET,15,3 108 1136
_AP,14 108 1135
GET,14,3 108 1134
_AP,13 108 1133
GET,13,3 108 1132
_AP,12 108 1131
GET,12,3 108 1130
_AP,11 108 1129
GET,11,3 108 1128
_AP,10 108 1127
GET,10,3 108 1126
_AP,9 108 1125
GET,9,3 108 1124
_AP,8 108 1123
GET,8,3 108 1122
_AP,23 2 1121
_AP,22 2 1120
_AP,21 2 1119
_AP,20 2 1118
_AP,19 2 1117
_AP,18 2 1116
_AP,17 2 1115
_AP,16 2 1114
GET,16,3 137 1113
GET,17,3 137 1112
GET,18,3 137 1111
GET,19,3 137 1110
GET,20,3 137 1109
GET,21,3 137 1108
GET,22,3 137 1107
GET,23,3 137 1106
_P,25 1 1105
_P,24 1 1104
GET,24,2 156 1103
XTY,24,4,3 156 1102
GET,25,2 156 1101
XTY,25,5,3 156 1100
_P,7 0 1099
_P,6 0 1098
_P,5 0 1097
_P,4 0 1096
_P,3 0 1095
_P,2 0 1094
_P,1 0 1093
_P,0 0 1092
GET,0,2 148 1091
GET,1,2 148 1090
GET,2,2 148 1089
GET,3,2 148 1088
GET,4,2 148 1087
GET,5,2 148 1086
GET,6,2 148 1085
GET,7,2 148 1084
XTY,7,7,3 149 1083
XTY,6,6,3 149 1082
XTY,5,5,3 149 1081
XTY,4,4,3 149 1080
XTY,3,3,3 149 1079
XTY,2,2,3 149 1078
XTY,1,1,3 149 1077
XTY,0,0,3 149 1076
RED,PBPBUF,0 187 1075
CHOL,PBP 187 1074
INV,PBP 188 1073
XY,0,4 221 1072
XY,1,4 221 1071
XY,2,4 221 1070
XY,3,4 221 1069
XY,4,4 221 1068
XY,5,4 221 1067
XY,6,4 221 1066
XY,7,4 221 1065
XY,8,4 210 1064
XY,9,4 210 1063
XY,10,4 210 1062
XY,11,4 210 1061
XY,12,4 210 1060
XY,13,4 210 1059
XY,14,4 210 1058
XY,15,4 210 1057
XY,16,4 199 1056
XY,17,4 199 1055
XY,18,4 199 1054
XY,19,4 199 1053
XY,20,4 199 1052
XY,21,4 199 1051
XY,22,4 199 1050
XY,23,4 199 1049
DLACPY,23,2 285 1048
DLACPY,22,2 285 1047
DLACPY,21,2 285 1046
DLACPY,20,2 285 1045
DLACPY,19,2 285 1044
DLACPY,18,2 285 1043
DLACPY,17,2 285 1042
DLACPY,16,2 285 1041
UPDATE,16,2 289 1040
UPDATE,17,2 289 1039
UPDATE,18,2 289 1038
UPDATE,19,2 289 1037
UPDATE,20,2 289 1036
UPDATE,21,2 289 1035
UPDATE,22,2 289 1034
UPDATE,23,2 289 1033
XTY,16,16,6 302 1032
XTY,17,17,6 302 1031
XTY,18,18,6 302 1030
XTY,19,19,6 302 1029
XTY,20,0,6 302 1028
XTY,21,1,6 302 1027
XTY,22,2,6 302 1026
XTY,23,3,6 302 1025
XTY,16,16,9 286 1024
XTY,17,17,9 286 1023
XTY,18,18,9 286 1022
XTY,19,19,9 286 1021
XTY,20,0,9 286 1020
XTY,21,1,9 286 1019
XTY,22,2,9 286 1018
XTY,23,3,9 286 1017
XY,24,4 226 1016
XY,25,4 226 1015
DLACPY,25,2 269 1014
XTY,25,5,9 269 1013
DLACPY,24,2 269 1012
XTY,24,4,9 269 1011
UPDATE,24,2 297 1010
UPDATE,25,2 297 1009
XTY,24,4,6 281 1008
XTY,25,5,6 281 1007
XTY,24,4,10 364 1006
XTY,25,5,10 364 1005
XY,0,5 205 1004
XY,1,5 205 1003
XY,2,5 205 1002
XY,3,5 205 1001
XY,4,5 205 1000
XY,5,5 205 999
XY,6,5 205 998
XY,7,5 205 997
DLACPY,7,3 243 996
UPDATE,7,3 243 995
DLACPY,6,3 243 994
UPDATE,6,3 243 993
DLACPY,5,3 243 992
UPDATE,5,3 243 991
DLACPY,4,3 243 990
UPDATE,4,3 243 989
DLACPY,3,3 243 988
UPDATE,3,3 243 987
DLACPY,2,3 243 986
UPDATE,2,3 243 985
DLACPY,1,3 243 984
UPDATE,1,3 243 983
DLACPY,0,3 243 982
UPDATE,0,3 243 981
DLACPY,7,2 249 980
XTY,7,7,6 249 979
XTY,7,7,8 249 978
XTY,7,7,9 249 977
DLACPY,6,2 249 976
XTY,6,6,6 249 975
XTY,6,6,8 249 974
XTY,6,6,9 249 973
DLACPY,5,2 249 972
XTY,5,5,6 249 971
XTY,5,5,8 249 970
XTY,5,5,9 249 969
DLACPY,4,2 249 968
XTY,4,4,6 249 967
XTY,4,4,8 249 966
XTY,4,4,9 249 965
DLACPY,3,2 249 964
XTY,3,3,6 249 963
XTY,3,3,8 249 962
XTY,3,3,9 249 961
DLACPY,2,2 249 960
XTY,2,2,6 249 959
XTY,2,2,8 249 958
XTY,2,2,9 249 957
DLACPY,1,2 249 956
XTY,1,1,6 249 955
XTY,1,1,8 249 954
XTY,1,1,9 249 953
DLACPY,0,2 249 952
XTY,0,0,6 249 951
XTY,0,0,8 249 950
XTY,0,0,9 249 949
UPDATE,0,2 250 948
UPDATE,1,2 250 947
UPDATE,2,2 250 946
UPDATE,3,2 250 945
UPDATE,4,2 250 944
UPDATE,5,2 250 943
UPDATE,6,2 250 942
UPDATE,7,2 250 941
XTY,0,0,10 383 940
XTY,1,1,10 383 939
XTY,2,2,10 383 938
XTY,3,3,10 383 937
XTY,4,4,10 383 936
XTY,5,5,10 383 935
XTY,6,6,10 383 934
XTY,7,7,10 383 933
XY,8,5 193 932
XY,9,5 193 931
XY,10,5 193 930
XY,11,5 193 929
XY,12,5 193 928
XY,13,5 193 927
XY,14,5 193 926
XY,15,5 193 925
DLACPY,15,3 237 924
UPDATE,15,3 237 923
DLACPY,14,3 237 922
UPDATE,14,3 237 921
DLACPY,13,3 237 920
UPDATE,13,3 237 919
DLACPY,12,3 237 918
UPDATE,12,3 237 917
DLACPY,11,3 237 916
UPDATE,11,3 237 915
DLACPY,10,3 237 914
UPDATE,10,3 237 913
DLACPY,9,3 237 912
UPDATE,9,3 237 911
DLACPY,8,3 237 910
UPDATE,8,3 237 909
DLACPY,15,2 256 908
XTY,15,15,8 256 907
XTY,15,15,9 256 906
DLACPY,14,2 256 905
XTY,14,14,8 256 904
XTY,14,14,9 256 903
DLACPY,13,2 256 902
XTY,13,13,8 256 901
XTY,13,13,9 256 900
DLACPY,12,2 256 899
XTY,12,12,8 256 898
XTY,12,12,9 256 897
DLACPY,11,2 256 896
XTY,11,11,8 256 895
XTY,11,11,9 256 894
DLACPY,10,2 256 893
XTY,10,10,8 256 892
XTY,10,10,9 256 891
DLACPY,9,2 256 890
XTY,9,9,8 256 889
XTY,9,9,9 256 888
DLACPY,8,2 256 887
XTY,8,8,8 256 886
XTY,8,8,9 256 885
RED,XBPBUF,0 319 884
UPDATE,8,2 257 883
UPDATE,9,2 257 882
UPDATE,10,2 257 881
UPDATE,11,2 257 880
UPDATE,12,2 257 879
UPDATE,13,2 257 878
UPDATE,14,2 257 877
UPDATE,15,2 257 876
XTY,8,8,6 263 875
XTY,9,9,6 263 874
XTY,10,10,6 263 873
XTY,11,11,6 263 872
XTY,12,12,6 263 871
XTY,13,13,6 263 870
XTY,14,14,6 263 869
XTY,15,15,6 263 868
XY,16,5 231 867
XY,17,5 231 866
XY,18,5 231 865
XY,19,5 231 864
XY,20,5 231 863
XY,21,5 231 862
XY,22,5 231 861
XY,23,5 231 860
DLACPY,23,3 275 859
DLACPY,22,3 275 858
DLACPY,21,3 275 857
DLACPY,20,3 275 856
DLACPY,19,3 275 855
DLACPY,18,3 275 854
DLACPY,17,3 275 853
DLACPY,16,3 275 852
UPDATE,16,3 276 851
UPDATE,17,3 276 850
UPDATE,18,3 276 849
UPDATE,19,3 276 848
UPDATE,20,3 276 847
UPDATE,21,3 276 846
UPDATE,22,3 276 845
UPDATE,23,3 276 844
XTY,16,16,8 288 843
XTY,17,17,8 288 842
XTY,18,18,8 288 841
XTY,19,19,8 288 840
XTY,20,0,8 288 839
XTY,21,1,8 288 838
XTY,22,2,8 288 837
XTY,23,3,8 288 836
XY,24,5 215 835
XY,25,5 215 834
DLACPY,25,3 295 833
XTY,25,5,8 295 832
DLACPY,24,3 295 831
XTY,24,4,8 295 830
RED,PAPBUF,0 303 829
SPEUPDATE,PAP 304 828
RED,XAPBUF,0 304 827
SETZERO,7,1 304 826
SETZERO,6,1 304 825
SETZERO,5,1 304 824
SETZERO,4,1 304 823
SETZERO,3,1 304 822
SETZERO,2,1 304 821
SETZERO,1,1 304 820
SETZERO,0,1 304 819
DLACPY,23,1 333 818
SPMM,7,23,0 333 817
DLACPY,22,1 333 816
SPMM,7,22,0 333 815
DLACPY,21,1 333 814
SPMM,7,21,0 333 813
DLACPY,20,1 333 812
SPMM,7,20,0 333 811
DLACPY,19,1 333 810
SPMM,7,19,0 333 809
DLACPY,18,1 333 808
SPMM,7,18,0 333 807
DLACPY,17,1 333 806
SPMM,7,17,0 333 805
DLACPY,16,1 333 804
SPMM,7,16,0 333 803
SETZERO,15,1 346 802
SPMM,15,16,0 346 801
SPMM,15,17,0 346 800
SPMM,15,18,0 346 799
SPMM,15,19,0 346 798
SPMM,15,20,0 346 797
SPMM,15,21,0 346 796
SPMM,15,22,0 346 795
SPMM,15,23,0 346 794
SETZERO,14,1 346 793
SPMM,14,16,0 346 792
SPMM,14,17,0 346 791
SPMM,14,18,0 346 790
SPMM,14,19,0 346 789
SPMM,14,20,0 346 788
SPMM,14,21,0 346 787
SPMM,14,22,0 346 786
SPMM,14,23,0 346 785
SETZERO,13,1 346 784
SPMM,13,16,0 346 783
SPMM,13,17,0 346 782
SPMM,13,18,0 346 781
SPMM,13,19,0 346 780
SPMM,13,20,0 346 779
SPMM,13,21,0 346 778
SPMM,13,22,0 346 777
SPMM,13,23,0 346 776
SETZERO,12,1 346 775
SPMM,12,16,0 346 774
SPMM,12,17,0 346 773
SPMM,12,18,0 346 772
SPMM,12,19,0 346 771
SPMM,12,20,0 346 770
SPMM,12,21,0 346 769
SPMM,12,22,0 346 768
SPMM,12,23,0 346 767
SETZERO,11,1 346 766
SPMM,11,16,0 346 765
SPMM,11,17,0 346 764
SPMM,11,18,0 346 763
SPMM,11,19,0 346 762
SPMM,11,20,0 346 761
SPMM,11,21,0 346 760
SPMM,11,22,0 346 759
SPMM,11,23,0 346 758
SETZERO,10,1 346 757
SPMM,10,16,0 346 756
SPMM,10,17,0 346 755
SPMM,10,18,0 346 754
SPMM,10,19,0 346 753
SPMM,10,20,0 346 752
SPMM,10,21,0 346 751
SPMM,10,22,0 346 750
SPMM,10,23,0 346 749
SETZERO,9,1 346 748
SPMM,9,16,0 346 747
SPMM,9,17,0 346 746
SPMM,9,18,0 346 745
SPMM,9,19,0 346 744
SPMM,9,20,0 346 743
SPMM,9,21,0 346 742
SPMM,9,22,0 346 741
SPMM,9,23,0 346 740
SETZERO,8,1 346 739
SPMM,8,16,0 346 738
SPMM,8,17,0 346 737
SPMM,8,18,0 346 736
SPMM,8,19,0 346 735
SPMM,8,20,0 346 734
SPMM,8,21,0 346 733
SPMM,8,22,0 346 732
SPMM,8,23,0 346 731
DLACPY,15,1 398 730
SPMM,8,15,0 398 729
SPMM,9,15,0 398 728
SPMM,10,15,0 398 727
SPMM,11,15,0 398 726
SPMM,12,15,0 398 725
SPMM,13,15,0 398 724
SPMM,14,15,0 398 723
SPMM,15,15,0 398 722
DLACPY,14,1 398 721
SPMM,8,14,0 398 720
SPMM,9,14,0 398 719
SPMM,10,14,0 398 718
SPMM,11,14,0 398 717
SPMM,12,14,0 398 716
SPMM,13,14,0 398 715
SPMM,14,14,0 398 714
SPMM,15,14,0 398 713
DLACPY,13,1 398 712
SPMM,8,13,0 398 711
SPMM,9,13,0 398 710
SPMM,10,13,0 398 709
SPMM,11,13,0 398 708
SPMM,12,13,0 398 707
SPMM,13,13,0 398 706
SPMM,14,13,0 398 705
SPMM,15,13,0 398 704
DLACPY,12,1 398 703
SPMM,8,12,0 398 702
SPMM,9,12,0 398 701
SPMM,10,12,0 398 700
SPMM,11,12,0 398 699
SPMM,12,12,0 398 698
SPMM,13,12,0 398 697
SPMM,14,12,0 398 696
SPMM,15,12,0 398 695
DLACPY,11,1 398 694
SPMM,8,11,0 398 693
SPMM,9,11,0 398 692
SPMM,10,11,0 398 691
SPMM,11,11,0 398 690
SPMM,12,11,0 398 689
SPMM,13,11,0 398 688
SPMM,14,11,0 398 687
SPMM,15,11,0 398 686
DLACPY,10,1 398 685
SPMM,9,10,0 398 684
SPMM,10,10,0 398 683
SPMM,11,10,0 398 682
SPMM,12,10,0 398 681
SPMM,13,10,0 398 680
SPMM,14,10,0 398 679
SPMM,15,10,0 398 678
DLACPY,9,1 398 677
SPMM,8,9,0 398 676
SPMM,9,9,0 398 675
SPMM,10,9,0 398 674
SPMM,11,9,0 398 673
SPMM,12,9,0 398 672
SPMM,13,9,0 398 671
SPMM,14,9,0 398 670
SPMM,15,9,0 398 669
DLACPY,8,1 398 668
SPMM,8,8,0 398 667
SPMM,9,8,0 398 666
SPMM,11,8,0 398 665
SPMM,12,8,0 398 664
SPMM,13,8,0 398 663
SPMM,14,8,0 398 662
SPMM,15,8,0 398 661
SPMM,7,8,0 407 660
SPMM,0,9,0 407 659
SPMM,1,9,0 407 658
SPMM,2,9,0 407 657
SPMM,7,9,0 407 656
SPMM,0,10,0 407 655
SPMM,1,10,0 407 654
SPMM,2,10,0 407 653
SPMM,7,10,0 407 652
SPMM,7,11,0 407 651
SPMM,0,12,0 407 650
SPMM,1,12,0 407 649
SPMM,2,12,0 407 648
SPMM,7,12,0 407 647
SPMM,0,13,0 407 646
SPMM,1,13,0 407 645
SPMM,2,13,0 407 644
SPMM,7,13,0 407 643
SPMM,7,14,0 407 642
SPMM,7,15,0 407 641
SPMM,16,8,0 401 640
SPMM,17,8,0 401 639
SPMM,18,8,0 401 638
SPMM,19,8,0 401 637
SPMM,20,8,0 401 636
SPMM,21,8,0 401 635
SPMM,22,8,0 401 634
SPMM,23,8,0 401 633
SPMM,16,9,0 401 632
SPMM,17,9,0 401 631
SPMM,18,9,0 401 630
SPMM,19,9,0 401 629
SPMM,20,9,0 401 628
SPMM,21,9,0 401 627
SPMM,22,9,0 401 626
SPMM,23,9,0 401 625
SPMM,16,10,0 401 624
SPMM,17,10,0 401 623
SPMM,18,10,0 401 622
SPMM,19,10,0 401 621
SPMM,20,10,0 401 620
SPMM,21,10,0 401 619
SPMM,22,10,0 401 618
SPMM,23,10,0 401 617
SPMM,16,11,0 401 616
SPMM,17,11,0 401 615
SPMM,18,11,0 401 614
SPMM,19,11,0 401 613
SPMM,20,11,0 401 612
SPMM,21,11,0 401 611
SPMM,22,11,0 401 610
SPMM,23,11,0 401 609
SPMM,16,12,0 401 608
SPMM,17,12,0 401 607
SPMM,18,12,0 401 606
SPMM,19,12,0 401 605
SPMM,20,12,0 401 604
SPMM,21,12,0 401 603
SPMM,22,12,0 401 602
SPMM,23,12,0 401 601
SPMM,16,13,0 401 600
SPMM,17,13,0 401 599
SPMM,18,13,0 401 598
SPMM,19,13,0 401 597
SPMM,20,13,0 401 596
SPMM,21,13,0 401 595
SPMM,22,13,0 401 594
SPMM,23,13,0 401 593
SPMM,16,14,0 401 592
SPMM,17,14,0 401 591
SPMM,18,14,0 401 590
SPMM,19,14,0 401 589
SPMM,20,14,0 401 588
SPMM,21,14,0 401 587
SPMM,22,14,0 401 586
SPMM,23,14,0 401 585
SPMM,16,15,0 401 584
SPMM,17,15,0 401 583
SPMM,18,15,0 401 582
SPMM,19,15,0 401 581
SPMM,20,15,0 401 580
SPMM,21,15,0 401 579
SPMM,22,15,0 401 578
SPMM,23,15,0 401 577
SETZERO,25,1 463 576
SPMM,25,8,0 463 575
SPMM,25,9,0 463 574
SPMM,25,10,0 463 573
SPMM,25,11,0 463 572
SPMM,25,12,0 463 571
SPMM,25,13,0 463 570
SPMM,25,14,0 463 569
SPMM,25,15,0 463 568
SPMM,25,16,0 463 567
SPMM,25,17,0 463 566
SPMM,25,18,0 463 565
SPMM,25,19,0 463 564
SPMM,25,20,0 463 563
SPMM,25,21,0 463 562
SPMM,25,22,0 463 561
SPMM,25,23,0 463 560
SETZERO,24,1 463 559
SPMM,24,8,0 463 558
SPMM,24,9,0 463 557
SPMM,24,10,0 463 556
SPMM,24,11,0 463 555
SPMM,24,12,0 463 554
SPMM,24,13,0 463 553
SPMM,24,14,0 463 552
SPMM,24,15,0 463 551
SPMM,24,16,0 463 550
SPMM,24,17,0 463 549
SPMM,24,18,0 463 548
SPMM,24,19,0 463 547
SPMM,24,20,0 463 546
SPMM,24,21,0 463 545
SPMM,24,22,0 463 544
SPMM,24,23,0 463 543
SPMM,24,7,0 469 542
SPMM,25,7,0 469 541
SPMM,24,24,0 475 540
SPMM,24,25,0 475 539
XTY,24,4,7 475 538
SPMM,25,24,0 475 537
SPMM,25,25,0 475 536
XTY,25,5,7 475 535
XTY,25,5,5 481 534
XTY,24,4,5 481 533
UPDATE,8,1 414 532
UPDATE,9,1 414 531
UPDATE,10,1 414 530
UPDATE,11,1 414 529
UPDATE,12,1 414 528
UPDATE,13,1 414 527
UPDATE,14,1 414 526
UPDATE,15,1 414 525
XTY,8,8,4 413 524
XTY,9,9,4 413 523
XTY,10,10,4 413 522
XTY,11,11,4 413 521
XTY,12,12,4 413 520
XTY,13,13,4 413 519
XTY,14,14,4 413 518
XTY,15,15,4 413 517
XTY,8,8,10 419 516
XTY,9,9,10 419 515
XTY,10,10,10 419 514
XTY,11,11,10 419 513
XTY,12,12,10 419 512
XTY,13,13,10 419 511
XTY,14,14,10 419 510
XTY,15,15,10 419 509
SPMM,8,24,0 352 508
SPMM,8,25,0 352 507
SPMM,9,24,0 352 506
SPMM,9,25,0 352 505
SPMM,10,24,0 352 504
SPMM,10,25,0 352 503
SPMM,11,24,0 352 502
SPMM,11,25,0 352 501
SPMM,12,24,0 352 500
SPMM,12,25,0 352 499
SPMM,13,24,0 352 498
SPMM,13,25,0 352 497
SPMM,14,24,0 352 496
SPMM,14,25,0 352 495
SPMM,15,24,0 352 494
SPMM,15,25,0 352 493
SPMM,8,7,0 432 492
XTY,8,8,7 432 491
SPMM,9,0,0 432 490
SPMM,9,1,0 432 489
SPMM,9,2,0 432 488
SPMM,9,7,0 432 487
XTY,9,9,7 432 486
SPMM,10,0,0 432 485
SPMM,10,1,0 432 484
SPMM,10,2,0 432 483
SPMM,10,7,0 432 482
XTY,10,10,7 432 481
SPMM,11,7,0 432 480
XTY,11,11,7 432 479
SPMM,12,0,0 432 478
SPMM,12,1,0 432 477
SPMM,12,2,0 432 476
SPMM,12,7,0 432 475
XTY,12,12,7 432 474
SPMM,13,0,0 432 473
SPMM,13,1,0 432 472
SPMM,13,2,0 432 471
SPMM,13,7,0 432 470
XTY,13,13,7 432 469
SPMM,14,7,0 432 468
XTY,14,14,7 432 467
SPMM,15,7,0 432 466
XTY,15,15,7 432 465
XTY,15,15,5 438 464
XTY,14,14,5 438 463
XTY,13,13,5 438 462
XTY,12,12,5 438 461
XTY,11,11,5 438 460
XTY,10,10,5 438 459
XTY,9,9,5 438 458
XTY,8,8,5 438 457
SPMM,16,16,0 393 456
SPMM,17,16,0 393 455
SPMM,18,16,0 393 454
SPMM,19,16,0 393 453
SPMM,20,16,0 393 452
SPMM,21,16,0 393 451
SPMM,22,16,0 393 450
SPMM,23,16,0 393 449
SPMM,16,17,0 393 448
SPMM,17,17,0 393 447
SPMM,18,17,0 393 446
SPMM,19,17,0 393 445
SPMM,20,17,0 393 444
SPMM,21,17,0 393 443
SPMM,22,17,0 393 442
SPMM,23,17,0 393 441
SPMM,16,18,0 393 440
SPMM,17,18,0 393 439
SPMM,18,18,0 393 438
SPMM,19,18,0 393 437
SPMM,20,18,0 393 436
SPMM,21,18,0 393 435
SPMM,22,18,0 393 434
SPMM,23,18,0 393 433
SPMM,16,19,0 393 432
SPMM,17,19,0 393 431
SPMM,18,19,0 393 430
SPMM,19,19,0 393 429
SPMM,20,19,0 393 428
SPMM,21,19,0 393 427
SPMM,22,19,0 393 426
SPMM,23,19,0 393 425
SPMM,16,20,0 393 424
SPMM,17,20,0 393 423
SPMM,18,20,0 393 422
SPMM,19,20,0 393 421
SPMM,20,20,0 393 420
SPMM,21,20,0 393 419
SPMM,22,20,0 393 418
SPMM,23,20,0 393 417
SPMM,16,21,0 393 416
SPMM,17,21,0 393 415
SPMM,18,21,0 393 414
SPMM,19,21,0 393 413
SPMM,20,21,0 393 412
SPMM,21,21,0 393 411
SPMM,22,21,0 393 410
SPMM,23,21,0 393 409
SPMM,16,22,0 393 408
SPMM,17,22,0 393 407
SPMM,18,22,0 393 406
SPMM,19,22,0 393 405
SPMM,20,22,0 393 404
SPMM,21,22,0 393 403
SPMM,22,22,0 393 402
SPMM,23,22,0 393 401
SPMM,16,23,0 393 400
SPMM,17,23,0 393 399
SPMM,18,23,0 393 398
SPMM,19,23,0 393 397
SPMM,20,23,0 393 396
SPMM,21,23,0 393 395
SPMM,22,23,0 393 394
SPMM,23,23,0 393 393
SPMM,16,7,0 425 392
XTY,16,16,7 425 391
SPMM,17,7,0 425 390
XTY,17,17,7 425 389
SPMM,18,7,0 425 388
XTY,18,18,7 425 387
SPMM,19,7,0 425 386
XTY,19,19,7 425 385
SPMM,20,7,0 425 384
XTY,20,0,7 425 383
SPMM,21,7,0 425 382
XTY,21,1,7 425 381
SPMM,22,7,0 425 380
XTY,22,2,7 425 379
SPMM,23,7,0 425 378
XTY,23,3,7 425 377
XTY,23,3,5 456 376
XTY,22,2,5 456 375
XTY,21,1,5 456 374
XTY,20,0,5 456 373
XTY,19,19,5 456 372
XTY,18,18,5 456 371
XTY,17,17,5 456 370
XTY,16,16,5 456 369
UPDATE,16,1 339 368
UPDATE,17,1 339 367
UPDATE,18,1 339 366
UPDATE,19,1 339 365
UPDATE,20,1 339 364
UPDATE,21,1 339 363
UPDATE,22,1 339 362
UPDATE,23,1 339 361
XTY,16,16,4 338 360
XTY,17,17,4 338 359
XTY,18,18,4 338 358
XTY,19,19,4 338 357
XTY,20,0,4 338 356
XTY,21,1,4 338 355
XTY,22,2,4 338 354
XTY,23,3,4 338 353
RED,XARBUF,0 426 352
CONSTRUCTGA1 426 351
XTY,16,16,10 335 350
XTY,17,17,10 335 349
XTY,18,18,10 335 348
XTY,19,19,10 335 347
XTY,20,0,10 335 346
XTY,21,1,10 335 345
XTY,22,2,10 335 344
XTY,23,3,10 335 343
RED,RBPBUF,0 457 342
CONSTRUCTGB 457 341
SPMM,7,24,0 358 340
SPMM,7,25,0 358 339
SPMM,0,0,0 444 338
SPMM,0,1,0 444 337
SPMM,0,5,0 444 336
XTY,0,0,7 444 335
SPMM,1,0,0 444 334
SPMM,1,1,0 444 333
SPMM,1,2,0 444 332
SPMM,1,3,0 444 331
SPMM,1,4,0 444 330
SPMM,1,5,0 444 329
SPMM,1,6,0 444 328
SPMM,1,7,0 444 327
XTY,1,1,7 444 326
SPMM,2,1,0 444 325
SPMM,2,2,0 444 324
SPMM,2,3,0 444 323
SPMM,2,4,0 444 322
SPMM,2,5,0 444 321
SPMM,2,6,0 444 320
SPMM,2,7,0 444 319
XTY,2,2,7 444 318
SPMM,3,1,0 444 317
SPMM,3,2,0 444 316
SPMM,3,3,0 444 315
SPMM,3,4,0 444 314
SPMM,3,5,0 444 313
SPMM,3,6,0 444 312
SPMM,3,7,0 444 311
XTY,3,3,7 444 310
SPMM,4,1,0 444 309
SPMM,4,2,0 444 308
SPMM,4,3,0 444 307
SPMM,4,4,0 444 306
SPMM,4,5,0 444 305
SPMM,4,6,0 444 304
SPMM,4,7,0 444 303
XTY,4,4,7 444 302
SPMM,5,0,0 444 301
SPMM,5,1,0 444 300
SPMM,5,2,0 444 299
SPMM,5,3,0 444 298
SPMM,5,4,0 444 297
SPMM,5,5,0 444 296
SPMM,5,6,0 444 295
SPMM,5,7,0 444 294
XTY,5,5,7 444 293
SPMM,6,1,0 444 292
SPMM,6,2,0 444 291
SPMM,6,3,0 444 290
SPMM,6,4,0 444 289
SPMM,6,5,0 444 288
SPMM,6,6,0 444 287
SPMM,6,7,0 444 286
XTY,6,6,7 444 285
SPMM,7,1,0 444 284
SPMM,7,2,0 444 283
SPMM,7,3,0 444 282
SPMM,7,4,0 444 281
SPMM,7,5,0 444 280
SPMM,7,6,0 444 279
SPMM,7,7,0 444 278
XTY,7,7,7 444 277
XTY,7,7,5 450 276
XTY,6,6,5 450 275
XTY,5,5,5 450 274
XTY,4,4,5 450 273
XTY,3,3,5 450 272
XTY,2,2,5 450 271
XTY,1,1,5 450 270
XTY,0,0,5 450 269
RED,RARBUF,0 482 268
TRANS,RAR 482 267
SPEUPDATE,RAR 482 266
RED,RAPBUF,0 482 265
CONSTRUCTGA2 482 264
EIGEN 482 263
XY,0,6 510 262
XY,1,6 510 261
XY,2,6 510 260
XY,3,6 510 259
XY,4,6 510 258
XY,5,6 510 257
XY,6,6 510 256
XY,7,6 510 255
XY,0,7 538 254
ADD,0,1 538 253
XY,1,7 538 252
ADD,1,1 538 251
XY,2,7 538 250
ADD,2,1 538 249
XY,3,7 538 248
ADD,3,1 538 247
XY,4,7 538 246
ADD,4,1 538 245
XY,5,7 538 244
ADD,5,1 538 243
XY,6,7 538 242
ADD,6,1 538 241
XY,7,7 538 240
ADD,7,1 538 239
XY,0,10 638 238
ADD,0,3 638 237
XY,1,10 638 236
ADD,1,3 638 235
XY,2,10 638 234
ADD,2,3 638 233
XY,3,10 638 232
ADD,3,3 638 231
XY,4,10 638 230
ADD,4,3 638 229
XY,5,10 638 228
ADD,5,3 638 227
XY,6,10 638 226
ADD,6,3 638 225
XY,7,10 638 224
ADD,7,3 638 223
XY,8,6 500 222
XY,9,6 500 221
XY,10,6 500 220
XY,11,6 500 219
XY,12,6 500 218
XY,13,6 500 217
XY,14,6 500 216
XY,15,6 500 215
XY,16,6 532 214
XY,17,6 532 213
XY,18,6 532 212
XY,19,6 532 211
XY,20,6 532 210
XY,21,6 532 209
XY,22,6 532 208
XY,23,6 532 207
XY,8,7 596 206
XY,9,7 596 205
XY,10,7 596 204
XY,11,7 596 203
XY,12,7 596 202
XY,13,7 596 201
XY,14,7 596 200
XY,15,7 596 199
ADD,15,1 600 198
ADD,14,1 600 197
ADD,13,1 600 196
ADD,12,1 600 195
ADD,11,1 600 194
ADD,10,1 600 193
ADD,9,1 600 192
ADD,8,1 600 191
XY,16,7 505 190
XY,17,7 505 189
XY,18,7 505 188
XY,19,7 505 187
XY,20,7 505 186
XY,21,7 505 185
XY,22,7 505 184
XY,23,7 505 183
ADD,23,1 558 182
ADD,22,1 558 181
ADD,21,1 558 180
ADD,20,1 558 179
ADD,19,1 558 178
ADD,18,1 558 177
ADD,17,1 558 176
ADD,16,1 558 175
XY,24,7 488 174
XY,25,7 488 173
XY,24,6 494 172
ADD,24,1 494 171
XY,25,6 494 170
ADD,25,1 494 169
XY,24,10 543 168
ADD,24,3 543 167
XY,25,10 543 166
ADD,25,3 543 165
XY,16,8 605 164
XY,17,8 605 163
XY,18,8 605 162
XY,19,8 605 161
XY,20,8 605 160
XY,21,8 605 159
XY,22,8 605 158
XY,23,8 605 157
XY,24,8 520 156
XY,25,8 520 155
XY,24,9 526 154
ADD,24,2 526 153
XY,25,9 526 152
ADD,25,2 526 151
XY,24,11 626 150
ADD,24,4 626 149
XY,25,11 626 148
ADD,25,4 626 147
XY,0,9 632 146
XY,1,9 632 145
XY,2,9 632 144
XY,3,9 632 143
XY,4,9 632 142
XY,5,9 632 141
XY,6,9 632 140
XY,7,9 632 139
XY,0,8 644 138
ADD,0,2 644 137
XY,1,8 644 136
ADD,1,2 644 135
XY,2,8 644 134
ADD,2,2 644 133
XY,3,8 644 132
ADD,3,2 644 131
XY,4,8 644 130
ADD,4,2 644 129
XY,5,8 644 128
ADD,5,2 644 127
XY,6,8 644 126
ADD,6,2 644 125
XY,7,8 644 124
ADD,7,2 644 123
XY,8,9 579 122
XY,9,9 579 121
XY,10,9 579 120
XY,11,9 579 119
XY,12,9 579 118
XY,13,9 579 117
XY,14,9 579 116
XY,15,9 579 115
XY,8,8 585 114
ADD,8,2 585 113
XY,9,8 585 112
ADD,9,2 585 111
XY,10,8 585 110
ADD,10,2 585 109
XY,11,8 585 108
ADD,11,2 585 107
XY,12,8 585 106
ADD,12,2 585 105
XY,13,8 585 104
ADD,13,2 585 103
XY,14,8 585 102
ADD,14,2 585 101
XY,15,8 585 100
ADD,15,2 585 99
XY,16,9 564 98
XY,17,9 564 97
XY,18,9 564 96
XY,19,9 564 95
XY,20,9 564 94
XY,21,9 564 93
XY,22,9 564 92
XY,23,9 564 91
ADD,23,2 608 90
ADD,22,2 608 89
ADD,21,2 608 88
ADD,20,2 608 87
ADD,19,2 608 86
ADD,18,2 608 85
ADD,17,2 608 84
ADD,16,2 608 83
XY,16,11 614 82
ADD,16,4 614 81
XY,17,11 614 80
ADD,17,4 614 79
XY,18,11 614 78
ADD,18,4 614 77
XY,19,11 614 76
ADD,19,4 614 75
XY,20,11 614 74
ADD,20,4 614 73
XY,21,11 614 72
ADD,21,4 614 71
XY,22,11 614 70
ADD,22,4 614 69
XY,23,11 614 68
ADD,23,4 614 67
XY,8,10 548 66
XY,9,10 548 65
XY,10,10 548 64
XY,11,10 548 63
XY,12,10 548 62
XY,13,10 548 61
XY,14,10 548 60
XY,15,10 548 59
ADD,15,3 620 58
ADD,14,3 620 57
ADD,13,3 620 56
ADD,12,3 620 55
ADD,11,3 620 54
ADD,10,3 620 53
ADD,9,3 620 52
ADD,8,3 620 51
XY,16,10 569 50
XY,17,10 569 49
XY,18,10 569 48
XY,19,10 569 47
XY,20,10 569 46
XY,21,10 569 45
XY,22,10 569 44
XY,23,10 569 43
ADD,23,3 573 42
ADD,22,3 573 41
ADD,21,3 573 40
ADD,20,3 573 39
ADD,19,3 573 38
ADD,18,3 573 37
ADD,17,3 573 36
ADD,16,3 573 35
XY,0,11 515 34
XY,1,11 515 33
XY,2,11 515 32
XY,3,11 515 31
XY,4,11 515 30
XY,5,11 515 29
XY,6,11 515 28
XY,7,11 515 27
ADD,7,4 650 26
ADD,6,4 650 25
ADD,5,4 650 24
ADD,4,4 650 23
ADD,3,4 650 22
ADD,2,4 650 21
ADD,1,4 650 20
ADD,0,4 650 19
XY,8,11 553 18
XY,9,11 553 17
XY,10,11 553 16
XY,11,11 553 15
XY,12,11 553 14
XY,13,11 553 13
XY,14,11 553 12
XY,15,11 553 11
ADD,15,4 591 10
ADD,14,4 591 9
ADD,13,4 591 8
ADD,12,4 591 7
ADD,11,4 591 6
ADD,10,4 591 5
ADD,9,4 591 4
ADD,8,4 591 3
UPDATE,24,3 296 2
UPDATE,25,3 296 1
