264
22,0,1,_X,-1,0,0
22,0,1,_X,-1,0,0
22,0,1,_X,-1,0,0
22,0,1,_X,-1,0,0
22,0,1,_X,-1,0,0
22,0,1,_X,-1,0,0
22,0,1,_X,-1,0,0
22,0,1,_X,-1,0,0
22,0,1,_X,-1,0,0
22,0,1,_X,-1,0,0
22,0,1,_X,-1,0,0
22,0,1,_X,-1,0,0
22,0,1,_X,-1,0,0
3,2,0,0,0,20,0,0
3,2,1,1,0,20,0,0
3,2,2,2,0,20,0,0
3,2,3,3,0,20,0,0
3,2,4,4,0,20,0,0
3,2,5,5,0,20,0,0
3,2,6,6,0,20,0,0
3,2,7,7,0,20,0,0
3,2,8,8,0,20,0,0
3,2,9,9,0,20,0,0
3,2,10,10,0,20,0,0
3,2,11,11,0,20,0,0
3,2,12,12,0,20,0,0
4,1,0,1,XBXBUF,-1,0,0
17,0,1,XBX,-1,0,0
7,1,0,0,20,0,0
18,0,1,XBX,-1,0,0
5,1,0,0,20,0,0
5,1,1,0,20,0,0
5,1,2,0,20,0,0
5,1,3,0,20,0,0
5,1,4,0,20,0,0
5,1,5,0,20,0,0
5,1,6,0,20,0,0
5,1,7,0,20,0,0
5,1,8,0,20,0,0
5,1,9,0,20,0,0
5,1,10,0,20,0,0
5,1,11,0,20,0,0
5,1,12,0,20,0,0
7,1,0,0,21,0,0
7,1,1,0,21,0,0
7,1,2,0,21,0,0
7,1,3,0,21,0,0
7,1,4,0,21,0,0
7,1,5,0,21,0,0
7,1,6,0,21,0,0
7,1,7,0,21,0,0
7,1,8,0,21,0,0
7,1,9,0,21,0,0
7,1,10,0,21,0,0
7,1,11,0,21,0,0
7,1,12,0,21,0,0
19,1,0,0,1,0,0
2,3,0,0,0,0,-1,0,0
2,3,0,1,0,0,-1,0,0
2,3,0,2,0,0,-1,0,0
2,3,0,3,0,0,-1,0,0
2,3,0,4,0,0,-1,0,0
2,3,0,5,0,0,-1,0,0
2,3,0,6,0,0,-1,0,0
19,1,1,0,1,0,0
2,3,1,0,0,0,-1,0,0
2,3,1,1,0,0,-1,0,0
2,3,1,2,0,0,-1,0,0
2,3,1,3,0,0,-1,0,0
2,3,1,4,0,0,-1,0,0
2,3,1,5,0,0,-1,0,0
2,3,1,6,0,0,-1,0,0
19,1,2,0,1,0,0
2,3,2,0,0,0,-1,0,0
2,3,2,1,0,0,-1,0,0
2,3,2,2,0,0,-1,0,0
2,3,2,3,0,0,-1,0,0
19,1,3,0,1,0,0
2,3,3,0,0,0,-1,0,0
2,3,3,1,0,0,-1,0,0
2,3,3,2,0,0,-1,0,0
2,3,3,3,0,0,-1,0,0
2,3,3,4,0,0,-1,0,0
2,3,3,5,0,0,-1,0,0
2,3,3,6,0,0,-1,0,0
2,3,3,7,0,0,-1,0,0
2,3,3,8,0,0,-1,0,0
2,3,3,9,0,0,-1,0,0
2,3,3,10,0,0,-1,0,0
2,3,3,11,0,0,-1,0,0
2,3,3,12,0,0,-1,0,0
19,1,4,0,1,0,0
2,3,4,0,0,0,-1,0,0
2,3,4,1,0,0,-1,0,0
2,3,4,3,0,0,-1,0,0
2,3,4,4,0,0,-1,0,0
2,3,4,5,0,0,-1,0,0
2,3,4,6,0,0,-1,0,0
2,3,4,7,0,0,-1,0,0
2,3,4,8,0,0,-1,0,0
2,3,4,9,0,0,-1,0,0
2,3,4,10,0,0,-1,0,0
2,3,4,11,0,0,-1,0,0
2,3,4,12,0,0,-1,0,0
19,1,5,0,1,0,0
2,3,5,0,0,0,-1,0,0
2,3,5,1,0,0,-1,0,0
2,3,5,3,0,0,-1,0,0
2,3,5,4,0,0,-1,0,0
2,3,5,5,0,0,-1,0,0
2,3,5,6,0,0,-1,0,0
2,3,5,7,0,0,-1,0,0
2,3,5,8,0,0,-1,0,0
2,3,5,9,0,0,-1,0,0
2,3,5,10,0,0,-1,0,0
2,3,5,11,0,0,-1,0,0
2,3,5,12,0,0,-1,0,0
19,1,6,0,1,0,0
2,3,6,0,0,0,-1,0,0
2,3,6,1,0,0,-1,0,0
2,3,6,3,0,0,-1,0,0
2,3,6,4,0,0,-1,0,0
2,3,6,5,0,0,-1,0,0
2,3,6,6,0,0,-1,0,0
2,3,6,7,0,0,-1,0,0
2,3,6,8,0,0,-1,0,0
2,3,6,9,0,0,-1,0,0
2,3,6,10,0,0,-1,0,0
2,3,6,11,0,0,-1,0,0
2,3,6,12,0,0,-1,0,0
19,1,7,0,1,0,0
2,3,7,3,0,0,-1,0,0
2,3,7,4,0,0,-1,0,0
2,3,7,5,0,0,-1,0,0
2,3,7,6,0,0,-1,0,0
2,3,7,7,0,0,-1,0,0
2,3,7,8,0,0,-1,0,0
2,3,7,9,0,0,-1,0,0
2,3,7,10,0,0,-1,0,0
2,3,7,11,0,0,-1,0,0
2,3,7,12,0,0,-1,0,0
19,1,8,0,1,0,0
2,3,8,3,0,0,-1,0,0
2,3,8,4,0,0,-1,0,0
2,3,8,5,0,0,-1,0,0
2,3,8,6,0,0,-1,0,0
2,3,8,7,0,0,-1,0,0
2,3,8,8,0,0,-1,0,0
2,3,8,9,0,0,-1,0,0
2,3,8,10,0,0,-1,0,0
2,3,8,11,0,0,-1,0,0
2,3,8,12,0,0,-1,0,0
19,1,9,0,1,0,0
2,3,9,3,0,0,-1,0,0
2,3,9,4,0,0,-1,0,0
2,3,9,5,0,0,-1,0,0
2,3,9,6,0,0,-1,0,0
2,3,9,7,0,0,-1,0,0
2,3,9,8,0,0,-1,0,0
2,3,9,9,0,0,-1,0,0
2,3,9,10,0,0,-1,0,0
2,3,9,11,0,0,-1,0,0
2,3,9,12,0,0,-1,0,0
19,1,10,0,1,0,0
2,3,10,3,0,0,-1,0,0
2,3,10,4,0,0,-1,0,0
2,3,10,5,0,0,-1,0,0
2,3,10,6,0,0,-1,0,0
2,3,10,7,0,0,-1,0,0
2,3,10,8,0,0,-1,0,0
2,3,10,9,0,0,-1,0,0
2,3,10,10,0,0,-1,0,0
2,3,10,11,0,0,-1,0,0
2,3,10,12,0,0,-1,0,0
19,1,11,0,1,0,0
2,3,11,3,0,0,-1,0,0
2,3,11,4,0,0,-1,0,0
2,3,11,5,0,0,-1,0,0
2,3,11,6,0,0,-1,0,0
2,3,11,7,0,0,-1,0,0
2,3,11,8,0,0,-1,0,0
2,3,11,9,0,0,-1,0,0
2,3,11,10,0,0,-1,0,0
2,3,11,11,0,0,-1,0,0
2,3,11,12,0,0,-1,0,0
19,1,12,0,1,0,0
2,3,12,3,0,0,-1,0,0
2,3,12,4,0,0,-1,0,0
2,3,12,5,0,0,-1,0,0
2,3,12,6,0,0,-1,0,0
2,3,12,7,0,0,-1,0,0
2,3,12,8,0,0,-1,0,0
2,3,12,9,0,0,-1,0,0
2,3,12,10,0,0,-1,0,0
2,3,12,11,0,0,-1,0,0
2,3,12,12,0,0,-1,0,0
3,2,0,0,0,21,0,0
3,2,1,1,0,21,0,0
3,2,2,2,0,21,0,0
3,2,3,3,0,21,0,0
3,2,4,4,0,21,0,0
3,2,5,5,0,21,0,0
3,2,6,6,0,21,0,0
3,2,7,7,0,21,0,0
3,2,8,8,0,21,0,0
3,2,9,9,0,21,0,0
3,2,10,10,0,21,0,0
3,2,11,11,0,21,0,0
3,2,12,12,0,21,0,0
4,1,0,1,XAXBUF,-1,0,0
16,0,1,XAX,-1,0,0
21,0,1,EIGEN,-1,0,0
5,1,0,0,21,0,0
5,1,1,0,21,0,0
5,1,2,0,21,0,0
5,1,3,0,21,0,0
5,1,4,0,21,0,0
5,1,5,0,21,0,0
5,1,6,0,21,0,0
5,1,7,0,21,0,0
5,1,8,0,21,0,0
5,1,9,0,21,0,0
5,1,10,0,21,0,0
5,1,11,0,21,0,0
5,1,12,0,21,0,0
7,1,0,0,22,0,0
7,1,1,0,22,0,0
7,1,2,0,22,0,0
7,1,3,0,22,0,0
7,1,4,0,22,0,0
7,1,5,0,22,0,0
7,1,6,0,22,0,0
7,1,7,0,22,0,0
7,1,8,0,22,0,0
7,1,9,0,22,0,0
7,1,10,0,22,0,0
7,1,11,0,22,0,0
7,1,12,0,22,0,0
5,1,0,0,22,0,0
5,1,1,0,22,0,0
5,1,2,0,22,0,0
5,1,3,0,22,0,0
5,1,4,0,22,0,0
5,1,5,0,22,0,0
5,1,6,0,22,0,0
5,1,7,0,22,0,0
5,1,8,0,22,0,0
5,1,9,0,22,0,0
5,1,10,0,22,0,0
5,1,11,0,22,0,0
5,1,12,0,22,0,0
7,1,0,0,23,0,0
7,1,1,0,23,0,0
7,1,2,0,23,0,0
7,1,3,0,23,0,0
7,1,4,0,23,0,0
7,1,5,0,23,0,0
7,1,6,0,23,0,0
7,1,7,0,23,0,0
7,1,8,0,23,0,0
7,1,9,0,23,0,0
7,1,10,0,23,0,0
7,1,11,0,23,0,0
7,1,12,0,23,0,0
