3663
22,0,1,_lambda,-1,0,0
22,0,1,_X,-1,0,0
22,0,1,_AX,-1,0,0
22,0,1,_P,-1,0,0
22,0,1,_AP,-1,0,0
22,0,1,_X,-1,0,0
22,0,1,_AX,-1,0,0
22,0,1,_P,-1,0,0
22,0,1,_AP,-1,0,0
22,0,1,_X,-1,0,0
22,0,1,_AX,-1,0,0
22,0,1,_P,-1,0,0
22,0,1,_AP,-1,0,0
22,0,1,_X,-1,0,0
22,0,1,_AX,-1,0,0
22,0,1,_P,-1,0,0
22,0,1,_AP,-1,0,0
22,0,1,_X,-1,0,0
22,0,1,_AX,-1,0,0
22,0,1,_P,-1,0,0
22,0,1,_AP,-1,0,0
22,0,1,_X,-1,0,0
22,0,1,_AX,-1,0,0
22,0,1,_P,-1,0,0
22,0,1,_AP,-1,0,0
22,0,1,_X,-1,0,0
22,0,1,_AX,-1,0,0
22,0,1,_P,-1,0,0
22,0,1,_AP,-1,0,0
22,0,1,_X,-1,0,0
22,0,1,_AX,-1,0,0
22,0,1,_P,-1,0,0
22,0,1,_AP,-1,0,0
22,0,1,_X,-1,0,0
22,0,1,_AX,-1,0,0
22,0,1,_P,-1,0,0
22,0,1,_AP,-1,0,0
22,0,1,_X,-1,0,0
22,0,1,_AX,-1,0,0
22,0,1,_P,-1,0,0
22,0,1,_AP,-1,0,0
22,0,1,_X,-1,0,0
22,0,1,_AX,-1,0,0
22,0,1,_P,-1,0,0
22,0,1,_AP,-1,0,0
22,0,1,_X,-1,0,0
22,0,1,_AX,-1,0,0
22,0,1,_P,-1,0,0
22,0,1,_AP,-1,0,0
22,0,1,_X,-1,0,0
22,0,1,_AX,-1,0,0
22,0,1,_P,-1,0,0
22,0,1,_AP,-1,0,0
22,0,1,_X,-1,0,0
22,0,1,_AX,-1,0,0
22,0,1,_P,-1,0,0
22,0,1,_AP,-1,0,0
22,0,1,_X,-1,0,0
22,0,1,_AX,-1,0,0
22,0,1,_P,-1,0,0
22,0,1,_AP,-1,0,0
22,0,1,_X,-1,0,0
22,0,1,_AX,-1,0,0
22,0,1,_P,-1,0,0
22,0,1,_AP,-1,0,0
22,0,1,_X,-1,0,0
22,0,1,_AX,-1,0,0
22,0,1,_P,-1,0,0
22,0,1,_AP,-1,0,0
22,0,1,_X,-1,0,0
22,0,1,_AX,-1,0,0
22,0,1,_P,-1,0,0
22,0,1,_AP,-1,0,0
22,0,1,_X,-1,0,0
22,0,1,_AX,-1,0,0
22,0,1,_P,-1,0,0
22,0,1,_AP,-1,0,0
22,0,1,_X,-1,0,0
22,0,1,_AX,-1,0,0
22,0,1,_P,-1,0,0
22,0,1,_AP,-1,0,0
22,0,1,_X,-1,0,0
22,0,1,_AX,-1,0,0
22,0,1,_P,-1,0,0
22,0,1,_AP,-1,0,0
22,0,1,_X,-1,0,0
22,0,1,_AX,-1,0,0
22,0,1,_P,-1,0,0
22,0,1,_AP,-1,0,0
22,0,1,_X,-1,0,0
22,0,1,_AX,-1,0,0
22,0,1,_P,-1,0,0
22,0,1,_AP,-1,0,0
22,0,1,_X,-1,0,0
22,0,1,_AX,-1,0,0
22,0,1,_P,-1,0,0
22,0,1,_AP,-1,0,0
22,0,1,_X,-1,0,0
22,0,1,_AX,-1,0,0
22,0,1,_P,-1,0,0
22,0,1,_AP,-1,0,0
22,0,1,_X,-1,0,0
22,0,1,_AX,-1,0,0
22,0,1,_P,-1,0,0
22,0,1,_AP,-1,0,0
22,0,1,_X,-1,0,0
22,0,1,_AX,-1,0,0
22,0,1,_P,-1,0,0
22,0,1,_AP,-1,0,0
22,0,1,_X,-1,0,0
22,0,1,_AX,-1,0,0
22,0,1,_P,-1,0,0
22,0,1,_AP,-1,0,0
22,0,1,_X,-1,0,0
22,0,1,_AX,-1,0,0
22,0,1,_P,-1,0,0
22,0,1,_AP,-1,0,0
22,0,1,_X,-1,0,0
22,0,1,_AX,-1,0,0
22,0,1,_P,-1,0,0
22,0,1,_AP,-1,0,0
22,0,1,_X,-1,0,0
22,0,1,_AX,-1,0,0
22,0,1,_P,-1,0,0
22,0,1,_AP,-1,0,0
22,0,1,_X,-1,0,0
22,0,1,_AX,-1,0,0
22,0,1,_P,-1,0,0
22,0,1,_AP,-1,0,0
22,0,1,_X,-1,0,0
22,0,1,_AX,-1,0,0
22,0,1,_P,-1,0,0
22,0,1,_AP,-1,0,0
22,0,1,_X,-1,0,0
22,0,1,_AX,-1,0,0
22,0,1,_P,-1,0,0
22,0,1,_AP,-1,0,0
22,0,1,_X,-1,0,0
22,0,1,_AX,-1,0,0
22,0,1,_P,-1,0,0
22,0,1,_AP,-1,0,0
22,0,1,_X,-1,0,0
22,0,1,_AX,-1,0,0
22,0,1,_P,-1,0,0
22,0,1,_AP,-1,0,0
22,0,1,_X,-1,0,0
22,0,1,_AX,-1,0,0
22,0,1,_P,-1,0,0
22,0,1,_AP,-1,0,0
22,0,1,_X,-1,0,0
22,0,1,_AX,-1,0,0
22,0,1,_P,-1,0,0
22,0,1,_AP,-1,0,0
22,0,1,_X,-1,0,0
22,0,1,_AX,-1,0,0
22,0,1,_P,-1,0,0
22,0,1,_AP,-1,0,0
22,0,1,_X,-1,0,0
22,0,1,_AX,-1,0,0
22,0,1,_P,-1,0,0
22,0,1,_AP,-1,0,0
22,0,1,_X,-1,0,0
22,0,1,_AX,-1,0,0
22,0,1,_P,-1,0,0
22,0,1,_AP,-1,0,0
22,0,1,_X,-1,0,0
22,0,1,_AX,-1,0,0
22,0,1,_P,-1,0,0
22,0,1,_AP,-1,0,0
22,0,1,_X,-1,0,0
22,0,1,_AX,-1,0,0
22,0,1,_P,-1,0,0
22,0,1,_AP,-1,0,0
22,0,1,_X,-1,0,0
22,0,1,_AX,-1,0,0
22,0,1,_P,-1,0,0
22,0,1,_AP,-1,0,0
22,0,1,_X,-1,0,0
22,0,1,_AX,-1,0,0
22,0,1,_P,-1,0,0
22,0,1,_AP,-1,0,0
22,0,1,_X,-1,0,0
22,0,1,_AX,-1,0,0
22,0,1,_P,-1,0,0
22,0,1,_AP,-1,0,0
22,0,1,_X,-1,0,0
22,0,1,_AX,-1,0,0
22,0,1,_P,-1,0,0
22,0,1,_AP,-1,0,0
22,0,1,_X,-1,0,0
22,0,1,_AX,-1,0,0
22,0,1,_P,-1,0,0
22,0,1,_AP,-1,0,0
22,0,1,_X,-1,0,0
22,0,1,_AX,-1,0,0
22,0,1,_P,-1,0,0
22,0,1,_AP,-1,0,0
22,0,1,_X,-1,0,0
22,0,1,_AX,-1,0,0
22,0,1,_P,-1,0,0
22,0,1,_AP,-1,0,0
22,0,1,_X,-1,0,0
22,0,1,_AX,-1,0,0
22,0,1,_P,-1,0,0
22,0,1,_AP,-1,0,0
5,1,0,0,1,0,0
5,1,1,0,1,0,0
5,1,2,0,1,0,0
5,1,3,0,1,0,0
5,1,4,0,1,0,0
5,1,5,0,1,0,0
5,1,6,0,1,0,0
5,1,7,0,1,0,0
5,1,8,0,1,0,0
5,1,9,0,1,0,0
5,1,10,0,1,0,0
5,1,11,0,1,0,0
5,1,12,0,1,0,0
5,1,13,0,1,0,0
5,1,14,0,1,0,0
5,1,15,0,1,0,0
5,1,16,0,1,0,0
5,1,17,0,1,0,0
5,1,18,0,1,0,0
5,1,19,0,1,0,0
5,1,20,0,1,0,0
5,1,21,0,1,0,0
5,1,22,0,1,0,0
5,1,23,0,1,0,0
5,1,24,0,1,0,0
5,1,25,0,1,0,0
5,1,26,0,1,0,0
5,1,27,0,1,0,0
5,1,28,0,1,0,0
5,1,29,0,1,0,0
5,1,30,0,1,0,0
5,1,31,0,1,0,0
5,1,32,0,1,0,0
5,1,33,0,1,0,0
5,1,34,0,1,0,0
5,1,35,0,1,0,0
5,1,36,0,1,0,0
5,1,37,0,1,0,0
5,1,38,0,1,0,0
5,1,39,0,1,0,0
5,1,40,0,1,0,0
5,1,41,0,1,0,0
5,1,42,0,1,0,0
5,1,43,0,1,0,0
5,1,44,0,1,0,0
5,1,45,0,1,0,0
5,1,46,0,1,0,0
5,1,47,0,1,0,0
5,1,48,0,1,0,0
5,1,49,0,1,0,0
5,1,50,0,1,0,0
9,1,0,0,1,0,0
9,1,1,0,1,0,0
9,1,2,0,1,0,0
9,1,3,0,1,0,0
9,1,4,0,1,0,0
9,1,5,0,1,0,0
9,1,6,0,1,0,0
9,1,7,0,1,0,0
9,1,8,0,1,0,0
9,1,9,0,1,0,0
9,1,10,0,1,0,0
9,1,11,0,1,0,0
9,1,12,0,1,0,0
9,1,13,0,1,0,0
9,1,14,0,1,0,0
9,1,15,0,1,0,0
9,1,16,0,1,0,0
9,1,17,0,1,0,0
9,1,18,0,1,0,0
9,1,19,0,1,0,0
9,1,20,0,1,0,0
9,1,21,0,1,0,0
9,1,22,0,1,0,0
9,1,23,0,1,0,0
9,1,24,0,1,0,0
9,1,25,0,1,0,0
9,1,26,0,1,0,0
9,1,27,0,1,0,0
9,1,28,0,1,0,0
9,1,29,0,1,0,0
9,1,30,0,1,0,0
9,1,31,0,1,0,0
9,1,32,0,1,0,0
9,1,33,0,1,0,0
9,1,34,0,1,0,0
9,1,35,0,1,0,0
9,1,36,0,1,0,0
9,1,37,0,1,0,0
9,1,38,0,1,0,0
9,1,39,0,1,0,0
9,1,40,0,1,0,0
9,1,41,0,1,0,0
9,1,42,0,1,0,0
9,1,43,0,1,0,0
9,1,44,0,1,0,0
9,1,45,0,1,0,0
9,1,46,0,1,0,0
9,1,47,0,1,0,0
9,1,48,0,1,0,0
9,1,49,0,1,0,0
9,1,50,0,1,0,0
1,0,1,RN,-1,0,0
10,1,0,0,-1,0,0
10,1,1,0,-1,0,0
10,1,2,0,-1,0,0
10,1,3,0,-1,0,0
10,1,4,0,-1,0,0
10,1,5,0,-1,0,0
10,1,6,0,-1,0,0
10,1,7,0,-1,0,0
10,1,8,0,-1,0,0
10,1,9,0,-1,0,0
10,1,10,0,-1,0,0
10,1,11,0,-1,0,0
10,1,12,0,-1,0,0
10,1,13,0,-1,0,0
10,1,14,0,-1,0,0
10,1,15,0,-1,0,0
10,1,16,0,-1,0,0
10,1,17,0,-1,0,0
10,1,18,0,-1,0,0
10,1,19,0,-1,0,0
10,1,20,0,-1,0,0
10,1,21,0,-1,0,0
10,1,22,0,-1,0,0
10,1,23,0,-1,0,0
10,1,24,0,-1,0,0
10,1,25,0,-1,0,0
10,1,26,0,-1,0,0
10,1,27,0,-1,0,0
10,1,28,0,-1,0,0
10,1,29,0,-1,0,0
10,1,30,0,-1,0,0
10,1,31,0,-1,0,0
10,1,32,0,-1,0,0
10,1,33,0,-1,0,0
10,1,34,0,-1,0,0
10,1,35,0,-1,0,0
10,1,36,0,-1,0,0
10,1,37,0,-1,0,0
10,1,38,0,-1,0,0
10,1,39,0,-1,0,0
10,1,40,0,-1,0,0
10,1,41,0,-1,0,0
10,1,42,0,-1,0,0
10,1,43,0,-1,0,0
10,1,44,0,-1,0,0
10,1,45,0,-1,0,0
10,1,46,0,-1,0,0
10,1,47,0,-1,0,0
10,1,48,0,-1,0,0
10,1,49,0,-1,0,0
10,1,50,0,-1,0,0
11,2,0,0,0,-1,0,0
11,2,1,1,0,-1,0,0
11,2,2,2,0,-1,0,0
11,2,3,3,0,-1,0,0
11,2,4,4,0,-1,0,0
11,2,5,5,0,-1,0,0
11,2,6,6,0,-1,0,0
11,2,7,7,0,-1,0,0
11,2,8,8,0,-1,0,0
11,2,9,9,0,-1,0,0
11,2,10,10,0,-1,0,0
11,2,11,11,0,-1,0,0
11,2,12,12,0,-1,0,0
11,2,13,13,0,-1,0,0
11,2,14,14,0,-1,0,0
11,2,15,15,0,-1,0,0
11,2,16,0,0,-1,0,0
11,2,17,1,0,-1,0,0
11,2,18,2,0,-1,0,0
11,2,19,3,0,-1,0,0
11,2,20,4,0,-1,0,0
11,2,21,5,0,-1,0,0
11,2,22,6,0,-1,0,0
11,2,23,7,0,-1,0,0
11,2,24,8,0,-1,0,0
11,2,25,9,0,-1,0,0
11,2,26,10,0,-1,0,0
11,2,27,11,0,-1,0,0
11,2,28,12,0,-1,0,0
11,2,29,13,0,-1,0,0
11,2,30,14,0,-1,0,0
11,2,31,15,0,-1,0,0
11,2,32,0,0,-1,0,0
11,2,33,1,0,-1,0,0
11,2,34,2,0,-1,0,0
11,2,35,3,0,-1,0,0
11,2,36,4,0,-1,0,0
11,2,37,5,0,-1,0,0
11,2,38,6,0,-1,0,0
11,2,39,7,0,-1,0,0
11,2,40,8,0,-1,0,0
11,2,41,9,0,-1,0,0
11,2,42,10,0,-1,0,0
11,2,43,11,0,-1,0,0
11,2,44,12,0,-1,0,0
11,2,45,13,0,-1,0,0
11,2,46,14,0,-1,0,0
11,2,47,15,0,-1,0,0
11,2,48,0,0,-1,0,0
11,2,49,1,0,-1,0,0
11,2,50,2,0,-1,0,0
12,0,1,RNBUF,-1,0,0
13,0,1,RN,-1,0,0
1,0,1,actMask,-1,0,0
20,0,1,actMask,-1,0,0
14,1,0,0,1,0,0
14,1,1,0,1,0,0
14,1,2,0,1,0,0
14,1,3,0,1,0,0
14,1,4,0,1,0,0
14,1,5,0,1,0,0
14,1,6,0,1,0,0
14,1,7,0,1,0,0
14,1,8,0,1,0,0
14,1,9,0,1,0,0
14,1,10,0,1,0,0
14,1,11,0,1,0,0
14,1,12,0,1,0,0
14,1,13,0,1,0,0
14,1,14,0,1,0,0
14,1,15,0,1,0,0
14,1,16,0,1,0,0
14,1,17,0,1,0,0
14,1,18,0,1,0,0
14,1,19,0,1,0,0
14,1,20,0,1,0,0
14,1,21,0,1,0,0
14,1,22,0,1,0,0
14,1,23,0,1,0,0
14,1,24,0,1,0,0
14,1,25,0,1,0,0
14,1,26,0,1,0,0
14,1,27,0,1,0,0
14,1,28,0,1,0,0
14,1,29,0,1,0,0
14,1,30,0,1,0,0
14,1,31,0,1,0,0
14,1,32,0,1,0,0
14,1,33,0,1,0,0
14,1,34,0,1,0,0
14,1,35,0,1,0,0
14,1,36,0,1,0,0
14,1,37,0,1,0,0
14,1,38,0,1,0,0
14,1,39,0,1,0,0
14,1,40,0,1,0,0
14,1,41,0,1,0,0
14,1,42,0,1,0,0
14,1,43,0,1,0,0
14,1,44,0,1,0,0
14,1,45,0,1,0,0
14,1,46,0,1,0,0
14,1,47,0,1,0,0
14,1,48,0,1,0,0
14,1,49,0,1,0,0
14,1,50,0,1,0,0
3,2,0,0,0,1,0,0
3,2,1,1,0,1,0,0
3,2,2,2,0,1,0,0
3,2,3,3,0,1,0,0
3,2,4,4,0,1,0,0
3,2,5,5,0,1,0,0
3,2,6,6,0,1,0,0
3,2,7,7,0,1,0,0
3,2,8,8,0,1,0,0
3,2,9,9,0,1,0,0
3,2,10,10,0,1,0,0
3,2,11,11,0,1,0,0
3,2,12,12,0,1,0,0
3,2,13,13,0,1,0,0
3,2,14,14,0,1,0,0
3,2,15,15,0,1,0,0
3,2,16,0,0,1,0,0
3,2,17,1,0,1,0,0
3,2,18,2,0,1,0,0
3,2,19,3,0,1,0,0
3,2,20,4,0,1,0,0
3,2,21,5,0,1,0,0
3,2,22,6,0,1,0,0
3,2,23,7,0,1,0,0
3,2,24,8,0,1,0,0
3,2,25,9,0,1,0,0
3,2,26,10,0,1,0,0
3,2,27,11,0,1,0,0
3,2,28,12,0,1,0,0
3,2,29,13,0,1,0,0
3,2,30,14,0,1,0,0
3,2,31,15,0,1,0,0
3,2,32,0,0,1,0,0
3,2,33,1,0,1,0,0
3,2,34,2,0,1,0,0
3,2,35,3,0,1,0,0
3,2,36,4,0,1,0,0
3,2,37,5,0,1,0,0
3,2,38,6,0,1,0,0
3,2,39,7,0,1,0,0
3,2,40,8,0,1,0,0
3,2,41,9,0,1,0,0
3,2,42,10,0,1,0,0
3,2,43,11,0,1,0,0
3,2,44,12,0,1,0,0
3,2,45,13,0,1,0,0
3,2,46,14,0,1,0,0
3,2,47,15,0,1,0,0
3,2,48,0,0,1,0,0
3,2,49,1,0,1,0,0
3,2,50,2,0,1,0,0
4,1,0,1,temp2BUF,-1,0,0
5,1,0,0,2,0,0
5,1,1,0,2,0,0
5,1,2,0,2,0,0
5,1,3,0,2,0,0
5,1,4,0,2,0,0
5,1,5,0,2,0,0
5,1,6,0,2,0,0
5,1,7,0,2,0,0
5,1,8,0,2,0,0
5,1,9,0,2,0,0
5,1,10,0,2,0,0
5,1,11,0,2,0,0
5,1,12,0,2,0,0
5,1,13,0,2,0,0
5,1,14,0,2,0,0
5,1,15,0,2,0,0
5,1,16,0,2,0,0
5,1,17,0,2,0,0
5,1,18,0,2,0,0
5,1,19,0,2,0,0
5,1,20,0,2,0,0
5,1,21,0,2,0,0
5,1,22,0,2,0,0
5,1,23,0,2,0,0
5,1,24,0,2,0,0
5,1,25,0,2,0,0
5,1,26,0,2,0,0
5,1,27,0,2,0,0
5,1,28,0,2,0,0
5,1,29,0,2,0,0
5,1,30,0,2,0,0
5,1,31,0,2,0,0
5,1,32,0,2,0,0
5,1,33,0,2,0,0
5,1,34,0,2,0,0
5,1,35,0,2,0,0
5,1,36,0,2,0,0
5,1,37,0,2,0,0
5,1,38,0,2,0,0
5,1,39,0,2,0,0
5,1,40,0,2,0,0
5,1,41,0,2,0,0
5,1,42,0,2,0,0
5,1,43,0,2,0,0
5,1,44,0,2,0,0
5,1,45,0,2,0,0
5,1,46,0,2,0,0
5,1,47,0,2,0,0
5,1,48,0,2,0,0
5,1,49,0,2,0,0
5,1,50,0,2,0,0
9,1,0,0,2,0,0
9,1,1,0,2,0,0
9,1,2,0,2,0,0
9,1,3,0,2,0,0
9,1,4,0,2,0,0
9,1,5,0,2,0,0
9,1,6,0,2,0,0
9,1,7,0,2,0,0
9,1,8,0,2,0,0
9,1,9,0,2,0,0
9,1,10,0,2,0,0
9,1,11,0,2,0,0
9,1,12,0,2,0,0
9,1,13,0,2,0,0
9,1,14,0,2,0,0
9,1,15,0,2,0,0
9,1,16,0,2,0,0
9,1,17,0,2,0,0
9,1,18,0,2,0,0
9,1,19,0,2,0,0
9,1,20,0,2,0,0
9,1,21,0,2,0,0
9,1,22,0,2,0,0
9,1,23,0,2,0,0
9,1,24,0,2,0,0
9,1,25,0,2,0,0
9,1,26,0,2,0,0
9,1,27,0,2,0,0
9,1,28,0,2,0,0
9,1,29,0,2,0,0
9,1,30,0,2,0,0
9,1,31,0,2,0,0
9,1,32,0,2,0,0
9,1,33,0,2,0,0
9,1,34,0,2,0,0
9,1,35,0,2,0,0
9,1,36,0,2,0,0
9,1,37,0,2,0,0
9,1,38,0,2,0,0
9,1,39,0,2,0,0
9,1,40,0,2,0,0
9,1,41,0,2,0,0
9,1,42,0,2,0,0
9,1,43,0,2,0,0
9,1,44,0,2,0,0
9,1,45,0,2,0,0
9,1,46,0,2,0,0
9,1,47,0,2,0,0
9,1,48,0,2,0,0
9,1,49,0,2,0,0
9,1,50,0,2,0,0
3,2,0,0,0,2,0,0
3,2,1,1,0,2,0,0
3,2,2,2,0,2,0,0
3,2,3,3,0,2,0,0
3,2,4,4,0,2,0,0
3,2,5,5,0,2,0,0
3,2,6,6,0,2,0,0
3,2,7,7,0,2,0,0
3,2,8,8,0,2,0,0
3,2,9,9,0,2,0,0
3,2,10,10,0,2,0,0
3,2,11,11,0,2,0,0
3,2,12,12,0,2,0,0
3,2,13,13,0,2,0,0
3,2,14,14,0,2,0,0
3,2,15,15,0,2,0,0
3,2,16,0,0,2,0,0
3,2,17,1,0,2,0,0
3,2,18,2,0,2,0,0
3,2,19,3,0,2,0,0
3,2,20,4,0,2,0,0
3,2,21,5,0,2,0,0
3,2,22,6,0,2,0,0
3,2,23,7,0,2,0,0
3,2,24,8,0,2,0,0
3,2,25,9,0,2,0,0
3,2,26,10,0,2,0,0
3,2,27,11,0,2,0,0
3,2,28,12,0,2,0,0
3,2,29,13,0,2,0,0
3,2,30,14,0,2,0,0
3,2,31,15,0,2,0,0
3,2,32,0,0,2,0,0
3,2,33,1,0,2,0,0
3,2,34,2,0,2,0,0
3,2,35,3,0,2,0,0
3,2,36,4,0,2,0,0
3,2,37,5,0,2,0,0
3,2,38,6,0,2,0,0
3,2,39,7,0,2,0,0
3,2,40,8,0,2,0,0
3,2,41,9,0,2,0,0
3,2,42,10,0,2,0,0
3,2,43,11,0,2,0,0
3,2,44,12,0,2,0,0
3,2,45,13,0,2,0,0
3,2,46,14,0,2,0,0
3,2,47,15,0,2,0,0
3,2,48,0,0,2,0,0
3,2,49,1,0,2,0,0
3,2,50,2,0,2,0,0
4,1,0,1,RBRBUF,-1,0,0
17,0,1,RBR,-1,0,0
18,0,1,RBR,-1,0,0
5,1,0,0,3,0,0
5,1,1,0,3,0,0
5,1,2,0,3,0,0
5,1,3,0,3,0,0
5,1,4,0,3,0,0
5,1,5,0,3,0,0
5,1,6,0,3,0,0
5,1,7,0,3,0,0
5,1,8,0,3,0,0
5,1,9,0,3,0,0
5,1,10,0,3,0,0
5,1,11,0,3,0,0
5,1,12,0,3,0,0
5,1,13,0,3,0,0
5,1,14,0,3,0,0
5,1,15,0,3,0,0
5,1,16,0,3,0,0
5,1,17,0,3,0,0
5,1,18,0,3,0,0
5,1,19,0,3,0,0
5,1,20,0,3,0,0
5,1,21,0,3,0,0
5,1,22,0,3,0,0
5,1,23,0,3,0,0
5,1,24,0,3,0,0
5,1,25,0,3,0,0
5,1,26,0,3,0,0
5,1,27,0,3,0,0
5,1,28,0,3,0,0
5,1,29,0,3,0,0
5,1,30,0,3,0,0
5,1,31,0,3,0,0
5,1,32,0,3,0,0
5,1,33,0,3,0,0
5,1,34,0,3,0,0
5,1,35,0,3,0,0
5,1,36,0,3,0,0
5,1,37,0,3,0,0
5,1,38,0,3,0,0
5,1,39,0,3,0,0
5,1,40,0,3,0,0
5,1,41,0,3,0,0
5,1,42,0,3,0,0
5,1,43,0,3,0,0
5,1,44,0,3,0,0
5,1,45,0,3,0,0
5,1,46,0,3,0,0
5,1,47,0,3,0,0
5,1,48,0,3,0,0
5,1,49,0,3,0,0
5,1,50,0,3,0,0
7,1,0,0,1,0,0
7,1,1,0,1,0,0
7,1,2,0,1,0,0
7,1,3,0,1,0,0
7,1,4,0,1,0,0
7,1,5,0,1,0,0
7,1,6,0,1,0,0
7,1,7,0,1,0,0
7,1,8,0,1,0,0
7,1,9,0,1,0,0
7,1,10,0,1,0,0
7,1,11,0,1,0,0
7,1,12,0,1,0,0
7,1,13,0,1,0,0
7,1,14,0,1,0,0
7,1,15,0,1,0,0
7,1,16,0,1,0,0
7,1,17,0,1,0,0
7,1,18,0,1,0,0
7,1,19,0,1,0,0
7,1,20,0,1,0,0
7,1,21,0,1,0,0
7,1,22,0,1,0,0
7,1,23,0,1,0,0
7,1,24,0,1,0,0
7,1,25,0,1,0,0
7,1,26,0,1,0,0
7,1,27,0,1,0,0
7,1,28,0,1,0,0
7,1,29,0,1,0,0
7,1,30,0,1,0,0
7,1,31,0,1,0,0
7,1,32,0,1,0,0
7,1,33,0,1,0,0
7,1,34,0,1,0,0
7,1,35,0,1,0,0
7,1,36,0,1,0,0
7,1,37,0,1,0,0
7,1,38,0,1,0,0
7,1,39,0,1,0,0
7,1,40,0,1,0,0
7,1,41,0,1,0,0
7,1,42,0,1,0,0
7,1,43,0,1,0,0
7,1,44,0,1,0,0
7,1,45,0,1,0,0
7,1,46,0,1,0,0
7,1,47,0,1,0,0
7,1,48,0,1,0,0
7,1,49,0,1,0,0
7,1,50,0,1,0,0
19,1,0,0,1,0,0
2,3,0,0,0,0,-1,0,0
2,3,0,1,0,0,-1,0,0
2,3,0,18,0,0,-1,0,0
2,3,0,19,0,0,-1,0,0
2,3,0,20,0,0,-1,0,0
2,3,0,24,0,0,-1,0,0
2,3,0,25,0,0,-1,0,0
2,3,0,26,0,0,-1,0,0
19,1,1,0,1,0,0
2,3,1,0,0,0,-1,0,0
2,3,1,1,0,0,-1,0,0
2,3,1,2,0,0,-1,0,0
2,3,1,11,0,0,-1,0,0
2,3,1,18,0,0,-1,0,0
2,3,1,19,0,0,-1,0,0
2,3,1,20,0,0,-1,0,0
2,3,1,21,0,0,-1,0,0
2,3,1,24,0,0,-1,0,0
2,3,1,25,0,0,-1,0,0
2,3,1,26,0,0,-1,0,0
19,1,2,0,1,0,0
2,3,2,1,0,0,-1,0,0
2,3,2,2,0,0,-1,0,0
2,3,2,3,0,0,-1,0,0
2,3,2,8,0,0,-1,0,0
2,3,2,9,0,0,-1,0,0
2,3,2,10,0,0,-1,0,0
2,3,2,11,0,0,-1,0,0
2,3,2,12,0,0,-1,0,0
2,3,2,14,0,0,-1,0,0
2,3,2,18,0,0,-1,0,0
2,3,2,19,0,0,-1,0,0
2,3,2,20,0,0,-1,0,0
2,3,2,21,0,0,-1,0,0
2,3,2,24,0,0,-1,0,0
2,3,2,25,0,0,-1,0,0
2,3,2,26,0,0,-1,0,0
19,1,3,0,1,0,0
2,3,3,2,0,0,-1,0,0
2,3,3,3,0,0,-1,0,0
2,3,3,4,0,0,-1,0,0
2,3,3,7,0,0,-1,0,0
2,3,3,8,0,0,-1,0,0
2,3,3,9,0,0,-1,0,0
2,3,3,10,0,0,-1,0,0
2,3,3,11,0,0,-1,0,0
2,3,3,12,0,0,-1,0,0
2,3,3,13,0,0,-1,0,0
2,3,3,14,0,0,-1,0,0
2,3,3,18,0,0,-1,0,0
2,3,3,19,0,0,-1,0,0
2,3,3,20,0,0,-1,0,0
2,3,3,21,0,0,-1,0,0
2,3,3,24,0,0,-1,0,0
2,3,3,25,0,0,-1,0,0
2,3,3,26,0,0,-1,0,0
19,1,4,0,1,0,0
2,3,4,3,0,0,-1,0,0
2,3,4,4,0,0,-1,0,0
2,3,4,5,0,0,-1,0,0
2,3,4,6,0,0,-1,0,0
2,3,4,7,0,0,-1,0,0
2,3,4,8,0,0,-1,0,0
2,3,4,9,0,0,-1,0,0
2,3,4,10,0,0,-1,0,0
2,3,4,11,0,0,-1,0,0
2,3,4,12,0,0,-1,0,0
2,3,4,13,0,0,-1,0,0
2,3,4,14,0,0,-1,0,0
2,3,4,18,0,0,-1,0,0
2,3,4,19,0,0,-1,0,0
2,3,4,20,0,0,-1,0,0
2,3,4,21,0,0,-1,0,0
2,3,4,24,0,0,-1,0,0
2,3,4,25,0,0,-1,0,0
2,3,4,26,0,0,-1,0,0
19,1,5,0,1,0,0
2,3,5,4,0,0,-1,0,0
2,3,5,5,0,0,-1,0,0
2,3,5,6,0,0,-1,0,0
2,3,5,7,0,0,-1,0,0
2,3,5,8,0,0,-1,0,0
2,3,5,9,0,0,-1,0,0
2,3,5,10,0,0,-1,0,0
2,3,5,11,0,0,-1,0,0
2,3,5,12,0,0,-1,0,0
2,3,5,13,0,0,-1,0,0
2,3,5,14,0,0,-1,0,0
2,3,5,18,0,0,-1,0,0
2,3,5,19,0,0,-1,0,0
2,3,5,20,0,0,-1,0,0
2,3,5,21,0,0,-1,0,0
2,3,5,24,0,0,-1,0,0
2,3,5,25,0,0,-1,0,0
2,3,5,26,0,0,-1,0,0
19,1,6,0,1,0,0
2,3,6,4,0,0,-1,0,0
2,3,6,5,0,0,-1,0,0
2,3,6,6,0,0,-1,0,0
2,3,6,7,0,0,-1,0,0
2,3,6,8,0,0,-1,0,0
2,3,6,9,0,0,-1,0,0
2,3,6,10,0,0,-1,0,0
2,3,6,11,0,0,-1,0,0
2,3,6,12,0,0,-1,0,0
2,3,6,13,0,0,-1,0,0
2,3,6,14,0,0,-1,0,0
19,1,7,0,1,0,0
2,3,7,3,0,0,-1,0,0
2,3,7,4,0,0,-1,0,0
2,3,7,5,0,0,-1,0,0
2,3,7,6,0,0,-1,0,0
2,3,7,7,0,0,-1,0,0
2,3,7,8,0,0,-1,0,0
2,3,7,9,0,0,-1,0,0
2,3,7,10,0,0,-1,0,0
2,3,7,11,0,0,-1,0,0
2,3,7,12,0,0,-1,0,0
2,3,7,13,0,0,-1,0,0
2,3,7,14,0,0,-1,0,0
19,1,8,0,1,0,0
2,3,8,2,0,0,-1,0,0
2,3,8,3,0,0,-1,0,0
2,3,8,4,0,0,-1,0,0
2,3,8,5,0,0,-1,0,0
2,3,8,6,0,0,-1,0,0
2,3,8,7,0,0,-1,0,0
2,3,8,8,0,0,-1,0,0
2,3,8,9,0,0,-1,0,0
2,3,8,10,0,0,-1,0,0
2,3,8,11,0,0,-1,0,0
2,3,8,12,0,0,-1,0,0
2,3,8,13,0,0,-1,0,0
2,3,8,14,0,0,-1,0,0
19,1,9,0,1,0,0
2,3,9,2,0,0,-1,0,0
2,3,9,3,0,0,-1,0,0
2,3,9,4,0,0,-1,0,0
2,3,9,5,0,0,-1,0,0
2,3,9,6,0,0,-1,0,0
2,3,9,7,0,0,-1,0,0
2,3,9,8,0,0,-1,0,0
2,3,9,9,0,0,-1,0,0
2,3,9,10,0,0,-1,0,0
2,3,9,11,0,0,-1,0,0
2,3,9,12,0,0,-1,0,0
2,3,9,13,0,0,-1,0,0
2,3,9,14,0,0,-1,0,0
19,1,10,0,1,0,0
2,3,10,2,0,0,-1,0,0
2,3,10,3,0,0,-1,0,0
2,3,10,4,0,0,-1,0,0
2,3,10,5,0,0,-1,0,0
2,3,10,6,0,0,-1,0,0
2,3,10,7,0,0,-1,0,0
2,3,10,8,0,0,-1,0,0
2,3,10,9,0,0,-1,0,0
2,3,10,10,0,0,-1,0,0
2,3,10,11,0,0,-1,0,0
2,3,10,12,0,0,-1,0,0
2,3,10,13,0,0,-1,0,0
2,3,10,14,0,0,-1,0,0
19,1,11,0,1,0,0
2,3,11,1,0,0,-1,0,0
2,3,11,2,0,0,-1,0,0
2,3,11,3,0,0,-1,0,0
2,3,11,4,0,0,-1,0,0
2,3,11,5,0,0,-1,0,0
2,3,11,6,0,0,-1,0,0
2,3,11,7,0,0,-1,0,0
2,3,11,8,0,0,-1,0,0
2,3,11,9,0,0,-1,0,0
2,3,11,10,0,0,-1,0,0
2,3,11,11,0,0,-1,0,0
2,3,11,12,0,0,-1,0,0
2,3,11,13,0,0,-1,0,0
2,3,11,14,0,0,-1,0,0
19,1,12,0,1,0,0
2,3,12,2,0,0,-1,0,0
2,3,12,3,0,0,-1,0,0
2,3,12,4,0,0,-1,0,0
2,3,12,5,0,0,-1,0,0
2,3,12,6,0,0,-1,0,0
2,3,12,7,0,0,-1,0,0
2,3,12,8,0,0,-1,0,0
2,3,12,9,0,0,-1,0,0
2,3,12,10,0,0,-1,0,0
2,3,12,11,0,0,-1,0,0
2,3,12,12,0,0,-1,0,0
2,3,12,13,0,0,-1,0,0
2,3,12,14,0,0,-1,0,0
19,1,13,0,1,0,0
2,3,13,3,0,0,-1,0,0
2,3,13,4,0,0,-1,0,0
2,3,13,5,0,0,-1,0,0
2,3,13,6,0,0,-1,0,0
2,3,13,7,0,0,-1,0,0
2,3,13,8,0,0,-1,0,0
2,3,13,9,0,0,-1,0,0
2,3,13,10,0,0,-1,0,0
2,3,13,11,0,0,-1,0,0
2,3,13,12,0,0,-1,0,0
2,3,13,13,0,0,-1,0,0
2,3,13,14,0,0,-1,0,0
19,1,14,0,1,0,0
2,3,14,2,0,0,-1,0,0
2,3,14,3,0,0,-1,0,0
2,3,14,4,0,0,-1,0,0
2,3,14,5,0,0,-1,0,0
2,3,14,6,0,0,-1,0,0
2,3,14,7,0,0,-1,0,0
2,3,14,8,0,0,-1,0,0
2,3,14,9,0,0,-1,0,0
2,3,14,10,0,0,-1,0,0
2,3,14,11,0,0,-1,0,0
2,3,14,12,0,0,-1,0,0
2,3,14,13,0,0,-1,0,0
2,3,14,14,0,0,-1,0,0
2,3,14,15,0,0,-1,0,0
2,3,14,18,0,0,-1,0,0
2,3,14,19,0,0,-1,0,0
2,3,14,20,0,0,-1,0,0
2,3,14,21,0,0,-1,0,0
2,3,14,23,0,0,-1,0,0
2,3,14,24,0,0,-1,0,0
2,3,14,25,0,0,-1,0,0
2,3,14,26,0,0,-1,0,0
19,1,15,0,1,0,0
2,3,15,14,0,0,-1,0,0
2,3,15,15,0,0,-1,0,0
2,3,15,16,0,0,-1,0,0
2,3,15,18,0,0,-1,0,0
2,3,15,21,0,0,-1,0,0
2,3,15,22,0,0,-1,0,0
2,3,15,23,0,0,-1,0,0
2,3,15,24,0,0,-1,0,0
2,3,15,26,0,0,-1,0,0
2,3,15,27,0,0,-1,0,0
2,3,15,28,0,0,-1,0,0
2,3,15,29,0,0,-1,0,0
2,3,15,30,0,0,-1,0,0
2,3,15,31,0,0,-1,0,0
2,3,15,32,0,0,-1,0,0
2,3,15,33,0,0,-1,0,0
2,3,15,34,0,0,-1,0,0
2,3,15,35,0,0,-1,0,0
2,3,15,36,0,0,-1,0,0
2,3,15,37,0,0,-1,0,0
2,3,15,38,0,0,-1,0,0
2,3,15,39,0,0,-1,0,0
2,3,15,40,0,0,-1,0,0
2,3,15,41,0,0,-1,0,0
2,3,15,42,0,0,-1,0,0
2,3,15,43,0,0,-1,0,0
2,3,15,44,0,0,-1,0,0
2,3,15,45,0,0,-1,0,0
2,3,15,46,0,0,-1,0,0
2,3,15,47,0,0,-1,0,0
2,3,15,48,0,0,-1,0,0
2,3,15,49,0,0,-1,0,0
2,3,15,50,0,0,-1,0,0
19,1,16,0,1,0,0
2,3,16,15,0,0,-1,0,0
2,3,16,16,0,0,-1,0,0
2,3,16,17,0,0,-1,0,0
2,3,16,18,0,0,-1,0,0
2,3,16,22,0,0,-1,0,0
2,3,16,23,0,0,-1,0,0
2,3,16,24,0,0,-1,0,0
2,3,16,26,0,0,-1,0,0
2,3,16,27,0,0,-1,0,0
2,3,16,28,0,0,-1,0,0
2,3,16,29,0,0,-1,0,0
2,3,16,30,0,0,-1,0,0
2,3,16,31,0,0,-1,0,0
2,3,16,32,0,0,-1,0,0
2,3,16,33,0,0,-1,0,0
2,3,16,34,0,0,-1,0,0
2,3,16,35,0,0,-1,0,0
2,3,16,36,0,0,-1,0,0
2,3,16,37,0,0,-1,0,0
2,3,16,38,0,0,-1,0,0
2,3,16,39,0,0,-1,0,0
2,3,16,40,0,0,-1,0,0
2,3,16,41,0,0,-1,0,0
2,3,16,42,0,0,-1,0,0
2,3,16,43,0,0,-1,0,0
2,3,16,44,0,0,-1,0,0
2,3,16,45,0,0,-1,0,0
2,3,16,46,0,0,-1,0,0
2,3,16,47,0,0,-1,0,0
2,3,16,48,0,0,-1,0,0
2,3,16,49,0,0,-1,0,0
2,3,16,50,0,0,-1,0,0
19,1,17,0,1,0,0
2,3,17,16,0,0,-1,0,0
2,3,17,17,0,0,-1,0,0
2,3,17,18,0,0,-1,0,0
2,3,17,23,0,0,-1,0,0
2,3,17,24,0,0,-1,0,0
2,3,17,26,0,0,-1,0,0
2,3,17,27,0,0,-1,0,0
2,3,17,28,0,0,-1,0,0
2,3,17,29,0,0,-1,0,0
2,3,17,30,0,0,-1,0,0
2,3,17,31,0,0,-1,0,0
2,3,17,32,0,0,-1,0,0
2,3,17,33,0,0,-1,0,0
2,3,17,34,0,0,-1,0,0
2,3,17,35,0,0,-1,0,0
2,3,17,36,0,0,-1,0,0
2,3,17,37,0,0,-1,0,0
2,3,17,38,0,0,-1,0,0
2,3,17,39,0,0,-1,0,0
2,3,17,40,0,0,-1,0,0
2,3,17,41,0,0,-1,0,0
2,3,17,42,0,0,-1,0,0
2,3,17,43,0,0,-1,0,0
2,3,17,44,0,0,-1,0,0
2,3,17,45,0,0,-1,0,0
2,3,17,46,0,0,-1,0,0
2,3,17,47,0,0,-1,0,0
2,3,17,48,0,0,-1,0,0
2,3,17,49,0,0,-1,0,0
2,3,17,50,0,0,-1,0,0
19,1,18,0,1,0,0
2,3,18,0,0,0,-1,0,0
2,3,18,1,0,0,-1,0,0
2,3,18,2,0,0,-1,0,0
2,3,18,3,0,0,-1,0,0
2,3,18,4,0,0,-1,0,0
2,3,18,5,0,0,-1,0,0
2,3,18,14,0,0,-1,0,0
2,3,18,15,0,0,-1,0,0
2,3,18,16,0,0,-1,0,0
2,3,18,17,0,0,-1,0,0
2,3,18,18,0,0,-1,0,0
2,3,18,19,0,0,-1,0,0
2,3,18,20,0,0,-1,0,0
2,3,18,21,0,0,-1,0,0
2,3,18,22,0,0,-1,0,0
2,3,18,23,0,0,-1,0,0
2,3,18,24,0,0,-1,0,0
2,3,18,25,0,0,-1,0,0
2,3,18,26,0,0,-1,0,0
2,3,18,28,0,0,-1,0,0
2,3,18,29,0,0,-1,0,0
2,3,18,30,0,0,-1,0,0
2,3,18,31,0,0,-1,0,0
2,3,18,32,0,0,-1,0,0
2,3,18,33,0,0,-1,0,0
2,3,18,34,0,0,-1,0,0
2,3,18,35,0,0,-1,0,0
2,3,18,36,0,0,-1,0,0
2,3,18,37,0,0,-1,0,0
2,3,18,38,0,0,-1,0,0
2,3,18,39,0,0,-1,0,0
2,3,18,40,0,0,-1,0,0
2,3,18,41,0,0,-1,0,0
2,3,18,42,0,0,-1,0,0
2,3,18,43,0,0,-1,0,0
2,3,18,44,0,0,-1,0,0
2,3,18,45,0,0,-1,0,0
2,3,18,46,0,0,-1,0,0
2,3,18,47,0,0,-1,0,0
2,3,18,48,0,0,-1,0,0
2,3,18,49,0,0,-1,0,0
2,3,18,50,0,0,-1,0,0
19,1,19,0,1,0,0
2,3,19,0,0,0,-1,0,0
2,3,19,1,0,0,-1,0,0
2,3,19,2,0,0,-1,0,0
2,3,19,3,0,0,-1,0,0
2,3,19,4,0,0,-1,0,0
2,3,19,5,0,0,-1,0,0
2,3,19,14,0,0,-1,0,0
2,3,19,18,0,0,-1,0,0
2,3,19,19,0,0,-1,0,0
2,3,19,20,0,0,-1,0,0
2,3,19,21,0,0,-1,0,0
2,3,19,24,0,0,-1,0,0
2,3,19,25,0,0,-1,0,0
2,3,19,26,0,0,-1,0,0
2,3,19,31,0,0,-1,0,0
2,3,19,38,0,0,-1,0,0
2,3,19,39,0,0,-1,0,0
2,3,19,41,0,0,-1,0,0
2,3,19,42,0,0,-1,0,0
2,3,19,43,0,0,-1,0,0
2,3,19,44,0,0,-1,0,0
2,3,19,45,0,0,-1,0,0
2,3,19,46,0,0,-1,0,0
2,3,19,47,0,0,-1,0,0
2,3,19,50,0,0,-1,0,0
19,1,20,0,1,0,0
2,3,20,0,0,0,-1,0,0
2,3,20,1,0,0,-1,0,0
2,3,20,2,0,0,-1,0,0
2,3,20,3,0,0,-1,0,0
2,3,20,4,0,0,-1,0,0
2,3,20,5,0,0,-1,0,0
2,3,20,14,0,0,-1,0,0
2,3,20,18,0,0,-1,0,0
2,3,20,19,0,0,-1,0,0
2,3,20,20,0,0,-1,0,0
2,3,20,21,0,0,-1,0,0
2,3,20,24,0,0,-1,0,0
2,3,20,25,0,0,-1,0,0
2,3,20,26,0,0,-1,0,0
2,3,20,31,0,0,-1,0,0
2,3,20,32,0,0,-1,0,0
2,3,20,33,0,0,-1,0,0
2,3,20,36,0,0,-1,0,0
2,3,20,40,0,0,-1,0,0
2,3,20,41,0,0,-1,0,0
2,3,20,42,0,0,-1,0,0
2,3,20,44,0,0,-1,0,0
2,3,20,45,0,0,-1,0,0
2,3,20,47,0,0,-1,0,0
2,3,20,49,0,0,-1,0,0
19,1,21,0,1,0,0
2,3,21,1,0,0,-1,0,0
2,3,21,2,0,0,-1,0,0
2,3,21,3,0,0,-1,0,0
2,3,21,4,0,0,-1,0,0
2,3,21,5,0,0,-1,0,0
2,3,21,14,0,0,-1,0,0
2,3,21,15,0,0,-1,0,0
2,3,21,18,0,0,-1,0,0
2,3,21,19,0,0,-1,0,0
2,3,21,20,0,0,-1,0,0
2,3,21,21,0,0,-1,0,0
2,3,21,22,0,0,-1,0,0
2,3,21,23,0,0,-1,0,0
2,3,21,24,0,0,-1,0,0
2,3,21,25,0,0,-1,0,0
2,3,21,26,0,0,-1,0,0
2,3,21,27,0,0,-1,0,0
2,3,21,28,0,0,-1,0,0
2,3,21,29,0,0,-1,0,0
2,3,21,30,0,0,-1,0,0
2,3,21,31,0,0,-1,0,0
2,3,21,32,0,0,-1,0,0
2,3,21,33,0,0,-1,0,0
2,3,21,34,0,0,-1,0,0
2,3,21,35,0,0,-1,0,0
2,3,21,36,0,0,-1,0,0
2,3,21,37,0,0,-1,0,0
2,3,21,38,0,0,-1,0,0
2,3,21,39,0,0,-1,0,0
2,3,21,40,0,0,-1,0,0
2,3,21,41,0,0,-1,0,0
2,3,21,42,0,0,-1,0,0
2,3,21,43,0,0,-1,0,0
2,3,21,44,0,0,-1,0,0
2,3,21,45,0,0,-1,0,0
2,3,21,46,0,0,-1,0,0
2,3,21,47,0,0,-1,0,0
2,3,21,48,0,0,-1,0,0
2,3,21,49,0,0,-1,0,0
2,3,21,50,0,0,-1,0,0
19,1,22,0,1,0,0
2,3,22,15,0,0,-1,0,0
2,3,22,16,0,0,-1,0,0
2,3,22,18,0,0,-1,0,0
2,3,22,21,0,0,-1,0,0
2,3,22,22,0,0,-1,0,0
2,3,22,23,0,0,-1,0,0
2,3,22,24,0,0,-1,0,0
2,3,22,26,0,0,-1,0,0
2,3,22,27,0,0,-1,0,0
2,3,22,28,0,0,-1,0,0
2,3,22,29,0,0,-1,0,0
2,3,22,30,0,0,-1,0,0
2,3,22,31,0,0,-1,0,0
2,3,22,32,0,0,-1,0,0
2,3,22,33,0,0,-1,0,0
2,3,22,34,0,0,-1,0,0
2,3,22,35,0,0,-1,0,0
2,3,22,36,0,0,-1,0,0
2,3,22,37,0,0,-1,0,0
2,3,22,38,0,0,-1,0,0
2,3,22,39,0,0,-1,0,0
2,3,22,40,0,0,-1,0,0
2,3,22,41,0,0,-1,0,0
2,3,22,42,0,0,-1,0,0
2,3,22,43,0,0,-1,0,0
2,3,22,44,0,0,-1,0,0
2,3,22,45,0,0,-1,0,0
2,3,22,46,0,0,-1,0,0
2,3,22,47,0,0,-1,0,0
2,3,22,48,0,0,-1,0,0
2,3,22,49,0,0,-1,0,0
2,3,22,50,0,0,-1,0,0
19,1,23,0,1,0,0
2,3,23,14,0,0,-1,0,0
2,3,23,15,0,0,-1,0,0
2,3,23,16,0,0,-1,0,0
2,3,23,17,0,0,-1,0,0
2,3,23,18,0,0,-1,0,0
2,3,23,21,0,0,-1,0,0
2,3,23,22,0,0,-1,0,0
2,3,23,23,0,0,-1,0,0
2,3,23,24,0,0,-1,0,0
2,3,23,26,0,0,-1,0,0
2,3,23,27,0,0,-1,0,0
2,3,23,28,0,0,-1,0,0
2,3,23,29,0,0,-1,0,0
2,3,23,30,0,0,-1,0,0
2,3,23,31,0,0,-1,0,0
2,3,23,32,0,0,-1,0,0
2,3,23,33,0,0,-1,0,0
2,3,23,34,0,0,-1,0,0
2,3,23,35,0,0,-1,0,0
2,3,23,36,0,0,-1,0,0
2,3,23,37,0,0,-1,0,0
2,3,23,38,0,0,-1,0,0
2,3,23,39,0,0,-1,0,0
2,3,23,40,0,0,-1,0,0
2,3,23,41,0,0,-1,0,0
2,3,23,42,0,0,-1,0,0
2,3,23,43,0,0,-1,0,0
2,3,23,44,0,0,-1,0,0
2,3,23,45,0,0,-1,0,0
2,3,23,46,0,0,-1,0,0
2,3,23,47,0,0,-1,0,0
2,3,23,48,0,0,-1,0,0
2,3,23,49,0,0,-1,0,0
2,3,23,50,0,0,-1,0,0
19,1,24,0,1,0,0
2,3,24,0,0,0,-1,0,0
2,3,24,1,0,0,-1,0,0
2,3,24,2,0,0,-1,0,0
2,3,24,3,0,0,-1,0,0
2,3,24,4,0,0,-1,0,0
2,3,24,5,0,0,-1,0,0
2,3,24,14,0,0,-1,0,0
2,3,24,15,0,0,-1,0,0
2,3,24,16,0,0,-1,0,0
2,3,24,17,0,0,-1,0,0
2,3,24,18,0,0,-1,0,0
2,3,24,19,0,0,-1,0,0
2,3,24,20,0,0,-1,0,0
2,3,24,21,0,0,-1,0,0
2,3,24,22,0,0,-1,0,0
2,3,24,23,0,0,-1,0,0
2,3,24,24,0,0,-1,0,0
2,3,24,25,0,0,-1,0,0
2,3,24,26,0,0,-1,0,0
2,3,24,28,0,0,-1,0,0
2,3,24,29,0,0,-1,0,0
2,3,24,30,0,0,-1,0,0
2,3,24,31,0,0,-1,0,0
2,3,24,32,0,0,-1,0,0
2,3,24,33,0,0,-1,0,0
2,3,24,34,0,0,-1,0,0
2,3,24,35,0,0,-1,0,0
2,3,24,36,0,0,-1,0,0
2,3,24,37,0,0,-1,0,0
2,3,24,38,0,0,-1,0,0
2,3,24,39,0,0,-1,0,0
2,3,24,40,0,0,-1,0,0
2,3,24,41,0,0,-1,0,0
2,3,24,42,0,0,-1,0,0
2,3,24,43,0,0,-1,0,0
2,3,24,44,0,0,-1,0,0
2,3,24,45,0,0,-1,0,0
2,3,24,46,0,0,-1,0,0
2,3,24,47,0,0,-1,0,0
2,3,24,48,0,0,-1,0,0
2,3,24,49,0,0,-1,0,0
2,3,24,50,0,0,-1,0,0
19,1,25,0,1,0,0
2,3,25,0,0,0,-1,0,0
2,3,25,1,0,0,-1,0,0
2,3,25,2,0,0,-1,0,0
2,3,25,3,0,0,-1,0,0
2,3,25,4,0,0,-1,0,0
2,3,25,5,0,0,-1,0,0
2,3,25,14,0,0,-1,0,0
2,3,25,18,0,0,-1,0,0
2,3,25,19,0,0,-1,0,0
2,3,25,20,0,0,-1,0,0
2,3,25,21,0,0,-1,0,0
2,3,25,24,0,0,-1,0,0
2,3,25,25,0,0,-1,0,0
2,3,25,26,0,0,-1,0,0
2,3,25,31,0,0,-1,0,0
2,3,25,32,0,0,-1,0,0
2,3,25,33,0,0,-1,0,0
2,3,25,36,0,0,-1,0,0
2,3,25,40,0,0,-1,0,0
2,3,25,41,0,0,-1,0,0
2,3,25,42,0,0,-1,0,0
2,3,25,43,0,0,-1,0,0
2,3,25,44,0,0,-1,0,0
2,3,25,45,0,0,-1,0,0
2,3,25,47,0,0,-1,0,0
2,3,25,49,0,0,-1,0,0
2,3,25,50,0,0,-1,0,0
19,1,26,0,1,0,0
2,3,26,0,0,0,-1,0,0
2,3,26,1,0,0,-1,0,0
2,3,26,2,0,0,-1,0,0
2,3,26,3,0,0,-1,0,0
2,3,26,4,0,0,-1,0,0
2,3,26,5,0,0,-1,0,0
2,3,26,14,0,0,-1,0,0
2,3,26,15,0,0,-1,0,0
2,3,26,16,0,0,-1,0,0
2,3,26,17,0,0,-1,0,0
2,3,26,18,0,0,-1,0,0
2,3,26,19,0,0,-1,0,0
2,3,26,20,0,0,-1,0,0
2,3,26,21,0,0,-1,0,0
2,3,26,22,0,0,-1,0,0
2,3,26,23,0,0,-1,0,0
2,3,26,24,0,0,-1,0,0
2,3,26,25,0,0,-1,0,0
2,3,26,26,0,0,-1,0,0
2,3,26,27,0,0,-1,0,0
2,3,26,28,0,0,-1,0,0
2,3,26,29,0,0,-1,0,0
2,3,26,30,0,0,-1,0,0
2,3,26,31,0,0,-1,0,0
2,3,26,32,0,0,-1,0,0
2,3,26,33,0,0,-1,0,0
2,3,26,34,0,0,-1,0,0
2,3,26,35,0,0,-1,0,0
2,3,26,36,0,0,-1,0,0
2,3,26,37,0,0,-1,0,0
2,3,26,38,0,0,-1,0,0
2,3,26,39,0,0,-1,0,0
2,3,26,40,0,0,-1,0,0
2,3,26,41,0,0,-1,0,0
2,3,26,42,0,0,-1,0,0
2,3,26,43,0,0,-1,0,0
2,3,26,44,0,0,-1,0,0
2,3,26,45,0,0,-1,0,0
2,3,26,46,0,0,-1,0,0
2,3,26,47,0,0,-1,0,0
2,3,26,48,0,0,-1,0,0
2,3,26,49,0,0,-1,0,0
2,3,26,50,0,0,-1,0,0
19,1,27,0,1,0,0
2,3,27,15,0,0,-1,0,0
2,3,27,16,0,0,-1,0,0
2,3,27,17,0,0,-1,0,0
2,3,27,21,0,0,-1,0,0
2,3,27,22,0,0,-1,0,0
2,3,27,23,0,0,-1,0,0
2,3,27,26,0,0,-1,0,0
2,3,27,27,0,0,-1,0,0
2,3,27,28,0,0,-1,0,0
2,3,27,29,0,0,-1,0,0
2,3,27,30,0,0,-1,0,0
2,3,27,31,0,0,-1,0,0
2,3,27,32,0,0,-1,0,0
2,3,27,33,0,0,-1,0,0
2,3,27,34,0,0,-1,0,0
2,3,27,35,0,0,-1,0,0
2,3,27,36,0,0,-1,0,0
2,3,27,37,0,0,-1,0,0
2,3,27,38,0,0,-1,0,0
2,3,27,39,0,0,-1,0,0
2,3,27,40,0,0,-1,0,0
2,3,27,41,0,0,-1,0,0
2,3,27,42,0,0,-1,0,0
2,3,27,43,0,0,-1,0,0
2,3,27,44,0,0,-1,0,0
2,3,27,45,0,0,-1,0,0
2,3,27,46,0,0,-1,0,0
2,3,27,47,0,0,-1,0,0
2,3,27,48,0,0,-1,0,0
2,3,27,49,0,0,-1,0,0
2,3,27,50,0,0,-1,0,0
19,1,28,0,1,0,0
2,3,28,15,0,0,-1,0,0
2,3,28,16,0,0,-1,0,0
2,3,28,17,0,0,-1,0,0
2,3,28,18,0,0,-1,0,0
2,3,28,21,0,0,-1,0,0
2,3,28,22,0,0,-1,0,0
2,3,28,23,0,0,-1,0,0
2,3,28,24,0,0,-1,0,0
2,3,28,26,0,0,-1,0,0
2,3,28,27,0,0,-1,0,0
2,3,28,28,0,0,-1,0,0
2,3,28,29,0,0,-1,0,0
2,3,28,30,0,0,-1,0,0
2,3,28,31,0,0,-1,0,0
2,3,28,32,0,0,-1,0,0
2,3,28,33,0,0,-1,0,0
2,3,28,34,0,0,-1,0,0
2,3,28,35,0,0,-1,0,0
2,3,28,36,0,0,-1,0,0
2,3,28,37,0,0,-1,0,0
2,3,28,38,0,0,-1,0,0
2,3,28,39,0,0,-1,0,0
2,3,28,40,0,0,-1,0,0
2,3,28,41,0,0,-1,0,0
2,3,28,42,0,0,-1,0,0
2,3,28,43,0,0,-1,0,0
2,3,28,44,0,0,-1,0,0
2,3,28,45,0,0,-1,0,0
2,3,28,46,0,0,-1,0,0
2,3,28,47,0,0,-1,0,0
2,3,28,48,0,0,-1,0,0
2,3,28,49,0,0,-1,0,0
2,3,28,50,0,0,-1,0,0
19,1,29,0,1,0,0
2,3,29,15,0,0,-1,0,0
2,3,29,16,0,0,-1,0,0
2,3,29,17,0,0,-1,0,0
2,3,29,18,0,0,-1,0,0
2,3,29,21,0,0,-1,0,0
2,3,29,22,0,0,-1,0,0
2,3,29,23,0,0,-1,0,0
2,3,29,24,0,0,-1,0,0
2,3,29,26,0,0,-1,0,0
2,3,29,27,0,0,-1,0,0
2,3,29,28,0,0,-1,0,0
2,3,29,29,0,0,-1,0,0
2,3,29,30,0,0,-1,0,0
2,3,29,31,0,0,-1,0,0
2,3,29,32,0,0,-1,0,0
2,3,29,33,0,0,-1,0,0
2,3,29,34,0,0,-1,0,0
2,3,29,35,0,0,-1,0,0
2,3,29,36,0,0,-1,0,0
2,3,29,37,0,0,-1,0,0
2,3,29,38,0,0,-1,0,0
2,3,29,39,0,0,-1,0,0
2,3,29,40,0,0,-1,0,0
2,3,29,41,0,0,-1,0,0
2,3,29,42,0,0,-1,0,0
2,3,29,43,0,0,-1,0,0
2,3,29,44,0,0,-1,0,0
2,3,29,45,0,0,-1,0,0
2,3,29,46,0,0,-1,0,0
2,3,29,47,0,0,-1,0,0
2,3,29,48,0,0,-1,0,0
2,3,29,49,0,0,-1,0,0
2,3,29,50,0,0,-1,0,0
19,1,30,0,1,0,0
2,3,30,15,0,0,-1,0,0
2,3,30,16,0,0,-1,0,0
2,3,30,17,0,0,-1,0,0
2,3,30,18,0,0,-1,0,0
2,3,30,21,0,0,-1,0,0
2,3,30,22,0,0,-1,0,0
2,3,30,23,0,0,-1,0,0
2,3,30,24,0,0,-1,0,0
2,3,30,26,0,0,-1,0,0
2,3,30,27,0,0,-1,0,0
2,3,30,28,0,0,-1,0,0
2,3,30,29,0,0,-1,0,0
2,3,30,30,0,0,-1,0,0
2,3,30,31,0,0,-1,0,0
2,3,30,32,0,0,-1,0,0
2,3,30,33,0,0,-1,0,0
2,3,30,34,0,0,-1,0,0
2,3,30,35,0,0,-1,0,0
2,3,30,36,0,0,-1,0,0
2,3,30,37,0,0,-1,0,0
2,3,30,38,0,0,-1,0,0
2,3,30,39,0,0,-1,0,0
2,3,30,40,0,0,-1,0,0
2,3,30,41,0,0,-1,0,0
2,3,30,42,0,0,-1,0,0
2,3,30,43,0,0,-1,0,0
2,3,30,44,0,0,-1,0,0
2,3,30,45,0,0,-1,0,0
2,3,30,46,0,0,-1,0,0
2,3,30,47,0,0,-1,0,0
2,3,30,48,0,0,-1,0,0
2,3,30,49,0,0,-1,0,0
2,3,30,50,0,0,-1,0,0
19,1,31,0,1,0,0
2,3,31,15,0,0,-1,0,0
2,3,31,16,0,0,-1,0,0
2,3,31,17,0,0,-1,0,0
2,3,31,18,0,0,-1,0,0
2,3,31,19,0,0,-1,0,0
2,3,31,20,0,0,-1,0,0
2,3,31,21,0,0,-1,0,0
2,3,31,22,0,0,-1,0,0
2,3,31,23,0,0,-1,0,0
2,3,31,24,0,0,-1,0,0
2,3,31,25,0,0,-1,0,0
2,3,31,26,0,0,-1,0,0
2,3,31,27,0,0,-1,0,0
2,3,31,28,0,0,-1,0,0
2,3,31,29,0,0,-1,0,0
2,3,31,30,0,0,-1,0,0
2,3,31,31,0,0,-1,0,0
2,3,31,32,0,0,-1,0,0
2,3,31,33,0,0,-1,0,0
2,3,31,34,0,0,-1,0,0
2,3,31,35,0,0,-1,0,0
2,3,31,36,0,0,-1,0,0
2,3,31,37,0,0,-1,0,0
2,3,31,38,0,0,-1,0,0
2,3,31,39,0,0,-1,0,0
2,3,31,40,0,0,-1,0,0
2,3,31,41,0,0,-1,0,0
2,3,31,42,0,0,-1,0,0
2,3,31,43,0,0,-1,0,0
2,3,31,44,0,0,-1,0,0
2,3,31,45,0,0,-1,0,0
2,3,31,46,0,0,-1,0,0
2,3,31,47,0,0,-1,0,0
2,3,31,48,0,0,-1,0,0
2,3,31,49,0,0,-1,0,0
2,3,31,50,0,0,-1,0,0
19,1,32,0,1,0,0
2,3,32,15,0,0,-1,0,0
2,3,32,16,0,0,-1,0,0
2,3,32,17,0,0,-1,0,0
2,3,32,18,0,0,-1,0,0
2,3,32,20,0,0,-1,0,0
2,3,32,21,0,0,-1,0,0
2,3,32,22,0,0,-1,0,0
2,3,32,23,0,0,-1,0,0
2,3,32,24,0,0,-1,0,0
2,3,32,25,0,0,-1,0,0
2,3,32,26,0,0,-1,0,0
2,3,32,27,0,0,-1,0,0
2,3,32,28,0,0,-1,0,0
2,3,32,29,0,0,-1,0,0
2,3,32,30,0,0,-1,0,0
2,3,32,31,0,0,-1,0,0
2,3,32,32,0,0,-1,0,0
2,3,32,33,0,0,-1,0,0
2,3,32,34,0,0,-1,0,0
2,3,32,35,0,0,-1,0,0
2,3,32,36,0,0,-1,0,0
2,3,32,37,0,0,-1,0,0
2,3,32,38,0,0,-1,0,0
2,3,32,39,0,0,-1,0,0
2,3,32,40,0,0,-1,0,0
2,3,32,41,0,0,-1,0,0
2,3,32,42,0,0,-1,0,0
2,3,32,43,0,0,-1,0,0
2,3,32,44,0,0,-1,0,0
2,3,32,45,0,0,-1,0,0
2,3,32,46,0,0,-1,0,0
2,3,32,47,0,0,-1,0,0
2,3,32,48,0,0,-1,0,0
2,3,32,49,0,0,-1,0,0
2,3,32,50,0,0,-1,0,0
19,1,33,0,1,0,0
2,3,33,15,0,0,-1,0,0
2,3,33,16,0,0,-1,0,0
2,3,33,17,0,0,-1,0,0
2,3,33,18,0,0,-1,0,0
2,3,33,20,0,0,-1,0,0
2,3,33,21,0,0,-1,0,0
2,3,33,22,0,0,-1,0,0
2,3,33,23,0,0,-1,0,0
2,3,33,24,0,0,-1,0,0
2,3,33,25,0,0,-1,0,0
2,3,33,26,0,0,-1,0,0
2,3,33,27,0,0,-1,0,0
2,3,33,28,0,0,-1,0,0
2,3,33,29,0,0,-1,0,0
2,3,33,30,0,0,-1,0,0
2,3,33,31,0,0,-1,0,0
2,3,33,32,0,0,-1,0,0
2,3,33,33,0,0,-1,0,0
2,3,33,34,0,0,-1,0,0
2,3,33,35,0,0,-1,0,0
2,3,33,36,0,0,-1,0,0
2,3,33,37,0,0,-1,0,0
2,3,33,38,0,0,-1,0,0
2,3,33,39,0,0,-1,0,0
2,3,33,40,0,0,-1,0,0
2,3,33,41,0,0,-1,0,0
2,3,33,42,0,0,-1,0,0
2,3,33,43,0,0,-1,0,0
2,3,33,44,0,0,-1,0,0
2,3,33,45,0,0,-1,0,0
2,3,33,46,0,0,-1,0,0
2,3,33,47,0,0,-1,0,0
2,3,33,48,0,0,-1,0,0
2,3,33,49,0,0,-1,0,0
2,3,33,50,0,0,-1,0,0
19,1,34,0,1,0,0
2,3,34,15,0,0,-1,0,0
2,3,34,16,0,0,-1,0,0
2,3,34,17,0,0,-1,0,0
2,3,34,18,0,0,-1,0,0
2,3,34,21,0,0,-1,0,0
2,3,34,22,0,0,-1,0,0
2,3,34,23,0,0,-1,0,0
2,3,34,24,0,0,-1,0,0
2,3,34,26,0,0,-1,0,0
2,3,34,27,0,0,-1,0,0
2,3,34,28,0,0,-1,0,0
2,3,34,29,0,0,-1,0,0
2,3,34,30,0,0,-1,0,0
2,3,34,31,0,0,-1,0,0
2,3,34,32,0,0,-1,0,0
2,3,34,33,0,0,-1,0,0
2,3,34,34,0,0,-1,0,0
2,3,34,35,0,0,-1,0,0
2,3,34,36,0,0,-1,0,0
2,3,34,37,0,0,-1,0,0
2,3,34,38,0,0,-1,0,0
2,3,34,39,0,0,-1,0,0
2,3,34,40,0,0,-1,0,0
2,3,34,41,0,0,-1,0,0
2,3,34,42,0,0,-1,0,0
2,3,34,43,0,0,-1,0,0
2,3,34,44,0,0,-1,0,0
2,3,34,45,0,0,-1,0,0
2,3,34,46,0,0,-1,0,0
2,3,34,47,0,0,-1,0,0
2,3,34,48,0,0,-1,0,0
2,3,34,49,0,0,-1,0,0
2,3,34,50,0,0,-1,0,0
19,1,35,0,1,0,0
2,3,35,15,0,0,-1,0,0
2,3,35,16,0,0,-1,0,0
2,3,35,17,0,0,-1,0,0
2,3,35,18,0,0,-1,0,0
2,3,35,21,0,0,-1,0,0
2,3,35,22,0,0,-1,0,0
2,3,35,23,0,0,-1,0,0
2,3,35,24,0,0,-1,0,0
2,3,35,26,0,0,-1,0,0
2,3,35,27,0,0,-1,0,0
2,3,35,28,0,0,-1,0,0
2,3,35,29,0,0,-1,0,0
2,3,35,30,0,0,-1,0,0
2,3,35,31,0,0,-1,0,0
2,3,35,32,0,0,-1,0,0
2,3,35,33,0,0,-1,0,0
2,3,35,34,0,0,-1,0,0
2,3,35,35,0,0,-1,0,0
2,3,35,36,0,0,-1,0,0
2,3,35,37,0,0,-1,0,0
2,3,35,38,0,0,-1,0,0
2,3,35,39,0,0,-1,0,0
2,3,35,40,0,0,-1,0,0
2,3,35,41,0,0,-1,0,0
2,3,35,42,0,0,-1,0,0
2,3,35,43,0,0,-1,0,0
2,3,35,44,0,0,-1,0,0
2,3,35,45,0,0,-1,0,0
2,3,35,46,0,0,-1,0,0
2,3,35,47,0,0,-1,0,0
2,3,35,48,0,0,-1,0,0
2,3,35,49,0,0,-1,0,0
2,3,35,50,0,0,-1,0,0
19,1,36,0,1,0,0
2,3,36,15,0,0,-1,0,0
2,3,36,16,0,0,-1,0,0
2,3,36,17,0,0,-1,0,0
2,3,36,18,0,0,-1,0,0
2,3,36,20,0,0,-1,0,0
2,3,36,21,0,0,-1,0,0
2,3,36,22,0,0,-1,0,0
2,3,36,23,0,0,-1,0,0
2,3,36,24,0,0,-1,0,0
2,3,36,25,0,0,-1,0,0
2,3,36,26,0,0,-1,0,0
2,3,36,27,0,0,-1,0,0
2,3,36,28,0,0,-1,0,0
2,3,36,29,0,0,-1,0,0
2,3,36,30,0,0,-1,0,0
2,3,36,31,0,0,-1,0,0
2,3,36,32,0,0,-1,0,0
2,3,36,33,0,0,-1,0,0
2,3,36,34,0,0,-1,0,0
2,3,36,35,0,0,-1,0,0
2,3,36,36,0,0,-1,0,0
2,3,36,37,0,0,-1,0,0
2,3,36,38,0,0,-1,0,0
2,3,36,39,0,0,-1,0,0
2,3,36,40,0,0,-1,0,0
2,3,36,41,0,0,-1,0,0
2,3,36,42,0,0,-1,0,0
2,3,36,43,0,0,-1,0,0
2,3,36,44,0,0,-1,0,0
2,3,36,45,0,0,-1,0,0
2,3,36,46,0,0,-1,0,0
2,3,36,47,0,0,-1,0,0
2,3,36,48,0,0,-1,0,0
2,3,36,49,0,0,-1,0,0
2,3,36,50,0,0,-1,0,0
19,1,37,0,1,0,0
2,3,37,15,0,0,-1,0,0
2,3,37,16,0,0,-1,0,0
2,3,37,17,0,0,-1,0,0
2,3,37,18,0,0,-1,0,0
2,3,37,21,0,0,-1,0,0
2,3,37,22,0,0,-1,0,0
2,3,37,23,0,0,-1,0,0
2,3,37,24,0,0,-1,0,0
2,3,37,26,0,0,-1,0,0
2,3,37,27,0,0,-1,0,0
2,3,37,28,0,0,-1,0,0
2,3,37,29,0,0,-1,0,0
2,3,37,30,0,0,-1,0,0
2,3,37,31,0,0,-1,0,0
2,3,37,32,0,0,-1,0,0
2,3,37,33,0,0,-1,0,0
2,3,37,34,0,0,-1,0,0
2,3,37,35,0,0,-1,0,0
2,3,37,36,0,0,-1,0,0
2,3,37,37,0,0,-1,0,0
2,3,37,38,0,0,-1,0,0
2,3,37,39,0,0,-1,0,0
2,3,37,40,0,0,-1,0,0
2,3,37,41,0,0,-1,0,0
2,3,37,42,0,0,-1,0,0
2,3,37,43,0,0,-1,0,0
2,3,37,44,0,0,-1,0,0
2,3,37,45,0,0,-1,0,0
2,3,37,46,0,0,-1,0,0
2,3,37,47,0,0,-1,0,0
2,3,37,48,0,0,-1,0,0
2,3,37,49,0,0,-1,0,0
2,3,37,50,0,0,-1,0,0
19,1,38,0,1,0,0
2,3,38,15,0,0,-1,0,0
2,3,38,16,0,0,-1,0,0
2,3,38,17,0,0,-1,0,0
2,3,38,18,0,0,-1,0,0
2,3,38,19,0,0,-1,0,0
2,3,38,21,0,0,-1,0,0
2,3,38,22,0,0,-1,0,0
2,3,38,23,0,0,-1,0,0
2,3,38,24,0,0,-1,0,0
2,3,38,26,0,0,-1,0,0
2,3,38,27,0,0,-1,0,0
2,3,38,28,0,0,-1,0,0
2,3,38,29,0,0,-1,0,0
2,3,38,30,0,0,-1,0,0
2,3,38,31,0,0,-1,0,0
2,3,38,32,0,0,-1,0,0
2,3,38,33,0,0,-1,0,0
2,3,38,34,0,0,-1,0,0
2,3,38,35,0,0,-1,0,0
2,3,38,36,0,0,-1,0,0
2,3,38,37,0,0,-1,0,0
2,3,38,38,0,0,-1,0,0
2,3,38,39,0,0,-1,0,0
2,3,38,40,0,0,-1,0,0
2,3,38,41,0,0,-1,0,0
2,3,38,42,0,0,-1,0,0
2,3,38,43,0,0,-1,0,0
2,3,38,44,0,0,-1,0,0
2,3,38,45,0,0,-1,0,0
2,3,38,46,0,0,-1,0,0
2,3,38,47,0,0,-1,0,0
2,3,38,48,0,0,-1,0,0
2,3,38,49,0,0,-1,0,0
2,3,38,50,0,0,-1,0,0
19,1,39,0,1,0,0
2,3,39,15,0,0,-1,0,0
2,3,39,16,0,0,-1,0,0
2,3,39,17,0,0,-1,0,0
2,3,39,18,0,0,-1,0,0
2,3,39,19,0,0,-1,0,0
2,3,39,21,0,0,-1,0,0
2,3,39,22,0,0,-1,0,0
2,3,39,23,0,0,-1,0,0
2,3,39,24,0,0,-1,0,0
2,3,39,26,0,0,-1,0,0
2,3,39,27,0,0,-1,0,0
2,3,39,28,0,0,-1,0,0
2,3,39,29,0,0,-1,0,0
2,3,39,30,0,0,-1,0,0
2,3,39,31,0,0,-1,0,0
2,3,39,32,0,0,-1,0,0
2,3,39,33,0,0,-1,0,0
2,3,39,34,0,0,-1,0,0
2,3,39,35,0,0,-1,0,0
2,3,39,36,0,0,-1,0,0
2,3,39,37,0,0,-1,0,0
2,3,39,38,0,0,-1,0,0
2,3,39,39,0,0,-1,0,0
2,3,39,40,0,0,-1,0,0
2,3,39,41,0,0,-1,0,0
2,3,39,42,0,0,-1,0,0
2,3,39,43,0,0,-1,0,0
2,3,39,44,0,0,-1,0,0
2,3,39,45,0,0,-1,0,0
2,3,39,46,0,0,-1,0,0
2,3,39,47,0,0,-1,0,0
2,3,39,48,0,0,-1,0,0
2,3,39,49,0,0,-1,0,0
2,3,39,50,0,0,-1,0,0
19,1,40,0,1,0,0
2,3,40,15,0,0,-1,0,0
2,3,40,16,0,0,-1,0,0
2,3,40,17,0,0,-1,0,0
2,3,40,18,0,0,-1,0,0
2,3,40,20,0,0,-1,0,0
2,3,40,21,0,0,-1,0,0
2,3,40,22,0,0,-1,0,0
2,3,40,23,0,0,-1,0,0
2,3,40,24,0,0,-1,0,0
2,3,40,25,0,0,-1,0,0
2,3,40,26,0,0,-1,0,0
2,3,40,27,0,0,-1,0,0
2,3,40,28,0,0,-1,0,0
2,3,40,29,0,0,-1,0,0
2,3,40,30,0,0,-1,0,0
2,3,40,31,0,0,-1,0,0
2,3,40,32,0,0,-1,0,0
2,3,40,33,0,0,-1,0,0
2,3,40,34,0,0,-1,0,0
2,3,40,35,0,0,-1,0,0
2,3,40,36,0,0,-1,0,0
2,3,40,37,0,0,-1,0,0
2,3,40,38,0,0,-1,0,0
2,3,40,39,0,0,-1,0,0
2,3,40,40,0,0,-1,0,0
2,3,40,41,0,0,-1,0,0
2,3,40,42,0,0,-1,0,0
2,3,40,43,0,0,-1,0,0
2,3,40,44,0,0,-1,0,0
2,3,40,45,0,0,-1,0,0
2,3,40,46,0,0,-1,0,0
2,3,40,47,0,0,-1,0,0
2,3,40,48,0,0,-1,0,0
2,3,40,49,0,0,-1,0,0
2,3,40,50,0,0,-1,0,0
19,1,41,0,1,0,0
2,3,41,15,0,0,-1,0,0
2,3,41,16,0,0,-1,0,0
2,3,41,17,0,0,-1,0,0
2,3,41,18,0,0,-1,0,0
2,3,41,19,0,0,-1,0,0
2,3,41,20,0,0,-1,0,0
2,3,41,21,0,0,-1,0,0
2,3,41,22,0,0,-1,0,0
2,3,41,23,0,0,-1,0,0
2,3,41,24,0,0,-1,0,0
2,3,41,25,0,0,-1,0,0
2,3,41,26,0,0,-1,0,0
2,3,41,27,0,0,-1,0,0
2,3,41,28,0,0,-1,0,0
2,3,41,29,0,0,-1,0,0
2,3,41,30,0,0,-1,0,0
2,3,41,31,0,0,-1,0,0
2,3,41,32,0,0,-1,0,0
2,3,41,33,0,0,-1,0,0
2,3,41,34,0,0,-1,0,0
2,3,41,35,0,0,-1,0,0
2,3,41,36,0,0,-1,0,0
2,3,41,37,0,0,-1,0,0
2,3,41,38,0,0,-1,0,0
2,3,41,39,0,0,-1,0,0
2,3,41,40,0,0,-1,0,0
2,3,41,41,0,0,-1,0,0
2,3,41,42,0,0,-1,0,0
2,3,41,43,0,0,-1,0,0
2,3,41,44,0,0,-1,0,0
2,3,41,45,0,0,-1,0,0
2,3,41,46,0,0,-1,0,0
2,3,41,47,0,0,-1,0,0
2,3,41,48,0,0,-1,0,0
2,3,41,49,0,0,-1,0,0
2,3,41,50,0,0,-1,0,0
19,1,42,0,1,0,0
2,3,42,15,0,0,-1,0,0
2,3,42,16,0,0,-1,0,0
2,3,42,17,0,0,-1,0,0
2,3,42,18,0,0,-1,0,0
2,3,42,19,0,0,-1,0,0
2,3,42,20,0,0,-1,0,0
2,3,42,21,0,0,-1,0,0
2,3,42,22,0,0,-1,0,0
2,3,42,23,0,0,-1,0,0
2,3,42,24,0,0,-1,0,0
2,3,42,25,0,0,-1,0,0
2,3,42,26,0,0,-1,0,0
2,3,42,27,0,0,-1,0,0
2,3,42,28,0,0,-1,0,0
2,3,42,29,0,0,-1,0,0
2,3,42,30,0,0,-1,0,0
2,3,42,31,0,0,-1,0,0
2,3,42,32,0,0,-1,0,0
2,3,42,33,0,0,-1,0,0
2,3,42,34,0,0,-1,0,0
2,3,42,35,0,0,-1,0,0
2,3,42,36,0,0,-1,0,0
2,3,42,37,0,0,-1,0,0
2,3,42,38,0,0,-1,0,0
2,3,42,39,0,0,-1,0,0
2,3,42,40,0,0,-1,0,0
2,3,42,41,0,0,-1,0,0
2,3,42,42,0,0,-1,0,0
2,3,42,43,0,0,-1,0,0
2,3,42,44,0,0,-1,0,0
2,3,42,45,0,0,-1,0,0
2,3,42,46,0,0,-1,0,0
2,3,42,47,0,0,-1,0,0
2,3,42,48,0,0,-1,0,0
2,3,42,49,0,0,-1,0,0
2,3,42,50,0,0,-1,0,0
19,1,43,0,1,0,0
2,3,43,15,0,0,-1,0,0
2,3,43,16,0,0,-1,0,0
2,3,43,17,0,0,-1,0,0
2,3,43,18,0,0,-1,0,0
2,3,43,19,0,0,-1,0,0
2,3,43,21,0,0,-1,0,0
2,3,43,22,0,0,-1,0,0
2,3,43,23,0,0,-1,0,0
2,3,43,24,0,0,-1,0,0
2,3,43,25,0,0,-1,0,0
2,3,43,26,0,0,-1,0,0
2,3,43,27,0,0,-1,0,0
2,3,43,28,0,0,-1,0,0
2,3,43,29,0,0,-1,0,0
2,3,43,30,0,0,-1,0,0
2,3,43,31,0,0,-1,0,0
2,3,43,32,0,0,-1,0,0
2,3,43,33,0,0,-1,0,0
2,3,43,34,0,0,-1,0,0
2,3,43,35,0,0,-1,0,0
2,3,43,36,0,0,-1,0,0
2,3,43,37,0,0,-1,0,0
2,3,43,38,0,0,-1,0,0
2,3,43,39,0,0,-1,0,0
2,3,43,40,0,0,-1,0,0
2,3,43,41,0,0,-1,0,0
2,3,43,42,0,0,-1,0,0
2,3,43,43,0,0,-1,0,0
2,3,43,44,0,0,-1,0,0
2,3,43,45,0,0,-1,0,0
2,3,43,46,0,0,-1,0,0
2,3,43,47,0,0,-1,0,0
2,3,43,48,0,0,-1,0,0
2,3,43,49,0,0,-1,0,0
2,3,43,50,0,0,-1,0,0
19,1,44,0,1,0,0
2,3,44,15,0,0,-1,0,0
2,3,44,16,0,0,-1,0,0
2,3,44,17,0,0,-1,0,0
2,3,44,18,0,0,-1,0,0
2,3,44,19,0,0,-1,0,0
2,3,44,20,0,0,-1,0,0
2,3,44,21,0,0,-1,0,0
2,3,44,22,0,0,-1,0,0
2,3,44,23,0,0,-1,0,0
2,3,44,24,0,0,-1,0,0
2,3,44,25,0,0,-1,0,0
2,3,44,26,0,0,-1,0,0
2,3,44,27,0,0,-1,0,0
2,3,44,28,0,0,-1,0,0
2,3,44,29,0,0,-1,0,0
2,3,44,30,0,0,-1,0,0
2,3,44,31,0,0,-1,0,0
2,3,44,32,0,0,-1,0,0
2,3,44,33,0,0,-1,0,0
2,3,44,34,0,0,-1,0,0
2,3,44,35,0,0,-1,0,0
2,3,44,36,0,0,-1,0,0
2,3,44,37,0,0,-1,0,0
2,3,44,38,0,0,-1,0,0
2,3,44,39,0,0,-1,0,0
2,3,44,40,0,0,-1,0,0
2,3,44,41,0,0,-1,0,0
2,3,44,42,0,0,-1,0,0
2,3,44,43,0,0,-1,0,0
2,3,44,44,0,0,-1,0,0
2,3,44,45,0,0,-1,0,0
2,3,44,46,0,0,-1,0,0
2,3,44,47,0,0,-1,0,0
2,3,44,48,0,0,-1,0,0
2,3,44,49,0,0,-1,0,0
2,3,44,50,0,0,-1,0,0
19,1,45,0,1,0,0
2,3,45,15,0,0,-1,0,0
2,3,45,16,0,0,-1,0,0
2,3,45,17,0,0,-1,0,0
2,3,45,18,0,0,-1,0,0
2,3,45,19,0,0,-1,0,0
2,3,45,20,0,0,-1,0,0
2,3,45,21,0,0,-1,0,0
2,3,45,22,0,0,-1,0,0
2,3,45,23,0,0,-1,0,0
2,3,45,24,0,0,-1,0,0
2,3,45,25,0,0,-1,0,0
2,3,45,26,0,0,-1,0,0
2,3,45,27,0,0,-1,0,0
2,3,45,28,0,0,-1,0,0
2,3,45,29,0,0,-1,0,0
2,3,45,30,0,0,-1,0,0
2,3,45,31,0,0,-1,0,0
2,3,45,32,0,0,-1,0,0
2,3,45,33,0,0,-1,0,0
2,3,45,34,0,0,-1,0,0
2,3,45,35,0,0,-1,0,0
2,3,45,36,0,0,-1,0,0
2,3,45,37,0,0,-1,0,0
2,3,45,38,0,0,-1,0,0
2,3,45,39,0,0,-1,0,0
2,3,45,40,0,0,-1,0,0
2,3,45,41,0,0,-1,0,0
2,3,45,42,0,0,-1,0,0
2,3,45,43,0,0,-1,0,0
2,3,45,44,0,0,-1,0,0
2,3,45,45,0,0,-1,0,0
2,3,45,46,0,0,-1,0,0
2,3,45,47,0,0,-1,0,0
2,3,45,48,0,0,-1,0,0
2,3,45,49,0,0,-1,0,0
2,3,45,50,0,0,-1,0,0
19,1,46,0,1,0,0
2,3,46,15,0,0,-1,0,0
2,3,46,16,0,0,-1,0,0
2,3,46,17,0,0,-1,0,0
2,3,46,18,0,0,-1,0,0
2,3,46,19,0,0,-1,0,0
2,3,46,21,0,0,-1,0,0
2,3,46,22,0,0,-1,0,0
2,3,46,23,0,0,-1,0,0
2,3,46,24,0,0,-1,0,0
2,3,46,26,0,0,-1,0,0
2,3,46,27,0,0,-1,0,0
2,3,46,28,0,0,-1,0,0
2,3,46,29,0,0,-1,0,0
2,3,46,30,0,0,-1,0,0
2,3,46,31,0,0,-1,0,0
2,3,46,32,0,0,-1,0,0
2,3,46,33,0,0,-1,0,0
2,3,46,34,0,0,-1,0,0
2,3,46,35,0,0,-1,0,0
2,3,46,36,0,0,-1,0,0
2,3,46,37,0,0,-1,0,0
2,3,46,38,0,0,-1,0,0
2,3,46,39,0,0,-1,0,0
2,3,46,40,0,0,-1,0,0
2,3,46,41,0,0,-1,0,0
2,3,46,42,0,0,-1,0,0
2,3,46,43,0,0,-1,0,0
2,3,46,44,0,0,-1,0,0
2,3,46,45,0,0,-1,0,0
2,3,46,46,0,0,-1,0,0
2,3,46,47,0,0,-1,0,0
2,3,46,48,0,0,-1,0,0
2,3,46,49,0,0,-1,0,0
2,3,46,50,0,0,-1,0,0
19,1,47,0,1,0,0
2,3,47,15,0,0,-1,0,0
2,3,47,16,0,0,-1,0,0
2,3,47,17,0,0,-1,0,0
2,3,47,18,0,0,-1,0,0
2,3,47,19,0,0,-1,0,0
2,3,47,20,0,0,-1,0,0
2,3,47,21,0,0,-1,0,0
2,3,47,22,0,0,-1,0,0
2,3,47,23,0,0,-1,0,0
2,3,47,24,0,0,-1,0,0
2,3,47,25,0,0,-1,0,0
2,3,47,26,0,0,-1,0,0
2,3,47,27,0,0,-1,0,0
2,3,47,28,0,0,-1,0,0
2,3,47,29,0,0,-1,0,0
2,3,47,30,0,0,-1,0,0
2,3,47,31,0,0,-1,0,0
2,3,47,32,0,0,-1,0,0
2,3,47,33,0,0,-1,0,0
2,3,47,34,0,0,-1,0,0
2,3,47,35,0,0,-1,0,0
2,3,47,36,0,0,-1,0,0
2,3,47,37,0,0,-1,0,0
2,3,47,38,0,0,-1,0,0
2,3,47,39,0,0,-1,0,0
2,3,47,40,0,0,-1,0,0
2,3,47,41,0,0,-1,0,0
2,3,47,42,0,0,-1,0,0
2,3,47,43,0,0,-1,0,0
2,3,47,44,0,0,-1,0,0
2,3,47,45,0,0,-1,0,0
2,3,47,46,0,0,-1,0,0
2,3,47,47,0,0,-1,0,0
2,3,47,48,0,0,-1,0,0
2,3,47,49,0,0,-1,0,0
2,3,47,50,0,0,-1,0,0
19,1,48,0,1,0,0
2,3,48,15,0,0,-1,0,0
2,3,48,16,0,0,-1,0,0
2,3,48,17,0,0,-1,0,0
2,3,48,18,0,0,-1,0,0
2,3,48,21,0,0,-1,0,0
2,3,48,22,0,0,-1,0,0
2,3,48,23,0,0,-1,0,0
2,3,48,24,0,0,-1,0,0
2,3,48,26,0,0,-1,0,0
2,3,48,27,0,0,-1,0,0
2,3,48,28,0,0,-1,0,0
2,3,48,29,0,0,-1,0,0
2,3,48,30,0,0,-1,0,0
2,3,48,31,0,0,-1,0,0
2,3,48,32,0,0,-1,0,0
2,3,48,33,0,0,-1,0,0
2,3,48,34,0,0,-1,0,0
2,3,48,35,0,0,-1,0,0
2,3,48,36,0,0,-1,0,0
2,3,48,37,0,0,-1,0,0
2,3,48,38,0,0,-1,0,0
2,3,48,39,0,0,-1,0,0
2,3,48,40,0,0,-1,0,0
2,3,48,41,0,0,-1,0,0
2,3,48,42,0,0,-1,0,0
2,3,48,43,0,0,-1,0,0
2,3,48,44,0,0,-1,0,0
2,3,48,45,0,0,-1,0,0
2,3,48,46,0,0,-1,0,0
2,3,48,47,0,0,-1,0,0
2,3,48,48,0,0,-1,0,0
2,3,48,49,0,0,-1,0,0
2,3,48,50,0,0,-1,0,0
19,1,49,0,1,0,0
2,3,49,15,0,0,-1,0,0
2,3,49,16,0,0,-1,0,0
2,3,49,17,0,0,-1,0,0
2,3,49,18,0,0,-1,0,0
2,3,49,20,0,0,-1,0,0
2,3,49,21,0,0,-1,0,0
2,3,49,22,0,0,-1,0,0
2,3,49,23,0,0,-1,0,0
2,3,49,24,0,0,-1,0,0
2,3,49,25,0,0,-1,0,0
2,3,49,26,0,0,-1,0,0
2,3,49,27,0,0,-1,0,0
2,3,49,28,0,0,-1,0,0
2,3,49,29,0,0,-1,0,0
2,3,49,30,0,0,-1,0,0
2,3,49,31,0,0,-1,0,0
2,3,49,32,0,0,-1,0,0
2,3,49,33,0,0,-1,0,0
2,3,49,34,0,0,-1,0,0
2,3,49,35,0,0,-1,0,0
2,3,49,36,0,0,-1,0,0
2,3,49,37,0,0,-1,0,0
2,3,49,38,0,0,-1,0,0
2,3,49,39,0,0,-1,0,0
2,3,49,40,0,0,-1,0,0
2,3,49,41,0,0,-1,0,0
2,3,49,42,0,0,-1,0,0
2,3,49,43,0,0,-1,0,0
2,3,49,44,0,0,-1,0,0
2,3,49,45,0,0,-1,0,0
2,3,49,46,0,0,-1,0,0
2,3,49,47,0,0,-1,0,0
2,3,49,48,0,0,-1,0,0
2,3,49,49,0,0,-1,0,0
2,3,49,50,0,0,-1,0,0
19,1,50,0,1,0,0
2,3,50,15,0,0,-1,0,0
2,3,50,16,0,0,-1,0,0
2,3,50,17,0,0,-1,0,0
2,3,50,18,0,0,-1,0,0
2,3,50,19,0,0,-1,0,0
2,3,50,21,0,0,-1,0,0
2,3,50,22,0,0,-1,0,0
2,3,50,23,0,0,-1,0,0
2,3,50,24,0,0,-1,0,0
2,3,50,25,0,0,-1,0,0
2,3,50,26,0,0,-1,0,0
2,3,50,27,0,0,-1,0,0
2,3,50,28,0,0,-1,0,0
2,3,50,29,0,0,-1,0,0
2,3,50,30,0,0,-1,0,0
2,3,50,31,0,0,-1,0,0
2,3,50,32,0,0,-1,0,0
2,3,50,33,0,0,-1,0,0
2,3,50,34,0,0,-1,0,0
2,3,50,35,0,0,-1,0,0
2,3,50,36,0,0,-1,0,0
2,3,50,37,0,0,-1,0,0
2,3,50,38,0,0,-1,0,0
2,3,50,39,0,0,-1,0,0
2,3,50,40,0,0,-1,0,0
2,3,50,41,0,0,-1,0,0
2,3,50,42,0,0,-1,0,0
2,3,50,43,0,0,-1,0,0
2,3,50,44,0,0,-1,0,0
2,3,50,45,0,0,-1,0,0
2,3,50,46,0,0,-1,0,0
2,3,50,47,0,0,-1,0,0
2,3,50,48,0,0,-1,0,0
2,3,50,49,0,0,-1,0,0
2,3,50,50,0,0,-1,0,0
8,1,0,0,1,0,0
8,1,1,0,1,0,0
8,1,2,0,1,0,0
8,1,3,0,1,0,0
8,1,4,0,1,0,0
8,1,5,0,1,0,0
8,1,6,0,1,0,0
8,1,7,0,1,0,0
8,1,8,0,1,0,0
8,1,9,0,1,0,0
8,1,10,0,1,0,0
8,1,11,0,1,0,0
8,1,12,0,1,0,0
8,1,13,0,1,0,0
8,1,14,0,1,0,0
8,1,15,0,1,0,0
8,1,16,0,1,0,0
8,1,17,0,1,0,0
8,1,18,0,1,0,0
8,1,19,0,1,0,0
8,1,20,0,1,0,0
8,1,21,0,1,0,0
8,1,22,0,1,0,0
8,1,23,0,1,0,0
8,1,24,0,1,0,0
8,1,25,0,1,0,0
8,1,26,0,1,0,0
8,1,27,0,1,0,0
8,1,28,0,1,0,0
8,1,29,0,1,0,0
8,1,30,0,1,0,0
8,1,31,0,1,0,0
8,1,32,0,1,0,0
8,1,33,0,1,0,0
8,1,34,0,1,0,0
8,1,35,0,1,0,0
8,1,36,0,1,0,0
8,1,37,0,1,0,0
8,1,38,0,1,0,0
8,1,39,0,1,0,0
8,1,40,0,1,0,0
8,1,41,0,1,0,0
8,1,42,0,1,0,0
8,1,43,0,1,0,0
8,1,44,0,1,0,0
8,1,45,0,1,0,0
8,1,46,0,1,0,0
8,1,47,0,1,0,0
8,1,48,0,1,0,0
8,1,49,0,1,0,0
8,1,50,0,1,0,0
14,1,0,0,2,0,0
14,1,1,0,2,0,0
14,1,2,0,2,0,0
14,1,3,0,2,0,0
14,1,4,0,2,0,0
14,1,5,0,2,0,0
14,1,6,0,2,0,0
14,1,7,0,2,0,0
14,1,8,0,2,0,0
14,1,9,0,2,0,0
14,1,10,0,2,0,0
14,1,11,0,2,0,0
14,1,12,0,2,0,0
14,1,13,0,2,0,0
14,1,14,0,2,0,0
14,1,15,0,2,0,0
14,1,16,0,2,0,0
14,1,17,0,2,0,0
14,1,18,0,2,0,0
14,1,19,0,2,0,0
14,1,20,0,2,0,0
14,1,21,0,2,0,0
14,1,22,0,2,0,0
14,1,23,0,2,0,0
14,1,24,0,2,0,0
14,1,25,0,2,0,0
14,1,26,0,2,0,0
14,1,27,0,2,0,0
14,1,28,0,2,0,0
14,1,29,0,2,0,0
14,1,30,0,2,0,0
14,1,31,0,2,0,0
14,1,32,0,2,0,0
14,1,33,0,2,0,0
14,1,34,0,2,0,0
14,1,35,0,2,0,0
14,1,36,0,2,0,0
14,1,37,0,2,0,0
14,1,38,0,2,0,0
14,1,39,0,2,0,0
14,1,40,0,2,0,0
14,1,41,0,2,0,0
14,1,42,0,2,0,0
14,1,43,0,2,0,0
14,1,44,0,2,0,0
14,1,45,0,2,0,0
14,1,46,0,2,0,0
14,1,47,0,2,0,0
14,1,48,0,2,0,0
14,1,49,0,2,0,0
14,1,50,0,2,0,0
3,2,0,0,0,3,0,0
3,2,1,1,0,3,0,0
3,2,2,2,0,3,0,0
3,2,3,3,0,3,0,0
3,2,4,4,0,3,0,0
3,2,5,5,0,3,0,0
3,2,6,6,0,3,0,0
3,2,7,7,0,3,0,0
3,2,8,8,0,3,0,0
3,2,9,9,0,3,0,0
3,2,10,10,0,3,0,0
3,2,11,11,0,3,0,0
3,2,12,12,0,3,0,0
3,2,13,13,0,3,0,0
3,2,14,14,0,3,0,0
3,2,15,15,0,3,0,0
3,2,16,0,0,3,0,0
3,2,17,1,0,3,0,0
3,2,18,2,0,3,0,0
3,2,19,3,0,3,0,0
3,2,20,4,0,3,0,0
3,2,21,5,0,3,0,0
3,2,22,6,0,3,0,0
3,2,23,7,0,3,0,0
3,2,24,8,0,3,0,0
3,2,25,9,0,3,0,0
3,2,26,10,0,3,0,0
3,2,27,11,0,3,0,0
3,2,28,12,0,3,0,0
3,2,29,13,0,3,0,0
3,2,30,14,0,3,0,0
3,2,31,15,0,3,0,0
3,2,32,0,0,3,0,0
3,2,33,1,0,3,0,0
3,2,34,2,0,3,0,0
3,2,35,3,0,3,0,0
3,2,36,4,0,3,0,0
3,2,37,5,0,3,0,0
3,2,38,6,0,3,0,0
3,2,39,7,0,3,0,0
3,2,40,8,0,3,0,0
3,2,41,9,0,3,0,0
3,2,42,10,0,3,0,0
3,2,43,11,0,3,0,0
3,2,44,12,0,3,0,0
3,2,45,13,0,3,0,0
3,2,46,14,0,3,0,0
3,2,47,15,0,3,0,0
3,2,48,0,0,3,0,0
3,2,49,1,0,3,0,0
3,2,50,2,0,3,0,0
4,1,0,1,PBPBUF,-1,0,0
17,0,1,PBP,-1,0,0
18,0,1,PBP,-1,0,0
5,1,0,0,4,0,0
5,1,1,0,4,0,0
5,1,2,0,4,0,0
5,1,3,0,4,0,0
5,1,4,0,4,0,0
5,1,5,0,4,0,0
5,1,6,0,4,0,0
5,1,7,0,4,0,0
5,1,8,0,4,0,0
5,1,9,0,4,0,0
5,1,10,0,4,0,0
5,1,11,0,4,0,0
5,1,12,0,4,0,0
5,1,13,0,4,0,0
5,1,14,0,4,0,0
5,1,15,0,4,0,0
5,1,16,0,4,0,0
5,1,17,0,4,0,0
5,1,18,0,4,0,0
5,1,19,0,4,0,0
5,1,20,0,4,0,0
5,1,21,0,4,0,0
5,1,22,0,4,0,0
5,1,23,0,4,0,0
5,1,24,0,4,0,0
5,1,25,0,4,0,0
5,1,26,0,4,0,0
5,1,27,0,4,0,0
5,1,28,0,4,0,0
5,1,29,0,4,0,0
5,1,30,0,4,0,0
5,1,31,0,4,0,0
5,1,32,0,4,0,0
5,1,33,0,4,0,0
5,1,34,0,4,0,0
5,1,35,0,4,0,0
5,1,36,0,4,0,0
5,1,37,0,4,0,0
5,1,38,0,4,0,0
5,1,39,0,4,0,0
5,1,40,0,4,0,0
5,1,41,0,4,0,0
5,1,42,0,4,0,0
5,1,43,0,4,0,0
5,1,44,0,4,0,0
5,1,45,0,4,0,0
5,1,46,0,4,0,0
5,1,47,0,4,0,0
5,1,48,0,4,0,0
5,1,49,0,4,0,0
5,1,50,0,4,0,0
7,1,0,0,2,0,0
7,1,1,0,2,0,0
7,1,2,0,2,0,0
7,1,3,0,2,0,0
7,1,4,0,2,0,0
7,1,5,0,2,0,0
7,1,6,0,2,0,0
7,1,7,0,2,0,0
7,1,8,0,2,0,0
7,1,9,0,2,0,0
7,1,10,0,2,0,0
7,1,11,0,2,0,0
7,1,12,0,2,0,0
7,1,13,0,2,0,0
7,1,14,0,2,0,0
7,1,15,0,2,0,0
7,1,16,0,2,0,0
7,1,17,0,2,0,0
7,1,18,0,2,0,0
7,1,19,0,2,0,0
7,1,20,0,2,0,0
7,1,21,0,2,0,0
7,1,22,0,2,0,0
7,1,23,0,2,0,0
7,1,24,0,2,0,0
7,1,25,0,2,0,0
7,1,26,0,2,0,0
7,1,27,0,2,0,0
7,1,28,0,2,0,0
7,1,29,0,2,0,0
7,1,30,0,2,0,0
7,1,31,0,2,0,0
7,1,32,0,2,0,0
7,1,33,0,2,0,0
7,1,34,0,2,0,0
7,1,35,0,2,0,0
7,1,36,0,2,0,0
7,1,37,0,2,0,0
7,1,38,0,2,0,0
7,1,39,0,2,0,0
7,1,40,0,2,0,0
7,1,41,0,2,0,0
7,1,42,0,2,0,0
7,1,43,0,2,0,0
7,1,44,0,2,0,0
7,1,45,0,2,0,0
7,1,46,0,2,0,0
7,1,47,0,2,0,0
7,1,48,0,2,0,0
7,1,49,0,2,0,0
7,1,50,0,2,0,0
8,1,0,0,2,0,0
8,1,1,0,2,0,0
8,1,2,0,2,0,0
8,1,3,0,2,0,0
8,1,4,0,2,0,0
8,1,5,0,2,0,0
8,1,6,0,2,0,0
8,1,7,0,2,0,0
8,1,8,0,2,0,0
8,1,9,0,2,0,0
8,1,10,0,2,0,0
8,1,11,0,2,0,0
8,1,12,0,2,0,0
8,1,13,0,2,0,0
8,1,14,0,2,0,0
8,1,15,0,2,0,0
8,1,16,0,2,0,0
8,1,17,0,2,0,0
8,1,18,0,2,0,0
8,1,19,0,2,0,0
8,1,20,0,2,0,0
8,1,21,0,2,0,0
8,1,22,0,2,0,0
8,1,23,0,2,0,0
8,1,24,0,2,0,0
8,1,25,0,2,0,0
8,1,26,0,2,0,0
8,1,27,0,2,0,0
8,1,28,0,2,0,0
8,1,29,0,2,0,0
8,1,30,0,2,0,0
8,1,31,0,2,0,0
8,1,32,0,2,0,0
8,1,33,0,2,0,0
8,1,34,0,2,0,0
8,1,35,0,2,0,0
8,1,36,0,2,0,0
8,1,37,0,2,0,0
8,1,38,0,2,0,0
8,1,39,0,2,0,0
8,1,40,0,2,0,0
8,1,41,0,2,0,0
8,1,42,0,2,0,0
8,1,43,0,2,0,0
8,1,44,0,2,0,0
8,1,45,0,2,0,0
8,1,46,0,2,0,0
8,1,47,0,2,0,0
8,1,48,0,2,0,0
8,1,49,0,2,0,0
8,1,50,0,2,0,0
14,1,0,0,3,0,0
14,1,1,0,3,0,0
14,1,2,0,3,0,0
14,1,3,0,3,0,0
14,1,4,0,3,0,0
14,1,5,0,3,0,0
14,1,6,0,3,0,0
14,1,7,0,3,0,0
14,1,8,0,3,0,0
14,1,9,0,3,0,0
14,1,10,0,3,0,0
14,1,11,0,3,0,0
14,1,12,0,3,0,0
14,1,13,0,3,0,0
14,1,14,0,3,0,0
14,1,15,0,3,0,0
14,1,16,0,3,0,0
14,1,17,0,3,0,0
14,1,18,0,3,0,0
14,1,19,0,3,0,0
14,1,20,0,3,0,0
14,1,21,0,3,0,0
14,1,22,0,3,0,0
14,1,23,0,3,0,0
14,1,24,0,3,0,0
14,1,25,0,3,0,0
14,1,26,0,3,0,0
14,1,27,0,3,0,0
14,1,28,0,3,0,0
14,1,29,0,3,0,0
14,1,30,0,3,0,0
14,1,31,0,3,0,0
14,1,32,0,3,0,0
14,1,33,0,3,0,0
14,1,34,0,3,0,0
14,1,35,0,3,0,0
14,1,36,0,3,0,0
14,1,37,0,3,0,0
14,1,38,0,3,0,0
14,1,39,0,3,0,0
14,1,40,0,3,0,0
14,1,41,0,3,0,0
14,1,42,0,3,0,0
14,1,43,0,3,0,0
14,1,44,0,3,0,0
14,1,45,0,3,0,0
14,1,46,0,3,0,0
14,1,47,0,3,0,0
14,1,48,0,3,0,0
14,1,49,0,3,0,0
14,1,50,0,3,0,0
5,1,0,0,5,0,0
5,1,1,0,5,0,0
5,1,2,0,5,0,0
5,1,3,0,5,0,0
5,1,4,0,5,0,0
5,1,5,0,5,0,0
5,1,6,0,5,0,0
5,1,7,0,5,0,0
5,1,8,0,5,0,0
5,1,9,0,5,0,0
5,1,10,0,5,0,0
5,1,11,0,5,0,0
5,1,12,0,5,0,0
5,1,13,0,5,0,0
5,1,14,0,5,0,0
5,1,15,0,5,0,0
5,1,16,0,5,0,0
5,1,17,0,5,0,0
5,1,18,0,5,0,0
5,1,19,0,5,0,0
5,1,20,0,5,0,0
5,1,21,0,5,0,0
5,1,22,0,5,0,0
5,1,23,0,5,0,0
5,1,24,0,5,0,0
5,1,25,0,5,0,0
5,1,26,0,5,0,0
5,1,27,0,5,0,0
5,1,28,0,5,0,0
5,1,29,0,5,0,0
5,1,30,0,5,0,0
5,1,31,0,5,0,0
5,1,32,0,5,0,0
5,1,33,0,5,0,0
5,1,34,0,5,0,0
5,1,35,0,5,0,0
5,1,36,0,5,0,0
5,1,37,0,5,0,0
5,1,38,0,5,0,0
5,1,39,0,5,0,0
5,1,40,0,5,0,0
5,1,41,0,5,0,0
5,1,42,0,5,0,0
5,1,43,0,5,0,0
5,1,44,0,5,0,0
5,1,45,0,5,0,0
5,1,46,0,5,0,0
5,1,47,0,5,0,0
5,1,48,0,5,0,0
5,1,49,0,5,0,0
5,1,50,0,5,0,0
7,1,0,0,3,0,0
7,1,1,0,3,0,0
7,1,2,0,3,0,0
7,1,3,0,3,0,0
7,1,4,0,3,0,0
7,1,5,0,3,0,0
7,1,6,0,3,0,0
7,1,7,0,3,0,0
7,1,8,0,3,0,0
7,1,9,0,3,0,0
7,1,10,0,3,0,0
7,1,11,0,3,0,0
7,1,12,0,3,0,0
7,1,13,0,3,0,0
7,1,14,0,3,0,0
7,1,15,0,3,0,0
7,1,16,0,3,0,0
7,1,17,0,3,0,0
7,1,18,0,3,0,0
7,1,19,0,3,0,0
7,1,20,0,3,0,0
7,1,21,0,3,0,0
7,1,22,0,3,0,0
7,1,23,0,3,0,0
7,1,24,0,3,0,0
7,1,25,0,3,0,0
7,1,26,0,3,0,0
7,1,27,0,3,0,0
7,1,28,0,3,0,0
7,1,29,0,3,0,0
7,1,30,0,3,0,0
7,1,31,0,3,0,0
7,1,32,0,3,0,0
7,1,33,0,3,0,0
7,1,34,0,3,0,0
7,1,35,0,3,0,0
7,1,36,0,3,0,0
7,1,37,0,3,0,0
7,1,38,0,3,0,0
7,1,39,0,3,0,0
7,1,40,0,3,0,0
7,1,41,0,3,0,0
7,1,42,0,3,0,0
7,1,43,0,3,0,0
7,1,44,0,3,0,0
7,1,45,0,3,0,0
7,1,46,0,3,0,0
7,1,47,0,3,0,0
7,1,48,0,3,0,0
7,1,49,0,3,0,0
7,1,50,0,3,0,0
8,1,0,0,3,0,0
8,1,1,0,3,0,0
8,1,2,0,3,0,0
8,1,3,0,3,0,0
8,1,4,0,3,0,0
8,1,5,0,3,0,0
8,1,6,0,3,0,0
8,1,7,0,3,0,0
8,1,8,0,3,0,0
8,1,9,0,3,0,0
8,1,10,0,3,0,0
8,1,11,0,3,0,0
8,1,12,0,3,0,0
8,1,13,0,3,0,0
8,1,14,0,3,0,0
8,1,15,0,3,0,0
8,1,16,0,3,0,0
8,1,17,0,3,0,0
8,1,18,0,3,0,0
8,1,19,0,3,0,0
8,1,20,0,3,0,0
8,1,21,0,3,0,0
8,1,22,0,3,0,0
8,1,23,0,3,0,0
8,1,24,0,3,0,0
8,1,25,0,3,0,0
8,1,26,0,3,0,0
8,1,27,0,3,0,0
8,1,28,0,3,0,0
8,1,29,0,3,0,0
8,1,30,0,3,0,0
8,1,31,0,3,0,0
8,1,32,0,3,0,0
8,1,33,0,3,0,0
8,1,34,0,3,0,0
8,1,35,0,3,0,0
8,1,36,0,3,0,0
8,1,37,0,3,0,0
8,1,38,0,3,0,0
8,1,39,0,3,0,0
8,1,40,0,3,0,0
8,1,41,0,3,0,0
8,1,42,0,3,0,0
8,1,43,0,3,0,0
8,1,44,0,3,0,0
8,1,45,0,3,0,0
8,1,46,0,3,0,0
8,1,47,0,3,0,0
8,1,48,0,3,0,0
8,1,49,0,3,0,0
8,1,50,0,3,0,0
3,2,0,0,0,4,0,0
3,2,1,1,0,4,0,0
3,2,2,2,0,4,0,0
3,2,3,3,0,4,0,0
3,2,4,4,0,4,0,0
3,2,5,5,0,4,0,0
3,2,6,6,0,4,0,0
3,2,7,7,0,4,0,0
3,2,8,8,0,4,0,0
3,2,9,9,0,4,0,0
3,2,10,10,0,4,0,0
3,2,11,11,0,4,0,0
3,2,12,12,0,4,0,0
3,2,13,13,0,4,0,0
3,2,14,14,0,4,0,0
3,2,15,15,0,4,0,0
3,2,16,0,0,4,0,0
3,2,17,1,0,4,0,0
3,2,18,2,0,4,0,0
3,2,19,3,0,4,0,0
3,2,20,4,0,4,0,0
3,2,21,5,0,4,0,0
3,2,22,6,0,4,0,0
3,2,23,7,0,4,0,0
3,2,24,8,0,4,0,0
3,2,25,9,0,4,0,0
3,2,26,10,0,4,0,0
3,2,27,11,0,4,0,0
3,2,28,12,0,4,0,0
3,2,29,13,0,4,0,0
3,2,30,14,0,4,0,0
3,2,31,15,0,4,0,0
3,2,32,0,0,4,0,0
3,2,33,1,0,4,0,0
3,2,34,2,0,4,0,0
3,2,35,3,0,4,0,0
3,2,36,4,0,4,0,0
3,2,37,5,0,4,0,0
3,2,38,6,0,4,0,0
3,2,39,7,0,4,0,0
3,2,40,8,0,4,0,0
3,2,41,9,0,4,0,0
3,2,42,10,0,4,0,0
3,2,43,11,0,4,0,0
3,2,44,12,0,4,0,0
3,2,45,13,0,4,0,0
3,2,46,14,0,4,0,0
3,2,47,15,0,4,0,0
3,2,48,0,0,4,0,0
3,2,49,1,0,4,0,0
3,2,50,2,0,4,0,0
4,1,0,1,XARBUF,-1,0,0
3,2,0,0,0,5,0,0
3,2,1,1,0,5,0,0
3,2,2,2,0,5,0,0
3,2,3,3,0,5,0,0
3,2,4,4,0,5,0,0
3,2,5,5,0,5,0,0
3,2,6,6,0,5,0,0
3,2,7,7,0,5,0,0
3,2,8,8,0,5,0,0
3,2,9,9,0,5,0,0
3,2,10,10,0,5,0,0
3,2,11,11,0,5,0,0
3,2,12,12,0,5,0,0
3,2,13,13,0,5,0,0
3,2,14,14,0,5,0,0
3,2,15,15,0,5,0,0
3,2,16,0,0,5,0,0
3,2,17,1,0,5,0,0
3,2,18,2,0,5,0,0
3,2,19,3,0,5,0,0
3,2,20,4,0,5,0,0
3,2,21,5,0,5,0,0
3,2,22,6,0,5,0,0
3,2,23,7,0,5,0,0
3,2,24,8,0,5,0,0
3,2,25,9,0,5,0,0
3,2,26,10,0,5,0,0
3,2,27,11,0,5,0,0
3,2,28,12,0,5,0,0
3,2,29,13,0,5,0,0
3,2,30,14,0,5,0,0
3,2,31,15,0,5,0,0
3,2,32,0,0,5,0,0
3,2,33,1,0,5,0,0
3,2,34,2,0,5,0,0
3,2,35,3,0,5,0,0
3,2,36,4,0,5,0,0
3,2,37,5,0,5,0,0
3,2,38,6,0,5,0,0
3,2,39,7,0,5,0,0
3,2,40,8,0,5,0,0
3,2,41,9,0,5,0,0
3,2,42,10,0,5,0,0
3,2,43,11,0,5,0,0
3,2,44,12,0,5,0,0
3,2,45,13,0,5,0,0
3,2,46,14,0,5,0,0
3,2,47,15,0,5,0,0
3,2,48,0,0,5,0,0
3,2,49,1,0,5,0,0
3,2,50,2,0,5,0,0
4,1,0,1,RARBUF,-1,0,0
15,0,1,RAR,-1,0,0
16,0,1,RAR,-1,0,0
3,2,0,0,0,6,0,0
3,2,1,1,0,6,0,0
3,2,2,2,0,6,0,0
3,2,3,3,0,6,0,0
3,2,4,4,0,6,0,0
3,2,5,5,0,6,0,0
3,2,6,6,0,6,0,0
3,2,7,7,0,6,0,0
3,2,8,8,0,6,0,0
3,2,9,9,0,6,0,0
3,2,10,10,0,6,0,0
3,2,11,11,0,6,0,0
3,2,12,12,0,6,0,0
3,2,13,13,0,6,0,0
3,2,14,14,0,6,0,0
3,2,15,15,0,6,0,0
3,2,16,0,0,6,0,0
3,2,17,1,0,6,0,0
3,2,18,2,0,6,0,0
3,2,19,3,0,6,0,0
3,2,20,4,0,6,0,0
3,2,21,5,0,6,0,0
3,2,22,6,0,6,0,0
3,2,23,7,0,6,0,0
3,2,24,8,0,6,0,0
3,2,25,9,0,6,0,0
3,2,26,10,0,6,0,0
3,2,27,11,0,6,0,0
3,2,28,12,0,6,0,0
3,2,29,13,0,6,0,0
3,2,30,14,0,6,0,0
3,2,31,15,0,6,0,0
3,2,32,0,0,6,0,0
3,2,33,1,0,6,0,0
3,2,34,2,0,6,0,0
3,2,35,3,0,6,0,0
3,2,36,4,0,6,0,0
3,2,37,5,0,6,0,0
3,2,38,6,0,6,0,0
3,2,39,7,0,6,0,0
3,2,40,8,0,6,0,0
3,2,41,9,0,6,0,0
3,2,42,10,0,6,0,0
3,2,43,11,0,6,0,0
3,2,44,12,0,6,0,0
3,2,45,13,0,6,0,0
3,2,46,14,0,6,0,0
3,2,47,15,0,6,0,0
3,2,48,0,0,6,0,0
3,2,49,1,0,6,0,0
3,2,50,2,0,6,0,0
4,1,0,1,XAPBUF,-1,0,0
3,2,0,0,0,7,0,0
3,2,1,1,0,7,0,0
3,2,2,2,0,7,0,0
3,2,3,3,0,7,0,0
3,2,4,4,0,7,0,0
3,2,5,5,0,7,0,0
3,2,6,6,0,7,0,0
3,2,7,7,0,7,0,0
3,2,8,8,0,7,0,0
3,2,9,9,0,7,0,0
3,2,10,10,0,7,0,0
3,2,11,11,0,7,0,0
3,2,12,12,0,7,0,0
3,2,13,13,0,7,0,0
3,2,14,14,0,7,0,0
3,2,15,15,0,7,0,0
3,2,16,0,0,7,0,0
3,2,17,1,0,7,0,0
3,2,18,2,0,7,0,0
3,2,19,3,0,7,0,0
3,2,20,4,0,7,0,0
3,2,21,5,0,7,0,0
3,2,22,6,0,7,0,0
3,2,23,7,0,7,0,0
3,2,24,8,0,7,0,0
3,2,25,9,0,7,0,0
3,2,26,10,0,7,0,0
3,2,27,11,0,7,0,0
3,2,28,12,0,7,0,0
3,2,29,13,0,7,0,0
3,2,30,14,0,7,0,0
3,2,31,15,0,7,0,0
3,2,32,0,0,7,0,0
3,2,33,1,0,7,0,0
3,2,34,2,0,7,0,0
3,2,35,3,0,7,0,0
3,2,36,4,0,7,0,0
3,2,37,5,0,7,0,0
3,2,38,6,0,7,0,0
3,2,39,7,0,7,0,0
3,2,40,8,0,7,0,0
3,2,41,9,0,7,0,0
3,2,42,10,0,7,0,0
3,2,43,11,0,7,0,0
3,2,44,12,0,7,0,0
3,2,45,13,0,7,0,0
3,2,46,14,0,7,0,0
3,2,47,15,0,7,0,0
3,2,48,0,0,7,0,0
3,2,49,1,0,7,0,0
3,2,50,2,0,7,0,0
4,1,0,1,RAPBUF,-1,0,0
3,2,0,0,0,8,0,0
3,2,1,1,0,8,0,0
3,2,2,2,0,8,0,0
3,2,3,3,0,8,0,0
3,2,4,4,0,8,0,0
3,2,5,5,0,8,0,0
3,2,6,6,0,8,0,0
3,2,7,7,0,8,0,0
3,2,8,8,0,8,0,0
3,2,9,9,0,8,0,0
3,2,10,10,0,8,0,0
3,2,11,11,0,8,0,0
3,2,12,12,0,8,0,0
3,2,13,13,0,8,0,0
3,2,14,14,0,8,0,0
3,2,15,15,0,8,0,0
3,2,16,0,0,8,0,0
3,2,17,1,0,8,0,0
3,2,18,2,0,8,0,0
3,2,19,3,0,8,0,0
3,2,20,4,0,8,0,0
3,2,21,5,0,8,0,0
3,2,22,6,0,8,0,0
3,2,23,7,0,8,0,0
3,2,24,8,0,8,0,0
3,2,25,9,0,8,0,0
3,2,26,10,0,8,0,0
3,2,27,11,0,8,0,0
3,2,28,12,0,8,0,0
3,2,29,13,0,8,0,0
3,2,30,14,0,8,0,0
3,2,31,15,0,8,0,0
3,2,32,0,0,8,0,0
3,2,33,1,0,8,0,0
3,2,34,2,0,8,0,0
3,2,35,3,0,8,0,0
3,2,36,4,0,8,0,0
3,2,37,5,0,8,0,0
3,2,38,6,0,8,0,0
3,2,39,7,0,8,0,0
3,2,40,8,0,8,0,0
3,2,41,9,0,8,0,0
3,2,42,10,0,8,0,0
3,2,43,11,0,8,0,0
3,2,44,12,0,8,0,0
3,2,45,13,0,8,0,0
3,2,46,14,0,8,0,0
3,2,47,15,0,8,0,0
3,2,48,0,0,8,0,0
3,2,49,1,0,8,0,0
3,2,50,2,0,8,0,0
4,1,0,1,PAPBUF,-1,0,0
16,0,1,PAP,-1,0,0
21,0,1,CONSTRUCTGA1,-1,0,0
21,0,1,CONSTRUCTGA2,-1,0,0
3,2,0,0,0,9,0,0
3,2,1,1,0,9,0,0
3,2,2,2,0,9,0,0
3,2,3,3,0,9,0,0
3,2,4,4,0,9,0,0
3,2,5,5,0,9,0,0
3,2,6,6,0,9,0,0
3,2,7,7,0,9,0,0
3,2,8,8,0,9,0,0
3,2,9,9,0,9,0,0
3,2,10,10,0,9,0,0
3,2,11,11,0,9,0,0
3,2,12,12,0,9,0,0
3,2,13,13,0,9,0,0
3,2,14,14,0,9,0,0
3,2,15,15,0,9,0,0
3,2,16,0,0,9,0,0
3,2,17,1,0,9,0,0
3,2,18,2,0,9,0,0
3,2,19,3,0,9,0,0
3,2,20,4,0,9,0,0
3,2,21,5,0,9,0,0
3,2,22,6,0,9,0,0
3,2,23,7,0,9,0,0
3,2,24,8,0,9,0,0
3,2,25,9,0,9,0,0
3,2,26,10,0,9,0,0
3,2,27,11,0,9,0,0
3,2,28,12,0,9,0,0
3,2,29,13,0,9,0,0
3,2,30,14,0,9,0,0
3,2,31,15,0,9,0,0
3,2,32,0,0,9,0,0
3,2,33,1,0,9,0,0
3,2,34,2,0,9,0,0
3,2,35,3,0,9,0,0
3,2,36,4,0,9,0,0
3,2,37,5,0,9,0,0
3,2,38,6,0,9,0,0
3,2,39,7,0,9,0,0
3,2,40,8,0,9,0,0
3,2,41,9,0,9,0,0
3,2,42,10,0,9,0,0
3,2,43,11,0,9,0,0
3,2,44,12,0,9,0,0
3,2,45,13,0,9,0,0
3,2,46,14,0,9,0,0
3,2,47,15,0,9,0,0
3,2,48,0,0,9,0,0
3,2,49,1,0,9,0,0
3,2,50,2,0,9,0,0
4,1,0,1,XBPBUF,-1,0,0
3,2,0,0,0,10,0,0
3,2,1,1,0,10,0,0
3,2,2,2,0,10,0,0
3,2,3,3,0,10,0,0
3,2,4,4,0,10,0,0
3,2,5,5,0,10,0,0
3,2,6,6,0,10,0,0
3,2,7,7,0,10,0,0
3,2,8,8,0,10,0,0
3,2,9,9,0,10,0,0
3,2,10,10,0,10,0,0
3,2,11,11,0,10,0,0
3,2,12,12,0,10,0,0
3,2,13,13,0,10,0,0
3,2,14,14,0,10,0,0
3,2,15,15,0,10,0,0
3,2,16,0,0,10,0,0
3,2,17,1,0,10,0,0
3,2,18,2,0,10,0,0
3,2,19,3,0,10,0,0
3,2,20,4,0,10,0,0
3,2,21,5,0,10,0,0
3,2,22,6,0,10,0,0
3,2,23,7,0,10,0,0
3,2,24,8,0,10,0,0
3,2,25,9,0,10,0,0
3,2,26,10,0,10,0,0
3,2,27,11,0,10,0,0
3,2,28,12,0,10,0,0
3,2,29,13,0,10,0,0
3,2,30,14,0,10,0,0
3,2,31,15,0,10,0,0
3,2,32,0,0,10,0,0
3,2,33,1,0,10,0,0
3,2,34,2,0,10,0,0
3,2,35,3,0,10,0,0
3,2,36,4,0,10,0,0
3,2,37,5,0,10,0,0
3,2,38,6,0,10,0,0
3,2,39,7,0,10,0,0
3,2,40,8,0,10,0,0
3,2,41,9,0,10,0,0
3,2,42,10,0,10,0,0
3,2,43,11,0,10,0,0
3,2,44,12,0,10,0,0
3,2,45,13,0,10,0,0
3,2,46,14,0,10,0,0
3,2,47,15,0,10,0,0
3,2,48,0,0,10,0,0
3,2,49,1,0,10,0,0
3,2,50,2,0,10,0,0
4,1,0,1,RBPBUF,-1,0,0
21,0,1,CONSTRUCTGB,-1,0,0
21,0,1,EIGEN,-1,0,0
5,1,0,0,6,0,0
5,1,1,0,6,0,0
5,1,2,0,6,0,0
5,1,3,0,6,0,0
5,1,4,0,6,0,0
5,1,5,0,6,0,0
5,1,6,0,6,0,0
5,1,7,0,6,0,0
5,1,8,0,6,0,0
5,1,9,0,6,0,0
5,1,10,0,6,0,0
5,1,11,0,6,0,0
5,1,12,0,6,0,0
5,1,13,0,6,0,0
5,1,14,0,6,0,0
5,1,15,0,6,0,0
5,1,16,0,6,0,0
5,1,17,0,6,0,0
5,1,18,0,6,0,0
5,1,19,0,6,0,0
5,1,20,0,6,0,0
5,1,21,0,6,0,0
5,1,22,0,6,0,0
5,1,23,0,6,0,0
5,1,24,0,6,0,0
5,1,25,0,6,0,0
5,1,26,0,6,0,0
5,1,27,0,6,0,0
5,1,28,0,6,0,0
5,1,29,0,6,0,0
5,1,30,0,6,0,0
5,1,31,0,6,0,0
5,1,32,0,6,0,0
5,1,33,0,6,0,0
5,1,34,0,6,0,0
5,1,35,0,6,0,0
5,1,36,0,6,0,0
5,1,37,0,6,0,0
5,1,38,0,6,0,0
5,1,39,0,6,0,0
5,1,40,0,6,0,0
5,1,41,0,6,0,0
5,1,42,0,6,0,0
5,1,43,0,6,0,0
5,1,44,0,6,0,0
5,1,45,0,6,0,0
5,1,46,0,6,0,0
5,1,47,0,6,0,0
5,1,48,0,6,0,0
5,1,49,0,6,0,0
5,1,50,0,6,0,0
5,1,0,0,7,0,0
5,1,1,0,7,0,0
5,1,2,0,7,0,0
5,1,3,0,7,0,0
5,1,4,0,7,0,0
5,1,5,0,7,0,0
5,1,6,0,7,0,0
5,1,7,0,7,0,0
5,1,8,0,7,0,0
5,1,9,0,7,0,0
5,1,10,0,7,0,0
5,1,11,0,7,0,0
5,1,12,0,7,0,0
5,1,13,0,7,0,0
5,1,14,0,7,0,0
5,1,15,0,7,0,0
5,1,16,0,7,0,0
5,1,17,0,7,0,0
5,1,18,0,7,0,0
5,1,19,0,7,0,0
5,1,20,0,7,0,0
5,1,21,0,7,0,0
5,1,22,0,7,0,0
5,1,23,0,7,0,0
5,1,24,0,7,0,0
5,1,25,0,7,0,0
5,1,26,0,7,0,0
5,1,27,0,7,0,0
5,1,28,0,7,0,0
5,1,29,0,7,0,0
5,1,30,0,7,0,0
5,1,31,0,7,0,0
5,1,32,0,7,0,0
5,1,33,0,7,0,0
5,1,34,0,7,0,0
5,1,35,0,7,0,0
5,1,36,0,7,0,0
5,1,37,0,7,0,0
5,1,38,0,7,0,0
5,1,39,0,7,0,0
5,1,40,0,7,0,0
5,1,41,0,7,0,0
5,1,42,0,7,0,0
5,1,43,0,7,0,0
5,1,44,0,7,0,0
5,1,45,0,7,0,0
5,1,46,0,7,0,0
5,1,47,0,7,0,0
5,1,48,0,7,0,0
5,1,49,0,7,0,0
5,1,50,0,7,0,0
6,1,0,0,1,0,0
6,1,1,0,1,0,0
6,1,2,0,1,0,0
6,1,3,0,1,0,0
6,1,4,0,1,0,0
6,1,5,0,1,0,0
6,1,6,0,1,0,0
6,1,7,0,1,0,0
6,1,8,0,1,0,0
6,1,9,0,1,0,0
6,1,10,0,1,0,0
6,1,11,0,1,0,0
6,1,12,0,1,0,0
6,1,13,0,1,0,0
6,1,14,0,1,0,0
6,1,15,0,1,0,0
6,1,16,0,1,0,0
6,1,17,0,1,0,0
6,1,18,0,1,0,0
6,1,19,0,1,0,0
6,1,20,0,1,0,0
6,1,21,0,1,0,0
6,1,22,0,1,0,0
6,1,23,0,1,0,0
6,1,24,0,1,0,0
6,1,25,0,1,0,0
6,1,26,0,1,0,0
6,1,27,0,1,0,0
6,1,28,0,1,0,0
6,1,29,0,1,0,0
6,1,30,0,1,0,0
6,1,31,0,1,0,0
6,1,32,0,1,0,0
6,1,33,0,1,0,0
6,1,34,0,1,0,0
6,1,35,0,1,0,0
6,1,36,0,1,0,0
6,1,37,0,1,0,0
6,1,38,0,1,0,0
6,1,39,0,1,0,0
6,1,40,0,1,0,0
6,1,41,0,1,0,0
6,1,42,0,1,0,0
6,1,43,0,1,0,0
6,1,44,0,1,0,0
6,1,45,0,1,0,0
6,1,46,0,1,0,0
6,1,47,0,1,0,0
6,1,48,0,1,0,0
6,1,49,0,1,0,0
6,1,50,0,1,0,0
5,1,0,0,8,0,0
5,1,1,0,8,0,0
5,1,2,0,8,0,0
5,1,3,0,8,0,0
5,1,4,0,8,0,0
5,1,5,0,8,0,0
5,1,6,0,8,0,0
5,1,7,0,8,0,0
5,1,8,0,8,0,0
5,1,9,0,8,0,0
5,1,10,0,8,0,0
5,1,11,0,8,0,0
5,1,12,0,8,0,0
5,1,13,0,8,0,0
5,1,14,0,8,0,0
5,1,15,0,8,0,0
5,1,16,0,8,0,0
5,1,17,0,8,0,0
5,1,18,0,8,0,0
5,1,19,0,8,0,0
5,1,20,0,8,0,0
5,1,21,0,8,0,0
5,1,22,0,8,0,0
5,1,23,0,8,0,0
5,1,24,0,8,0,0
5,1,25,0,8,0,0
5,1,26,0,8,0,0
5,1,27,0,8,0,0
5,1,28,0,8,0,0
5,1,29,0,8,0,0
5,1,30,0,8,0,0
5,1,31,0,8,0,0
5,1,32,0,8,0,0
5,1,33,0,8,0,0
5,1,34,0,8,0,0
5,1,35,0,8,0,0
5,1,36,0,8,0,0
5,1,37,0,8,0,0
5,1,38,0,8,0,0
5,1,39,0,8,0,0
5,1,40,0,8,0,0
5,1,41,0,8,0,0
5,1,42,0,8,0,0
5,1,43,0,8,0,0
5,1,44,0,8,0,0
5,1,45,0,8,0,0
5,1,46,0,8,0,0
5,1,47,0,8,0,0
5,1,48,0,8,0,0
5,1,49,0,8,0,0
5,1,50,0,8,0,0
5,1,0,0,9,0,0
5,1,1,0,9,0,0
5,1,2,0,9,0,0
5,1,3,0,9,0,0
5,1,4,0,9,0,0
5,1,5,0,9,0,0
5,1,6,0,9,0,0
5,1,7,0,9,0,0
5,1,8,0,9,0,0
5,1,9,0,9,0,0
5,1,10,0,9,0,0
5,1,11,0,9,0,0
5,1,12,0,9,0,0
5,1,13,0,9,0,0
5,1,14,0,9,0,0
5,1,15,0,9,0,0
5,1,16,0,9,0,0
5,1,17,0,9,0,0
5,1,18,0,9,0,0
5,1,19,0,9,0,0
5,1,20,0,9,0,0
5,1,21,0,9,0,0
5,1,22,0,9,0,0
5,1,23,0,9,0,0
5,1,24,0,9,0,0
5,1,25,0,9,0,0
5,1,26,0,9,0,0
5,1,27,0,9,0,0
5,1,28,0,9,0,0
5,1,29,0,9,0,0
5,1,30,0,9,0,0
5,1,31,0,9,0,0
5,1,32,0,9,0,0
5,1,33,0,9,0,0
5,1,34,0,9,0,0
5,1,35,0,9,0,0
5,1,36,0,9,0,0
5,1,37,0,9,0,0
5,1,38,0,9,0,0
5,1,39,0,9,0,0
5,1,40,0,9,0,0
5,1,41,0,9,0,0
5,1,42,0,9,0,0
5,1,43,0,9,0,0
5,1,44,0,9,0,0
5,1,45,0,9,0,0
5,1,46,0,9,0,0
5,1,47,0,9,0,0
5,1,48,0,9,0,0
5,1,49,0,9,0,0
5,1,50,0,9,0,0
6,1,0,0,2,0,0
6,1,1,0,2,0,0
6,1,2,0,2,0,0
6,1,3,0,2,0,0
6,1,4,0,2,0,0
6,1,5,0,2,0,0
6,1,6,0,2,0,0
6,1,7,0,2,0,0
6,1,8,0,2,0,0
6,1,9,0,2,0,0
6,1,10,0,2,0,0
6,1,11,0,2,0,0
6,1,12,0,2,0,0
6,1,13,0,2,0,0
6,1,14,0,2,0,0
6,1,15,0,2,0,0
6,1,16,0,2,0,0
6,1,17,0,2,0,0
6,1,18,0,2,0,0
6,1,19,0,2,0,0
6,1,20,0,2,0,0
6,1,21,0,2,0,0
6,1,22,0,2,0,0
6,1,23,0,2,0,0
6,1,24,0,2,0,0
6,1,25,0,2,0,0
6,1,26,0,2,0,0
6,1,27,0,2,0,0
6,1,28,0,2,0,0
6,1,29,0,2,0,0
6,1,30,0,2,0,0
6,1,31,0,2,0,0
6,1,32,0,2,0,0
6,1,33,0,2,0,0
6,1,34,0,2,0,0
6,1,35,0,2,0,0
6,1,36,0,2,0,0
6,1,37,0,2,0,0
6,1,38,0,2,0,0
6,1,39,0,2,0,0
6,1,40,0,2,0,0
6,1,41,0,2,0,0
6,1,42,0,2,0,0
6,1,43,0,2,0,0
6,1,44,0,2,0,0
6,1,45,0,2,0,0
6,1,46,0,2,0,0
6,1,47,0,2,0,0
6,1,48,0,2,0,0
6,1,49,0,2,0,0
6,1,50,0,2,0,0
5,1,0,0,10,0,0
5,1,1,0,10,0,0
5,1,2,0,10,0,0
5,1,3,0,10,0,0
5,1,4,0,10,0,0
5,1,5,0,10,0,0
5,1,6,0,10,0,0
5,1,7,0,10,0,0
5,1,8,0,10,0,0
5,1,9,0,10,0,0
5,1,10,0,10,0,0
5,1,11,0,10,0,0
5,1,12,0,10,0,0
5,1,13,0,10,0,0
5,1,14,0,10,0,0
5,1,15,0,10,0,0
5,1,16,0,10,0,0
5,1,17,0,10,0,0
5,1,18,0,10,0,0
5,1,19,0,10,0,0
5,1,20,0,10,0,0
5,1,21,0,10,0,0
5,1,22,0,10,0,0
5,1,23,0,10,0,0
5,1,24,0,10,0,0
5,1,25,0,10,0,0
5,1,26,0,10,0,0
5,1,27,0,10,0,0
5,1,28,0,10,0,0
5,1,29,0,10,0,0
5,1,30,0,10,0,0
5,1,31,0,10,0,0
5,1,32,0,10,0,0
5,1,33,0,10,0,0
5,1,34,0,10,0,0
5,1,35,0,10,0,0
5,1,36,0,10,0,0
5,1,37,0,10,0,0
5,1,38,0,10,0,0
5,1,39,0,10,0,0
5,1,40,0,10,0,0
5,1,41,0,10,0,0
5,1,42,0,10,0,0
5,1,43,0,10,0,0
5,1,44,0,10,0,0
5,1,45,0,10,0,0
5,1,46,0,10,0,0
5,1,47,0,10,0,0
5,1,48,0,10,0,0
5,1,49,0,10,0,0
5,1,50,0,10,0,0
6,1,0,0,3,0,0
6,1,1,0,3,0,0
6,1,2,0,3,0,0
6,1,3,0,3,0,0
6,1,4,0,3,0,0
6,1,5,0,3,0,0
6,1,6,0,3,0,0
6,1,7,0,3,0,0
6,1,8,0,3,0,0
6,1,9,0,3,0,0
6,1,10,0,3,0,0
6,1,11,0,3,0,0
6,1,12,0,3,0,0
6,1,13,0,3,0,0
6,1,14,0,3,0,0
6,1,15,0,3,0,0
6,1,16,0,3,0,0
6,1,17,0,3,0,0
6,1,18,0,3,0,0
6,1,19,0,3,0,0
6,1,20,0,3,0,0
6,1,21,0,3,0,0
6,1,22,0,3,0,0
6,1,23,0,3,0,0
6,1,24,0,3,0,0
6,1,25,0,3,0,0
6,1,26,0,3,0,0
6,1,27,0,3,0,0
6,1,28,0,3,0,0
6,1,29,0,3,0,0
6,1,30,0,3,0,0
6,1,31,0,3,0,0
6,1,32,0,3,0,0
6,1,33,0,3,0,0
6,1,34,0,3,0,0
6,1,35,0,3,0,0
6,1,36,0,3,0,0
6,1,37,0,3,0,0
6,1,38,0,3,0,0
6,1,39,0,3,0,0
6,1,40,0,3,0,0
6,1,41,0,3,0,0
6,1,42,0,3,0,0
6,1,43,0,3,0,0
6,1,44,0,3,0,0
6,1,45,0,3,0,0
6,1,46,0,3,0,0
6,1,47,0,3,0,0
6,1,48,0,3,0,0
6,1,49,0,3,0,0
6,1,50,0,3,0,0
5,1,0,0,11,0,0
5,1,1,0,11,0,0
5,1,2,0,11,0,0
5,1,3,0,11,0,0
5,1,4,0,11,0,0
5,1,5,0,11,0,0
5,1,6,0,11,0,0
5,1,7,0,11,0,0
5,1,8,0,11,0,0
5,1,9,0,11,0,0
5,1,10,0,11,0,0
5,1,11,0,11,0,0
5,1,12,0,11,0,0
5,1,13,0,11,0,0
5,1,14,0,11,0,0
5,1,15,0,11,0,0
5,1,16,0,11,0,0
5,1,17,0,11,0,0
5,1,18,0,11,0,0
5,1,19,0,11,0,0
5,1,20,0,11,0,0
5,1,21,0,11,0,0
5,1,22,0,11,0,0
5,1,23,0,11,0,0
5,1,24,0,11,0,0
5,1,25,0,11,0,0
5,1,26,0,11,0,0
5,1,27,0,11,0,0
5,1,28,0,11,0,0
5,1,29,0,11,0,0
5,1,30,0,11,0,0
5,1,31,0,11,0,0
5,1,32,0,11,0,0
5,1,33,0,11,0,0
5,1,34,0,11,0,0
5,1,35,0,11,0,0
5,1,36,0,11,0,0
5,1,37,0,11,0,0
5,1,38,0,11,0,0
5,1,39,0,11,0,0
5,1,40,0,11,0,0
5,1,41,0,11,0,0
5,1,42,0,11,0,0
5,1,43,0,11,0,0
5,1,44,0,11,0,0
5,1,45,0,11,0,0
5,1,46,0,11,0,0
5,1,47,0,11,0,0
5,1,48,0,11,0,0
5,1,49,0,11,0,0
5,1,50,0,11,0,0
6,1,0,0,4,0,0
6,1,1,0,4,0,0
6,1,2,0,4,0,0
6,1,3,0,4,0,0
6,1,4,0,4,0,0
6,1,5,0,4,0,0
6,1,6,0,4,0,0
6,1,7,0,4,0,0
6,1,8,0,4,0,0
6,1,9,0,4,0,0
6,1,10,0,4,0,0
6,1,11,0,4,0,0
6,1,12,0,4,0,0
6,1,13,0,4,0,0
6,1,14,0,4,0,0
6,1,15,0,4,0,0
6,1,16,0,4,0,0
6,1,17,0,4,0,0
6,1,18,0,4,0,0
6,1,19,0,4,0,0
6,1,20,0,4,0,0
6,1,21,0,4,0,0
6,1,22,0,4,0,0
6,1,23,0,4,0,0
6,1,24,0,4,0,0
6,1,25,0,4,0,0
6,1,26,0,4,0,0
6,1,27,0,4,0,0
6,1,28,0,4,0,0
6,1,29,0,4,0,0
6,1,30,0,4,0,0
6,1,31,0,4,0,0
6,1,32,0,4,0,0
6,1,33,0,4,0,0
6,1,34,0,4,0,0
6,1,35,0,4,0,0
6,1,36,0,4,0,0
6,1,37,0,4,0,0
6,1,38,0,4,0,0
6,1,39,0,4,0,0
6,1,40,0,4,0,0
6,1,41,0,4,0,0
6,1,42,0,4,0,0
6,1,43,0,4,0,0
6,1,44,0,4,0,0
6,1,45,0,4,0,0
6,1,46,0,4,0,0
6,1,47,0,4,0,0
6,1,48,0,4,0,0
6,1,49,0,4,0,0
6,1,50,0,4,0,0
