SETZERO,19,1 1188 2636
SETZERO,18,1 1188 2635
SETZERO,9,1 1092 2634
SETZERO,8,1 1092 2633
SETZERO,7,1 1046 2632
SETZERO,6,1 1046 2631
SETZERO,3,1 1024 2630
SETZERO,2,1 1024 2629
SETZERO,5,1 1008 2628
SETZERO,4,1 1008 2627
SETZERO,71,1 767 2626
SETZERO,70,1 767 2625
SETZERO,53,1 500 2624
SETZERO,52,1 500 2623
SETZERO,47,1 472 2622
SETZERO,46,1 472 2621
SETZERO,33,1 468 2620
SETZERO,32,1 468 2619
SETZERO,69,1 424 2618
SETZERO,68,1 424 2617
SETZERO,17,1 402 2616
SETZERO,16,1 402 2615
SETZERO,73,1 364 2614
SETZERO,72,1 364 2613
SETZERO,45,1 348 2612
SETZERO,44,1 348 2611
SETZERO,75,1 347 2610
SETZERO,74,1 347 2609
SETZERO,65,1 347 2608
SETZERO,64,1 347 2607
SETZERO,117,1 316 2606
SETZERO,116,1 316 2605
SETZERO,115,1 311 2604
SETZERO,114,1 311 2603
SETZERO,21,1 311 2602
SETZERO,20,1 311 2601
SETZERO,15,1 311 2600
SETZERO,14,1 311 2599
SETZERO,119,1 310 2598
SETZERO,118,1 310 2597
SETZERO,49,1 310 2596
SETZERO,48,1 310 2595
SETZERO,57,1 59 2594
SETZERO,56,1 59 2593
_X,121 38 2592
XTY,121,9,20 38 2591
_X,120 38 2590
XTY,120,8,20 38 2589
_X,77 38 2588
XTY,77,13,20 38 2587
_X,76 38 2586
XTY,76,12,20 38 2585
_X,55 36 2584
_X,54 36 2583
_X,21 36 2582
XTY,21,5,20 36 2581
_X,20 36 2580
XTY,20,4,20 36 2579
XTY,54,6,20 37 2578
XTY,55,7,20 37 2577
_X,105 37 2576
XTY,105,9,20 37 2575
_X,104 37 2574
XTY,104,8,20 37 2573
_X,67 37 2572
XTY,67,3,20 37 2571
_X,66 37 2570
XTY,66,2,20 37 2569
SETZERO,101,1 35 2568
SETZERO,100,1 35 2567
_X,57 35 2566
_X,56 35 2565
XTY,56,8,20 39 2564
XTY,57,9,20 39 2563
_X,39 39 2562
XTY,39,7,20 39 2561
_X,38 39 2560
XTY,38,6,20 39 2559
_X,9 39 2558
XTY,9,9,20 39 2557
_X,8 39 2556
XTY,8,8,20 39 2555
_X,107 33 2554
XTY,107,11,20 33 2553
_X,106 33 2552
XTY,106,10,20 33 2551
_X,43 33 2550
XTY,43,11,20 33 2549
_X,42 33 2548
XTY,42,10,20 33 2547
SETZERO,97,1 32 2546
SETZERO,96,1 32 2545
_X,119 32 2544
XTY,119,7,20 32 2543
_X,118 32 2542
XTY,118,6,20 32 2541
_X,11 32 2540
XTY,11,11,20 32 2539
_X,10 32 2538
XTY,10,10,20 32 2537
_X,117 31 2536
XTY,117,5,20 31 2535
_X,116 31 2534
XTY,116,4,20 31 2533
_X,27 31 2532
XTY,27,11,20 31 2531
_X,26 31 2530
XTY,26,10,20 31 2529
_X,25 31 2528
_X,24 31 2527
XTY,24,8,20 34 2526
XTY,25,9,20 34 2525
_X,113 34 2524
XTY,113,1,20 34 2523
_X,112 34 2522
XTY,112,0,20 34 2521
_X,63 34 2520
XTY,63,15,20 34 2519
_X,62 34 2518
XTY,62,14,20 34 2517
SETZERO,41,1 29 2516
SETZERO,40,1 29 2515
_X,51 29 2514
XTY,51,3,20 29 2513
_X,50 29 2512
XTY,50,2,20 29 2511
_X,29 29 2510
_X,28 29 2509
XTY,28,12,20 30 2508
XTY,29,13,20 30 2507
_X,93 30 2506
XTY,93,13,20 30 2505
_X,92 30 2504
XTY,92,12,20 30 2503
_X,5 30 2502
XTY,5,5,20 30 2501
_X,4 30 2500
XTY,4,4,20 30 2499
SETZERO,77,1 28 2498
SETZERO,76,1 28 2497
_X,35 28 2496
XTY,35,3,20 28 2495
_X,34 28 2494
XTY,34,2,20 28 2493
SETZERO,63,1 27 2492
SETZERO,62,1 27 2491
SETZERO,39,1 27 2490
SETZERO,38,1 27 2489
SETZERO,31,1 26 2488
SETZERO,30,1 26 2487
_X,97 26 2486
XTY,97,1,20 26 2485
_X,96 26 2484
XTY,96,0,20 26 2483
_X,71 26 2482
XTY,71,7,20 26 2481
_X,70 26 2480
XTY,70,6,20 26 2479
SETZERO,113,1 25 2478
SETZERO,112,1 25 2477
_X,61 25 2476
XTY,61,13,20 25 2475
_X,60 25 2474
XTY,60,12,20 25 2473
_X,15 25 2472
XTY,15,15,20 25 2471
_X,14 25 2470
XTY,14,14,20 25 2469
SETZERO,83,1 24 2468
SETZERO,82,1 24 2467
SETZERO,43,1 24 2466
SETZERO,42,1 24 2465
SETZERO,121,1 22 2464
SETZERO,120,1 22 2463
_X,111 22 2462
XTY,111,15,20 22 2461
_X,110 22 2460
XTY,110,14,20 22 2459
SETZERO,95,1 21 2458
SETZERO,94,1 21 2457
_X,33 21 2456
XTY,33,1,20 21 2455
_X,32 21 2454
XTY,32,0,20 21 2453
SETZERO,109,1 20 2452
SETZERO,108,1 20 2451
_X,31 20 2450
XTY,31,15,20 20 2449
_X,30 20 2448
XTY,30,14,20 20 2447
_X,7 20 2446
_X,6 20 2445
XTY,6,6,20 23 2444
XTY,7,7,20 23 2443
SETZERO,99,1 23 2442
SETZERO,98,1 23 2441
_X,95 18 2440
XTY,95,15,20 18 2439
_X,94 18 2438
XTY,94,14,20 18 2437
_X,89 18 2436
XTY,89,9,20 18 2435
_X,88 18 2434
XTY,88,8,20 18 2433
SETZERO,37,1 16 2432
SETZERO,36,1 16 2431
_X,47 16 2430
XTY,47,15,20 16 2429
_X,46 16 2428
XTY,46,14,20 16 2427
SETZERO,103,1 15 2426
SETZERO,102,1 15 2425
_X,69 15 2424
_X,68 15 2423
XTY,68,4,20 19 2422
XTY,69,5,20 19 2421
_X,23 19 2420
XTY,23,7,20 19 2419
_X,22 19 2418
XTY,22,6,20 19 2417
_X,1 19 2416
XTY,1,1,20 19 2415
_X,0 19 2414
XTY,0,0,20 19 2413
SETZERO,35,1 14 2412
SETZERO,34,1 14 2411
_X,99 14 2410
XTY,99,3,20 14 2409
_X,98 14 2408
XTY,98,2,20 14 2407
_X,75 14 2406
XTY,75,11,20 14 2405
_X,74 14 2404
XTY,74,10,20 14 2403
_X,83 13 2402
XTY,83,3,20 13 2401
_X,82 13 2400
XTY,82,2,20 13 2399
_X,53 13 2398
XTY,53,5,20 13 2397
_X,52 13 2396
XTY,52,4,20 13 2395
_X,59 12 2394
XTY,59,11,20 12 2393
_X,58 12 2392
XTY,58,10,20 12 2391
_X,49 12 2390
XTY,49,1,20 12 2389
_X,48 12 2388
XTY,48,0,20 12 2387
_X,37 12 2386
_X,36 12 2385
XTY,36,4,20 17 2384
XTY,37,5,20 17 2383
_X,101 17 2382
XTY,101,5,20 17 2381
_X,100 17 2380
XTY,100,4,20 17 2379
_X,81 17 2378
XTY,81,1,20 17 2377
_X,80 17 2376
XTY,80,0,20 17 2375
SETZERO,123,1 11 2374
SETZERO,122,1 11 2373
_X,87 11 2372
XTY,87,7,20 11 2371
_X,86 11 2370
XTY,86,6,20 11 2369
_X,73 11 2368
XTY,73,9,20 11 2367
_X,72 11 2366
XTY,72,8,20 11 2365
SETZERO,59,1 10 2364
SETZERO,58,1 10 2363
_X,123 10 2362
XTY,123,11,20 10 2361
_X,122 10 2360
XTY,122,10,20 10 2359
_X,91 10 2358
XTY,91,11,20 10 2357
_X,90 10 2356
XTY,90,10,20 10 2355
SETZERO,111,1 9 2354
SETZERO,110,1 9 2353
SETZERO,93,1 9 2352
SETZERO,92,1 9 2351
_X,109 9 2350
XTY,109,13,20 9 2349
_X,108 9 2348
XTY,108,12,20 9 2347
SETZERO,79,1 8 2346
SETZERO,78,1 8 2345
_X,65 8 2344
XTY,65,1,20 8 2343
_X,64 8 2342
XTY,64,0,20 8 2341
_X,13 8 2340
XTY,13,13,20 8 2339
_X,12 8 2338
XTY,12,12,20 8 2337
SETZERO,89,1 7 2336
SETZERO,88,1 7 2335
_X,41 7 2334
XTY,41,9,20 7 2333
_X,40 7 2332
XTY,40,8,20 7 2331
SETZERO,87,1 6 2330
SETZERO,86,1 6 2329
SETZERO,55,1 6 2328
SETZERO,54,1 6 2327
_X,103 5 2326
XTY,103,7,20 5 2325
_X,102 5 2324
XTY,102,6,20 5 2323
_X,45 5 2322
XTY,45,13,20 5 2321
_X,44 5 2320
XTY,44,12,20 5 2319
_X,19 5 2318
_X,18 5 2317
SETZERO,85,1 4 2316
SETZERO,84,1 4 2315
SETZERO,61,1 4 2314
SETZERO,60,1 4 2313
_X,115 2 2312
_X,114 2 2311
_X,79 2 2310
XTY,79,15,20 2 2309
_X,78 2 2308
XTY,78,14,20 2 2307
_X,17 2 2306
XTY,17,1,20 2 2305
_X,16 2 2304
XTY,16,0,20 2 2303
XTY,114,2,20 3 2302
XTY,115,3,20 3 2301
SETZERO,105,1 3 2300
SETZERO,104,1 3 2299
SETZERO,81,1 1 2298
SETZERO,80,1 1 2297
_X,85 1 2296
XTY,85,5,20 1 2295
_X,84 1 2294
XTY,84,4,20 1 2293
SETZERO,91,1 0 2292
SETZERO,90,1 0 2291
_X,3 0 2290
XTY,3,3,20 0 2289
_X,2 0 2288
XTY,2,2,20 0 2287
XTY,18,2,20 40 2286
XTY,19,3,20 40 2285
RED,XBXBUF,0 40 2284
CHOL,XBX 40 2283
DLACPY,0,20 40 2282
INV,XBX 43 2281
XY,6,20 43 2280
XY,7,20 43 2279
XY,8,20 43 2278
XY,9,20 43 2277
DLACPY,9,21 1305 2276
SPMM,8,9,0 1305 2275
SPMM,9,9,0 1305 2274
DLACPY,8,21 1305 2273
SPMM,7,8,0 1305 2272
SPMM,8,8,0 1305 2271
SPMM,9,8,0 1305 2270
SPMM,2,9,0 1317 2269
SPMM,19,8,0 1758 2268
SPMM,20,8,0 1359 2267
SPMM,21,8,0 1359 2266
SPMM,30,8,0 1756 2265
SPMM,31,8,0 1756 2264
SPMM,31,9,0 1756 2263
DLACPY,7,21 1210 2262
SPMM,6,7,0 1210 2261
SPMM,7,7,0 1210 2260
DLACPY,6,21 1210 2259
SPMM,6,6,0 1210 2258
SPMM,7,6,0 1210 2257
SPMM,8,7,0 1216 2256
SPMM,18,7,0 1864 2255
SPMM,19,7,0 1864 2254
SPMM,20,7,0 1391 2253
SPMM,2,6,0 1353 2252
SPMM,5,6,0 1213 2251
SPMM,14,6,0 1219 2250
SPMM,15,6,0 1219 2249
SPMM,14,7,0 1219 2248
SPMM,15,7,0 1219 2247
SPMM,16,6,0 1254 2246
SPMM,16,7,0 1254 2245
SPMM,17,7,0 1254 2244
SPMM,30,6,0 1852 2243
SPMM,30,7,0 1852 2242
SPMM,31,7,0 1852 2241
XY,0,20 47 2240
XY,1,20 47 2239
DLACPY,1,21 1058 2238
SPMM,4,1,0 1058 2237
SPMM,5,1,0 1058 2236
DLACPY,0,21 1058 2235
SPMM,4,0,0 1058 2234
SPMM,20,1,0 1067 2233
SPMM,21,1,0 1067 2232
SPMM,2,0,0 1132 2231
SPMM,3,0,0 1132 2230
SPMM,2,1,0 1132 2229
SPMM,3,1,0 1132 2228
SPMM,6,0,0 1061 2227
SPMM,7,0,0 1061 2226
SPMM,6,1,0 1061 2225
SPMM,7,1,0 1061 2224
SPMM,8,0,0 1110 2223
SPMM,8,1,0 1110 2222
SPMM,9,1,0 1110 2221
SPMM,14,0,0 1320 2220
SPMM,15,0,0 1320 2219
SPMM,16,0,0 1184 2218
SPMM,17,0,0 1184 2217
SPMM,18,0,0 1858 2216
SPMM,19,0,0 1858 2215
SPMM,18,1,0 1858 2214
SPMM,19,1,0 1858 2213
XY,2,20 45 2212
XY,3,20 45 2211
DLACPY,3,21 1036 2210
SPMM,2,3,0 1036 2209
SPMM,3,3,0 1036 2208
DLACPY,2,21 1036 2207
SPMM,2,2,0 1036 2206
SPMM,3,2,0 1036 2205
SPMM,16,3,0 1293 2204
SPMM,17,3,0 1293 2203
SPMM,18,3,0 1839 2202
SPMM,19,3,0 1839 2201
SPMM,5,2,0 1151 2200
SPMM,4,3,0 1151 2199
SPMM,6,2,0 1052 2198
SPMM,9,2,0 1148 2197
SPMM,14,2,0 1039 2196
SPMM,15,2,0 1039 2195
SPMM,14,3,0 1039 2194
SPMM,15,3,0 1039 2193
SPMM,30,2,0 1828 2192
XY,4,20 44 2191
XY,5,20 44 2190
DLACPY,5,21 1004 2189
DLACPY,4,21 1004 2188
SPMM,6,5,0 1049 2187
SPMM,30,5,0 1836 2186
SPMM,3,4,0 1082 2185
SPMM,2,5,0 1082 2184
SPMM,4,4,0 1011 2183
SPMM,5,4,0 1011 2182
SPMM,4,5,0 1011 2181
SPMM,5,5,0 1011 2180
SPMM,18,4,0 1748 2179
SPMM,19,4,0 1748 2178
SPMM,20,4,0 1007 2177
SPMM,21,4,0 1007 2176
SPMM,21,5,0 1007 2175
SETZERO,29,1 1257 2174
SPMM,29,4,0 1257 2173
SPMM,29,5,0 1257 2172
SETZERO,28,1 1257 2171
SPMM,28,4,0 1257 2170
SPMM,29,6,0 1269 2169
SPMM,28,0,0 1263 2168
SPMM,28,1,0 1263 2167
SPMM,29,1,0 1263 2166
SPMM,28,2,0 1260 2165
SPMM,28,3,0 1260 2164
SPMM,29,2,0 1260 2163
XY,10,20 46 2162
XY,11,20 46 2161
XY,12,20 53 2160
XY,13,20 53 2159
DLACPY,13,21 1014 2158
SPMM,14,13,0 1014 2157
DLACPY,12,21 1014 2156
SPMM,28,13,0 1296 2155
SPMM,2,12,0 1027 2154
SPMM,2,13,0 1027 2153
SPMM,5,12,0 1042 2152
SPMM,6,12,0 1055 2151
SPMM,6,13,0 1055 2150
SPMM,9,12,0 1141 2149
SETZERO,13,1 1030 2148
SPMM,13,12,0 1030 2147
SPMM,13,13,0 1030 2146
SETZERO,12,1 1030 2145
SPMM,12,12,0 1030 2144
SPMM,12,13,0 1030 2143
SPMM,12,0,0 1187 2142
SPMM,13,0,0 1187 2141
SPMM,12,2,0 1045 2140
SPMM,13,2,0 1045 2139
SPMM,12,5,0 1033 2138
SPMM,12,6,0 1228 2137
SPMM,13,6,0 1228 2136
SPMM,12,9,0 1311 2135
DLACPY,11,21 1204 2134
SPMM,12,11,0 1204 2133
DLACPY,10,21 1204 2132
SPMM,12,10,0 1204 2131
SPMM,13,10,0 1204 2130
SPMM,4,11,0 1631 2129
SPMM,5,11,0 1631 2128
SPMM,18,11,0 1833 2127
SPMM,19,11,0 1833 2126
SPMM,20,11,0 1373 2125
SPMM,21,11,0 1373 2124
SPMM,2,10,0 1222 2123
SPMM,3,10,0 1222 2122
SPMM,3,11,0 1222 2121
SPMM,6,10,0 1371 2120
SPMM,7,10,0 1371 2119
SPMM,7,11,0 1371 2118
SPMM,9,10,0 1234 2117
SPMM,8,11,0 1234 2116
SPMM,9,11,0 1234 2115
SETZERO,11,1 1641 2114
SPMM,11,10,0 1641 2113
SPMM,11,11,0 1641 2112
SPMM,11,12,0 1641 2111
SETZERO,10,1 1641 2110
SPMM,10,10,0 1641 2109
SPMM,10,11,0 1641 2108
SPMM,10,12,0 1641 2107
SPMM,10,13,0 1641 2106
SPMM,11,4,0 1653 2105
SPMM,11,5,0 1653 2104
SPMM,10,1,0 1707 2103
SPMM,10,2,0 1665 2102
SPMM,10,3,0 1665 2101
SPMM,11,3,0 1665 2100
SPMM,10,6,0 1647 2099
SPMM,10,7,0 1647 2098
SPMM,11,7,0 1647 2097
SPMM,10,9,0 1644 2096
SPMM,11,8,0 1644 2095
SPMM,11,9,0 1644 2094
SPMM,14,10,0 1621 2093
SPMM,15,10,0 1621 2092
SPMM,16,10,0 1207 2091
SPMM,17,10,0 1207 2090
SPMM,16,11,0 1207 2089
SPMM,17,11,0 1207 2088
SPMM,30,10,0 1770 2087
SPMM,31,10,0 1770 2086
SPMM,30,11,0 1770 2085
SPMM,31,11,0 1770 2084
SPMM,30,12,0 1735 2083
SPMM,31,12,0 1735 2082
SPMM,30,13,0 1735 2081
SPMM,40,12,0 1017 2080
SPMM,41,12,0 1017 2079
SPMM,41,13,0 1017 2078
SPMM,42,12,0 1201 2077
SPMM,42,13,0 1201 2076
SPMM,80,12,0 1091 2075
SPMM,80,13,0 1091 2074
XY,14,20 72 2073
XY,15,20 72 2072
DLACPY,15,21 1020 2071
SPMM,14,15,0 1020 2070
SPMM,15,15,0 1020 2069
DLACPY,14,21 1020 2068
SPMM,14,14,0 1020 2067
SPMM,15,14,0 1020 2066
SPMM,16,15,0 1299 2065
SPMM,44,15,0 1576 2064
SPMM,2,14,0 1399 2063
SPMM,3,14,0 1399 2062
SPMM,2,15,0 1399 2061
SPMM,3,15,0 1399 2060
SPMM,6,14,0 1281 2059
SPMM,7,14,0 1281 2058
SPMM,6,15,0 1281 2057
SPMM,7,15,0 1281 2056
SPMM,10,14,0 1650 2055
SPMM,10,15,0 1650 2054
SPMM,13,14,0 1064 2053
SPMM,28,14,0 1365 2052
SPMM,28,15,0 1365 2051
SPMM,30,14,0 1799 2050
SPMM,30,15,0 1799 2049
SPMM,41,14,0 1386 2048
SPMM,42,14,0 1088 2047
SPMM,43,14,0 1088 2046
SPMM,42,15,0 1088 2045
SPMM,43,15,0 1088 2044
SPMM,80,14,0 1023 2043
SPMM,80,15,0 1023 2042
SPMM,82,14,0 1582 2041
SPMM,82,15,0 1582 2040
XY,16,20 48 2039
XY,17,20 48 2038
DLACPY,17,21 1329 2037
SPMM,16,17,0 1329 2036
SPMM,17,17,0 1329 2035
DLACPY,16,21 1329 2034
SPMM,15,16,0 1329 2033
SPMM,16,16,0 1329 2032
SPMM,17,16,0 1329 2031
SPMM,18,17,0 1332 2030
SPMM,3,16,0 1341 2029
SPMM,3,17,0 1341 2028
SPMM,6,16,0 1347 2027
SPMM,7,16,0 1347 2026
SPMM,7,17,0 1347 2025
SPMM,10,16,0 1659 2024
SPMM,11,16,0 1659 2023
SPMM,10,17,0 1659 2022
SPMM,11,17,0 1659 2021
SPMM,28,16,0 1350 2020
SPMM,28,17,0 1350 2019
SPMM,30,16,0 1764 2018
SPMM,30,17,0 1764 2017
SPMM,42,16,0 1344 2016
SPMM,43,16,0 1344 2015
SPMM,43,17,0 1344 2014
SPMM,44,16,0 1335 2013
SPMM,44,17,0 1335 2012
SPMM,45,17,0 1335 2011
SPMM,80,16,0 1368 2010
SPMM,80,17,0 1368 2009
SPMM,82,16,0 1338 2008
SPMM,83,16,0 1338 2007
SPMM,82,17,0 1338 2006
SPMM,83,17,0 1338 2005
XY,18,20 49 2004
XY,19,20 49 2003
DLACPY,19,21 1070 2002
SPMM,20,19,0 1070 2001
DLACPY,18,21 1070 2000
SPMM,17,18,0 1070 1999
SPMM,8,19,0 1154 1998
SPMM,84,19,0 1822 1997
SPMM,3,18,0 1085 1996
SPMM,3,19,0 1085 1995
SPMM,4,18,0 1146 1994
SPMM,4,19,0 1146 1993
SPMM,7,18,0 1076 1992
SPMM,7,19,0 1076 1991
SPMM,11,18,0 1656 1990
SPMM,11,19,0 1656 1989
SPMM,18,18,0 1231 1988
SPMM,19,18,0 1231 1987
SPMM,18,19,0 1231 1986
SPMM,19,19,0 1231 1985
SPMM,28,18,0 1574 1984
SPMM,28,19,0 1574 1983
SPMM,29,19,0 1574 1982
SPMM,30,18,0 1809 1981
SPMM,30,19,0 1809 1980
SPMM,31,19,0 1809 1979
SPMM,44,18,0 1073 1978
SPMM,45,18,0 1073 1977
SPMM,44,19,0 1073 1976
SPMM,45,19,0 1073 1975
SPMM,46,18,0 1079 1974
SPMM,46,19,0 1079 1973
SPMM,47,19,0 1079 1972
SPMM,82,18,0 1608 1971
SPMM,83,18,0 1608 1970
SPMM,83,19,0 1608 1969
XY,20,20 55 1968
XY,21,20 55 1967
DLACPY,21,21 1157 1966
SPMM,46,21,0 1157 1965
SPMM,47,21,0 1157 1964
DLACPY,20,21 1157 1963
SPMM,46,20,0 1157 1962
SPMM,47,20,0 1157 1961
SPMM,48,21,0 1812 1960
SPMM,4,20,0 1160 1959
SPMM,4,21,0 1160 1958
SPMM,5,21,0 1160 1957
SPMM,7,20,0 1287 1956
SPMM,8,20,0 1290 1955
SPMM,8,21,0 1290 1954
SPMM,11,20,0 1662 1953
SPMM,11,21,0 1662 1952
SPMM,19,20,0 1225 1951
SPMM,20,20,0 1252 1950
SPMM,21,20,0 1252 1949
SPMM,20,21,0 1252 1948
SPMM,21,21,0 1252 1947
SPMM,28,20,0 1595 1946
SPMM,29,20,0 1595 1945
SPMM,28,21,0 1595 1944
SPMM,29,21,0 1595 1943
SPMM,45,20,0 1397 1942
SPMM,83,20,0 1191 1941
SPMM,83,21,0 1191 1940
SPMM,84,20,0 1751 1939
SPMM,84,21,0 1751 1938
XY,22,20 51 1937
XY,23,20 51 1936
XY,24,20 82 1935
XY,25,20 82 1934
DLACPY,25,21 1161 1933
DLACPY,24,21 1161 1932
SPMM,2,25,0 1378 1931
SPMM,6,25,0 1195 1930
SPMM,5,24,0 1175 1929
SPMM,5,25,0 1175 1928
SPMM,9,24,0 1181 1927
SPMM,9,25,0 1181 1926
SPMM,11,24,0 1671 1925
SPMM,12,24,0 1178 1924
SPMM,12,25,0 1178 1923
SPMM,29,24,0 1266 1922
SPMM,29,25,0 1266 1921
SPMM,31,24,0 1786 1920
SPMM,31,25,0 1786 1919
SPMM,32,24,0 1169 1918
SPMM,32,25,0 1169 1917
SPMM,48,24,0 1818 1916
SPMM,49,24,0 1818 1915
SPMM,49,25,0 1818 1914
SPMM,85,24,0 1815 1913
SPMM,85,25,0 1815 1912
XY,26,20 54 1911
XY,27,20 54 1910
XY,28,20 52 1909
XY,29,20 52 1908
DLACPY,29,21 1126 1907
SPMM,20,29,0 1126 1906
SPMM,21,29,0 1126 1905
DLACPY,28,21 1126 1904
SPMM,20,28,0 1126 1903
SPMM,21,28,0 1126 1902
SPMM,6,29,0 1144 1901
SPMM,30,29,0 1783 1900
SPMM,31,29,0 1783 1899
SPMM,32,29,0 1135 1898
SPMM,2,28,0 1138 1897
SPMM,3,28,0 1138 1896
SPMM,2,29,0 1138 1895
SPMM,4,28,0 1634 1894
SPMM,4,29,0 1634 1893
SPMM,5,29,0 1634 1892
SPMM,13,28,0 1601 1891
SPMM,14,28,0 1677 1890
SPMM,15,28,0 1677 1889
SPMM,16,28,0 1240 1888
SPMM,17,28,0 1240 1887
SPMM,18,28,0 1323 1886
SPMM,19,28,0 1323 1885
SPMM,19,29,0 1323 1884
SPMM,28,28,0 1275 1883
SPMM,29,28,0 1275 1882
SPMM,28,29,0 1275 1881
SPMM,29,29,0 1275 1880
SPMM,80,28,0 1326 1879
SPMM,82,28,0 1278 1878
SPMM,83,28,0 1278 1877
SPMM,83,29,0 1278 1876
SPMM,84,28,0 1805 1875
SPMM,84,29,0 1805 1874
SPMM,85,29,0 1805 1873
XY,30,20 50 1872
XY,31,20 50 1871
XY,32,20 74 1870
XY,33,20 74 1869
DLACPY,33,21 714 1868
SPMM,32,33,0 714 1867
SPMM,33,33,0 714 1866
DLACPY,32,21 714 1865
SPMM,32,32,0 714 1864
SPMM,33,32,0 714 1863
SPMM,34,33,0 718 1862
SPMM,29,32,0 1514 1861
SPMM,30,32,0 724 1860
SPMM,31,32,0 724 1859
SPMM,85,32,0 715 1858
SPMM,85,33,0 715 1857
SPMM,86,32,0 866 1856
SPMM,86,33,0 866 1855
SPMM,87,33,0 866 1854
XY,34,20 56 1853
XY,35,20 56 1852
DLACPY,35,21 490 1851
SPMM,34,35,0 490 1850
SPMM,35,35,0 490 1849
DLACPY,34,21 490 1848
SPMM,34,34,0 490 1847
SPMM,35,34,0 490 1846
SPMM,36,35,0 499 1845
SPMM,88,35,0 493 1844
SPMM,108,35,0 825 1843
SPMM,109,35,0 825 1842
SPMM,33,34,0 496 1841
SPMM,86,34,0 578 1840
SPMM,87,34,0 578 1839
SPMM,87,35,0 578 1838
SPMM,101,34,0 835 1837
SPMM,101,35,0 835 1836
SPMM,102,34,0 509 1835
SPMM,103,34,0 509 1834
SPMM,102,35,0 509 1833
SPMM,103,35,0 509 1832
SPMM,104,34,0 706 1831
SPMM,104,35,0 706 1830
SPMM,105,35,0 706 1829
XY,36,20 63 1828
XY,37,20 63 1827
DLACPY,37,21 791 1826
SPMM,36,37,0 791 1825
SPMM,37,37,0 791 1824
SPMM,58,37,0 791 1823
SPMM,59,37,0 791 1822
DLACPY,36,21 791 1821
SPMM,36,36,0 791 1820
SPMM,37,36,0 791 1819
SPMM,58,36,0 791 1818
SPMM,38,37,0 821 1817
SPMM,35,36,0 797 1816
SPMM,88,36,0 794 1815
SPMM,105,36,0 1119 1814
SPMM,108,36,0 800 1813
SPMM,109,36,0 800 1812
XY,38,20 61 1811
XY,39,20 61 1810
DLACPY,39,21 276 1809
SPMM,38,39,0 276 1808
SPMM,39,39,0 276 1807
DLACPY,38,21 276 1806
SPMM,37,38,0 276 1805
SPMM,38,38,0 276 1804
SPMM,39,38,0 276 1803
SPMM,40,39,0 279 1802
SPMM,58,38,0 282 1801
SPMM,59,38,0 282 1800
SPMM,59,39,0 282 1799
SPMM,60,38,0 306 1798
SPMM,60,39,0 306 1797
SPMM,61,39,0 306 1796
XY,40,20 106 1795
XY,41,20 106 1794
DLACPY,41,21 162 1793
SPMM,40,41,0 162 1792
SPMM,41,41,0 162 1791
DLACPY,40,21 162 1790
SPMM,40,40,0 162 1789
SPMM,41,40,0 162 1788
SPMM,14,41,0 1388 1787
SPMM,42,41,0 178 1786
SPMM,12,40,0 1489 1785
SPMM,13,40,0 1489 1784
SPMM,12,41,0 1489 1783
SPMM,13,41,0 1489 1782
SPMM,30,40,0 215 1781
SPMM,30,41,0 215 1780
SPMM,39,40,0 165 1779
SPMM,60,40,0 234 1778
SPMM,61,40,0 234 1777
SPMM,61,41,0 234 1776
SPMM,62,40,0 184 1775
SPMM,62,41,0 184 1774
SPMM,63,41,0 184 1773
XY,42,20 65 1772
XY,43,20 65 1771
DLACPY,43,21 336 1770
SPMM,42,43,0 336 1769
SPMM,43,43,0 336 1768
SPMM,63,43,0 336 1767
DLACPY,42,21 336 1766
SPMM,42,42,0 336 1765
SPMM,43,42,0 336 1764
SPMM,62,42,0 336 1763
SPMM,63,42,0 336 1762
SPMM,44,43,0 351 1761
SPMM,12,42,0 1558 1760
SPMM,13,42,0 1558 1759
SPMM,14,42,0 339 1758
SPMM,15,42,0 339 1757
SPMM,14,43,0 339 1756
SPMM,15,43,0 339 1755
SPMM,16,42,0 405 1754
SPMM,16,43,0 405 1753
SPMM,17,43,0 405 1752
SPMM,30,42,0 442 1751
SPMM,30,43,0 442 1750
SPMM,41,42,0 559 1749
SPMM,64,42,0 928 1748
SPMM,64,43,0 928 1747
SPMM,65,43,0 928 1746
XY,44,20 64 1745
XY,45,20 64 1744
DLACPY,45,21 354 1743
SPMM,44,45,0 354 1742
SPMM,45,45,0 354 1741
DLACPY,44,21 354 1740
SPMM,44,44,0 354 1739
SPMM,45,44,0 354 1738
SPMM,20,45,0 1585 1737
SPMM,46,45,0 475 1736
SPMM,15,44,0 1384 1735
SPMM,16,44,0 408 1734
SPMM,17,44,0 408 1733
SPMM,17,45,0 408 1732
SPMM,18,44,0 1741 1731
SPMM,19,44,0 1741 1730
SPMM,18,45,0 1741 1729
SPMM,19,45,0 1741 1728
SPMM,30,44,0 386 1727
SPMM,30,45,0 386 1726
SPMM,31,45,0 386 1725
SPMM,43,44,0 703 1724
SPMM,64,44,0 357 1723
SPMM,65,44,0 357 1722
SPMM,65,45,0 357 1721
XY,46,20 73 1720
XY,47,20 73 1719
DLACPY,47,21 326 1718
DLACPY,46,21 326 1717
SPMM,48,47,0 342 1716
SPMM,18,46,0 1841 1715
SPMM,19,46,0 1841 1714
SPMM,19,47,0 1841 1713
SPMM,20,46,0 329 1712
SPMM,21,46,0 329 1711
SPMM,20,47,0 329 1710
SPMM,21,47,0 329 1709
SPMM,30,46,0 398 1708
SPMM,31,46,0 398 1707
SPMM,30,47,0 398 1706
SPMM,31,47,0 398 1705
SPMM,45,46,0 360 1704
SPMM,46,46,0 658 1703
SPMM,47,46,0 658 1702
SPMM,46,47,0 658 1701
SPMM,47,47,0 658 1700
SETZERO,67,1 661 1699
SPMM,67,46,0 661 1698
SPMM,67,47,0 661 1697
SETZERO,66,1 661 1696
SPMM,66,46,0 661 1695
SPMM,66,44,0 664 1694
SPMM,66,45,0 664 1693
SPMM,67,45,0 664 1692
SPMM,68,46,0 430 1691
SPMM,68,47,0 430 1690
SPMM,69,47,0 430 1689
XY,48,20 66 1688
XY,49,20 66 1687
DLACPY,49,21 478 1686
SPMM,48,49,0 478 1685
SPMM,49,49,0 478 1684
DLACPY,48,21 478 1683
SPMM,48,48,0 478 1682
SPMM,49,48,0 478 1681
SPMM,21,48,0 1443 1680
SETZERO,23,1 581 1679
SPMM,23,48,0 581 1678
SPMM,23,49,0 581 1677
SETZERO,22,1 581 1676
SPMM,22,48,0 581 1675
SPMM,22,49,0 581 1674
SPMM,23,12,0 1511 1673
SPMM,23,24,0 1166 1672
SPMM,23,32,0 1475 1671
SPMM,22,1,0 1483 1670
SPMM,23,1,0 1483 1669
SPMM,22,4,0 1198 1668
SPMM,22,5,0 1198 1667
SPMM,23,4,0 1198 1666
SPMM,23,5,0 1198 1665
SPMM,22,8,0 1308 1664
SPMM,22,9,0 1308 1663
SPMM,23,8,0 1308 1662
SPMM,23,9,0 1308 1661
SPMM,22,21,0 1491 1660
SPMM,22,29,0 1486 1659
SPMM,23,29,0 1486 1658
SPMM,22,47,0 1493 1657
SPMM,23,47,0 1493 1656
SETZERO,25,1 487 1655
SPMM,25,49,0 487 1654
SETZERO,24,1 487 1653
SPMM,24,48,0 487 1652
SPMM,24,49,0 487 1651
SPMM,25,6,0 1605 1650
SPMM,24,1,0 1193 1649
SPMM,25,1,0 1193 1648
SPMM,24,5,0 1375 1647
SPMM,25,5,0 1375 1646
SPMM,24,9,0 1314 1645
SPMM,25,9,0 1314 1644
SPMM,24,11,0 1561 1643
SPMM,24,12,0 1356 1642
SPMM,25,12,0 1356 1641
DLACPY,23,21 1496 1640
SPMM,22,23,0 1496 1639
SPMM,23,23,0 1496 1638
SPMM,24,23,0 1496 1637
DLACPY,22,21 1496 1636
SPMM,22,22,0 1496 1635
SPMM,23,22,0 1496 1634
SPMM,12,23,0 1508 1633
SPMM,32,23,0 1505 1632
SETZERO,1,1 1687 1631
SPMM,1,22,0 1687 1630
SPMM,1,23,0 1687 1629
SETZERO,0,1 1687 1628
SPMM,1,10,0 1690 1627
SPMM,1,20,0 1714 1626
SPMM,1,21,0 1714 1625
SPMM,1,24,0 1696 1624
SPMM,1,25,0 1696 1623
SPMM,0,0,0 1711 1622
SPMM,0,1,0 1711 1621
SPMM,1,0,0 1711 1620
SPMM,1,1,0 1711 1619
SPMM,0,4,0 1693 1618
SPMM,1,4,0 1693 1617
SPMM,1,5,0 1693 1616
SPMM,0,6,0 1723 1615
SPMM,0,7,0 1723 1614
SPMM,1,6,0 1723 1613
SPMM,1,7,0 1723 1612
SPMM,0,8,0 1717 1611
SPMM,1,8,0 1717 1610
SPMM,1,9,0 1717 1609
SPMM,0,12,0 1699 1608
SPMM,0,13,0 1699 1607
SPMM,0,14,0 1720 1606
SPMM,0,15,0 1720 1605
SPMM,0,16,0 1705 1604
SPMM,0,17,0 1705 1603
SPMM,0,18,0 1702 1602
SPMM,0,19,0 1702 1601
SPMM,1,18,0 1702 1600
SPMM,1,19,0 1702 1599
SPMM,0,28,0 1726 1598
SPMM,1,28,0 1726 1597
SPMM,1,29,0 1726 1596
SPMM,4,22,0 1502 1595
SPMM,5,22,0 1502 1594
SPMM,4,23,0 1502 1593
SPMM,5,23,0 1502 1592
SPMM,8,22,0 1499 1591
SPMM,9,22,0 1499 1590
SPMM,8,23,0 1499 1589
SPMM,9,23,0 1499 1588
SPMM,11,22,0 1681 1587
SPMM,11,23,0 1681 1586
SPMM,21,22,0 1591 1585
SPMM,31,22,0 1745 1584
SPMM,31,23,0 1745 1583
SPMM,47,22,0 1517 1582
SPMM,47,23,0 1517 1581
SPMM,48,22,0 1781 1580
SPMM,49,22,0 1781 1579
SPMM,48,23,0 1781 1578
SPMM,49,23,0 1781 1577
SPMM,84,22,0 1794 1576
SPMM,85,22,0 1794 1575
SPMM,84,23,0 1794 1574
SPMM,85,23,0 1794 1573
SPMM,24,24,0 1163 1572
SPMM,24,25,0 1163 1571
SPMM,25,24,0 1163 1570
SPMM,25,25,0 1163 1569
SPMM,24,29,0 1129 1568
SPMM,25,29,0 1129 1567
SPMM,24,32,0 721 1566
SPMM,25,32,0 721 1565
SPMM,31,48,0 506 1564
SPMM,31,49,0 506 1563
SPMM,47,48,0 481 1562
SPMM,68,48,0 484 1561
SPMM,69,48,0 484 1560
SPMM,69,49,0 484 1559
SPMM,70,48,0 809 1558
SPMM,70,49,0 809 1557
SPMM,71,49,0 809 1556
XY,50,20 70 1555
XY,51,20 70 1554
DLACPY,51,21 759 1553
SPMM,31,51,0 759 1552
DLACPY,50,21 759 1551
SPMM,31,50,0 759 1550
SPMM,52,51,0 942 1549
SPMM,24,50,0 762 1548
SPMM,25,50,0 762 1547
SPMM,25,51,0 762 1546
SPMM,49,50,0 815 1545
SPMM,70,50,0 773 1544
SPMM,71,50,0 773 1543
SPMM,71,51,0 773 1542
SPMM,72,50,0 765 1541
SPMM,72,51,0 765 1540
SPMM,73,51,0 765 1539
XY,52,20 67 1538
XY,53,20 67 1537
DLACPY,53,21 436 1536
SPMM,54,53,0 436 1535
DLACPY,52,21 436 1534
SPMM,101,53,0 838 1533
SPMM,102,53,0 902 1532
SPMM,31,52,0 1849 1531
SPMM,52,52,0 618 1530
SPMM,53,52,0 618 1529
SPMM,52,53,0 618 1528
SPMM,53,53,0 618 1527
SPMM,72,52,0 445 1526
SPMM,73,52,0 445 1525
SPMM,73,53,0 445 1524
SPMM,74,52,0 439 1523
SPMM,74,53,0 439 1522
SPMM,75,53,0 439 1521
XY,54,20 75 1520
XY,55,20 75 1519
DLACPY,55,21 370 1518
SPMM,54,55,0 370 1517
SPMM,55,55,0 370 1516
DLACPY,54,21 370 1515
SPMM,54,54,0 370 1514
SPMM,55,54,0 370 1513
SPMM,56,55,0 373 1512
SPMM,108,55,0 818 1511
SPMM,53,54,0 503 1510
SPMM,74,54,0 376 1509
SPMM,75,54,0 376 1508
SPMM,75,55,0 376 1507
SPMM,76,54,0 602 1506
SPMM,76,55,0 602 1505
SPMM,77,55,0 602 1504
SPMM,101,54,0 890 1503
SPMM,101,55,0 890 1502
SPMM,102,54,0 471 1501
SPMM,103,54,0 471 1500
SPMM,102,55,0 471 1499
SPMM,103,55,0 471 1498
SPMM,104,54,0 853 1497
SPMM,104,55,0 853 1496
SPMM,105,55,0 853 1495
XY,56,20 68 1494
XY,57,20 68 1493
DLACPY,57,21 630 1492
SPMM,56,57,0 630 1491
SPMM,57,57,0 630 1490
DLACPY,56,21 630 1489
SPMM,56,56,0 630 1488
SPMM,57,56,0 630 1487
SPMM,36,57,0 642 1486
SPMM,37,57,0 642 1485
SPMM,58,57,0 803 1484
SPMM,55,56,0 633 1483
SPMM,76,56,0 636 1482
SPMM,77,56,0 636 1481
SPMM,77,57,0 636 1480
SPMM,78,56,0 648 1479
SPMM,78,57,0 648 1478
SPMM,103,56,0 694 1477
SPMM,104,56,0 651 1476
SPMM,105,56,0 651 1475
SETZERO,107,1 679 1474
SPMM,107,56,0 679 1473
SPMM,107,57,0 679 1472
SETZERO,106,1 679 1471
SPMM,106,56,0 679 1470
SPMM,106,57,0 679 1469
SPMM,106,35,0 685 1468
SPMM,107,35,0 685 1467
SPMM,106,36,0 806 1466
SPMM,107,36,0 806 1465
SPMM,106,55,0 682 1464
SPMM,107,55,0 682 1463
SPMM,108,56,0 639 1462
SPMM,109,56,0 639 1461
SPMM,108,57,0 639 1460
SPMM,109,57,0 639 1459
SPMM,110,56,0 645 1458
SPMM,110,57,0 645 1457
SPMM,111,57,0 645 1456
XY,58,20 69 1455
XY,59,20 69 1454
DLACPY,59,21 545 1453
SPMM,58,59,0 545 1452
SPMM,59,59,0 545 1451
DLACPY,58,21 545 1450
SPMM,58,58,0 545 1449
SPMM,59,58,0 545 1448
SPMM,60,59,0 547 1447
SPMM,112,59,0 712 1446
SPMM,36,58,0 553 1445
SPMM,37,58,0 553 1444
SPMM,37,59,0 553 1443
SPMM,38,58,0 556 1442
SPMM,38,59,0 556 1441
SPMM,39,59,0 556 1440
SPMM,57,58,0 550 1439
SPMM,110,58,0 627 1438
SPMM,111,58,0 627 1437
SPMM,110,59,0 627 1436
SPMM,111,59,0 627 1435
XY,60,20 57 1434
XY,61,20 57 1433
DLACPY,61,21 584 1432
SPMM,60,61,0 584 1431
SPMM,61,61,0 584 1430
DLACPY,60,21 584 1429
SPMM,60,60,0 584 1428
SPMM,61,60,0 584 1427
SPMM,62,61,0 593 1426
SPMM,38,60,0 596 1425
SPMM,39,60,0 596 1424
SPMM,39,61,0 596 1423
XTY,39,7,21 822 1422
XTY,38,6,21 822 1421
SPMM,40,60,0 599 1420
SPMM,40,61,0 599 1419
SPMM,41,61,0 599 1418
SPMM,59,60,0 590 1417
SPMM,111,60,0 605 1416
SPMM,112,60,0 587 1415
SPMM,112,61,0 587 1414
SPMM,113,61,0 587 1413
XY,62,20 83 1412
XY,63,20 83 1411
DLACPY,63,21 725 1410
DLACPY,62,21 725 1409
SPMM,64,63,0 779 1408
SPMM,40,62,0 735 1407
SPMM,41,62,0 735 1406
SPMM,41,63,0 735 1405
SPMM,42,62,0 738 1404
SPMM,42,63,0 738 1403
SPMM,43,63,0 738 1402
SPMM,62,62,0 728 1401
SPMM,63,62,0 728 1400
SPMM,62,63,0 728 1399
SPMM,63,63,0 728 1398
SPMM,112,62,0 731 1397
SPMM,113,62,0 731 1396
SPMM,113,63,0 731 1395
SPMM,114,62,0 741 1394
SPMM,114,63,0 741 1393
XY,64,20 85 1392
XY,65,20 85 1391
DLACPY,65,21 312 1390
DLACPY,64,21 312 1389
SPMM,66,65,0 884 1388
SPMM,42,64,0 322 1387
SPMM,43,64,0 322 1386
SPMM,43,65,0 322 1385
SPMM,44,64,0 363 1384
SPMM,44,65,0 363 1383
SPMM,45,65,0 363 1382
SPMM,63,64,0 315 1381
SPMM,64,64,0 420 1380
SPMM,65,64,0 420 1379
SPMM,64,65,0 420 1378
SPMM,65,65,0 420 1377
SPMM,114,64,0 325 1376
SPMM,115,64,0 325 1375
SPMM,114,65,0 325 1374
SPMM,115,65,0 325 1373
XY,66,20 78 1372
XY,67,20 78 1371
XY,68,20 76 1370
XY,69,20 76 1369
DLACPY,69,21 380 1368
DLACPY,68,21 380 1367
SPMM,70,69,0 812 1366
SPMM,118,69,0 389 1365
SPMM,46,68,0 847 1364
SPMM,47,68,0 847 1363
SPMM,47,69,0 847 1362
SPMM,48,68,0 531 1361
SPMM,48,69,0 531 1360
SPMM,49,69,0 531 1359
SPMM,67,68,0 887 1358
SPMM,68,68,0 427 1357
SPMM,69,68,0 427 1356
SPMM,68,69,0 427 1355
SPMM,69,69,0 427 1354
SPMM,116,68,0 383 1353
SPMM,117,68,0 383 1352
SPMM,116,69,0 383 1351
SPMM,117,69,0 383 1350
XY,70,20 446 1349
XY,71,20 446 1348
DLACPY,71,21 452 1347
SPMM,72,71,0 452 1346
DLACPY,70,21 452 1345
SPMM,48,70,0 455 1344
SPMM,49,70,0 455 1343
SPMM,49,71,0 455 1342
SETZERO,51,1 467 1341
SPMM,51,71,0 467 1340
SETZERO,50,1 467 1339
SPMM,50,70,0 467 1338
SPMM,50,71,0 467 1337
SPMM,51,52,0 656 1336
SPMM,50,24,0 1172 1335
SPMM,50,25,0 1172 1334
SPMM,51,25,0 1172 1333
DLACPY,31,21 1428 1332
SPMM,46,31,0 1428 1331
SPMM,47,31,0 1428 1330
SPMM,50,31,0 1428 1329
SPMM,51,31,0 1428 1328
DLACPY,30,21 1428 1327
SPMM,46,30,0 1428 1326
SPMM,47,30,0 1428 1325
SPMM,22,31,0 1431 1324
SPMM,23,31,0 1431 1323
SPMM,24,31,0 1464 1322
SPMM,25,31,0 1464 1321
SPMM,48,31,0 1738 1320
SPMM,49,31,0 1738 1319
SPMM,85,31,0 1789 1318
SPMM,2,30,0 1446 1317
SPMM,5,30,0 1449 1316
SPMM,6,30,0 1469 1315
SPMM,7,30,0 1469 1314
SPMM,7,31,0 1469 1313
SPMM,8,30,0 1568 1312
SPMM,8,31,0 1568 1311
SPMM,9,31,0 1568 1310
SPMM,10,30,0 1668 1309
SPMM,11,30,0 1668 1308
SPMM,10,31,0 1668 1307
SPMM,11,31,0 1668 1306
SPMM,12,30,0 1458 1305
SPMM,13,30,0 1458 1304
SPMM,12,31,0 1458 1303
SPMM,14,30,0 1624 1302
SPMM,15,30,0 1624 1301
SPMM,16,30,0 1434 1300
SPMM,17,30,0 1434 1299
SPMM,18,30,0 1467 1298
SPMM,19,30,0 1467 1297
SPMM,19,31,0 1467 1296
SPMM,20,30,0 1437 1295
SPMM,21,30,0 1437 1294
SPMM,20,31,0 1437 1293
SPMM,21,31,0 1437 1292
SPMM,29,30,0 1455 1291
SPMM,29,31,0 1455 1290
SPMM,30,30,0 1572 1289
SPMM,31,30,0 1572 1288
SPMM,30,31,0 1572 1287
SPMM,31,31,0 1572 1286
SPMM,32,30,0 1461 1285
SPMM,32,31,0 1461 1284
SPMM,40,30,0 1472 1283
XTY,40,8,21 1472 1282
SPMM,41,30,0 1472 1281
XTY,41,9,21 1472 1280
SPMM,42,30,0 1598 1279
XTY,42,10,21 1598 1278
SPMM,43,30,0 1598 1277
XTY,43,11,21 1598 1276
SPMM,50,49,0 567 1275
SPMM,50,50,0 872 1274
SPMM,50,51,0 872 1273
SPMM,51,50,0 872 1272
SPMM,51,51,0 872 1271
SPMM,69,70,0 458 1270
SPMM,70,70,0 770 1269
SPMM,71,70,0 770 1268
SPMM,70,71,0 770 1267
SPMM,71,71,0 770 1266
SPMM,117,70,0 464 1265
SPMM,118,70,0 461 1264
SPMM,118,71,0 461 1263
SPMM,119,71,0 461 1262
XY,72,20 606 1261
XY,73,20 606 1260
DLACPY,73,21 608 1259
SPMM,72,73,0 608 1258
SPMM,73,73,0 608 1257
DLACPY,72,21 608 1256
SPMM,72,72,0 608 1255
SPMM,73,72,0 608 1254
SPMM,74,73,0 615 1253
SPMM,50,72,0 612 1252
SPMM,51,72,0 612 1251
SPMM,51,73,0 612 1250
SPMM,52,72,0 624 1249
SPMM,52,73,0 624 1248
SPMM,53,73,0 624 1247
SPMM,71,72,0 878 1246
SPMM,118,72,0 609 1245
SPMM,119,72,0 609 1244
SPMM,119,73,0 609 1243
SPMM,120,72,0 621 1242
SPMM,120,73,0 621 1241
XY,74,20 105 1240
XY,75,20 105 1239
DLACPY,75,21 667 1238
SPMM,74,75,0 667 1237
SPMM,75,75,0 667 1236
DLACPY,74,21 667 1235
SPMM,74,74,0 667 1234
SPMM,75,74,0 667 1233
SPMM,76,75,0 673 1232
SPMM,52,74,0 945 1231
XTY,52,4,21 945 1230
SPMM,53,74,0 945 1229
SPMM,53,75,0 945 1228
XTY,53,5,21 945 1227
SPMM,54,74,0 709 1226
SPMM,54,75,0 709 1225
SPMM,55,75,0 709 1224
SPMM,73,74,0 747 1223
SPMM,119,74,0 676 1222
SPMM,120,74,0 670 1221
SPMM,121,74,0 670 1220
SPMM,120,75,0 670 1219
SPMM,121,75,0 670 1218
XY,76,20 103 1217
XY,77,20 103 1216
DLACPY,77,21 978 1215
SPMM,76,77,0 978 1214
SPMM,77,77,0 978 1213
DLACPY,76,21 978 1212
SPMM,76,76,0 978 1211
SPMM,77,76,0 978 1210
SPMM,78,77,0 985 1209
SPMM,54,76,0 1000 1208
SPMM,55,76,0 1000 1207
SPMM,55,77,0 1000 1206
SPMM,56,76,0 982 1205
SPMM,56,77,0 982 1204
SPMM,57,77,0 982 1203
SPMM,75,76,0 996 1202
SPMM,122,76,0 988 1201
SPMM,122,77,0 988 1200
SPMM,123,77,0 988 1199
XY,78,20 107 1198
XY,79,20 107 1197
DLACPY,79,21 186 1196
SPMM,78,79,0 186 1195
SPMM,79,79,0 186 1194
SPMM,80,79,0 186 1193
SPMM,81,79,0 186 1192
DLACPY,78,21 186 1191
SPMM,78,78,0 186 1190
SPMM,79,78,0 186 1189
SPMM,80,78,0 186 1188
SPMM,81,78,0 186 1187
SPMM,82,79,0 1394 1186
SPMM,56,78,0 203 1185
SPMM,57,78,0 203 1184
SPMM,77,78,0 188 1183
SPMM,122,78,0 231 1182
SPMM,123,78,0 231 1181
XY,80,20 104 1180
XY,81,20 104 1179
DLACPY,81,21 391 1178
DLACPY,80,21 391 1177
SPMM,90,81,0 537 1176
SPMM,91,81,0 537 1175
SPMM,14,80,0 516 1174
SPMM,15,80,0 516 1173
SPMM,16,80,0 1401 1172
SETZERO,27,1 785 1171
SPMM,27,80,0 785 1170
SETZERO,26,1 785 1169
SPMM,27,14,0 1843 1168
SPMM,27,15,0 1843 1167
SPMM,26,1,0 1868 1166
SPMM,27,0,0 1868 1165
SPMM,26,2,0 1861 1164
SPMM,27,2,0 1861 1163
SPMM,27,3,0 1861 1162
SPMM,26,5,0 1826 1161
SPMM,26,6,0 1761 1160
SPMM,27,6,0 1761 1159
SPMM,26,9,0 1767 1158
SPMM,27,9,0 1767 1157
SPMM,26,10,0 1792 1156
SPMM,27,10,0 1792 1155
SPMM,26,12,0 1871 1154
SPMM,27,12,0 1871 1153
SPMM,27,13,0 1871 1152
SPMM,26,25,0 1776 1151
DLACPY,27,21 1404 1150
SPMM,26,27,0 1404 1149
SPMM,27,27,0 1404 1148
DLACPY,26,21 1404 1147
SPMM,26,26,0 1404 1146
SPMM,27,26,0 1404 1145
SPMM,14,27,0 1419 1144
SPMM,15,27,0 1419 1143
SPMM,80,27,0 1413 1142
SPMM,1,26,0 1729 1141
SPMM,0,27,0 1729 1140
SPMM,0,2,0 1732 1139
SPMM,0,3,0 1732 1138
XTY,0,0,21 1732 1137
SPMM,1,2,0 1732 1136
SPMM,1,3,0 1732 1135
XTY,1,1,21 1732 1134
SPMM,2,26,0 1440 1133
SPMM,2,27,0 1440 1132
SPMM,3,27,0 1440 1131
XTY,3,3,21 1465 1130
XTY,2,2,21 1465 1129
SPMM,5,26,0 1416 1128
XTY,5,5,21 1635 1127
XTY,4,4,21 1635 1126
SPMM,6,26,0 1452 1125
SPMM,6,27,0 1452 1124
XTY,6,6,21 1476 1123
XTY,7,7,21 1476 1122
SPMM,9,26,0 1422 1121
SPMM,9,27,0 1422 1120
XTY,9,9,21 1602 1119
XTY,8,8,21 1602 1118
SPMM,10,26,0 1674 1117
SPMM,10,27,0 1674 1116
XTY,10,10,21 1708 1115
XTY,11,11,21 1708 1114
SPMM,12,26,0 1425 1113
SPMM,12,27,0 1425 1112
SPMM,13,27,0 1425 1111
SPMM,12,80,0 1638 1110
XTY,12,12,21 1638 1109
SPMM,13,80,0 1638 1108
XTY,13,13,21 1638 1107
SPMM,25,26,0 1407 1106
SPMM,29,26,0 1410 1105
SPMM,28,27,0 1410 1104
SPMM,29,27,0 1410 1103
SPMM,30,26,0 1743 1102
SPMM,31,26,0 1743 1101
SPMM,30,27,0 1743 1100
SPMM,31,27,0 1743 1099
SPMM,32,26,0 1564 1098
SPMM,32,27,0 1564 1097
SPMM,49,26,0 1796 1096
XTY,49,1,21 1819 1095
XTY,48,0,21 1819 1094
SPMM,50,26,0 1479 1093
SPMM,51,26,0 1479 1092
SPMM,50,27,0 1479 1091
SPMM,51,27,0 1479 1090
XTY,51,3,21 1480 1089
XTY,50,2,21 1480 1088
SPMM,26,29,0 1846 1087
SPMM,27,28,0 1846 1086
SPMM,27,29,0 1846 1085
SPMM,26,30,0 1830 1084
SPMM,26,31,0 1830 1083
SPMM,27,30,0 1830 1082
SPMM,27,31,0 1830 1081
SPMM,26,32,0 788 1080
SPMM,27,32,0 788 1079
SPMM,26,49,0 1779 1078
SPMM,26,50,0 841 1077
SPMM,26,51,0 841 1076
SPMM,27,50,0 841 1075
SPMM,27,51,0 841 1074
SPMM,26,52,0 1807 1073
SPMM,27,52,0 1807 1072
SPMM,28,80,0 1579 1071
SPMM,78,80,0 565 1070
SPMM,79,80,0 565 1069
SPMM,78,81,0 565 1068
SPMM,79,81,0 565 1067
SPMM,80,80,0 392 1066
SPMM,81,80,0 392 1065
SPMM,80,81,0 392 1064
SPMM,81,81,0 392 1063
SPMM,82,80,0 395 1062
SPMM,82,81,0 395 1061
SPMM,88,80,0 401 1060
SPMM,89,80,0 401 1059
SPMM,88,81,0 401 1058
SPMM,89,81,0 401 1057
XY,82,20 86 1056
XY,83,20 86 1055
DLACPY,83,21 1520 1054
SPMM,28,83,0 1520 1053
SPMM,29,83,0 1520 1052
SPMM,82,83,0 1520 1051
SPMM,83,83,0 1520 1050
DLACPY,82,21 1520 1049
SPMM,28,82,0 1520 1048
SPMM,82,82,0 1520 1047
SPMM,83,82,0 1520 1046
SPMM,20,83,0 1552 1045
SPMM,21,83,0 1552 1044
SPMM,84,83,0 1802 1043
SPMM,94,83,0 1541 1042
SPMM,15,82,0 1523 1041
XTY,15,15,21 1678 1040
XTY,14,14,21 1678 1039
SPMM,16,82,0 1544 1038
SPMM,17,82,0 1544 1037
SPMM,16,83,0 1544 1036
SPMM,17,83,0 1544 1035
XTY,17,1,21 1545 1034
XTY,16,0,21 1545 1033
SPMM,18,82,0 1538 1032
SPMM,18,83,0 1538 1031
SPMM,19,83,0 1538 1030
SPMM,79,82,0 1530 1029
SPMM,80,82,0 1526 1028
SPMM,81,82,0 1526 1027
SPMM,90,82,0 1611 1026
SPMM,91,82,0 1611 1025
SPMM,91,83,0 1611 1024
SPMM,92,82,0 1534 1023
SPMM,92,83,0 1534 1022
SPMM,93,83,0 1534 1021
XY,84,20 108 1020
XY,85,20 108 1019
DLACPY,85,21 1098 1018
SPMM,84,85,0 1098 1017
SPMM,85,85,0 1098 1016
DLACPY,84,21 1098 1015
SPMM,84,84,0 1098 1014
SPMM,85,84,0 1098 1013
SPMM,24,85,0 1362 1012
XTY,24,8,21 1618 1011
SPMM,25,2,0 1618 1010
XTY,25,9,21 1618 1009
SPMM,31,85,0 1754 1008
SPMM,30,20,0 1855 1007
SPMM,31,20,0 1855 1006
SPMM,30,21,0 1855 1005
XTY,30,14,21 1855 1004
SPMM,31,21,0 1855 1003
XTY,31,15,21 1855 1002
SPMM,32,85,0 1104 1001
SPMM,33,85,0 1104 1000
SPMM,96,85,0 1246 999
SPMM,97,85,0 1246 998
SPMM,19,84,0 1773 997
XTY,19,3,21 1865 996
XTY,18,2,21 1865 995
SPMM,20,84,0 1250 994
SPMM,21,84,0 1250 993
XTY,21,5,21 1592 992
XTY,20,4,21 1592 991
SPMM,22,84,0 1101 990
SPMM,23,84,0 1101 989
SPMM,22,85,0 1101 988
SPMM,23,85,0 1101 987
SPMM,22,11,0 1555 986
XTY,22,6,21 1555 985
SPMM,23,11,0 1555 984
XTY,23,7,21 1555 983
SPMM,28,84,0 1272 982
SPMM,29,84,0 1272 981
SPMM,29,85,0 1272 980
XTY,28,12,21 1615 979
SPMM,29,22,0 1615 978
SPMM,29,23,0 1615 977
XTY,29,13,21 1615 976
SPMM,83,84,0 1116 975
SPMM,93,84,0 1107 974
SPMM,94,84,0 1548 973
SPMM,95,84,0 1548 972
SPMM,94,85,0 1548 971
SPMM,95,85,0 1548 970
XY,86,20 89 969
XY,87,20 89 968
DLACPY,87,21 414 967
SPMM,86,87,0 414 966
SPMM,87,87,0 414 965
SPMM,98,87,0 414 964
SPMM,99,87,0 414 963
DLACPY,86,21 414 962
SPMM,86,86,0 414 961
SPMM,87,86,0 414 960
SPMM,98,86,0 414 959
SPMM,88,87,0 562 958
SPMM,100,87,0 875 957
SPMM,32,86,0 654 956
SPMM,33,86,0 654 955
SPMM,33,87,0 654 954
XTY,33,1,21 1565 953
XTY,32,0,21 1565 952
SPMM,34,86,0 417 951
SPMM,34,87,0 417 950
SPMM,35,87,0 417 949
SPMM,85,86,0 575 948
SPMM,96,86,0 423 947
SPMM,97,86,0 423 946
SPMM,97,87,0 423 945
XY,88,20 80 944
XY,89,20 80 943
DLACPY,89,21 948 942
SPMM,88,89,0 948 941
SPMM,89,89,0 948 940
DLACPY,88,21 948 939
SPMM,88,88,0 948 938
SPMM,89,88,0 948 937
SPMM,82,89,0 1381 936
SPMM,90,89,0 971 935
SPMM,35,88,0 964 934
SPMM,36,88,0 954 933
SPMM,80,88,0 951 932
SPMM,81,88,0 951 931
SPMM,80,89,0 951 930
SPMM,81,89,0 951 929
SPMM,87,88,0 957 928
SPMM,99,88,0 974 927
SPMM,100,88,0 960 926
SPMM,101,88,0 960 925
XY,90,20 87 924
XY,91,20 87 923
DLACPY,91,21 288 922
SPMM,90,91,0 288 921
SPMM,91,91,0 288 920
DLACPY,90,21 288 919
SPMM,90,90,0 288 918
SPMM,91,90,0 288 917
SPMM,92,91,0 297 916
SPMM,81,90,0 303 915
SPMM,81,91,0 303 914
XTY,81,1,21 1527 913
XTY,80,0,21 1527 912
SPMM,82,90,0 291 911
SPMM,82,91,0 291 910
SPMM,83,91,0 291 909
SPMM,89,90,0 294 908
XY,92,20 60 907
XY,93,20 60 906
DLACPY,93,21 191 905
SPMM,92,93,0 191 904
SPMM,93,93,0 191 903
DLACPY,92,21 191 902
SPMM,92,92,0 191 901
SPMM,93,92,0 191 900
SPMM,84,93,0 209 899
SPMM,94,93,0 200 898
SPMM,82,92,0 194 897
SPMM,83,92,0 194 896
SPMM,83,93,0 194 895
SPMM,91,92,0 197 894
XTY,91,11,21 1612 893
XTY,90,10,21 1612 892
XY,94,20 79 891
XY,95,20 79 890
DLACPY,95,21 134 889
DLACPY,94,21 134 888
SPMM,96,95,0 137 887
SPMM,83,94,0 1627 886
XTY,83,3,21 1628 885
XTY,82,2,21 1628 884
SPMM,84,94,0 236 883
SPMM,85,94,0 236 882
SPMM,84,95,0 236 881
SPMM,85,95,0 236 880
SPMM,93,94,0 263 879
XTY,93,13,21 1535 878
XTY,92,12,21 1535 877
SPMM,94,94,0 250 876
SPMM,95,94,0 250 875
SPMM,94,95,0 250 874
SPMM,95,95,0 250 873
XY,96,20 110 872
XY,97,20 110 871
DLACPY,97,21 166 870
DLACPY,96,21 166 869
SPMM,98,97,0 181 868
SPMM,85,96,0 212 867
SPMM,85,97,0 212 866
XTY,85,5,21 1823 865
XTY,84,4,21 1823 864
SPMM,86,96,0 172 863
SPMM,86,97,0 172 862
SPMM,87,97,0 172 861
SPMM,95,96,0 175 860
XTY,95,15,21 1549 859
XTY,94,14,21 1549 858
SPMM,96,96,0 169 857
SPMM,97,96,0 169 856
SPMM,96,97,0 169 855
SPMM,97,97,0 169 854
XY,98,20 97 853
XY,99,20 97 852
DLACPY,99,21 146 851
SPMM,98,99,0 146 850
SPMM,99,99,0 146 849
DLACPY,98,21 146 848
SPMM,98,98,0 146 847
SPMM,99,98,0 146 846
SPMM,88,99,0 228 845
SPMM,100,99,0 153 844
SPMM,86,98,0 149 843
SPMM,87,98,0 149 842
SPMM,87,99,0 149 841
SPMM,97,98,0 256 840
XTY,97,1,21 1247 839
XTY,96,0,21 1247 838
XY,100,20 98 837
XY,101,20 98 836
DLACPY,101,21 150 835
DLACPY,100,21 150 834
SPMM,34,101,0 241 833
SPMM,35,101,0 241 832
SPMM,54,101,0 225 831
SPMM,55,101,0 225 830
SPMM,102,101,0 206 829
SPMM,103,101,0 206 828
SPMM,87,100,0 1095 827
XTY,87,7,21 1113 826
SPMM,86,85,0 1113 825
XTY,86,6,21 1113 824
SPMM,88,100,0 218 823
SPMM,88,101,0 218 822
XTY,88,8,21 1588 821
SPMM,89,82,0 1588 820
XTY,89,9,21 1588 819
SPMM,99,100,0 156 818
XTY,99,3,21 975 817
XTY,98,2,21 975 816
SPMM,100,100,0 159 815
SPMM,101,100,0 159 814
SPMM,100,101,0 159 813
SPMM,101,101,0 159 812
XY,102,20 77 811
XY,103,20 77 810
DLACPY,103,21 522 809
SPMM,102,103,0 522 808
SPMM,103,103,0 522 807
DLACPY,102,21 522 806
SPMM,102,102,0 522 805
SPMM,103,102,0 522 804
SPMM,56,103,0 850 803
SPMM,106,103,0 697 802
SPMM,34,102,0 528 801
SPMM,35,102,0 528 800
SPMM,34,103,0 528 799
SPMM,35,103,0 528 798
SPMM,54,102,0 540 797
SPMM,55,102,0 540 796
SPMM,54,103,0 540 795
SPMM,55,103,0 540 794
SPMM,101,102,0 569 793
SPMM,101,103,0 569 792
XTY,101,5,21 961 791
XTY,100,4,21 961 790
SPMM,104,102,0 525 789
SPMM,104,103,0 525 788
SPMM,105,103,0 525 787
XY,104,20 111 786
XY,105,20 111 785
DLACPY,105,21 140 784
SPMM,104,105,0 140 783
SPMM,105,105,0 140 782
DLACPY,104,21 140 781
SPMM,104,104,0 140 780
SPMM,105,104,0 140 779
SPMM,108,105,0 244 778
SPMM,34,104,0 259 777
SPMM,35,104,0 259 776
SPMM,35,105,0 259 775
SPMM,54,104,0 143 774
SPMM,55,104,0 143 773
SPMM,55,105,0 143 772
SPMM,56,104,0 223 771
SPMM,56,105,0 223 770
SPMM,102,104,0 221 769
SPMM,103,104,0 221 768
SPMM,103,105,0 221 767
SPMM,106,104,0 750 766
SPMM,107,104,0 750 765
SPMM,106,105,0 750 764
SPMM,107,105,0 750 763
XY,106,20 81 762
XY,107,20 81 761
DLACPY,107,21 510 760
DLACPY,106,21 510 759
SPMM,35,106,0 534 758
SPMM,35,107,0 534 757
SPMM,36,106,0 519 756
SPMM,36,107,0 519 755
SPMM,56,106,0 543 754
SPMM,57,106,0 543 753
SPMM,56,107,0 543 752
SPMM,57,107,0 543 751
SPMM,103,106,0 899 750
XTY,103,7,21 903 749
XTY,102,6,21 903 748
SPMM,104,106,0 513 747
SPMM,105,106,0 513 746
SPMM,104,107,0 513 745
SPMM,105,107,0 513 744
SPMM,106,106,0 688 743
SPMM,107,106,0 688 742
SPMM,106,107,0 688 741
SPMM,107,107,0 688 740
SPMM,108,106,0 756 739
SPMM,108,107,0 756 738
SPMM,109,107,0 756 737
XY,108,20 62 736
XY,109,20 62 735
DLACPY,109,21 124 734
DLACPY,108,21 124 733
SPMM,35,108,0 253 732
SPMM,35,109,0 253 731
XTY,35,3,21 965 730
XTY,34,2,21 965 729
SPMM,36,108,0 247 728
SPMM,36,109,0 247 727
SPMM,55,108,0 1284 726
SPMM,55,106,0 1302 725
SPMM,55,107,0 1302 724
XTY,55,7,21 1302 723
XTY,54,6,21 1302 722
SPMM,56,108,0 130 721
SPMM,57,108,0 130 720
SPMM,56,109,0 130 719
SPMM,57,109,0 130 718
SPMM,105,108,0 1122 717
XTY,105,9,21 1123 716
XTY,104,8,21 1123 715
SPMM,106,108,0 844 714
XTY,106,10,21 844 713
SPMM,107,108,0 844 712
SPMM,107,109,0 844 711
XTY,107,11,21 844 710
SPMM,108,108,0 127 709
SPMM,109,108,0 127 708
SPMM,108,109,0 127 707
SPMM,109,109,0 127 706
SPMM,110,108,0 133 705
SPMM,110,109,0 133 704
XY,110,20 88 703
XY,111,20 88 702
DLACPY,111,21 264 701
DLACPY,110,21 264 700
SPMM,60,111,0 309 699
SPMM,112,111,0 285 698
SPMM,36,110,0 1237 697
SPMM,36,105,0 1243 696
XTY,36,4,21 1243 695
XTY,37,5,21 1243 694
SPMM,56,110,0 300 693
SPMM,57,110,0 300 692
SPMM,57,111,0 300 691
XTY,56,8,21 1003 690
SPMM,57,36,0 1003 689
SPMM,57,37,0 1003 688
XTY,57,9,21 1003 687
SPMM,58,110,0 270 686
SPMM,59,110,0 270 685
SPMM,58,111,0 270 684
SPMM,59,111,0 270 683
SPMM,108,110,0 273 682
SPMM,109,110,0 273 681
XTY,109,13,21 826 680
XTY,108,12,21 826 679
SPMM,110,110,0 267 678
SPMM,111,110,0 267 677
SPMM,110,111,0 267 676
SPMM,111,111,0 267 675
XY,112,20 84 674
XY,113,20 84 673
DLACPY,113,21 330 672
DLACPY,112,21 330 671
SPMM,64,113,0 829 670
SPMM,114,113,0 938 669
SPMM,59,112,0 832 668
XTY,59,11,21 832 667
XTY,58,10,21 832 666
SPMM,60,112,0 333 665
SPMM,61,112,0 333 664
SPMM,61,113,0 333 663
XTY,60,12,21 782 662
SPMM,61,62,0 782 661
XTY,61,13,21 782 660
SPMM,62,112,0 572 659
SPMM,62,113,0 572 658
SPMM,63,113,0 572 657
SPMM,111,112,0 433 656
XTY,111,15,21 881 655
SPMM,110,36,0 881 654
XTY,110,14,21 881 653
SPMM,112,112,0 700 652
SPMM,113,112,0 700 651
SPMM,112,113,0 700 650
SPMM,113,113,0 700 649
XY,114,20 90 648
XY,115,20 90 647
DLACPY,115,21 93 646
DLACPY,114,21 93 645
SPMM,113,114,0 93 644
XTY,112,0,21 744 643
SPMM,113,64,0 744 642
XTY,113,1,21 744 641
SPMM,116,115,0 893 640
SPMM,62,114,0 96 639
SPMM,63,114,0 96 638
XTY,63,15,21 732 637
XTY,62,14,21 732 636
SPMM,64,114,0 860 635
SPMM,65,114,0 860 634
SPMM,64,115,0 860 633
SPMM,65,115,0 860 632
SPMM,66,114,0 691 631
SPMM,66,115,0 691 630
SPMM,67,115,0 691 629
SPMM,114,114,0 869 628
SPMM,115,114,0 869 627
SPMM,114,115,0 869 626
SPMM,115,115,0 869 625
XY,116,20 58 624
XY,117,20 58 623
DLACPY,117,21 319 622
SPMM,116,117,0 319 621
SPMM,117,117,0 319 620
SPMM,118,117,0 319 619
DLACPY,116,21 319 618
SPMM,116,116,0 319 617
SPMM,117,116,0 319 616
SPMM,70,117,0 776 615
SPMM,66,116,0 857 614
SPMM,67,116,0 857 613
SPMM,67,117,0 857 612
DLACPY,67,21 906 611
SPMM,66,67,0 906 610
SPMM,67,67,0 906 609
DLACPY,66,21 906 608
SPMM,66,66,0 906 607
XTY,66,2,21 906 606
SPMM,67,66,0 906 605
XTY,67,3,21 906 604
SPMM,68,67,0 915 603
SPMM,44,66,0 912 602
SPMM,45,66,0 912 601
SPMM,45,67,0 912 600
SPMM,44,30,0 1684 599
XTY,44,12,21 1684 598
SPMM,45,30,0 1684 597
SPMM,45,31,0 1684 596
XTY,45,13,21 1684 595
SPMM,46,66,0 918 594
SPMM,46,67,0 918 593
SPMM,47,67,0 918 592
XTY,47,15,21 1569 591
XTY,46,14,21 1569 590
SPMM,65,66,0 909 589
XTY,65,1,21 929 588
XTY,64,0,21 929 587
SPMM,114,66,0 921 586
SPMM,115,66,0 921 585
SPMM,115,67,0 921 584
SPMM,116,66,0 924 583
SPMM,116,67,0 924 582
SPMM,117,67,0 924 581
SPMM,115,116,0 345 580
XTY,115,3,21 939 579
XTY,114,2,21 939 578
XY,118,20 71 577
XY,119,20 71 576
DLACPY,119,21 346 575
DLACPY,118,21 346 574
SPMM,74,119,0 379 573
SPMM,120,119,0 449 572
SPMM,69,118,0 932 571
SPMM,68,116,0 935 570
SPMM,69,116,0 935 569
SPMM,68,117,0 935 568
XTY,68,4,21 935 567
SPMM,69,117,0 935 566
XTY,69,5,21 935 565
SPMM,70,118,0 896 564
SPMM,71,118,0 896 563
SPMM,71,119,0 896 562
XTY,71,7,21 900 561
XTY,70,6,21 900 560
SPMM,72,118,0 367 559
SPMM,72,119,0 367 558
SPMM,73,119,0 367 557
SPMM,117,118,0 855 556
XTY,117,5,21 925 555
XTY,116,4,21 925 554
SPMM,118,118,0 411 553
SPMM,119,118,0 411 552
SPMM,118,119,0 411 551
SPMM,119,119,0 411 550
XY,120,20 99 549
XY,121,20 99 548
DLACPY,121,21 102 547
SPMM,120,121,0 102 546
SPMM,121,121,0 102 545
DLACPY,120,21 102 544
SPMM,120,120,0 102 543
SPMM,121,120,0 102 542
SPMM,76,121,0 261 541
SPMM,77,121,0 261 540
SPMM,122,121,0 238 539
SPMM,72,120,0 753 538
SPMM,73,120,0 753 537
XTY,73,9,21 766 536
XTY,72,8,21 766 535
SPMM,74,120,0 968 534
SPMM,75,120,0 968 533
SPMM,74,121,0 968 532
SPMM,75,121,0 968 531
XTY,75,11,21 997 530
XTY,74,10,21 997 529
SPMM,119,120,0 863 528
XTY,119,7,21 990 527
XTY,118,6,21 990 526
XY,122,20 109 525
XY,123,20 109 524
DLACPY,123,21 114 523
SPMM,122,123,0 114 522
SPMM,123,123,0 114 521
DLACPY,122,21 114 520
SPMM,122,122,0 114 519
SPMM,123,122,0 114 518
SPMM,76,122,0 117 517
SPMM,77,122,0 117 516
SPMM,77,123,0 117 515
XTY,77,13,21 979 514
XTY,76,12,21 979 513
SPMM,78,122,0 120 512
SPMM,78,123,0 120 511
XTY,78,14,21 1531 510
XTY,79,15,21 1531 509
SPMM,121,122,0 123 508
XTY,120,8,21 993 507
SPMM,121,76,0 993 506
SPMM,121,77,0 993 505
XTY,121,9,21 993 504
XTY,123,11,21 989 503
XTY,122,10,21 989 502
XTY,27,11,21 1872 501
XTY,26,10,21 1872 500
RED,XAXBUF,0 1872 499
SPEUPDATE,XAX 1872 498
EIGEN 1873 497
XY,26,22 1873 496
DLACPY,26,23 1873 495
XY,27,22 1873 494
DLACPY,27,23 1873 493
XY,2,21 1931 492
DLACPY,2,22 1931 491
XY,3,21 1931 490
DLACPY,3,22 1931 489
XY,6,21 1939 488
DLACPY,6,22 1939 487
XY,7,21 1939 486
DLACPY,7,22 1939 485
XY,8,21 1903 484
XY,9,21 1903 483
DLACPY,9,22 1909 482
DLACPY,8,22 1909 481
XY,104,22 1909 480
XY,105,22 1909 479
DLACPY,105,23 1918 478
DLACPY,104,23 1918 477
XY,0,21 1918 476
XY,1,21 1918 475
DLACPY,1,22 1920 474
DLACPY,0,22 1920 473
XY,14,21 1920 472
DLACPY,14,22 1920 471
XY,15,21 1920 470
DLACPY,15,22 1920 469
XY,10,21 1992 468
DLACPY,10,22 1992 467
XY,11,21 1992 466
DLACPY,11,22 1992 465
XY,12,21 1965 464
DLACPY,12,22 1965 463
XY,13,21 1965 462
DLACPY,13,22 1965 461
XY,16,21 1943 460
DLACPY,16,22 1943 459
XY,17,21 1943 458
DLACPY,17,22 1943 457
XY,18,21 1987 456
DLACPY,18,22 1987 455
XY,19,21 1987 454
DLACPY,19,22 1987 453
XY,20,21 1969 452
DLACPY,20,22 1969 451
XY,21,21 1969 450
DLACPY,21,22 1969 449
XY,22,21 1942 448
XY,23,21 1942 447
XY,24,21 1978 446
DLACPY,24,22 1978 445
XY,25,21 1978 444
DLACPY,25,22 1978 443
XY,26,21 1976 442
DLACPY,26,22 1976 441
XY,27,21 1976 440
DLACPY,27,22 1976 439
XY,28,21 1952 438
DLACPY,28,22 1952 437
XY,29,21 1952 436
DLACPY,29,22 1952 435
XY,30,21 1915 434
DLACPY,30,22 1915 433
XY,31,21 1915 432
DLACPY,31,22 1915 431
XY,32,21 1949 430
DLACPY,32,22 1949 429
XY,33,21 1949 428
DLACPY,33,22 1949 427
XY,34,21 1944 426
DLACPY,34,22 1944 425
XY,35,21 1944 424
DLACPY,35,22 1944 423
XY,36,21 1930 422
XY,37,21 1930 421
DLACPY,37,22 1979 420
DLACPY,36,22 1979 419
XY,112,22 1979 418
DLACPY,112,23 1979 417
XY,113,22 1979 416
DLACPY,113,23 1979 415
XY,38,21 1874 414
DLACPY,38,22 1874 413
XY,39,21 1874 412
DLACPY,39,22 1874 411
XY,40,21 1973 410
DLACPY,40,22 1973 409
XY,41,21 1973 408
DLACPY,41,22 1973 407
XY,42,21 1929 406
DLACPY,42,22 1929 405
XY,43,21 1929 404
DLACPY,43,22 1929 403
XY,46,21 1911 402
DLACPY,46,22 1911 401
XY,47,21 1911 400
DLACPY,47,22 1911 399
XY,50,21 1941 398
DLACPY,50,22 1941 397
XY,51,21 1941 396
DLACPY,51,22 1941 395
XY,52,21 1955 394
XY,53,21 1955 393
XY,54,21 1926 392
DLACPY,54,22 1926 391
XY,55,21 1926 390
DLACPY,55,22 1926 389
XY,56,21 1924 388
DLACPY,56,22 1924 387
XY,57,21 1924 386
DLACPY,57,22 1924 385
XY,58,21 1998 384
DLACPY,58,22 1998 383
XY,59,21 1998 382
DLACPY,59,22 1998 381
XY,62,21 1883 380
XY,63,21 1883 379
DLACPY,63,22 1888 378
DLACPY,62,22 1888 377
XY,4,21 1888 376
DLACPY,4,22 1888 375
XY,5,21 1888 374
DLACPY,5,22 1888 373
XY,64,21 1967 372
DLACPY,64,22 1967 371
XY,65,21 1967 370
DLACPY,65,22 1967 369
XY,66,21 1971 368
DLACPY,66,22 1971 367
XY,67,21 1971 366
DLACPY,67,22 1971 365
XY,74,21 1982 364
DLACPY,74,22 1982 363
XY,75,21 1982 362
DLACPY,75,22 1982 361
XY,76,21 1964 360
DLACPY,76,22 1964 359
XY,77,21 1964 358
DLACPY,77,22 1964 357
XY,80,21 1990 356
DLACPY,80,22 1990 355
XY,81,21 1990 354
DLACPY,81,22 1990 353
XY,82,21 1921 352
DLACPY,82,22 1921 351
XY,83,21 1921 350
DLACPY,83,22 1921 349
XY,84,21 1923 348
DLACPY,84,22 1923 347
XY,85,21 1923 346
DLACPY,85,22 1923 345
XY,86,21 1997 344
DLACPY,86,22 1997 343
XY,87,21 1997 342
DLACPY,87,22 1997 341
XY,88,21 1966 340
DLACPY,88,22 1966 339
XY,89,21 1966 338
DLACPY,89,22 1966 337
XY,90,21 1988 336
DLACPY,90,22 1988 335
XY,91,21 1988 334
DLACPY,91,22 1988 333
XY,92,21 1922 332
XY,93,21 1922 331
DLACPY,93,22 1928 330
DLACPY,92,22 1928 329
XY,48,21 1928 328
XY,49,21 1928 327
DLACPY,49,22 1932 326
DLACPY,48,22 1932 325
XY,110,22 1932 324
XY,111,22 1932 323
DLACPY,111,23 1936 322
DLACPY,110,23 1936 321
XY,114,22 1936 320
DLACPY,114,23 1936 319
XY,115,22 1936 318
DLACPY,115,23 1936 317
XY,96,21 1991 316
DLACPY,96,22 1991 315
XY,97,21 1991 314
DLACPY,97,22 1991 313
XY,98,21 1927 312
DLACPY,98,22 1927 311
XY,99,21 1927 310
DLACPY,99,22 1927 309
XY,100,21 1961 308
DLACPY,100,22 1961 307
XY,101,21 1961 306
DLACPY,101,22 1961 305
XY,102,21 1980 304
XY,103,21 1980 303
DLACPY,103,22 1994 302
DLACPY,102,22 1994 301
XY,72,21 1994 300
DLACPY,72,22 1994 299
XY,73,21 1994 298
DLACPY,73,22 1994 297
XY,104,21 1989 296
DLACPY,104,22 1989 295
XY,105,21 1989 294
DLACPY,105,22 1989 293
XY,106,21 1974 292
DLACPY,106,22 1974 291
XY,107,21 1974 290
DLACPY,107,22 1974 289
XY,108,21 1945 288
XY,109,21 1945 287
DLACPY,109,22 1953 286
DLACPY,108,22 1953 285
XY,68,21 1953 284
DLACPY,68,22 1953 283
XY,69,21 1953 282
DLACPY,69,22 1953 281
XY,112,21 1935 280
DLACPY,112,22 1935 279
XY,113,21 1935 278
DLACPY,113,22 1935 277
XY,114,21 1960 276
XY,115,21 1960 275
DLACPY,115,22 1968 274
DLACPY,114,22 1968 273
XY,94,21 1968 272
XY,95,21 1968 271
DLACPY,95,22 1970 270
DLACPY,94,22 1970 269
XY,58,22 1970 268
DLACPY,58,23 1970 267
XY,59,22 1970 266
DLACPY,59,23 1970 265
XY,116,21 1983 264
DLACPY,116,22 1983 263
XY,117,21 1983 262
DLACPY,117,22 1983 261
XY,118,21 1946 260
DLACPY,118,22 1946 259
XY,119,21 1946 258
DLACPY,119,22 1946 257
XY,120,21 1925 256
DLACPY,120,22 1925 255
XY,121,21 1925 254
DLACPY,121,22 1925 253
XY,122,21 1950 252
XY,123,21 1950 251
DLACPY,123,22 1958 250
DLACPY,122,22 1958 249
DLACPY,53,22 1958 248
DLACPY,52,22 1958 247
XY,0,22 1962 246
DLACPY,0,23 1962 245
XY,1,22 1962 244
DLACPY,1,23 1962 243
XY,2,22 1984 242
XY,3,22 1984 241
DLACPY,3,23 1986 240
DLACPY,2,23 1986 239
XY,108,22 1986 238
XY,109,22 1986 237
DLACPY,109,23 1993 236
DLACPY,108,23 1993 235
XY,44,21 1993 234
XY,45,21 1993 233
XY,4,22 1985 232
DLACPY,4,23 1985 231
XY,5,22 1985 230
DLACPY,5,23 1985 229
XY,6,22 1890 228
DLACPY,6,23 1890 227
XY,7,22 1890 226
DLACPY,7,23 1890 225
XY,10,22 1896 224
XY,11,22 1896 223
DLACPY,11,23 1902 222
DLACPY,10,23 1902 221
XY,78,21 1902 220
DLACPY,78,22 1902 219
XY,79,21 1902 218
DLACPY,79,22 1902 217
XY,12,22 1919 216
DLACPY,12,23 1919 215
XY,13,22 1919 214
DLACPY,13,23 1919 213
XY,14,22 1894 212
DLACPY,14,23 1894 211
XY,15,22 1894 210
DLACPY,15,23 1894 209
XY,16,22 1895 208
DLACPY,16,23 1895 207
XY,17,22 1895 206
DLACPY,17,23 1895 205
XY,18,22 1882 204
DLACPY,18,23 1882 203
XY,19,22 1882 202
DLACPY,19,23 1882 201
XY,20,22 1893 200
DLACPY,20,23 1893 199
XY,21,22 1893 198
DLACPY,21,23 1893 197
XY,24,22 1891 196
DLACPY,24,23 1891 195
XY,25,22 1891 194
DLACPY,25,23 1891 193
XY,28,22 1906 192
DLACPY,28,23 1906 191
XY,29,22 1906 190
DLACPY,29,23 1906 189
XY,30,22 1877 188
DLACPY,30,23 1877 187
XY,31,22 1877 186
DLACPY,31,23 1877 185
XY,34,22 1897 184
DLACPY,34,23 1897 183
XY,35,22 1897 182
DLACPY,35,23 1897 181
XY,36,22 1899 180
XY,37,22 1899 179
DLACPY,37,23 1912 178
DLACPY,36,23 1912 177
XY,22,22 1912 176
DLACPY,22,23 1912 175
XY,23,22 1912 174
DLACPY,23,23 1912 173
XY,38,22 1910 172
DLACPY,38,23 1910 171
XY,39,22 1910 170
DLACPY,39,23 1910 169
XY,40,22 1876 168
XY,41,22 1876 167
DLACPY,41,23 1878 166
DLACPY,40,23 1878 165
XY,106,22 1878 164
XY,107,22 1878 163
DLACPY,107,23 1947 162
DLACPY,106,23 1947 161
DLACPY,23,22 1947 160
DLACPY,22,22 1947 159
XY,42,22 1875 158
DLACPY,42,23 1875 157
XY,43,22 1875 156
DLACPY,43,23 1875 155
XY,44,22 1907 154
DLACPY,44,23 1907 153
XY,45,22 1907 152
DLACPY,45,23 1907 151
XY,46,22 1900 150
DLACPY,46,23 1900 149
XY,47,22 1900 148
DLACPY,47,23 1900 147
XY,48,22 1879 146
DLACPY,48,23 1879 145
XY,49,22 1879 144
DLACPY,49,23 1879 143
XY,50,22 1951 142
DLACPY,50,23 1951 141
XY,51,22 1951 140
DLACPY,51,23 1951 139
XY,52,22 1981 138
XY,53,22 1981 137
DLACPY,53,23 1995 136
DLACPY,52,23 1995 135
DLACPY,45,22 1995 134
DLACPY,44,22 1995 133
XY,54,22 1954 132
DLACPY,54,23 1954 131
XY,55,22 1954 130
DLACPY,55,23 1954 129
XY,56,22 1948 128
DLACPY,56,23 1948 127
XY,57,22 1948 126
DLACPY,57,23 1948 125
XY,60,22 1996 124
DLACPY,60,23 1996 123
XY,61,22 1996 122
DLACPY,61,23 1996 121
XY,62,22 1901 120
DLACPY,62,23 1901 119
XY,63,22 1901 118
DLACPY,63,23 1901 117
XY,64,22 1999 116
DLACPY,64,23 1999 115
XY,65,22 1999 114
DLACPY,65,23 1999 113
XY,66,22 1886 112
DLACPY,66,23 1886 111
XY,67,22 1886 110
DLACPY,67,23 1886 109
XY,70,22 1885 108
XY,71,22 1885 107
DLACPY,71,23 1916 106
DLACPY,70,23 1916 105
XY,70,21 1916 104
DLACPY,70,22 1916 103
XY,71,21 1916 102
DLACPY,71,22 1916 101
XY,72,22 1905 100
DLACPY,72,23 1905 99
XY,73,22 1905 98
DLACPY,73,23 1905 97
XY,74,22 1913 96
DLACPY,74,23 1913 95
XY,75,22 1913 94
DLACPY,75,23 1913 93
XY,76,22 1898 92
DLACPY,76,23 1898 91
XY,77,22 1898 90
DLACPY,77,23 1898 89
XY,78,22 1887 88
DLACPY,78,23 1887 87
XY,79,22 1887 86
DLACPY,79,23 1887 85
XY,80,22 1917 84
DLACPY,80,23 1917 83
XY,81,22 1917 82
DLACPY,81,23 1917 81
XY,82,22 1889 80
DLACPY,82,23 1889 79
XY,83,22 1889 78
DLACPY,83,23 1889 77
XY,84,22 1880 76
DLACPY,84,23 1880 75
XY,85,22 1880 74
DLACPY,85,23 1880 73
XY,86,22 1963 72
DLACPY,86,23 1963 71
XY,87,22 1963 70
DLACPY,87,23 1963 69
XY,88,22 1977 68
DLACPY,88,23 1977 67
XY,89,22 1977 66
DLACPY,89,23 1977 65
XY,90,22 1937 64
DLACPY,90,23 1937 63
XY,91,22 1937 62
DLACPY,91,23 1937 61
XY,92,22 1959 60
DLACPY,92,23 1959 59
XY,93,22 1959 58
DLACPY,93,23 1959 57
XY,94,22 1957 56
DLACPY,94,23 1957 55
XY,95,22 1957 54
DLACPY,95,23 1957 53
XY,96,22 1934 52
DLACPY,96,23 1934 51
XY,97,22 1934 50
DLACPY,97,23 1934 49
XY,98,22 1881 48
XY,99,22 1881 47
DLACPY,99,23 1884 46
DLACPY,98,23 1884 45
XY,32,22 1884 44
XY,33,22 1884 43
DLACPY,33,23 1892 42
DLACPY,32,23 1892 41
XY,8,22 1892 40
DLACPY,8,23 1892 39
XY,9,22 1892 38
DLACPY,9,23 1892 37
XY,100,22 1908 36
DLACPY,100,23 1908 35
XY,101,22 1908 34
DLACPY,101,23 1908 33
XY,102,22 1904 32
XY,103,22 1904 31
DLACPY,103,23 1914 30
DLACPY,102,23 1914 29
XY,68,22 1914 28
DLACPY,68,23 1914 27
XY,69,22 1914 26
DLACPY,69,23 1914 25
XY,116,22 1933 24
XY,117,22 1933 23
DLACPY,117,23 1940 22
DLACPY,116,23 1940 21
XY,60,21 1940 20
DLACPY,60,22 1940 19
XY,61,21 1940 18
DLACPY,61,22 1940 17
XY,118,22 1938 16
DLACPY,118,23 1938 15
XY,119,22 1938 14
DLACPY,119,23 1938 13
XY,120,22 1956 12
DLACPY,120,23 1956 11
XY,121,22 1956 10
DLACPY,121,23 1956 9
XY,122,22 1972 8
XY,123,22 1972 7
DLACPY,123,23 1975 6
DLACPY,122,23 1975 5
XY,110,21 1975 4
DLACPY,110,22 1975 3
XY,111,21 1975 2
DLACPY,111,22 1975 1
