_X,31 229 2636
XTY,31,15,20 229 2635
_X,30 229 2634
XTY,30,14,20 229 2633
_X,29 229 2632
XTY,29,13,20 229 2631
_X,28 229 2630
XTY,28,12,20 229 2629
_X,27 229 2628
XTY,27,11,20 229 2627
_X,26 229 2626
XTY,26,10,20 229 2625
_X,25 229 2624
XTY,25,9,20 229 2623
_X,24 229 2622
XTY,24,8,20 229 2621
_X,111 219 2620
_X,110 219 2619
_X,109 219 2618
_X,108 219 2617
_X,107 219 2616
_X,106 219 2615
_X,105 219 2614
_X,104 219 2613
XTY,104,8,20 224 2612
XTY,105,9,20 224 2611
XTY,106,10,20 224 2610
XTY,107,11,20 224 2609
XTY,108,12,20 224 2608
XTY,109,13,20 224 2607
XTY,110,14,20 224 2606
XTY,111,15,20 224 2605
_X,23 209 2604
_X,22 209 2603
_X,21 209 2602
_X,20 209 2601
_X,19 209 2600
_X,18 209 2599
_X,17 209 2598
_X,16 209 2597
XTY,16,0,20 214 2596
XTY,17,1,20 214 2595
XTY,18,2,20 214 2594
XTY,19,3,20 214 2593
XTY,20,4,20 214 2592
XTY,21,5,20 214 2591
XTY,22,6,20 214 2590
XTY,23,7,20 214 2589
_X,123 199 2588
_X,122 199 2587
_X,121 199 2586
_X,120 199 2585
XTY,120,8,20 204 2584
XTY,121,9,20 204 2583
XTY,122,10,20 204 2582
XTY,123,11,20 204 2581
_X,15 189 2580
_X,14 189 2579
_X,13 189 2578
_X,12 189 2577
_X,11 189 2576
_X,10 189 2575
_X,9 189 2574
_X,8 189 2573
XTY,8,8,20 194 2572
XTY,9,9,20 194 2571
XTY,10,10,20 194 2570
XTY,11,11,20 194 2569
XTY,12,12,20 194 2568
XTY,13,13,20 194 2567
XTY,14,14,20 194 2566
XTY,15,15,20 194 2565
SETZERO,111,1 184 2564
SETZERO,110,1 184 2563
SETZERO,109,1 184 2562
SETZERO,108,1 184 2561
SETZERO,107,1 184 2560
SETZERO,106,1 184 2559
SETZERO,105,1 184 2558
SETZERO,104,1 184 2557
SETZERO,103,1 179 2556
SETZERO,102,1 179 2555
SETZERO,101,1 179 2554
SETZERO,100,1 179 2553
SETZERO,99,1 179 2552
SETZERO,98,1 179 2551
SETZERO,97,1 179 2550
SETZERO,96,1 179 2549
_X,47 169 2548
_X,46 169 2547
_X,45 169 2546
_X,44 169 2545
_X,43 169 2544
_X,42 169 2543
_X,41 169 2542
_X,40 169 2541
XTY,40,8,20 174 2540
XTY,41,9,20 174 2539
XTY,42,10,20 174 2538
XTY,43,11,20 174 2537
XTY,44,12,20 174 2536
XTY,45,13,20 174 2535
XTY,46,14,20 174 2534
XTY,47,15,20 174 2533
_X,71 159 2532
_X,70 159 2531
_X,69 159 2530
_X,68 159 2529
_X,67 159 2528
_X,66 159 2527
_X,65 159 2526
_X,64 159 2525
XTY,64,0,20 164 2524
XTY,65,1,20 164 2523
XTY,66,2,20 164 2522
XTY,67,3,20 164 2521
XTY,68,4,20 164 2520
XTY,69,5,20 164 2519
XTY,70,6,20 164 2518
XTY,71,7,20 164 2517
_X,39 149 2516
_X,38 149 2515
_X,37 149 2514
_X,36 149 2513
_X,35 149 2512
_X,34 149 2511
_X,33 149 2510
_X,32 149 2509
XTY,32,0,20 154 2508
XTY,33,1,20 154 2507
XTY,34,2,20 154 2506
XTY,35,3,20 154 2505
XTY,36,4,20 154 2504
XTY,37,5,20 154 2503
XTY,38,6,20 154 2502
XTY,39,7,20 154 2501
SETZERO,39,1 144 2500
SETZERO,38,1 144 2499
SETZERO,37,1 144 2498
SETZERO,36,1 144 2497
SETZERO,35,1 144 2496
SETZERO,34,1 144 2495
SETZERO,33,1 144 2494
SETZERO,32,1 144 2493
SETZERO,15,1 139 2492
SETZERO,14,1 139 2491
SETZERO,13,1 139 2490
SETZERO,12,1 139 2489
SETZERO,11,1 139 2488
SETZERO,10,1 139 2487
SETZERO,9,1 139 2486
SETZERO,8,1 139 2485
_X,55 131 2484
_X,54 131 2483
_X,53 131 2482
_X,52 131 2481
_X,51 131 2480
_X,50 131 2479
_X,49 131 2478
_X,48 131 2477
XTY,48,0,20 134 2476
XTY,49,1,20 134 2475
XTY,50,2,20 134 2474
XTY,51,3,20 134 2473
XTY,52,4,20 134 2472
XTY,53,5,20 134 2471
XTY,54,6,20 134 2470
XTY,55,7,20 134 2469
SETZERO,123,1 127 2468
SETZERO,122,1 127 2467
SETZERO,121,1 127 2466
SETZERO,120,1 127 2465
SETZERO,7,1 122 2464
SETZERO,6,1 122 2463
SETZERO,5,1 122 2462
SETZERO,4,1 122 2461
SETZERO,3,1 122 2460
SETZERO,2,1 122 2459
SETZERO,1,1 122 2458
SETZERO,0,1 122 2457
SETZERO,119,1 117 2456
SETZERO,118,1 117 2455
SETZERO,117,1 117 2454
SETZERO,116,1 117 2453
SETZERO,115,1 117 2452
SETZERO,114,1 117 2451
SETZERO,113,1 117 2450
SETZERO,112,1 117 2449
_X,103 107 2448
_X,102 107 2447
_X,101 107 2446
_X,100 107 2445
_X,99 107 2444
_X,98 107 2443
_X,97 107 2442
_X,96 107 2441
XTY,96,0,20 112 2440
XTY,97,1,20 112 2439
XTY,98,2,20 112 2438
XTY,99,3,20 112 2437
XTY,100,4,20 112 2436
XTY,101,5,20 112 2435
XTY,102,6,20 112 2434
XTY,103,7,20 112 2433
_X,95 97 2432
_X,94 97 2431
_X,93 97 2430
_X,92 97 2429
_X,91 97 2428
_X,90 97 2427
_X,89 97 2426
_X,88 97 2425
XTY,88,8,20 102 2424
XTY,89,9,20 102 2423
XTY,90,10,20 102 2422
XTY,91,11,20 102 2421
XTY,92,12,20 102 2420
XTY,93,13,20 102 2419
XTY,94,14,20 102 2418
XTY,95,15,20 102 2417
SETZERO,47,1 92 2416
SETZERO,46,1 92 2415
SETZERO,45,1 92 2414
SETZERO,44,1 92 2413
SETZERO,43,1 92 2412
SETZERO,42,1 92 2411
SETZERO,41,1 92 2410
SETZERO,40,1 92 2409
SETZERO,95,1 87 2408
SETZERO,94,1 87 2407
SETZERO,93,1 87 2406
SETZERO,92,1 87 2405
SETZERO,91,1 87 2404
SETZERO,90,1 87 2403
SETZERO,89,1 87 2402
SETZERO,88,1 87 2401
_X,63 77 2400
_X,62 77 2399
_X,61 77 2398
_X,60 77 2397
_X,59 77 2396
_X,58 77 2395
_X,57 77 2394
_X,56 77 2393
XTY,56,8,20 82 2392
XTY,57,9,20 82 2391
XTY,58,10,20 82 2390
XTY,59,11,20 82 2389
XTY,60,12,20 82 2388
XTY,61,13,20 82 2387
XTY,62,14,20 82 2386
XTY,63,15,20 82 2385
SETZERO,87,1 72 2384
SETZERO,86,1 72 2383
SETZERO,85,1 72 2382
SETZERO,84,1 72 2381
SETZERO,83,1 72 2380
SETZERO,82,1 72 2379
SETZERO,81,1 72 2378
SETZERO,80,1 72 2377
SETZERO,71,1 67 2376
SETZERO,70,1 67 2375
SETZERO,69,1 67 2374
SETZERO,68,1 67 2373
SETZERO,67,1 67 2372
SETZERO,66,1 67 2371
SETZERO,65,1 67 2370
SETZERO,64,1 67 2369
_X,79 57 2368
_X,78 57 2367
_X,77 57 2366
_X,76 57 2365
_X,75 57 2364
_X,74 57 2363
_X,73 57 2362
_X,72 57 2361
XTY,72,8,20 62 2360
XTY,73,9,20 62 2359
XTY,74,10,20 62 2358
XTY,75,11,20 62 2357
XTY,76,12,20 62 2356
XTY,77,13,20 62 2355
XTY,78,14,20 62 2354
XTY,79,15,20 62 2353
_X,7 47 2352
_X,6 47 2351
_X,5 47 2350
_X,4 47 2349
_X,3 47 2348
_X,2 47 2347
_X,1 47 2346
_X,0 47 2345
XTY,0,0,20 52 2344
XTY,1,1,20 52 2343
XTY,2,2,20 52 2342
XTY,3,3,20 52 2341
XTY,4,4,20 52 2340
XTY,5,5,20 52 2339
XTY,6,6,20 52 2338
XTY,7,7,20 52 2337
_X,119 37 2336
_X,118 37 2335
_X,117 37 2334
_X,116 37 2333
_X,115 37 2332
_X,114 37 2331
_X,113 37 2330
_X,112 37 2329
XTY,112,0,20 42 2328
XTY,113,1,20 42 2327
XTY,114,2,20 42 2326
XTY,115,3,20 42 2325
XTY,116,4,20 42 2324
XTY,117,5,20 42 2323
XTY,118,6,20 42 2322
XTY,119,7,20 42 2321
_X,87 28 2320
_X,86 28 2319
_X,85 28 2318
_X,84 28 2317
_X,83 28 2316
_X,82 28 2315
_X,81 28 2314
_X,80 28 2313
XTY,80,0,20 32 2312
XTY,81,1,20 32 2311
XTY,82,2,20 32 2310
XTY,83,3,20 32 2309
XTY,84,4,20 32 2308
XTY,85,5,20 32 2307
XTY,86,6,20 32 2306
XTY,87,7,20 32 2305
RED,XBXBUF,0 230 2304
CHOL,XBX 231 2303
DLACPY,0,20 231 2302
INV,XBX 236 2301
XY,48,20 236 2300
XY,49,20 236 2299
XY,50,20 236 2298
XY,51,20 236 2297
XY,52,20 236 2296
XY,53,20 236 2295
XY,54,20 236 2294
XY,55,20 236 2293
DLACPY,55,21 655 2292
DLACPY,54,21 655 2291
DLACPY,53,21 655 2290
DLACPY,52,21 655 2289
DLACPY,51,21 655 2288
DLACPY,50,21 655 2287
DLACPY,49,21 655 2286
DLACPY,48,21 655 2285
SPMM,104,54,0 712 2284
SPMM,104,55,0 712 2283
SPMM,105,55,0 712 2282
SPMM,106,55,0 712 2281
SPMM,107,55,0 712 2280
SPMM,108,55,0 712 2279
SPMM,101,53,0 672 2278
SPMM,102,53,0 672 2277
SPMM,101,54,0 672 2276
SPMM,102,54,0 672 2275
SPMM,103,54,0 672 2274
SPMM,101,55,0 672 2273
SPMM,102,55,0 672 2272
SPMM,103,55,0 672 2271
SPMM,47,48,0 747 2270
SPMM,68,48,0 667 2269
SPMM,69,48,0 667 2268
SPMM,70,48,0 667 2267
SPMM,69,49,0 667 2266
SPMM,70,49,0 667 2265
SPMM,71,49,0 667 2264
SPMM,70,50,0 667 2263
SPMM,71,50,0 667 2262
SPMM,71,51,0 667 2261
XY,0,20 281 2260
XY,1,20 281 2259
XY,2,20 281 2258
XY,3,20 281 2257
XY,4,20 281 2256
XY,5,20 281 2255
XY,6,20 281 2254
XY,7,20 281 2253
DLACPY,7,21 556 2252
DLACPY,6,21 556 2251
DLACPY,5,21 556 2250
DLACPY,4,21 556 2249
DLACPY,3,21 556 2248
DLACPY,2,21 556 2247
DLACPY,1,21 556 2246
DLACPY,0,21 556 2245
SPMM,0,0,0 561 2244
SPMM,1,0,0 561 2243
SPMM,2,0,0 561 2242
SPMM,3,0,0 561 2241
SPMM,4,0,0 561 2240
SPMM,6,0,0 561 2239
SPMM,7,0,0 561 2238
SPMM,0,1,0 561 2237
SPMM,1,1,0 561 2236
SPMM,2,1,0 561 2235
SPMM,3,1,0 561 2234
SPMM,4,1,0 561 2233
SPMM,5,1,0 561 2232
SPMM,6,1,0 561 2231
SPMM,7,1,0 561 2230
SPMM,0,2,0 561 2229
SPMM,1,2,0 561 2228
SPMM,2,2,0 561 2227
SPMM,3,2,0 561 2226
SPMM,5,2,0 561 2225
SPMM,6,2,0 561 2224
SPMM,0,3,0 561 2223
SPMM,1,3,0 561 2222
SPMM,2,3,0 561 2221
SPMM,3,3,0 561 2220
SPMM,4,3,0 561 2219
SPMM,0,4,0 561 2218
SPMM,1,4,0 561 2217
SPMM,3,4,0 561 2216
SPMM,4,4,0 561 2215
SPMM,5,4,0 561 2214
SPMM,1,5,0 561 2213
SPMM,2,5,0 561 2212
SPMM,4,5,0 561 2211
SPMM,5,5,0 561 2210
SPMM,6,5,0 561 2209
SPMM,0,6,0 561 2208
SPMM,1,6,0 561 2207
SPMM,2,6,0 561 2206
SPMM,5,6,0 561 2205
SPMM,6,6,0 561 2204
SPMM,7,6,0 561 2203
SPMM,0,7,0 561 2202
SPMM,1,7,0 561 2201
SPMM,6,7,0 561 2200
SPMM,7,7,0 561 2199
SPMM,8,0,0 566 2198
SPMM,12,0,0 566 2197
SPMM,13,0,0 566 2196
SPMM,14,0,0 566 2195
SPMM,15,0,0 566 2194
SPMM,8,1,0 566 2193
SPMM,9,1,0 566 2192
SPMM,10,1,0 566 2191
SPMM,9,2,0 566 2190
SPMM,10,2,0 566 2189
SPMM,12,2,0 566 2188
SPMM,13,2,0 566 2187
SPMM,14,2,0 566 2186
SPMM,15,2,0 566 2185
SPMM,10,3,0 566 2184
SPMM,11,3,0 566 2183
SPMM,14,3,0 566 2182
SPMM,15,3,0 566 2181
SPMM,11,4,0 566 2180
SPMM,11,5,0 566 2179
SPMM,12,5,0 566 2178
SPMM,10,6,0 566 2177
SPMM,12,6,0 566 2176
SPMM,13,6,0 566 2175
SPMM,14,6,0 566 2174
SPMM,15,6,0 566 2173
SPMM,8,7,0 566 2172
SPMM,10,7,0 566 2171
SPMM,11,7,0 566 2170
SPMM,14,7,0 566 2169
SPMM,15,7,0 566 2168
XY,8,20 271 2167
XY,9,20 271 2166
XY,10,20 271 2165
XY,11,20 271 2164
XY,12,20 271 2163
XY,13,20 271 2162
XY,14,20 271 2161
XY,15,20 271 2160
DLACPY,15,21 516 2159
DLACPY,14,21 516 2158
DLACPY,13,21 516 2157
DLACPY,12,21 516 2156
DLACPY,11,21 516 2155
DLACPY,10,21 516 2154
DLACPY,9,21 516 2153
DLACPY,8,21 516 2152
SPMM,40,12,0 546 2151
SPMM,41,12,0 546 2150
SPMM,42,12,0 546 2149
SPMM,41,13,0 546 2148
SPMM,42,13,0 546 2147
SPMM,41,14,0 546 2146
SPMM,42,14,0 546 2145
SPMM,43,14,0 546 2144
SPMM,42,15,0 546 2143
SPMM,43,15,0 546 2142
SPMM,44,15,0 546 2141
SPMM,80,12,0 551 2140
SPMM,80,13,0 551 2139
SPMM,80,14,0 551 2138
SPMM,82,14,0 551 2137
SPMM,80,15,0 551 2136
SPMM,82,15,0 551 2135
SPMM,0,8,0 526 2134
SPMM,1,8,0 526 2133
SPMM,7,8,0 526 2132
SPMM,1,9,0 526 2131
SPMM,2,9,0 526 2130
SPMM,1,10,0 526 2129
SPMM,2,10,0 526 2128
SPMM,3,10,0 526 2127
SPMM,6,10,0 526 2126
SPMM,7,10,0 526 2125
SPMM,3,11,0 526 2124
SPMM,4,11,0 526 2123
SPMM,5,11,0 526 2122
SPMM,7,11,0 526 2121
SPMM,0,12,0 526 2120
SPMM,2,12,0 526 2119
SPMM,5,12,0 526 2118
SPMM,6,12,0 526 2117
SPMM,0,13,0 526 2116
SPMM,2,13,0 526 2115
SPMM,6,13,0 526 2114
SPMM,0,14,0 526 2113
SPMM,2,14,0 526 2112
SPMM,3,14,0 526 2111
SPMM,6,14,0 526 2110
SPMM,7,14,0 526 2109
SPMM,0,15,0 526 2108
SPMM,2,15,0 526 2107
SPMM,3,15,0 526 2106
SPMM,6,15,0 526 2105
SPMM,7,15,0 526 2104
SPMM,8,8,0 521 2103
SPMM,9,8,0 521 2102
SPMM,11,8,0 521 2101
SPMM,8,9,0 521 2100
SPMM,9,9,0 521 2099
SPMM,10,9,0 521 2098
SPMM,11,9,0 521 2097
SPMM,12,9,0 521 2096
SPMM,9,10,0 521 2095
SPMM,10,10,0 521 2094
SPMM,11,10,0 521 2093
SPMM,12,10,0 521 2092
SPMM,13,10,0 521 2091
SPMM,14,10,0 521 2090
SPMM,15,10,0 521 2089
SPMM,8,11,0 521 2088
SPMM,9,11,0 521 2087
SPMM,10,11,0 521 2086
SPMM,11,11,0 521 2085
SPMM,12,11,0 521 2084
SPMM,9,12,0 521 2083
SPMM,10,12,0 521 2082
SPMM,11,12,0 521 2081
SPMM,12,12,0 521 2080
SPMM,13,12,0 521 2079
SPMM,10,13,0 521 2078
SPMM,12,13,0 521 2077
SPMM,13,13,0 521 2076
SPMM,14,13,0 521 2075
SPMM,10,14,0 521 2074
SPMM,13,14,0 521 2073
SPMM,14,14,0 521 2072
SPMM,15,14,0 521 2071
SPMM,10,15,0 521 2070
SPMM,14,15,0 521 2069
SPMM,15,15,0 521 2068
XY,16,20 246 2067
XY,17,20 246 2066
XY,18,20 246 2065
XY,19,20 246 2064
XY,20,20 246 2063
XY,21,20 246 2062
XY,22,20 246 2061
XY,23,20 246 2060
XY,24,20 251 2059
XY,25,20 251 2058
XY,26,20 251 2057
XY,27,20 251 2056
XY,28,20 251 2055
XY,29,20 251 2054
XY,30,20 251 2053
XY,31,20 251 2052
XY,32,20 241 2051
XY,33,20 241 2050
XY,34,20 241 2049
XY,35,20 241 2048
XY,36,20 241 2047
XY,37,20 241 2046
XY,38,20 241 2045
XY,39,20 241 2044
DLACPY,39,21 717 2043
SPMM,38,39,0 717 2042
SPMM,39,39,0 717 2041
DLACPY,38,21 717 2040
SPMM,37,38,0 717 2039
SPMM,38,38,0 717 2038
SPMM,39,38,0 717 2037
DLACPY,37,21 717 2036
SPMM,36,37,0 717 2035
SPMM,37,37,0 717 2034
SPMM,38,37,0 717 2033
DLACPY,36,21 717 2032
SPMM,35,36,0 717 2031
SPMM,36,36,0 717 2030
SPMM,37,36,0 717 2029
DLACPY,35,21 717 2028
SPMM,34,35,0 717 2027
SPMM,35,35,0 717 2026
SPMM,36,35,0 717 2025
DLACPY,34,21 717 2024
SPMM,33,34,0 717 2023
SPMM,34,34,0 717 2022
SPMM,35,34,0 717 2021
DLACPY,33,21 717 2020
SPMM,32,33,0 717 2019
SPMM,33,33,0 717 2018
SPMM,34,33,0 717 2017
DLACPY,32,21 717 2016
SPMM,32,32,0 717 2015
SPMM,33,32,0 717 2014
SPMM,40,39,0 752 2013
SPMM,88,35,0 777 2012
SPMM,88,36,0 777 2011
SPMM,101,34,0 767 2010
SPMM,102,34,0 767 2009
SPMM,103,34,0 767 2008
SPMM,101,35,0 767 2007
SPMM,102,35,0 767 2006
SPMM,103,35,0 767 2005
SPMM,104,34,0 727 2004
SPMM,104,35,0 727 2003
SPMM,105,35,0 727 2002
SPMM,106,35,0 727 2001
SPMM,107,35,0 727 2000
SPMM,108,35,0 727 1999
SPMM,109,35,0 727 1998
SPMM,105,36,0 727 1997
SPMM,106,36,0 727 1996
SPMM,107,36,0 727 1995
SPMM,108,36,0 727 1994
SPMM,109,36,0 727 1993
SPMM,110,36,0 727 1992
SPMM,85,32,0 722 1991
SPMM,86,32,0 722 1990
SPMM,85,33,0 722 1989
SPMM,86,33,0 722 1988
SPMM,87,33,0 722 1987
SPMM,86,34,0 722 1986
SPMM,87,34,0 722 1985
SPMM,87,35,0 722 1984
XY,40,20 286 1983
XY,41,20 286 1982
XY,42,20 286 1981
XY,43,20 286 1980
XY,44,20 286 1979
XY,45,20 286 1978
XY,46,20 286 1977
XY,47,20 286 1976
DLACPY,47,21 291 1975
DLACPY,46,21 291 1974
DLACPY,45,21 291 1973
DLACPY,44,21 291 1972
DLACPY,43,21 291 1971
DLACPY,42,21 291 1970
DLACPY,41,21 291 1969
DLACPY,40,21 291 1968
SPMM,64,42,0 810 1967
SPMM,64,43,0 810 1966
SPMM,65,43,0 810 1965
SPMM,64,44,0 810 1964
SPMM,65,44,0 810 1963
SPMM,66,44,0 810 1962
SPMM,65,45,0 810 1961
SPMM,66,45,0 810 1960
SPMM,67,45,0 810 1959
SPMM,66,46,0 810 1958
SPMM,67,46,0 810 1957
SPMM,68,46,0 810 1956
SPMM,67,47,0 810 1955
SPMM,68,47,0 810 1954
SPMM,69,47,0 810 1953
SPMM,12,40,0 820 1952
SPMM,13,40,0 820 1951
SPMM,12,41,0 820 1950
SPMM,13,41,0 820 1949
SPMM,14,41,0 820 1948
SPMM,12,42,0 820 1947
SPMM,13,42,0 820 1946
SPMM,14,42,0 820 1945
SPMM,15,42,0 820 1944
SPMM,14,43,0 820 1943
SPMM,15,43,0 820 1942
SPMM,15,44,0 820 1941
SPMM,39,40,0 757 1940
SPMM,40,40,0 870 1939
SPMM,41,40,0 870 1938
SPMM,40,41,0 870 1937
SPMM,41,41,0 870 1936
SPMM,42,41,0 870 1935
SPMM,41,42,0 870 1934
SPMM,42,42,0 870 1933
SPMM,43,42,0 870 1932
SPMM,42,43,0 870 1931
SPMM,43,43,0 870 1930
SPMM,44,43,0 870 1929
SPMM,43,44,0 870 1928
SPMM,44,44,0 870 1927
SPMM,45,44,0 870 1926
SPMM,44,45,0 870 1925
SPMM,45,45,0 870 1924
SPMM,46,45,0 870 1923
SPMM,45,46,0 870 1922
SPMM,46,46,0 870 1921
SPMM,47,46,0 870 1920
SPMM,46,47,0 870 1919
SPMM,47,47,0 870 1918
XY,56,20 276 1917
XY,57,20 276 1916
XY,58,20 276 1915
XY,59,20 276 1914
XY,60,20 276 1913
XY,61,20 276 1912
XY,62,20 276 1911
XY,63,20 276 1910
DLACPY,63,21 677 1909
DLACPY,62,21 677 1908
DLACPY,61,21 677 1907
DLACPY,60,21 677 1906
DLACPY,59,21 677 1905
DLACPY,58,21 677 1904
DLACPY,57,21 677 1903
DLACPY,56,21 677 1902
SPMM,64,63,0 737 1901
SPMM,40,60,0 707 1900
SPMM,40,61,0 707 1899
SPMM,41,61,0 707 1898
SPMM,40,62,0 707 1897
SPMM,41,62,0 707 1896
SPMM,42,62,0 707 1895
SPMM,41,63,0 707 1894
SPMM,42,63,0 707 1893
SPMM,43,63,0 707 1892
SPMM,112,59,0 830 1891
SPMM,112,60,0 830 1890
SPMM,112,61,0 830 1889
SPMM,113,61,0 830 1888
SPMM,112,62,0 830 1887
SPMM,113,62,0 830 1886
SPMM,114,62,0 830 1885
SPMM,113,63,0 830 1884
SPMM,114,63,0 830 1883
SPMM,36,57,0 687 1882
SPMM,37,57,0 687 1881
SPMM,36,58,0 687 1880
SPMM,37,58,0 687 1879
SPMM,38,58,0 687 1878
SPMM,37,59,0 687 1877
SPMM,38,59,0 687 1876
SPMM,39,59,0 687 1875
SPMM,38,60,0 687 1874
SPMM,39,60,0 687 1873
SPMM,39,61,0 687 1872
SPMM,103,56,0 697 1871
SPMM,104,56,0 692 1870
SPMM,105,56,0 692 1869
SPMM,106,56,0 692 1868
SPMM,107,56,0 692 1867
SPMM,108,56,0 692 1866
SPMM,109,56,0 692 1865
SPMM,110,56,0 692 1864
SPMM,106,57,0 692 1863
SPMM,107,57,0 692 1862
SPMM,108,57,0 692 1861
SPMM,109,57,0 692 1860
SPMM,110,57,0 692 1859
SPMM,111,57,0 692 1858
SPMM,110,58,0 692 1857
SPMM,111,58,0 692 1856
SPMM,110,59,0 692 1855
SPMM,111,59,0 692 1854
SPMM,111,60,0 692 1853
XY,64,20 311 1852
XY,65,20 311 1851
XY,66,20 311 1850
XY,67,20 311 1849
XY,68,20 311 1848
XY,69,20 311 1847
XY,70,20 311 1846
XY,71,20 311 1845
DLACPY,71,21 396 1844
DLACPY,70,21 396 1843
DLACPY,69,21 396 1842
DLACPY,68,21 396 1841
DLACPY,67,21 396 1840
DLACPY,66,21 396 1839
DLACPY,65,21 396 1838
DLACPY,64,21 396 1837
SPMM,42,64,0 406 1836
SPMM,43,64,0 406 1835
SPMM,44,64,0 406 1834
SPMM,43,65,0 406 1833
SPMM,44,65,0 406 1832
SPMM,45,65,0 406 1831
SPMM,44,66,0 406 1830
SPMM,45,66,0 406 1829
SPMM,46,66,0 406 1828
SPMM,45,67,0 406 1827
SPMM,46,67,0 406 1826
SPMM,47,67,0 406 1825
SPMM,46,68,0 406 1824
SPMM,47,68,0 406 1823
SPMM,47,69,0 406 1822
SPMM,64,64,0 401 1821
SPMM,65,64,0 401 1820
SPMM,64,65,0 401 1819
SPMM,65,65,0 401 1818
SPMM,66,65,0 401 1817
SPMM,65,66,0 401 1816
SPMM,66,66,0 401 1815
SPMM,67,66,0 401 1814
SPMM,66,67,0 401 1813
SPMM,67,67,0 401 1812
SPMM,68,67,0 401 1811
SPMM,67,68,0 401 1810
SPMM,68,68,0 401 1809
SPMM,69,68,0 401 1808
SPMM,68,69,0 401 1807
SPMM,69,69,0 401 1806
SPMM,70,69,0 401 1805
SPMM,69,70,0 401 1804
SPMM,70,70,0 401 1803
SPMM,71,70,0 401 1802
SPMM,70,71,0 401 1801
SPMM,71,71,0 401 1800
SPMM,113,64,0 411 1799
SPMM,114,64,0 411 1798
SPMM,115,64,0 411 1797
SPMM,114,65,0 411 1796
SPMM,115,65,0 411 1795
SPMM,114,66,0 411 1794
SPMM,115,66,0 411 1793
SPMM,116,66,0 411 1792
SPMM,115,67,0 411 1791
SPMM,116,67,0 411 1790
SPMM,117,67,0 411 1789
SPMM,116,68,0 411 1788
SPMM,117,68,0 411 1787
SPMM,116,69,0 411 1786
SPMM,117,69,0 411 1785
SPMM,118,69,0 411 1784
SPMM,117,70,0 411 1783
SPMM,118,70,0 411 1782
SPMM,118,71,0 411 1781
SPMM,119,71,0 411 1780
XY,72,20 341 1779
XY,73,20 341 1778
XY,74,20 341 1777
XY,75,20 341 1776
XY,76,20 341 1775
XY,77,20 341 1774
XY,78,20 341 1773
XY,79,20 341 1772
XY,80,20 301 1771
XY,81,20 301 1770
XY,82,20 301 1769
XY,83,20 301 1768
XY,84,20 301 1767
XY,85,20 301 1766
XY,86,20 301 1765
XY,87,20 301 1764
DLACPY,87,21 636 1763
SPMM,33,87,0 636 1762
SPMM,34,87,0 636 1761
SPMM,35,87,0 636 1760
SPMM,88,87,0 636 1759
DLACPY,86,21 636 1758
SPMM,32,86,0 636 1757
SPMM,33,86,0 636 1756
SPMM,34,86,0 636 1755
DLACPY,85,21 636 1754
SPMM,32,85,0 636 1753
SPMM,33,85,0 636 1752
SPMM,94,85,0 636 1751
SPMM,95,85,0 636 1750
DLACPY,84,21 636 1749
SPMM,93,84,0 636 1748
SPMM,94,84,0 636 1747
SPMM,95,84,0 636 1746
DLACPY,83,21 636 1745
SPMM,91,83,0 636 1744
SPMM,92,83,0 636 1743
SPMM,93,83,0 636 1742
SPMM,94,83,0 636 1741
DLACPY,82,21 636 1740
SPMM,89,82,0 636 1739
SPMM,90,82,0 636 1738
SPMM,91,82,0 636 1737
SPMM,92,82,0 636 1736
DLACPY,81,21 636 1735
SPMM,88,81,0 636 1734
SPMM,89,81,0 636 1733
SPMM,90,81,0 636 1732
SPMM,91,81,0 636 1731
DLACPY,80,21 636 1730
SPMM,88,80,0 636 1729
SPMM,89,80,0 636 1728
SPMM,96,85,0 641 1727
SPMM,97,85,0 641 1726
SPMM,96,86,0 641 1725
SPMM,97,86,0 641 1724
SPMM,98,86,0 641 1723
SPMM,97,87,0 641 1722
SPMM,98,87,0 641 1721
SPMM,99,87,0 641 1720
SPMM,100,87,0 641 1719
SPMM,12,80,0 796 1718
SPMM,13,80,0 796 1717
SPMM,14,80,0 796 1716
SPMM,15,80,0 796 1715
SPMM,15,82,0 796 1714
SPMM,80,80,0 875 1713
SPMM,81,80,0 875 1712
SPMM,82,80,0 875 1711
SPMM,80,81,0 875 1710
SPMM,81,81,0 875 1709
SPMM,82,81,0 875 1708
SPMM,80,82,0 875 1707
SPMM,81,82,0 875 1706
SPMM,82,82,0 875 1705
SPMM,83,82,0 875 1704
SPMM,82,83,0 875 1703
SPMM,83,83,0 875 1702
SPMM,84,83,0 875 1701
SPMM,83,84,0 875 1700
SPMM,84,84,0 875 1699
SPMM,85,84,0 875 1698
SPMM,84,85,0 875 1697
SPMM,85,85,0 875 1696
SPMM,86,85,0 875 1695
SPMM,85,86,0 875 1694
SPMM,86,86,0 875 1693
SPMM,87,86,0 875 1692
SPMM,86,87,0 875 1691
SPMM,87,87,0 875 1690
XY,88,20 261 1689
XY,89,20 261 1688
XY,90,20 261 1687
XY,91,20 261 1686
XY,92,20 261 1685
XY,93,20 261 1684
XY,94,20 261 1683
XY,95,20 261 1682
DLACPY,95,21 316 1681
DLACPY,94,21 316 1680
DLACPY,93,21 316 1679
DLACPY,92,21 316 1678
DLACPY,91,21 316 1677
DLACPY,90,21 316 1676
DLACPY,89,21 316 1675
DLACPY,88,21 316 1674
SPMM,35,88,0 336 1673
SPMM,36,88,0 336 1672
SPMM,80,88,0 331 1671
SPMM,81,88,0 331 1670
SPMM,87,88,0 331 1669
SPMM,80,89,0 331 1668
SPMM,81,89,0 331 1667
SPMM,82,89,0 331 1666
SPMM,81,90,0 331 1665
SPMM,82,90,0 331 1664
SPMM,81,91,0 331 1663
SPMM,82,91,0 331 1662
SPMM,83,91,0 331 1661
SPMM,82,92,0 331 1660
SPMM,83,92,0 331 1659
SPMM,83,93,0 331 1658
SPMM,84,93,0 331 1657
SPMM,83,94,0 331 1656
SPMM,84,94,0 331 1655
SPMM,85,94,0 331 1654
SPMM,84,95,0 331 1653
SPMM,85,95,0 331 1652
SPMM,88,88,0 321 1651
SPMM,89,88,0 321 1650
SPMM,88,89,0 321 1649
SPMM,89,89,0 321 1648
SPMM,90,89,0 321 1647
SPMM,89,90,0 321 1646
SPMM,90,90,0 321 1645
SPMM,91,90,0 321 1644
SPMM,90,91,0 321 1643
SPMM,91,91,0 321 1642
SPMM,92,91,0 321 1641
SPMM,91,92,0 321 1640
SPMM,92,92,0 321 1639
SPMM,93,92,0 321 1638
SPMM,92,93,0 321 1637
SPMM,93,93,0 321 1636
SPMM,94,93,0 321 1635
SPMM,93,94,0 321 1634
SPMM,94,94,0 321 1633
SPMM,95,94,0 321 1632
SPMM,94,95,0 321 1631
SPMM,95,95,0 321 1630
SPMM,99,88,0 326 1629
SPMM,100,88,0 326 1628
SPMM,101,88,0 326 1627
SPMM,96,95,0 326 1626
XY,96,20 256 1625
XY,97,20 256 1624
XY,98,20 256 1623
XY,99,20 256 1622
XY,100,20 256 1621
XY,101,20 256 1620
XY,102,20 256 1619
XY,103,20 256 1618
DLACPY,103,21 376 1617
DLACPY,102,21 376 1616
DLACPY,101,21 376 1615
DLACPY,100,21 376 1614
DLACPY,99,21 376 1613
DLACPY,98,21 376 1612
DLACPY,97,21 376 1611
DLACPY,96,21 376 1610
SPMM,104,102,0 391 1609
SPMM,104,103,0 391 1608
SPMM,105,103,0 391 1607
SPMM,106,103,0 391 1606
SPMM,34,101,0 591 1605
SPMM,35,101,0 591 1604
SPMM,34,102,0 591 1603
SPMM,35,102,0 591 1602
SPMM,34,103,0 591 1601
SPMM,35,103,0 591 1600
SPMM,85,96,0 421 1599
SPMM,86,96,0 421 1598
SPMM,85,97,0 421 1597
SPMM,86,97,0 421 1596
SPMM,87,97,0 421 1595
SPMM,86,98,0 421 1594
SPMM,87,98,0 421 1593
SPMM,87,99,0 421 1592
SPMM,87,100,0 421 1591
SPMM,95,96,0 386 1590
SPMM,88,99,0 386 1589
SPMM,88,100,0 386 1588
SPMM,88,101,0 386 1587
XTY,88,8,21 960 1586
XTY,95,15,21 960 1585
XTY,94,14,21 960 1584
XTY,93,13,21 960 1583
XTY,92,12,21 960 1582
XTY,91,11,21 960 1581
XTY,90,10,21 960 1580
XTY,89,9,21 960 1579
SPMM,96,96,0 381 1578
SPMM,97,96,0 381 1577
SPMM,96,97,0 381 1576
SPMM,97,97,0 381 1575
SPMM,98,97,0 381 1574
SPMM,97,98,0 381 1573
SPMM,98,98,0 381 1572
SPMM,99,98,0 381 1571
SPMM,98,99,0 381 1570
SPMM,99,99,0 381 1569
SPMM,100,99,0 381 1568
SPMM,99,100,0 381 1567
SPMM,100,100,0 381 1566
SPMM,101,100,0 381 1565
SPMM,100,101,0 381 1564
SPMM,101,101,0 381 1563
SPMM,102,101,0 381 1562
SPMM,103,101,0 381 1561
SPMM,101,102,0 381 1560
SPMM,102,102,0 381 1559
SPMM,103,102,0 381 1558
SPMM,101,103,0 381 1557
SPMM,102,103,0 381 1556
SPMM,103,103,0 381 1555
XY,104,20 306 1554
XY,105,20 306 1553
XY,106,20 306 1552
XY,107,20 306 1551
XY,108,20 306 1550
XY,109,20 306 1549
XY,110,20 306 1548
XY,111,20 306 1547
DLACPY,111,21 596 1546
SPMM,110,111,0 596 1545
SPMM,111,111,0 596 1544
DLACPY,110,21 596 1543
SPMM,108,110,0 596 1542
SPMM,109,110,0 596 1541
SPMM,110,110,0 596 1540
SPMM,111,110,0 596 1539
DLACPY,109,21 596 1538
SPMM,107,109,0 596 1537
SPMM,108,109,0 596 1536
SPMM,109,109,0 596 1535
SPMM,110,109,0 596 1534
DLACPY,108,21 596 1533
SPMM,105,108,0 596 1532
SPMM,106,108,0 596 1531
SPMM,107,108,0 596 1530
SPMM,108,108,0 596 1529
SPMM,109,108,0 596 1528
SPMM,110,108,0 596 1527
DLACPY,107,21 596 1526
SPMM,104,107,0 596 1525
SPMM,105,107,0 596 1524
SPMM,106,107,0 596 1523
SPMM,107,107,0 596 1522
SPMM,108,107,0 596 1521
SPMM,109,107,0 596 1520
DLACPY,106,21 596 1519
SPMM,104,106,0 596 1518
SPMM,105,106,0 596 1517
SPMM,106,106,0 596 1516
SPMM,107,106,0 596 1515
SPMM,108,106,0 596 1514
DLACPY,105,21 596 1513
SPMM,104,105,0 596 1512
SPMM,105,105,0 596 1511
SPMM,106,105,0 596 1510
SPMM,107,105,0 596 1509
SPMM,108,105,0 596 1508
DLACPY,104,21 596 1507
SPMM,104,104,0 596 1506
SPMM,105,104,0 596 1505
SPMM,106,104,0 596 1504
SPMM,107,104,0 596 1503
SPMM,112,111,0 606 1502
SPMM,34,104,0 631 1501
SPMM,35,104,0 631 1500
SPMM,35,105,0 631 1499
SPMM,36,105,0 631 1498
SPMM,35,106,0 631 1497
SPMM,36,106,0 631 1496
SPMM,35,107,0 631 1495
SPMM,36,107,0 631 1494
SPMM,35,108,0 631 1493
SPMM,36,108,0 631 1492
SPMM,35,109,0 631 1491
SPMM,36,109,0 631 1490
SPMM,36,110,0 631 1489
SPMM,102,104,0 601 1488
SPMM,103,104,0 601 1487
SPMM,103,105,0 601 1486
SPMM,103,106,0 601 1485
XTY,103,7,21 772 1484
XTY,102,6,21 772 1483
XTY,101,5,21 772 1482
XTY,100,4,21 772 1481
XTY,99,3,21 772 1480
XTY,98,2,21 772 1479
XTY,97,1,21 772 1478
XTY,96,0,21 772 1477
XY,112,20 296 1476
XY,113,20 296 1475
XY,114,20 296 1474
XY,115,20 296 1473
XY,116,20 296 1472
XY,117,20 296 1471
XY,118,20 296 1470
XY,119,20 296 1469
DLACPY,119,21 356 1468
SPMM,118,119,0 356 1467
SPMM,119,119,0 356 1466
DLACPY,118,21 356 1465
SPMM,117,118,0 356 1464
SPMM,118,118,0 356 1463
SPMM,119,118,0 356 1462
DLACPY,117,21 356 1461
SPMM,116,117,0 356 1460
SPMM,117,117,0 356 1459
SPMM,118,117,0 356 1458
DLACPY,116,21 356 1457
SPMM,115,116,0 356 1456
SPMM,116,116,0 356 1455
SPMM,117,116,0 356 1454
DLACPY,115,21 356 1453
SPMM,114,115,0 356 1452
SPMM,115,115,0 356 1451
SPMM,116,115,0 356 1450
DLACPY,114,21 356 1449
SPMM,113,114,0 356 1448
SPMM,114,114,0 356 1447
SPMM,115,114,0 356 1446
DLACPY,113,21 356 1445
SPMM,112,113,0 356 1444
SPMM,113,113,0 356 1443
SPMM,114,113,0 356 1442
DLACPY,112,21 356 1441
SPMM,112,112,0 356 1440
SPMM,113,112,0 356 1439
SPMM,120,119,0 466 1438
SPMM,64,113,0 361 1437
SPMM,64,114,0 361 1436
SPMM,65,114,0 361 1435
SPMM,66,114,0 361 1434
SPMM,64,115,0 361 1433
SPMM,65,115,0 361 1432
SPMM,66,115,0 361 1431
SPMM,67,115,0 361 1430
SPMM,66,116,0 361 1429
SPMM,67,116,0 361 1428
SPMM,68,116,0 361 1427
SPMM,69,116,0 361 1426
SPMM,67,117,0 361 1425
SPMM,68,117,0 361 1424
SPMM,69,117,0 361 1423
SPMM,70,117,0 361 1422
SPMM,69,118,0 361 1421
SPMM,70,118,0 361 1420
SPMM,71,118,0 361 1419
SPMM,71,119,0 361 1418
SPMM,111,112,0 541 1417
XTY,111,15,21 762 1416
XTY,107,11,21 762 1415
XTY,106,10,21 762 1414
XTY,105,9,21 762 1413
XTY,104,8,21 762 1412
XTY,108,12,21 762 1411
XTY,109,13,21 762 1410
XTY,110,14,21 762 1409
XY,120,20 266 1408
XY,121,20 266 1407
XY,122,20 266 1406
XY,123,20 266 1405
DLACPY,123,21 346 1404
DLACPY,122,21 346 1403
DLACPY,121,21 346 1402
DLACPY,120,21 346 1401
SPMM,119,120,0 511 1400
SPMM,120,120,0 351 1399
SPMM,121,120,0 351 1398
SPMM,120,121,0 351 1397
SPMM,121,121,0 351 1396
SPMM,122,121,0 351 1395
SPMM,121,122,0 351 1394
SPMM,122,122,0 351 1393
SPMM,123,122,0 351 1392
SPMM,122,123,0 351 1391
SPMM,123,123,0 351 1390
SETZERO,79,1 24 1389
SETZERO,78,1 24 1388
SETZERO,77,1 24 1387
SETZERO,76,1 24 1386
SETZERO,75,1 24 1385
SETZERO,74,1 24 1384
SETZERO,73,1 24 1383
SETZERO,72,1 24 1382
SPMM,78,80,0 845 1381
SPMM,78,81,0 845 1380
SPMM,79,80,0 845 1379
SPMM,79,81,0 845 1378
SPMM,79,82,0 845 1377
SPMM,76,56,0 850 1376
SPMM,77,56,0 850 1375
SPMM,77,57,0 850 1374
SPMM,78,56,0 850 1373
SPMM,78,57,0 850 1372
SPMM,72,50,0 657 1371
SPMM,72,51,0 657 1370
SPMM,72,52,0 657 1369
SPMM,73,51,0 657 1368
SPMM,73,52,0 657 1367
SPMM,73,53,0 657 1366
SPMM,74,52,0 657 1365
SPMM,74,53,0 657 1364
SPMM,74,54,0 657 1363
SPMM,75,53,0 657 1362
SPMM,75,54,0 657 1361
SPMM,75,55,0 657 1360
SPMM,76,54,0 657 1359
SPMM,76,55,0 657 1358
SPMM,77,55,0 657 1357
SPMM,72,71,0 426 1356
DLACPY,79,21 435 1355
SPMM,78,79,0 435 1354
SPMM,79,79,0 435 1353
DLACPY,78,21 435 1352
SPMM,77,78,0 435 1351
SPMM,78,78,0 435 1350
SPMM,79,78,0 435 1349
DLACPY,77,21 435 1348
SPMM,76,77,0 435 1347
SPMM,77,77,0 435 1346
SPMM,78,77,0 435 1345
DLACPY,76,21 435 1344
SPMM,75,76,0 435 1343
SPMM,76,76,0 435 1342
SPMM,77,76,0 435 1341
DLACPY,75,21 435 1340
SPMM,74,75,0 435 1339
SPMM,75,75,0 435 1338
SPMM,76,75,0 435 1337
DLACPY,74,21 435 1336
SPMM,73,74,0 435 1335
SPMM,74,74,0 435 1334
SPMM,75,74,0 435 1333
DLACPY,73,21 435 1332
SPMM,72,73,0 435 1331
SPMM,73,73,0 435 1330
SPMM,74,73,0 435 1329
DLACPY,72,21 435 1328
SPMM,72,72,0 435 1327
SPMM,73,72,0 435 1326
SPMM,80,78,0 456 1325
SPMM,81,78,0 456 1324
SPMM,80,79,0 456 1323
SPMM,81,79,0 456 1322
SPMM,82,79,0 456 1321
SPMM,71,72,0 451 1320
XTY,71,7,21 815 1319
XTY,70,6,21 815 1318
XTY,69,5,21 815 1317
XTY,68,4,21 815 1316
XTY,67,3,21 815 1315
XTY,66,2,21 815 1314
XTY,65,1,21 815 1313
XTY,64,0,21 815 1312
SPMM,118,72,0 446 1311
SPMM,119,72,0 446 1310
SPMM,119,73,0 446 1309
SPMM,119,74,0 446 1308
XTY,119,7,21 840 1307
XTY,118,6,21 840 1306
XTY,113,1,21 840 1305
XTY,112,0,21 840 1304
XTY,114,2,21 840 1303
XTY,115,3,21 840 1302
XTY,116,4,21 840 1301
XTY,117,5,21 840 1300
SPMM,120,72,0 461 1299
SPMM,120,73,0 461 1298
SPMM,120,74,0 461 1297
SPMM,121,74,0 461 1296
SPMM,120,75,0 461 1295
SPMM,121,75,0 461 1294
SPMM,121,76,0 461 1293
SPMM,122,76,0 461 1292
SPMM,121,77,0 461 1291
SPMM,122,77,0 461 1290
SPMM,123,77,0 461 1289
SPMM,122,78,0 461 1288
SPMM,123,78,0 461 1287
XTY,123,11,21 471 1286
XTY,122,10,21 471 1285
XTY,121,9,21 471 1284
XTY,120,8,21 471 1283
SPMM,72,118,0 371 1282
SPMM,72,119,0 371 1281
SPMM,73,119,0 371 1280
SPMM,74,119,0 371 1279
SPMM,72,120,0 431 1278
SPMM,73,120,0 431 1277
SPMM,74,120,0 431 1276
SPMM,74,121,0 431 1275
SPMM,75,120,0 431 1274
SPMM,75,121,0 431 1273
SPMM,76,121,0 431 1272
SPMM,76,122,0 431 1271
SPMM,77,121,0 431 1270
SPMM,77,122,0 431 1269
SPMM,77,123,0 431 1268
SPMM,78,122,0 431 1267
SPMM,78,123,0 431 1266
XTY,78,14,21 855 1265
XTY,77,13,21 855 1264
XTY,76,12,21 855 1263
XTY,75,11,21 855 1262
XTY,74,10,21 855 1261
XTY,73,9,21 855 1260
XTY,72,8,21 855 1259
XTY,79,15,21 855 1258
SETZERO,23,1 19 1257
SETZERO,22,1 19 1256
SETZERO,21,1 19 1255
SETZERO,20,1 19 1254
SETZERO,19,1 19 1253
SETZERO,18,1 19 1252
SETZERO,17,1 19 1251
SETZERO,16,1 19 1250
SPMM,23,32,0 825 1249
SPMM,21,48,0 835 1248
SPMM,22,48,0 835 1247
SPMM,22,49,0 835 1246
SPMM,23,48,0 835 1245
SPMM,23,49,0 835 1244
SPMM,16,0,0 581 1243
SPMM,16,3,0 581 1242
SPMM,16,6,0 581 1241
SPMM,16,7,0 581 1240
SPMM,17,0,0 581 1239
SPMM,17,3,0 581 1238
SPMM,17,7,0 581 1237
SPMM,18,0,0 581 1236
SPMM,18,1,0 581 1235
SPMM,18,3,0 581 1234
SPMM,18,4,0 581 1233
SPMM,18,7,0 581 1232
SPMM,19,0,0 581 1231
SPMM,19,1,0 581 1230
SPMM,19,3,0 581 1229
SPMM,19,4,0 581 1228
SPMM,19,7,0 581 1227
SPMM,20,1,0 581 1226
SPMM,20,4,0 581 1225
SPMM,20,7,0 581 1224
SPMM,21,1,0 581 1223
SPMM,21,4,0 581 1222
SPMM,21,5,0 581 1221
SPMM,22,1,0 581 1220
SPMM,22,4,0 581 1219
SPMM,22,5,0 581 1218
SPMM,23,1,0 581 1217
SPMM,23,4,0 581 1216
SPMM,23,5,0 581 1215
SPMM,16,10,0 536 1214
SPMM,16,11,0 536 1213
SPMM,16,15,0 536 1212
SPMM,17,10,0 536 1211
SPMM,17,11,0 536 1210
SPMM,18,11,0 536 1209
SPMM,19,8,0 536 1208
SPMM,19,11,0 536 1207
SPMM,20,8,0 536 1206
SPMM,20,11,0 536 1205
SPMM,21,8,0 536 1204
SPMM,21,11,0 536 1203
SPMM,22,8,0 536 1202
SPMM,22,9,0 536 1201
SPMM,22,11,0 536 1200
SPMM,23,8,0 536 1199
SPMM,23,9,0 536 1198
SPMM,23,11,0 536 1197
SPMM,23,12,0 536 1196
DLACPY,23,21 476 1195
SPMM,22,23,0 476 1194
SPMM,23,23,0 476 1193
DLACPY,22,21 476 1192
SPMM,21,22,0 476 1191
SPMM,22,22,0 476 1190
SPMM,23,22,0 476 1189
DLACPY,21,21 476 1188
SPMM,20,21,0 476 1187
SPMM,21,21,0 476 1186
SPMM,22,21,0 476 1185
DLACPY,20,21 476 1184
SPMM,19,20,0 476 1183
SPMM,20,20,0 476 1182
SPMM,21,20,0 476 1181
DLACPY,19,21 476 1180
SPMM,18,19,0 476 1179
SPMM,19,19,0 476 1178
SPMM,20,19,0 476 1177
DLACPY,18,21 476 1176
SPMM,17,18,0 476 1175
SPMM,18,18,0 476 1174
SPMM,19,18,0 476 1173
DLACPY,17,21 476 1172
SPMM,16,17,0 476 1171
SPMM,17,17,0 476 1170
SPMM,18,17,0 476 1169
DLACPY,16,21 476 1168
SPMM,16,16,0 476 1167
SPMM,17,16,0 476 1166
SPMM,32,23,0 496 1165
SPMM,0,16,0 611 1164
SPMM,3,16,0 611 1163
SPMM,6,16,0 611 1162
SPMM,7,16,0 611 1161
SPMM,0,17,0 611 1160
SPMM,3,17,0 611 1159
SPMM,7,17,0 611 1158
SPMM,0,18,0 611 1157
SPMM,1,18,0 611 1156
SPMM,3,18,0 611 1155
SPMM,4,18,0 611 1154
SPMM,7,18,0 611 1153
SPMM,0,19,0 611 1152
SPMM,1,19,0 611 1151
SPMM,3,19,0 611 1150
SPMM,4,19,0 611 1149
SPMM,7,19,0 611 1148
SPMM,1,20,0 611 1147
SPMM,4,20,0 611 1146
SPMM,7,20,0 611 1145
SPMM,1,21,0 611 1144
SPMM,4,21,0 611 1143
SPMM,5,21,0 611 1142
SPMM,1,22,0 611 1141
SPMM,4,22,0 611 1140
SPMM,5,22,0 611 1139
SPMM,1,23,0 611 1138
SPMM,4,23,0 611 1137
SPMM,5,23,0 611 1136
SPMM,10,16,0 486 1135
SPMM,11,16,0 486 1134
SPMM,15,16,0 486 1133
SPMM,10,17,0 486 1132
SPMM,11,17,0 486 1131
SPMM,11,18,0 486 1130
SPMM,8,19,0 486 1129
SPMM,11,19,0 486 1128
SPMM,8,20,0 486 1127
SPMM,11,20,0 486 1126
SPMM,8,21,0 486 1125
SPMM,11,21,0 486 1124
SPMM,8,22,0 486 1123
SPMM,9,22,0 486 1122
SPMM,11,22,0 486 1121
SPMM,8,23,0 486 1120
SPMM,9,23,0 486 1119
SPMM,11,23,0 486 1118
SPMM,12,23,0 486 1117
SPMM,42,16,0 506 1116
SPMM,43,16,0 506 1115
SPMM,44,16,0 506 1114
SPMM,43,17,0 506 1113
SPMM,44,17,0 506 1112
SPMM,45,17,0 506 1111
SPMM,44,18,0 506 1110
SPMM,45,18,0 506 1109
SPMM,46,18,0 506 1108
SPMM,44,19,0 506 1107
SPMM,45,19,0 506 1106
SPMM,46,19,0 506 1105
SPMM,47,19,0 506 1104
SPMM,45,20,0 506 1103
SPMM,46,20,0 506 1102
SPMM,47,20,0 506 1101
SPMM,46,21,0 506 1100
SPMM,47,21,0 506 1099
SPMM,47,22,0 506 1098
SPMM,47,23,0 506 1097
SPMM,80,16,0 491 1096
SPMM,82,16,0 491 1095
SPMM,83,16,0 491 1094
SPMM,80,17,0 491 1093
SPMM,82,17,0 491 1092
SPMM,83,17,0 491 1091
SPMM,82,18,0 491 1090
SPMM,83,18,0 491 1089
SPMM,83,19,0 491 1088
SPMM,84,19,0 491 1087
SPMM,83,20,0 491 1086
SPMM,84,20,0 491 1085
SPMM,83,21,0 491 1084
SPMM,84,21,0 491 1083
SPMM,84,22,0 491 1082
SPMM,85,22,0 491 1081
SPMM,84,23,0 491 1080
SPMM,85,23,0 491 1079
SPMM,16,42,0 805 1078
SPMM,16,43,0 805 1077
SPMM,16,44,0 805 1076
SPMM,17,43,0 805 1075
SPMM,17,44,0 805 1074
SPMM,17,45,0 805 1073
SPMM,18,44,0 805 1072
SPMM,18,45,0 805 1071
SPMM,18,46,0 805 1070
SPMM,19,44,0 805 1069
SPMM,19,45,0 805 1068
SPMM,19,46,0 805 1067
SPMM,19,47,0 805 1066
SPMM,20,45,0 805 1065
SPMM,20,46,0 805 1064
SPMM,20,47,0 805 1063
SPMM,21,46,0 805 1062
SPMM,21,47,0 805 1061
SPMM,22,47,0 805 1060
SPMM,23,47,0 805 1059
SPMM,16,80,0 646 1058
SPMM,16,82,0 646 1057
SPMM,16,83,0 646 1056
SPMM,17,82,0 646 1055
SPMM,17,83,0 646 1054
SPMM,18,82,0 646 1053
SPMM,18,83,0 646 1052
SPMM,19,83,0 646 1051
SPMM,19,84,0 646 1050
SPMM,20,83,0 646 1049
SPMM,20,84,0 646 1048
SPMM,21,83,0 646 1047
SPMM,21,84,0 646 1046
SPMM,22,84,0 646 1045
SPMM,22,85,0 646 1044
SPMM,23,84,0 646 1043
SPMM,23,85,0 646 1042
SETZERO,31,1 14 1041
SETZERO,30,1 14 1040
SETZERO,29,1 14 1039
SETZERO,28,1 14 1038
SETZERO,27,1 14 1037
SETZERO,26,1 14 1036
SETZERO,25,1 14 1035
SETZERO,24,1 14 1034
SPMM,30,40,0 800 1033
SPMM,30,41,0 800 1032
SPMM,30,42,0 800 1031
SPMM,30,43,0 800 1030
SPMM,30,44,0 800 1029
SPMM,30,45,0 800 1028
SPMM,30,46,0 800 1027
SPMM,30,47,0 800 1026
SPMM,31,45,0 800 1025
SPMM,31,46,0 800 1024
SPMM,31,47,0 800 1023
SPMM,24,1,0 571 1022
SPMM,24,5,0 571 1021
SPMM,25,1,0 571 1020
SPMM,25,2,0 571 1019
SPMM,25,5,0 571 1018
SPMM,25,6,0 571 1017
SPMM,26,1,0 571 1016
SPMM,26,2,0 571 1015
SPMM,26,5,0 571 1014
SPMM,26,6,0 571 1013
SPMM,27,0,0 571 1012
SPMM,27,2,0 571 1011
SPMM,27,3,0 571 1010
SPMM,27,6,0 571 1009
SPMM,28,0,0 571 1008
SPMM,28,1,0 571 1007
SPMM,28,2,0 571 1006
SPMM,28,3,0 571 1005
SPMM,28,4,0 571 1004
SPMM,29,1,0 571 1003
SPMM,29,2,0 571 1002
SPMM,29,4,0 571 1001
SPMM,29,5,0 571 1000
SPMM,29,6,0 571 999
SPMM,30,2,0 571 998
SPMM,30,5,0 571 997
SPMM,30,6,0 571 996
SPMM,30,7,0 571 995
SPMM,31,7,0 571 994
SPMM,24,9,0 531 993
SPMM,24,11,0 531 992
SPMM,24,12,0 531 991
SPMM,25,9,0 531 990
SPMM,25,12,0 531 989
SPMM,26,9,0 531 988
SPMM,26,10,0 531 987
SPMM,26,12,0 531 986
SPMM,27,9,0 531 985
SPMM,27,10,0 531 984
SPMM,27,12,0 531 983
SPMM,27,13,0 531 982
SPMM,27,14,0 531 981
SPMM,27,15,0 531 980
SPMM,28,13,0 531 979
SPMM,28,14,0 531 978
SPMM,28,15,0 531 977
SPMM,30,8,0 531 976
SPMM,30,10,0 531 975
SPMM,30,11,0 531 974
SPMM,30,12,0 531 973
SPMM,30,13,0 531 972
SPMM,30,14,0 531 971
SPMM,30,15,0 531 970
SPMM,31,8,0 531 969
SPMM,31,9,0 531 968
SPMM,31,10,0 531 967
SPMM,31,11,0 531 966
SPMM,31,12,0 531 965
SPMM,24,23,0 481 964
SPMM,28,16,0 481 963
SPMM,28,17,0 481 962
SPMM,28,18,0 481 961
SPMM,28,19,0 481 960
SPMM,28,20,0 481 959
SPMM,28,21,0 481 958
SPMM,29,19,0 481 957
SPMM,29,20,0 481 956
SPMM,29,21,0 481 955
SPMM,29,22,0 481 954
SPMM,29,23,0 481 953
SPMM,30,16,0 481 952
SPMM,30,17,0 481 951
SPMM,30,18,0 481 950
SPMM,30,19,0 481 949
SPMM,30,20,0 481 948
SPMM,30,21,0 481 947
SPMM,31,19,0 481 946
SPMM,31,20,0 481 945
SPMM,31,21,0 481 944
SPMM,31,22,0 481 943
SPMM,31,23,0 481 942
DLACPY,31,21 880 941
SPMM,24,31,0 880 940
SPMM,25,31,0 880 939
SPMM,26,31,0 880 938
SPMM,27,31,0 880 937
SPMM,29,31,0 880 936
SPMM,30,31,0 880 935
SPMM,31,31,0 880 934
DLACPY,30,21 880 933
SPMM,26,30,0 880 932
SPMM,27,30,0 880 931
SPMM,29,30,0 880 930
SPMM,30,30,0 880 929
SPMM,31,30,0 880 928
DLACPY,29,21 880 927
SPMM,24,29,0 880 926
SPMM,25,29,0 880 925
SPMM,26,29,0 880 924
SPMM,27,29,0 880 923
SPMM,28,29,0 880 922
SPMM,29,29,0 880 921
SPMM,30,29,0 880 920
SPMM,31,29,0 880 919
DLACPY,28,21 880 918
SPMM,27,28,0 880 917
SPMM,28,28,0 880 916
SPMM,29,28,0 880 915
DLACPY,27,21 880 914
SPMM,26,27,0 880 913
SPMM,27,27,0 880 912
SPMM,28,27,0 880 911
SPMM,29,27,0 880 910
SPMM,30,27,0 880 909
SPMM,31,27,0 880 908
DLACPY,26,21 880 907
SPMM,25,26,0 880 906
SPMM,26,26,0 880 905
SPMM,27,26,0 880 904
SPMM,29,26,0 880 903
SPMM,30,26,0 880 902
SPMM,31,26,0 880 901
DLACPY,25,21 880 900
SPMM,24,25,0 880 899
SPMM,25,25,0 880 898
SPMM,26,25,0 880 897
SPMM,29,25,0 880 896
SPMM,31,25,0 880 895
DLACPY,24,21 880 894
SPMM,24,24,0 880 893
SPMM,25,24,0 880 892
SPMM,29,24,0 880 891
SPMM,31,24,0 880 890
SPMM,40,30,0 890 889
SPMM,41,30,0 890 888
SPMM,42,30,0 890 887
SPMM,43,30,0 890 886
SPMM,44,30,0 890 885
SPMM,45,30,0 890 884
SPMM,46,30,0 890 883
SPMM,47,30,0 890 882
SPMM,45,31,0 890 881
SPMM,46,31,0 890 880
SPMM,47,31,0 890 879
XTY,47,15,21 895 878
XTY,46,14,21 895 877
XTY,45,13,21 895 876
XTY,44,12,21 895 875
XTY,43,11,21 895 874
XTY,42,10,21 895 873
XTY,41,9,21 895 872
XTY,40,8,21 895 871
SPMM,1,24,0 950 870
SPMM,5,24,0 950 869
SPMM,1,25,0 950 868
SPMM,2,25,0 950 867
SPMM,5,25,0 950 866
SPMM,6,25,0 950 865
SPMM,1,26,0 950 864
SPMM,2,26,0 950 863
SPMM,5,26,0 950 862
SPMM,6,26,0 950 861
SPMM,0,27,0 950 860
SPMM,2,27,0 950 859
SPMM,3,27,0 950 858
SPMM,6,27,0 950 857
SPMM,0,28,0 950 856
SPMM,1,28,0 950 855
SPMM,2,28,0 950 854
SPMM,3,28,0 950 853
SPMM,4,28,0 950 852
SPMM,1,29,0 950 851
SPMM,2,29,0 950 850
SPMM,4,29,0 950 849
SPMM,5,29,0 950 848
SPMM,6,29,0 950 847
SPMM,2,30,0 950 846
SPMM,5,30,0 950 845
SPMM,6,30,0 950 844
SPMM,7,30,0 950 843
SPMM,7,31,0 950 842
XTY,7,7,21 955 841
XTY,6,6,21 955 840
XTY,5,5,21 955 839
XTY,2,2,21 955 838
XTY,4,4,21 955 837
XTY,1,1,21 955 836
XTY,3,3,21 955 835
XTY,0,0,21 955 834
SPMM,9,24,0 940 833
SPMM,11,24,0 940 832
SPMM,12,24,0 940 831
SPMM,9,25,0 940 830
SPMM,12,25,0 940 829
SPMM,9,26,0 940 828
SPMM,10,26,0 940 827
SPMM,12,26,0 940 826
SPMM,9,27,0 940 825
SPMM,10,27,0 940 824
SPMM,12,27,0 940 823
SPMM,13,27,0 940 822
SPMM,14,27,0 940 821
SPMM,15,27,0 940 820
SPMM,13,28,0 940 819
SPMM,14,28,0 940 818
SPMM,15,28,0 940 817
SPMM,8,30,0 940 816
SPMM,10,30,0 940 815
SPMM,11,30,0 940 814
SPMM,12,30,0 940 813
SPMM,13,30,0 940 812
SPMM,14,30,0 940 811
SPMM,15,30,0 940 810
SPMM,8,31,0 940 809
SPMM,9,31,0 940 808
SPMM,10,31,0 940 807
SPMM,11,31,0 940 806
SPMM,12,31,0 940 805
XTY,12,12,21 945 804
XTY,11,11,21 945 803
XTY,10,10,21 945 802
XTY,9,9,21 945 801
XTY,8,8,21 945 800
XTY,15,15,21 945 799
XTY,14,14,21 945 798
XTY,13,13,21 945 797
SPMM,23,24,0 930 796
SPMM,16,28,0 930 795
SPMM,17,28,0 930 794
SPMM,18,28,0 930 793
SPMM,19,28,0 930 792
SPMM,20,28,0 930 791
SPMM,21,28,0 930 790
SPMM,19,29,0 930 789
SPMM,20,29,0 930 788
SPMM,21,29,0 930 787
SPMM,22,29,0 930 786
SPMM,23,29,0 930 785
SPMM,16,30,0 930 784
SPMM,17,30,0 930 783
SPMM,18,30,0 930 782
SPMM,19,30,0 930 781
SPMM,20,30,0 930 780
SPMM,21,30,0 930 779
SPMM,19,31,0 930 778
SPMM,20,31,0 930 777
SPMM,21,31,0 930 776
SPMM,22,31,0 930 775
SPMM,23,31,0 930 774
XTY,23,7,21 935 773
XTY,22,6,21 935 772
XTY,21,5,21 935 771
XTY,20,4,21 935 770
XTY,19,3,21 935 769
XTY,18,2,21 935 768
XTY,17,1,21 935 767
XTY,16,0,21 935 766
SPMM,32,24,0 910 765
SPMM,32,25,0 910 764
SPMM,32,26,0 910 763
SPMM,32,27,0 910 762
SPMM,32,29,0 910 761
SPMM,32,30,0 910 760
SPMM,32,31,0 910 759
XTY,32,0,21 915 758
XTY,36,4,21 915 757
XTY,35,3,21 915 756
XTY,34,2,21 915 755
XTY,33,1,21 915 754
XTY,39,7,21 915 753
XTY,38,6,21 915 752
XTY,37,5,21 915 751
SPMM,85,24,0 900 750
SPMM,85,25,0 900 749
SPMM,80,27,0 900 748
SPMM,80,28,0 900 747
SPMM,82,28,0 900 746
SPMM,83,28,0 900 745
SPMM,84,28,0 900 744
SPMM,83,29,0 900 743
SPMM,84,29,0 900 742
SPMM,85,29,0 900 741
SPMM,85,31,0 900 740
XTY,85,5,21 905 739
XTY,84,4,21 905 738
XTY,83,3,21 905 737
XTY,82,2,21 905 736
XTY,80,0,21 905 735
XTY,81,1,21 905 734
XTY,87,7,21 905 733
XTY,86,6,21 905 732
SPMM,24,32,0 732 731
SPMM,25,32,0 732 730
SPMM,26,32,0 732 729
SPMM,27,32,0 732 728
SPMM,29,32,0 732 727
SPMM,30,32,0 732 726
SPMM,31,32,0 732 725
SPMM,24,48,0 662 724
SPMM,24,49,0 662 723
SPMM,24,50,0 662 722
SPMM,25,49,0 662 721
SPMM,25,50,0 662 720
SPMM,25,51,0 662 719
SPMM,26,49,0 662 718
SPMM,26,50,0 662 717
SPMM,26,51,0 662 716
SPMM,26,52,0 662 715
SPMM,27,50,0 662 714
SPMM,27,51,0 662 713
SPMM,27,52,0 662 712
SPMM,31,48,0 662 711
SPMM,31,49,0 662 710
SPMM,31,50,0 662 709
SPMM,31,51,0 662 708
SPMM,31,52,0 662 707
SPMM,24,85,0 651 706
SPMM,27,80,0 651 705
SPMM,28,80,0 651 704
SPMM,28,82,0 651 703
SPMM,28,83,0 651 702
SPMM,28,84,0 651 701
SPMM,29,83,0 651 700
SPMM,29,84,0 651 699
SPMM,29,85,0 651 698
SPMM,31,85,0 651 697
XTY,31,15,21 885 696
XTY,29,13,21 885 695
XTY,28,12,21 885 694
XTY,27,11,21 885 693
XTY,24,8,21 885 692
XTY,26,10,21 885 691
XTY,25,9,21 885 690
XTY,30,14,21 885 689
SETZERO,55,1 9 688
SETZERO,54,1 9 687
SETZERO,53,1 9 686
SETZERO,52,1 9 685
SETZERO,51,1 9 684
SETZERO,50,1 9 683
SETZERO,49,1 9 682
SETZERO,48,1 9 681
SPMM,55,56,0 702 680
SPMM,54,101,0 576 679
SPMM,54,102,0 576 678
SPMM,54,103,0 576 677
SPMM,55,101,0 576 676
SPMM,55,102,0 576 675
SPMM,55,103,0 576 674
SPMM,54,104,0 616 673
SPMM,55,104,0 616 672
SPMM,55,105,0 616 671
SPMM,55,106,0 616 670
SPMM,55,107,0 616 669
SPMM,55,108,0 616 668
SPMM,50,72,0 436 667
SPMM,51,72,0 436 666
SPMM,51,73,0 436 665
SPMM,52,72,0 436 664
SPMM,52,73,0 436 663
SPMM,52,74,0 436 662
SPMM,53,73,0 436 661
SPMM,53,74,0 436 660
SPMM,53,75,0 436 659
SPMM,54,74,0 436 658
SPMM,54,75,0 436 657
SPMM,54,76,0 436 656
SPMM,55,75,0 436 655
SPMM,55,76,0 436 654
SPMM,55,77,0 436 653
SPMM,48,21,0 501 652
SPMM,48,22,0 501 651
SPMM,48,23,0 501 650
SPMM,49,22,0 501 649
SPMM,49,23,0 501 648
SPMM,48,24,0 920 647
SPMM,48,31,0 920 646
SPMM,49,24,0 920 645
SPMM,49,25,0 920 644
SPMM,49,26,0 920 643
SPMM,49,31,0 920 642
SPMM,50,24,0 920 641
SPMM,50,25,0 920 640
SPMM,50,26,0 920 639
SPMM,50,27,0 920 638
SPMM,50,31,0 920 637
SPMM,51,25,0 920 636
SPMM,51,26,0 920 635
SPMM,51,27,0 920 634
SPMM,51,31,0 920 633
SPMM,48,47,0 865 632
SPMM,48,48,0 860 631
SPMM,48,49,0 860 630
SPMM,49,48,0 860 629
SPMM,49,49,0 860 628
SPMM,49,50,0 860 627
SPMM,50,49,0 860 626
SPMM,50,50,0 860 625
SPMM,50,51,0 860 624
SPMM,51,50,0 860 623
SPMM,51,51,0 860 622
SPMM,51,52,0 860 621
SPMM,52,51,0 860 620
SPMM,52,52,0 860 619
SPMM,52,53,0 860 618
SPMM,53,52,0 860 617
SPMM,53,53,0 860 616
SPMM,53,54,0 860 615
SPMM,54,53,0 860 614
SPMM,54,54,0 860 613
SPMM,54,55,0 860 612
SPMM,55,54,0 860 611
SPMM,55,55,0 860 610
SPMM,48,68,0 586 609
SPMM,48,69,0 586 608
SPMM,48,70,0 586 607
SPMM,49,69,0 586 606
SPMM,49,70,0 586 605
SPMM,49,71,0 586 604
SPMM,50,70,0 586 603
SPMM,50,71,0 586 602
SPMM,51,71,0 586 601
XTY,51,3,21 925 600
XTY,50,2,21 925 599
XTY,49,1,21 925 598
XTY,48,0,21 925 597
XTY,55,7,21 925 596
XTY,54,6,21 925 595
XTY,53,5,21 925 594
XTY,52,4,21 925 593
SETZERO,63,1 4 592
SETZERO,62,1 4 591
SETZERO,61,1 4 590
SETZERO,60,1 4 589
SETZERO,59,1 4 588
SETZERO,58,1 4 587
SETZERO,57,1 4 586
SETZERO,56,1 4 585
SPMM,63,64,0 416 584
SPMM,60,40,0 742 583
SPMM,61,40,0 742 582
SPMM,61,41,0 742 581
SPMM,62,40,0 742 580
SPMM,62,41,0 742 579
SPMM,62,42,0 742 578
SPMM,63,41,0 742 577
SPMM,63,42,0 742 576
SPMM,63,43,0 742 575
SPMM,59,112,0 366 574
SPMM,60,112,0 366 573
SPMM,61,112,0 366 572
SPMM,61,113,0 366 571
SPMM,62,112,0 366 570
SPMM,62,113,0 366 569
SPMM,62,114,0 366 568
SPMM,63,113,0 366 567
SPMM,63,114,0 366 566
SPMM,57,36,0 782 565
SPMM,57,37,0 782 564
SPMM,58,36,0 782 563
SPMM,58,37,0 782 562
SPMM,58,38,0 782 561
SPMM,59,37,0 782 560
SPMM,59,38,0 782 559
SPMM,59,39,0 782 558
SPMM,60,38,0 782 557
SPMM,60,39,0 782 556
SPMM,61,39,0 782 555
SPMM,56,55,0 787 554
SPMM,56,56,0 682 553
SPMM,56,57,0 682 552
SPMM,57,56,0 682 551
SPMM,57,57,0 682 550
SPMM,57,58,0 682 549
SPMM,58,57,0 682 548
SPMM,58,58,0 682 547
SPMM,58,59,0 682 546
SPMM,59,58,0 682 545
SPMM,59,59,0 682 544
SPMM,59,60,0 682 543
SPMM,60,59,0 682 542
SPMM,60,60,0 682 541
SPMM,60,61,0 682 540
SPMM,61,60,0 682 539
SPMM,61,61,0 682 538
SPMM,61,62,0 682 537
SPMM,62,61,0 682 536
SPMM,62,62,0 682 535
SPMM,62,63,0 682 534
SPMM,63,62,0 682 533
SPMM,63,63,0 682 532
SPMM,56,76,0 441 531
SPMM,56,77,0 441 530
SPMM,56,78,0 441 529
SPMM,57,77,0 441 528
SPMM,57,78,0 441 527
SPMM,56,103,0 621 526
SPMM,56,104,0 626 525
SPMM,56,105,0 626 524
SPMM,56,106,0 626 523
SPMM,56,107,0 626 522
SPMM,56,108,0 626 521
SPMM,56,109,0 626 520
SPMM,56,110,0 626 519
SPMM,57,106,0 626 518
SPMM,57,107,0 626 517
SPMM,57,108,0 626 516
SPMM,57,109,0 626 515
SPMM,57,110,0 626 514
SPMM,57,111,0 626 513
SPMM,58,110,0 626 512
SPMM,58,111,0 626 511
SPMM,59,110,0 626 510
SPMM,59,111,0 626 509
SPMM,60,111,0 626 508
XTY,60,12,21 792 507
XTY,59,11,21 792 506
XTY,58,10,21 792 505
XTY,57,9,21 792 504
XTY,56,8,21 792 503
XTY,63,15,21 792 502
XTY,62,14,21 792 501
XTY,61,13,21 792 500
RED,XAXBUF,0 961 499
SPEUPDATE,XAX 962 498
EIGEN 962 497
XY,0,21 1120 496
XY,1,21 1120 495
XY,2,21 1120 494
XY,3,21 1120 493
XY,4,21 1120 492
XY,5,21 1120 491
XY,6,21 1120 490
XY,7,21 1120 489
DLACPY,7,22 1125 488
DLACPY,6,22 1125 487
DLACPY,5,22 1125 486
DLACPY,4,22 1125 485
DLACPY,3,22 1125 484
DLACPY,2,22 1125 483
DLACPY,1,22 1125 482
DLACPY,0,22 1125 481
XY,8,21 1087 480
XY,9,21 1087 479
XY,10,21 1087 478
XY,11,21 1087 477
XY,12,21 1087 476
XY,13,21 1087 475
XY,14,21 1087 474
XY,15,21 1087 473
DLACPY,15,22 1092 472
DLACPY,14,22 1092 471
DLACPY,13,22 1092 470
DLACPY,12,22 1092 469
DLACPY,11,22 1092 468
DLACPY,10,22 1092 467
DLACPY,9,22 1092 466
DLACPY,8,22 1092 465
XY,16,21 1115 464
XY,17,21 1115 463
XY,18,21 1115 462
XY,19,21 1115 461
XY,20,21 1115 460
XY,21,21 1115 459
XY,22,21 1115 458
XY,23,21 1115 457
DLACPY,23,22 1215 456
DLACPY,22,22 1215 455
DLACPY,21,22 1215 454
DLACPY,20,22 1215 453
DLACPY,19,22 1215 452
DLACPY,18,22 1215 451
DLACPY,17,22 1215 450
DLACPY,16,22 1215 449
XY,24,21 1106 448
XY,25,21 1106 447
XY,26,21 1106 446
XY,27,21 1106 445
XY,28,21 1106 444
XY,29,21 1106 443
XY,30,21 1106 442
XY,31,21 1106 441
DLACPY,31,22 1150 440
DLACPY,30,22 1150 439
DLACPY,29,22 1150 438
DLACPY,28,22 1150 437
DLACPY,27,22 1150 436
DLACPY,26,22 1150 435
DLACPY,25,22 1150 434
DLACPY,24,22 1150 433
XY,32,21 1130 432
XY,33,21 1130 431
XY,34,21 1130 430
XY,35,21 1130 429
XY,36,21 1130 428
XY,37,21 1130 427
XY,38,21 1130 426
XY,39,21 1130 425
DLACPY,39,22 1135 424
DLACPY,38,22 1135 423
DLACPY,37,22 1135 422
DLACPY,36,22 1135 421
DLACPY,35,22 1135 420
DLACPY,34,22 1135 419
DLACPY,33,22 1135 418
DLACPY,32,22 1135 417
XY,40,21 967 416
XY,41,21 967 415
XY,42,21 967 414
XY,43,21 967 413
XY,44,21 967 412
XY,45,21 967 411
XY,46,21 967 410
XY,47,21 967 409
DLACPY,47,22 972 408
DLACPY,46,22 972 407
DLACPY,45,22 972 406
DLACPY,44,22 972 405
DLACPY,43,22 972 404
DLACPY,42,22 972 403
DLACPY,41,22 972 402
DLACPY,40,22 972 401
XY,48,21 1200 400
XY,49,21 1200 399
XY,50,21 1200 398
XY,51,21 1200 397
XY,52,21 1200 396
XY,53,21 1200 395
XY,54,21 1200 394
XY,55,21 1200 393
DLACPY,55,22 1205 392
DLACPY,54,22 1205 391
DLACPY,53,22 1205 390
DLACPY,52,22 1205 389
DLACPY,51,22 1205 388
DLACPY,50,22 1205 387
DLACPY,49,22 1205 386
DLACPY,48,22 1205 385
XY,56,21 1260 384
XY,57,21 1260 383
XY,58,21 1260 382
XY,59,21 1260 381
XY,60,21 1260 380
XY,61,21 1260 379
XY,62,21 1260 378
XY,63,21 1260 377
DLACPY,63,22 1265 376
DLACPY,62,22 1265 375
DLACPY,61,22 1265 374
DLACPY,60,22 1265 373
DLACPY,59,22 1265 372
DLACPY,58,22 1265 371
DLACPY,57,22 1265 370
DLACPY,56,22 1265 369
XY,64,21 1160 368
XY,65,21 1160 367
XY,66,21 1160 366
XY,67,21 1160 365
XY,68,21 1160 364
XY,69,21 1160 363
XY,70,21 1160 362
XY,71,21 1160 361
DLACPY,71,22 1165 360
DLACPY,70,22 1165 359
DLACPY,69,22 1165 358
DLACPY,68,22 1165 357
DLACPY,67,22 1165 356
DLACPY,66,22 1165 355
DLACPY,65,22 1165 354
DLACPY,64,22 1165 353
XY,72,21 1057 352
XY,73,21 1057 351
XY,74,21 1057 350
XY,75,21 1057 349
XY,76,21 1057 348
XY,77,21 1057 347
XY,78,21 1057 346
XY,79,21 1057 345
DLACPY,79,22 1062 344
DLACPY,78,22 1062 343
DLACPY,77,22 1062 342
DLACPY,76,22 1062 341
DLACPY,75,22 1062 340
DLACPY,74,22 1062 339
DLACPY,73,22 1062 338
DLACPY,72,22 1062 337
XY,80,21 1180 336
XY,81,21 1180 335
XY,82,21 1180 334
XY,83,21 1180 333
XY,84,21 1180 332
XY,85,21 1180 331
XY,86,21 1180 330
XY,87,21 1180 329
DLACPY,87,22 1185 328
DLACPY,86,22 1185 327
DLACPY,85,22 1185 326
DLACPY,84,22 1185 325
DLACPY,83,22 1185 324
DLACPY,82,22 1185 323
DLACPY,81,22 1185 322
DLACPY,80,22 1185 321
XY,88,21 1240 320
XY,89,21 1240 319
XY,90,21 1240 318
XY,91,21 1240 317
XY,92,21 1240 316
XY,93,21 1240 315
XY,94,21 1240 314
XY,95,21 1240 313
DLACPY,95,22 1245 312
DLACPY,94,22 1245 311
DLACPY,93,22 1245 310
DLACPY,92,22 1245 309
DLACPY,91,22 1245 308
DLACPY,90,22 1245 307
DLACPY,89,22 1245 306
DLACPY,88,22 1245 305
XY,96,21 1140 304
XY,97,21 1140 303
XY,98,21 1140 302
XY,99,21 1140 301
XY,100,21 1140 300
XY,101,21 1140 299
XY,102,21 1140 298
XY,103,21 1140 297
DLACPY,103,22 1145 296
DLACPY,102,22 1145 295
DLACPY,101,22 1145 294
DLACPY,100,22 1145 293
DLACPY,99,22 1145 292
DLACPY,98,22 1145 291
DLACPY,97,22 1145 290
DLACPY,96,22 1145 289
XY,104,21 1190 288
XY,105,21 1190 287
XY,106,21 1190 286
XY,107,21 1190 285
XY,108,21 1190 284
XY,109,21 1190 283
XY,110,21 1190 282
XY,111,21 1190 281
DLACPY,111,22 1195 280
DLACPY,110,22 1195 279
DLACPY,109,22 1195 278
DLACPY,108,22 1195 277
DLACPY,107,22 1195 276
DLACPY,106,22 1195 275
DLACPY,105,22 1195 274
DLACPY,104,22 1195 273
XY,112,21 1230 272
XY,113,21 1230 271
XY,114,21 1230 270
XY,115,21 1230 269
XY,116,21 1230 268
XY,117,21 1230 267
XY,118,21 1230 266
XY,119,21 1230 265
DLACPY,119,22 1235 264
DLACPY,118,22 1235 263
DLACPY,117,22 1235 262
DLACPY,116,22 1235 261
DLACPY,115,22 1235 260
DLACPY,114,22 1235 259
DLACPY,113,22 1235 258
DLACPY,112,22 1235 257
XY,120,21 1220 256
XY,121,21 1220 255
XY,122,21 1220 254
XY,123,21 1220 253
DLACPY,123,22 1225 252
DLACPY,122,22 1225 251
DLACPY,121,22 1225 250
DLACPY,120,22 1225 249
XY,0,22 1052 248
DLACPY,0,23 1052 247
XY,1,22 1052 246
DLACPY,1,23 1052 245
XY,2,22 1052 244
DLACPY,2,23 1052 243
XY,3,22 1052 242
DLACPY,3,23 1052 241
XY,4,22 1052 240
DLACPY,4,23 1052 239
XY,5,22 1052 238
DLACPY,5,23 1052 237
XY,6,22 1052 236
DLACPY,6,23 1052 235
XY,7,22 1052 234
DLACPY,7,23 1052 233
XY,8,22 1027 232
XY,9,22 1027 231
XY,10,22 1027 230
XY,11,22 1027 229
XY,12,22 1027 228
XY,13,22 1027 227
XY,14,22 1027 226
XY,15,22 1027 225
DLACPY,15,23 1032 224
DLACPY,14,23 1032 223
DLACPY,13,23 1032 222
DLACPY,12,23 1032 221
DLACPY,11,23 1032 220
DLACPY,10,23 1032 219
DLACPY,9,23 1032 218
DLACPY,8,23 1032 217
XY,16,22 1077 216
XY,17,22 1077 215
XY,18,22 1077 214
XY,19,22 1077 213
XY,20,22 1077 212
XY,21,22 1077 211
XY,22,22 1077 210
XY,23,22 1077 209
DLACPY,23,23 1082 208
DLACPY,22,23 1082 207
DLACPY,21,23 1082 206
DLACPY,20,23 1082 205
DLACPY,19,23 1082 204
DLACPY,18,23 1082 203
DLACPY,17,23 1082 202
DLACPY,16,23 1082 201
XY,24,22 1037 200
XY,25,22 1037 199
XY,26,22 1037 198
XY,27,22 1037 197
XY,28,22 1037 196
XY,29,22 1037 195
XY,30,22 1037 194
XY,31,22 1037 193
DLACPY,31,23 1042 192
DLACPY,30,23 1042 191
DLACPY,29,23 1042 190
DLACPY,28,23 1042 189
DLACPY,27,23 1042 188
DLACPY,26,23 1042 187
DLACPY,25,23 1042 186
DLACPY,24,23 1042 185
XY,32,22 1067 184
XY,33,22 1067 183
XY,34,22 1067 182
XY,35,22 1067 181
XY,36,22 1067 180
XY,37,22 1067 179
XY,38,22 1067 178
XY,39,22 1067 177
DLACPY,39,23 1072 176
DLACPY,38,23 1072 175
DLACPY,37,23 1072 174
DLACPY,36,23 1072 173
DLACPY,35,23 1072 172
DLACPY,34,23 1072 171
DLACPY,33,23 1072 170
DLACPY,32,23 1072 169
XY,40,22 997 168
DLACPY,40,23 997 167
XY,41,22 997 166
DLACPY,41,23 997 165
XY,42,22 997 164
DLACPY,42,23 997 163
XY,43,22 997 162
DLACPY,43,23 997 161
XY,44,22 997 160
DLACPY,44,23 997 159
XY,45,22 997 158
DLACPY,45,23 997 157
XY,46,22 997 156
DLACPY,46,23 997 155
XY,47,22 997 154
DLACPY,47,23 997 153
XY,48,22 1017 152
XY,49,22 1017 151
XY,50,22 1017 150
XY,51,22 1017 149
XY,52,22 1017 148
XY,53,22 1017 147
XY,54,22 1017 146
XY,55,22 1017 145
DLACPY,55,23 1022 144
DLACPY,54,23 1022 143
DLACPY,53,23 1022 142
DLACPY,52,23 1022 141
DLACPY,51,23 1022 140
DLACPY,50,23 1022 139
DLACPY,49,23 1022 138
DLACPY,48,23 1022 137
XY,56,22 987 136
XY,57,22 987 135
XY,58,22 987 134
XY,59,22 987 133
XY,60,22 987 132
XY,61,22 987 131
XY,62,22 987 130
XY,63,22 987 129
DLACPY,63,23 992 128
DLACPY,62,23 992 127
DLACPY,61,23 992 126
DLACPY,60,23 992 125
DLACPY,59,23 992 124
DLACPY,58,23 992 123
DLACPY,57,23 992 122
DLACPY,56,23 992 121
XY,64,22 1110 120
XY,65,22 1110 119
XY,66,22 1110 118
XY,67,22 1110 117
XY,68,22 1110 116
XY,69,22 1110 115
XY,70,22 1110 114
XY,71,22 1110 113
DLACPY,71,23 1155 112
DLACPY,70,23 1155 111
DLACPY,69,23 1155 110
DLACPY,68,23 1155 109
DLACPY,67,23 1155 108
DLACPY,66,23 1155 107
DLACPY,65,23 1155 106
DLACPY,64,23 1155 105
XY,72,22 1097 104
XY,73,22 1097 103
XY,74,22 1097 102
XY,75,22 1097 101
XY,76,22 1097 100
XY,77,22 1097 99
XY,78,22 1097 98
XY,79,22 1097 97
DLACPY,79,23 1102 96
DLACPY,78,23 1102 95
DLACPY,77,23 1102 94
DLACPY,76,23 1102 93
DLACPY,75,23 1102 92
DLACPY,74,23 1102 91
DLACPY,73,23 1102 90
DLACPY,72,23 1102 89
XY,80,22 977 88
XY,81,22 977 87
XY,82,22 977 86
XY,83,22 977 85
XY,84,22 977 84
XY,85,22 977 83
XY,86,22 977 82
XY,87,22 977 81
DLACPY,87,23 1002 80
DLACPY,86,23 1002 79
DLACPY,85,23 1002 78
DLACPY,84,23 1002 77
DLACPY,83,23 1002 76
DLACPY,82,23 1002 75
DLACPY,81,23 1002 74
DLACPY,80,23 1002 73
XY,88,22 982 72
XY,89,22 982 71
XY,90,22 982 70
XY,91,22 982 69
XY,92,22 982 68
XY,93,22 982 67
XY,94,22 982 66
XY,95,22 982 65
DLACPY,95,23 1047 64
DLACPY,94,23 1047 63
DLACPY,93,23 1047 62
DLACPY,92,23 1047 61
DLACPY,91,23 1047 60
DLACPY,90,23 1047 59
DLACPY,89,23 1047 58
DLACPY,88,23 1047 57
XY,96,22 1170 56
XY,97,22 1170 55
XY,98,22 1170 54
XY,99,22 1170 53
XY,100,22 1170 52
XY,101,22 1170 51
XY,102,22 1170 50
XY,103,22 1170 49
DLACPY,103,23 1175 48
DLACPY,102,23 1175 47
DLACPY,101,23 1175 46
DLACPY,100,23 1175 45
DLACPY,99,23 1175 44
DLACPY,98,23 1175 43
DLACPY,97,23 1175 42
DLACPY,96,23 1175 41
XY,104,22 1210 40
DLACPY,104,23 1210 39
XY,105,22 1210 38
DLACPY,105,23 1210 37
XY,106,22 1210 36
DLACPY,106,23 1210 35
XY,107,22 1210 34
DLACPY,107,23 1210 33
XY,108,22 1210 32
DLACPY,108,23 1210 31
XY,109,22 1210 30
DLACPY,109,23 1210 29
XY,110,22 1210 28
DLACPY,110,23 1210 27
XY,111,22 1210 26
DLACPY,111,23 1210 25
XY,112,22 1250 24
XY,113,22 1250 23
XY,114,22 1250 22
XY,115,22 1250 21
XY,116,22 1250 20
XY,117,22 1250 19
XY,118,22 1250 18
XY,119,22 1250 17
DLACPY,119,23 1255 16
DLACPY,118,23 1255 15
DLACPY,117,23 1255 14
DLACPY,116,23 1255 13
DLACPY,115,23 1255 12
DLACPY,114,23 1255 11
DLACPY,113,23 1255 10
DLACPY,112,23 1255 9
XY,120,22 1007 8
XY,121,22 1007 7
XY,122,22 1007 6
XY,123,22 1007 5
DLACPY,123,23 1012 4
DLACPY,122,23 1012 3
DLACPY,121,23 1012 2
DLACPY,120,23 1012 1
