_AX,30 28 980
_AX,29 28 979
_AX,28 28 978
_AX,27 28 977
_AX,26 28 976
_AX,25 28 975
_AX,24 28 974
_X,7 21 973
_X,6 21 972
_X,5 21 971
_X,4 21 970
_X,3 21 969
_X,2 21 968
_X,1 21 967
_X,0 21 966
_lambda 6 965
_X,30 13 964
XY,30,1 13 963
_X,29 13 962
XY,29,1 13 961
_X,28 13 960
XY,28,1 13 959
_X,27 13 958
XY,27,1 13 957
_X,26 13 956
XY,26,1 13 955
_X,25 13 954
XY,25,1 13 953
_X,24 13 952
XY,24,1 13 951
SUB,24,1 50 950
MULT,24 50 949
SUB,25,1 50 948
MULT,25 50 947
SUB,26,1 50 946
MULT,26 50 945
SUB,27,1 50 944
MULT,27 50 943
SUB,28,1 50 942
MULT,28 50 941
SUB,29,1 50 940
MULT,29 50 939
SUB,30,1 50 938
MULT,30 50 937
COL,30,10 51 936
COL,29,9 51 935
COL,28,8 51 934
COL,27,7 51 933
COL,26,6 51 932
COL,25,5 51 931
COL,24,4 51 930
SETZERO,15,1 5 929
SETZERO,14,1 5 928
SETZERO,13,1 5 927
SETZERO,12,1 5 926
SETZERO,11,1 5 925
SETZERO,10,1 5 924
SETZERO,9,1 5 923
SETZERO,8,1 5 922
_AX,15 4 921
_AX,14 4 920
_AX,13 4 919
_AX,12 4 918
_AX,11 4 917
_AX,10 4 916
_AX,9 4 915
_AX,8 4 914
_X,15 57 913
XY,15,1 57 912
SUB,15,1 57 911
_X,14 57 910
XY,14,1 57 909
SUB,14,1 57 908
_X,13 57 907
XY,13,1 57 906
SUB,13,1 57 905
_X,12 57 904
XY,12,1 57 903
SUB,12,1 57 902
_X,11 57 901
XY,11,1 57 900
SUB,11,1 57 899
_X,10 57 898
XY,10,1 57 897
SUB,10,1 57 896
_X,9 57 895
XY,9,1 57 894
SUB,9,1 57 893
_X,8 57 892
XY,8,1 57 891
SUB,8,1 57 890
MULT,8 63 889
MULT,9 63 888
MULT,10 63 887
MULT,11 63 886
MULT,12 63 885
MULT,13 63 884
MULT,14 63 883
MULT,15 63 882
SETZERO,7,1 3 881
SETZERO,6,1 3 880
SETZERO,5,1 3 879
SETZERO,4,1 3 878
SETZERO,3,1 3 877
SETZERO,2,1 3 876
SETZERO,1,1 3 875
SETZERO,0,1 3 874
_AX,7 2 873
_AX,6 2 872
_AX,5 2 871
_AX,4 2 870
_AX,3 2 869
_AX,2 2 868
_AX,1 2 867
_AX,0 2 866
XY,0,1 27 865
SUB,0,1 27 864
XY,1,1 27 863
SUB,1,1 27 862
XY,2,1 27 861
SUB,2,1 27 860
XY,3,1 27 859
SUB,3,1 27 858
XY,4,1 27 857
SUB,4,1 27 856
XY,5,1 27 855
SUB,5,1 27 854
XY,6,1 27 853
SUB,6,1 27 852
XY,7,1 27 851
SUB,7,1 27 850
MULT,7 35 849
COL,7,7 35 848
MULT,6 35 847
COL,6,6 35 846
MULT,5 35 845
COL,5,5 35 844
MULT,4 35 843
COL,4,4 35 842
MULT,3 35 841
COL,3,3 35 840
MULT,2 35 839
COL,2,2 35 838
MULT,1 35 837
COL,1,1 35 836
MULT,0 35 835
COL,0,0 35 834
SETZERO,23,1 1 833
SETZERO,22,1 1 832
SETZERO,21,1 1 831
SETZERO,20,1 1 830
SETZERO,19,1 1 829
SETZERO,18,1 1 828
SETZERO,17,1 1 827
SETZERO,16,1 1 826
RESET,RN 1 825
_X,23 0 824
_X,22 0 823
_X,21 0 822
_X,20 0 821
_X,19 0 820
_X,18 0 819
_X,17 0 818
_X,16 0 817
XY,16,1 20 816
XY,17,1 20 815
XY,18,1 20 814
XY,19,1 20 813
XY,20,1 20 812
XY,21,1 20 811
XY,22,1 20 810
XY,23,1 20 809
_AX,23 42 808
SUB,23,1 42 807
MULT,23 42 806
_AX,22 42 805
SUB,22,1 42 804
MULT,22 42 803
_AX,21 42 802
SUB,21,1 42 801
MULT,21 42 800
_AX,20 42 799
SUB,20,1 42 798
MULT,20 42 797
_AX,19 42 796
SUB,19,1 42 795
MULT,19 42 794
_AX,18 42 793
SUB,18,1 42 792
MULT,18 42 791
_AX,17 42 790
SUB,17,1 42 789
MULT,17 42 788
_AX,16 42 787
SUB,16,1 42 786
MULT,16 42 785
COL,16,16 43 784
COL,17,17 43 783
COL,18,18 43 782
COL,19,19 43 781
COL,20,0 43 780
COL,21,1 43 779
COL,22,2 43 778
COL,23,3 43 777
COL,15,15 64 776
COL,14,14 64 775
COL,13,13 64 774
COL,12,12 64 773
COL,11,11 64 772
COL,10,10 64 771
COL,9,9 64 770
COL,8,8 64 769
RNRED,RNBUF 64 768
SQRT,RN 65 767
RESET,actMask 65 766
CONV,actMask 65 765
GET,0,1 86 764
XTY,0,0,1 86 763
GET,1,1 86 762
XTY,1,1,1 86 761
GET,2,1 86 760
XTY,2,2,1 86 759
GET,3,1 86 758
XTY,3,3,1 86 757
GET,4,1 86 756
XTY,4,4,1 86 755
GET,5,1 86 754
XTY,5,5,1 86 753
GET,6,1 86 752
XTY,6,6,1 86 751
GET,7,1 86 750
XTY,7,7,1 86 749
GET,8,1 92 748
GET,9,1 92 747
GET,10,1 92 746
GET,11,1 92 745
GET,12,1 92 744
GET,13,1 92 743
GET,14,1 92 742
GET,15,1 92 741
XTY,15,15,1 94 740
XTY,14,14,1 94 739
XTY,13,13,1 94 738
XTY,12,12,1 94 737
XTY,11,11,1 94 736
XTY,10,10,1 94 735
XTY,9,9,1 94 734
XTY,8,8,1 94 733
GET,16,1 79 732
XTY,16,16,1 79 731
GET,17,1 79 730
XTY,17,17,1 79 729
GET,18,1 79 728
XTY,18,18,1 79 727
GET,19,1 79 726
XTY,19,19,1 79 725
GET,20,1 79 724
XTY,20,0,1 79 723
GET,21,1 79 722
XTY,21,1,1 79 721
GET,22,1 79 720
XTY,22,2,1 79 719
GET,23,1 79 718
XTY,23,3,1 79 717
GET,24,1 72 716
XTY,24,4,1 72 715
GET,25,1 72 714
XTY,25,5,1 72 713
GET,26,1 72 712
XTY,26,6,1 72 711
GET,27,1 72 710
XTY,27,7,1 72 709
GET,28,1 72 708
XTY,28,8,1 72 707
GET,29,1 72 706
XTY,29,9,1 72 705
GET,30,1 72 704
XTY,30,10,1 72 703
RED,temp2BUF,0 95 702
XY,0,2 112 701
XY,1,2 112 700
XY,2,2 112 699
XY,3,2 112 698
XY,4,2 112 697
XY,5,2 112 696
XY,6,2 112 695
XY,7,2 112 694
SUB,7,2 118 693
SUB,6,2 118 692
SUB,5,2 118 691
SUB,4,2 118 690
SUB,3,2 118 689
SUB,2,2 118 688
SUB,1,2 118 687
SUB,0,2 118 686
XTY,0,0,2 119 685
XTY,1,1,2 119 684
XTY,2,2,2 119 683
XTY,3,3,2 119 682
XTY,4,4,2 119 681
XTY,5,5,2 119 680
XTY,6,6,2 119 679
XTY,7,7,2 119 678
XY,8,2 101 677
XY,9,2 101 676
XY,10,2 101 675
XY,11,2 101 674
XY,12,2 101 673
XY,13,2 101 672
XY,14,2 101 671
XY,15,2 101 670
SUB,15,2 105 669
XTY,15,15,2 105 668
SUB,14,2 105 667
XTY,14,14,2 105 666
SUB,13,2 105 665
XTY,13,13,2 105 664
SUB,12,2 105 663
XTY,12,12,2 105 662
SUB,11,2 105 661
XTY,11,11,2 105 660
SUB,10,2 105 659
XTY,10,10,2 105 658
SUB,9,2 105 657
XTY,9,9,2 105 656
SUB,8,2 105 655
XTY,8,8,2 105 654
XY,16,2 136 653
XY,17,2 136 652
XY,18,2 136 651
XY,19,2 136 650
XY,20,2 136 649
XY,21,2 136 648
XY,22,2 136 647
XY,23,2 136 646
SUB,23,2 137 645
XTY,23,3,2 137 644
SUB,22,2 137 643
XTY,22,2,2 137 642
SUB,21,2 137 641
XTY,21,1,2 137 640
SUB,20,2 137 639
XTY,20,0,2 137 638
SUB,19,2 137 637
XTY,19,19,2 137 636
SUB,18,2 137 635
XTY,18,18,2 137 634
SUB,17,2 137 633
XTY,17,17,2 137 632
SUB,16,2 137 631
XTY,16,16,2 137 630
XY,24,2 126 629
XY,25,2 126 628
XY,26,2 126 627
XY,27,2 126 626
XY,28,2 126 625
XY,29,2 126 624
XY,30,2 126 623
SUB,30,2 130 622
XTY,30,10,2 130 621
SUB,29,2 130 620
XTY,29,9,2 130 619
SUB,28,2 130 618
XTY,28,8,2 130 617
SUB,27,2 130 616
XTY,27,7,2 130 615
SUB,26,2 130 614
XTY,26,6,2 130 613
SUB,25,2 130 612
XTY,25,5,2 130 611
SUB,24,2 130 610
XTY,24,4,2 130 609
RED,RBRBUF,0 138 608
CHOL,RBR 139 607
INV,RBR 139 606
SETZERO,30,1 139 605
SETZERO,29,1 139 604
SETZERO,28,1 139 603
SETZERO,27,1 139 602
SETZERO,26,1 139 601
SETZERO,25,1 139 600
SETZERO,24,1 139 599
XY,0,3 181 598
XY,1,3 181 597
XY,2,3 181 596
XY,3,3 181 595
XY,4,3 181 594
XY,5,3 181 593
XY,6,3 181 592
XY,7,3 181 591
DLACPY,7,1 188 590
SPMM,7,7,0 188 589
DLACPY,6,1 188 588
SPMM,6,6,0 188 587
SPMM,7,6,0 188 586
DLACPY,5,1 188 585
SPMM,5,5,0 188 584
SPMM,6,5,0 188 583
SPMM,7,5,0 188 582
DLACPY,4,1 188 581
SPMM,4,4,0 188 580
SPMM,5,4,0 188 579
SPMM,6,4,0 188 578
SPMM,7,4,0 188 577
DLACPY,3,1 188 576
SPMM,3,3,0 188 575
SPMM,4,3,0 188 574
SPMM,5,3,0 188 573
SPMM,6,3,0 188 572
SPMM,7,3,0 188 571
DLACPY,2,1 188 570
SPMM,2,2,0 188 569
SPMM,3,2,0 188 568
SPMM,4,2,0 188 567
SPMM,5,2,0 188 566
SPMM,6,2,0 188 565
SPMM,7,2,0 188 564
DLACPY,1,1 188 563
SPMM,1,1,0 188 562
SPMM,2,1,0 188 561
SPMM,3,1,0 188 560
SPMM,4,1,0 188 559
SPMM,5,1,0 188 558
SPMM,6,1,0 188 557
SPMM,7,1,0 188 556
DLACPY,0,1 188 555
SPMM,0,0,0 188 554
XTY,0,0,5 188 553
SPMM,1,0,0 188 552
XTY,1,1,5 188 551
SPMM,2,0,0 188 550
XTY,2,2,5 188 549
SPMM,3,0,0 188 548
XTY,3,3,5 188 547
SPMM,4,0,0 188 546
XTY,4,4,5 188 545
SPMM,5,0,0 188 544
XTY,5,5,5 188 543
SPMM,6,0,0 188 542
XTY,6,6,5 188 541
SPMM,7,0,0 188 540
XTY,7,7,5 188 539
SPMM,8,0,0 249 538
SPMM,9,0,0 249 537
SPMM,10,0,0 249 536
SPMM,11,0,0 249 535
SPMM,12,0,0 249 534
SPMM,13,0,0 249 533
SPMM,14,0,0 249 532
SPMM,15,0,0 249 531
SPMM,8,1,0 249 530
SPMM,9,1,0 249 529
SPMM,10,1,0 249 528
SPMM,11,1,0 249 527
SPMM,12,1,0 249 526
SPMM,13,1,0 249 525
SPMM,14,1,0 249 524
SPMM,15,1,0 249 523
SPMM,8,2,0 249 522
SPMM,11,2,0 249 521
SPMM,12,2,0 249 520
SPMM,13,2,0 249 519
SPMM,14,2,0 249 518
SPMM,15,2,0 249 517
SPMM,8,3,0 249 516
SPMM,8,4,0 249 515
SPMM,11,4,0 249 514
SPMM,12,4,0 249 513
SPMM,14,4,0 249 512
SPMM,15,4,0 249 511
SPMM,8,5,0 249 510
SPMM,8,6,0 249 509
SPMM,11,6,0 249 508
SPMM,12,6,0 249 507
SPMM,15,6,0 249 506
SPMM,8,7,0 249 505
SPMM,11,7,0 249 504
SPMM,12,7,0 249 503
SPMM,13,7,0 249 502
SPMM,14,7,0 249 501
SPMM,15,7,0 249 500
SPMM,16,0,0 196 499
SPMM,17,0,0 196 498
SPMM,21,0,0 196 497
SPMM,22,0,0 196 496
SPMM,23,0,0 196 495
SPMM,16,2,0 196 494
SPMM,17,2,0 196 493
SPMM,21,2,0 196 492
SPMM,22,2,0 196 491
SPMM,23,2,0 196 490
SPMM,16,6,0 196 489
SPMM,17,6,0 196 488
SPMM,21,6,0 196 487
SPMM,16,7,0 196 486
SPMM,17,7,0 196 485
SPMM,22,7,0 196 484
SPMM,24,0,0 215 483
SPMM,30,0,0 215 482
SPMM,30,1,0 215 481
SPMM,24,2,0 215 480
SPMM,30,2,0 215 479
SPMM,30,3,0 215 478
SPMM,30,4,0 215 477
SPMM,30,5,0 215 476
SPMM,30,6,0 215 475
UPDATE,0,1 189 474
UPDATE,1,1 189 473
UPDATE,2,1 189 472
UPDATE,3,1 189 471
UPDATE,4,1 189 470
UPDATE,5,1 189 469
UPDATE,6,1 189 468
UPDATE,7,1 189 467
XTY,0,0,4 209 466
XTY,1,1,4 209 465
XTY,2,2,4 209 464
XTY,3,3,4 209 463
XTY,4,4,4 209 462
XTY,5,5,4 209 461
XTY,6,6,4 209 460
XTY,7,7,4 209 459
XY,8,3 203 458
XY,9,3 203 457
XY,10,3 203 456
XY,11,3 203 455
XY,12,3 203 454
XY,13,3 203 453
XY,14,3 203 452
XY,15,3 203 451
DLACPY,15,1 221 450
SPMM,15,15,0 221 449
DLACPY,14,1 221 448
SPMM,14,14,0 221 447
SPMM,15,14,0 221 446
DLACPY,13,1 221 445
SPMM,13,13,0 221 444
SPMM,14,13,0 221 443
SPMM,15,13,0 221 442
DLACPY,12,1 221 441
SPMM,12,12,0 221 440
SPMM,13,12,0 221 439
SPMM,14,12,0 221 438
SPMM,15,12,0 221 437
DLACPY,11,1 221 436
SPMM,11,11,0 221 435
SPMM,12,11,0 221 434
SPMM,13,11,0 221 433
SPMM,14,11,0 221 432
SPMM,15,11,0 221 431
DLACPY,10,1 221 430
SPMM,10,10,0 221 429
SPMM,11,10,0 221 428
SPMM,12,10,0 221 427
SPMM,13,10,0 221 426
SPMM,15,10,0 221 425
DLACPY,9,1 221 424
SPMM,9,9,0 221 423
SPMM,10,9,0 221 422
SPMM,11,9,0 221 421
SPMM,12,9,0 221 420
SPMM,13,9,0 221 419
SPMM,14,9,0 221 418
SPMM,15,9,0 221 417
DLACPY,8,1 221 416
SPMM,8,8,0 221 415
SPMM,9,8,0 221 414
SPMM,10,8,0 221 413
SPMM,11,8,0 221 412
SPMM,12,8,0 221 411
SPMM,30,8,0 241 410
SPMM,30,9,0 241 409
SPMM,30,10,0 241 408
SPMM,30,11,0 241 407
SPMM,30,12,0 241 406
SPMM,30,13,0 241 405
SPMM,30,14,0 241 404
SPMM,24,15,0 241 403
SPMM,27,15,0 241 402
SPMM,28,15,0 241 401
SPMM,29,15,0 241 400
SPMM,30,15,0 241 399
UPDATE,8,1 227 398
UPDATE,9,1 227 397
UPDATE,10,1 227 396
UPDATE,11,1 227 395
UPDATE,12,1 227 394
UPDATE,13,1 227 393
UPDATE,14,1 227 392
UPDATE,15,1 227 391
XTY,8,8,4 226 390
XTY,9,9,4 226 389
XTY,10,10,4 226 388
XTY,11,11,4 226 387
XTY,12,12,4 226 386
XTY,13,13,4 226 385
XTY,14,14,4 226 384
XTY,15,15,4 226 383
XTY,12,12,5 254 382
XTY,11,11,5 254 381
XTY,10,10,5 254 380
XTY,9,9,5 254 379
XTY,8,8,5 254 378
XTY,15,15,5 254 377
XTY,14,14,5 254 376
XTY,13,13,5 254 375
XY,16,3 146 374
XY,17,3 146 373
XY,18,3 146 372
XY,19,3 146 371
XY,20,3 146 370
XY,21,3 146 369
XY,22,3 146 368
XY,23,3 146 367
DLACPY,23,1 167 366
SPMM,23,23,0 167 365
SPMM,24,23,0 167 364
SPMM,30,23,0 167 363
DLACPY,22,1 167 362
SPMM,22,22,0 167 361
SPMM,23,22,0 167 360
SPMM,24,22,0 167 359
SPMM,27,22,0 167 358
SPMM,28,22,0 167 357
SPMM,29,22,0 167 356
SPMM,30,22,0 167 355
DLACPY,21,1 167 354
SPMM,21,21,0 167 353
SPMM,22,21,0 167 352
SPMM,23,21,0 167 351
SPMM,24,21,0 167 350
SPMM,27,21,0 167 349
SPMM,30,21,0 167 348
DLACPY,20,1 167 347
SPMM,20,20,0 167 346
SPMM,21,20,0 167 345
SPMM,22,20,0 167 344
SPMM,23,20,0 167 343
SPMM,24,20,0 167 342
SPMM,27,20,0 167 341
SPMM,29,20,0 167 340
SPMM,30,20,0 167 339
DLACPY,19,1 167 338
SPMM,19,19,0 167 337
SPMM,20,19,0 167 336
SPMM,21,19,0 167 335
SPMM,22,19,0 167 334
SPMM,23,19,0 167 333
SPMM,24,19,0 167 332
SPMM,27,19,0 167 331
SPMM,29,19,0 167 330
SPMM,30,19,0 167 329
DLACPY,18,1 167 328
SPMM,18,18,0 167 327
SPMM,19,18,0 167 326
SPMM,20,18,0 167 325
SPMM,21,18,0 167 324
SPMM,22,18,0 167 323
SPMM,23,18,0 167 322
SPMM,24,18,0 167 321
SPMM,30,18,0 167 320
DLACPY,17,1 167 319
SPMM,17,17,0 167 318
SPMM,18,17,0 167 317
SPMM,19,17,0 167 316
SPMM,20,17,0 167 315
SPMM,21,17,0 167 314
SPMM,22,17,0 167 313
SPMM,23,17,0 167 312
SPMM,24,17,0 167 311
SPMM,25,17,0 167 310
SPMM,26,17,0 167 309
SPMM,27,17,0 167 308
SPMM,28,17,0 167 307
SPMM,29,17,0 167 306
SPMM,30,17,0 167 305
DLACPY,16,1 167 304
SPMM,16,16,0 167 303
SPMM,17,16,0 167 302
SPMM,18,16,0 167 301
SPMM,19,16,0 167 300
SPMM,20,16,0 167 299
SPMM,21,16,0 167 298
SPMM,22,16,0 167 297
SPMM,23,16,0 167 296
SPMM,24,16,0 167 295
SPMM,25,16,0 167 294
SPMM,26,16,0 167 293
SPMM,27,16,0 167 292
SPMM,28,16,0 167 291
SPMM,29,16,0 167 290
SPMM,30,16,0 167 289
UPDATE,16,1 190 288
UPDATE,17,1 190 287
UPDATE,18,1 190 286
UPDATE,19,1 190 285
UPDATE,20,1 190 284
UPDATE,21,1 190 283
UPDATE,22,1 190 282
UPDATE,23,1 190 281
XTY,16,16,4 174 280
XTY,17,17,4 174 279
XTY,18,18,4 174 278
XTY,19,19,4 174 277
XTY,20,0,4 174 276
XTY,21,1,4 174 275
XTY,22,2,4 174 274
XTY,23,3,4 174 273
SPMM,16,15,0 235 272
XTY,16,16,5 235 271
SPMM,17,15,0 235 270
XTY,17,17,5 235 269
SPMM,18,15,0 235 268
XTY,18,18,5 235 267
SPMM,19,15,0 235 266
XTY,19,19,5 235 265
SPMM,20,15,0 235 264
XTY,20,0,5 235 263
SPMM,21,15,0 235 262
XTY,21,1,5 235 261
SPMM,22,15,0 235 260
XTY,22,2,5 235 259
SPMM,23,15,0 235 258
XTY,23,3,5 235 257
XY,24,3 150 256
XY,25,3 150 255
XY,26,3 150 254
XY,27,3 150 253
XY,28,3 150 252
XY,29,3 150 251
XY,30,3 150 250
DLACPY,30,1 154 249
SPMM,30,30,0 154 248
DLACPY,29,1 154 247
SPMM,29,29,0 154 246
SPMM,30,29,0 154 245
DLACPY,28,1 154 244
SPMM,28,28,0 154 243
SPMM,29,28,0 154 242
SPMM,30,28,0 154 241
DLACPY,27,1 154 240
SPMM,27,27,0 154 239
SPMM,28,27,0 154 238
SPMM,29,27,0 154 237
SPMM,30,27,0 154 236
DLACPY,26,1 154 235
SPMM,26,26,0 154 234
SPMM,27,26,0 154 233
SPMM,28,26,0 154 232
SPMM,29,26,0 154 231
SPMM,30,26,0 154 230
DLACPY,25,1 154 229
SPMM,25,25,0 154 228
SPMM,26,25,0 154 227
SPMM,27,25,0 154 226
SPMM,28,25,0 154 225
SPMM,29,25,0 154 224
SPMM,30,25,0 154 223
DLACPY,24,1 154 222
SPMM,24,24,0 154 221
SPMM,25,24,0 154 220
SPMM,26,24,0 154 219
SPMM,27,24,0 154 218
SPMM,28,24,0 154 217
SPMM,29,24,0 154 216
SPMM,30,24,0 154 215
UPDATE,24,1 160 214
UPDATE,25,1 160 213
UPDATE,26,1 160 212
UPDATE,27,1 160 211
UPDATE,28,1 160 210
UPDATE,29,1 160 209
UPDATE,30,1 160 208
XTY,24,4,4 159 207
XTY,25,5,4 159 206
XTY,26,6,4 159 205
XTY,27,7,4 159 204
XTY,28,8,4 159 203
XTY,29,9,4 159 202
XTY,30,10,4 159 201
RED,XARBUF,0 228 200
XTY,30,10,5 243 199
XTY,29,9,5 243 198
XTY,28,8,5 243 197
XTY,27,7,5 243 196
XTY,26,6,5 243 195
XTY,25,5,5 243 194
XTY,24,4,5 243 193
RED,RARBUF,0 255 192
TRANS,RAR 255 191
SPEUPDATE,RAR 255 190
CONSTRUCTGA 256 189
CONSTRUCTGB 120 188
EIGEN 261 187
XY,8,10 261 186
XY,9,10 261 185
XY,10,10 261 184
XY,11,10 261 183
XY,12,10 261 182
XY,13,10 261 181
XY,14,10 261 180
XY,15,10 261 179
XY,0,6 316 178
XY,1,6 316 177
XY,2,6 316 176
XY,3,6 316 175
XY,4,6 316 174
XY,5,6 316 173
XY,6,6 316 172
XY,7,6 316 171
XY,8,6 264 170
XY,9,6 264 169
XY,10,6 264 168
XY,11,6 264 167
XY,12,6 264 166
XY,13,6 264 165
XY,14,6 264 164
XY,15,6 264 163
ADD,15,3 270 162
ADD,14,3 270 161
ADD,13,3 270 160
ADD,12,3 270 159
ADD,11,3 270 158
ADD,10,3 270 157
ADD,9,3 270 156
ADD,8,3 270 155
XY,24,6 362 154
XY,25,6 362 153
XY,26,6 362 152
XY,27,6 362 151
XY,28,6 362 150
XY,29,6 362 149
XY,30,6 362 148
XY,24,10 375 147
ADD,24,3 375 146
XY,25,10 375 145
ADD,25,3 375 144
XY,26,10 375 143
ADD,26,3 375 142
XY,27,10 375 141
ADD,27,3 375 140
XY,28,10 375 139
ADD,28,3 375 138
XY,29,10 375 137
ADD,29,3 375 136
XY,30,10 375 135
ADD,30,3 375 134
XY,16,8 310 133
XY,17,8 310 132
XY,18,8 310 131
XY,19,8 310 130
XY,20,8 310 129
XY,21,8 310 128
XY,22,8 310 127
XY,23,8 310 126
XY,24,8 328 125
XY,25,8 328 124
XY,26,8 328 123
XY,27,8 328 122
XY,28,8 328 121
XY,29,8 328 120
XY,30,8 328 119
XY,0,10 322 118
XY,1,10 322 117
XY,2,10 322 116
XY,3,10 322 115
XY,4,10 322 114
XY,5,10 322 113
XY,6,10 322 112
XY,7,10 322 111
ADD,7,3 368 110
ADD,6,3 368 109
ADD,5,3 368 108
ADD,4,3 368 107
ADD,3,3 368 106
ADD,2,3 368 105
ADD,1,3 368 104
ADD,0,3 368 103
XY,16,10 349 102
XY,17,10 349 101
XY,18,10 349 100
XY,19,10 349 99
XY,20,10 349 98
XY,21,10 349 97
XY,22,10 349 96
XY,23,10 349 95
XY,16,6 356 94
ADD,16,3 356 93
XY,17,6 356 92
ADD,17,3 356 91
XY,18,6 356 90
ADD,18,3 356 89
XY,19,6 356 88
ADD,19,3 356 87
XY,20,6 356 86
ADD,20,3 356 85
XY,21,6 356 84
ADD,21,3 356 83
XY,22,6 356 82
ADD,22,3 356 81
XY,23,6 356 80
ADD,23,3 356 79
XY,0,11 277 78
XY,1,11 277 77
XY,2,11 277 76
XY,3,11 277 75
XY,4,11 277 74
XY,5,11 277 73
XY,6,11 277 72
XY,7,11 277 71
XY,0,8 284 70
ADD,0,4 284 69
XY,1,8 284 68
ADD,1,4 284 67
XY,2,8 284 66
ADD,2,4 284 65
XY,3,8 284 64
ADD,3,4 284 63
XY,4,8 284 62
ADD,4,4 284 61
XY,5,8 284 60
ADD,5,4 284 59
XY,6,8 284 58
ADD,6,4 284 57
XY,7,8 284 56
ADD,7,4 284 55
XY,8,11 296 54
XY,9,11 296 53
XY,10,11 296 52
XY,11,11 296 51
XY,12,11 296 50
XY,13,11 296 49
XY,14,11 296 48
XY,15,11 296 47
XY,8,8 303 46
ADD,8,4 303 45
XY,9,8 303 44
ADD,9,4 303 43
XY,10,8 303 42
ADD,10,4 303 41
XY,11,8 303 40
ADD,11,4 303 39
XY,12,8 303 38
ADD,12,4 303 37
XY,13,8 303 36
ADD,13,4 303 35
XY,14,8 303 34
ADD,14,4 303 33
XY,15,8 303 32
ADD,15,4 303 31
XY,16,11 338 30
XY,17,11 338 29
XY,18,11 338 28
XY,19,11 338 27
XY,20,11 338 26
XY,21,11 338 25
XY,22,11 338 24
XY,23,11 338 23
ADD,23,4 342 22
ADD,22,4 342 21
ADD,21,4 342 20
ADD,20,4 342 19
ADD,19,4 342 18
ADD,18,4 342 17
ADD,17,4 342 16
ADD,16,4 342 15
XY,24,11 290 14
XY,25,11 290 13
XY,26,11 290 12
XY,27,11 290 11
XY,28,11 290 10
XY,29,11 290 9
XY,30,11 290 8
ADD,30,4 332 7
ADD,29,4 332 6
ADD,28,4 332 5
ADD,27,4 332 4
ADD,26,4 332 3
ADD,25,4 332 2
ADD,24,4 332 1
