SETZERO,23,1 80 2146
SETZERO,22,1 80 2145
SETZERO,21,1 80 2144
SETZERO,20,1 80 2143
SETZERO,19,1 80 2142
SETZERO,18,1 80 2141
SETZERO,17,1 80 2140
SETZERO,16,1 80 2139
_AX,15 73 2138
_AX,14 73 2137
_AX,13 73 2136
_AX,12 73 2135
_AX,11 73 2134
_AX,10 73 2133
_AX,9 73 2132
_AX,8 73 2131
_AX,39 66 2130
_AX,38 66 2129
_AX,37 66 2128
_AX,36 66 2127
_AX,35 66 2126
_AX,34 66 2125
_AX,33 66 2124
_AX,32 66 2123
SETZERO,39,1 58 2122
SETZERO,38,1 58 2121
SETZERO,37,1 58 2120
SETZERO,36,1 58 2119
SETZERO,35,1 58 2118
SETZERO,34,1 58 2117
SETZERO,33,1 58 2116
SETZERO,32,1 58 2115
SETZERO,15,1 58 2114
SETZERO,14,1 58 2113
SETZERO,13,1 58 2112
SETZERO,12,1 58 2111
SETZERO,11,1 58 2110
SETZERO,10,1 58 2109
SETZERO,9,1 58 2108
SETZERO,8,1 58 2107
SETZERO,55,1 51 2106
SETZERO,54,1 51 2105
SETZERO,53,1 51 2104
SETZERO,52,1 51 2103
SETZERO,51,1 51 2102
SETZERO,50,1 51 2101
SETZERO,49,1 51 2100
SETZERO,48,1 51 2099
SETZERO,7,1 50 2098
SETZERO,6,1 50 2097
SETZERO,5,1 50 2096
SETZERO,4,1 50 2095
SETZERO,3,1 50 2094
SETZERO,2,1 50 2093
SETZERO,1,1 50 2092
SETZERO,0,1 50 2091
_X,55 43 2090
_X,54 43 2089
_X,53 43 2088
_X,52 43 2087
_X,51 43 2086
_X,50 43 2085
_X,49 43 2084
_X,48 43 2083
_AX,23 30 2082
_AX,22 30 2081
_AX,21 30 2080
_AX,20 30 2079
_AX,19 30 2078
_AX,18 30 2077
_AX,17 30 2076
_AX,16 30 2075
_X,23 28 2074
_X,22 28 2073
_X,21 28 2072
_X,20 28 2071
_X,19 28 2070
_X,18 28 2069
_X,17 28 2068
_X,16 28 2067
_X,31 18 2066
_X,30 18 2065
_X,29 18 2064
_X,28 18 2063
_X,27 18 2062
_X,26 18 2061
_X,25 18 2060
_X,24 18 2059
_AX,55 14 2058
_AX,54 14 2057
_AX,53 14 2056
_AX,52 14 2055
_AX,51 14 2054
_AX,50 14 2053
_AX,49 14 2052
_AX,48 14 2051
SETZERO,47,1 13 2050
SETZERO,46,1 13 2049
SETZERO,45,1 13 2048
SETZERO,44,1 13 2047
SETZERO,43,1 13 2046
SETZERO,42,1 13 2045
SETZERO,41,1 13 2044
SETZERO,40,1 13 2043
SETZERO,31,1 13 2042
SETZERO,30,1 13 2041
SETZERO,29,1 13 2040
SETZERO,28,1 13 2039
SETZERO,27,1 13 2038
SETZERO,26,1 13 2037
SETZERO,25,1 13 2036
SETZERO,24,1 13 2035
_lambda 1 2034
_X,7 86 2033
XY,7,1 86 2032
_X,6 86 2031
XY,6,1 86 2030
_X,5 86 2029
XY,5,1 86 2028
_X,4 86 2027
XY,4,1 86 2026
_X,3 86 2025
XY,3,1 86 2024
_X,2 86 2023
XY,2,1 86 2022
_X,1 86 2021
XY,1,1 86 2020
_X,0 86 2019
XY,0,1 86 2018
_AX,7 92 2017
SUB,7,1 92 2016
MULT,7 92 2015
_AX,6 92 2014
SUB,6,1 92 2013
MULT,6 92 2012
_AX,5 92 2011
SUB,5,1 92 2010
MULT,5 92 2009
_AX,4 92 2008
SUB,4,1 92 2007
MULT,4 92 2006
_AX,3 92 2005
SUB,3,1 92 2004
MULT,3 92 2003
_AX,2 92 2002
SUB,2,1 92 2001
MULT,2 92 2000
_AX,1 92 1999
SUB,1,1 92 1998
MULT,1 92 1997
_AX,0 92 1996
SUB,0,1 92 1995
MULT,0 92 1994
COL,0,0 93 1993
COL,1,1 93 1992
COL,2,2 93 1991
COL,3,3 93 1990
COL,4,4 93 1989
COL,5,5 93 1988
COL,6,6 93 1987
COL,7,7 93 1986
XY,16,1 36 1985
XY,17,1 36 1984
XY,18,1 36 1983
XY,19,1 36 1982
XY,20,1 36 1981
XY,21,1 36 1980
XY,22,1 36 1979
XY,23,1 36 1978
SUB,23,1 41 1977
MULT,23 41 1976
SUB,22,1 41 1975
MULT,22 41 1974
SUB,21,1 41 1973
MULT,21 41 1972
SUB,20,1 41 1971
MULT,20 41 1970
SUB,19,1 41 1969
MULT,19 41 1968
SUB,18,1 41 1967
MULT,18 41 1966
SUB,17,1 41 1965
MULT,17 41 1964
SUB,16,1 41 1963
MULT,16 41 1962
COL,16,16 42 1961
COL,17,17 42 1960
COL,18,18 42 1959
COL,19,19 42 1958
COL,20,0 42 1957
COL,21,1 42 1956
COL,22,2 42 1955
COL,23,3 42 1954
XY,24,1 21 1953
XY,25,1 21 1952
XY,26,1 21 1951
XY,27,1 21 1950
XY,28,1 21 1949
XY,29,1 21 1948
XY,30,1 21 1947
XY,31,1 21 1946
_AX,31 49 1945
SUB,31,1 49 1944
MULT,31 49 1943
_AX,30 49 1942
SUB,30,1 49 1941
MULT,30 49 1940
_AX,29 49 1939
SUB,29,1 49 1938
MULT,29 49 1937
_AX,28 49 1936
SUB,28,1 49 1935
MULT,28 49 1934
_AX,27 49 1933
SUB,27,1 49 1932
MULT,27 49 1931
_AX,26 49 1930
SUB,26,1 49 1929
MULT,26 49 1928
_AX,25 49 1927
SUB,25,1 49 1926
MULT,25 49 1925
_AX,24 49 1924
SUB,24,1 49 1923
MULT,24 49 1922
COL,24,4 57 1921
COL,25,5 57 1920
COL,26,6 57 1919
COL,27,7 57 1918
COL,28,8 57 1917
COL,29,9 57 1916
COL,30,10 57 1915
COL,31,11 57 1914
_X,39 65 1913
XY,39,1 65 1912
_X,38 65 1911
XY,38,1 65 1910
_X,37 65 1909
XY,37,1 65 1908
_X,36 65 1907
XY,36,1 65 1906
_X,35 65 1905
XY,35,1 65 1904
_X,34 65 1903
XY,34,1 65 1902
_X,33 65 1901
XY,33,1 65 1900
_X,32 65 1899
XY,32,1 65 1898
SUB,32,1 72 1897
MULT,32 72 1896
COL,32,12 72 1895
SUB,33,1 72 1894
MULT,33 72 1893
COL,33,13 72 1892
SUB,34,1 72 1891
MULT,34 72 1890
COL,34,14 72 1889
SUB,35,1 72 1888
MULT,35 72 1887
COL,35,15 72 1886
SUB,36,1 72 1885
MULT,36 72 1884
COL,36,16 72 1883
SUB,37,1 72 1882
MULT,37 72 1881
COL,37,17 72 1880
SUB,38,1 72 1879
MULT,38 72 1878
COL,38,18 72 1877
SUB,39,1 72 1876
MULT,39 72 1875
COL,39,19 72 1874
_X,47 27 1873
XY,47,1 27 1872
_X,46 27 1871
XY,46,1 27 1870
_X,45 27 1869
XY,45,1 27 1868
_X,44 27 1867
XY,44,1 27 1866
_X,43 27 1865
XY,43,1 27 1864
_X,42 27 1863
XY,42,1 27 1862
_X,41 27 1861
XY,41,1 27 1860
_X,40 27 1859
XY,40,1 27 1858
XY,48,1 56 1857
XY,49,1 56 1856
XY,50,1 56 1855
XY,51,1 56 1854
XY,52,1 56 1853
XY,53,1 56 1852
XY,54,1 56 1851
XY,55,1 56 1850
SUB,55,1 99 1849
MULT,55 99 1848
SUB,54,1 99 1847
MULT,54 99 1846
SUB,53,1 99 1845
MULT,53 99 1844
SUB,52,1 99 1843
MULT,52 99 1842
SUB,51,1 99 1841
MULT,51 99 1840
SUB,50,1 99 1839
MULT,50 99 1838
SUB,49,1 99 1837
MULT,49 99 1836
SUB,48,1 99 1835
MULT,48 99 1834
COL,48,8 100 1833
COL,49,9 100 1832
COL,50,10 100 1831
COL,51,11 100 1830
COL,52,12 100 1829
COL,53,13 100 1828
COL,54,14 100 1827
COL,55,15 100 1826
_X,61 12 1825
XY,61,1 12 1824
_X,60 12 1823
XY,60,1 12 1822
_X,59 12 1821
XY,59,1 12 1820
_X,58 12 1819
XY,58,1 12 1818
_X,57 12 1817
XY,57,1 12 1816
_X,56 12 1815
XY,56,1 12 1814
_AX,61 15 1813
SUB,61,1 15 1812
_AX,60 15 1811
SUB,60,1 15 1810
_AX,59 15 1809
SUB,59,1 15 1808
_AX,58 15 1807
SUB,58,1 15 1806
_AX,57 15 1805
SUB,57,1 15 1804
_AX,56 15 1803
SUB,56,1 15 1802
MULT,56 29 1801
MULT,57 29 1800
MULT,58 29 1799
MULT,59 29 1798
MULT,60 29 1797
MULT,61 29 1796
COL,61,1 59 1795
COL,60,0 59 1794
COL,59,19 59 1793
COL,58,18 59 1792
COL,57,17 59 1791
COL,56,16 59 1790
_AX,47 59 1789
_AX,46 59 1788
_AX,45 59 1787
_AX,44 59 1786
_AX,43 59 1785
_AX,42 59 1784
_AX,41 59 1783
_AX,40 59 1782
SUB,40,1 106 1781
MULT,40 106 1780
SUB,41,1 106 1779
MULT,41 106 1778
SUB,42,1 106 1777
MULT,42 106 1776
SUB,43,1 106 1775
MULT,43 106 1774
SUB,44,1 106 1773
MULT,44 106 1772
SUB,45,1 106 1771
MULT,45 106 1770
SUB,46,1 106 1769
MULT,46 106 1768
SUB,47,1 106 1767
MULT,47 106 1766
RESET,RN 0 1765
_X,15 0 1764
_X,14 0 1763
_X,13 0 1762
_X,12 0 1761
_X,11 0 1760
_X,10 0 1759
_X,9 0 1758
_X,8 0 1757
XY,8,1 6 1756
XY,9,1 6 1755
XY,10,1 6 1754
XY,11,1 6 1753
XY,12,1 6 1752
XY,13,1 6 1751
XY,14,1 6 1750
XY,15,1 6 1749
SUB,15,1 78 1748
MULT,15 78 1747
SUB,14,1 78 1746
MULT,14 78 1745
SUB,13,1 78 1744
MULT,13 78 1743
SUB,12,1 78 1742
MULT,12 78 1741
SUB,11,1 78 1740
MULT,11 78 1739
SUB,10,1 78 1738
MULT,10 78 1737
SUB,9,1 78 1736
MULT,9 78 1735
SUB,8,1 78 1734
MULT,8 78 1733
COL,8,8 79 1732
COL,9,9 79 1731
COL,10,10 79 1730
COL,11,11 79 1729
COL,12,12 79 1728
COL,13,13 79 1727
COL,14,14 79 1726
COL,15,15 79 1725
COL,47,7 107 1724
COL,46,6 107 1723
COL,45,5 107 1722
COL,44,4 107 1721
COL,43,3 107 1720
COL,42,2 107 1719
COL,41,1 107 1718
COL,40,0 107 1717
RNRED,RNBUF 107 1716
SQRT,RN 108 1715
RESET,actMask 108 1714
SETZERO,61,1 108 1713
SETZERO,60,1 108 1712
SETZERO,59,1 108 1711
SETZERO,58,1 108 1710
SETZERO,57,1 108 1709
SETZERO,56,1 108 1708
CONV,actMask 109 1707
CONSTRUCTGB 109 1706
GET,0,1 111 1705
GET,1,1 111 1704
GET,2,1 111 1703
GET,3,1 111 1702
GET,4,1 111 1701
GET,5,1 111 1700
GET,6,1 111 1699
GET,7,1 111 1698
XTY,7,7,1 112 1697
XTY,6,6,1 112 1696
XTY,5,5,1 112 1695
XTY,4,4,1 112 1694
XTY,3,3,1 112 1693
XTY,2,2,1 112 1692
XTY,1,1,1 112 1691
XTY,0,0,1 112 1690
GET,8,1 136 1689
XTY,8,8,1 136 1688
GET,9,1 136 1687
XTY,9,9,1 136 1686
GET,10,1 136 1685
XTY,10,10,1 136 1684
GET,11,1 136 1683
XTY,11,11,1 136 1682
GET,12,1 136 1681
XTY,12,12,1 136 1680
GET,13,1 136 1679
XTY,13,13,1 136 1678
GET,14,1 136 1677
XTY,14,14,1 136 1676
GET,15,1 136 1675
XTY,15,15,1 136 1674
GET,16,1 143 1673
XTY,16,16,1 143 1672
GET,17,1 143 1671
XTY,17,17,1 143 1670
GET,18,1 143 1669
XTY,18,18,1 143 1668
GET,19,1 143 1667
XTY,19,19,1 143 1666
GET,20,1 143 1665
XTY,20,0,1 143 1664
GET,21,1 143 1663
XTY,21,1,1 143 1662
GET,22,1 143 1661
XTY,22,2,1 143 1660
GET,23,1 143 1659
XTY,23,3,1 143 1658
GET,24,1 130 1657
XTY,24,4,1 130 1656
GET,25,1 130 1655
XTY,25,5,1 130 1654
GET,26,1 130 1653
XTY,26,6,1 130 1652
GET,27,1 130 1651
XTY,27,7,1 130 1650
GET,28,1 130 1649
XTY,28,8,1 130 1648
GET,29,1 130 1647
XTY,29,9,1 130 1646
GET,30,1 130 1645
XTY,30,10,1 130 1644
GET,31,1 130 1643
XTY,31,11,1 130 1642
GET,32,1 118 1641
XTY,32,12,1 118 1640
GET,33,1 118 1639
XTY,33,13,1 118 1638
GET,34,1 118 1637
XTY,34,14,1 118 1636
GET,35,1 118 1635
XTY,35,15,1 118 1634
GET,36,1 118 1633
XTY,36,16,1 118 1632
GET,37,1 118 1631
XTY,37,17,1 118 1630
GET,38,1 118 1629
XTY,38,18,1 118 1628
GET,39,1 118 1627
XTY,39,19,1 118 1626
GET,40,1 124 1625
XTY,40,0,1 124 1624
GET,41,1 124 1623
XTY,41,1,1 124 1622
GET,42,1 124 1621
XTY,42,2,1 124 1620
GET,43,1 124 1619
XTY,43,3,1 124 1618
GET,44,1 124 1617
XTY,44,4,1 124 1616
GET,45,1 124 1615
XTY,45,5,1 124 1614
GET,46,1 124 1613
XTY,46,6,1 124 1612
GET,47,1 124 1611
XTY,47,7,1 124 1610
GET,48,1 137 1609
GET,49,1 137 1608
GET,50,1 137 1607
GET,51,1 137 1606
GET,52,1 137 1605
GET,53,1 137 1604
GET,54,1 137 1603
GET,55,1 137 1602
GET,56,1 149 1601
XTY,56,16,1 149 1600
GET,57,1 149 1599
XTY,57,17,1 149 1598
GET,58,1 149 1597
XTY,58,18,1 149 1596
GET,59,1 149 1595
XTY,59,19,1 149 1594
GET,60,1 149 1593
XTY,60,0,1 149 1592
GET,61,1 149 1591
XTY,61,1,1 149 1590
XTY,55,15,1 150 1589
XTY,54,14,1 150 1588
XTY,53,13,1 150 1587
XTY,52,12,1 150 1586
XTY,51,11,1 150 1585
XTY,50,10,1 150 1584
XTY,49,9,1 150 1583
XTY,48,8,1 150 1582
RED,temp2BUF,0 150 1581
XY,0,2 156 1580
XY,1,2 156 1579
XY,2,2 156 1578
XY,3,2 156 1577
XY,4,2 156 1576
XY,5,2 156 1575
XY,6,2 156 1574
XY,7,2 156 1573
SUB,7,2 159 1572
XTY,7,7,2 159 1571
SUB,6,2 159 1570
XTY,6,6,2 159 1569
SUB,5,2 159 1568
XTY,5,5,2 159 1567
SUB,4,2 159 1566
XTY,4,4,2 159 1565
SUB,3,2 159 1564
XTY,3,3,2 159 1563
SUB,2,2 159 1562
XTY,2,2,2 159 1561
SUB,1,2 159 1560
XTY,1,1,2 159 1559
SUB,0,2 159 1558
XTY,0,0,2 159 1557
XY,8,2 162 1556
XY,9,2 162 1555
XY,10,2 162 1554
XY,11,2 162 1553
XY,12,2 162 1552
XY,13,2 162 1551
XY,14,2 162 1550
XY,15,2 162 1549
SUB,15,2 163 1548
XTY,15,15,2 163 1547
SUB,14,2 163 1546
XTY,14,14,2 163 1545
SUB,13,2 163 1544
XTY,13,13,2 163 1543
SUB,12,2 163 1542
XTY,12,12,2 163 1541
SUB,11,2 163 1540
XTY,11,11,2 163 1539
SUB,10,2 163 1538
XTY,10,10,2 163 1537
SUB,9,2 163 1536
XTY,9,9,2 163 1535
SUB,8,2 163 1534
XTY,8,8,2 163 1533
XY,16,2 157 1532
XY,17,2 157 1531
XY,18,2 157 1530
XY,19,2 157 1529
XY,20,2 157 1528
XY,21,2 157 1527
XY,22,2 157 1526
XY,23,2 157 1525
SUB,23,2 158 1524
SUB,22,2 158 1523
SUB,21,2 158 1522
SUB,20,2 158 1521
SUB,19,2 158 1520
SUB,18,2 158 1519
SUB,17,2 158 1518
SUB,16,2 158 1517
XTY,16,16,2 164 1516
XTY,17,17,2 164 1515
XTY,18,18,2 164 1514
XTY,19,19,2 164 1513
XTY,20,0,2 164 1512
XTY,21,1,2 164 1511
XTY,22,2,2 164 1510
XTY,23,3,2 164 1509
XY,24,2 151 1508
XY,25,2 151 1507
XY,26,2 151 1506
XY,27,2 151 1505
XY,28,2 151 1504
XY,29,2 151 1503
XY,30,2 151 1502
XY,31,2 151 1501
SUB,31,2 166 1500
XTY,31,11,2 166 1499
SUB,30,2 166 1498
XTY,30,10,2 166 1497
SUB,29,2 166 1496
XTY,29,9,2 166 1495
SUB,28,2 166 1494
XTY,28,8,2 166 1493
SUB,27,2 166 1492
XTY,27,7,2 166 1491
SUB,26,2 166 1490
XTY,26,6,2 166 1489
SUB,25,2 166 1488
XTY,25,5,2 166 1487
SUB,24,2 166 1486
XTY,24,4,2 166 1485
XY,32,2 152 1484
XY,33,2 152 1483
XY,34,2 152 1482
XY,35,2 152 1481
XY,36,2 152 1480
XY,37,2 152 1479
XY,38,2 152 1478
XY,39,2 152 1477
SUB,39,2 160 1476
XTY,39,19,2 160 1475
SUB,38,2 160 1474
XTY,38,18,2 160 1473
SUB,37,2 160 1472
XTY,37,17,2 160 1471
SUB,36,2 160 1470
XTY,36,16,2 160 1469
SUB,35,2 160 1468
XTY,35,15,2 160 1467
SUB,34,2 160 1466
XTY,34,14,2 160 1465
SUB,33,2 160 1464
XTY,33,13,2 160 1463
SUB,32,2 160 1462
XTY,32,12,2 160 1461
XY,40,2 154 1460
XY,41,2 154 1459
XY,42,2 154 1458
XY,43,2 154 1457
XY,44,2 154 1456
XY,45,2 154 1455
XY,46,2 154 1454
XY,47,2 154 1453
SUB,47,2 167 1452
XTY,47,7,2 167 1451
SUB,46,2 167 1450
XTY,46,6,2 167 1449
SUB,45,2 167 1448
XTY,45,5,2 167 1447
SUB,44,2 167 1446
XTY,44,4,2 167 1445
SUB,43,2 167 1444
XTY,43,3,2 167 1443
SUB,42,2 167 1442
XTY,42,2,2 167 1441
SUB,41,2 167 1440
XTY,41,1,2 167 1439
SUB,40,2 167 1438
XTY,40,0,2 167 1437
XY,48,2 155 1436
XY,49,2 155 1435
XY,50,2 155 1434
XY,51,2 155 1433
XY,52,2 155 1432
XY,53,2 155 1431
XY,54,2 155 1430
XY,55,2 155 1429
SUB,55,2 165 1428
XTY,55,15,2 165 1427
SUB,54,2 165 1426
XTY,54,14,2 165 1425
SUB,53,2 165 1424
XTY,53,13,2 165 1423
SUB,52,2 165 1422
XTY,52,12,2 165 1421
SUB,51,2 165 1420
XTY,51,11,2 165 1419
SUB,50,2 165 1418
XTY,50,10,2 165 1417
SUB,49,2 165 1416
XTY,49,9,2 165 1415
SUB,48,2 165 1414
XTY,48,8,2 165 1413
XY,56,2 153 1412
XY,57,2 153 1411
XY,58,2 153 1410
XY,59,2 153 1409
XY,60,2 153 1408
XY,61,2 153 1407
SUB,61,2 168 1406
XTY,61,1,2 168 1405
SUB,60,2 168 1404
XTY,60,0,2 168 1403
SUB,59,2 168 1402
XTY,59,19,2 168 1401
SUB,58,2 168 1400
XTY,58,18,2 168 1399
SUB,57,2 168 1398
XTY,57,17,2 168 1397
SUB,56,2 168 1396
XTY,56,16,2 168 1395
RED,RBRBUF,0 168 1394
CHOL,RBR 169 1393
INV,RBR 169 1392
XY,56,3 169 1391
DLACPY,56,1 169 1390
XY,57,3 169 1389
DLACPY,57,1 169 1388
XY,58,3 169 1387
DLACPY,58,1 169 1386
XY,59,3 169 1385
DLACPY,59,1 169 1384
XY,60,3 169 1383
DLACPY,60,1 169 1382
XY,61,3 169 1381
DLACPY,61,1 169 1380
UPDATE,61,1 204 1379
UPDATE,60,1 204 1378
UPDATE,59,1 204 1377
UPDATE,58,1 204 1376
UPDATE,57,1 204 1375
UPDATE,56,1 204 1374
XTY,61,1,4 212 1373
XTY,60,0,4 212 1372
XTY,59,19,4 212 1371
XTY,58,18,4 212 1370
XTY,57,17,4 212 1369
XTY,56,16,4 212 1368
XY,0,3 175 1367
XY,1,3 175 1366
XY,2,3 175 1365
XY,3,3 175 1364
XY,4,3 175 1363
XY,5,3 175 1362
XY,6,3 175 1361
XY,7,3 175 1360
DLACPY,7,1 180 1359
SPMM,7,7,0 180 1358
SPMM,8,7,0 180 1357
SPMM,9,7,0 180 1356
SPMM,10,7,0 180 1355
SPMM,11,7,0 180 1354
SPMM,12,7,0 180 1353
SPMM,13,7,0 180 1352
SPMM,14,7,0 180 1351
SPMM,15,7,0 180 1350
DLACPY,6,1 180 1349
SPMM,6,6,0 180 1348
SPMM,7,6,0 180 1347
SPMM,9,6,0 180 1346
SPMM,10,6,0 180 1345
SPMM,12,6,0 180 1344
SPMM,13,6,0 180 1343
SPMM,14,6,0 180 1342
SPMM,15,6,0 180 1341
DLACPY,5,1 180 1340
SPMM,5,5,0 180 1339
SPMM,6,5,0 180 1338
SPMM,7,5,0 180 1337
SPMM,8,5,0 180 1336
SPMM,9,5,0 180 1335
SPMM,10,5,0 180 1334
SPMM,11,5,0 180 1333
SPMM,12,5,0 180 1332
SPMM,13,5,0 180 1331
SPMM,14,5,0 180 1330
SPMM,15,5,0 180 1329
DLACPY,4,1 180 1328
SPMM,4,4,0 180 1327
SPMM,5,4,0 180 1326
SPMM,6,4,0 180 1325
SPMM,7,4,0 180 1324
SPMM,8,4,0 180 1323
SPMM,9,4,0 180 1322
SPMM,10,4,0 180 1321
SPMM,11,4,0 180 1320
SPMM,12,4,0 180 1319
SPMM,13,4,0 180 1318
SPMM,14,4,0 180 1317
SPMM,15,4,0 180 1316
DLACPY,3,1 180 1315
SPMM,3,3,0 180 1314
SPMM,4,3,0 180 1313
SPMM,5,3,0 180 1312
SPMM,6,3,0 180 1311
SPMM,7,3,0 180 1310
SPMM,8,3,0 180 1309
SPMM,9,3,0 180 1308
SPMM,10,3,0 180 1307
SPMM,11,3,0 180 1306
SPMM,12,3,0 180 1305
SPMM,13,3,0 180 1304
SPMM,14,3,0 180 1303
SPMM,15,3,0 180 1302
DLACPY,2,1 180 1301
SPMM,2,2,0 180 1300
SPMM,3,2,0 180 1299
SPMM,14,2,0 180 1298
SPMM,15,2,0 180 1297
DLACPY,1,1 180 1296
SPMM,1,1,0 180 1295
SPMM,2,1,0 180 1294
SPMM,3,1,0 180 1293
SPMM,4,1,0 180 1292
SPMM,5,1,0 180 1291
SPMM,6,1,0 180 1290
SPMM,7,1,0 180 1289
SPMM,8,1,0 180 1288
SPMM,9,1,0 180 1287
SPMM,10,1,0 180 1286
SPMM,11,1,0 180 1285
SPMM,12,1,0 180 1284
SPMM,13,1,0 180 1283
SPMM,14,1,0 180 1282
SPMM,15,1,0 180 1281
DLACPY,0,1 180 1280
SPMM,0,0,0 180 1279
SPMM,1,0,0 180 1278
SPMM,3,0,0 180 1277
SPMM,4,0,0 180 1276
SPMM,5,0,0 180 1275
SPMM,6,0,0 180 1274
SPMM,7,0,0 180 1273
SPMM,8,0,0 180 1272
SPMM,9,0,0 180 1271
SPMM,10,0,0 180 1270
SPMM,11,0,0 180 1269
SPMM,12,0,0 180 1268
SPMM,13,0,0 180 1267
SPMM,14,0,0 180 1266
SPMM,15,0,0 180 1265
SPMM,16,0,0 181 1264
SPMM,17,0,0 181 1263
SPMM,23,0,0 181 1262
SPMM,16,1,0 181 1261
SPMM,17,1,0 181 1260
SPMM,18,1,0 181 1259
SPMM,19,1,0 181 1258
SPMM,20,1,0 181 1257
SPMM,21,1,0 181 1256
SPMM,22,1,0 181 1255
SPMM,23,1,0 181 1254
SPMM,17,2,0 181 1253
SPMM,18,2,0 181 1252
SPMM,19,2,0 181 1251
SPMM,20,2,0 181 1250
SPMM,21,2,0 181 1249
SPMM,22,2,0 181 1248
SPMM,23,2,0 181 1247
SPMM,16,3,0 181 1246
SPMM,17,3,0 181 1245
SPMM,18,3,0 181 1244
SPMM,19,3,0 181 1243
SPMM,21,3,0 181 1242
SPMM,23,3,0 181 1241
SPMM,16,4,0 181 1240
SPMM,17,4,0 181 1239
SPMM,16,5,0 181 1238
SPMM,17,5,0 181 1237
SPMM,23,5,0 181 1236
SPMM,16,6,0 181 1235
SPMM,17,6,0 181 1234
SPMM,16,7,0 181 1233
SPMM,17,7,0 181 1232
SPMM,24,0,0 253 1231
SPMM,25,0,0 253 1230
SPMM,27,0,0 253 1229
SPMM,28,0,0 253 1228
SPMM,29,0,0 253 1227
SPMM,30,0,0 253 1226
SPMM,24,1,0 253 1225
SPMM,25,1,0 253 1224
SPMM,26,1,0 253 1223
SPMM,27,1,0 253 1222
SPMM,28,1,0 253 1221
SPMM,29,1,0 253 1220
SPMM,30,1,0 253 1219
SPMM,24,2,0 253 1218
SPMM,25,2,0 253 1217
SPMM,26,2,0 253 1216
SPMM,27,2,0 253 1215
SPMM,28,2,0 253 1214
SPMM,29,2,0 253 1213
SPMM,30,2,0 253 1212
SPMM,24,3,0 253 1211
SPMM,25,3,0 253 1210
SPMM,26,3,0 253 1209
SPMM,27,3,0 253 1208
SPMM,28,3,0 253 1207
SPMM,29,3,0 253 1206
SPMM,30,3,0 253 1205
SPMM,30,4,0 253 1204
SPMM,24,5,0 253 1203
SPMM,25,5,0 253 1202
SPMM,27,5,0 253 1201
SPMM,28,5,0 253 1200
SPMM,30,5,0 253 1199
SPMM,32,0,0 182 1198
SPMM,34,0,0 182 1197
SPMM,35,0,0 182 1196
SPMM,32,1,0 182 1195
SPMM,34,1,0 182 1194
SPMM,35,1,0 182 1193
SPMM,32,4,0 182 1192
SPMM,34,4,0 182 1191
SPMM,35,4,0 182 1190
SPMM,32,5,0 182 1189
SPMM,34,5,0 182 1188
SPMM,35,5,0 182 1187
SPMM,43,0,0 183 1186
SPMM,44,0,0 183 1185
SPMM,45,0,0 183 1184
SPMM,46,0,0 183 1183
SPMM,47,0,0 183 1182
SPMM,43,1,0 183 1181
SPMM,44,1,0 183 1180
SPMM,45,1,0 183 1179
SPMM,46,1,0 183 1178
SPMM,43,4,0 183 1177
SPMM,45,4,0 183 1176
SPMM,47,4,0 183 1175
SPMM,43,5,0 183 1174
SPMM,44,5,0 183 1173
SPMM,45,5,0 183 1172
SPMM,46,5,0 183 1171
SPMM,47,5,0 183 1170
SPMM,61,0,0 184 1169
SPMM,61,2,0 184 1168
SPMM,61,3,0 184 1167
SPMM,61,4,0 184 1166
SPMM,61,5,0 184 1165
SPMM,61,6,0 184 1164
SPMM,61,7,0 184 1163
SPMM,48,0,0 185 1162
UPDATE,0,1 185 1161
UPDATE,1,1 185 1160
UPDATE,2,1 185 1159
UPDATE,3,1 185 1158
UPDATE,4,1 185 1157
SPMM,48,5,0 185 1156
UPDATE,5,1 185 1155
UPDATE,6,1 185 1154
UPDATE,7,1 185 1153
XTY,0,0,4 203 1152
XTY,1,1,4 203 1151
XTY,2,2,4 203 1150
XTY,3,3,4 203 1149
XTY,4,4,4 203 1148
XTY,5,5,4 203 1147
XTY,6,6,4 203 1146
XTY,7,7,4 203 1145
XTY,7,7,5 248 1144
XTY,6,6,5 248 1143
XTY,5,5,5 248 1142
XTY,4,4,5 248 1141
XTY,3,3,5 248 1140
XTY,1,1,5 248 1139
XTY,0,0,5 248 1138
XTY,2,2,5 248 1137
XY,8,3 174 1136
XY,9,3 174 1135
XY,10,3 174 1134
XY,11,3 174 1133
XY,12,3 174 1132
XY,13,3 174 1131
XY,14,3 174 1130
XY,15,3 174 1129
DLACPY,15,1 219 1128
SPMM,16,15,0 219 1127
SPMM,17,15,0 219 1126
SPMM,23,15,0 219 1125
SPMM,32,15,0 219 1124
SPMM,35,15,0 219 1123
DLACPY,14,1 219 1122
SPMM,16,14,0 219 1121
SPMM,17,14,0 219 1120
SPMM,23,14,0 219 1119
SPMM,32,14,0 219 1118
SPMM,34,14,0 219 1117
SPMM,35,14,0 219 1116
DLACPY,13,1 219 1115
SPMM,16,13,0 219 1114
SPMM,17,13,0 219 1113
SPMM,23,13,0 219 1112
DLACPY,12,1 219 1111
SPMM,16,12,0 219 1110
SPMM,17,12,0 219 1109
SPMM,32,12,0 219 1108
SPMM,35,12,0 219 1107
DLACPY,11,1 219 1106
SPMM,16,11,0 219 1105
SPMM,17,11,0 219 1104
DLACPY,10,1 219 1103
SPMM,16,10,0 219 1102
SPMM,17,10,0 219 1101
DLACPY,9,1 219 1100
SPMM,16,9,0 219 1099
SPMM,17,9,0 219 1098
SPMM,23,9,0 219 1097
DLACPY,8,1 219 1096
SPMM,16,8,0 219 1095
SPMM,17,8,0 219 1094
SPMM,43,12,0 221 1093
SPMM,45,14,0 221 1092
SPMM,45,15,0 221 1091
SPMM,24,9,0 254 1090
SPMM,28,9,0 254 1089
SPMM,29,9,0 254 1088
SPMM,30,9,0 254 1087
SPMM,24,13,0 254 1086
SPMM,30,13,0 254 1085
SPMM,24,14,0 254 1084
SPMM,30,14,0 254 1083
SPMM,24,15,0 254 1082
SPMM,25,15,0 254 1081
SPMM,26,15,0 254 1080
SPMM,27,15,0 254 1079
SPMM,28,15,0 254 1078
SPMM,29,15,0 254 1077
SPMM,30,15,0 254 1076
SPMM,61,8,0 220 1075
SPMM,61,9,0 220 1074
SPMM,61,10,0 220 1073
SPMM,61,11,0 220 1072
SPMM,61,12,0 220 1071
SPMM,61,13,0 220 1070
UPDATE,8,1 222 1069
UPDATE,9,1 222 1068
UPDATE,10,1 222 1067
UPDATE,11,1 222 1066
UPDATE,12,1 222 1065
UPDATE,13,1 222 1064
UPDATE,14,1 222 1063
UPDATE,15,1 222 1062
XTY,8,8,4 223 1061
XTY,9,9,4 223 1060
XTY,10,10,4 223 1059
XTY,11,11,4 223 1058
XTY,12,12,4 223 1057
XTY,13,13,4 223 1056
XTY,14,14,4 223 1055
XTY,15,15,4 223 1054
XY,16,3 172 1053
XY,17,3 172 1052
XY,18,3 172 1051
XY,19,3 172 1050
XY,20,3 172 1049
XY,21,3 172 1048
XY,22,3 172 1047
XY,23,3 172 1046
DLACPY,23,1 244 1045
SPMM,23,23,0 244 1044
DLACPY,22,1 244 1043
SPMM,22,22,0 244 1042
SPMM,23,22,0 244 1041
DLACPY,21,1 244 1040
SPMM,21,21,0 244 1039
SPMM,22,21,0 244 1038
SPMM,23,21,0 244 1037
DLACPY,20,1 244 1036
SPMM,20,20,0 244 1035
SPMM,21,20,0 244 1034
SPMM,22,20,0 244 1033
SPMM,23,20,0 244 1032
DLACPY,19,1 244 1031
SPMM,19,19,0 244 1030
SPMM,20,19,0 244 1029
SPMM,21,19,0 244 1028
SPMM,22,19,0 244 1027
SPMM,23,19,0 244 1026
DLACPY,18,1 244 1025
SPMM,18,18,0 244 1024
SPMM,19,18,0 244 1023
SPMM,20,18,0 244 1022
SPMM,21,18,0 244 1021
SPMM,22,18,0 244 1020
SPMM,23,18,0 244 1019
DLACPY,17,1 244 1018
SPMM,17,17,0 244 1017
SPMM,18,17,0 244 1016
XTY,18,18,5 244 1015
SPMM,19,17,0 244 1014
XTY,19,19,5 244 1013
SPMM,20,17,0 244 1012
XTY,20,0,5 244 1011
SPMM,21,17,0 244 1010
XTY,21,1,5 244 1009
SPMM,22,17,0 244 1008
XTY,22,2,5 244 1007
SPMM,23,17,0 244 1006
XTY,23,3,5 244 1005
DLACPY,16,1 244 1004
SPMM,16,16,0 244 1003
XTY,16,16,5 244 1002
SPMM,17,16,0 244 1001
XTY,17,17,5 244 1000
SPMM,61,16,0 251 999
SPMM,61,17,0 251 998
SPMM,61,19,0 251 997
SPMM,61,20,0 251 996
SPMM,61,21,0 251 995
SPMM,61,22,0 251 994
SPMM,61,23,0 251 993
UPDATE,16,1 246 992
UPDATE,17,1 246 991
UPDATE,18,1 246 990
UPDATE,19,1 246 989
UPDATE,20,1 246 988
UPDATE,21,1 246 987
UPDATE,22,1 246 986
UPDATE,23,1 246 985
XTY,16,16,4 245 984
XTY,17,17,4 245 983
XTY,18,18,4 245 982
XTY,19,19,4 245 981
XTY,20,0,4 245 980
XTY,21,1,4 245 979
XTY,22,2,4 245 978
XTY,23,3,4 245 977
XY,24,3 170 976
XY,25,3 170 975
XY,26,3 170 974
XY,27,3 170 973
XY,28,3 170 972
XY,29,3 170 971
XY,30,3 170 970
XY,31,3 170 969
DLACPY,31,1 209 968
SPMM,32,31,0 209 967
SPMM,34,31,0 209 966
SPMM,35,31,0 209 965
SPMM,36,31,0 209 964
SPMM,37,31,0 209 963
SPMM,38,31,0 209 962
SPMM,39,31,0 209 961
DLACPY,30,1 209 960
SPMM,32,30,0 209 959
SPMM,34,30,0 209 958
SPMM,35,30,0 209 957
SPMM,36,30,0 209 956
SPMM,37,30,0 209 955
SPMM,38,30,0 209 954
SPMM,39,30,0 209 953
DLACPY,29,1 209 952
DLACPY,28,1 209 951
DLACPY,27,1 209 950
DLACPY,26,1 209 949
DLACPY,25,1 209 948
DLACPY,24,1 209 947
SPMM,40,30,0 210 946
SPMM,41,30,0 210 945
SPMM,42,30,0 210 944
SPMM,43,30,0 210 943
SPMM,44,30,0 210 942
SPMM,45,30,0 210 941
SPMM,46,30,0 210 940
SPMM,47,30,0 210 939
SPMM,40,31,0 210 938
SPMM,41,31,0 210 937
SPMM,42,31,0 210 936
SPMM,43,31,0 210 935
SPMM,44,31,0 210 934
SPMM,45,31,0 210 933
SPMM,46,31,0 210 932
SPMM,47,31,0 210 931
SPMM,48,30,0 211 930
SPMM,54,30,0 211 929
SPMM,48,31,0 211 928
SPMM,54,31,0 211 927
SPMM,24,24,0 255 926
SPMM,25,24,0 255 925
SPMM,26,24,0 255 924
SPMM,27,24,0 255 923
SPMM,28,24,0 255 922
SPMM,29,24,0 255 921
SPMM,30,24,0 255 920
SPMM,25,25,0 255 919
SPMM,26,25,0 255 918
SPMM,27,25,0 255 917
SPMM,28,25,0 255 916
SPMM,29,25,0 255 915
SPMM,30,25,0 255 914
SPMM,26,26,0 255 913
SPMM,27,26,0 255 912
SPMM,28,26,0 255 911
SPMM,29,26,0 255 910
SPMM,30,26,0 255 909
SPMM,27,27,0 255 908
SPMM,28,27,0 255 907
SPMM,29,27,0 255 906
SPMM,30,27,0 255 905
SPMM,28,28,0 255 904
SPMM,29,28,0 255 903
SPMM,30,28,0 255 902
SPMM,29,29,0 255 901
SPMM,30,29,0 255 900
SPMM,30,30,0 255 899
SPMM,31,30,0 255 898
SPMM,31,31,0 255 897
SPMM,61,24,0 214 896
SPMM,61,25,0 214 895
SPMM,61,26,0 214 894
SPMM,61,27,0 214 893
SPMM,61,28,0 214 892
SPMM,56,30,0 214 891
SPMM,58,30,0 214 890
SPMM,60,30,0 214 889
SPMM,61,30,0 214 888
SPMM,58,31,0 214 887
SPMM,59,31,0 214 886
SPMM,60,31,0 214 885
SPMM,61,31,0 214 884
UPDATE,24,1 250 883
UPDATE,25,1 250 882
UPDATE,26,1 250 881
UPDATE,27,1 250 880
UPDATE,28,1 250 879
UPDATE,29,1 250 878
UPDATE,30,1 250 877
UPDATE,31,1 250 876
XTY,24,4,4 213 875
XTY,25,5,4 213 874
XTY,26,6,4 213 873
XTY,27,7,4 213 872
XTY,28,8,4 213 871
XTY,29,9,4 213 870
XTY,30,10,4 213 869
XTY,31,11,4 213 868
XY,32,3 171 867
XY,33,3 171 866
XY,34,3 171 865
XY,35,3 171 864
XY,36,3 171 863
XY,37,3 171 862
XY,38,3 171 861
XY,39,3 171 860
DLACPY,39,1 190 859
SPMM,39,39,0 190 858
DLACPY,38,1 190 857
SPMM,38,38,0 190 856
SPMM,39,38,0 190 855
DLACPY,37,1 190 854
SPMM,37,37,0 190 853
SPMM,38,37,0 190 852
SPMM,39,37,0 190 851
DLACPY,36,1 190 850
SPMM,36,36,0 190 849
SPMM,37,36,0 190 848
SPMM,38,36,0 190 847
SPMM,39,36,0 190 846
DLACPY,35,1 190 845
SPMM,35,35,0 190 844
SPMM,36,35,0 190 843
SPMM,37,35,0 190 842
SPMM,38,35,0 190 841
SPMM,39,35,0 190 840
DLACPY,34,1 190 839
SPMM,34,34,0 190 838
SPMM,35,34,0 190 837
SPMM,36,34,0 190 836
SPMM,37,34,0 190 835
SPMM,38,34,0 190 834
SPMM,39,34,0 190 833
DLACPY,33,1 190 832
SPMM,33,33,0 190 831
SPMM,34,33,0 190 830
DLACPY,32,1 190 829
SPMM,32,32,0 190 828
SPMM,33,32,0 190 827
SPMM,34,32,0 190 826
SPMM,35,32,0 190 825
SPMM,36,32,0 190 824
SPMM,37,32,0 190 823
SPMM,38,32,0 190 822
SPMM,39,32,0 190 821
SPMM,40,32,0 191 820
SPMM,41,32,0 191 819
SPMM,42,32,0 191 818
SPMM,43,32,0 191 817
SPMM,44,32,0 191 816
SPMM,45,32,0 191 815
SPMM,46,32,0 191 814
SPMM,47,32,0 191 813
SPMM,45,33,0 191 812
SPMM,40,34,0 191 811
SPMM,41,34,0 191 810
SPMM,42,34,0 191 809
SPMM,43,34,0 191 808
SPMM,44,34,0 191 807
SPMM,45,34,0 191 806
SPMM,46,34,0 191 805
SPMM,47,34,0 191 804
SPMM,40,35,0 191 803
SPMM,41,35,0 191 802
SPMM,42,35,0 191 801
SPMM,43,35,0 191 800
SPMM,44,35,0 191 799
SPMM,45,35,0 191 798
SPMM,46,35,0 191 797
SPMM,47,35,0 191 796
SPMM,40,36,0 191 795
SPMM,41,36,0 191 794
SPMM,42,36,0 191 793
SPMM,43,36,0 191 792
SPMM,44,36,0 191 791
SPMM,45,36,0 191 790
SPMM,46,36,0 191 789
SPMM,47,36,0 191 788
SPMM,40,37,0 191 787
SPMM,41,37,0 191 786
SPMM,43,37,0 191 785
SPMM,45,37,0 191 784
SPMM,46,37,0 191 783
SPMM,47,37,0 191 782
SPMM,40,38,0 191 781
SPMM,41,38,0 191 780
SPMM,42,38,0 191 779
SPMM,43,38,0 191 778
SPMM,44,38,0 191 777
SPMM,45,38,0 191 776
SPMM,46,38,0 191 775
SPMM,47,38,0 191 774
SPMM,40,39,0 191 773
SPMM,41,39,0 191 772
SPMM,42,39,0 191 771
SPMM,43,39,0 191 770
SPMM,44,39,0 191 769
SPMM,45,39,0 191 768
SPMM,46,39,0 191 767
SPMM,47,39,0 191 766
SPMM,48,32,0 192 765
SPMM,49,32,0 192 764
SPMM,50,32,0 192 763
SPMM,51,32,0 192 762
SPMM,52,32,0 192 761
SPMM,53,32,0 192 760
SPMM,54,32,0 192 759
SPMM,55,32,0 192 758
SPMM,48,33,0 192 757
SPMM,49,33,0 192 756
SPMM,50,33,0 192 755
SPMM,51,33,0 192 754
SPMM,52,33,0 192 753
SPMM,53,33,0 192 752
SPMM,54,33,0 192 751
SPMM,55,33,0 192 750
SPMM,48,34,0 192 749
SPMM,50,34,0 192 748
SPMM,52,34,0 192 747
SPMM,53,34,0 192 746
SPMM,54,34,0 192 745
SPMM,55,34,0 192 744
SPMM,48,35,0 192 743
SPMM,54,35,0 192 742
SPMM,48,36,0 192 741
SPMM,48,37,0 192 740
SPMM,48,38,0 192 739
SPMM,48,39,0 192 738
SPMM,54,39,0 192 737
SPMM,56,32,0 193 736
SPMM,57,32,0 193 735
SPMM,58,32,0 193 734
SPMM,59,32,0 193 733
SPMM,60,32,0 193 732
SPMM,61,32,0 193 731
SPMM,56,33,0 193 730
SPMM,57,33,0 193 729
SPMM,58,33,0 193 728
SPMM,59,33,0 193 727
SPMM,60,33,0 193 726
SPMM,61,33,0 193 725
SPMM,56,34,0 193 724
SPMM,57,34,0 193 723
SPMM,58,34,0 193 722
SPMM,59,34,0 193 721
SPMM,60,34,0 193 720
SPMM,61,34,0 193 719
SPMM,56,35,0 193 718
SPMM,58,35,0 193 717
SPMM,60,35,0 193 716
SPMM,61,35,0 193 715
SPMM,61,36,0 193 714
SPMM,61,37,0 193 713
SPMM,61,38,0 193 712
SPMM,58,39,0 193 711
SPMM,59,39,0 193 710
SPMM,60,39,0 193 709
SPMM,61,39,0 193 708
UPDATE,32,1 194 707
XTY,32,12,4 194 706
UPDATE,33,1 194 705
XTY,33,13,4 194 704
UPDATE,34,1 194 703
XTY,34,14,4 194 702
UPDATE,35,1 194 701
XTY,35,15,4 194 700
UPDATE,36,1 194 699
XTY,36,16,4 194 698
UPDATE,37,1 194 697
XTY,37,17,4 194 696
UPDATE,38,1 194 695
XTY,38,18,4 194 694
UPDATE,39,1 194 693
XTY,39,19,4 194 692
XTY,39,19,5 224 691
XTY,38,18,5 224 690
XTY,37,17,5 224 689
XTY,36,16,5 224 688
XTY,35,15,5 224 687
XTY,34,14,5 224 686
XTY,33,13,5 224 685
XTY,32,12,5 224 684
XY,40,3 173 683
XY,41,3 173 682
XY,42,3 173 681
XY,43,3 173 680
XY,44,3 173 679
XY,45,3 173 678
XY,46,3 173 677
XY,47,3 173 676
DLACPY,47,1 229 675
SPMM,47,47,0 229 674
DLACPY,46,1 229 673
SPMM,46,46,0 229 672
SPMM,47,46,0 229 671
DLACPY,45,1 229 670
SPMM,45,45,0 229 669
SPMM,46,45,0 229 668
SPMM,47,45,0 229 667
DLACPY,44,1 229 666
SPMM,44,44,0 229 665
SPMM,45,44,0 229 664
SPMM,46,44,0 229 663
SPMM,47,44,0 229 662
DLACPY,43,1 229 661
SPMM,43,43,0 229 660
SPMM,44,43,0 229 659
SPMM,45,43,0 229 658
SPMM,46,43,0 229 657
SPMM,47,43,0 229 656
DLACPY,42,1 229 655
SPMM,42,42,0 229 654
SPMM,43,42,0 229 653
SPMM,44,42,0 229 652
SPMM,45,42,0 229 651
SPMM,46,42,0 229 650
SPMM,47,42,0 229 649
DLACPY,41,1 229 648
SPMM,41,41,0 229 647
SPMM,42,41,0 229 646
SPMM,43,41,0 229 645
SPMM,44,41,0 229 644
SPMM,45,41,0 229 643
SPMM,46,41,0 229 642
SPMM,47,41,0 229 641
DLACPY,40,1 229 640
SPMM,40,40,0 229 639
SPMM,41,40,0 229 638
SPMM,42,40,0 229 637
SPMM,43,40,0 229 636
SPMM,44,40,0 229 635
SPMM,45,40,0 229 634
SPMM,46,40,0 229 633
SPMM,47,40,0 229 632
SPMM,58,40,0 247 631
SPMM,59,40,0 247 630
SPMM,61,40,0 247 629
SPMM,61,41,0 247 628
SPMM,60,43,0 247 627
SPMM,61,43,0 247 626
SPMM,60,44,0 247 625
SPMM,61,44,0 247 624
SPMM,56,45,0 247 623
SPMM,57,45,0 247 622
SPMM,58,45,0 247 621
SPMM,59,45,0 247 620
SPMM,60,45,0 247 619
SPMM,61,47,0 247 618
UPDATE,40,1 232 617
UPDATE,41,1 232 616
UPDATE,42,1 232 615
UPDATE,43,1 232 614
UPDATE,44,1 232 613
UPDATE,45,1 232 612
UPDATE,46,1 232 611
UPDATE,47,1 232 610
XTY,40,0,4 231 609
XTY,41,1,4 231 608
XTY,42,2,4 231 607
XTY,43,3,4 231 606
XTY,44,4,4 231 605
XTY,45,5,4 231 604
XTY,46,6,4 231 603
XTY,47,7,4 231 602
XTY,47,7,5 230 601
XTY,46,6,5 230 600
XTY,45,5,5 230 599
XTY,44,4,5 230 598
XTY,43,3,5 230 597
XTY,42,2,5 230 596
XTY,41,1,5 230 595
XTY,40,0,5 230 594
XY,48,3 176 593
XY,49,3 176 592
XY,50,3 176 591
XY,51,3 176 590
XY,52,3 176 589
XY,53,3 176 588
XY,54,3 176 587
XY,55,3 176 586
DLACPY,55,1 196 585
DLACPY,54,1 196 584
DLACPY,53,1 196 583
DLACPY,52,1 196 582
DLACPY,51,1 196 581
DLACPY,50,1 196 580
DLACPY,49,1 196 579
DLACPY,48,1 196 578
SPMM,48,48,0 199 577
SPMM,49,48,0 199 576
SPMM,50,48,0 199 575
SPMM,51,48,0 199 574
SPMM,52,48,0 199 573
SPMM,53,48,0 199 572
SPMM,54,48,0 199 571
SPMM,55,48,0 199 570
SPMM,49,49,0 199 569
SPMM,50,49,0 199 568
SPMM,51,49,0 199 567
SPMM,52,49,0 199 566
SPMM,53,49,0 199 565
SPMM,54,49,0 199 564
SPMM,55,49,0 199 563
SPMM,50,50,0 199 562
SPMM,51,50,0 199 561
SPMM,52,50,0 199 560
SPMM,53,50,0 199 559
SPMM,54,50,0 199 558
SPMM,55,50,0 199 557
SPMM,51,51,0 199 556
SPMM,52,51,0 199 555
SPMM,53,51,0 199 554
SPMM,54,51,0 199 553
SPMM,52,52,0 199 552
SPMM,53,52,0 199 551
SPMM,54,52,0 199 550
SPMM,53,53,0 199 549
SPMM,54,53,0 199 548
SPMM,55,53,0 199 547
SPMM,54,54,0 199 546
SPMM,55,54,0 199 545
SPMM,55,55,0 199 544
XTY,55,15,5 238 543
XTY,53,13,5 238 542
XTY,52,12,5 238 541
XTY,51,11,5 238 540
XTY,50,10,5 238 539
XTY,49,9,5 238 538
SPMM,48,40,0 238 537
SPMM,54,40,0 238 536
SPMM,48,41,0 238 535
SPMM,48,42,0 238 534
SPMM,48,43,0 238 533
SPMM,54,43,0 238 532
SPMM,48,44,0 238 531
SPMM,54,44,0 238 530
SPMM,48,45,0 238 529
SPMM,54,45,0 238 528
XTY,54,14,5 238 527
SPMM,48,46,0 238 526
SPMM,48,47,0 238 525
XTY,48,8,5 238 524
SPMM,56,48,0 200 523
SPMM,58,48,0 200 522
SPMM,59,48,0 200 521
SPMM,60,48,0 200 520
SPMM,61,48,0 200 519
SPMM,56,49,0 200 518
SPMM,56,50,0 200 517
SPMM,58,50,0 200 516
SPMM,59,50,0 200 515
SPMM,61,50,0 200 514
SPMM,56,52,0 200 513
SPMM,57,52,0 200 512
SPMM,60,52,0 200 511
SPMM,61,52,0 200 510
SPMM,56,53,0 200 509
SPMM,57,53,0 200 508
SPMM,58,53,0 200 507
SPMM,59,53,0 200 506
SPMM,61,53,0 200 505
SPMM,56,54,0 200 504
SPMM,57,54,0 200 503
SPMM,58,54,0 200 502
SPMM,59,54,0 200 501
SPMM,60,54,0 200 500
SPMM,61,54,0 200 499
SPMM,56,55,0 200 498
SPMM,57,55,0 200 497
SPMM,58,55,0 200 496
SPMM,59,55,0 200 495
SPMM,60,55,0 200 494
SPMM,61,55,0 200 493
SPMM,61,61,0 252 492
SPMM,60,60,0 252 491
SPMM,61,60,0 252 490
SPMM,59,59,0 252 489
SPMM,60,59,0 252 488
SPMM,61,59,0 252 487
SPMM,58,58,0 252 486
SPMM,59,58,0 252 485
SPMM,60,58,0 252 484
SPMM,61,58,0 252 483
SPMM,57,57,0 252 482
SPMM,58,57,0 252 481
SPMM,59,57,0 252 480
SPMM,60,57,0 252 479
SPMM,61,57,0 252 478
SPMM,56,56,0 252 477
XTY,56,16,5 252 476
SPMM,57,56,0 252 475
XTY,57,17,5 252 474
SPMM,58,56,0 252 473
XTY,58,18,5 252 472
SPMM,59,56,0 252 471
XTY,59,19,5 252 470
SPMM,60,56,0 252 469
XTY,60,0,5 252 468
SPMM,61,56,0 252 467
XTY,61,1,5 252 466
UPDATE,48,1 201 465
UPDATE,49,1 201 464
UPDATE,50,1 201 463
UPDATE,51,1 201 462
UPDATE,52,1 201 461
UPDATE,53,1 201 460
UPDATE,54,1 201 459
UPDATE,55,1 201 458
XTY,48,8,4 202 457
XTY,49,9,4 202 456
XTY,50,10,4 202 455
XTY,51,11,4 202 454
XTY,52,12,4 202 453
XTY,53,13,4 202 452
XTY,54,14,4 202 451
XTY,55,15,4 202 450
RED,XARBUF,0 249 449
SPMM,8,8,0 249 448
XTY,8,8,5 249 447
SPMM,9,8,0 249 446
SPMM,11,8,0 249 445
SPMM,12,8,0 249 444
SPMM,13,8,0 249 443
SPMM,14,8,0 249 442
SPMM,15,8,0 249 441
SPMM,9,9,0 249 440
XTY,9,9,5 249 439
SPMM,10,9,0 249 438
SPMM,11,9,0 249 437
SPMM,12,9,0 249 436
SPMM,13,9,0 249 435
SPMM,14,9,0 249 434
SPMM,15,9,0 249 433
SPMM,10,10,0 249 432
XTY,10,10,5 249 431
SPMM,11,10,0 249 430
SPMM,12,10,0 249 429
SPMM,13,10,0 249 428
SPMM,14,10,0 249 427
SPMM,15,10,0 249 426
SPMM,11,11,0 249 425
XTY,11,11,5 249 424
SPMM,12,11,0 249 423
SPMM,13,11,0 249 422
SPMM,14,11,0 249 421
SPMM,15,11,0 249 420
SPMM,12,12,0 249 419
XTY,12,12,5 249 418
SPMM,13,12,0 249 417
SPMM,15,12,0 249 416
SPMM,13,13,0 249 415
XTY,13,13,5 249 414
SPMM,14,13,0 249 413
SPMM,15,13,0 249 412
SPMM,14,14,0 249 411
XTY,14,14,5 249 410
SPMM,15,14,0 249 409
SPMM,15,15,0 249 408
XTY,15,15,5 249 407
XTY,31,11,5 261 406
SPMM,25,17,0 261 405
SPMM,24,18,0 261 404
SPMM,25,18,0 261 403
SPMM,26,18,0 261 402
SPMM,28,18,0 261 401
SPMM,30,18,0 261 400
SPMM,24,19,0 261 399
SPMM,25,19,0 261 398
SPMM,28,19,0 261 397
SPMM,29,19,0 261 396
SPMM,30,19,0 261 395
SPMM,25,21,0 261 394
SPMM,26,21,0 261 393
SPMM,30,21,0 261 392
SPMM,24,23,0 261 391
XTY,24,4,5 261 390
SPMM,25,23,0 261 389
XTY,25,5,5 261 388
SPMM,26,23,0 261 387
XTY,26,6,5 261 386
SPMM,27,23,0 261 385
XTY,27,7,5 261 384
SPMM,28,23,0 261 383
XTY,28,8,5 261 382
SPMM,29,23,0 261 381
XTY,29,9,5 261 380
SPMM,30,23,0 261 379
XTY,30,10,5 261 378
RED,RARBUF,0 261 377
TRANS,RAR 262 376
SPEUPDATE,RAR 263 375
CONSTRUCTGA 264 374
EIGEN 269 373
XY,8,6 269 372
XY,9,6 269 371
XY,10,6 269 370
XY,11,6 269 369
XY,12,6 269 368
XY,13,6 269 367
XY,14,6 269 366
XY,15,6 269 365
XY,0,6 295 364
XY,1,6 295 363
XY,2,6 295 362
XY,3,6 295 361
XY,4,6 295 360
XY,5,6 295 359
XY,6,6 295 358
XY,7,6 295 357
XY,0,10 334 356
ADD,0,3 334 355
XY,1,10 334 354
ADD,1,3 334 353
XY,2,10 334 352
ADD,2,3 334 351
XY,3,10 334 350
ADD,3,3 334 349
XY,4,10 334 348
ADD,4,3 334 347
XY,5,10 334 346
ADD,5,3 334 345
XY,6,10 334 344
ADD,6,3 334 343
XY,7,10 334 342
ADD,7,3 334 341
XY,16,6 300 340
XY,17,6 300 339
XY,18,6 300 338
XY,19,6 300 337
XY,20,6 300 336
XY,21,6 300 335
XY,22,6 300 334
XY,23,6 300 333
XY,24,6 310 332
XY,25,6 310 331
XY,26,6 310 330
XY,27,6 310 329
XY,28,6 310 328
XY,29,6 310 327
XY,30,6 310 326
XY,31,6 310 325
XY,24,10 380 324
ADD,24,3 380 323
XY,25,10 380 322
ADD,25,3 380 321
XY,26,10 380 320
ADD,26,3 380 319
XY,27,10 380 318
ADD,27,3 380 317
XY,28,10 380 316
ADD,28,3 380 315
XY,29,10 380 314
ADD,29,3 380 313
XY,30,10 380 312
ADD,30,3 380 311
XY,31,10 380 310
ADD,31,3 380 309
XY,32,6 344 308
XY,33,6 344 307
XY,34,6 344 306
XY,35,6 344 305
XY,36,6 344 304
XY,37,6 344 303
XY,38,6 344 302
XY,39,6 344 301
XY,32,10 356 300
ADD,32,3 356 299
XY,33,10 356 298
ADD,33,3 356 297
XY,34,10 356 296
ADD,34,3 356 295
XY,35,10 356 294
ADD,35,3 356 293
XY,36,10 356 292
ADD,36,3 356 291
XY,37,10 356 290
ADD,37,3 356 289
XY,38,10 356 288
ADD,38,3 356 287
XY,39,10 356 286
ADD,39,3 356 285
XY,40,6 322 284
XY,41,6 322 283
XY,42,6 322 282
XY,43,6 322 281
XY,44,6 322 280
XY,45,6 322 279
XY,46,6 322 278
XY,47,6 322 277
XY,56,6 290 276
XY,57,6 290 275
XY,58,6 290 274
XY,59,6 290 273
XY,60,6 290 272
XY,61,6 290 271
XY,24,8 270 270
XY,25,8 270 269
XY,26,8 270 268
XY,27,8 270 267
XY,28,8 270 266
XY,29,8 270 265
XY,30,8 270 264
XY,31,8 270 263
XY,24,11 328 262
ADD,24,4 328 261
XY,25,11 328 260
ADD,25,4 328 259
XY,26,11 328 258
ADD,26,4 328 257
XY,27,11 328 256
ADD,27,4 328 255
XY,28,11 328 254
ADD,28,4 328 253
XY,29,11 328 252
ADD,29,4 328 251
XY,30,11 328 250
ADD,30,4 328 249
XY,31,11 328 248
ADD,31,4 328 247
XY,32,8 413 246
XY,33,8 413 245
XY,34,8 413 244
XY,35,8 413 243
XY,36,8 413 242
XY,37,8 413 241
XY,38,8 413 240
XY,39,8 413 239
XY,40,8 363 238
XY,41,8 363 237
XY,42,8 363 236
XY,43,8 363 235
XY,44,8 363 234
XY,45,8 363 233
XY,46,8 363 232
XY,47,8 363 231
XY,40,11 386 230
ADD,40,4 386 229
XY,41,11 386 228
ADD,41,4 386 227
XY,42,11 386 226
ADD,42,4 386 225
XY,43,11 386 224
ADD,43,4 386 223
XY,44,11 386 222
ADD,44,4 386 221
XY,45,11 386 220
ADD,45,4 386 219
XY,46,11 386 218
ADD,46,4 386 217
XY,47,11 386 216
ADD,47,4 386 215
XY,48,8 420 214
XY,49,8 420 213
XY,50,8 420 212
XY,51,8 420 211
XY,52,8 420 210
XY,53,8 420 209
XY,54,8 420 208
XY,55,8 420 207
XY,48,11 427 206
ADD,48,4 427 205
XY,49,11 427 204
ADD,49,4 427 203
XY,50,11 427 202
ADD,50,4 427 201
XY,51,11 427 200
ADD,51,4 427 199
XY,52,11 427 198
ADD,52,4 427 197
XY,53,11 427 196
ADD,53,4 427 195
XY,54,11 427 194
ADD,54,4 427 193
XY,55,11 427 192
ADD,55,4 427 191
XY,8,10 350 190
XY,9,10 350 189
XY,10,10 350 188
XY,11,10 350 187
XY,12,10 350 186
XY,13,10 350 185
XY,14,10 350 184
XY,15,10 350 183
ADD,15,3 412 182
ADD,14,3 412 181
ADD,13,3 412 180
ADD,12,3 412 179
ADD,11,3 412 178
ADD,10,3 412 177
ADD,9,3 412 176
ADD,8,3 412 175
XY,16,10 403 174
XY,17,10 403 173
XY,18,10 403 172
XY,19,10 403 171
XY,20,10 403 170
XY,21,10 403 169
XY,22,10 403 168
XY,23,10 403 167
ADD,23,3 404 166
ADD,22,3 404 165
ADD,21,3 404 164
ADD,20,3 404 163
ADD,19,3 404 162
ADD,18,3 404 161
ADD,17,3 404 160
ADD,16,3 404 159
XY,40,10 374 158
XY,41,10 374 157
XY,42,10 374 156
XY,43,10 374 155
XY,44,10 374 154
XY,45,10 374 153
XY,46,10 374 152
XY,47,10 374 151
ADD,47,3 411 150
ADD,46,3 411 149
ADD,45,3 411 148
ADD,44,3 411 147
ADD,43,3 411 146
ADD,42,3 411 145
ADD,41,3 411 144
ADD,40,3 411 143
XY,48,10 285 142
XY,49,10 285 141
XY,50,10 285 140
XY,51,10 285 139
XY,52,10 285 138
XY,53,10 285 137
XY,54,10 285 136
XY,55,10 285 135
XY,48,6 316 134
ADD,48,3 316 133
XY,49,6 316 132
ADD,49,3 316 131
XY,50,6 316 130
ADD,50,3 316 129
XY,51,6 316 128
ADD,51,3 316 127
XY,52,6 316 126
ADD,52,3 316 125
XY,53,6 316 124
ADD,53,3 316 123
XY,54,6 316 122
ADD,54,3 316 121
XY,55,6 316 120
ADD,55,3 316 119
XY,56,10 339 118
XY,57,10 339 117
XY,58,10 339 116
XY,59,10 339 115
XY,60,10 339 114
XY,61,10 339 113
ADD,61,3 381 112
ADD,60,3 381 111
ADD,59,3 381 110
ADD,58,3 381 109
ADD,57,3 381 108
ADD,56,3 381 107
XY,0,11 305 106
XY,1,11 305 105
XY,2,11 305 104
XY,3,11 305 103
XY,4,11 305 102
XY,5,11 305 101
XY,6,11 305 100
XY,7,11 305 99
XY,0,8 362 98
ADD,0,4 362 97
XY,1,8 362 96
ADD,1,4 362 95
XY,2,8 362 94
ADD,2,4 362 93
XY,3,8 362 92
ADD,3,4 362 91
XY,4,8 362 90
ADD,4,4 362 89
XY,5,8 362 88
ADD,5,4 362 87
XY,6,8 362 86
ADD,6,4 362 85
XY,7,8 362 84
ADD,7,4 362 83
XY,8,11 368 82
XY,9,11 368 81
XY,10,11 368 80
XY,11,11 368 79
XY,12,11 368 78
XY,13,11 368 77
XY,14,11 368 76
XY,15,11 368 75
XY,8,8 419 74
ADD,8,4 419 73
XY,9,8 419 72
ADD,9,4 419 71
XY,10,8 419 70
ADD,10,4 419 69
XY,11,8 419 68
ADD,11,4 419 67
XY,12,8 419 66
ADD,12,4 419 65
XY,13,8 419 64
ADD,13,4 419 63
XY,14,8 419 62
ADD,14,4 419 61
XY,15,8 419 60
ADD,15,4 419 59
XY,16,11 398 58
XY,17,11 398 57
XY,18,11 398 56
XY,19,11 398 55
XY,20,11 398 54
XY,21,11 398 53
XY,22,11 398 52
XY,23,11 398 51
XY,16,8 410 50
ADD,16,4 410 49
XY,17,8 410 48
ADD,17,4 410 47
XY,18,8 410 46
ADD,18,4 410 45
XY,19,8 410 44
ADD,19,4 410 43
XY,20,8 410 42
ADD,20,4 410 41
XY,21,8 410 40
ADD,21,4 410 39
XY,22,8 410 38
ADD,22,4 410 37
XY,23,8 410 36
ADD,23,4 410 35
XY,32,11 275 34
XY,33,11 275 33
XY,34,11 275 32
XY,35,11 275 31
XY,36,11 275 30
XY,37,11 275 29
XY,38,11 275 28
XY,39,11 275 27
ADD,39,4 421 26
ADD,38,4 421 25
ADD,37,4 421 24
ADD,36,4 421 23
ADD,35,4 421 22
ADD,34,4 421 21
ADD,33,4 421 20
ADD,32,4 421 19
XY,56,11 280 18
XY,57,11 280 17
XY,58,11 280 16
XY,59,11 280 15
XY,60,11 280 14
XY,61,11 280 13
XY,56,8 392 12
ADD,56,4 392 11
XY,57,8 392 10
ADD,57,4 392 9
XY,58,8 392 8
ADD,58,4 392 7
XY,59,8 392 6
ADD,59,4 392 5
XY,60,8 392 4
ADD,60,4 392 3
XY,61,8 392 2
ADD,61,4 392 1
