SETZERO,31,1 324 3396
SETZERO,30,1 324 3395
SETZERO,29,1 324 3394
SETZERO,28,1 324 3393
SETZERO,27,1 324 3392
SETZERO,26,1 324 3391
SETZERO,25,1 324 3390
SETZERO,24,1 324 3389
SETZERO,23,1 324 3388
SETZERO,22,1 324 3387
SETZERO,21,1 324 3386
SETZERO,20,1 324 3385
SETZERO,19,1 324 3384
SETZERO,18,1 324 3383
SETZERO,17,1 324 3382
SETZERO,16,1 324 3381
SETZERO,61,1 317 3380
SETZERO,60,1 317 3379
SETZERO,59,1 317 3378
SETZERO,58,1 317 3377
SETZERO,57,1 317 3376
SETZERO,56,1 317 3375
SETZERO,55,1 317 3374
SETZERO,54,1 317 3373
SETZERO,53,1 317 3372
SETZERO,52,1 317 3371
SETZERO,51,1 317 3370
SETZERO,50,1 317 3369
SETZERO,49,1 317 3368
SETZERO,48,1 317 3367
SETZERO,15,1 316 3366
SETZERO,14,1 316 3365
SETZERO,13,1 316 3364
SETZERO,12,1 316 3363
SETZERO,11,1 316 3362
SETZERO,10,1 316 3361
SETZERO,9,1 316 3360
SETZERO,8,1 316 3359
SETZERO,7,1 316 3358
SETZERO,6,1 316 3357
SETZERO,5,1 316 3356
SETZERO,4,1 316 3355
SETZERO,3,1 316 3354
SETZERO,2,1 316 3353
SETZERO,1,1 316 3352
SETZERO,0,1 316 3351
SETZERO,47,1 315 3350
SETZERO,46,1 315 3349
SETZERO,45,1 315 3348
SETZERO,44,1 315 3347
SETZERO,43,1 315 3346
SETZERO,42,1 315 3345
SETZERO,41,1 315 3344
SETZERO,40,1 315 3343
SETZERO,39,1 315 3342
SETZERO,38,1 315 3341
SETZERO,37,1 315 3340
SETZERO,36,1 315 3339
SETZERO,35,1 315 3338
SETZERO,34,1 315 3337
SETZERO,33,1 315 3336
SETZERO,32,1 315 3335
_AP,61 193 3334
_AP,60 193 3333
_AP,59 193 3332
_AP,58 193 3331
_AP,57 193 3330
_AP,56 193 3329
_AP,55 193 3328
_AP,54 193 3327
_AP,53 193 3326
_AP,52 193 3325
_AP,51 193 3324
_AP,50 193 3323
_AP,49 193 3322
_AP,48 193 3321
_AP,31 72 3320
_AP,30 72 3319
_AP,29 72 3318
_AP,28 72 3317
_AP,27 72 3316
_AP,26 72 3315
_AP,25 72 3314
_AP,24 72 3313
_AP,23 72 3312
_AP,22 72 3311
_AP,21 72 3310
_AP,20 72 3309
_AP,19 72 3308
_AP,18 72 3307
_AP,17 72 3306
_AP,16 72 3305
_AX,61 56 3304
_AX,60 56 3303
_AX,59 56 3302
_AX,58 56 3301
_AX,57 56 3300
_AX,56 56 3299
_AX,55 56 3298
_AX,54 56 3297
_AX,53 56 3296
_AX,52 56 3295
_AX,51 56 3294
_AX,50 56 3293
_AX,49 56 3292
_AX,48 56 3291
_AP,15 55 3290
_AP,14 55 3289
_AP,13 55 3288
_AP,12 55 3287
_AP,11 55 3286
_AP,10 55 3285
_AP,9 55 3284
_AP,8 55 3283
_AP,7 55 3282
_AP,6 55 3281
_AP,5 55 3280
_AP,4 55 3279
_AP,3 55 3278
_AP,2 55 3277
_AP,1 55 3276
_AP,0 55 3275
_AP,47 54 3274
_AP,46 54 3273
_AP,45 54 3272
_AP,44 54 3271
_AP,43 54 3270
_AP,42 54 3269
_AP,41 54 3268
_AP,40 54 3267
_AP,39 54 3266
_AP,38 54 3265
_AP,37 54 3264
_AP,36 54 3263
_AP,35 54 3262
_AP,34 54 3261
_AP,33 54 3260
_AP,32 54 3259
_AX,47 46 3258
_AX,46 46 3257
_AX,45 46 3256
_AX,44 46 3255
_AX,43 46 3254
_AX,42 46 3253
_AX,41 46 3252
_AX,40 46 3251
_AX,39 46 3250
_AX,38 46 3249
_AX,37 46 3248
_AX,36 46 3247
_AX,35 46 3246
_AX,34 46 3245
_AX,33 46 3244
_AX,32 46 3243
_P,47 44 3242
_P,46 44 3241
_P,45 44 3240
_P,44 44 3239
_P,43 44 3238
_P,42 44 3237
_P,41 44 3236
_P,40 44 3235
_P,39 44 3234
_P,38 44 3233
_P,37 44 3232
_P,36 44 3231
_P,35 44 3230
_P,34 44 3229
_P,33 44 3228
_P,32 44 3227
_AX,15 31 3226
_AX,14 31 3225
_AX,13 31 3224
_AX,12 31 3223
_AX,11 31 3222
_AX,10 31 3221
_AX,9 31 3220
_AX,8 31 3219
_AX,7 31 3218
_AX,6 31 3217
_AX,5 31 3216
_AX,4 31 3215
_AX,3 31 3214
_AX,2 31 3213
_AX,1 31 3212
_AX,0 31 3211
_P,61 30 3210
_P,60 30 3209
_P,59 30 3208
_P,58 30 3207
_P,57 30 3206
_P,56 30 3205
_P,55 30 3204
_P,54 30 3203
_P,53 30 3202
_P,52 30 3201
_P,51 30 3200
_P,50 30 3199
_P,49 30 3198
_P,48 30 3197
_P,31 29 3196
_P,30 29 3195
_P,29 29 3194
_P,28 29 3193
_P,27 29 3192
_P,26 29 3191
_P,25 29 3190
_P,24 29 3189
_P,23 29 3188
_P,22 29 3187
_P,21 29 3186
_P,20 29 3185
_P,19 29 3184
_P,18 29 3183
_P,17 29 3182
_P,16 29 3181
_X,61 11 3180
_X,60 11 3179
_X,59 11 3178
_X,58 11 3177
_X,57 11 3176
_X,56 11 3175
_X,55 11 3174
_X,54 11 3173
_X,53 11 3172
_X,52 11 3171
_X,51 11 3170
_X,50 11 3169
_X,49 11 3168
_X,48 11 3167
_X,31 10 3166
_X,30 10 3165
_X,29 10 3164
_X,28 10 3163
_X,27 10 3162
_X,26 10 3161
_X,25 10 3160
_X,24 10 3159
_X,23 10 3158
_X,22 10 3157
_X,21 10 3156
_X,20 10 3155
_X,19 10 3154
_X,18 10 3153
_X,17 10 3152
_X,16 10 3151
RESET,RN 3 3150
_AX,31 2 3149
_AX,30 2 3148
_AX,29 2 3147
_AX,28 2 3146
_AX,27 2 3145
_AX,26 2 3144
_AX,25 2 3143
_AX,24 2 3142
_AX,23 2 3141
_AX,22 2 3140
_AX,21 2 3139
_AX,20 2 3138
_AX,19 2 3137
_AX,18 2 3136
_AX,17 2 3135
_AX,16 2 3134
_X,47 1 3133
_X,46 1 3132
_X,45 1 3131
_X,44 1 3130
_X,43 1 3129
_X,42 1 3128
_X,41 1 3127
_X,40 1 3126
_X,39 1 3125
_X,38 1 3124
_X,37 1 3123
_X,36 1 3122
_X,35 1 3121
_X,34 1 3120
_X,33 1 3119
_X,32 1 3118
_lambda 9 3117
XY,32,1 9 3116
XY,33,1 9 3115
XY,34,1 9 3114
XY,35,1 9 3113
XY,36,1 9 3112
XY,37,1 9 3111
XY,38,1 9 3110
XY,39,1 9 3109
XY,40,1 9 3108
XY,41,1 9 3107
XY,42,1 9 3106
XY,43,1 9 3105
XY,44,1 9 3104
XY,45,1 9 3103
XY,46,1 9 3102
XY,47,1 9 3101
SUB,47,1 52 3100
MULT,47 52 3099
SUB,46,1 52 3098
MULT,46 52 3097
SUB,45,1 52 3096
MULT,45 52 3095
SUB,44,1 52 3094
MULT,44 52 3093
SUB,43,1 52 3092
MULT,43 52 3091
SUB,42,1 52 3090
MULT,42 52 3089
SUB,41,1 52 3088
MULT,41 52 3087
SUB,40,1 52 3086
MULT,40 52 3085
SUB,39,1 52 3084
MULT,39 52 3083
SUB,38,1 52 3082
MULT,38 52 3081
SUB,37,1 52 3080
MULT,37 52 3079
SUB,36,1 52 3078
MULT,36 52 3077
SUB,35,1 52 3076
MULT,35 52 3075
SUB,34,1 52 3074
MULT,34 52 3073
SUB,33,1 52 3072
MULT,33 52 3071
SUB,32,1 52 3070
MULT,32 52 3069
COL,32,12 53 3068
COL,33,13 53 3067
COL,34,14 53 3066
COL,35,15 53 3065
COL,36,16 53 3064
COL,37,17 53 3063
COL,38,18 53 3062
COL,39,19 53 3061
COL,40,0 53 3060
COL,41,1 53 3059
COL,42,2 53 3058
COL,43,3 53 3057
COL,44,4 53 3056
COL,45,5 53 3055
COL,46,6 53 3054
COL,47,7 53 3053
_X,15 37 3052
XY,15,1 37 3051
_X,14 37 3050
XY,14,1 37 3049
_X,13 37 3048
XY,13,1 37 3047
_X,12 37 3046
XY,12,1 37 3045
_X,11 37 3044
XY,11,1 37 3043
_X,10 37 3042
XY,10,1 37 3041
_X,9 37 3040
XY,9,1 37 3039
_X,8 37 3038
XY,8,1 37 3037
_X,7 37 3036
XY,7,1 37 3035
_X,6 37 3034
XY,6,1 37 3033
_X,5 37 3032
XY,5,1 37 3031
_X,4 37 3030
XY,4,1 37 3029
_X,3 37 3028
XY,3,1 37 3027
_X,2 37 3026
XY,2,1 37 3025
_X,1 37 3024
XY,1,1 37 3023
_X,0 37 3022
XY,0,1 37 3021
SUB,0,1 43 3020
MULT,0 43 3019
SUB,1,1 43 3018
MULT,1 43 3017
SUB,2,1 43 3016
MULT,2 43 3015
SUB,3,1 43 3014
MULT,3 43 3013
SUB,4,1 43 3012
MULT,4 43 3011
SUB,5,1 43 3010
MULT,5 43 3009
SUB,6,1 43 3008
MULT,6 43 3007
SUB,7,1 43 3006
MULT,7 43 3005
SUB,8,1 43 3004
MULT,8 43 3003
SUB,9,1 43 3002
MULT,9 43 3001
SUB,10,1 43 3000
MULT,10 43 2999
SUB,11,1 43 2998
MULT,11 43 2997
SUB,12,1 43 2996
MULT,12 43 2995
SUB,13,1 43 2994
MULT,13 43 2993
SUB,14,1 43 2992
MULT,14 43 2991
SUB,15,1 43 2990
MULT,15 43 2989
COL,15,15 45 2988
COL,14,14 45 2987
COL,13,13 45 2986
COL,12,12 45 2985
COL,11,11 45 2984
COL,10,10 45 2983
COL,9,9 45 2982
COL,8,8 45 2981
COL,7,7 45 2980
COL,6,6 45 2979
COL,5,5 45 2978
COL,4,4 45 2977
COL,3,3 45 2976
COL,2,2 45 2975
COL,1,1 45 2974
COL,0,0 45 2973
XY,16,1 22 2972
XY,17,1 22 2971
XY,18,1 22 2970
XY,19,1 22 2969
XY,20,1 22 2968
XY,21,1 22 2967
XY,22,1 22 2966
XY,23,1 22 2965
XY,24,1 22 2964
XY,25,1 22 2963
XY,26,1 22 2962
XY,27,1 22 2961
XY,28,1 22 2960
XY,29,1 22 2959
XY,30,1 22 2958
XY,31,1 22 2957
SUB,31,1 28 2956
MULT,31 28 2955
COL,31,11 28 2954
SUB,30,1 28 2953
MULT,30 28 2952
COL,30,10 28 2951
SUB,29,1 28 2950
MULT,29 28 2949
COL,29,9 28 2948
SUB,28,1 28 2947
MULT,28 28 2946
COL,28,8 28 2945
SUB,27,1 28 2944
MULT,27 28 2943
COL,27,7 28 2942
SUB,26,1 28 2941
MULT,26 28 2940
COL,26,6 28 2939
SUB,25,1 28 2938
MULT,25 28 2937
COL,25,5 28 2936
SUB,24,1 28 2935
MULT,24 28 2934
COL,24,4 28 2933
SUB,23,1 28 2932
MULT,23 28 2931
COL,23,3 28 2930
SUB,22,1 28 2929
MULT,22 28 2928
COL,22,2 28 2927
SUB,21,1 28 2926
MULT,21 28 2925
COL,21,1 28 2924
SUB,20,1 28 2923
MULT,20 28 2922
COL,20,0 28 2921
SUB,19,1 28 2920
MULT,19 28 2919
COL,19,19 28 2918
SUB,18,1 28 2917
MULT,18 28 2916
COL,18,18 28 2915
SUB,17,1 28 2914
MULT,17 28 2913
COL,17,17 28 2912
SUB,16,1 28 2911
MULT,16 28 2910
COL,16,16 28 2909
XY,48,1 16 2908
XY,49,1 16 2907
XY,50,1 16 2906
XY,51,1 16 2905
XY,52,1 16 2904
XY,53,1 16 2903
XY,54,1 16 2902
XY,55,1 16 2901
XY,56,1 16 2900
XY,57,1 16 2899
XY,58,1 16 2898
XY,59,1 16 2897
XY,60,1 16 2896
XY,61,1 16 2895
SUB,61,1 62 2894
MULT,61 62 2893
SUB,60,1 62 2892
MULT,60 62 2891
SUB,59,1 62 2890
MULT,59 62 2889
SUB,58,1 62 2888
MULT,58 62 2887
SUB,57,1 62 2886
MULT,57 62 2885
SUB,56,1 62 2884
MULT,56 62 2883
SUB,55,1 62 2882
MULT,55 62 2881
SUB,54,1 62 2880
MULT,54 62 2879
SUB,53,1 62 2878
MULT,53 62 2877
SUB,52,1 62 2876
MULT,52 62 2875
SUB,51,1 62 2874
MULT,51 62 2873
SUB,50,1 62 2872
MULT,50 62 2871
SUB,49,1 62 2870
MULT,49 62 2869
SUB,48,1 62 2868
MULT,48 62 2867
COL,48,8 63 2866
COL,49,9 63 2865
COL,50,10 63 2864
COL,51,11 63 2863
COL,52,12 63 2862
COL,53,13 63 2861
COL,54,14 63 2860
COL,55,15 63 2859
COL,56,16 63 2858
COL,57,17 63 2857
COL,58,18 63 2856
COL,59,19 63 2855
COL,60,0 63 2854
COL,61,1 63 2853
RNRED,RNBUF 64 2852
SQRT,RN 64 2851
RESET,actMask 64 2850
CONV,actMask 64 2849
GET,0,1 100 2848
GET,1,1 100 2847
GET,2,1 100 2846
GET,3,1 100 2845
GET,4,1 100 2844
GET,5,1 100 2843
GET,6,1 100 2842
GET,7,1 100 2841
GET,8,1 100 2840
GET,9,1 100 2839
GET,10,1 100 2838
GET,11,1 100 2837
GET,12,1 100 2836
GET,13,1 100 2835
GET,14,1 100 2834
GET,15,1 100 2833
XTY,15,15,1 102 2832
XTY,14,14,1 102 2831
XTY,13,13,1 102 2830
XTY,12,12,1 102 2829
XTY,11,11,1 102 2828
XTY,10,10,1 102 2827
XTY,9,9,1 102 2826
XTY,8,8,1 102 2825
XTY,7,7,1 102 2824
XTY,6,6,1 102 2823
XTY,5,5,1 102 2822
XTY,4,4,1 102 2821
XTY,3,3,1 102 2820
XTY,2,2,1 102 2819
XTY,1,1,1 102 2818
XTY,0,0,1 102 2817
GET,16,1 88 2816
XTY,16,16,1 88 2815
GET,17,1 88 2814
XTY,17,17,1 88 2813
GET,18,1 88 2812
XTY,18,18,1 88 2811
GET,19,1 88 2810
XTY,19,19,1 88 2809
GET,20,1 88 2808
XTY,20,0,1 88 2807
GET,21,1 88 2806
XTY,21,1,1 88 2805
GET,22,1 88 2804
XTY,22,2,1 88 2803
GET,23,1 88 2802
XTY,23,3,1 88 2801
GET,24,1 88 2800
XTY,24,4,1 88 2799
GET,25,1 88 2798
XTY,25,5,1 88 2797
GET,26,1 88 2796
XTY,26,6,1 88 2795
GET,27,1 88 2794
XTY,27,7,1 88 2793
GET,28,1 88 2792
XTY,28,8,1 88 2791
GET,29,1 88 2790
XTY,29,9,1 88 2789
GET,30,1 88 2788
XTY,30,10,1 88 2787
GET,31,1 88 2786
XTY,31,11,1 88 2785
GET,32,1 93 2784
GET,33,1 93 2783
GET,34,1 93 2782
GET,35,1 93 2781
GET,36,1 93 2780
GET,37,1 93 2779
GET,38,1 93 2778
GET,39,1 93 2777
GET,40,1 93 2776
GET,41,1 93 2775
GET,42,1 93 2774
GET,43,1 93 2773
GET,44,1 93 2772
GET,45,1 93 2771
GET,46,1 93 2770
GET,47,1 93 2769
XTY,47,7,1 95 2768
XTY,46,6,1 95 2767
XTY,45,5,1 95 2766
XTY,44,4,1 95 2765
XTY,43,3,1 95 2764
XTY,42,2,1 95 2763
XTY,41,1,1 95 2762
XTY,40,0,1 95 2761
XTY,39,19,1 95 2760
XTY,38,18,1 95 2759
XTY,37,17,1 95 2758
XTY,36,16,1 95 2757
XTY,35,15,1 95 2756
XTY,34,14,1 95 2755
XTY,33,13,1 95 2754
XTY,32,12,1 95 2753
GET,48,1 108 2752
XTY,48,8,1 108 2751
GET,49,1 108 2750
XTY,49,9,1 108 2749
GET,50,1 108 2748
XTY,50,10,1 108 2747
GET,51,1 108 2746
XTY,51,11,1 108 2745
GET,52,1 108 2744
XTY,52,12,1 108 2743
GET,53,1 108 2742
XTY,53,13,1 108 2741
GET,54,1 108 2740
XTY,54,14,1 108 2739
GET,55,1 108 2738
XTY,55,15,1 108 2737
GET,56,1 108 2736
XTY,56,16,1 108 2735
GET,57,1 108 2734
XTY,57,17,1 108 2733
GET,58,1 108 2732
XTY,58,18,1 108 2731
GET,59,1 108 2730
XTY,59,19,1 108 2729
GET,60,1 108 2728
XTY,60,0,1 108 2727
GET,61,1 108 2726
XTY,61,1,1 108 2725
RED,temp2BUF,0 109 2724
XY,0,2 120 2723
XY,1,2 120 2722
XY,2,2 120 2721
XY,3,2 120 2720
XY,4,2 120 2719
XY,5,2 120 2718
XY,6,2 120 2717
XY,7,2 120 2716
XY,8,2 120 2715
XY,9,2 120 2714
XY,10,2 120 2713
XY,11,2 120 2712
XY,12,2 120 2711
XY,13,2 120 2710
XY,14,2 120 2709
XY,15,2 120 2708
SUB,15,2 186 2707
XTY,15,15,2 186 2706
SUB,14,2 186 2705
XTY,14,14,2 186 2704
SUB,13,2 186 2703
XTY,13,13,2 186 2702
SUB,12,2 186 2701
XTY,12,12,2 186 2700
SUB,11,2 186 2699
XTY,11,11,2 186 2698
SUB,10,2 186 2697
XTY,10,10,2 186 2696
SUB,9,2 186 2695
XTY,9,9,2 186 2694
SUB,8,2 186 2693
XTY,8,8,2 186 2692
SUB,7,2 186 2691
XTY,7,7,2 186 2690
SUB,6,2 186 2689
XTY,6,6,2 186 2688
SUB,5,2 186 2687
XTY,5,5,2 186 2686
SUB,4,2 186 2685
XTY,4,4,2 186 2684
SUB,3,2 186 2683
XTY,3,3,2 186 2682
SUB,2,2 186 2681
XTY,2,2,2 186 2680
SUB,1,2 186 2679
XTY,1,1,2 186 2678
SUB,0,2 186 2677
XTY,0,0,2 186 2676
XY,16,2 125 2675
XY,17,2 125 2674
XY,18,2 125 2673
XY,19,2 125 2672
XY,20,2 125 2671
XY,21,2 125 2670
XY,22,2 125 2669
XY,23,2 125 2668
XY,24,2 125 2667
XY,25,2 125 2666
XY,26,2 125 2665
XY,27,2 125 2664
XY,28,2 125 2663
XY,29,2 125 2662
XY,30,2 125 2661
XY,31,2 125 2660
SUB,31,2 150 2659
XTY,31,11,2 150 2658
SUB,30,2 150 2657
XTY,30,10,2 150 2656
SUB,29,2 150 2655
XTY,29,9,2 150 2654
SUB,28,2 150 2653
XTY,28,8,2 150 2652
SUB,27,2 150 2651
XTY,27,7,2 150 2650
SUB,26,2 150 2649
XTY,26,6,2 150 2648
SUB,25,2 150 2647
XTY,25,5,2 150 2646
SUB,24,2 150 2645
XTY,24,4,2 150 2644
SUB,23,2 150 2643
XTY,23,3,2 150 2642
SUB,22,2 150 2641
XTY,22,2,2 150 2640
SUB,21,2 150 2639
XTY,21,1,2 150 2638
SUB,20,2 150 2637
XTY,20,0,2 150 2636
SUB,19,2 150 2635
XTY,19,19,2 150 2634
SUB,18,2 150 2633
XTY,18,18,2 150 2632
SUB,17,2 150 2631
XTY,17,17,2 150 2630
SUB,16,2 150 2629
XTY,16,16,2 150 2628
XY,32,2 115 2627
XY,33,2 115 2626
XY,34,2 115 2625
XY,35,2 115 2624
XY,36,2 115 2623
XY,37,2 115 2622
XY,38,2 115 2621
XY,39,2 115 2620
XY,40,2 115 2619
XY,41,2 115 2618
XY,42,2 115 2617
XY,43,2 115 2616
XY,44,2 115 2615
XY,45,2 115 2614
XY,46,2 115 2613
XY,47,2 115 2612
SUB,47,2 163 2611
XTY,47,7,2 163 2610
SUB,46,2 163 2609
XTY,46,6,2 163 2608
SUB,45,2 163 2607
XTY,45,5,2 163 2606
SUB,44,2 163 2605
XTY,44,4,2 163 2604
SUB,43,2 163 2603
XTY,43,3,2 163 2602
SUB,42,2 163 2601
XTY,42,2,2 163 2600
SUB,41,2 163 2599
XTY,41,1,2 163 2598
SUB,40,2 163 2597
XTY,40,0,2 163 2596
SUB,39,2 163 2595
XTY,39,19,2 163 2594
SUB,38,2 163 2593
XTY,38,18,2 163 2592
SUB,37,2 163 2591
XTY,37,17,2 163 2590
SUB,36,2 163 2589
XTY,36,16,2 163 2588
SUB,35,2 163 2587
XTY,35,15,2 163 2586
SUB,34,2 163 2585
XTY,34,14,2 163 2584
SUB,33,2 163 2583
XTY,33,13,2 163 2582
SUB,32,2 163 2581
XTY,32,12,2 163 2580
XY,48,2 304 2579
XY,49,2 304 2578
XY,50,2 304 2577
XY,51,2 304 2576
XY,52,2 304 2575
XY,53,2 304 2574
XY,54,2 304 2573
XY,55,2 304 2572
XY,56,2 304 2571
XY,57,2 304 2570
XY,58,2 304 2569
XY,59,2 304 2568
XY,60,2 304 2567
XY,61,2 304 2566
SUB,61,2 306 2565
XTY,61,1,2 306 2564
SUB,60,2 306 2563
XTY,60,0,2 306 2562
SUB,59,2 306 2561
XTY,59,19,2 306 2560
SUB,58,2 306 2559
XTY,58,18,2 306 2558
SUB,57,2 306 2557
XTY,57,17,2 306 2556
SUB,56,2 306 2555
XTY,56,16,2 306 2554
SUB,55,2 306 2553
XTY,55,15,2 306 2552
SUB,54,2 306 2551
XTY,54,14,2 306 2550
SUB,53,2 306 2549
XTY,53,13,2 306 2548
SUB,52,2 306 2547
XTY,52,12,2 306 2546
SUB,51,2 306 2545
XTY,51,11,2 306 2544
SUB,50,2 306 2543
XTY,50,10,2 306 2542
SUB,49,2 306 2541
XTY,49,9,2 306 2540
SUB,48,2 306 2539
XTY,48,8,2 306 2538
RED,RBRBUF,0 307 2537
CHOL,RBR 308 2536
INV,RBR 314 2535
XY,48,3 314 2534
XY,49,3 314 2533
XY,50,3 314 2532
XY,51,3 314 2531
XY,52,3 314 2530
XY,53,3 314 2529
XY,54,3 314 2528
XY,55,3 314 2527
XY,56,3 314 2526
XY,57,3 314 2525
XY,58,3 314 2524
XY,59,3 314 2523
XY,60,3 314 2522
XY,61,3 314 2521
DLACPY,61,1 358 2520
SPMM,61,61,0 358 2519
DLACPY,60,1 358 2518
SPMM,60,60,0 358 2517
SPMM,61,60,0 358 2516
DLACPY,59,1 358 2515
SPMM,59,59,0 358 2514
SPMM,60,59,0 358 2513
SPMM,61,59,0 358 2512
DLACPY,58,1 358 2511
SPMM,58,58,0 358 2510
SPMM,59,58,0 358 2509
SPMM,60,58,0 358 2508
SPMM,61,58,0 358 2507
DLACPY,57,1 358 2506
SPMM,57,57,0 358 2505
SPMM,58,57,0 358 2504
SPMM,59,57,0 358 2503
SPMM,60,57,0 358 2502
SPMM,61,57,0 358 2501
DLACPY,56,1 358 2500
SPMM,56,56,0 358 2499
SPMM,57,56,0 358 2498
SPMM,58,56,0 358 2497
SPMM,59,56,0 358 2496
SPMM,60,56,0 358 2495
SPMM,61,56,0 358 2494
DLACPY,55,1 358 2493
SPMM,55,55,0 358 2492
SPMM,56,55,0 358 2491
SPMM,57,55,0 358 2490
SPMM,58,55,0 358 2489
SPMM,59,55,0 358 2488
SPMM,60,55,0 358 2487
SPMM,61,55,0 358 2486
DLACPY,54,1 358 2485
SPMM,54,54,0 358 2484
SPMM,55,54,0 358 2483
SPMM,56,54,0 358 2482
SPMM,57,54,0 358 2481
SPMM,58,54,0 358 2480
SPMM,59,54,0 358 2479
SPMM,60,54,0 358 2478
SPMM,61,54,0 358 2477
DLACPY,53,1 358 2476
SPMM,53,53,0 358 2475
SPMM,54,53,0 358 2474
SPMM,55,53,0 358 2473
SPMM,56,53,0 358 2472
SPMM,57,53,0 358 2471
SPMM,58,53,0 358 2470
SPMM,59,53,0 358 2469
SPMM,61,53,0 358 2468
DLACPY,52,1 358 2467
SPMM,52,52,0 358 2466
SPMM,53,52,0 358 2465
SPMM,54,52,0 358 2464
SPMM,56,52,0 358 2463
SPMM,57,52,0 358 2462
SPMM,60,52,0 358 2461
SPMM,61,52,0 358 2460
DLACPY,51,1 358 2459
SPMM,51,51,0 358 2458
SPMM,52,51,0 358 2457
SPMM,53,51,0 358 2456
SPMM,54,51,0 358 2455
DLACPY,50,1 358 2454
SPMM,50,50,0 358 2453
SPMM,51,50,0 358 2452
SPMM,52,50,0 358 2451
SPMM,53,50,0 358 2450
SPMM,54,50,0 358 2449
SPMM,55,50,0 358 2448
SPMM,56,50,0 358 2447
SPMM,58,50,0 358 2446
SPMM,59,50,0 358 2445
SPMM,61,50,0 358 2444
DLACPY,49,1 358 2443
SPMM,49,49,0 358 2442
SPMM,50,49,0 358 2441
SPMM,51,49,0 358 2440
SPMM,52,49,0 358 2439
SPMM,53,49,0 358 2438
SPMM,54,49,0 358 2437
SPMM,55,49,0 358 2436
SPMM,56,49,0 358 2435
DLACPY,48,1 358 2434
SPMM,48,48,0 358 2433
SPMM,49,48,0 358 2432
SPMM,50,48,0 358 2431
SPMM,51,48,0 358 2430
SPMM,52,48,0 358 2429
SPMM,53,48,0 358 2428
SPMM,54,48,0 358 2427
SPMM,55,48,0 358 2426
SPMM,56,48,0 358 2425
SPMM,58,48,0 358 2424
SPMM,59,48,0 358 2423
SPMM,60,48,0 358 2422
SPMM,61,48,0 358 2421
UPDATE,48,1 364 2420
UPDATE,49,1 364 2419
UPDATE,50,1 364 2418
UPDATE,51,1 364 2417
UPDATE,52,1 364 2416
UPDATE,53,1 364 2415
UPDATE,54,1 364 2414
UPDATE,55,1 364 2413
UPDATE,56,1 364 2412
UPDATE,57,1 364 2411
UPDATE,58,1 364 2410
UPDATE,59,1 364 2409
UPDATE,60,1 364 2408
UPDATE,61,1 364 2407
XTY,48,8,4 363 2406
XTY,49,9,4 363 2405
XTY,50,10,4 363 2404
XTY,51,11,4 363 2403
XTY,52,12,4 363 2402
XTY,53,13,4 363 2401
XTY,54,14,4 363 2400
XTY,55,15,4 363 2399
XTY,56,16,4 363 2398
XTY,57,17,4 363 2397
XTY,58,18,4 363 2396
XTY,59,19,4 363 2395
XTY,60,0,4 363 2394
XTY,61,1,4 363 2393
XY,0,3 329 2392
XY,1,3 329 2391
XY,2,3 329 2390
XY,3,3 329 2389
XY,4,3 329 2388
XY,5,3 329 2387
XY,6,3 329 2386
XY,7,3 329 2385
XY,8,3 329 2384
XY,9,3 329 2383
XY,10,3 329 2382
XY,11,3 329 2381
XY,12,3 329 2380
XY,13,3 329 2379
XY,14,3 329 2378
XY,15,3 329 2377
DLACPY,15,1 382 2376
SPMM,16,15,0 382 2375
SPMM,17,15,0 382 2374
SPMM,23,15,0 382 2373
SPMM,24,15,0 382 2372
SPMM,25,15,0 382 2371
SPMM,26,15,0 382 2370
SPMM,27,15,0 382 2369
SPMM,28,15,0 382 2368
SPMM,29,15,0 382 2367
SPMM,30,15,0 382 2366
DLACPY,14,1 382 2365
SPMM,16,14,0 382 2364
SPMM,17,14,0 382 2363
SPMM,23,14,0 382 2362
SPMM,24,14,0 382 2361
SPMM,30,14,0 382 2360
DLACPY,13,1 382 2359
SPMM,16,13,0 382 2358
SPMM,17,13,0 382 2357
SPMM,23,13,0 382 2356
SPMM,24,13,0 382 2355
SPMM,30,13,0 382 2354
DLACPY,12,1 382 2353
SPMM,16,12,0 382 2352
SPMM,17,12,0 382 2351
DLACPY,11,1 382 2350
SPMM,16,11,0 382 2349
SPMM,17,11,0 382 2348
DLACPY,10,1 382 2347
SPMM,16,10,0 382 2346
SPMM,17,10,0 382 2345
DLACPY,9,1 382 2344
SPMM,16,9,0 382 2343
SPMM,17,9,0 382 2342
SPMM,23,9,0 382 2341
SPMM,24,9,0 382 2340
SPMM,28,9,0 382 2339
SPMM,29,9,0 382 2338
SPMM,30,9,0 382 2337
DLACPY,8,1 382 2336
SPMM,16,8,0 382 2335
SPMM,17,8,0 382 2334
DLACPY,7,1 382 2333
SPMM,16,7,0 382 2332
SPMM,17,7,0 382 2331
DLACPY,6,1 382 2330
SPMM,16,6,0 382 2329
SPMM,17,6,0 382 2328
DLACPY,5,1 382 2327
SPMM,16,5,0 382 2326
SPMM,17,5,0 382 2325
SPMM,23,5,0 382 2324
SPMM,24,5,0 382 2323
SPMM,25,5,0 382 2322
SPMM,27,5,0 382 2321
SPMM,28,5,0 382 2320
SPMM,30,5,0 382 2319
DLACPY,4,1 382 2318
SPMM,16,4,0 382 2317
SPMM,17,4,0 382 2316
SPMM,30,4,0 382 2315
DLACPY,3,1 382 2314
SPMM,16,3,0 382 2313
SPMM,17,3,0 382 2312
SPMM,18,3,0 382 2311
SPMM,19,3,0 382 2310
SPMM,21,3,0 382 2309
SPMM,23,3,0 382 2308
SPMM,24,3,0 382 2307
SPMM,25,3,0 382 2306
SPMM,26,3,0 382 2305
SPMM,27,3,0 382 2304
SPMM,28,3,0 382 2303
SPMM,29,3,0 382 2302
SPMM,30,3,0 382 2301
DLACPY,2,1 382 2300
SPMM,17,2,0 382 2299
SPMM,18,2,0 382 2298
SPMM,19,2,0 382 2297
SPMM,20,2,0 382 2296
SPMM,21,2,0 382 2295
SPMM,22,2,0 382 2294
SPMM,23,2,0 382 2293
SPMM,24,2,0 382 2292
SPMM,25,2,0 382 2291
SPMM,26,2,0 382 2290
SPMM,27,2,0 382 2289
SPMM,28,2,0 382 2288
SPMM,29,2,0 382 2287
SPMM,30,2,0 382 2286
DLACPY,1,1 382 2285
SPMM,16,1,0 382 2284
SPMM,17,1,0 382 2283
SPMM,18,1,0 382 2282
SPMM,19,1,0 382 2281
SPMM,20,1,0 382 2280
SPMM,21,1,0 382 2279
SPMM,22,1,0 382 2278
SPMM,23,1,0 382 2277
SPMM,24,1,0 382 2276
SPMM,25,1,0 382 2275
SPMM,26,1,0 382 2274
SPMM,27,1,0 382 2273
SPMM,28,1,0 382 2272
SPMM,29,1,0 382 2271
SPMM,30,1,0 382 2270
DLACPY,0,1 382 2269
SPMM,16,0,0 382 2268
SPMM,17,0,0 382 2267
SPMM,23,0,0 382 2266
SPMM,24,0,0 382 2265
SPMM,25,0,0 382 2264
SPMM,27,0,0 382 2263
SPMM,28,0,0 382 2262
SPMM,29,0,0 382 2261
SPMM,30,0,0 382 2260
UPDATE,0,1 398 2259
UPDATE,1,1 398 2258
UPDATE,2,1 398 2257
UPDATE,3,1 398 2256
UPDATE,4,1 398 2255
UPDATE,5,1 398 2254
UPDATE,6,1 398 2253
UPDATE,7,1 398 2252
UPDATE,8,1 398 2251
UPDATE,9,1 398 2250
UPDATE,10,1 398 2249
UPDATE,11,1 398 2248
UPDATE,12,1 398 2247
UPDATE,13,1 398 2246
UPDATE,14,1 398 2245
UPDATE,15,1 398 2244
XTY,0,0,4 391 2243
XTY,1,1,4 391 2242
XTY,2,2,4 391 2241
XTY,3,3,4 391 2240
XTY,4,4,4 391 2239
XTY,5,5,4 391 2238
XTY,6,6,4 391 2237
XTY,7,7,4 391 2236
XTY,8,8,4 391 2235
XTY,9,9,4 391 2234
XTY,10,10,4 391 2233
XTY,11,11,4 391 2232
XTY,12,12,4 391 2231
XTY,13,13,4 391 2230
XTY,14,14,4 391 2229
XTY,15,15,4 391 2228
SPMM,0,0,0 423 2227
XTY,0,0,5 423 2226
SPMM,1,0,0 423 2225
SPMM,3,0,0 423 2224
SPMM,4,0,0 423 2223
SPMM,5,0,0 423 2222
SPMM,6,0,0 423 2221
SPMM,7,0,0 423 2220
SPMM,8,0,0 423 2219
SPMM,9,0,0 423 2218
SPMM,10,0,0 423 2217
SPMM,11,0,0 423 2216
SPMM,12,0,0 423 2215
SPMM,13,0,0 423 2214
SPMM,14,0,0 423 2213
SPMM,15,0,0 423 2212
SPMM,1,1,0 423 2211
XTY,1,1,5 423 2210
SPMM,2,1,0 423 2209
SPMM,3,1,0 423 2208
SPMM,4,1,0 423 2207
SPMM,5,1,0 423 2206
SPMM,6,1,0 423 2205
SPMM,7,1,0 423 2204
SPMM,8,1,0 423 2203
SPMM,9,1,0 423 2202
SPMM,10,1,0 423 2201
SPMM,11,1,0 423 2200
SPMM,12,1,0 423 2199
SPMM,13,1,0 423 2198
SPMM,14,1,0 423 2197
SPMM,15,1,0 423 2196
SPMM,2,2,0 423 2195
XTY,2,2,5 423 2194
SPMM,3,2,0 423 2193
SPMM,14,2,0 423 2192
SPMM,15,2,0 423 2191
SPMM,3,3,0 423 2190
XTY,3,3,5 423 2189
SPMM,4,3,0 423 2188
SPMM,5,3,0 423 2187
SPMM,6,3,0 423 2186
SPMM,7,3,0 423 2185
SPMM,8,3,0 423 2184
SPMM,9,3,0 423 2183
SPMM,10,3,0 423 2182
SPMM,11,3,0 423 2181
SPMM,12,3,0 423 2180
SPMM,13,3,0 423 2179
SPMM,14,3,0 423 2178
SPMM,15,3,0 423 2177
SPMM,4,4,0 423 2176
XTY,4,4,5 423 2175
SPMM,5,4,0 423 2174
SPMM,6,4,0 423 2173
SPMM,7,4,0 423 2172
SPMM,8,4,0 423 2171
SPMM,9,4,0 423 2170
SPMM,10,4,0 423 2169
SPMM,11,4,0 423 2168
SPMM,12,4,0 423 2167
SPMM,13,4,0 423 2166
SPMM,14,4,0 423 2165
SPMM,15,4,0 423 2164
SPMM,5,5,0 423 2163
XTY,5,5,5 423 2162
SPMM,6,5,0 423 2161
SPMM,7,5,0 423 2160
SPMM,8,5,0 423 2159
SPMM,9,5,0 423 2158
SPMM,10,5,0 423 2157
SPMM,11,5,0 423 2156
SPMM,12,5,0 423 2155
SPMM,13,5,0 423 2154
SPMM,14,5,0 423 2153
SPMM,15,5,0 423 2152
SPMM,6,6,0 423 2151
XTY,6,6,5 423 2150
SPMM,7,6,0 423 2149
SPMM,9,6,0 423 2148
SPMM,10,6,0 423 2147
SPMM,12,6,0 423 2146
SPMM,13,6,0 423 2145
SPMM,14,6,0 423 2144
SPMM,15,6,0 423 2143
SPMM,7,7,0 423 2142
XTY,7,7,5 423 2141
SPMM,8,7,0 423 2140
SPMM,9,7,0 423 2139
SPMM,10,7,0 423 2138
SPMM,11,7,0 423 2137
SPMM,12,7,0 423 2136
SPMM,13,7,0 423 2135
SPMM,14,7,0 423 2134
SPMM,15,7,0 423 2133
SPMM,8,8,0 423 2132
XTY,8,8,5 423 2131
SPMM,9,8,0 423 2130
SPMM,11,8,0 423 2129
SPMM,12,8,0 423 2128
SPMM,13,8,0 423 2127
SPMM,14,8,0 423 2126
SPMM,15,8,0 423 2125
SPMM,9,9,0 423 2124
XTY,9,9,5 423 2123
SPMM,10,9,0 423 2122
SPMM,11,9,0 423 2121
SPMM,12,9,0 423 2120
SPMM,13,9,0 423 2119
SPMM,14,9,0 423 2118
SPMM,15,9,0 423 2117
SPMM,10,10,0 423 2116
XTY,10,10,5 423 2115
SPMM,11,10,0 423 2114
SPMM,12,10,0 423 2113
SPMM,13,10,0 423 2112
SPMM,14,10,0 423 2111
SPMM,15,10,0 423 2110
SPMM,11,11,0 423 2109
XTY,11,11,5 423 2108
SPMM,12,11,0 423 2107
SPMM,13,11,0 423 2106
SPMM,14,11,0 423 2105
SPMM,15,11,0 423 2104
SPMM,12,12,0 423 2103
XTY,12,12,5 423 2102
SPMM,13,12,0 423 2101
SPMM,15,12,0 423 2100
SPMM,13,13,0 423 2099
XTY,13,13,5 423 2098
SPMM,14,13,0 423 2097
SPMM,15,13,0 423 2096
SPMM,14,14,0 423 2095
XTY,14,14,5 423 2094
SPMM,15,14,0 423 2093
SPMM,15,15,0 423 2092
XTY,15,15,5 423 2091
XY,16,3 375 2090
XY,17,3 375 2089
XY,18,3 375 2088
XY,19,3 375 2087
XY,20,3 375 2086
XY,21,3 375 2085
XY,22,3 375 2084
XY,23,3 375 2083
XY,24,3 375 2082
XY,25,3 375 2081
XY,26,3 375 2080
XY,27,3 375 2079
XY,28,3 375 2078
XY,29,3 375 2077
XY,30,3 375 2076
XY,31,3 375 2075
DLACPY,31,1 377 2074
DLACPY,30,1 377 2073
DLACPY,29,1 377 2072
DLACPY,28,1 377 2071
DLACPY,27,1 377 2070
DLACPY,26,1 377 2069
DLACPY,25,1 377 2068
DLACPY,24,1 377 2067
DLACPY,23,1 377 2066
DLACPY,22,1 377 2065
DLACPY,21,1 377 2064
DLACPY,20,1 377 2063
DLACPY,19,1 377 2062
DLACPY,18,1 377 2061
DLACPY,17,1 377 2060
DLACPY,16,1 377 2059
SPMM,32,30,0 405 2058
SPMM,34,30,0 405 2057
SPMM,35,30,0 405 2056
SPMM,36,30,0 405 2055
SPMM,37,30,0 405 2054
SPMM,38,30,0 405 2053
SPMM,39,30,0 405 2052
SPMM,40,30,0 405 2051
SPMM,41,30,0 405 2050
SPMM,42,30,0 405 2049
SPMM,43,30,0 405 2048
SPMM,44,30,0 405 2047
SPMM,45,30,0 405 2046
SPMM,46,30,0 405 2045
SPMM,47,30,0 405 2044
SPMM,32,31,0 405 2043
SPMM,34,31,0 405 2042
SPMM,35,31,0 405 2041
SPMM,36,31,0 405 2040
SPMM,37,31,0 405 2039
SPMM,38,31,0 405 2038
SPMM,39,31,0 405 2037
SPMM,40,31,0 405 2036
SPMM,41,31,0 405 2035
SPMM,42,31,0 405 2034
SPMM,43,31,0 405 2033
SPMM,44,31,0 405 2032
SPMM,45,31,0 405 2031
SPMM,46,31,0 405 2030
SPMM,47,31,0 405 2029
SPMM,61,16,0 434 2028
SPMM,61,17,0 434 2027
SPMM,61,19,0 434 2026
SPMM,61,20,0 434 2025
SPMM,61,21,0 434 2024
SPMM,61,22,0 434 2023
SPMM,61,23,0 434 2022
SPMM,61,24,0 434 2021
SPMM,61,25,0 434 2020
SPMM,61,26,0 434 2019
SPMM,61,27,0 434 2018
SPMM,61,28,0 434 2017
SPMM,48,30,0 434 2016
SPMM,54,30,0 434 2015
SPMM,56,30,0 434 2014
SPMM,58,30,0 434 2013
SPMM,60,30,0 434 2012
SPMM,61,30,0 434 2011
SPMM,48,31,0 434 2010
SPMM,54,31,0 434 2009
SPMM,58,31,0 434 2008
SPMM,59,31,0 434 2007
SPMM,60,31,0 434 2006
SPMM,61,31,0 434 2005
UPDATE,16,1 399 2004
UPDATE,17,1 399 2003
UPDATE,18,1 399 2002
UPDATE,19,1 399 2001
UPDATE,20,1 399 2000
UPDATE,21,1 399 1999
UPDATE,22,1 399 1998
UPDATE,23,1 399 1997
UPDATE,24,1 399 1996
UPDATE,25,1 399 1995
UPDATE,26,1 399 1994
UPDATE,27,1 399 1993
UPDATE,28,1 399 1992
UPDATE,29,1 399 1991
UPDATE,30,1 399 1990
UPDATE,31,1 399 1989
SPMM,16,16,0 451 1988
XTY,16,16,5 451 1987
SPMM,17,16,0 451 1986
SPMM,17,17,0 451 1985
XTY,17,17,5 451 1984
SPMM,18,17,0 451 1983
SPMM,19,17,0 451 1982
SPMM,20,17,0 451 1981
SPMM,21,17,0 451 1980
SPMM,22,17,0 451 1979
SPMM,23,17,0 451 1978
SPMM,25,17,0 451 1977
SPMM,18,18,0 451 1976
XTY,18,18,5 451 1975
SPMM,19,18,0 451 1974
SPMM,20,18,0 451 1973
SPMM,21,18,0 451 1972
SPMM,22,18,0 451 1971
SPMM,23,18,0 451 1970
SPMM,24,18,0 451 1969
SPMM,25,18,0 451 1968
SPMM,26,18,0 451 1967
SPMM,28,18,0 451 1966
SPMM,30,18,0 451 1965
SPMM,19,19,0 451 1964
XTY,19,19,5 451 1963
SPMM,20,19,0 451 1962
SPMM,21,19,0 451 1961
SPMM,22,19,0 451 1960
SPMM,23,19,0 451 1959
SPMM,24,19,0 451 1958
SPMM,25,19,0 451 1957
SPMM,28,19,0 451 1956
SPMM,29,19,0 451 1955
SPMM,30,19,0 451 1954
SPMM,20,20,0 451 1953
XTY,20,0,5 451 1952
SPMM,21,20,0 451 1951
SPMM,22,20,0 451 1950
SPMM,23,20,0 451 1949
SPMM,21,21,0 451 1948
XTY,21,1,5 451 1947
SPMM,22,21,0 451 1946
SPMM,23,21,0 451 1945
SPMM,25,21,0 451 1944
SPMM,26,21,0 451 1943
SPMM,30,21,0 451 1942
SPMM,22,22,0 451 1941
XTY,22,2,5 451 1940
SPMM,23,22,0 451 1939
SPMM,23,23,0 451 1938
XTY,23,3,5 451 1937
SPMM,24,23,0 451 1936
SPMM,25,23,0 451 1935
SPMM,26,23,0 451 1934
SPMM,27,23,0 451 1933
SPMM,28,23,0 451 1932
SPMM,29,23,0 451 1931
SPMM,30,23,0 451 1930
SPMM,24,24,0 451 1929
XTY,24,4,5 451 1928
SPMM,25,24,0 451 1927
SPMM,26,24,0 451 1926
SPMM,27,24,0 451 1925
SPMM,28,24,0 451 1924
SPMM,29,24,0 451 1923
SPMM,30,24,0 451 1922
SPMM,25,25,0 451 1921
XTY,25,5,5 451 1920
SPMM,26,25,0 451 1919
SPMM,27,25,0 451 1918
SPMM,28,25,0 451 1917
SPMM,29,25,0 451 1916
SPMM,30,25,0 451 1915
SPMM,26,26,0 451 1914
XTY,26,6,5 451 1913
SPMM,27,26,0 451 1912
SPMM,28,26,0 451 1911
SPMM,29,26,0 451 1910
SPMM,30,26,0 451 1909
SPMM,27,27,0 451 1908
XTY,27,7,5 451 1907
SPMM,28,27,0 451 1906
SPMM,29,27,0 451 1905
SPMM,30,27,0 451 1904
SPMM,28,28,0 451 1903
XTY,28,8,5 451 1902
SPMM,29,28,0 451 1901
SPMM,30,28,0 451 1900
SPMM,29,29,0 451 1899
XTY,29,9,5 451 1898
SPMM,30,29,0 451 1897
SPMM,30,30,0 451 1896
XTY,30,10,5 451 1895
SPMM,31,30,0 451 1894
SPMM,31,31,0 451 1893
XTY,31,11,5 451 1892
XY,32,3 323 1891
XY,33,3 323 1890
XY,34,3 323 1889
XY,35,3 323 1888
XY,36,3 323 1887
XY,37,3 323 1886
XY,38,3 323 1885
XY,39,3 323 1884
XY,40,3 323 1883
XY,41,3 323 1882
XY,42,3 323 1881
XY,43,3 323 1880
XY,44,3 323 1879
XY,45,3 323 1878
XY,46,3 323 1877
XY,47,3 323 1876
DLACPY,47,1 335 1875
SPMM,47,47,0 335 1874
DLACPY,46,1 335 1873
SPMM,46,46,0 335 1872
SPMM,47,46,0 335 1871
DLACPY,45,1 335 1870
SPMM,45,45,0 335 1869
SPMM,46,45,0 335 1868
SPMM,47,45,0 335 1867
DLACPY,44,1 335 1866
SPMM,44,44,0 335 1865
SPMM,45,44,0 335 1864
SPMM,46,44,0 335 1863
SPMM,47,44,0 335 1862
DLACPY,43,1 335 1861
SPMM,43,43,0 335 1860
SPMM,44,43,0 335 1859
SPMM,45,43,0 335 1858
SPMM,46,43,0 335 1857
SPMM,47,43,0 335 1856
DLACPY,42,1 335 1855
SPMM,42,42,0 335 1854
SPMM,43,42,0 335 1853
SPMM,44,42,0 335 1852
SPMM,45,42,0 335 1851
SPMM,46,42,0 335 1850
SPMM,47,42,0 335 1849
DLACPY,41,1 335 1848
SPMM,41,41,0 335 1847
SPMM,42,41,0 335 1846
SPMM,43,41,0 335 1845
SPMM,44,41,0 335 1844
SPMM,45,41,0 335 1843
SPMM,46,41,0 335 1842
SPMM,47,41,0 335 1841
DLACPY,40,1 335 1840
SPMM,40,40,0 335 1839
SPMM,41,40,0 335 1838
SPMM,42,40,0 335 1837
SPMM,43,40,0 335 1836
SPMM,44,40,0 335 1835
SPMM,45,40,0 335 1834
SPMM,46,40,0 335 1833
SPMM,47,40,0 335 1832
DLACPY,39,1 335 1831
SPMM,39,39,0 335 1830
SPMM,40,39,0 335 1829
SPMM,41,39,0 335 1828
SPMM,42,39,0 335 1827
SPMM,43,39,0 335 1826
SPMM,44,39,0 335 1825
SPMM,45,39,0 335 1824
SPMM,46,39,0 335 1823
SPMM,47,39,0 335 1822
DLACPY,38,1 335 1821
SPMM,38,38,0 335 1820
SPMM,39,38,0 335 1819
SPMM,40,38,0 335 1818
SPMM,41,38,0 335 1817
SPMM,42,38,0 335 1816
SPMM,43,38,0 335 1815
SPMM,44,38,0 335 1814
SPMM,45,38,0 335 1813
SPMM,46,38,0 335 1812
SPMM,47,38,0 335 1811
DLACPY,37,1 335 1810
SPMM,37,37,0 335 1809
SPMM,38,37,0 335 1808
SPMM,39,37,0 335 1807
SPMM,40,37,0 335 1806
SPMM,41,37,0 335 1805
SPMM,43,37,0 335 1804
SPMM,45,37,0 335 1803
SPMM,46,37,0 335 1802
SPMM,47,37,0 335 1801
DLACPY,36,1 335 1800
SPMM,36,36,0 335 1799
SPMM,37,36,0 335 1798
SPMM,38,36,0 335 1797
SPMM,39,36,0 335 1796
SPMM,40,36,0 335 1795
SPMM,41,36,0 335 1794
SPMM,42,36,0 335 1793
SPMM,43,36,0 335 1792
SPMM,44,36,0 335 1791
SPMM,45,36,0 335 1790
SPMM,46,36,0 335 1789
SPMM,47,36,0 335 1788
DLACPY,35,1 335 1787
SPMM,35,35,0 335 1786
SPMM,36,35,0 335 1785
SPMM,37,35,0 335 1784
SPMM,38,35,0 335 1783
SPMM,39,35,0 335 1782
SPMM,40,35,0 335 1781
SPMM,41,35,0 335 1780
SPMM,42,35,0 335 1779
SPMM,43,35,0 335 1778
SPMM,44,35,0 335 1777
SPMM,45,35,0 335 1776
SPMM,46,35,0 335 1775
SPMM,47,35,0 335 1774
DLACPY,34,1 335 1773
SPMM,34,34,0 335 1772
SPMM,35,34,0 335 1771
SPMM,36,34,0 335 1770
SPMM,37,34,0 335 1769
SPMM,38,34,0 335 1768
SPMM,39,34,0 335 1767
SPMM,40,34,0 335 1766
SPMM,41,34,0 335 1765
SPMM,42,34,0 335 1764
SPMM,43,34,0 335 1763
SPMM,44,34,0 335 1762
SPMM,45,34,0 335 1761
SPMM,46,34,0 335 1760
SPMM,47,34,0 335 1759
DLACPY,33,1 335 1758
SPMM,33,33,0 335 1757
SPMM,34,33,0 335 1756
SPMM,45,33,0 335 1755
DLACPY,32,1 335 1754
SPMM,32,32,0 335 1753
SPMM,33,32,0 335 1752
SPMM,34,32,0 335 1751
SPMM,35,32,0 335 1750
SPMM,36,32,0 335 1749
SPMM,37,32,0 335 1748
SPMM,38,32,0 335 1747
SPMM,39,32,0 335 1746
SPMM,40,32,0 335 1745
SPMM,41,32,0 335 1744
SPMM,42,32,0 335 1743
SPMM,43,32,0 335 1742
SPMM,44,32,0 335 1741
SPMM,45,32,0 335 1740
SPMM,46,32,0 335 1739
SPMM,47,32,0 335 1738
SPMM,48,32,0 341 1737
SPMM,49,32,0 341 1736
SPMM,50,32,0 341 1735
SPMM,51,32,0 341 1734
SPMM,52,32,0 341 1733
SPMM,53,32,0 341 1732
SPMM,54,32,0 341 1731
SPMM,55,32,0 341 1730
SPMM,56,32,0 341 1729
SPMM,57,32,0 341 1728
SPMM,58,32,0 341 1727
SPMM,59,32,0 341 1726
SPMM,60,32,0 341 1725
SPMM,61,32,0 341 1724
SPMM,48,33,0 341 1723
SPMM,49,33,0 341 1722
SPMM,50,33,0 341 1721
SPMM,51,33,0 341 1720
SPMM,52,33,0 341 1719
SPMM,53,33,0 341 1718
SPMM,54,33,0 341 1717
SPMM,55,33,0 341 1716
SPMM,56,33,0 341 1715
SPMM,57,33,0 341 1714
SPMM,58,33,0 341 1713
SPMM,59,33,0 341 1712
SPMM,60,33,0 341 1711
SPMM,61,33,0 341 1710
SPMM,48,34,0 341 1709
SPMM,50,34,0 341 1708
SPMM,52,34,0 341 1707
SPMM,53,34,0 341 1706
SPMM,54,34,0 341 1705
SPMM,55,34,0 341 1704
SPMM,56,34,0 341 1703
SPMM,57,34,0 341 1702
SPMM,58,34,0 341 1701
SPMM,59,34,0 341 1700
SPMM,60,34,0 341 1699
SPMM,61,34,0 341 1698
SPMM,48,35,0 341 1697
SPMM,54,35,0 341 1696
SPMM,56,35,0 341 1695
SPMM,58,35,0 341 1694
SPMM,60,35,0 341 1693
SPMM,61,35,0 341 1692
SPMM,48,36,0 341 1691
SPMM,61,36,0 341 1690
SPMM,48,37,0 341 1689
SPMM,61,37,0 341 1688
SPMM,48,38,0 341 1687
SPMM,61,38,0 341 1686
SPMM,48,39,0 341 1685
SPMM,54,39,0 341 1684
SPMM,58,39,0 341 1683
SPMM,59,39,0 341 1682
SPMM,60,39,0 341 1681
SPMM,61,39,0 341 1680
SPMM,48,40,0 341 1679
SPMM,54,40,0 341 1678
SPMM,58,40,0 341 1677
SPMM,59,40,0 341 1676
SPMM,61,40,0 341 1675
SPMM,48,41,0 341 1674
SPMM,61,41,0 341 1673
SPMM,48,42,0 341 1672
SPMM,48,43,0 341 1671
SPMM,54,43,0 341 1670
SPMM,60,43,0 341 1669
SPMM,61,43,0 341 1668
SPMM,48,44,0 341 1667
SPMM,54,44,0 341 1666
SPMM,60,44,0 341 1665
SPMM,61,44,0 341 1664
SPMM,48,45,0 341 1663
SPMM,54,45,0 341 1662
SPMM,56,45,0 341 1661
SPMM,57,45,0 341 1660
SPMM,58,45,0 341 1659
SPMM,59,45,0 341 1658
SPMM,60,45,0 341 1657
SPMM,48,46,0 341 1656
SPMM,48,47,0 341 1655
SPMM,61,47,0 341 1654
UPDATE,32,1 348 1653
UPDATE,33,1 348 1652
UPDATE,34,1 348 1651
UPDATE,35,1 348 1650
UPDATE,36,1 348 1649
UPDATE,37,1 348 1648
UPDATE,38,1 348 1647
UPDATE,39,1 348 1646
UPDATE,40,1 348 1645
UPDATE,41,1 348 1644
UPDATE,42,1 348 1643
UPDATE,43,1 348 1642
UPDATE,44,1 348 1641
UPDATE,45,1 348 1640
UPDATE,46,1 348 1639
UPDATE,47,1 348 1638
XTY,32,12,4 353 1637
XTY,33,13,4 353 1636
XTY,34,14,4 353 1635
XTY,35,15,4 353 1634
XTY,36,16,4 353 1633
XTY,37,17,4 353 1632
XTY,38,18,4 353 1631
XTY,39,19,4 353 1630
XTY,40,0,4 353 1629
XTY,41,1,4 353 1628
XTY,42,2,4 353 1627
XTY,43,3,4 353 1626
XTY,44,4,4 353 1625
XTY,45,5,4 353 1624
XTY,46,6,4 353 1623
XTY,47,7,4 353 1622
XTY,16,16,4 465 1621
XTY,17,17,4 465 1620
XTY,18,18,4 465 1619
XTY,19,19,4 465 1618
XTY,20,0,4 465 1617
XTY,21,1,4 465 1616
XTY,22,2,4 465 1615
XTY,23,3,4 465 1614
XTY,24,4,4 465 1613
XTY,25,5,4 465 1612
XTY,26,6,4 465 1611
XTY,27,7,4 465 1610
XTY,28,8,4 465 1609
XTY,29,9,4 465 1608
XTY,30,10,4 465 1607
XTY,31,11,4 465 1606
RED,XARBUF,0 465 1605
GET,16,2 137 1604
XTY,16,16,3 137 1603
GET,17,2 137 1602
XTY,17,17,3 137 1601
GET,18,2 137 1600
XTY,18,18,3 137 1599
GET,19,2 137 1598
XTY,19,19,3 137 1597
GET,20,2 137 1596
XTY,20,0,3 137 1595
GET,21,2 137 1594
XTY,21,1,3 137 1593
GET,22,2 137 1592
XTY,22,2,3 137 1591
GET,23,2 137 1590
XTY,23,3,3 137 1589
GET,24,2 137 1588
XTY,24,4,3 137 1587
GET,25,2 137 1586
XTY,25,5,3 137 1585
GET,26,2 137 1584
XTY,26,6,3 137 1583
GET,27,2 137 1582
XTY,27,7,3 137 1581
GET,28,2 137 1580
XTY,28,8,3 137 1579
GET,29,2 137 1578
XTY,29,9,3 137 1577
GET,30,2 137 1576
XTY,30,10,3 137 1575
GET,31,2 137 1574
XTY,31,11,3 137 1573
GET,32,2 156 1572
XTY,32,12,3 156 1571
GET,33,2 156 1570
XTY,33,13,3 156 1569
GET,34,2 156 1568
XTY,34,14,3 156 1567
GET,35,2 156 1566
XTY,35,15,3 156 1565
GET,36,2 156 1564
XTY,36,16,3 156 1563
GET,37,2 156 1562
XTY,37,17,3 156 1561
GET,38,2 156 1560
XTY,38,18,3 156 1559
GET,39,2 156 1558
XTY,39,19,3 156 1557
GET,40,2 156 1556
XTY,40,0,3 156 1555
GET,41,2 156 1554
XTY,41,1,3 156 1553
GET,42,2 156 1552
XTY,42,2,3 156 1551
GET,43,2 156 1550
XTY,43,3,3 156 1549
GET,44,2 156 1548
XTY,44,4,3 156 1547
GET,45,2 156 1546
XTY,45,5,3 156 1545
GET,46,2 156 1544
XTY,46,6,3 156 1543
GET,47,2 156 1542
XTY,47,7,3 156 1541
GET,48,2 144 1540
XTY,48,8,3 144 1539
GET,49,2 144 1538
XTY,49,9,3 144 1537
GET,50,2 144 1536
XTY,50,10,3 144 1535
GET,51,2 144 1534
XTY,51,11,3 144 1533
GET,52,2 144 1532
XTY,52,12,3 144 1531
GET,53,2 144 1530
XTY,53,13,3 144 1529
GET,54,2 144 1528
XTY,54,14,3 144 1527
GET,55,2 144 1526
XTY,55,15,3 144 1525
GET,56,2 144 1524
XTY,56,16,3 144 1523
GET,57,2 144 1522
XTY,57,17,3 144 1521
GET,58,2 144 1520
XTY,58,18,3 144 1519
GET,59,2 144 1518
XTY,59,19,3 144 1517
GET,60,2 144 1516
XTY,60,0,3 144 1515
GET,61,2 144 1514
XTY,61,1,3 144 1513
GET,0,3 82 1512
GET,1,3 82 1511
GET,2,3 82 1510
GET,3,3 82 1509
GET,4,3 82 1508
GET,5,3 82 1507
GET,6,3 82 1506
GET,7,3 82 1505
GET,8,3 82 1504
GET,9,3 82 1503
GET,10,3 82 1502
GET,11,3 82 1501
GET,12,3 82 1500
GET,13,3 82 1499
GET,14,3 82 1498
GET,15,3 82 1497
GET,16,3 76 1496
GET,17,3 76 1495
GET,18,3 76 1494
GET,19,3 76 1493
GET,20,3 76 1492
GET,21,3 76 1491
GET,22,3 76 1490
GET,23,3 76 1489
GET,24,3 76 1488
GET,25,3 76 1487
GET,26,3 76 1486
GET,27,3 76 1485
GET,28,3 76 1484
GET,29,3 76 1483
GET,30,3 76 1482
GET,31,3 76 1481
GET,32,3 70 1480
GET,33,3 70 1479
GET,34,3 70 1478
GET,35,3 70 1477
GET,36,3 70 1476
GET,37,3 70 1475
GET,38,3 70 1474
GET,39,3 70 1473
GET,40,3 70 1472
GET,41,3 70 1471
GET,42,3 70 1470
GET,43,3 70 1469
GET,44,3 70 1468
GET,45,3 70 1467
GET,46,3 70 1466
GET,47,3 70 1465
GET,48,3 204 1464
GET,49,3 204 1463
GET,50,3 204 1462
GET,51,3 204 1461
GET,52,3 204 1460
GET,53,3 204 1459
GET,54,3 204 1458
GET,55,3 204 1457
GET,56,3 204 1456
GET,57,3 204 1455
GET,58,3 204 1454
GET,59,3 204 1453
GET,60,3 204 1452
GET,61,3 204 1451
_P,15 0 1450
_P,14 0 1449
_P,13 0 1448
_P,12 0 1447
_P,11 0 1446
_P,10 0 1445
_P,9 0 1444
_P,8 0 1443
_P,7 0 1442
_P,6 0 1441
_P,5 0 1440
_P,4 0 1439
_P,3 0 1438
_P,2 0 1437
_P,1 0 1436
_P,0 0 1435
GET,0,2 131 1434
GET,1,2 131 1433
GET,2,2 131 1432
GET,3,2 131 1431
GET,4,2 131 1430
GET,5,2 131 1429
GET,6,2 131 1428
GET,7,2 131 1427
GET,8,2 131 1426
GET,9,2 131 1425
GET,10,2 131 1424
GET,11,2 131 1423
GET,12,2 131 1422
GET,13,2 131 1421
GET,14,2 131 1420
GET,15,2 131 1419
XTY,15,15,3 138 1418
XTY,14,14,3 138 1417
XTY,13,13,3 138 1416
XTY,12,12,3 138 1415
XTY,11,11,3 138 1414
XTY,10,10,3 138 1413
XTY,9,9,3 138 1412
XTY,8,8,3 138 1411
XTY,7,7,3 138 1410
XTY,6,6,3 138 1409
XTY,5,5,3 138 1408
XTY,4,4,3 138 1407
XTY,3,3,3 138 1406
XTY,2,2,3 138 1405
XTY,1,1,3 138 1404
XTY,0,0,3 138 1403
RED,PBPBUF,0 157 1402
CHOL,PBP 164 1401
INV,PBP 169 1400
XY,48,4 169 1399
XY,49,4 169 1398
XY,50,4 169 1397
XY,51,4 169 1396
XY,52,4 169 1395
XY,53,4 169 1394
XY,54,4 169 1393
XY,55,4 169 1392
XY,56,4 169 1391
XY,57,4 169 1390
XY,58,4 169 1389
XY,59,4 169 1388
XY,60,4 169 1387
XY,61,4 169 1386
XY,0,4 180 1385
XY,1,4 180 1384
XY,2,4 180 1383
XY,3,4 180 1382
XY,4,4 180 1381
XY,5,4 180 1380
XY,6,4 180 1379
XY,7,4 180 1378
XY,8,4 180 1377
XY,9,4 180 1376
XY,10,4 180 1375
XY,11,4 180 1374
XY,12,4 180 1373
XY,13,4 180 1372
XY,14,4 180 1371
XY,15,4 180 1370
DLACPY,15,2 267 1369
XTY,15,15,6 267 1368
DLACPY,14,2 267 1367
XTY,14,14,6 267 1366
DLACPY,13,2 267 1365
XTY,13,13,6 267 1364
DLACPY,12,2 267 1363
XTY,12,12,6 267 1362
DLACPY,11,2 267 1361
XTY,11,11,6 267 1360
DLACPY,10,2 267 1359
XTY,10,10,6 267 1358
DLACPY,9,2 267 1357
XTY,9,9,6 267 1356
DLACPY,8,2 267 1355
XTY,8,8,6 267 1354
DLACPY,7,2 267 1353
XTY,7,7,6 267 1352
DLACPY,6,2 267 1351
XTY,6,6,6 267 1350
DLACPY,5,2 267 1349
XTY,5,5,6 267 1348
DLACPY,4,2 267 1347
XTY,4,4,6 267 1346
DLACPY,3,2 267 1345
XTY,3,3,6 267 1344
DLACPY,2,2 267 1343
XTY,2,2,6 267 1342
DLACPY,1,2 267 1341
XTY,1,1,6 267 1340
DLACPY,0,2 267 1339
XTY,0,0,6 267 1338
UPDATE,0,2 268 1337
UPDATE,1,2 268 1336
UPDATE,2,2 268 1335
UPDATE,3,2 268 1334
UPDATE,4,2 268 1333
UPDATE,5,2 268 1332
UPDATE,6,2 268 1331
UPDATE,7,2 268 1330
UPDATE,8,2 268 1329
UPDATE,9,2 268 1328
UPDATE,10,2 268 1327
UPDATE,11,2 268 1326
UPDATE,12,2 268 1325
UPDATE,13,2 268 1324
UPDATE,14,2 268 1323
UPDATE,15,2 268 1322
XTY,0,0,7 429 1321
XTY,1,1,7 429 1320
XTY,2,2,7 429 1319
XTY,3,3,7 429 1318
XTY,4,4,7 429 1317
XTY,5,5,7 429 1316
XTY,6,6,7 429 1315
XTY,7,7,7 429 1314
XTY,8,8,7 429 1313
XTY,9,9,7 429 1312
XTY,10,10,7 429 1311
XTY,11,11,7 429 1310
XTY,12,12,7 429 1309
XTY,13,13,7 429 1308
XTY,14,14,7 429 1307
XTY,15,15,7 429 1306
XTY,0,0,9 280 1305
XTY,1,1,9 280 1304
XTY,2,2,9 280 1303
XTY,3,3,9 280 1302
XTY,4,4,9 280 1301
XTY,5,5,9 280 1300
XTY,6,6,9 280 1299
XTY,7,7,9 280 1298
XTY,8,8,9 280 1297
XTY,9,9,9 280 1296
XTY,10,10,9 280 1295
XTY,11,11,9 280 1294
XTY,12,12,9 280 1293
XTY,13,13,9 280 1292
XTY,14,14,9 280 1291
XTY,15,15,9 280 1290
XTY,0,0,10 385 1289
XTY,1,1,10 385 1288
XTY,2,2,10 385 1287
XTY,3,3,10 385 1286
XTY,4,4,10 385 1285
XTY,5,5,10 385 1284
XTY,6,6,10 385 1283
XTY,7,7,10 385 1282
XTY,8,8,10 385 1281
XTY,9,9,10 385 1280
XTY,10,10,10 385 1279
XTY,11,11,10 385 1278
XTY,12,12,10 385 1277
XTY,13,13,10 385 1276
XTY,14,14,10 385 1275
XTY,15,15,10 385 1274
XY,16,4 192 1273
XY,17,4 192 1272
XY,18,4 192 1271
XY,19,4 192 1270
XY,20,4 192 1269
XY,21,4 192 1268
XY,22,4 192 1267
XY,23,4 192 1266
XY,24,4 192 1265
XY,25,4 192 1264
XY,26,4 192 1263
XY,27,4 192 1262
XY,28,4 192 1261
XY,29,4 192 1260
XY,30,4 192 1259
XY,31,4 192 1258
DLACPY,31,2 215 1257
UPDATE,31,2 215 1256
DLACPY,30,2 215 1255
UPDATE,30,2 215 1254
DLACPY,29,2 215 1253
UPDATE,29,2 215 1252
DLACPY,28,2 215 1251
UPDATE,28,2 215 1250
DLACPY,27,2 215 1249
UPDATE,27,2 215 1248
DLACPY,26,2 215 1247
UPDATE,26,2 215 1246
DLACPY,25,2 215 1245
UPDATE,25,2 215 1244
DLACPY,24,2 215 1243
UPDATE,24,2 215 1242
DLACPY,23,2 215 1241
UPDATE,23,2 215 1240
DLACPY,22,2 215 1239
UPDATE,22,2 215 1238
DLACPY,21,2 215 1237
UPDATE,21,2 215 1236
DLACPY,20,2 215 1235
UPDATE,20,2 215 1234
DLACPY,19,2 215 1233
UPDATE,19,2 215 1232
DLACPY,18,2 215 1231
UPDATE,18,2 215 1230
DLACPY,17,2 215 1229
UPDATE,17,2 215 1228
DLACPY,16,2 215 1227
UPDATE,16,2 215 1226
XTY,16,16,6 220 1225
XTY,17,17,6 220 1224
XTY,18,18,6 220 1223
XTY,19,19,6 220 1222
XTY,20,0,6 220 1221
XTY,21,1,6 220 1220
XTY,22,2,6 220 1219
XTY,23,3,6 220 1218
XTY,24,4,6 220 1217
XTY,25,5,6 220 1216
XTY,26,6,6 220 1215
XTY,27,7,6 220 1214
XTY,28,8,6 220 1213
XTY,29,9,6 220 1212
XTY,30,10,6 220 1211
XTY,31,11,6 220 1210
XTY,16,16,7 456 1209
XTY,17,17,7 456 1208
XTY,18,18,7 456 1207
XTY,19,19,7 456 1206
XTY,20,0,7 456 1205
XTY,21,1,7 456 1204
XTY,22,2,7 456 1203
XTY,23,3,7 456 1202
XTY,24,4,7 456 1201
XTY,25,5,7 456 1200
XTY,26,6,7 456 1199
XTY,27,7,7 456 1198
XTY,28,8,7 456 1197
XTY,29,9,7 456 1196
XTY,30,10,7 456 1195
XTY,31,11,7 456 1194
XTY,16,16,9 256 1193
XTY,17,17,9 256 1192
XTY,18,18,9 256 1191
XTY,19,19,9 256 1190
XTY,20,0,9 256 1189
XTY,21,1,9 256 1188
XTY,22,2,9 256 1187
XTY,23,3,9 256 1186
XTY,24,4,9 256 1185
XTY,25,5,9 256 1184
XTY,26,6,9 256 1183
XTY,27,7,9 256 1182
XTY,28,8,9 256 1181
XTY,29,9,9 256 1180
XTY,30,10,9 256 1179
XTY,31,11,9 256 1178
XTY,16,16,10 397 1177
XTY,17,17,10 397 1176
XTY,18,18,10 397 1175
XTY,19,19,10 397 1174
XTY,20,0,10 397 1173
XTY,21,1,10 397 1172
XTY,22,2,10 397 1171
XTY,23,3,10 397 1170
XTY,24,4,10 397 1169
XTY,25,5,10 397 1168
XTY,26,6,10 397 1167
XTY,27,7,10 397 1166
XTY,28,8,10 397 1165
XTY,29,9,10 397 1164
XTY,30,10,10 397 1163
XTY,31,11,10 397 1162
XY,32,4 174 1161
XY,33,4 174 1160
XY,34,4 174 1159
XY,35,4 174 1158
XY,36,4 174 1157
XY,37,4 174 1156
XY,38,4 174 1155
XY,39,4 174 1154
XY,40,4 174 1153
XY,41,4 174 1152
XY,42,4 174 1151
XY,43,4 174 1150
XY,44,4 174 1149
XY,45,4 174 1148
XY,46,4 174 1147
XY,47,4 174 1146
DLACPY,47,2 226 1145
XTY,47,7,6 226 1144
DLACPY,46,2 226 1143
XTY,46,6,6 226 1142
DLACPY,45,2 226 1141
XTY,45,5,6 226 1140
DLACPY,44,2 226 1139
XTY,44,4,6 226 1138
DLACPY,43,2 226 1137
XTY,43,3,6 226 1136
DLACPY,42,2 226 1135
XTY,42,2,6 226 1134
DLACPY,41,2 226 1133
XTY,41,1,6 226 1132
DLACPY,40,2 226 1131
XTY,40,0,6 226 1130
DLACPY,39,2 226 1129
XTY,39,19,6 226 1128
DLACPY,38,2 226 1127
XTY,38,18,6 226 1126
DLACPY,37,2 226 1125
XTY,37,17,6 226 1124
DLACPY,36,2 226 1123
XTY,36,16,6 226 1122
DLACPY,35,2 226 1121
XTY,35,15,6 226 1120
DLACPY,34,2 226 1119
XTY,34,14,6 226 1118
DLACPY,33,2 226 1117
XTY,33,13,6 226 1116
DLACPY,32,2 226 1115
XTY,32,12,6 226 1114
UPDATE,32,2 275 1113
UPDATE,33,2 275 1112
UPDATE,34,2 275 1111
UPDATE,35,2 275 1110
UPDATE,36,2 275 1109
UPDATE,37,2 275 1108
UPDATE,38,2 275 1107
UPDATE,39,2 275 1106
UPDATE,40,2 275 1105
UPDATE,41,2 275 1104
UPDATE,42,2 275 1103
UPDATE,43,2 275 1102
UPDATE,44,2 275 1101
UPDATE,45,2 275 1100
UPDATE,46,2 275 1099
UPDATE,47,2 275 1098
XTY,33,13,7 411 1097
XTY,36,16,7 411 1096
XTY,37,17,7 411 1095
XTY,38,18,7 411 1094
XTY,39,19,7 411 1093
XTY,40,0,7 411 1092
XTY,41,1,7 411 1091
XTY,42,2,7 411 1090
SPMM,32,0,0 411 1089
SPMM,34,0,0 411 1088
SPMM,35,0,0 411 1087
SPMM,43,0,0 411 1086
SPMM,44,0,0 411 1085
SPMM,45,0,0 411 1084
SPMM,46,0,0 411 1083
SPMM,47,0,0 411 1082
SPMM,32,1,0 411 1081
SPMM,34,1,0 411 1080
SPMM,35,1,0 411 1079
SPMM,43,1,0 411 1078
SPMM,44,1,0 411 1077
SPMM,45,1,0 411 1076
SPMM,46,1,0 411 1075
SPMM,32,4,0 411 1074
SPMM,34,4,0 411 1073
SPMM,35,4,0 411 1072
SPMM,43,4,0 411 1071
SPMM,45,4,0 411 1070
SPMM,47,4,0 411 1069
SPMM,32,5,0 411 1068
SPMM,34,5,0 411 1067
SPMM,35,5,0 411 1066
SPMM,43,5,0 411 1065
SPMM,44,5,0 411 1064
XTY,44,4,7 411 1063
SPMM,45,5,0 411 1062
SPMM,46,5,0 411 1061
XTY,46,6,7 411 1060
SPMM,47,5,0 411 1059
XTY,47,7,7 411 1058
SPMM,32,12,0 411 1057
SPMM,35,12,0 411 1056
SPMM,43,12,0 411 1055
XTY,43,3,7 411 1054
SPMM,32,14,0 411 1053
SPMM,34,14,0 411 1052
XTY,34,14,7 411 1051
SPMM,35,14,0 411 1050
SPMM,45,14,0 411 1049
SPMM,32,15,0 411 1048
XTY,32,12,7 411 1047
SPMM,35,15,0 411 1046
XTY,35,15,7 411 1045
SPMM,45,15,0 411 1044
XTY,45,5,7 411 1043
XTY,45,5,5 417 1042
XTY,35,15,5 417 1041
XTY,32,12,5 417 1040
XTY,34,14,5 417 1039
XTY,43,3,5 417 1038
XTY,47,7,5 417 1037
XTY,46,6,5 417 1036
XTY,44,4,5 417 1035
XTY,42,2,5 417 1034
XTY,41,1,5 417 1033
XTY,40,0,5 417 1032
XTY,39,19,5 417 1031
XTY,38,18,5 417 1030
XTY,37,17,5 417 1029
XTY,36,16,5 417 1028
XTY,33,13,5 417 1027
XTY,32,12,9 261 1026
XTY,33,13,9 261 1025
XTY,34,14,9 261 1024
XTY,35,15,9 261 1023
XTY,36,16,9 261 1022
XTY,37,17,9 261 1021
XTY,38,18,9 261 1020
XTY,39,19,9 261 1019
XTY,40,0,9 261 1018
XTY,41,1,9 261 1017
XTY,42,2,9 261 1016
XTY,43,3,9 261 1015
XTY,44,4,9 261 1014
XTY,45,5,9 261 1013
XTY,46,6,9 261 1012
XTY,47,7,9 261 1011
XTY,32,12,10 347 1010
XTY,33,13,10 347 1009
XTY,34,14,10 347 1008
XTY,35,15,10 347 1007
XTY,36,16,10 347 1006
XTY,37,17,10 347 1005
XTY,38,18,10 347 1004
XTY,39,19,10 347 1003
XTY,40,0,10 347 1002
XTY,41,1,10 347 1001
XTY,42,2,10 347 1000
XTY,43,3,10 347 999
XTY,44,4,10 347 998
XTY,45,5,10 347 997
XTY,46,6,10 347 996
XTY,47,7,10 347 995
XY,0,5 293 994
XY,1,5 293 993
XY,2,5 293 992
XY,3,5 293 991
XY,4,5 293 990
XY,5,5 293 989
XY,6,5 293 988
XY,7,5 293 987
XY,8,5 293 986
XY,9,5 293 985
XY,10,5 293 984
XY,11,5 293 983
XY,12,5 293 982
XY,13,5 293 981
XY,14,5 293 980
XY,15,5 293 979
DLACPY,15,3 298 978
XTY,15,15,8 298 977
DLACPY,14,3 298 976
XTY,14,14,8 298 975
DLACPY,13,3 298 974
XTY,13,13,8 298 973
DLACPY,12,3 298 972
XTY,12,12,8 298 971
DLACPY,11,3 298 970
XTY,11,11,8 298 969
DLACPY,10,3 298 968
XTY,10,10,8 298 967
DLACPY,9,3 298 966
XTY,9,9,8 298 965
DLACPY,8,3 298 964
XTY,8,8,8 298 963
DLACPY,7,3 298 962
XTY,7,7,8 298 961
DLACPY,6,3 298 960
XTY,6,6,8 298 959
DLACPY,5,3 298 958
XTY,5,5,8 298 957
DLACPY,4,3 298 956
XTY,4,4,8 298 955
DLACPY,3,3 298 954
XTY,3,3,8 298 953
DLACPY,2,3 298 952
XTY,2,2,8 298 951
DLACPY,1,3 298 950
XTY,1,1,8 298 949
DLACPY,0,3 298 948
XTY,0,0,8 298 947
UPDATE,0,3 299 946
UPDATE,1,3 299 945
UPDATE,2,3 299 944
UPDATE,3,3 299 943
UPDATE,4,3 299 942
UPDATE,5,3 299 941
UPDATE,6,3 299 940
UPDATE,7,3 299 939
UPDATE,8,3 299 938
UPDATE,9,3 299 937
UPDATE,10,3 299 936
UPDATE,11,3 299 935
UPDATE,12,3 299 934
UPDATE,13,3 299 933
UPDATE,14,3 299 932
UPDATE,15,3 299 931
XY,16,5 232 930
XY,17,5 232 929
XY,18,5 232 928
XY,19,5 232 927
XY,20,5 232 926
XY,21,5 232 925
XY,22,5 232 924
XY,23,5 232 923
XY,24,5 232 922
XY,25,5 232 921
XY,26,5 232 920
XY,27,5 232 919
XY,28,5 232 918
XY,29,5 232 917
XY,30,5 232 916
XY,31,5 232 915
DLACPY,31,3 238 914
XTY,31,11,8 238 913
DLACPY,30,3 238 912
XTY,30,10,8 238 911
DLACPY,29,3 238 910
XTY,29,9,8 238 909
DLACPY,28,3 238 908
XTY,28,8,8 238 907
DLACPY,27,3 238 906
XTY,27,7,8 238 905
DLACPY,26,3 238 904
XTY,26,6,8 238 903
DLACPY,25,3 238 902
XTY,25,5,8 238 901
DLACPY,24,3 238 900
XTY,24,4,8 238 899
DLACPY,23,3 238 898
XTY,23,3,8 238 897
DLACPY,22,3 238 896
XTY,22,2,8 238 895
DLACPY,21,3 238 894
XTY,21,1,8 238 893
DLACPY,20,3 238 892
XTY,20,0,8 238 891
DLACPY,19,3 238 890
XTY,19,19,8 238 889
DLACPY,18,3 238 888
XTY,18,18,8 238 887
DLACPY,17,3 238 886
XTY,17,17,8 238 885
DLACPY,16,3 238 884
XTY,16,16,8 238 883
XY,32,5 198 882
XY,33,5 198 881
XY,34,5 198 880
XY,35,5 198 879
XY,36,5 198 878
XY,37,5 198 877
XY,38,5 198 876
XY,39,5 198 875
XY,40,5 198 874
XY,41,5 198 873
XY,42,5 198 872
XY,43,5 198 871
XY,44,5 198 870
XY,45,5 198 869
XY,46,5 198 868
XY,47,5 198 867
DLACPY,47,3 286 866
XTY,47,7,8 286 865
DLACPY,46,3 286 864
XTY,46,6,8 286 863
DLACPY,45,3 286 862
XTY,45,5,8 286 861
DLACPY,44,3 286 860
XTY,44,4,8 286 859
DLACPY,43,3 286 858
XTY,43,3,8 286 857
DLACPY,42,3 286 856
XTY,42,2,8 286 855
DLACPY,41,3 286 854
XTY,41,1,8 286 853
DLACPY,40,3 286 852
XTY,40,0,8 286 851
DLACPY,39,3 286 850
XTY,39,19,8 286 849
DLACPY,38,3 286 848
XTY,38,18,8 286 847
DLACPY,37,3 286 846
XTY,37,17,8 286 845
DLACPY,36,3 286 844
XTY,36,16,8 286 843
DLACPY,35,3 286 842
XTY,35,15,8 286 841
DLACPY,34,3 286 840
XTY,34,14,8 286 839
DLACPY,33,3 286 838
XTY,33,13,8 286 837
DLACPY,32,3 286 836
XTY,32,12,8 286 835
UPDATE,32,3 287 834
UPDATE,33,3 287 833
UPDATE,34,3 287 832
UPDATE,35,3 287 831
UPDATE,36,3 287 830
UPDATE,37,3 287 829
UPDATE,38,3 287 828
UPDATE,39,3 287 827
UPDATE,40,3 287 826
UPDATE,41,3 287 825
UPDATE,42,3 287 824
UPDATE,43,3 287 823
UPDATE,44,3 287 822
UPDATE,45,3 287 821
UPDATE,46,3 287 820
UPDATE,47,3 287 819
XY,48,5 210 818
DLACPY,48,3 210 817
XY,49,5 210 816
DLACPY,49,3 210 815
XY,50,5 210 814
DLACPY,50,3 210 813
XY,51,5 210 812
DLACPY,51,3 210 811
XY,52,5 210 810
DLACPY,52,3 210 809
XY,53,5 210 808
DLACPY,53,3 210 807
XY,54,5 210 806
DLACPY,54,3 210 805
XY,55,5 210 804
DLACPY,55,3 210 803
XY,56,5 210 802
DLACPY,56,3 210 801
XY,57,5 210 800
DLACPY,57,3 210 799
XY,58,5 210 798
DLACPY,58,3 210 797
XY,59,5 210 796
DLACPY,59,3 210 795
XY,60,5 210 794
DLACPY,60,3 210 793
XY,61,5 210 792
DLACPY,61,3 210 791
UPDATE,61,3 459 790
UPDATE,60,3 459 789
UPDATE,59,3 459 788
UPDATE,58,3 459 787
UPDATE,57,3 459 786
UPDATE,56,3 459 785
UPDATE,55,3 459 784
UPDATE,54,3 459 783
UPDATE,53,3 459 782
UPDATE,52,3 459 781
UPDATE,51,3 459 780
UPDATE,50,3 459 779
UPDATE,49,3 459 778
UPDATE,48,3 459 777
DLACPY,61,2 244 776
XTY,61,1,8 244 775
DLACPY,60,2 244 774
XTY,60,0,8 244 773
DLACPY,59,2 244 772
XTY,59,19,8 244 771
DLACPY,58,2 244 770
XTY,58,18,8 244 769
DLACPY,57,2 244 768
XTY,57,17,8 244 767
DLACPY,56,2 244 766
XTY,56,16,8 244 765
DLACPY,55,2 244 764
XTY,55,15,8 244 763
DLACPY,54,2 244 762
XTY,54,14,8 244 761
DLACPY,53,2 244 760
XTY,53,13,8 244 759
DLACPY,52,2 244 758
XTY,52,12,8 244 757
DLACPY,51,2 244 756
XTY,51,11,8 244 755
DLACPY,50,2 244 754
XTY,50,10,8 244 753
DLACPY,49,2 244 752
XTY,49,9,8 244 751
DLACPY,48,2 244 750
XTY,48,8,8 244 749
RED,PAPBUF,0 466 748
SPEUPDATE,PAP 466 747
UPDATE,16,3 466 746
UPDATE,17,3 466 745
UPDATE,18,3 466 744
UPDATE,19,3 466 743
UPDATE,20,3 466 742
UPDATE,21,3 466 741
UPDATE,22,3 466 740
UPDATE,23,3 466 739
UPDATE,24,3 466 738
UPDATE,25,3 466 737
UPDATE,26,3 466 736
UPDATE,27,3 466 735
UPDATE,28,3 466 734
UPDATE,29,3 466 733
UPDATE,30,3 466 732
UPDATE,31,3 466 731
UPDATE,48,2 245 730
UPDATE,49,2 245 729
UPDATE,50,2 245 728
UPDATE,51,2 245 727
UPDATE,52,2 245 726
UPDATE,53,2 245 725
UPDATE,54,2 245 724
UPDATE,55,2 245 723
UPDATE,56,2 245 722
UPDATE,57,2 245 721
UPDATE,58,2 245 720
UPDATE,59,2 245 719
UPDATE,60,2 245 718
UPDATE,61,2 245 717
XTY,48,8,6 251 716
XTY,49,9,6 251 715
XTY,50,10,6 251 714
XTY,51,11,6 251 713
XTY,52,12,6 251 712
XTY,53,13,6 251 711
XTY,54,14,6 251 710
XTY,55,15,6 251 709
XTY,56,16,6 251 708
XTY,57,17,6 251 707
XTY,58,18,6 251 706
XTY,59,19,6 251 705
XTY,60,0,6 251 704
XTY,61,1,6 251 703
XTY,49,9,7 440 702
XTY,50,10,7 440 701
XTY,51,11,7 440 700
XTY,52,12,7 440 699
XTY,53,13,7 440 698
XTY,54,14,7 440 697
XTY,55,15,7 440 696
XTY,56,16,7 440 695
XTY,57,17,7 440 694
XTY,58,18,7 440 693
XTY,59,19,7 440 692
XTY,60,0,7 440 691
SPMM,48,0,0 440 690
SPMM,61,0,0 440 689
SPMM,61,2,0 440 688
SPMM,61,3,0 440 687
SPMM,61,4,0 440 686
SPMM,48,5,0 440 685
XTY,48,8,7 440 684
SPMM,61,5,0 440 683
SPMM,61,6,0 440 682
SPMM,61,7,0 440 681
SPMM,61,8,0 440 680
SPMM,61,9,0 440 679
SPMM,61,10,0 440 678
SPMM,61,11,0 440 677
SPMM,61,12,0 440 676
SPMM,61,13,0 440 675
XTY,61,1,7 440 674
RED,RAPBUF,0 457 673
XTY,61,1,5 446 672
XTY,48,8,5 446 671
XTY,60,0,5 446 670
XTY,59,19,5 446 669
XTY,58,18,5 446 668
XTY,57,17,5 446 667
XTY,56,16,5 446 666
XTY,54,14,5 446 665
XTY,55,15,5 446 664
XTY,53,13,5 446 663
XTY,52,12,5 446 662
XTY,50,10,5 446 661
XTY,51,11,5 446 660
XTY,49,9,5 446 659
RED,RARBUF,0 458 658
TRANS,RAR 458 657
SPEUPDATE,RAR 458 656
RED,XAPBUF,0 467 655
CONSTRUCTGA1 467 654
CONSTRUCTGA2 467 653
XTY,48,8,9 274 652
XTY,49,9,9 274 651
XTY,50,10,9 274 650
XTY,51,11,9 274 649
XTY,52,12,9 274 648
XTY,53,13,9 274 647
XTY,54,14,9 274 646
XTY,55,15,9 274 645
XTY,56,16,9 274 644
XTY,57,17,9 274 643
XTY,58,18,9 274 642
XTY,59,19,9 274 641
XTY,60,0,9 274 640
XTY,61,1,9 274 639
RED,XBPBUF,0 468 638
XTY,48,8,10 370 637
XTY,49,9,10 370 636
XTY,50,10,10 370 635
XTY,51,11,10 370 634
XTY,52,12,10 370 633
XTY,53,13,10 370 632
XTY,54,14,10 370 631
XTY,55,15,10 370 630
XTY,56,16,10 370 629
XTY,57,17,10 370 628
XTY,58,18,10 370 627
XTY,59,19,10 370 626
XTY,60,0,10 370 625
XTY,61,1,10 370 624
RED,RBPBUF,0 424 623
CONSTRUCTGB 474 622
EIGEN 474 621
XY,48,11 474 620
XY,49,11 474 619
XY,50,11 474 618
XY,51,11 474 617
XY,52,11 474 616
XY,53,11 474 615
XY,54,11 474 614
XY,55,11 474 613
XY,56,11 474 612
XY,57,11 474 611
XY,58,11 474 610
XY,59,11 474 609
XY,60,11 474 608
XY,61,11 474 607
XY,16,6 506 606
XY,17,6 506 605
XY,18,6 506 604
XY,19,6 506 603
XY,20,6 506 602
XY,21,6 506 601
XY,22,6 506 600
XY,23,6 506 599
XY,24,6 506 598
XY,25,6 506 597
XY,26,6 506 596
XY,27,6 506 595
XY,28,6 506 594
XY,29,6 506 593
XY,30,6 506 592
XY,31,6 506 591
XY,16,7 639 590
ADD,16,1 639 589
XY,17,7 639 588
ADD,17,1 639 587
XY,18,7 639 586
ADD,18,1 639 585
XY,19,7 639 584
ADD,19,1 639 583
XY,20,7 639 582
ADD,20,1 639 581
XY,21,7 639 580
ADD,21,1 639 579
XY,22,7 639 578
ADD,22,1 639 577
XY,23,7 639 576
ADD,23,1 639 575
XY,24,7 639 574
ADD,24,1 639 573
XY,25,7 639 572
ADD,25,1 639 571
XY,26,7 639 570
ADD,26,1 639 569
XY,27,7 639 568
ADD,27,1 639 567
XY,28,7 639 566
ADD,28,1 639 565
XY,29,7 639 564
ADD,29,1 639 563
XY,30,7 639 562
ADD,30,1 639 561
XY,31,7 639 560
ADD,31,1 639 559
XY,48,6 501 558
XY,49,6 501 557
XY,50,6 501 556
XY,51,6 501 555
XY,52,6 501 554
XY,53,6 501 553
XY,54,6 501 552
XY,55,6 501 551
XY,56,6 501 550
XY,57,6 501 549
XY,58,6 501 548
XY,59,6 501 547
XY,60,6 501 546
XY,61,6 501 545
XY,0,7 480 544
XY,1,7 480 543
XY,2,7 480 542
XY,3,7 480 541
XY,4,7 480 540
XY,5,7 480 539
XY,6,7 480 538
XY,7,7 480 537
XY,8,7 480 536
XY,9,7 480 535
XY,10,7 480 534
XY,11,7 480 533
XY,12,7 480 532
XY,13,7 480 531
XY,14,7 480 530
XY,15,7 480 529
XY,0,6 490 528
ADD,0,1 490 527
XY,1,6 490 526
ADD,1,1 490 525
XY,2,6 490 524
ADD,2,1 490 523
XY,3,6 490 522
ADD,3,1 490 521
XY,4,6 490 520
ADD,4,1 490 519
XY,5,6 490 518
ADD,5,1 490 517
XY,6,6 490 516
ADD,6,1 490 515
XY,7,6 490 514
ADD,7,1 490 513
XY,8,6 490 512
ADD,8,1 490 511
XY,9,6 490 510
ADD,9,1 490 509
XY,10,6 490 508
ADD,10,1 490 507
XY,11,6 490 506
ADD,11,1 490 505
XY,12,6 490 504
ADD,12,1 490 503
XY,13,6 490 502
ADD,13,1 490 501
XY,14,6 490 500
ADD,14,1 490 499
XY,15,6 490 498
ADD,15,1 490 497
XY,32,7 522 496
XY,33,7 522 495
XY,34,7 522 494
XY,35,7 522 493
XY,36,7 522 492
XY,37,7 522 491
XY,38,7 522 490
XY,39,7 522 489
XY,40,7 522 488
XY,41,7 522 487
XY,42,7 522 486
XY,43,7 522 485
XY,44,7 522 484
XY,45,7 522 483
XY,46,7 522 482
XY,47,7 522 481
XY,32,6 534 480
ADD,32,1 534 479
XY,33,6 534 478
ADD,33,1 534 477
XY,34,6 534 476
ADD,34,1 534 475
XY,35,6 534 474
ADD,35,1 534 473
XY,36,6 534 472
ADD,36,1 534 471
XY,37,6 534 470
ADD,37,1 534 469
XY,38,6 534 468
ADD,38,1 534 467
XY,39,6 534 466
ADD,39,1 534 465
XY,40,6 534 464
ADD,40,1 534 463
XY,41,6 534 462
ADD,41,1 534 461
XY,42,6 534 460
ADD,42,1 534 459
XY,43,6 534 458
ADD,43,1 534 457
XY,44,6 534 456
ADD,44,1 534 455
XY,45,6 534 454
ADD,45,1 534 453
XY,46,6 534 452
ADD,46,1 534 451
XY,47,6 534 450
ADD,47,1 534 449
XY,48,7 517 448
XY,49,7 517 447
XY,50,7 517 446
XY,51,7 517 445
XY,52,7 517 444
XY,53,7 517 443
XY,54,7 517 442
XY,55,7 517 441
XY,56,7 517 440
XY,57,7 517 439
XY,58,7 517 438
XY,59,7 517 437
XY,60,7 517 436
XY,61,7 517 435
ADD,61,1 528 434
ADD,60,1 528 433
ADD,59,1 528 432
ADD,58,1 528 431
ADD,57,1 528 430
ADD,56,1 528 429
ADD,55,1 528 428
ADD,54,1 528 427
ADD,53,1 528 426
ADD,52,1 528 425
ADD,51,1 528 424
ADD,50,1 528 423
ADD,49,1 528 422
ADD,48,1 528 421
XY,0,8 608 420
XY,1,8 608 419
XY,2,8 608 418
XY,3,8 608 417
XY,4,8 608 416
XY,5,8 608 415
XY,6,8 608 414
XY,7,8 608 413
XY,8,8 608 412
XY,9,8 608 411
XY,10,8 608 410
XY,11,8 608 409
XY,12,8 608 408
XY,13,8 608 407
XY,14,8 608 406
XY,15,8 608 405
XY,32,8 540 404
XY,33,8 540 403
XY,34,8 540 402
XY,35,8 540 401
XY,36,8 540 400
XY,37,8 540 399
XY,38,8 540 398
XY,39,8 540 397
XY,40,8 540 396
XY,41,8 540 395
XY,42,8 540 394
XY,43,8 540 393
XY,44,8 540 392
XY,45,8 540 391
XY,46,8 540 390
XY,47,8 540 389
XY,32,9 602 388
ADD,32,2 602 387
XY,33,9 602 386
ADD,33,2 602 385
XY,34,9 602 384
ADD,34,2 602 383
XY,35,9 602 382
ADD,35,2 602 381
XY,36,9 602 380
ADD,36,2 602 379
XY,37,9 602 378
ADD,37,2 602 377
XY,38,9 602 376
ADD,38,2 602 375
XY,39,9 602 374
ADD,39,2 602 373
XY,40,9 602 372
ADD,40,2 602 371
XY,41,9 602 370
ADD,41,2 602 369
XY,42,9 602 368
ADD,42,2 602 367
XY,43,9 602 366
ADD,43,2 602 365
XY,44,9 602 364
ADD,44,2 602 363
XY,45,9 602 362
ADD,45,2 602 361
XY,46,9 602 360
ADD,46,2 602 359
XY,47,9 602 358
ADD,47,2 602 357
XY,0,9 550 356
XY,1,9 550 355
XY,2,9 550 354
XY,3,9 550 353
XY,4,9 550 352
XY,5,9 550 351
XY,6,9 550 350
XY,7,9 550 349
XY,8,9 550 348
XY,9,9 550 347
XY,10,9 550 346
XY,11,9 550 345
XY,12,9 550 344
XY,13,9 550 343
XY,14,9 550 342
XY,15,9 550 341
ADD,15,2 613 340
ADD,14,2 613 339
ADD,13,2 613 338
ADD,12,2 613 337
ADD,11,2 613 336
ADD,10,2 613 335
ADD,9,2 613 334
ADD,8,2 613 333
ADD,7,2 613 332
ADD,6,2 613 331
ADD,5,2 613 330
ADD,4,2 613 329
ADD,3,2 613 328
ADD,2,2 613 327
ADD,1,2 613 326
ADD,0,2 613 325
XY,16,9 568 324
XY,17,9 568 323
XY,18,9 568 322
XY,19,9 568 321
XY,20,9 568 320
XY,21,9 568 319
XY,22,9 568 318
XY,23,9 568 317
XY,24,9 568 316
XY,25,9 568 315
XY,26,9 568 314
XY,27,9 568 313
XY,28,9 568 312
XY,29,9 568 311
XY,30,9 568 310
XY,31,9 568 309
XY,16,8 590 308
ADD,16,2 590 307
XY,17,8 590 306
ADD,17,2 590 305
XY,18,8 590 304
ADD,18,2 590 303
XY,19,8 590 302
ADD,19,2 590 301
XY,20,8 590 300
ADD,20,2 590 299
XY,21,8 590 298
ADD,21,2 590 297
XY,22,8 590 296
ADD,22,2 590 295
XY,23,8 590 294
ADD,23,2 590 293
XY,24,8 590 292
ADD,24,2 590 291
XY,25,8 590 290
ADD,25,2 590 289
XY,26,8 590 288
ADD,26,2 590 287
XY,27,8 590 286
ADD,27,2 590 285
XY,28,8 590 284
ADD,28,2 590 283
XY,29,8 590 282
ADD,29,2 590 281
XY,30,8 590 280
ADD,30,2 590 279
XY,31,8 590 278
ADD,31,2 590 277
XY,16,11 596 276
ADD,16,4 596 275
XY,17,11 596 274
ADD,17,4 596 273
XY,18,11 596 272
ADD,18,4 596 271
XY,19,11 596 270
ADD,19,4 596 269
XY,20,11 596 268
ADD,20,4 596 267
XY,21,11 596 266
ADD,21,4 596 265
XY,22,11 596 264
ADD,22,4 596 263
XY,23,11 596 262
ADD,23,4 596 261
XY,24,11 596 260
ADD,24,4 596 259
XY,25,11 596 258
ADD,25,4 596 257
XY,26,11 596 256
ADD,26,4 596 255
XY,27,11 596 254
ADD,27,4 596 253
XY,28,11 596 252
ADD,28,4 596 251
XY,29,11 596 250
ADD,29,4 596 249
XY,30,11 596 248
ADD,30,4 596 247
XY,31,11 596 246
ADD,31,4 596 245
XY,48,9 496 244
XY,49,9 496 243
XY,50,9 496 242
XY,51,9 496 241
XY,52,9 496 240
XY,53,9 496 239
XY,54,9 496 238
XY,55,9 496 237
XY,56,9 496 236
XY,57,9 496 235
XY,58,9 496 234
XY,59,9 496 233
XY,60,9 496 232
XY,61,9 496 231
XY,48,8 562 230
ADD,48,2 562 229
ADD,48,4 562 228
XY,49,8 562 227
ADD,49,2 562 226
ADD,49,4 562 225
XY,50,8 562 224
ADD,50,2 562 223
ADD,50,4 562 222
XY,51,8 562 221
ADD,51,2 562 220
ADD,51,4 562 219
XY,52,8 562 218
ADD,52,2 562 217
ADD,52,4 562 216
XY,53,8 562 215
ADD,53,2 562 214
ADD,53,4 562 213
XY,54,8 562 212
ADD,54,2 562 211
ADD,54,4 562 210
XY,55,8 562 209
ADD,55,2 562 208
ADD,55,4 562 207
XY,56,8 562 206
ADD,56,2 562 205
ADD,56,4 562 204
XY,57,8 562 203
ADD,57,2 562 202
ADD,57,4 562 201
XY,58,8 562 200
ADD,58,2 562 199
ADD,58,4 562 198
XY,59,8 562 197
ADD,59,2 562 196
ADD,59,4 562 195
XY,60,8 562 194
ADD,60,2 562 193
ADD,60,4 562 192
XY,61,8 562 191
ADD,61,2 562 190
ADD,61,4 562 189
XY,0,10 485 188
XY,1,10 485 187
XY,2,10 485 186
XY,3,10 485 185
XY,4,10 485 184
XY,5,10 485 183
XY,6,10 485 182
XY,7,10 485 181
XY,8,10 485 180
XY,9,10 485 179
XY,10,10 485 178
XY,11,10 485 177
XY,12,10 485 176
XY,13,10 485 175
XY,14,10 485 174
XY,15,10 485 173
ADD,15,3 512 172
ADD,14,3 512 171
ADD,13,3 512 170
ADD,12,3 512 169
ADD,11,3 512 168
ADD,10,3 512 167
ADD,9,3 512 166
ADD,8,3 512 165
ADD,7,3 512 164
ADD,6,3 512 163
ADD,5,3 512 162
ADD,4,3 512 161
ADD,3,3 512 160
ADD,2,3 512 159
ADD,1,3 512 158
ADD,0,3 512 157
XY,16,10 623 156
XY,17,10 623 155
XY,18,10 623 154
XY,19,10 623 153
XY,20,10 623 152
XY,21,10 623 151
XY,22,10 623 150
XY,23,10 623 149
XY,24,10 623 148
XY,25,10 623 147
XY,26,10 623 146
XY,27,10 623 145
XY,28,10 623 144
XY,29,10 623 143
XY,30,10 623 142
XY,31,10 623 141
ADD,31,3 645 140
ADD,30,3 645 139
ADD,29,3 645 138
ADD,28,3 645 137
ADD,27,3 645 136
ADD,26,3 645 135
ADD,25,3 645 134
ADD,24,3 645 133
ADD,23,3 645 132
ADD,22,3 645 131
ADD,21,3 645 130
ADD,20,3 645 129
ADD,19,3 645 128
ADD,18,3 645 127
ADD,17,3 645 126
ADD,16,3 645 125
XY,32,10 556 124
XY,33,10 556 123
XY,34,10 556 122
XY,35,10 556 121
XY,36,10 556 120
XY,37,10 556 119
XY,38,10 556 118
XY,39,10 556 117
XY,40,10 556 116
XY,41,10 556 115
XY,42,10 556 114
XY,43,10 556 113
XY,44,10 556 112
XY,45,10 556 111
XY,46,10 556 110
XY,47,10 556 109
ADD,47,3 633 108
ADD,46,3 633 107
ADD,45,3 633 106
ADD,44,3 633 105
ADD,43,3 633 104
ADD,42,3 633 103
ADD,41,3 633 102
ADD,40,3 633 101
ADD,39,3 633 100
ADD,38,3 633 99
ADD,37,3 633 98
ADD,36,3 633 97
ADD,35,3 633 96
ADD,34,3 633 95
ADD,33,3 633 94
ADD,32,3 633 93
XY,48,10 578 92
XY,49,10 578 91
XY,50,10 578 90
XY,51,10 578 89
XY,52,10 578 88
XY,53,10 578 87
XY,54,10 578 86
XY,55,10 578 85
XY,56,10 578 84
XY,57,10 578 83
XY,58,10 578 82
XY,59,10 578 81
XY,60,10 578 80
XY,61,10 578 79
ADD,61,3 584 78
ADD,60,3 584 77
ADD,59,3 584 76
ADD,58,3 584 75
ADD,57,3 584 74
ADD,56,3 584 73
ADD,55,3 584 72
ADD,54,3 584 71
ADD,53,3 584 70
ADD,52,3 584 69
ADD,51,3 584 68
ADD,50,3 584 67
ADD,49,3 584 66
ADD,48,3 584 65
XY,0,11 545 64
XY,1,11 545 63
XY,2,11 545 62
XY,3,11 545 61
XY,4,11 545 60
XY,5,11 545 59
XY,6,11 545 58
XY,7,11 545 57
XY,8,11 545 56
XY,9,11 545 55
XY,10,11 545 54
XY,11,11 545 53
XY,12,11 545 52
XY,13,11 545 51
XY,14,11 545 50
XY,15,11 545 49
ADD,15,4 617 48
ADD,14,4 617 47
ADD,13,4 617 46
ADD,12,4 617 45
ADD,11,4 617 44
ADD,10,4 617 43
ADD,9,4 617 42
ADD,8,4 617 41
ADD,7,4 617 40
ADD,6,4 617 39
ADD,5,4 617 38
ADD,4,4 617 37
ADD,3,4 617 36
ADD,2,4 617 35
ADD,1,4 617 34
ADD,0,4 617 33
XY,32,11 573 32
XY,33,11 573 31
XY,34,11 573 30
XY,35,11 573 29
XY,36,11 573 28
XY,37,11 573 27
XY,38,11 573 26
XY,39,11 573 25
XY,40,11 573 24
XY,41,11 573 23
XY,42,11 573 22
XY,43,11 573 21
XY,44,11 573 20
XY,45,11 573 19
XY,46,11 573 18
XY,47,11 573 17
ADD,47,4 628 16
ADD,46,4 628 15
ADD,45,4 628 14
ADD,44,4 628 13
ADD,43,4 628 12
ADD,42,4 628 11
ADD,41,4 628 10
ADD,40,4 628 9
ADD,39,4 628 8
ADD,38,4 628 7
ADD,37,4 628 6
ADD,36,4 628 5
ADD,35,4 628 4
ADD,34,4 628 3
ADD,33,4 628 2
ADD,32,4 628 1
