SETZERO,37,1 2 2146
SETZERO,36,1 2 2145
SETZERO,35,1 2 2144
SETZERO,34,1 2 2143
SETZERO,33,1 2 2142
SETZERO,32,1 2 2141
SETZERO,27,1 2 2140
SETZERO,26,1 2 2139
RESET,RN 2 2138
_AX,27 2 2137
_AX,26 2 2136
_X,27 2 2135
_X,26 2 2134
SETZERO,51,1 0 2133
SETZERO,50,1 0 2132
SETZERO,43,1 0 2131
SETZERO,42,1 0 2130
SETZERO,31,1 0 2129
SETZERO,30,1 0 2128
SETZERO,9,1 0 2127
SETZERO,8,1 0 2126
SETZERO,1,1 0 2125
SETZERO,0,1 0 2124
_X,43 0 2123
_X,42 0 2122
_X,5 0 2121
_X,4 0 2120
_lambda 0 2119
XY,4,1 0 2118
XY,5,1 0 2117
XY,42,1 0 2116
XY,43,1 0 2115
SETZERO,3,1 6 2114
SETZERO,2,1 6 2113
_AX,25 6 2112
_AX,24 6 2111
_X,25 6 2110
XY,25,1 6 2109
SUB,25,1 6 2108
MULT,25 6 2107
COL,25,5 6 2106
_X,24 6 2105
XY,24,1 6 2104
SUB,24,1 6 2103
MULT,24 6 2102
COL,24,4 6 2101
_X,13 6 2100
_X,12 6 2099
SETZERO,49,1 3 2098
SETZERO,48,1 3 2097
SETZERO,17,1 3 2096
SETZERO,16,1 3 2095
_X,29 3 2094
XY,29,1 3 2093
_X,28 3 2092
XY,28,1 3 2091
_X,17 3 2090
XY,17,1 3 2089
_X,16 3 2088
XY,16,1 3 2087
_X,3 3 2086
XY,3,1 3 2085
_X,2 3 2084
XY,2,1 3 2083
SETZERO,55,1 5 2082
SETZERO,54,1 5 2081
SETZERO,45,1 5 2080
SETZERO,44,1 5 2079
SETZERO,41,1 5 2078
SETZERO,40,1 5 2077
_AX,33 5 2076
_AX,32 5 2075
_X,33 5 2074
XY,33,1 5 2073
_X,32 5 2072
XY,32,1 5 2071
_AX,31 5 2070
_AX,30 5 2069
SETZERO,47,1 1 2068
SETZERO,46,1 1 2067
SETZERO,39,1 1 2066
SETZERO,38,1 1 2065
SETZERO,25,1 1 2064
SETZERO,24,1 1 2063
_AX,59 1 2062
_AX,58 1 2061
_X,49 1 2060
XY,49,1 1 2059
_X,48 1 2058
XY,48,1 1 2057
_X,35 1 2056
_X,34 1 2055
_AX,49 13 2054
SUB,49,1 13 2053
_AX,48 13 2052
SUB,48,1 13 2051
_AX,41 13 2050
_AX,40 13 2049
_X,41 13 2048
_X,40 13 2047
_AX,29 13 2046
SUB,29,1 13 2045
_AX,28 13 2044
SUB,28,1 13 2043
_X,15 13 2042
XY,15,1 13 2041
_X,14 13 2040
XY,14,1 13 2039
_X,59 19 2038
XY,59,1 19 2037
SUB,59,1 19 2036
MULT,59 19 2035
_X,58 19 2034
XY,58,1 19 2033
SUB,58,1 19 2032
MULT,58 19 2031
_AX,5 19 2030
SUB,5,1 19 2029
MULT,5 19 2028
COL,5,5 19 2027
_AX,4 19 2026
SUB,4,1 19 2025
MULT,4 19 2024
COL,4,4 19 2023
SETZERO,61,1 4 2022
SETZERO,60,1 4 2021
SETZERO,5,1 4 2020
SETZERO,4,1 4 2019
_AX,53 4 2018
_AX,52 4 2017
_X,53 4 2016
XY,53,1 4 2015
SUB,53,1 4 2014
_X,52 4 2013
XY,52,1 4 2012
SUB,52,1 4 2011
_X,31 4 2010
_X,30 4 2009
_AX,23 4 2008
_AX,22 4 2007
MULT,52 14 2006
COL,52,12 14 2005
MULT,53 14 2004
COL,53,13 14 2003
SETZERO,23,1 14 2002
SETZERO,22,1 14 2001
_AX,17 14 2000
SUB,17,1 14 1999
MULT,17 14 1998
COL,17,17 14 1997
_AX,16 14 1996
SUB,16,1 14 1995
MULT,16 14 1994
COL,16,16 14 1993
XY,30,1 7 1992
SUB,30,1 7 1991
MULT,30 7 1990
XY,31,1 7 1989
SUB,31,1 7 1988
MULT,31 7 1987
XY,12,1 7 1986
XY,13,1 7 1985
SETZERO,57,1 7 1984
SETZERO,56,1 7 1983
_X,57 7 1982
XY,57,1 7 1981
_X,56 7 1980
XY,56,1 7 1979
COL,31,11 8 1978
COL,30,10 8 1977
SETZERO,53,1 8 1976
SETZERO,52,1 8 1975
SETZERO,21,1 8 1974
SETZERO,20,1 8 1973
_X,47 8 1972
XY,47,1 8 1971
_X,46 8 1970
XY,46,1 8 1969
_X,37 8 1968
_X,36 8 1967
_AX,35 8 1966
_AX,34 8 1965
_AX,7 8 1964
_AX,6 8 1963
XY,36,1 9 1962
XY,37,1 9 1961
_X,61 9 1960
XY,61,1 9 1959
_X,60 9 1958
XY,60,1 9 1957
_AX,37 9 1956
SUB,37,1 9 1955
MULT,37 9 1954
_AX,36 9 1953
SUB,36,1 9 1952
MULT,36 9 1951
_X,11 9 1950
_X,10 9 1949
_X,9 9 1948
_X,8 9 1947
XY,10,1 11 1946
XY,11,1 11 1945
XY,34,1 11 1944
SUB,34,1 11 1943
XY,35,1 11 1942
SUB,35,1 11 1941
_AX,13 11 1940
_AX,12 11 1939
SUB,12,1 12 1938
MULT,12 12 1937
COL,12,12 12 1936
SUB,13,1 12 1935
MULT,13 12 1934
COL,13,13 12 1933
_AX,61 12 1932
SUB,61,1 12 1931
MULT,61 12 1930
COL,61,1 12 1929
_AX,60 12 1928
SUB,60,1 12 1927
MULT,60 12 1926
COL,60,0 12 1925
_AX,11 12 1924
_AX,10 12 1923
SUB,10,1 15 1922
MULT,10 15 1921
COL,10,10 15 1920
SUB,11,1 15 1919
MULT,11 15 1918
COL,11,11 15 1917
XY,40,1 15 1916
SUB,40,1 15 1915
MULT,40 15 1914
XY,41,1 15 1913
SUB,41,1 15 1912
MULT,41 15 1911
_AX,51 15 1910
_AX,50 15 1909
_X,51 15 1908
_X,50 15 1907
XY,8,1 10 1906
XY,9,1 10 1905
COL,36,16 10 1904
COL,37,17 10 1903
SETZERO,19,1 10 1902
SETZERO,18,1 10 1901
XY,50,1 16 1900
SUB,50,1 16 1899
MULT,50 16 1898
XY,51,1 16 1897
SUB,51,1 16 1896
MULT,51 16 1895
_AX,9 16 1894
SUB,9,1 16 1893
MULT,9 16 1892
COL,9,9 16 1891
_AX,8 16 1890
SUB,8,1 16 1889
MULT,8 16 1888
COL,8,8 16 1887
COL,51,11 17 1886
COL,50,10 17 1885
MULT,35 17 1884
MULT,34 17 1883
MULT,48 17 1882
COL,48,8 17 1881
MULT,49 17 1880
COL,49,9 17 1879
SETZERO,29,1 17 1878
SETZERO,28,1 17 1877
SETZERO,15,1 17 1876
SETZERO,14,1 17 1875
_AX,19 17 1874
_AX,18 17 1873
COL,34,14 20 1872
COL,35,15 20 1871
COL,58,18 20 1870
COL,59,19 20 1869
SETZERO,11,1 20 1868
SETZERO,10,1 20 1867
_AX,39 20 1866
_AX,38 20 1865
_AX,3 20 1864
SUB,3,1 20 1863
MULT,3 20 1862
_AX,2 20 1861
SUB,2,1 20 1860
MULT,2 20 1859
XY,26,1 18 1858
XY,27,1 18 1857
_X,21 18 1856
XY,21,1 18 1855
_X,20 18 1854
XY,20,1 18 1853
_X,19 18 1852
XY,19,1 18 1851
SUB,19,1 18 1850
MULT,19 18 1849
COL,19,19 18 1848
_X,18 18 1847
XY,18,1 18 1846
SUB,18,1 18 1845
MULT,18 18 1844
COL,18,18 18 1843
_AX,15 18 1842
_AX,14 18 1841
SUB,27,1 28 1840
MULT,27 28 1839
COL,27,7 28 1838
SUB,26,1 28 1837
MULT,26 28 1836
COL,26,6 28 1835
SETZERO,7,1 28 1834
SETZERO,6,1 28 1833
_AX,21 28 1832
SUB,21,1 28 1831
MULT,21 28 1830
COL,21,1 28 1829
_AX,20 28 1828
SUB,20,1 28 1827
MULT,20 28 1826
COL,20,0 28 1825
SUB,14,1 21 1824
MULT,14 21 1823
COL,14,14 21 1822
SUB,15,1 21 1821
MULT,15 21 1820
COL,15,15 21 1819
_AX,43 21 1818
SUB,43,1 21 1817
MULT,43 21 1816
_AX,42 21 1815
SUB,42,1 21 1814
MULT,42 21 1813
_X,23 21 1812
_X,22 21 1811
COL,42,2 24 1810
COL,43,3 24 1809
_AX,1 24 1808
_AX,0 24 1807
_X,1 24 1806
XY,1,1 24 1805
SUB,1,1 24 1804
MULT,1 24 1803
COL,1,1 24 1802
_X,0 24 1801
XY,0,1 24 1800
SUB,0,1 24 1799
MULT,0 24 1798
COL,0,0 24 1797
XY,22,1 22 1796
SUB,22,1 22 1795
MULT,22 22 1794
COL,22,2 22 1793
XY,23,1 22 1792
SUB,23,1 22 1791
MULT,23 22 1790
COL,23,3 22 1789
_X,39 22 1788
XY,39,1 22 1787
SUB,39,1 22 1786
MULT,39 22 1785
_X,38 22 1784
XY,38,1 22 1783
SUB,38,1 22 1782
MULT,38 22 1781
COL,38,18 23 1780
COL,39,19 23 1779
COL,2,2 23 1778
COL,3,3 23 1777
MULT,28 23 1776
COL,28,8 23 1775
MULT,29 23 1774
COL,29,9 23 1773
_AX,57 23 1772
SUB,57,1 23 1771
MULT,57 23 1770
COL,57,17 23 1769
_AX,56 23 1768
SUB,56,1 23 1767
MULT,56 23 1766
COL,56,16 23 1765
_AX,55 25 1764
_AX,54 25 1763
_X,55 25 1762
XY,55,1 25 1761
_X,54 25 1760
XY,54,1 25 1759
_AX,45 25 1758
_AX,44 25 1757
_X,45 25 1756
XY,45,1 25 1755
SUB,45,1 25 1754
_X,44 25 1753
XY,44,1 25 1752
SUB,44,1 25 1751
MULT,44 27 1750
COL,44,4 27 1749
MULT,45 27 1748
COL,45,5 27 1747
COL,41,1 27 1746
COL,40,0 27 1745
_AX,47 27 1744
SUB,47,1 27 1743
MULT,47 27 1742
COL,47,7 27 1741
_AX,46 27 1740
SUB,46,1 27 1739
MULT,46 27 1738
COL,46,6 27 1737
SUB,54,1 26 1736
MULT,54 26 1735
COL,54,14 26 1734
SUB,55,1 26 1733
MULT,55 26 1732
COL,55,15 26 1731
SUB,32,1 26 1730
MULT,32 26 1729
COL,32,12 26 1728
SUB,33,1 26 1727
MULT,33 26 1726
COL,33,13 26 1725
_X,7 26 1724
XY,7,1 26 1723
_X,6 26 1722
XY,6,1 26 1721
SUB,6,1 29 1720
MULT,6 29 1719
COL,6,6 29 1718
SUB,7,1 29 1717
MULT,7 29 1716
COL,7,7 29 1715
RNRED,RNBUF 29 1714
SQRT,RN 29 1713
RESET,actMask 29 1712
CONV,actMask 29 1711
GET,18,1 45 1710
XTY,18,18,1 45 1709
GET,19,1 45 1708
XTY,19,19,1 45 1707
GET,26,1 45 1706
XTY,26,6,1 45 1705
GET,27,1 45 1704
XTY,27,7,1 45 1703
GET,10,1 41 1702
XTY,10,10,1 41 1701
GET,11,1 41 1700
XTY,11,11,1 41 1699
GET,34,1 41 1698
XTY,34,14,1 41 1697
GET,35,1 41 1696
XTY,35,15,1 41 1695
GET,12,1 37 1694
GET,13,1 37 1693
GET,32,1 37 1692
XTY,32,12,1 37 1691
GET,33,1 37 1690
XTY,33,13,1 37 1689
GET,36,1 37 1688
GET,37,1 37 1687
XTY,37,17,1 40 1686
XTY,36,16,1 40 1685
GET,8,1 40 1684
XTY,8,8,1 40 1683
GET,9,1 40 1682
XTY,9,9,1 40 1681
GET,14,1 34 1680
XTY,14,14,1 34 1679
GET,15,1 34 1678
XTY,15,15,1 34 1677
GET,38,1 34 1676
GET,39,1 34 1675
XTY,39,19,1 35 1674
XTY,38,18,1 35 1673
GET,2,1 35 1672
XTY,2,2,1 35 1671
GET,3,1 35 1670
XTY,3,3,1 35 1669
GET,20,1 35 1668
XTY,20,0,1 35 1667
GET,21,1 35 1666
XTY,21,1,1 35 1665
GET,42,1 32 1664
GET,43,1 32 1663
GET,44,1 32 1662
XTY,44,4,1 32 1661
GET,45,1 32 1660
XTY,45,5,1 32 1659
XTY,43,3,1 33 1658
XTY,42,2,1 33 1657
GET,0,1 33 1656
XTY,0,0,1 33 1655
GET,1,1 33 1654
XTY,1,1,1 33 1653
GET,40,1 33 1652
XTY,40,0,1 33 1651
GET,41,1 33 1650
XTY,41,1,1 33 1649
GET,16,1 43 1648
XTY,16,16,1 43 1647
GET,17,1 43 1646
XTY,17,17,1 43 1645
GET,48,1 43 1644
XTY,48,8,1 43 1643
GET,49,1 43 1642
XTY,49,9,1 43 1641
GET,30,1 44 1640
XTY,30,10,1 44 1639
GET,31,1 44 1638
XTY,31,11,1 44 1637
GET,52,1 44 1636
GET,53,1 44 1635
GET,24,1 36 1634
XTY,24,4,1 36 1633
GET,25,1 36 1632
XTY,25,5,1 36 1631
GET,56,1 36 1630
XTY,56,16,1 36 1629
GET,57,1 36 1628
XTY,57,17,1 36 1627
GET,28,1 39 1626
XTY,28,8,1 39 1625
GET,29,1 39 1624
XTY,29,9,1 39 1623
GET,58,1 39 1622
XTY,58,18,1 39 1621
GET,59,1 39 1620
XTY,59,19,1 39 1619
GET,22,1 38 1618
XTY,22,2,1 38 1617
GET,23,1 38 1616
XTY,23,3,1 38 1615
GET,60,1 38 1614
XTY,60,0,1 38 1613
GET,61,1 38 1612
XTY,61,1,1 38 1611
GET,54,1 30 1610
XTY,54,14,1 30 1609
GET,55,1 30 1608
XTY,55,15,1 30 1607
CONSTRUCTGB 30 1606
GET,4,1 31 1605
XTY,4,4,1 31 1604
GET,5,1 31 1603
XTY,5,5,1 31 1602
GET,6,1 31 1601
XTY,6,6,1 31 1600
GET,7,1 31 1599
XTY,7,7,1 31 1598
GET,46,1 31 1597
GET,47,1 31 1596
XTY,47,7,1 42 1595
XTY,46,6,1 42 1594
XTY,13,13,1 42 1593
XTY,12,12,1 42 1592
GET,50,1 42 1591
XTY,50,10,1 42 1590
GET,51,1 42 1589
XTY,51,11,1 42 1588
XTY,53,13,1 46 1587
XTY,52,12,1 46 1586
RED,temp2BUF,0 46 1585
XY,4,2 46 1584
XY,5,2 46 1583
XY,6,2 46 1582
XY,7,2 46 1581
XY,8,2 46 1580
XY,9,2 46 1579
XY,2,2 47 1578
XY,3,2 47 1577
XY,12,2 47 1576
XY,13,2 47 1575
XY,46,2 47 1574
XY,47,2 47 1573
SUB,47,2 53 1572
XTY,47,7,2 53 1571
SUB,46,2 53 1570
XTY,46,6,2 53 1569
SUB,5,2 53 1568
XTY,5,5,2 53 1567
SUB,4,2 53 1566
XTY,4,4,2 53 1565
XY,42,2 53 1564
XY,43,2 53 1563
XY,44,2 53 1562
SUB,44,2 53 1561
XY,45,2 53 1560
SUB,45,2 53 1559
XTY,45,5,2 55 1558
XTY,44,4,2 55 1557
XY,16,2 55 1556
XY,17,2 55 1555
XY,18,2 55 1554
SUB,18,2 55 1553
XTY,18,18,2 55 1552
XY,19,2 55 1551
SUB,19,2 55 1550
XTY,19,19,2 55 1549
XY,26,2 55 1548
SUB,26,2 55 1547
XTY,26,6,2 55 1546
XY,27,2 55 1545
SUB,27,2 55 1544
XTY,27,7,2 55 1543
SUB,17,2 56 1542
XTY,17,17,2 56 1541
SUB,16,2 56 1540
XTY,16,16,2 56 1539
SUB,7,2 56 1538
XTY,7,7,2 56 1537
SUB,6,2 56 1536
XTY,6,6,2 56 1535
XY,14,2 56 1534
SUB,14,2 56 1533
XTY,14,14,2 56 1532
XY,15,2 56 1531
SUB,15,2 56 1530
XTY,15,15,2 56 1529
SUB,43,2 54 1528
XTY,43,3,2 54 1527
SUB,42,2 54 1526
XTY,42,2,2 54 1525
XY,20,2 54 1524
SUB,20,2 54 1523
XTY,20,0,2 54 1522
XY,21,2 54 1521
SUB,21,2 54 1520
XTY,21,1,2 54 1519
XY,50,2 54 1518
SUB,50,2 54 1517
XTY,50,10,2 54 1516
XY,51,2 54 1515
SUB,51,2 54 1514
XTY,51,11,2 54 1513
SUB,13,2 48 1512
XTY,13,13,2 48 1511
SUB,12,2 48 1510
XTY,12,12,2 48 1509
SUB,9,2 48 1508
XTY,9,9,2 48 1507
SUB,8,2 48 1506
XTY,8,8,2 48 1505
XY,56,2 48 1504
XY,57,2 48 1503
XY,60,2 48 1502
SUB,60,2 48 1501
XTY,60,0,2 48 1500
XY,61,2 48 1499
SUB,61,2 48 1498
XTY,61,1,2 48 1497
SUB,57,2 49 1496
SUB,56,2 49 1495
XY,30,2 49 1494
SUB,30,2 49 1493
XTY,30,10,2 49 1492
XY,31,2 49 1491
SUB,31,2 49 1490
XTY,31,11,2 49 1489
XY,32,2 49 1488
SUB,32,2 49 1487
XTY,32,12,2 49 1486
XY,33,2 49 1485
SUB,33,2 49 1484
XTY,33,13,2 49 1483
XTY,56,16,2 59 1482
XTY,57,17,2 59 1481
XY,10,2 59 1480
SUB,10,2 59 1479
XTY,10,10,2 59 1478
XY,11,2 59 1477
SUB,11,2 59 1476
XTY,11,11,2 59 1475
XY,40,2 59 1474
SUB,40,2 59 1473
XTY,40,0,2 59 1472
XY,41,2 59 1471
SUB,41,2 59 1470
XTY,41,1,2 59 1469
SETZERO,59,1 59 1468
SETZERO,58,1 59 1467
SUB,3,2 51 1466
XTY,3,3,2 51 1465
SUB,2,2 51 1464
XTY,2,2,2 51 1463
XY,34,2 51 1462
SUB,34,2 51 1461
XTY,34,14,2 51 1460
XY,35,2 51 1459
SUB,35,2 51 1458
XTY,35,15,2 51 1457
XY,24,2 50 1456
XY,25,2 50 1455
XY,48,2 50 1454
XY,49,2 50 1453
XY,54,2 50 1452
SUB,54,2 50 1451
XTY,54,14,2 50 1450
XY,55,2 50 1449
SUB,55,2 50 1448
XTY,55,15,2 50 1447
SUB,49,2 52 1446
XTY,49,9,2 52 1445
SUB,48,2 52 1444
XTY,48,8,2 52 1443
XY,36,2 52 1442
XY,37,2 52 1441
XY,38,2 52 1440
SUB,38,2 52 1439
XTY,38,18,2 52 1438
XY,39,2 52 1437
SUB,39,2 52 1436
XTY,39,19,2 52 1435
XY,52,2 52 1434
XY,53,2 52 1433
SUB,53,2 57 1432
XTY,53,13,2 57 1431
SUB,52,2 57 1430
XTY,52,12,2 57 1429
SUB,25,2 57 1428
XTY,25,5,2 57 1427
SUB,24,2 57 1426
XTY,24,4,2 57 1425
XY,22,2 57 1424
SUB,22,2 57 1423
XTY,22,2,2 57 1422
XY,23,2 57 1421
SUB,23,2 57 1420
XTY,23,3,2 57 1419
SUB,37,2 58 1418
XTY,37,17,2 58 1417
SUB,36,2 58 1416
XTY,36,16,2 58 1415
XY,0,2 58 1414
SUB,0,2 58 1413
XTY,0,0,2 58 1412
XY,1,2 58 1411
SUB,1,2 58 1410
XTY,1,1,2 58 1409
XY,28,2 58 1408
SUB,28,2 58 1407
XTY,28,8,2 58 1406
XY,29,2 58 1405
SUB,29,2 58 1404
XTY,29,9,2 58 1403
XY,58,2 60 1402
SUB,58,2 60 1401
XTY,58,18,2 60 1400
XY,59,2 60 1399
SUB,59,2 60 1398
XTY,59,19,2 60 1397
RED,RBRBUF,0 60 1396
CHOL,RBR 60 1395
INV,RBR 60 1394
SETZERO,13,1 60 1393
SETZERO,12,1 60 1392
XY,12,3 64 1391
XY,13,3 64 1390
XY,18,3 64 1389
XY,19,3 64 1388
XY,20,3 64 1387
XY,21,3 64 1386
XY,22,3 64 1385
XY,23,3 64 1384
DLACPY,13,1 108 1383
SPMM,13,13,0 108 1382
SPMM,14,13,0 108 1381
SPMM,15,13,0 108 1380
SPMM,23,13,0 108 1379
SPMM,24,13,0 108 1378
SPMM,30,13,0 108 1377
SPMM,61,13,0 108 1376
XTY,13,13,4 108 1375
DLACPY,12,1 108 1374
SPMM,12,12,0 108 1373
SPMM,13,12,0 108 1372
SPMM,15,12,0 108 1371
SPMM,61,12,0 108 1370
XTY,12,12,4 108 1369
XY,6,3 63 1368
XY,7,3 63 1367
XY,24,3 63 1366
XY,25,3 63 1365
XY,36,3 63 1364
XY,37,3 63 1363
XY,4,3 61 1362
XY,5,3 61 1361
XY,8,3 61 1360
XY,9,3 61 1359
XY,16,3 61 1358
XY,17,3 61 1357
XY,40,3 61 1356
XY,41,3 61 1355
DLACPY,17,1 79 1354
SPMM,18,17,0 79 1353
SPMM,19,17,0 79 1352
SPMM,20,17,0 79 1351
SPMM,21,17,0 79 1350
UPDATE,17,1 79 1349
DLACPY,16,1 79 1348
UPDATE,16,1 79 1347
DLACPY,21,1 79 1346
SPMM,22,21,0 79 1345
SPMM,23,21,0 79 1344
SPMM,61,21,0 79 1343
DLACPY,20,1 79 1342
SPMM,22,20,0 79 1341
SPMM,23,20,0 79 1340
SPMM,61,20,0 79 1339
DLACPY,9,1 96 1338
SPMM,10,9,0 96 1337
SPMM,11,9,0 96 1336
SPMM,12,9,0 96 1335
SPMM,13,9,0 96 1334
SPMM,14,9,0 96 1333
SPMM,15,9,0 96 1332
SPMM,24,9,0 96 1331
SPMM,28,9,0 96 1330
SPMM,29,9,0 96 1329
UPDATE,9,1 96 1328
XTY,9,9,4 96 1327
DLACPY,8,1 96 1326
SPMM,11,8,0 96 1325
SPMM,12,8,0 96 1324
SPMM,13,8,0 96 1323
SPMM,14,8,0 96 1322
SPMM,15,8,0 96 1321
UPDATE,8,1 96 1320
XTY,8,8,4 96 1319
XY,0,3 65 1318
XY,1,3 65 1317
XY,14,3 65 1316
XY,15,3 65 1315
XY,28,3 65 1314
XY,29,3 65 1313
XY,30,3 65 1312
XY,31,3 65 1311
XY,42,3 65 1310
XY,43,3 65 1309
DLACPY,31,1 92 1308
SPMM,31,31,0 92 1307
SPMM,34,31,0 92 1306
SPMM,35,31,0 92 1305
SPMM,36,31,0 92 1304
SPMM,37,31,0 92 1303
SPMM,40,31,0 92 1302
SPMM,41,31,0 92 1301
SPMM,42,31,0 92 1300
SPMM,43,31,0 92 1299
DLACPY,30,1 92 1298
SPMM,30,30,0 92 1297
SPMM,31,30,0 92 1296
SPMM,34,30,0 92 1295
SPMM,35,30,0 92 1294
SPMM,36,30,0 92 1293
SPMM,37,30,0 92 1292
SPMM,40,30,0 92 1291
SPMM,41,30,0 92 1290
SPMM,42,30,0 92 1289
SPMM,43,30,0 92 1288
DLACPY,1,1 88 1287
SPMM,2,1,0 88 1286
SPMM,3,1,0 88 1285
SPMM,4,1,0 88 1284
SPMM,5,1,0 88 1283
SPMM,6,1,0 88 1282
SPMM,7,1,0 88 1281
SPMM,8,1,0 88 1280
SPMM,9,1,0 88 1279
SPMM,10,1,0 88 1278
SPMM,11,1,0 88 1277
SPMM,12,1,0 88 1276
SPMM,13,1,0 88 1275
SPMM,30,1,0 88 1274
DLACPY,0,1 88 1273
SPMM,3,0,0 88 1272
SPMM,4,0,0 88 1271
SPMM,5,0,0 88 1270
SPMM,6,0,0 88 1269
SPMM,7,0,0 88 1268
SPMM,8,0,0 88 1267
SPMM,9,0,0 88 1266
SPMM,10,0,0 88 1265
SPMM,11,0,0 88 1264
SPMM,12,0,0 88 1263
SPMM,13,0,0 88 1262
SPMM,30,0,0 88 1261
XY,26,3 67 1260
XY,27,3 67 1259
XY,34,3 67 1258
XY,35,3 67 1257
XY,48,3 67 1256
XY,49,3 67 1255
DLACPY,35,1 97 1254
SPMM,35,35,0 97 1253
SPMM,38,35,0 97 1252
SPMM,39,35,0 97 1251
SPMM,40,35,0 97 1250
SPMM,41,35,0 97 1249
SPMM,44,35,0 97 1248
SPMM,45,35,0 97 1247
SPMM,46,35,0 97 1246
SPMM,47,35,0 97 1245
SPMM,54,35,0 97 1244
SPMM,60,35,0 97 1243
SPMM,61,35,0 97 1242
DLACPY,34,1 97 1241
SPMM,34,34,0 97 1240
SPMM,35,34,0 97 1239
SPMM,38,34,0 97 1238
SPMM,39,34,0 97 1237
SPMM,40,34,0 97 1236
SPMM,41,34,0 97 1235
SPMM,44,34,0 97 1234
SPMM,45,34,0 97 1233
SPMM,46,34,0 97 1232
SPMM,47,34,0 97 1231
SPMM,54,34,0 97 1230
SPMM,55,34,0 97 1229
SPMM,60,34,0 97 1228
SPMM,61,34,0 97 1227
SPMM,48,34,0 98 1226
UPDATE,34,1 98 1225
SPMM,48,35,0 98 1224
UPDATE,35,1 98 1223
SPMM,0,0,0 98 1222
SPMM,1,0,0 98 1221
SPMM,44,0,0 98 1220
SPMM,45,0,0 98 1219
UPDATE,0,1 98 1218
SPMM,1,1,0 98 1217
SPMM,44,1,0 98 1216
SPMM,45,1,0 98 1215
UPDATE,1,1 98 1214
UPDATE,30,1 98 1213
XTY,30,10,4 98 1212
UPDATE,31,1 98 1211
XTY,31,11,4 98 1210
DLACPY,27,1 77 1209
SPMM,27,27,0 77 1208
SPMM,28,27,0 77 1207
SPMM,29,27,0 77 1206
SPMM,30,27,0 77 1205
SPMM,61,27,0 77 1204
UPDATE,27,1 77 1203
XTY,27,7,4 77 1202
DLACPY,26,1 77 1201
SPMM,26,26,0 77 1200
SPMM,27,26,0 77 1199
SPMM,28,26,0 77 1198
SPMM,29,26,0 77 1197
SPMM,30,26,0 77 1196
SPMM,61,26,0 77 1195
UPDATE,26,1 77 1194
XTY,26,6,4 77 1193
XY,50,3 66 1192
DLACPY,50,1 66 1191
XY,51,3 66 1190
DLACPY,51,1 66 1189
XY,52,3 66 1188
XY,53,3 66 1187
XY,54,3 66 1186
XY,55,3 66 1185
SPMM,61,50,0 100 1184
SPMM,30,9,0 100 1183
DLACPY,7,1 100 1182
SPMM,8,7,0 100 1181
SPMM,9,7,0 100 1180
UPDATE,7,1 100 1179
XTY,7,7,4 100 1178
DLACPY,6,1 100 1177
SPMM,9,6,0 100 1176
UPDATE,6,1 100 1175
XTY,6,6,4 100 1174
DLACPY,53,1 78 1173
SPMM,53,53,0 78 1172
SPMM,54,53,0 78 1171
SPMM,55,53,0 78 1170
SPMM,56,53,0 78 1169
SPMM,57,53,0 78 1168
SPMM,58,53,0 78 1167
SPMM,59,53,0 78 1166
SPMM,61,53,0 78 1165
UPDATE,53,1 78 1164
XTY,53,13,4 78 1163
DLACPY,52,1 78 1162
SPMM,52,52,0 78 1161
SPMM,53,52,0 78 1160
SPMM,54,52,0 78 1159
SPMM,56,52,0 78 1158
SPMM,57,52,0 78 1157
SPMM,60,52,0 78 1156
SPMM,61,52,0 78 1155
UPDATE,52,1 78 1154
XTY,52,12,4 78 1153
XY,32,3 68 1152
XY,33,3 68 1151
XY,38,3 68 1150
XY,39,3 68 1149
XY,46,3 68 1148
XY,47,3 68 1147
XY,56,3 68 1146
XY,57,3 68 1145
DLACPY,57,1 71 1144
SPMM,57,57,0 71 1143
XTY,57,17,4 71 1142
DLACPY,56,1 71 1141
SPMM,56,56,0 71 1140
SPMM,57,56,0 71 1139
XTY,56,16,4 71 1138
DLACPY,25,1 71 1137
SPMM,25,25,0 71 1136
SPMM,26,25,0 71 1135
SPMM,27,25,0 71 1134
SPMM,30,25,0 71 1133
SPMM,61,25,0 71 1132
UPDATE,25,1 71 1131
DLACPY,24,1 71 1130
SPMM,24,24,0 71 1129
SPMM,25,24,0 71 1128
SPMM,26,24,0 71 1127
SPMM,27,24,0 71 1126
SPMM,30,24,0 71 1125
SPMM,61,24,0 71 1124
UPDATE,24,1 71 1123
SPMM,60,56,0 72 1122
SPMM,61,56,0 72 1121
SPMM,60,57,0 72 1120
SPMM,61,57,0 72 1119
DLACPY,43,1 72 1118
SPMM,43,43,0 72 1117
SPMM,46,43,0 72 1116
SPMM,47,43,0 72 1115
SPMM,48,43,0 72 1114
SPMM,54,43,0 72 1113
UPDATE,43,1 72 1112
DLACPY,42,1 72 1111
SPMM,42,42,0 72 1110
SPMM,43,42,0 72 1109
SPMM,46,42,0 72 1108
SPMM,47,42,0 72 1107
SPMM,48,42,0 72 1106
UPDATE,42,1 72 1105
SPMM,28,24,0 73 1104
SPMM,29,24,0 73 1103
XTY,24,4,4 73 1102
SPMM,28,25,0 73 1101
SPMM,29,25,0 73 1100
XTY,25,5,4 73 1099
DLACPY,55,1 73 1098
SPMM,55,55,0 73 1097
SPMM,58,55,0 73 1096
SPMM,59,55,0 73 1095
SPMM,60,55,0 73 1094
SPMM,61,55,0 73 1093
UPDATE,55,1 73 1092
DLACPY,54,1 73 1091
SPMM,54,54,0 73 1090
SPMM,55,54,0 73 1089
SPMM,58,54,0 73 1088
SPMM,59,54,0 73 1087
SPMM,60,54,0 73 1086
SPMM,61,54,0 73 1085
UPDATE,54,1 73 1084
DLACPY,47,1 69 1083
SPMM,47,47,0 69 1082
SPMM,48,47,0 69 1081
SPMM,61,47,0 69 1080
DLACPY,46,1 69 1079
SPMM,46,46,0 69 1078
SPMM,47,46,0 69 1077
SPMM,48,46,0 69 1076
XY,60,3 69 1075
DLACPY,60,1 69 1074
SPMM,60,60,0 69 1073
SPMM,61,60,0 69 1072
UPDATE,60,1 69 1071
XY,61,3 69 1070
DLACPY,61,1 69 1069
SPMM,61,61,0 69 1068
UPDATE,61,1 69 1067
UPDATE,46,1 75 1066
XTY,46,6,4 75 1065
UPDATE,47,1 75 1064
XTY,47,7,4 75 1063
SPMM,56,54,0 75 1062
SPMM,57,54,0 75 1061
XTY,54,14,4 75 1060
SPMM,56,55,0 75 1059
SPMM,57,55,0 75 1058
XTY,55,15,4 75 1057
SPMM,44,42,0 75 1056
SPMM,45,42,0 75 1055
SPMM,44,43,0 75 1054
SPMM,45,43,0 75 1053
SPMM,60,43,0 75 1052
SPMM,61,43,0 75 1051
SPMM,58,56,0 75 1050
SPMM,59,56,0 75 1049
UPDATE,56,1 75 1048
SPMM,58,57,0 75 1047
SPMM,59,57,0 75 1046
UPDATE,57,1 75 1045
DLACPY,39,1 80 1044
SPMM,54,39,0 80 1043
XTY,39,19,4 80 1042
DLACPY,38,1 80 1041
XTY,38,18,4 80 1040
SPMM,61,16,0 80 1039
SPMM,61,17,0 80 1038
SPMM,58,39,0 106 1037
SPMM,59,39,0 106 1036
SPMM,54,51,0 106 1035
UPDATE,51,1 106 1034
SPMM,54,50,0 106 1033
SPMM,55,50,0 106 1032
UPDATE,50,1 106 1031
SPMM,38,30,0 106 1030
SPMM,39,30,0 106 1029
SPMM,60,30,0 106 1028
SPMM,61,30,0 106 1027
SPMM,38,31,0 106 1026
SPMM,39,31,0 106 1025
SPMM,60,31,0 106 1024
SPMM,61,31,0 106 1023
SPMM,16,16,0 106 1022
SPMM,17,16,0 106 1021
SPMM,17,17,0 106 1020
SPMM,25,17,0 106 1019
DLACPY,33,1 81 1018
SPMM,33,33,0 81 1017
SPMM,50,33,0 81 1016
SPMM,51,33,0 81 1015
SPMM,54,33,0 81 1014
SPMM,55,33,0 81 1013
XTY,33,13,4 81 1012
DLACPY,32,1 81 1011
SPMM,32,32,0 81 1010
SPMM,33,32,0 81 1009
SPMM,36,32,0 81 1008
SPMM,37,32,0 81 1007
SPMM,50,32,0 81 1006
SPMM,51,32,0 81 1005
SPMM,54,32,0 81 1004
SPMM,55,32,0 81 1003
XTY,32,12,4 81 1002
SPMM,48,32,0 91 1001
SPMM,49,32,0 91 1000
SPMM,48,33,0 91 999
SPMM,49,33,0 91 998
SPMM,20,1,0 91 997
SPMM,21,1,0 91 996
DLACPY,15,1 91 995
SPMM,15,15,0 91 994
SPMM,23,15,0 91 993
SPMM,28,15,0 91 992
SPMM,29,15,0 91 991
UPDATE,15,1 91 990
DLACPY,14,1 91 989
SPMM,14,14,0 91 988
SPMM,15,14,0 91 987
SPMM,23,14,0 91 986
UPDATE,14,1 91 985
SPMM,30,14,0 104 984
SPMM,30,15,0 104 983
SPMM,61,38,0 104 982
SPMM,60,39,0 104 981
SPMM,61,39,0 104 980
SPMM,58,50,0 104 979
SPMM,59,50,0 104 978
SPMM,34,14,0 123 977
SPMM,35,14,0 123 976
SPMM,35,15,0 123 975
SPMM,50,34,0 123 974
SPMM,52,34,0 123 973
SPMM,53,34,0 123 972
SPMM,16,12,0 123 971
SPMM,17,12,0 123 970
SPMM,16,13,0 123 969
SPMM,17,13,0 123 968
SPMM,45,14,0 105 967
SPMM,45,15,0 105 966
SPMM,61,0,0 105 965
SPMM,61,8,0 105 964
SPMM,61,9,0 105 963
SPMM,25,21,0 105 962
SPMM,58,32,0 82 961
SPMM,59,32,0 82 960
SPMM,58,33,0 82 959
SPMM,59,33,0 82 958
DLACPY,49,1 82 957
SPMM,50,49,0 82 956
SPMM,51,49,0 82 955
SPMM,54,49,0 82 954
SPMM,55,49,0 82 953
SPMM,56,49,0 82 952
XTY,49,9,4 82 951
DLACPY,48,1 82 950
SPMM,50,48,0 82 949
SPMM,51,48,0 82 948
SPMM,54,48,0 82 947
SPMM,55,48,0 82 946
SPMM,56,48,0 82 945
SPMM,60,48,0 82 944
SPMM,61,48,0 82 943
XTY,48,8,4 82 942
SPMM,52,48,0 85 941
SPMM,53,48,0 85 940
SPMM,52,49,0 85 939
SPMM,53,49,0 85 938
UPDATE,32,1 85 937
UPDATE,33,1 85 936
DLACPY,37,1 85 935
SPMM,37,37,0 85 934
SPMM,40,37,0 85 933
SPMM,41,37,0 85 932
SPMM,45,37,0 85 931
SPMM,48,37,0 85 930
DLACPY,36,1 85 929
SPMM,36,36,0 85 928
SPMM,37,36,0 85 927
SPMM,40,36,0 85 926
SPMM,41,36,0 85 925
SPMM,44,36,0 85 924
SPMM,45,36,0 85 923
SPMM,48,36,0 85 922
XTY,36,16,4 95 921
XTY,37,17,4 95 920
SPMM,28,0,0 95 919
SPMM,29,0,0 95 918
SPMM,28,1,0 95 917
SPMM,29,1,0 95 916
SPMM,20,20,0 95 915
SPMM,21,20,0 95 914
SPMM,21,21,0 95 913
SPMM,22,17,0 95 912
SPMM,23,17,0 95 911
SPMM,38,32,0 102 910
SPMM,39,32,0 102 909
SPMM,36,34,0 102 908
SPMM,37,34,0 102 907
SPMM,36,35,0 102 906
XTY,36,16,5 102 905
SPMM,37,35,0 102 904
XTY,37,17,5 102 903
SPMM,23,0,0 102 902
SPMM,22,1,0 102 901
SPMM,23,1,0 102 900
SPMM,60,32,0 101 899
SPMM,61,32,0 101 898
SPMM,60,33,0 101 897
SPMM,61,33,0 101 896
SPMM,61,6,0 101 895
SPMM,61,7,0 101 894
SPMM,58,30,0 101 893
SPMM,58,31,0 101 892
SPMM,59,31,0 101 891
XY,2,3 62 890
XY,3,3 62 889
XY,10,3 62 888
XY,11,3 62 887
XY,44,3 62 886
XY,45,3 62 885
XY,58,3 62 884
XY,59,3 62 883
DLACPY,59,1 70 882
SPMM,59,59,0 70 881
SPMM,60,59,0 70 880
SPMM,61,59,0 70 879
UPDATE,59,1 70 878
XTY,59,19,4 70 877
DLACPY,58,1 70 876
SPMM,58,58,0 70 875
SPMM,59,58,0 70 874
SPMM,60,58,0 70 873
SPMM,61,58,0 70 872
UPDATE,58,1 70 871
XTY,58,18,4 70 870
XTY,61,1,4 70 869
XTY,60,0,4 70 868
XTY,51,11,4 70 867
XTY,50,10,4 70 866
DLACPY,45,1 83 865
SPMM,48,45,0 83 864
SPMM,54,45,0 83 863
SPMM,60,45,0 83 862
DLACPY,44,1 83 861
SPMM,48,44,0 83 860
SPMM,54,44,0 83 859
SPMM,60,44,0 83 858
SPMM,61,44,0 83 857
DLACPY,19,1 83 856
SPMM,19,19,0 83 855
SPMM,24,19,0 83 854
SPMM,25,19,0 83 853
SPMM,28,19,0 83 852
SPMM,29,19,0 83 851
DLACPY,18,1 83 850
SPMM,18,18,0 83 849
SPMM,19,18,0 83 848
SPMM,24,18,0 83 847
SPMM,25,18,0 83 846
SPMM,28,18,0 83 845
SPMM,56,45,0 111 844
SPMM,57,45,0 111 843
SPMM,16,0,0 111 842
SPMM,17,0,0 111 841
SPMM,24,0,0 111 840
SPMM,25,0,0 111 839
SPMM,16,1,0 111 838
SPMM,17,1,0 111 837
SPMM,24,1,0 111 836
SPMM,25,1,0 111 835
DLACPY,23,1 111 834
SPMM,24,23,0 111 833
SPMM,25,23,0 111 832
SPMM,28,23,0 111 831
SPMM,29,23,0 111 830
SPMM,61,23,0 111 829
UPDATE,23,1 111 828
DLACPY,22,1 111 827
SPMM,61,22,0 111 826
UPDATE,22,1 111 825
XTY,22,2,4 112 824
XTY,23,3,4 112 823
SPMM,52,32,0 112 822
SPMM,53,32,0 112 821
SPMM,52,33,0 112 820
SPMM,53,33,0 112 819
SPMM,48,30,0 112 818
SPMM,48,31,0 112 817
SPMM,61,19,0 103 816
UPDATE,44,1 103 815
UPDATE,45,1 103 814
SPMM,61,36,0 103 813
UPDATE,36,1 103 812
SPMM,61,37,0 103 811
UPDATE,37,1 103 810
SPMM,58,48,0 103 809
SPMM,59,48,0 103 808
XTY,14,14,4 103 807
XTY,15,15,4 103 806
UPDATE,20,1 103 805
SPMM,30,21,0 103 804
UPDATE,21,1 103 803
SPMM,30,18,0 109 802
SPMM,30,19,0 109 801
SPMM,12,6,0 109 800
SPMM,13,6,0 109 799
SPMM,12,7,0 109 798
SPMM,13,7,0 109 797
XTY,1,1,5 109 796
XTY,0,0,5 109 795
UPDATE,18,1 84 794
UPDATE,19,1 84 793
UPDATE,48,1 84 792
UPDATE,49,1 84 791
SPMM,40,32,0 84 790
SPMM,41,32,0 84 789
SPMM,38,38,0 84 788
SPMM,39,38,0 84 787
SPMM,40,38,0 84 786
SPMM,41,38,0 84 785
SPMM,44,38,0 84 784
SPMM,45,38,0 84 783
UPDATE,38,1 84 782
SPMM,39,39,0 84 781
SPMM,40,39,0 84 780
SPMM,41,39,0 84 779
SPMM,44,39,0 84 778
SPMM,45,39,0 84 777
UPDATE,39,1 84 776
XTY,16,16,4 84 775
XTY,17,17,4 84 774
XTY,18,18,4 94 773
XTY,19,19,4 94 772
SPMM,24,14,0 94 771
SPMM,24,15,0 94 770
SPMM,25,15,0 94 769
SPMM,56,32,0 94 768
SPMM,57,32,0 94 767
SPMM,56,33,0 94 766
SPMM,57,33,0 94 765
SPMM,56,50,0 113 764
SPMM,56,34,0 113 763
SPMM,57,34,0 113 762
XTY,57,17,5 113 761
SPMM,56,35,0 113 760
SPMM,56,30,0 113 759
XTY,56,16,5 113 758
DLACPY,11,1 74 757
SPMM,11,11,0 74 756
SPMM,12,11,0 74 755
SPMM,13,11,0 74 754
SPMM,14,11,0 74 753
SPMM,15,11,0 74 752
SPMM,16,11,0 74 751
SPMM,17,11,0 74 750
SPMM,61,11,0 74 749
XTY,11,11,4 74 748
DLACPY,10,1 74 747
SPMM,10,10,0 74 746
SPMM,11,10,0 74 745
SPMM,12,10,0 74 744
SPMM,13,10,0 74 743
SPMM,14,10,0 74 742
SPMM,15,10,0 74 741
SPMM,16,10,0 74 740
SPMM,17,10,0 74 739
SPMM,61,10,0 74 738
XTY,10,10,4 74 737
XTY,42,2,4 74 736
XTY,43,3,4 74 735
UPDATE,10,1 76 734
UPDATE,11,1 76 733
DLACPY,29,1 76 732
SPMM,29,29,0 76 731
SPMM,30,29,0 76 730
UPDATE,29,1 76 729
XTY,29,9,4 76 728
DLACPY,28,1 76 727
SPMM,28,28,0 76 726
SPMM,29,28,0 76 725
SPMM,30,28,0 76 724
SPMM,61,28,0 76 723
UPDATE,28,1 76 722
XTY,28,8,4 76 721
DLACPY,3,1 86 720
SPMM,3,3,0 86 719
SPMM,4,3,0 86 718
SPMM,5,3,0 86 717
SPMM,14,3,0 86 716
SPMM,15,3,0 86 715
SPMM,18,3,0 86 714
SPMM,19,3,0 86 713
SPMM,24,3,0 86 712
SPMM,25,3,0 86 711
SPMM,26,3,0 86 710
SPMM,27,3,0 86 709
SPMM,28,3,0 86 708
SPMM,29,3,0 86 707
DLACPY,2,1 86 706
SPMM,2,2,0 86 705
SPMM,3,2,0 86 704
SPMM,14,2,0 86 703
SPMM,15,2,0 86 702
SPMM,18,2,0 86 701
SPMM,19,2,0 86 700
SPMM,24,2,0 86 699
SPMM,25,2,0 86 698
SPMM,26,2,0 86 697
SPMM,27,2,0 86 696
SPMM,28,2,0 86 695
SPMM,29,2,0 86 694
SPMM,44,44,0 90 693
SPMM,45,44,0 90 692
SPMM,45,45,0 90 691
XTY,0,0,4 90 690
SPMM,18,1,0 90 689
XTY,18,18,5 90 688
SPMM,19,1,0 90 687
XTY,19,19,5 90 686
XTY,1,1,4 90 685
SPMM,20,2,0 89 684
SPMM,21,2,0 89 683
SPMM,21,3,0 89 682
XTY,44,4,4 89 681
XTY,45,5,4 89 680
SPMM,48,48,0 89 679
SPMM,49,48,0 89 678
SPMM,49,49,0 89 677
SPMM,20,18,0 99 676
SPMM,21,18,0 99 675
SPMM,20,19,0 99 674
XTY,20,0,5 99 673
SPMM,21,19,0 99 672
XTY,21,1,5 99 671
SPMM,58,34,0 99 670
SPMM,59,34,0 99 669
SPMM,58,35,0 99 668
SPMM,22,2,0 93 667
SPMM,23,2,0 93 666
SPMM,23,3,0 93 665
SPMM,44,30,0 93 664
SPMM,45,30,0 93 663
SPMM,54,30,0 93 662
SPMM,44,31,0 93 661
SPMM,45,31,0 93 660
SPMM,54,31,0 93 659
SPMM,30,2,0 107 658
SPMM,30,3,0 107 657
XTY,55,15,5 107 656
SPMM,14,6,0 107 655
SPMM,15,6,0 107 654
SPMM,14,7,0 107 653
SPMM,15,7,0 107 652
DLACPY,41,1 107 651
SPMM,41,41,0 107 650
SPMM,48,41,0 107 649
DLACPY,40,1 107 648
SPMM,40,40,0 107 647
XTY,40,0,5 107 646
SPMM,41,40,0 107 645
XTY,41,1,5 107 644
SPMM,48,40,0 107 643
SPMM,54,40,0 107 642
XTY,54,14,5 107 641
SPMM,42,40,0 128 640
SPMM,43,40,0 128 639
SPMM,46,40,0 128 638
SPMM,47,40,0 128 637
SPMM,42,41,0 128 636
SPMM,43,41,0 128 635
SPMM,46,41,0 128 634
SPMM,47,41,0 128 633
SPMM,42,34,0 128 632
SPMM,43,34,0 128 631
SPMM,42,35,0 128 630
SPMM,43,35,0 128 629
SPMM,61,2,0 87 628
UPDATE,2,1 87 627
XTY,2,2,4 87 626
SPMM,8,3,0 87 625
SPMM,9,3,0 87 624
SPMM,10,3,0 87 623
SPMM,11,3,0 87 622
SPMM,12,3,0 87 621
SPMM,13,3,0 87 620
SPMM,61,3,0 87 619
UPDATE,3,1 87 618
XTY,3,3,4 87 617
SPMM,48,38,0 87 616
SPMM,48,39,0 87 615
XTY,49,9,5 114 614
SPMM,48,0,0 114 613
DLACPY,5,1 114 612
SPMM,5,5,0 114 611
SPMM,8,5,0 114 610
SPMM,9,5,0 114 609
SPMM,10,5,0 114 608
SPMM,11,5,0 114 607
SPMM,12,5,0 114 606
SPMM,13,5,0 114 605
SPMM,14,5,0 114 604
SPMM,15,5,0 114 603
SPMM,48,5,0 114 602
XTY,48,8,5 114 601
DLACPY,4,1 114 600
SPMM,4,4,0 114 599
SPMM,5,4,0 114 598
SPMM,8,4,0 114 597
SPMM,9,4,0 114 596
SPMM,10,4,0 114 595
SPMM,11,4,0 114 594
SPMM,12,4,0 114 593
SPMM,13,4,0 114 592
SPMM,14,4,0 114 591
SPMM,15,4,0 114 590
SPMM,32,4,0 127 589
SPMM,32,5,0 127 588
SPMM,26,18,0 127 587
SPMM,42,32,0 127 586
SPMM,43,32,0 127 585
SPMM,32,0,0 127 584
SPMM,32,1,0 127 583
SPMM,34,4,0 124 582
SPMM,35,4,0 124 581
SPMM,34,5,0 124 580
SPMM,35,5,0 124 579
SPMM,17,2,0 124 578
SPMM,16,3,0 124 577
SPMM,17,3,0 124 576
SPMM,26,15,0 124 575
SPMM,27,15,0 124 574
SPMM,42,38,0 124 573
SPMM,43,38,0 124 572
SPMM,42,39,0 124 571
SPMM,43,39,0 124 570
SPMM,43,4,0 133 569
SPMM,43,5,0 133 568
SPMM,42,36,0 133 567
XTY,42,2,5 133 566
SPMM,43,36,0 133 565
SPMM,43,37,0 133 564
SPMM,46,38,0 133 563
SPMM,47,38,0 133 562
SPMM,46,39,0 133 561
SPMM,47,39,0 133 560
SPMM,43,0,0 133 559
SPMM,43,1,0 133 558
SPMM,46,30,0 133 557
SPMM,47,30,0 133 556
SPMM,46,31,0 133 555
SPMM,47,31,0 133 554
SPMM,43,12,0 133 553
XTY,43,3,5 133 552
SPMM,47,4,0 126 551
SPMM,27,5,0 126 550
SPMM,46,5,0 126 549
SPMM,47,5,0 126 548
SPMM,32,14,0 126 547
SPMM,32,15,0 126 546
SPMM,51,51,0 126 545
SPMM,50,50,0 126 544
SPMM,51,50,0 126 543
XTY,51,11,5 131 542
XTY,50,10,5 131 541
SPMM,26,23,0 131 540
SPMM,27,23,0 131 539
SPMM,46,44,0 131 538
SPMM,47,44,0 131 537
SPMM,46,45,0 131 536
SPMM,47,45,0 131 535
SPMM,27,0,0 131 534
SPMM,26,1,0 131 533
SPMM,27,1,0 131 532
SPMM,61,4,0 116 531
SPMM,61,5,0 116 530
SPMM,22,22,0 116 529
SPMM,23,22,0 116 528
SPMM,23,23,0 116 527
SPMM,6,6,0 116 526
SPMM,7,6,0 116 525
SPMM,7,7,0 116 524
SPMM,61,40,0 117 523
XTY,40,0,4 117 522
SPMM,61,41,0 117 521
XTY,61,1,5 117 520
XTY,41,1,4 117 519
XTY,60,0,5 117 518
SPMM,8,8,0 117 517
XTY,8,8,5 117 516
SPMM,9,8,0 117 515
SPMM,9,9,0 117 514
XTY,9,9,5 117 513
SPMM,6,4,0 129 512
SPMM,7,4,0 129 511
SPMM,6,5,0 129 510
SPMM,7,5,0 129 509
SPMM,6,3,0 129 508
XTY,6,6,5 129 507
SPMM,7,3,0 129 506
XTY,7,7,5 129 505
SPMM,16,14,0 129 504
SPMM,17,14,0 129 503
SPMM,16,15,0 129 502
SPMM,17,15,0 129 501
SPMM,45,4,0 115 500
XTY,4,4,4 115 499
SPMM,23,5,0 115 498
SPMM,24,5,0 115 497
XTY,24,4,5 115 496
SPMM,25,5,0 115 495
XTY,25,5,5 115 494
SPMM,28,5,0 115 493
XTY,28,8,5 115 492
SPMM,44,5,0 115 491
SPMM,45,5,0 115 490
XTY,5,5,4 115 489
XTY,29,9,5 115 488
XTY,5,5,5 118 487
XTY,4,4,5 118 486
SPMM,30,4,0 118 485
UPDATE,4,1 118 484
SPMM,30,5,0 118 483
UPDATE,5,1 118 482
SPMM,44,40,0 118 481
SPMM,45,40,0 118 480
UPDATE,40,1 118 479
SPMM,44,41,0 118 478
SPMM,45,41,0 118 477
UPDATE,41,1 118 476
SPMM,14,0,0 118 475
SPMM,15,0,0 118 474
SPMM,14,1,0 118 473
XTY,14,14,5 118 472
SPMM,15,1,0 118 471
XTY,15,15,5 118 470
SPMM,30,23,0 119 469
XTY,30,10,5 119 468
SPMM,58,45,0 119 467
SPMM,59,45,0 119 466
SPMM,38,36,0 119 465
SPMM,39,36,0 119 464
SPMM,38,37,0 119 463
SPMM,39,37,0 119 462
XTY,31,11,5 119 461
SPMM,58,40,0 120 460
XTY,58,18,5 120 459
SPMM,59,40,0 120 458
XTY,59,19,5 120 457
SPMM,44,32,0 120 456
XTY,44,4,5 120 455
SPMM,45,32,0 120 454
SPMM,45,33,0 120 453
XTY,45,5,5 120 452
XTY,39,19,5 122 451
XTY,38,18,5 122 450
SPMM,16,4,0 122 449
SPMM,17,4,0 122 448
SPMM,16,5,0 122 447
SPMM,17,5,0 122 446
SPMM,10,6,0 122 445
SPMM,10,7,0 122 444
XTY,10,10,5 122 443
SPMM,11,7,0 122 442
XTY,11,11,5 122 441
XTY,27,7,5 132 440
SPMM,16,6,0 132 439
SPMM,17,6,0 132 438
SPMM,16,7,0 132 437
SPMM,17,7,0 132 436
SPMM,52,51,0 132 435
SPMM,53,51,0 132 434
SPMM,52,50,0 132 433
XTY,52,12,5 132 432
SPMM,53,50,0 132 431
XTY,53,13,5 132 430
SPMM,16,8,0 132 429
SPMM,17,8,0 132 428
SPMM,16,9,0 132 427
XTY,16,16,5 132 426
SPMM,17,9,0 132 425
XTY,17,17,5 132 424
SPMM,26,21,0 132 423
XTY,26,6,5 132 422
XTY,3,3,5 110 421
XTY,2,2,5 110 420
XTY,34,14,4 110 419
XTY,35,15,4 110 418
SPMM,23,9,0 110 417
UPDATE,12,1 110 416
UPDATE,13,1 110 415
SPMM,34,32,0 125 414
SPMM,35,32,0 125 413
SPMM,34,33,0 125 412
SPMM,34,0,0 125 411
SPMM,35,0,0 125 410
SPMM,46,0,0 125 409
SPMM,47,0,0 125 408
SPMM,34,1,0 125 407
XTY,34,14,5 125 406
SPMM,35,1,0 125 405
SPMM,46,1,0 125 404
SPMM,32,30,0 125 403
SPMM,32,31,0 125 402
XTY,20,0,4 125 401
XTY,21,1,4 125 400
RED,XARBUF,0 125 399
SPMM,35,12,0 125 398
XTY,35,15,5 125 397
SPMM,46,36,0 130 396
SPMM,47,36,0 130 395
SPMM,46,37,0 130 394
SPMM,47,37,0 130 393
XTY,33,13,5 130 392
SPMM,46,32,0 130 391
SPMM,47,32,0 130 390
SPMM,32,12,0 130 389
XTY,32,12,5 130 388
XTY,13,13,5 121 387
XTY,12,12,5 121 386
SPMM,22,18,0 121 385
SPMM,23,18,0 121 384
SPMM,22,19,0 121 383
XTY,22,2,5 121 382
SPMM,23,19,0 121 381
XTY,23,3,5 121 380
XTY,47,7,5 134 379
XTY,46,6,5 134 378
RED,RARBUF,0 134 377
TRANS,RAR 134 376
SPEUPDATE,RAR 134 375
CONSTRUCTGA 134 374
EIGEN 134 373
XY,42,8 134 372
XY,43,8 134 371
XY,46,8 134 370
XY,47,8 134 369
XY,34,6 140 368
XY,35,6 140 367
XY,40,6 140 366
XY,41,6 140 365
XY,52,6 140 364
XY,53,6 140 363
XY,26,6 143 362
XY,27,6 143 361
XY,40,10 143 360
ADD,40,3 143 359
XY,41,10 143 358
ADD,41,3 143 357
XY,60,11 143 356
XY,61,11 143 355
XY,18,6 145 354
XY,19,6 145 353
XY,34,10 145 352
ADD,34,3 145 351
XY,35,10 145 350
ADD,35,3 145 349
XY,24,11 145 348
XY,25,11 145 347
XY,24,8 182 346
ADD,24,4 182 345
XY,25,8 182 344
ADD,25,4 182 343
XY,60,8 182 342
ADD,60,4 182 341
XY,61,8 182 340
ADD,61,4 182 339
XY,8,6 142 338
XY,9,6 142 337
XY,28,6 142 336
XY,29,6 142 335
XY,56,6 142 334
XY,57,6 142 333
XY,16,6 138 332
XY,17,6 138 331
XY,6,8 138 330
XY,7,8 138 329
XY,16,8 138 328
XY,17,8 138 327
XY,58,6 136 326
XY,59,6 136 325
XY,32,8 136 324
XY,33,8 136 323
XY,26,10 178 322
ADD,26,3 178 321
XY,27,10 178 320
ADD,27,3 178 319
XY,58,10 178 318
ADD,58,3 178 317
XY,59,10 178 316
ADD,59,3 178 315
XY,38,8 153 314
XY,39,8 153 313
XY,16,10 153 312
XY,17,10 153 311
XY,24,6 146 310
XY,25,6 146 309
XY,26,8 146 308
XY,27,8 146 307
XY,38,10 146 306
XY,39,10 146 305
XY,38,6 150 304
ADD,38,3 150 303
XY,39,6 150 302
ADD,39,3 150 301
XY,60,6 150 300
XY,61,6 150 299
XY,16,11 160 298
ADD,16,4 160 297
XY,17,11 160 296
ADD,17,4 160 295
XY,26,11 160 294
ADD,26,4 160 293
XY,27,11 160 292
ADD,27,4 160 291
XY,42,6 149 290
XY,43,6 149 289
XY,44,6 149 288
XY,45,6 149 287
XY,42,10 149 286
ADD,42,3 149 285
XY,43,10 149 284
ADD,43,3 149 283
XY,0,8 152 282
XY,1,8 152 281
XY,14,8 152 280
XY,15,8 152 279
XY,30,8 152 278
XY,31,8 152 277
XY,52,10 152 276
XY,53,10 152 275
XY,4,8 163 274
XY,5,8 163 273
XY,22,10 163 272
XY,23,10 163 271
XY,4,11 163 270
XY,5,11 163 269
XY,30,6 148 268
XY,31,6 148 267
XY,52,8 148 266
XY,53,8 148 265
XY,48,10 148 264
XY,49,10 148 263
XY,20,11 148 262
XY,21,11 148 261
XY,20,8 155 260
ADD,20,4 155 259
XY,21,8 155 258
ADD,21,4 155 257
XY,10,11 155 256
XY,11,11 155 255
XY,58,8 175 254
XY,59,8 175 253
XY,30,10 175 252
ADD,30,3 175 251
XY,31,10 175 250
ADD,31,3 175 249
XY,32,6 135 248
XY,33,6 135 247
XY,50,8 135 246
XY,51,8 135 245
XY,28,11 135 244
XY,29,11 135 243
XY,28,8 156 242
XY,29,8 156 241
XY,2,10 156 240
XY,3,10 156 239
XY,50,11 156 238
ADD,50,4 156 237
XY,51,11 156 236
ADD,51,4 156 235
XY,2,6 166 234
ADD,2,3 166 233
XY,3,6 166 232
ADD,3,3 166 231
XY,52,11 166 230
ADD,52,4 166 229
XY,53,11 166 228
ADD,53,4 166 227
XY,36,8 154 226
XY,37,8 154 225
XY,56,10 154 224
XY,57,10 154 223
XY,12,11 154 222
XY,13,11 154 221
XY,36,11 154 220
XY,37,11 154 219
XY,12,8 172 218
ADD,12,4 172 217
XY,13,8 172 216
ADD,13,4 172 215
XY,60,10 172 214
ADD,60,3 172 213
XY,61,10 172 212
ADD,61,3 172 211
ADD,57,3 159 210
ADD,56,3 159 209
XY,32,11 159 208
ADD,32,4 159 207
XY,33,11 159 206
ADD,33,4 159 205
XY,20,6 137 204
XY,21,6 137 203
XY,36,6 137 202
XY,37,6 137 201
XY,48,6 137 200
XY,49,6 137 199
XY,40,11 137 198
XY,41,11 137 197
XY,40,8 158 196
ADD,40,4 158 195
XY,41,8 158 194
ADD,41,4 158 193
XY,48,8 158 192
XY,49,8 158 191
XY,48,11 158 190
ADD,48,4 158 189
XY,49,11 158 188
ADD,49,4 158 187
ADD,49,3 151 186
ADD,48,3 151 185
XY,22,6 151 184
XY,23,6 151 183
XY,44,10 151 182
ADD,44,3 151 181
XY,45,10 151 180
ADD,45,3 151 179
ADD,23,3 167 178
ADD,22,3 167 177
XY,24,10 167 176
ADD,24,3 167 175
XY,25,10 167 174
ADD,25,3 167 173
XY,50,6 147 172
XY,51,6 147 171
XY,36,10 147 170
ADD,36,3 147 169
XY,37,10 147 168
ADD,37,3 147 167
XY,22,11 147 166
XY,23,11 147 165
XY,22,8 179 164
ADD,22,4 179 163
XY,23,8 179 162
ADD,23,4 179 161
XY,28,10 179 160
XY,29,10 179 159
ADD,29,3 180 158
ADD,28,3 180 157
ADD,29,4 180 156
ADD,28,4 180 155
XY,30,11 180 154
ADD,30,4 180 153
XY,31,11 180 152
ADD,31,4 180 151
XY,50,10 157 150
ADD,50,3 157 149
XY,51,10 157 148
ADD,51,3 157 147
XY,54,11 157 146
XY,55,11 157 145
XY,10,8 170 144
ADD,10,4 170 143
XY,11,8 170 142
ADD,11,4 170 141
XY,54,8 170 140
ADD,54,4 170 139
XY,55,8 170 138
ADD,55,4 170 137
XY,4,6 141 136
XY,5,6 141 135
XY,10,6 141 134
XY,11,6 141 133
XY,34,8 141 132
XY,35,8 141 131
XY,42,11 141 130
ADD,42,4 141 129
XY,43,11 141 128
ADD,43,4 141 127
XY,10,10 173 126
ADD,10,3 173 125
XY,11,10 173 124
ADD,11,3 173 123
XY,38,11 173 122
ADD,38,4 173 121
XY,39,11 173 120
ADD,39,4 173 119
ADD,53,3 171 118
ADD,52,3 171 117
XY,4,10 171 116
ADD,4,3 171 115
XY,5,10 171 114
ADD,5,3 171 113
XY,46,6 139 112
XY,47,6 139 111
XY,46,10 139 110
ADD,46,3 139 109
XY,47,10 139 108
ADD,47,3 139 107
XY,44,11 139 106
XY,45,11 139 105
ADD,17,3 162 104
ADD,16,3 162 103
XY,8,8 162 102
XY,9,8 162 101
XY,44,8 162 100
ADD,44,4 162 99
XY,45,8 162 98
ADD,45,4 162 97
XY,0,11 162 96
XY,1,11 162 95
ADD,1,4 169 94
ADD,0,4 169 93
XY,2,8 169 92
XY,3,8 169 91
XY,2,11 169 90
ADD,2,4 169 89
XY,3,11 169 88
ADD,3,4 169 87
XY,56,11 169 86
XY,57,11 169 85
XY,56,8 176 84
ADD,56,4 176 83
XY,57,8 176 82
ADD,57,4 176 81
XY,8,10 176 80
ADD,8,3 176 79
XY,9,10 176 78
ADD,9,3 176 77
XY,18,10 164 76
ADD,18,3 164 75
XY,19,10 164 74
ADD,19,3 164 73
XY,8,11 164 72
ADD,8,4 164 71
XY,9,11 164 70
ADD,9,4 164 69
XY,14,6 144 68
XY,15,6 144 67
XY,54,6 144 66
XY,55,6 144 65
XY,46,11 144 64
ADD,46,4 144 63
XY,47,11 144 62
ADD,47,4 144 61
XY,54,10 174 60
ADD,54,3 174 59
XY,55,10 174 58
ADD,55,3 174 57
XY,14,11 174 56
ADD,14,4 174 55
XY,15,11 174 54
ADD,15,4 174 53
XY,14,10 161 52
ADD,14,3 161 51
XY,15,10 161 50
ADD,15,3 161 49
XY,20,10 161 48
XY,21,10 161 47
ADD,21,3 165 46
ADD,20,3 165 45
ADD,5,4 165 44
ADD,4,4 165 43
XY,6,10 165 42
XY,7,10 165 41
XY,18,11 165 40
XY,19,11 165 39
ADD,37,4 177 38
ADD,36,4 177 37
XY,18,8 177 36
ADD,18,4 177 35
XY,19,8 177 34
ADD,19,4 177 33
XY,32,10 177 32
XY,33,10 177 31
ADD,33,3 181 30
ADD,32,3 181 29
XY,0,10 181 28
XY,1,10 181 27
XY,12,10 181 26
XY,13,10 181 25
XY,12,6 183 24
ADD,12,3 183 23
XY,13,6 183 22
ADD,13,3 183 21
XY,58,11 183 20
ADD,58,4 183 19
XY,59,11 183 18
ADD,59,4 183 17
XY,0,6 184 16
ADD,0,3 184 15
XY,1,6 184 14
ADD,1,3 184 13
XY,34,11 184 12
ADD,34,4 184 11
XY,35,11 184 10
ADD,35,4 184 9
XY,6,6 168 8
ADD,6,3 168 7
XY,7,6 168 6
ADD,7,3 168 5
XY,6,11 168 4
ADD,6,4 168 3
XY,7,11 168 2
ADD,7,4 168 1
