_X,50 0
_X,49 0
_X,48 0
_P,47 0
_P,46 0
_P,45 0
_P,44 0
_AX,47 0
_AX,46 0
_AX,45 0
_AX,44 0
_X,47 0
_X,46 0
_X,45 0
_X,44 0
_P,43 0
_P,42 0
_P,41 0
_P,40 0
_P,31 0
_P,30 0
_P,29 0
_P,28 0
_X,31 0
_X,30 0
_X,29 0
_X,28 0
_P,23 0
_P,22 0
_P,21 0
_P,20 0
_AX,23 0
_AX,22 0
_AX,21 0
_AX,20 0
_X,23 0
_X,22 0
_X,21 0
_X,20 0
_P,19 0
_P,18 0
_P,17 0
_P,16 0
_P,15 0
_P,14 0
_P,13 0
_P,12 0
_X,3 0
_X,2 0
_X,1 0
_X,0 0
_lambda 0
XY,0,1 0
XY,1,1 0
XY,2,1 0
XY,3,1 0
XY,20,1 0
SUB,20,1 0
MULT,20 0
XY,21,1 0
SUB,21,1 0
MULT,21 0
XY,22,1 0
SUB,22,1 0
MULT,22 0
XY,23,1 0
SUB,23,1 0
MULT,23 0
XY,28,1 0
XY,29,1 0
XY,30,1 0
XY,31,1 0
XY,44,1 0
SUB,44,1 0
MULT,44 0
XY,45,1 0
SUB,45,1 0
MULT,45 0
XY,46,1 0
SUB,46,1 0
MULT,46 0
XY,47,1 0
SUB,47,1 0
MULT,47 0
XY,48,1 0
XY,49,1 0
XY,50,1 0
_P,50 0
_P,49 0
_P,48 0
_AX,43 0
_AX,42 0
_AX,41 0
_AX,40 0
_X,43 0
XY,43,1 0
SUB,43,1 0
MULT,43 0
COL,43,11 0
_X,42 0
XY,42,1 0
SUB,42,1 0
MULT,42 0
COL,42,10 0
_X,41 0
XY,41,1 0
SUB,41,1 0
MULT,41 0
COL,41,9 0
_X,40 0
XY,40,1 0
SUB,40,1 0
MULT,40 0
COL,40,8 0
_P,39 0
_P,38 0
_P,37 0
_P,36 0
_P,35 0
_P,34 0
_P,33 0
_P,32 0
_AX,31 0
SUB,31,1 0
MULT,31 0
COL,31,15 0
_AX,30 0
SUB,30,1 0
MULT,30 0
COL,30,14 0
_AX,29 0
SUB,29,1 0
MULT,29 0
COL,29,13 0
_AX,28 0
SUB,28,1 0
MULT,28 0
COL,28,12 0
_P,27 0
_P,26 0
_P,25 0
_P,24 0
_X,27 0
XY,27,1 0
_X,26 0
XY,26,1 0
_X,25 0
XY,25,1 0
_X,24 0
XY,24,1 0
_X,15 0
XY,15,1 0
_X,14 0
XY,14,1 0
_X,13 0
XY,13,1 0
_X,12 0
XY,12,1 0
_AX,3 0
SUB,3,1 0
MULT,3 0
COL,3,3 0
_AX,2 0
SUB,2,1 0
MULT,2 0
COL,2,2 0
_AX,1 0
SUB,1,1 0
MULT,1 0
COL,1,1 0
_AX,0 0
SUB,0,1 0
MULT,0 0
COL,0,0 0
COL,47,15 0
COL,46,14 0
COL,45,13 0
COL,44,12 0
COL,23,7 0
COL,22,6 0
COL,21,5 0
COL,20,4 0
RESET,RN 0
_AX,50 0
SUB,50,1 0
_AX,49 0
SUB,49,1 0
_AX,48 0
SUB,48,1 0
_X,39 0
XY,39,1 0
_X,38 0
XY,38,1 0
_X,37 0
XY,37,1 0
_X,36 0
XY,36,1 0
_X,35 0
XY,35,1 0
_X,34 0
XY,34,1 0
_X,33 0
XY,33,1 0
_X,32 0
XY,32,1 0
_AX,19 0
_AX,18 0
_AX,17 0
_AX,16 0
_X,19 0
XY,19,1 0
SUB,19,1 0
MULT,19 0
COL,19,3 0
_X,18 0
XY,18,1 0
SUB,18,1 0
MULT,18 0
COL,18,2 0
_X,17 0
XY,17,1 0
SUB,17,1 0
MULT,17 0
COL,17,1 0
_X,16 0
XY,16,1 0
SUB,16,1 0
MULT,16 0
COL,16,0 0
_P,11 0
_P,10 0
_P,9 0
_P,8 0
_AX,11 0
_AX,10 0
_AX,9 0
_AX,8 0
_X,11 0
XY,11,1 0
SUB,11,1 0
_X,10 0
XY,10,1 0
SUB,10,1 0
_X,9 0
XY,9,1 0
SUB,9,1 0
_X,8 0
XY,8,1 0
SUB,8,1 0
_P,7 0
_P,6 0
_P,5 0
_P,4 0
_P,3 0
_P,2 0
_P,1 0
_P,0 0
MULT,8 0
COL,8,8 0
MULT,9 0
COL,9,9 0
MULT,10 0
COL,10,10 0
MULT,11 0
COL,11,11 0
MULT,48 0
COL,48,0 0
MULT,49 0
COL,49,1 0
MULT,50 0
COL,50,2 0
_AX,35 0
SUB,35,1 0
MULT,35 0
COL,35,3 0
_AX,34 0
SUB,34,1 0
MULT,34 0
COL,34,2 0
_AX,33 0
SUB,33,1 0
MULT,33 0
COL,33,1 0
_AX,32 0
SUB,32,1 0
MULT,32 0
COL,32,0 0
_AX,27 0
SUB,27,1 0
MULT,27 0
COL,27,11 0
_AX,26 0
SUB,26,1 0
MULT,26 0
COL,26,10 0
_AX,25 0
SUB,25,1 0
MULT,25 0
COL,25,9 0
_AX,24 0
SUB,24,1 0
MULT,24 0
COL,24,8 0
_AX,15 0
SUB,15,1 0
MULT,15 0
COL,15,15 0
_AX,14 0
SUB,14,1 0
MULT,14 0
COL,14,14 0
_AX,13 0
SUB,13,1 0
MULT,13 0
COL,13,13 0
_AX,12 0
SUB,12,1 0
MULT,12 0
COL,12,12 0
_AX,7 0
_AX,6 0
_AX,5 0
_AX,4 0
_X,7 0
XY,7,1 0
SUB,7,1 0
MULT,7 0
COL,7,7 0
_X,6 0
XY,6,1 0
SUB,6,1 0
MULT,6 0
COL,6,6 0
_X,5 0
XY,5,1 0
SUB,5,1 0
MULT,5 0
COL,5,5 0
_X,4 0
XY,4,1 0
SUB,4,1 0
MULT,4 0
COL,4,4 0
SETZERO,11,1 0
SETZERO,10,1 0
SETZERO,9,1 0
SETZERO,8,1 0
_AP,50 0
_AP,49 0
_AP,48 0
_AP,47 0
_AP,46 0
_AP,45 0
_AP,44 0
_AP,43 0
_AP,42 0
_AP,41 0
_AP,40 0
_AX,39 0
SUB,39,1 0
MULT,39 0
COL,39,7 0
_AX,38 0
SUB,38,1 0
MULT,38 0
COL,38,6 0
_AX,37 0
SUB,37,1 0
MULT,37 0
COL,37,5 0
_AX,36 0
SUB,36,1 0
MULT,36 0
COL,36,4 0
RNRED,RNBUF 0
SQRT,RN 0
RESET,actMask 0
CONV,actMask 0
GET,44,3 0
GET,45,3 0
GET,46,3 0
GET,47,3 0
GET,48,3 0
GET,49,3 0
GET,50,3 0
_AP,35 0
_AP,34 0
_AP,33 0
_AP,32 0
_AP,27 0
GET,27,3 0
_AP,26 0
GET,26,3 0
_AP,25 0
GET,25,3 0
_AP,24 0
GET,24,3 0
_AP,23 0
_AP,22 0
_AP,21 0
_AP,20 0
_AP,19 0
_AP,18 0
_AP,17 0
_AP,16 0
_AP,15 0
_AP,14 0
_AP,13 0
_AP,12 0
_AP,11 0
_AP,10 0
_AP,9 0
_AP,8 0
_AP,3 0
_AP,2 0
_AP,1 0
_AP,0 0
GET,0,3 0
GET,1,3 0
GET,2,3 0
GET,3,3 0
GET,12,3 0
GET,13,3 0
GET,14,3 0
GET,15,3 0
GET,16,3 0
GET,17,3 0
GET,18,3 0
GET,19,3 0
GET,32,3 0
GET,33,3 0
GET,34,3 0
GET,35,3 0
GET,0,1 0
XTY,0,0,1 0
GET,1,1 0
XTY,1,1,1 0
GET,2,1 0
XTY,2,2,1 0
GET,3,1 0
XTY,3,3,1 0
GET,20,1 0
XTY,20,4,1 0
GET,21,1 0
XTY,21,5,1 0
GET,22,1 0
XTY,22,6,1 0
GET,23,1 0
XTY,23,7,1 0
GET,36,1 0
XTY,36,4,1 0
GET,37,1 0
XTY,37,5,1 0
GET,38,1 0
XTY,38,6,1 0
GET,39,1 0
XTY,39,7,1 0
_AP,39 0
_AP,38 0
_AP,37 0
_AP,36 0
GET,36,3 0
GET,37,3 0
GET,38,3 0
GET,39,3 0
GET,8,3 0
GET,9,3 0
GET,10,3 0
GET,11,3 0
GET,20,3 0
GET,21,3 0
GET,22,3 0
GET,23,3 0
GET,40,1 0
GET,41,1 0
GET,42,1 0
GET,43,1 0
GET,44,1 0
XTY,44,12,1 0
GET,45,1 0
XTY,45,13,1 0
GET,46,1 0
XTY,46,14,1 0
GET,47,1 0
XTY,47,15,1 0
GET,40,3 0
GET,41,3 0
GET,42,3 0
GET,43,3 0
_AP,31 0
GET,31,3 0
_AP,30 0
GET,30,3 0
_AP,29 0
GET,29,3 0
_AP,28 0
GET,28,3 0
_AP,7 0
GET,7,3 0
_AP,6 0
GET,6,3 0
_AP,5 0
GET,5,3 0
_AP,4 0
GET,4,3 0
XTY,43,11,1 0
XTY,42,10,1 0
XTY,41,9,1 0
XTY,40,8,1 0
GET,8,1 0
XTY,8,8,1 0
GET,9,1 0
XTY,9,9,1 0
GET,10,1 0
XTY,10,10,1 0
GET,11,1 0
XTY,11,11,1 0
GET,12,1 0
XTY,12,12,1 0
GET,13,1 0
XTY,13,13,1 0
GET,14,1 0
XTY,14,14,1 0
GET,15,1 0
XTY,15,15,1 0
GET,16,1 0
XTY,16,0,1 0
GET,17,1 0
XTY,17,1,1 0
GET,18,1 0
XTY,18,2,1 0
GET,19,1 0
XTY,19,3,1 0
GET,32,1 0
XTY,32,0,1 0
GET,33,1 0
XTY,33,1,1 0
GET,34,1 0
XTY,34,2,1 0
GET,35,1 0
XTY,35,3,1 0
GET,48,1 0
XTY,48,0,1 0
GET,49,1 0
XTY,49,1,1 0
GET,50,1 0
XTY,50,2,1 0
GET,4,1 0
XTY,4,4,1 0
GET,5,1 0
XTY,5,5,1 0
GET,6,1 0
XTY,6,6,1 0
GET,7,1 0
XTY,7,7,1 0
GET,24,1 0
XTY,24,8,1 0
GET,25,1 0
XTY,25,9,1 0
GET,26,1 0
XTY,26,10,1 0
GET,27,1 0
XTY,27,11,1 0
GET,28,1 0
XTY,28,12,1 0
GET,29,1 0
XTY,29,13,1 0
GET,30,1 0
XTY,30,14,1 0
GET,31,1 0
XTY,31,15,1 0
RED,temp2BUF,0 0
XY,20,2 0
XY,21,2 0
XY,22,2 0
XY,23,2 0
XY,36,2 0
XY,37,2 0
XY,38,2 0
XY,39,2 0
XY,44,2 0
XY,45,2 0
XY,46,2 0
XY,47,2 0
XY,48,2 0
XY,49,2 0
XY,50,2 0
XY,0,2 0
XY,1,2 0
XY,2,2 0
XY,3,2 0
XY,8,2 0
SUB,8,2 0
XTY,8,8,2 0
XY,9,2 0
SUB,9,2 0
XTY,9,9,2 0
XY,10,2 0
SUB,10,2 0
XTY,10,10,2 0
XY,11,2 0
SUB,11,2 0
XTY,11,11,2 0
XY,24,2 0
XY,25,2 0
XY,26,2 0
XY,27,2 0
XY,28,2 0
SUB,28,2 0
XTY,28,12,2 0
XY,29,2 0
SUB,29,2 0
XTY,29,13,2 0
XY,30,2 0
SUB,30,2 0
XTY,30,14,2 0
XY,31,2 0
SUB,31,2 0
XTY,31,15,2 0
XY,32,2 0
SUB,32,2 0
XTY,32,0,2 0
XY,33,2 0
SUB,33,2 0
XTY,33,1,2 0
XY,34,2 0
SUB,34,2 0
XTY,34,2,2 0
XY,35,2 0
SUB,35,2 0
XTY,35,3,2 0
SUB,50,2 0
XTY,50,2,2 0
SUB,49,2 0
XTY,49,1,2 0
SUB,48,2 0
XTY,48,0,2 0
SUB,47,2 0
XTY,47,15,2 0
SUB,46,2 0
XTY,46,14,2 0
SUB,45,2 0
XTY,45,13,2 0
SUB,44,2 0
XTY,44,12,2 0
SUB,23,2 0
SUB,22,2 0
SUB,21,2 0
SUB,20,2 0
GET,4,2 0
XTY,4,4,3 0
GET,5,2 0
XTY,5,5,3 0
GET,6,2 0
XTY,6,6,3 0
GET,7,2 0
XTY,7,7,3 0
GET,8,2 0
XTY,8,8,3 0
GET,9,2 0
XTY,9,9,3 0
GET,10,2 0
XTY,10,10,3 0
GET,11,2 0
XTY,11,11,3 0
GET,12,2 0
XTY,12,12,3 0
GET,13,2 0
XTY,13,13,3 0
GET,14,2 0
XTY,14,14,3 0
GET,15,2 0
XTY,15,15,3 0
GET,20,2 0
XTY,20,4,3 0
GET,21,2 0
XTY,21,5,3 0
GET,22,2 0
XTY,22,6,3 0
GET,23,2 0
XTY,23,7,3 0
GET,24,2 0
XTY,24,8,3 0
GET,25,2 0
XTY,25,9,3 0
GET,26,2 0
XTY,26,10,3 0
GET,27,2 0
XTY,27,11,3 0
GET,28,2 0
XTY,28,12,3 0
GET,29,2 0
XTY,29,13,3 0
GET,30,2 0
XTY,30,14,3 0
GET,31,2 0
XTY,31,15,3 0
GET,36,2 0
XTY,36,4,3 0
GET,37,2 0
XTY,37,5,3 0
GET,38,2 0
XTY,38,6,3 0
GET,39,2 0
XTY,39,7,3 0
GET,40,2 0
XTY,40,8,3 0
GET,41,2 0
XTY,41,9,3 0
GET,42,2 0
XTY,42,10,3 0
GET,43,2 0
XTY,43,11,3 0
GET,48,2 0
XTY,48,0,3 0
GET,49,2 0
XTY,49,1,3 0
GET,50,2 0
XTY,50,2,3 0
SUB,27,2 0
XTY,27,11,2 0
SUB,26,2 0
XTY,26,10,2 0
SUB,25,2 0
XTY,25,9,2 0
SUB,24,2 0
XTY,24,8,2 0
XY,4,2 0
SUB,4,2 0
XTY,4,4,2 0
XY,5,2 0
SUB,5,2 0
XTY,5,5,2 0
XY,6,2 0
SUB,6,2 0
XTY,6,6,2 0
XY,7,2 0
SUB,7,2 0
XTY,7,7,2 0
XY,12,2 0
SUB,12,2 0
XTY,12,12,2 0
XY,13,2 0
SUB,13,2 0
XTY,13,13,2 0
XY,14,2 0
SUB,14,2 0
XTY,14,14,2 0
XY,15,2 0
SUB,15,2 0
XTY,15,15,2 0
XY,16,2 0
SUB,16,2 0
XTY,16,0,2 0
XY,17,2 0
SUB,17,2 0
XTY,17,1,2 0
XY,18,2 0
SUB,18,2 0
XTY,18,2,2 0
XY,19,2 0
SUB,19,2 0
XTY,19,3,2 0
XY,40,2 0
XY,41,2 0
XY,42,2 0
XY,43,2 0
SUB,43,2 0
XTY,43,11,2 0
SUB,42,2 0
XTY,42,10,2 0
SUB,41,2 0
XTY,41,9,2 0
SUB,40,2 0
XTY,40,8,2 0
XTY,20,4,2 0
XTY,21,5,2 0
XTY,22,6,2 0
XTY,23,7,2 0
SUB,3,2 0
XTY,3,3,2 0
SUB,2,2 0
XTY,2,2,2 0
SUB,1,2 0
XTY,1,1,2 0
SUB,0,2 0
XTY,0,0,2 0
SUB,39,2 0
XTY,39,7,2 0
SUB,38,2 0
XTY,38,6,2 0
SUB,37,2 0
XTY,37,5,2 0
SUB,36,2 0
XTY,36,4,2 0
RED,RBRBUF,0 0
CHOL,RBR 0
INV,RBR 0
XY,0,3 0
XY,1,3 0
XY,2,3 0
XY,3,3 0
XY,20,3 0
XY,21,3 0
XY,22,3 0
XY,23,3 0
XY,36,3 0
XY,37,3 0
XY,38,3 0
XY,39,3 0
XY,40,3 0
XY,41,3 0
XY,42,3 0
XY,43,3 0
XY,44,3 0
XY,45,3 0
XY,46,3 0
XY,47,3 0
XY,48,3 0
XY,49,3 0
XY,50,3 0
GET,0,2 0
XTY,0,0,3 0
GET,1,2 0
XTY,1,1,3 0
GET,2,2 0
XTY,2,2,3 0
GET,3,2 0
XTY,3,3,3 0
GET,16,2 0
XTY,16,0,3 0
GET,17,2 0
XTY,17,1,3 0
GET,18,2 0
XTY,18,2,3 0
GET,19,2 0
XTY,19,3,3 0
GET,32,2 0
XTY,32,0,3 0
GET,33,2 0
XTY,33,1,3 0
GET,34,2 0
XTY,34,2,3 0
GET,35,2 0
XTY,35,3,3 0
GET,44,2 0
XTY,44,12,3 0
GET,45,2 0
XTY,45,13,3 0
GET,46,2 0
XTY,46,14,3 0
GET,47,2 0
XTY,47,15,3 0
RED,PBPBUF,0 0
CHOL,PBP 0
INV,PBP 0
XY,0,4 0
XY,1,4 0
XY,2,4 0
XY,3,4 0
XY,8,4 0
XY,9,4 0
XY,10,4 0
XY,11,4 0
XY,16,4 0
XY,17,4 0
XY,18,4 0
XY,19,4 0
XY,20,4 0
XY,21,4 0
XY,22,4 0
XY,23,4 0
XY,24,4 0
XY,25,4 0
XY,26,4 0
XY,27,4 0
XY,44,4 0
XY,45,4 0
XY,46,4 0
XY,47,4 0
XY,32,4 0
XY,33,4 0
XY,34,4 0
XY,35,4 0
XY,36,4 0
XY,37,4 0
XY,38,4 0
XY,39,4 0
XY,40,4 0
XY,41,4 0
XY,42,4 0
XY,43,4 0
XY,4,5 0
XY,5,5 0
XY,6,5 0
XY,7,5 0
XY,8,5 0
XY,9,5 0
XY,10,5 0
XY,11,5 0
XY,12,5 0
XY,13,5 0
XY,14,5 0
XY,15,5 0
XY,24,5 0
DLACPY,24,3 0
UPDATE,24,3 0
XY,25,5 0
DLACPY,25,3 0
UPDATE,25,3 0
XY,26,5 0
DLACPY,26,3 0
UPDATE,26,3 0
XY,27,5 0
DLACPY,27,3 0
UPDATE,27,3 0
XY,40,5 0
XY,41,5 0
XY,42,5 0
XY,43,5 0
XY,48,5 0
XY,49,5 0
XY,50,5 0
XY,48,4 0
XY,49,4 0
XY,50,4 0
XY,0,5 0
XY,1,5 0
XY,2,5 0
XY,3,5 0
XY,16,5 0
XY,17,5 0
XY,18,5 0
XY,19,5 0
XY,20,5 0
DLACPY,20,3 0
UPDATE,20,3 0
XY,21,5 0
DLACPY,21,3 0
UPDATE,21,3 0
XY,22,5 0
DLACPY,22,3 0
UPDATE,22,3 0
XY,23,5 0
DLACPY,23,3 0
UPDATE,23,3 0
XY,28,5 0
XY,29,5 0
XY,30,5 0
XY,31,5 0
XY,32,5 0
XY,33,5 0
XY,34,5 0
XY,35,5 0
XY,44,5 0
DLACPY,44,3 0
UPDATE,44,3 0
XY,45,5 0
DLACPY,45,3 0
UPDATE,45,3 0
XY,46,5 0
DLACPY,46,3 0
UPDATE,46,3 0
XY,47,5 0
DLACPY,47,3 0
UPDATE,47,3 0
XY,4,4 0
XY,5,4 0
XY,6,4 0
XY,7,4 0
XY,12,4 0
XY,13,4 0
XY,14,4 0
XY,15,4 0
XY,28,4 0
XY,29,4 0
XY,30,4 0
XY,31,4 0
XY,36,5 0
XY,37,5 0
XY,38,5 0
XY,39,5 0
XY,4,3 0
XY,5,3 0
XY,6,3 0
XY,7,3 0
XY,8,3 0
XY,9,3 0
XY,10,3 0
XY,11,3 0
XY,12,3 0
XY,13,3 0
XY,14,3 0
XY,15,3 0
XY,16,3 0
XY,17,3 0
XY,18,3 0
XY,19,3 0
XY,24,3 0
XY,25,3 0
XY,26,3 0
XY,27,3 0
XY,28,3 0
XY,29,3 0
XY,30,3 0
XY,31,3 0
XY,32,3 0
XY,33,3 0
XY,34,3 0
XY,35,3 0
DLACPY,15,2 0
UPDATE,15,2 0
DLACPY,14,2 0
UPDATE,14,2 0
DLACPY,13,2 0
UPDATE,13,2 0
DLACPY,12,2 0
UPDATE,12,2 0
DLACPY,35,3 0
DLACPY,34,3 0
DLACPY,33,3 0
DLACPY,32,3 0
DLACPY,19,3 0
UPDATE,19,3 0
DLACPY,18,3 0
UPDATE,18,3 0
DLACPY,17,3 0
UPDATE,17,3 0
DLACPY,16,3 0
UPDATE,16,3 0
DLACPY,43,3 0
DLACPY,42,3 0
DLACPY,41,3 0
DLACPY,40,3 0
DLACPY,43,2 0
XTY,43,11,8 0
XTY,43,11,9 0
DLACPY,42,2 0
XTY,42,10,8 0
XTY,42,10,9 0
DLACPY,41,2 0
XTY,41,9,8 0
XTY,41,9,9 0
DLACPY,40,2 0
XTY,40,8,8 0
XTY,40,8,9 0
DLACPY,19,2 0
XTY,19,3,6 0
DLACPY,18,2 0
XTY,18,2,6 0
DLACPY,17,2 0
XTY,17,1,6 0
DLACPY,16,2 0
XTY,16,0,6 0
XTY,16,0,9 0
XTY,17,1,9 0
XTY,18,2,9 0
XTY,19,3,9 0
UPDATE,40,2 0
UPDATE,41,2 0
UPDATE,42,2 0
UPDATE,43,2 0
DLACPY,39,3 0
UPDATE,39,3 0
DLACPY,38,3 0
UPDATE,38,3 0
DLACPY,37,3 0
UPDATE,37,3 0
DLACPY,36,3 0
UPDATE,36,3 0
DLACPY,7,2 0
XTY,7,7,6 0
XTY,7,7,9 0
DLACPY,6,2 0
XTY,6,6,6 0
XTY,6,6,9 0
DLACPY,5,2 0
XTY,5,5,6 0
XTY,5,5,9 0
DLACPY,4,2 0
XTY,4,4,6 0
XTY,4,4,9 0
DLACPY,23,2 0
UPDATE,23,2 0
XTY,23,7,6 0
XTY,23,7,8 0
DLACPY,22,2 0
UPDATE,22,2 0
XTY,22,6,6 0
XTY,22,6,8 0
DLACPY,21,2 0
UPDATE,21,2 0
XTY,21,5,6 0
XTY,21,5,8 0
DLACPY,20,2 0
UPDATE,20,2 0
XTY,20,4,6 0
XTY,20,4,8 0
UPDATE,40,3 0
UPDATE,41,3 0
UPDATE,42,3 0
UPDATE,43,3 0
DLACPY,35,2 0
XTY,35,3,8 0
XTY,35,3,9 0
DLACPY,34,2 0
XTY,34,2,8 0
XTY,34,2,9 0
DLACPY,33,2 0
XTY,33,1,8 0
XTY,33,1,9 0
DLACPY,32,2 0
XTY,32,0,8 0
XTY,32,0,9 0
DLACPY,47,2 0
UPDATE,47,2 0
XTY,47,15,8 0
DLACPY,46,2 0
UPDATE,46,2 0
XTY,46,14,8 0
DLACPY,45,2 0
UPDATE,45,2 0
XTY,45,13,8 0
DLACPY,44,2 0
UPDATE,44,2 0
XTY,44,12,8 0
DLACPY,27,2 0
UPDATE,27,2 0
XTY,27,11,6 0
XTY,27,11,8 0
XTY,27,11,9 0
DLACPY,26,2 0
UPDATE,26,2 0
XTY,26,10,6 0
XTY,26,10,8 0
XTY,26,10,9 0
DLACPY,25,2 0
UPDATE,25,2 0
XTY,25,9,6 0
XTY,25,9,8 0
XTY,25,9,9 0
DLACPY,24,2 0
UPDATE,24,2 0
XTY,24,8,6 0
XTY,24,8,8 0
XTY,24,8,9 0
XTY,44,12,9 0
XTY,45,13,9 0
XTY,46,14,9 0
XTY,47,15,9 0
XTY,12,12,9 0
XTY,13,13,9 0
XTY,14,14,9 0
XTY,15,15,9 0
DLACPY,31,2 0
UPDATE,31,2 0
XTY,31,15,6 0
XTY,31,15,9 0
DLACPY,30,2 0
UPDATE,30,2 0
XTY,30,14,6 0
XTY,30,14,9 0
DLACPY,29,2 0
UPDATE,29,2 0
XTY,29,13,6 0
XTY,29,13,9 0
DLACPY,28,2 0
UPDATE,28,2 0
XTY,28,12,6 0
XTY,28,12,9 0
DLACPY,31,3 0
UPDATE,31,3 0
DLACPY,30,3 0
UPDATE,30,3 0
DLACPY,29,3 0
UPDATE,29,3 0
DLACPY,28,3 0
UPDATE,28,3 0
DLACPY,15,3 0
UPDATE,15,3 0
XTY,15,15,8 0
DLACPY,14,3 0
UPDATE,14,3 0
XTY,14,14,8 0
DLACPY,13,3 0
UPDATE,13,3 0
XTY,13,13,8 0
DLACPY,12,3 0
UPDATE,12,3 0
XTY,12,12,8 0
XTY,28,12,8 0
XTY,29,13,8 0
XTY,30,14,8 0
XTY,31,15,8 0
UPDATE,32,2 0
UPDATE,33,2 0
UPDATE,34,2 0
UPDATE,35,2 0
UPDATE,4,2 0
UPDATE,5,2 0
UPDATE,6,2 0
UPDATE,7,2 0
UPDATE,32,3 0
UPDATE,33,3 0
UPDATE,34,3 0
UPDATE,35,3 0
XTY,12,12,6 0
XTY,13,13,6 0
XTY,14,14,6 0
XTY,15,15,6 0
DLACPY,50,2 0
UPDATE,50,2 0
XTY,50,2,6 0
XTY,50,2,9 0
DLACPY,49,2 0
UPDATE,49,2 0
XTY,49,1,6 0
XTY,49,1,9 0
DLACPY,48,2 0
UPDATE,48,2 0
XTY,48,0,6 0
XTY,48,0,9 0
DLACPY,50,3 0
UPDATE,50,3 0
XTY,50,2,8 0
DLACPY,49,3 0
UPDATE,49,3 0
XTY,49,1,8 0
DLACPY,48,3 0
UPDATE,48,3 0
XTY,48,0,8 0
DLACPY,7,3 0
UPDATE,7,3 0
XTY,7,7,8 0
DLACPY,6,3 0
UPDATE,6,3 0
XTY,6,6,8 0
DLACPY,5,3 0
UPDATE,5,3 0
XTY,5,5,8 0
DLACPY,4,3 0
UPDATE,4,3 0
XTY,4,4,8 0
DLACPY,11,2 0
UPDATE,11,2 0
XTY,11,11,9 0
DLACPY,10,2 0
UPDATE,10,2 0
XTY,10,10,9 0
DLACPY,9,2 0
UPDATE,9,2 0
XTY,9,9,9 0
DLACPY,8,2 0
UPDATE,8,2 0
XTY,8,8,9 0
DLACPY,3,2 0
UPDATE,3,2 0
XTY,3,3,6 0
XTY,3,3,9 0
DLACPY,2,2 0
UPDATE,2,2 0
XTY,2,2,6 0
XTY,2,2,9 0
DLACPY,1,2 0
UPDATE,1,2 0
XTY,1,1,6 0
XTY,1,1,9 0
DLACPY,0,2 0
UPDATE,0,2 0
XTY,0,0,6 0
XTY,0,0,9 0
DLACPY,19,1 0
UPDATE,19,1 0
DLACPY,18,1 0
UPDATE,18,1 0
DLACPY,17,1 0
UPDATE,17,1 0
DLACPY,16,1 0
UPDATE,16,1 0
DLACPY,50,1 0
XTY,50,2,4 0
DLACPY,49,1 0
XTY,49,1,4 0
DLACPY,48,1 0
XTY,48,0,4 0
DLACPY,47,1 0
XTY,47,15,4 0
XTY,47,15,10 0
DLACPY,46,1 0
XTY,46,14,4 0
XTY,46,14,10 0
DLACPY,45,1 0
XTY,45,13,4 0
XTY,45,13,10 0
DLACPY,44,1 0
XTY,44,12,4 0
XTY,44,12,10 0
DLACPY,3,1 0
XTY,3,3,10 0
DLACPY,2,1 0
XTY,2,2,10 0
DLACPY,1,1 0
XTY,1,1,10 0
DLACPY,0,1 0
XTY,0,0,10 0
SETZERO,47,1 0
SPMM,47,16,0 0
SPMM,47,17,0 0
SPMM,47,18,0 0
SPMM,47,19,0 0
SPMM,47,48,0 0
SPMM,47,49,0 0
SPMM,47,50,0 0
SETZERO,46,1 0
SPMM,46,16,0 0
SPMM,46,17,0 0
SPMM,46,18,0 0
SPMM,46,19,0 0
SPMM,46,48,0 0
SPMM,46,49,0 0
SPMM,46,50,0 0
SETZERO,45,1 0
SPMM,45,16,0 0
SPMM,45,17,0 0
SPMM,45,18,0 0
SPMM,45,19,0 0
SPMM,45,48,0 0
SPMM,45,49,0 0
SPMM,45,50,0 0
SETZERO,44,1 0
SPMM,44,16,0 0
SPMM,44,17,0 0
SPMM,44,18,0 0
SPMM,44,19,0 0
SPMM,44,48,0 0
SPMM,44,49,0 0
SPMM,44,50,0 0
SETZERO,43,1 0
SPMM,43,44,0 0
SPMM,43,45,0 0
SPMM,43,46,0 0
SPMM,43,47,0 0
SPMM,43,48,0 0
SPMM,43,49,0 0
SPMM,43,50,0 0
SETZERO,42,1 0
SPMM,42,44,0 0
SPMM,42,45,0 0
SPMM,42,46,0 0
SPMM,42,47,0 0
SPMM,42,48,0 0
SPMM,42,49,0 0
SPMM,42,50,0 0
SETZERO,41,1 0
SPMM,41,44,0 0
SPMM,41,45,0 0
SPMM,41,46,0 0
SPMM,41,47,0 0
SPMM,41,48,0 0
SPMM,41,49,0 0
SPMM,41,50,0 0
SETZERO,40,1 0
SPMM,40,44,0 0
SPMM,40,45,0 0
SPMM,40,46,0 0
SPMM,40,47,0 0
SPMM,40,48,0 0
SPMM,40,49,0 0
SPMM,40,50,0 0
SETZERO,31,1 0
SPMM,31,44,0 0
SPMM,31,45,0 0
SPMM,31,46,0 0
SPMM,31,47,0 0
SPMM,31,48,0 0
SPMM,31,49,0 0
SPMM,31,50,0 0
SETZERO,30,1 0
SPMM,30,44,0 0
SPMM,30,45,0 0
SPMM,30,46,0 0
SPMM,30,47,0 0
SPMM,30,48,0 0
SPMM,30,49,0 0
SPMM,30,50,0 0
SETZERO,29,1 0
SPMM,29,44,0 0
SPMM,29,45,0 0
SPMM,29,46,0 0
SPMM,29,47,0 0
SPMM,29,48,0 0
SPMM,29,49,0 0
SPMM,29,50,0 0
SETZERO,28,1 0
SPMM,28,44,0 0
SPMM,28,45,0 0
SPMM,28,46,0 0
SPMM,28,47,0 0
SPMM,28,48,0 0
SPMM,28,49,0 0
SPMM,28,50,0 0
SETZERO,23,1 0
SPMM,23,44,0 0
SPMM,23,45,0 0
SPMM,23,46,0 0
SPMM,23,47,0 0
SPMM,23,48,0 0
SPMM,23,49,0 0
SPMM,23,50,0 0
SETZERO,22,1 0
SPMM,22,44,0 0
SPMM,22,45,0 0
SPMM,22,46,0 0
SPMM,22,47,0 0
SPMM,22,48,0 0
SPMM,22,49,0 0
SPMM,22,50,0 0
SETZERO,21,1 0
SPMM,21,44,0 0
SPMM,21,45,0 0
SPMM,21,46,0 0
SPMM,21,47,0 0
SPMM,21,48,0 0
SPMM,21,49,0 0
SPMM,21,50,0 0
SETZERO,20,1 0
SPMM,20,44,0 0
SPMM,20,45,0 0
SPMM,20,47,0 0
SPMM,20,49,0 0
SETZERO,19,1 0
SPMM,19,18,0 0
SPMM,19,19,0 0
SPMM,19,50,0 0
SETZERO,18,1 0
SPMM,18,16,0 0
SPMM,18,17,0 0
SPMM,18,18,0 0
SPMM,18,19,0 0
SPMM,18,48,0 0
SPMM,18,49,0 0
SPMM,18,50,0 0
SETZERO,17,1 0
SPMM,17,16,0 0
SPMM,17,17,0 0
SPMM,17,18,0 0
SPMM,17,48,0 0
SPMM,17,49,0 0
SPMM,17,50,0 0
SETZERO,16,1 0
SPMM,16,16,0 0
SPMM,16,17,0 0
SPMM,16,18,0 0
SPMM,16,48,0 0
SPMM,16,49,0 0
SPMM,16,50,0 0
XTY,8,8,6 0
XTY,9,9,6 0
XTY,10,10,6 0
XTY,11,11,6 0
XTY,44,12,6 0
XTY,45,13,6 0
XTY,46,14,6 0
XTY,47,15,6 0
XTY,32,0,6 0
XTY,33,1,6 0
XTY,34,2,6 0
XTY,35,3,6 0
XTY,20,4,9 0
XTY,21,5,9 0
XTY,22,6,9 0
XTY,23,7,9 0
UPDATE,16,2 0
XTY,16,0,8 0
UPDATE,17,2 0
XTY,17,1,8 0
UPDATE,18,2 0
XTY,18,2,8 0
UPDATE,19,2 0
XTY,19,3,8 0
XTY,40,8,6 0
XTY,41,9,6 0
XTY,42,10,6 0
XTY,43,11,6 0
DLACPY,3,3 0
UPDATE,3,3 0
XTY,3,3,8 0
DLACPY,2,3 0
UPDATE,2,3 0
XTY,2,2,8 0
DLACPY,1,3 0
UPDATE,1,3 0
XTY,1,1,8 0
DLACPY,0,3 0
UPDATE,0,3 0
XTY,0,0,8 0
DLACPY,11,3 0
UPDATE,11,3 0
XTY,11,11,8 0
DLACPY,10,3 0
UPDATE,10,3 0
XTY,10,10,8 0
DLACPY,9,3 0
UPDATE,9,3 0
XTY,9,9,8 0
DLACPY,8,3 0
UPDATE,8,3 0
XTY,8,8,8 0
DLACPY,39,2 0
UPDATE,39,2 0
XTY,39,7,6 0
XTY,39,7,8 0
XTY,39,7,9 0
DLACPY,38,2 0
UPDATE,38,2 0
XTY,38,6,6 0
XTY,38,6,8 0
XTY,38,6,9 0
DLACPY,37,2 0
UPDATE,37,2 0
XTY,37,5,6 0
XTY,37,5,8 0
XTY,37,5,9 0
DLACPY,36,2 0
UPDATE,36,2 0
XTY,36,4,6 0
RED,XAPBUF,0 0
XTY,36,4,8 0
RED,PAPBUF,0 0
SPEUPDATE,PAP 0
XTY,36,4,9 0
RED,XBPBUF,0 0
UPDATE,0,1 0
UPDATE,1,1 0
UPDATE,2,1 0
UPDATE,3,1 0
XTY,16,0,10 0
XTY,17,1,10 0
XTY,18,2,10 0
XTY,19,3,10 0
DLACPY,39,1 0
SPMM,40,39,0 0
SPMM,41,39,0 0
SPMM,42,39,0 0
SPMM,43,39,0 0
UPDATE,39,1 0
XTY,39,7,4 0
XTY,39,7,10 0
DLACPY,38,1 0
SPMM,40,38,0 0
SPMM,41,38,0 0
SPMM,42,38,0 0
SPMM,43,38,0 0
UPDATE,38,1 0
XTY,38,6,4 0
XTY,38,6,10 0
DLACPY,37,1 0
SPMM,40,37,0 0
SPMM,41,37,0 0
SPMM,42,37,0 0
SPMM,43,37,0 0
UPDATE,37,1 0
XTY,37,5,4 0
XTY,37,5,10 0
DLACPY,36,1 0
SPMM,40,36,0 0
SPMM,41,36,0 0
SPMM,42,36,0 0
SPMM,43,36,0 0
UPDATE,36,1 0
XTY,36,4,4 0
XTY,36,4,10 0
DLACPY,23,1 0
SPMM,16,23,0 0
SPMM,17,23,0 0
SPMM,18,23,0 0
SPMM,21,23,0 0
SPMM,22,23,0 0
SPMM,23,23,0 0
SPMM,40,23,0 0
SPMM,41,23,0 0
SPMM,42,23,0 0
SPMM,43,23,0 0
SPMM,44,23,0 0
SPMM,45,23,0 0
SPMM,46,23,0 0
SPMM,47,23,0 0
UPDATE,23,1 0
DLACPY,22,1 0
SPMM,16,22,0 0
SPMM,18,22,0 0
SPMM,21,22,0 0
SPMM,22,22,0 0
SPMM,23,22,0 0
SPMM,40,22,0 0
SPMM,41,22,0 0
SPMM,42,22,0 0
SPMM,43,22,0 0
SPMM,44,22,0 0
SPMM,45,22,0 0
SPMM,46,22,0 0
SPMM,47,22,0 0
UPDATE,22,1 0
DLACPY,21,1 0
SPMM,18,21,0 0
SPMM,19,21,0 0
SPMM,20,21,0 0
SPMM,21,21,0 0
SPMM,22,21,0 0
SPMM,23,21,0 0
SPMM,40,21,0 0
SPMM,41,21,0 0
SPMM,42,21,0 0
SPMM,43,21,0 0
SPMM,44,21,0 0
SPMM,45,21,0 0
SPMM,46,21,0 0
SPMM,47,21,0 0
UPDATE,21,1 0
DLACPY,20,1 0
SPMM,18,20,0 0
SPMM,19,20,0 0
SPMM,20,20,0 0
SPMM,21,20,0 0
SPMM,40,20,0 0
SPMM,41,20,0 0
SPMM,42,20,0 0
SPMM,44,20,0 0
SPMM,45,20,0 0
SPMM,47,20,0 0
UPDATE,20,1 0
SETZERO,35,1 0
SPMM,35,21,0 0
SPMM,35,22,0 0
SPMM,35,23,0 0
SPMM,35,36,0 0
SPMM,35,37,0 0
SPMM,35,38,0 0
SPMM,35,39,0 0
SPMM,35,44,0 0
SPMM,35,45,0 0
SPMM,35,46,0 0
SPMM,35,47,0 0
SPMM,35,48,0 0
SPMM,35,49,0 0
SPMM,35,50,0 0
SETZERO,34,1 0
SPMM,34,21,0 0
SPMM,34,22,0 0
SPMM,34,23,0 0
SPMM,34,36,0 0
SPMM,34,37,0 0
SPMM,34,38,0 0
SPMM,34,39,0 0
SPMM,34,44,0 0
SPMM,34,45,0 0
SPMM,34,46,0 0
SPMM,34,47,0 0
SPMM,34,48,0 0
SPMM,34,49,0 0
SPMM,34,50,0 0
SETZERO,33,1 0
SPMM,33,20,0 0
SPMM,33,21,0 0
SPMM,33,22,0 0
SPMM,33,23,0 0
SPMM,33,36,0 0
SPMM,33,37,0 0
SPMM,33,38,0 0
SPMM,33,39,0 0
SPMM,33,44,0 0
SPMM,33,45,0 0
SPMM,33,46,0 0
SPMM,33,47,0 0
SPMM,33,48,0 0
SPMM,33,49,0 0
SPMM,33,50,0 0
SETZERO,32,1 0
SPMM,32,20,0 0
SPMM,32,21,0 0
SPMM,32,22,0 0
SPMM,32,23,0 0
SPMM,32,36,0 0
SPMM,32,37,0 0
SPMM,32,38,0 0
SPMM,32,39,0 0
SPMM,32,44,0 0
SPMM,32,45,0 0
SPMM,32,46,0 0
SPMM,32,47,0 0
SPMM,32,48,0 0
SPMM,32,49,0 0
SPMM,32,50,0 0
SETZERO,15,1 0
SPMM,15,21,0 0
SPMM,15,22,0 0
SPMM,15,23,0 0
SETZERO,14,1 0
SPMM,14,20,0 0
SPMM,14,21,0 0
SPMM,14,23,0 0
SETZERO,13,1 0
SETZERO,12,1 0
SETZERO,7,1 0
SETZERO,6,1 0
SETZERO,5,1 0
SETZERO,4,1 0
SETZERO,3,1 0
SETZERO,2,1 0
SETZERO,1,1 0
SETZERO,0,1 0
SPMM,0,0,0 0
SPMM,0,1,0 0
SPMM,1,0,0 0
SPMM,1,1,0 0
SPMM,1,2,0 0
SPMM,2,1,0 0
SPMM,2,2,0 0
SPMM,2,3,0 0
SPMM,3,2,0 0
SPMM,3,3,0 0
XTY,20,4,10 0
XTY,21,5,10 0
XTY,22,6,10 0
XTY,23,7,10 0
XTY,48,0,10 0
XTY,49,1,10 0
XTY,50,2,10 0
DLACPY,15,1 0
SPMM,14,15,0 0
SPMM,15,15,0 0
XTY,15,15,10 0
DLACPY,14,1 0
SPMM,4,14,0 0
SPMM,5,14,0 0
SPMM,6,14,0 0
SPMM,7,14,0 0
SPMM,12,14,0 0
SPMM,13,14,0 0
SPMM,14,14,0 0
SPMM,15,14,0 0
XTY,14,14,10 0
DLACPY,13,1 0
SPMM,4,13,0 0
SPMM,5,13,0 0
SPMM,6,13,0 0
SPMM,7,13,0 0
SPMM,12,13,0 0
SPMM,13,13,0 0
SPMM,14,13,0 0
XTY,13,13,10 0
DLACPY,12,1 0
SPMM,4,12,0 0
SPMM,5,12,0 0
SPMM,6,12,0 0
SPMM,7,12,0 0
SPMM,12,12,0 0
SPMM,13,12,0 0
SPMM,14,12,0 0
XTY,12,12,10 0
SETZERO,39,1 0
SPMM,39,36,0 0
SPMM,39,37,0 0
SPMM,39,38,0 0
SPMM,39,39,0 0
SPMM,39,44,0 0
SPMM,39,45,0 0
SPMM,39,46,0 0
SPMM,39,47,0 0
SPMM,39,48,0 0
SPMM,39,49,0 0
SPMM,39,50,0 0
SETZERO,38,1 0
SPMM,38,36,0 0
SPMM,38,37,0 0
SPMM,38,38,0 0
SPMM,38,39,0 0
SPMM,38,44,0 0
SPMM,38,45,0 0
SPMM,38,46,0 0
SPMM,38,47,0 0
SPMM,38,48,0 0
SPMM,38,49,0 0
SPMM,38,50,0 0
SETZERO,37,1 0
SPMM,37,36,0 0
SPMM,37,37,0 0
SPMM,37,38,0 0
SPMM,37,39,0 0
SPMM,37,44,0 0
SPMM,37,45,0 0
SPMM,37,46,0 0
SPMM,37,47,0 0
SPMM,37,48,0 0
SPMM,37,49,0 0
SPMM,37,50,0 0
SETZERO,36,1 0
SPMM,36,36,0 0
SPMM,36,37,0 0
SPMM,36,38,0 0
SPMM,36,39,0 0
SPMM,36,44,0 0
SPMM,36,45,0 0
SPMM,36,46,0 0
SPMM,36,47,0 0
SPMM,36,48,0 0
SPMM,36,49,0 0
SPMM,36,50,0 0
SPMM,36,16,0 0
SPMM,36,17,0 0
SPMM,36,18,0 0
SPMM,37,16,0 0
SPMM,37,17,0 0
SPMM,37,18,0 0
SPMM,38,16,0 0
SPMM,38,17,0 0
SPMM,38,18,0 0
SPMM,38,19,0 0
SPMM,39,16,0 0
SPMM,39,17,0 0
SPMM,39,18,0 0
SPMM,39,19,0 0
SPMM,44,44,0 0
SPMM,44,45,0 0
SPMM,44,46,0 0
SPMM,44,47,0 0
SPMM,45,44,0 0
SPMM,45,45,0 0
SPMM,45,46,0 0
SPMM,45,47,0 0
SPMM,46,44,0 0
SPMM,46,45,0 0
SPMM,46,46,0 0
SPMM,46,47,0 0
SPMM,47,44,0 0
SPMM,47,45,0 0
SPMM,47,46,0 0
SPMM,47,47,0 0
UPDATE,48,1 0
UPDATE,49,1 0
UPDATE,50,1 0
XTY,16,0,4 0
XTY,17,1,4 0
XTY,18,2,4 0
XTY,19,3,4 0
DLACPY,27,1 0
SPMM,16,27,0 0
SPMM,17,27,0 0
SPMM,21,27,0 0
SPMM,22,27,0 0
SPMM,23,27,0 0
SPMM,36,27,0 0
SPMM,37,27,0 0
SPMM,38,27,0 0
SPMM,39,27,0 0
SPMM,40,27,0 0
SPMM,41,27,0 0
SPMM,42,27,0 0
SPMM,43,27,0 0
SPMM,44,27,0 0
SPMM,45,27,0 0
SPMM,46,27,0 0
SPMM,47,27,0 0
XTY,27,11,10 0
DLACPY,26,1 0
SPMM,16,26,0 0
SPMM,17,26,0 0
SPMM,18,26,0 0
SPMM,19,26,0 0
SPMM,20,26,0 0
SPMM,21,26,0 0
SPMM,22,26,0 0
SPMM,23,26,0 0
SPMM,36,26,0 0
SPMM,37,26,0 0
SPMM,38,26,0 0
SPMM,39,26,0 0
SPMM,40,26,0 0
SPMM,41,26,0 0
SPMM,42,26,0 0
SPMM,43,26,0 0
SPMM,44,26,0 0
SPMM,45,26,0 0
SPMM,46,26,0 0
SPMM,47,26,0 0
XTY,26,10,10 0
DLACPY,25,1 0
SPMM,18,25,0 0
SPMM,19,25,0 0
SPMM,20,25,0 0
SPMM,21,25,0 0
SPMM,36,25,0 0
SPMM,40,25,0 0
SPMM,41,25,0 0
SPMM,42,25,0 0
SPMM,43,25,0 0
SPMM,44,25,0 0
SPMM,45,25,0 0
SPMM,47,25,0 0
XTY,25,9,10 0
DLACPY,24,1 0
SPMM,16,24,0 0
SPMM,17,24,0 0
SPMM,18,24,0 0
SPMM,19,24,0 0
SPMM,20,24,0 0
SPMM,21,24,0 0
SPMM,22,24,0 0
SPMM,23,24,0 0
SPMM,36,24,0 0
SPMM,37,24,0 0
SPMM,38,24,0 0
SPMM,39,24,0 0
SPMM,40,24,0 0
SPMM,41,24,0 0
SPMM,42,24,0 0
SPMM,43,24,0 0
SPMM,44,24,0 0
SPMM,45,24,0 0
SPMM,46,24,0 0
SPMM,47,24,0 0
XTY,24,8,10 0
XTY,24,8,4 0
XTY,25,9,4 0
XTY,26,10,4 0
XTY,27,11,4 0
XTY,12,12,4 0
XTY,13,13,4 0
XTY,14,14,4 0
XTY,15,15,4 0
SPMM,20,18,0 0
SPMM,20,19,0 0
SPMM,21,18,0 0
SPMM,21,19,0 0
SPMM,22,16,0 0
SPMM,22,18,0 0
SPMM,23,16,0 0
SPMM,23,17,0 0
SPMM,23,18,0 0
UPDATE,44,1 0
UPDATE,45,1 0
UPDATE,46,1 0
UPDATE,47,1 0
DLACPY,31,1 0
SPMM,16,31,0 0
SPMM,17,31,0 0
SPMM,18,31,0 0
SPMM,19,31,0 0
SPMM,20,31,0 0
SPMM,21,31,0 0
SPMM,22,31,0 0
SPMM,23,31,0 0
SPMM,28,31,0 0
SPMM,29,31,0 0
SPMM,30,31,0 0
SPMM,31,31,0 0
SPMM,32,31,0 0
SPMM,33,31,0 0
SPMM,34,31,0 0
SPMM,35,31,0 0
SPMM,36,31,0 0
SPMM,37,31,0 0
SPMM,38,31,0 0
SPMM,39,31,0 0
SPMM,40,31,0 0
SPMM,41,31,0 0
SPMM,42,31,0 0
SPMM,43,31,0 0
XTY,31,15,4 0
XTY,31,15,10 0
DLACPY,30,1 0
SPMM,16,30,0 0
SPMM,17,30,0 0
SPMM,18,30,0 0
SPMM,21,30,0 0
SPMM,22,30,0 0
SPMM,23,30,0 0
SPMM,28,30,0 0
SPMM,29,30,0 0
SPMM,30,30,0 0
SPMM,31,30,0 0
SPMM,32,30,0 0
SPMM,33,30,0 0
SPMM,34,30,0 0
SPMM,35,30,0 0
SPMM,36,30,0 0
SPMM,37,30,0 0
SPMM,38,30,0 0
SPMM,39,30,0 0
SPMM,40,30,0 0
SPMM,41,30,0 0
SPMM,42,30,0 0
SPMM,43,30,0 0
XTY,30,14,4 0
XTY,30,14,10 0
DLACPY,29,1 0
SPMM,16,29,0 0
SPMM,17,29,0 0
SPMM,18,29,0 0
SPMM,21,29,0 0
SPMM,22,29,0 0
SPMM,23,29,0 0
SPMM,28,29,0 0
SPMM,29,29,0 0
SPMM,30,29,0 0
SPMM,31,29,0 0
SPMM,32,29,0 0
SPMM,33,29,0 0
SPMM,34,29,0 0
SPMM,35,29,0 0
SPMM,36,29,0 0
SPMM,37,29,0 0
SPMM,38,29,0 0
SPMM,39,29,0 0
SPMM,40,29,0 0
SPMM,41,29,0 0
SPMM,42,29,0 0
SPMM,43,29,0 0
XTY,29,13,4 0
XTY,29,13,10 0
DLACPY,28,1 0
SPMM,16,28,0 0
SPMM,17,28,0 0
SPMM,18,28,0 0
SPMM,21,28,0 0
SPMM,22,28,0 0
SPMM,23,28,0 0
SPMM,28,28,0 0
SPMM,29,28,0 0
SPMM,30,28,0 0
SPMM,31,28,0 0
SPMM,32,28,0 0
SPMM,33,28,0 0
SPMM,34,28,0 0
SPMM,35,28,0 0
SPMM,36,28,0 0
SPMM,37,28,0 0
SPMM,38,28,0 0
SPMM,39,28,0 0
SPMM,40,28,0 0
SPMM,41,28,0 0
SPMM,42,28,0 0
SPMM,43,28,0 0
XTY,28,12,4 0
XTY,28,12,10 0
DLACPY,43,1 0
SPMM,21,43,0 0
SPMM,22,43,0 0
SPMM,23,43,0 0
SPMM,28,43,0 0
SPMM,29,43,0 0
SPMM,30,43,0 0
SPMM,31,43,0 0
SPMM,32,43,0 0
SPMM,33,43,0 0
SPMM,34,43,0 0
SPMM,35,43,0 0
SPMM,36,43,0 0
SPMM,37,43,0 0
SPMM,38,43,0 0
SPMM,39,43,0 0
SPMM,40,43,0 0
SPMM,41,43,0 0
SPMM,42,43,0 0
SPMM,43,43,0 0
UPDATE,43,1 0
XTY,43,11,4 0
XTY,43,11,10 0
DLACPY,42,1 0
SPMM,20,42,0 0
SPMM,21,42,0 0
SPMM,22,42,0 0
SPMM,23,42,0 0
SPMM,28,42,0 0
SPMM,29,42,0 0
SPMM,30,42,0 0
SPMM,31,42,0 0
SPMM,32,42,0 0
SPMM,33,42,0 0
SPMM,34,42,0 0
SPMM,35,42,0 0
SPMM,36,42,0 0
SPMM,37,42,0 0
SPMM,38,42,0 0
SPMM,39,42,0 0
SPMM,40,42,0 0
SPMM,41,42,0 0
SPMM,42,42,0 0
SPMM,43,42,0 0
UPDATE,42,1 0
XTY,42,10,4 0
XTY,42,10,10 0
DLACPY,41,1 0
SPMM,20,41,0 0
SPMM,21,41,0 0
SPMM,22,41,0 0
SPMM,23,41,0 0
SPMM,28,41,0 0
SPMM,29,41,0 0
SPMM,30,41,0 0
SPMM,31,41,0 0
SPMM,32,41,0 0
SPMM,33,41,0 0
SPMM,34,41,0 0
SPMM,35,41,0 0
SPMM,36,41,0 0
SPMM,37,41,0 0
SPMM,38,41,0 0
SPMM,39,41,0 0
SPMM,40,41,0 0
SPMM,41,41,0 0
SPMM,42,41,0 0
SPMM,43,41,0 0
UPDATE,41,1 0
XTY,41,9,4 0
XTY,41,9,10 0
DLACPY,40,1 0
SPMM,20,40,0 0
SPMM,21,40,0 0
SPMM,22,40,0 0
SPMM,23,40,0 0
SPMM,28,40,0 0
SPMM,29,40,0 0
SPMM,30,40,0 0
SPMM,31,40,0 0
SPMM,32,40,0 0
SPMM,33,40,0 0
SPMM,34,40,0 0
SPMM,35,40,0 0
SPMM,36,40,0 0
SPMM,37,40,0 0
SPMM,38,40,0 0
SPMM,39,40,0 0
SPMM,40,40,0 0
SPMM,41,40,0 0
SPMM,42,40,0 0
SPMM,43,40,0 0
UPDATE,40,1 0
XTY,40,8,4 0
XTY,40,8,10 0
SPMM,44,40,0 0
SPMM,45,40,0 0
SPMM,46,40,0 0
SPMM,47,40,0 0
SPMM,44,41,0 0
SPMM,45,41,0 0
SPMM,46,41,0 0
SPMM,47,41,0 0
SPMM,44,42,0 0
SPMM,45,42,0 0
SPMM,46,42,0 0
SPMM,47,42,0 0
SPMM,44,43,0 0
SPMM,45,43,0 0
SPMM,46,43,0 0
SPMM,47,43,0 0
UPDATE,28,1 0
UPDATE,29,1 0
UPDATE,30,1 0
UPDATE,31,1 0
SPMM,32,24,0 0
SPMM,33,24,0 0
SPMM,34,24,0 0
SPMM,35,24,0 0
SPMM,32,25,0 0
SPMM,33,25,0 0
SPMM,32,26,0 0
SPMM,33,26,0 0
SPMM,34,26,0 0
SPMM,35,26,0 0
SPMM,32,27,0 0
SPMM,33,27,0 0
SPMM,34,27,0 0
SPMM,35,27,0 0
UPDATE,12,1 0
UPDATE,13,1 0
UPDATE,14,1 0
SPMM,32,15,0 0
SPMM,33,15,0 0
SPMM,34,15,0 0
SPMM,35,15,0 0
UPDATE,15,1 0
SPMM,31,20,0 0
XTY,20,4,4 0
SPMM,28,21,0 0
SPMM,29,21,0 0
SPMM,30,21,0 0
SPMM,31,21,0 0
XTY,21,5,4 0
SPMM,28,22,0 0
SPMM,29,22,0 0
SPMM,30,22,0 0
SPMM,31,22,0 0
XTY,22,6,4 0
SPMM,28,23,0 0
SPMM,29,23,0 0
SPMM,30,23,0 0
SPMM,31,23,0 0
XTY,23,7,4 0
SPMM,28,36,0 0
SPMM,29,36,0 0
SPMM,30,36,0 0
SPMM,31,36,0 0
SPMM,44,36,0 0
SPMM,45,36,0 0
SPMM,46,36,0 0
SPMM,47,36,0 0
SPMM,28,37,0 0
SPMM,29,37,0 0
SPMM,30,37,0 0
SPMM,31,37,0 0
SPMM,44,37,0 0
SPMM,45,37,0 0
SPMM,46,37,0 0
SPMM,47,37,0 0
SPMM,28,38,0 0
SPMM,29,38,0 0
SPMM,30,38,0 0
SPMM,31,38,0 0
SPMM,44,38,0 0
SPMM,45,38,0 0
SPMM,46,38,0 0
SPMM,47,38,0 0
SPMM,28,39,0 0
SPMM,29,39,0 0
SPMM,30,39,0 0
SPMM,31,39,0 0
SPMM,44,39,0 0
SPMM,45,39,0 0
SPMM,46,39,0 0
SPMM,47,39,0 0
SPMM,28,16,0 0
SPMM,28,17,0 0
SPMM,28,18,0 0
SPMM,29,16,0 0
SPMM,29,17,0 0
SPMM,29,18,0 0
SPMM,30,16,0 0
SPMM,30,17,0 0
SPMM,30,18,0 0
SPMM,31,16,0 0
SPMM,31,17,0 0
SPMM,31,18,0 0
SPMM,31,19,0 0
DLACPY,7,1 0
SPMM,4,7,0 0
SPMM,5,7,0 0
SPMM,6,7,0 0
SPMM,7,7,0 0
SPMM,12,7,0 0
SPMM,13,7,0 0
SPMM,14,7,0 0
UPDATE,7,1 0
XTY,7,7,4 0
XTY,7,7,10 0
DLACPY,6,1 0
SPMM,4,6,0 0
SPMM,5,6,0 0
SPMM,6,6,0 0
SPMM,7,6,0 0
SPMM,12,6,0 0
SPMM,13,6,0 0
SPMM,14,6,0 0
UPDATE,6,1 0
XTY,6,6,4 0
XTY,6,6,10 0
DLACPY,5,1 0
SPMM,4,5,0 0
SPMM,5,5,0 0
SPMM,6,5,0 0
SPMM,7,5,0 0
SPMM,12,5,0 0
SPMM,13,5,0 0
SPMM,14,5,0 0
SPMM,18,5,0 0
SPMM,19,5,0 0
UPDATE,5,1 0
XTY,5,5,4 0
XTY,5,5,10 0
DLACPY,4,1 0
SPMM,4,4,0 0
SPMM,5,4,0 0
SPMM,6,4,0 0
SPMM,7,4,0 0
SPMM,12,4,0 0
SPMM,13,4,0 0
SPMM,14,4,0 0
SPMM,18,4,0 0
SPMM,19,4,0 0
UPDATE,4,1 0
XTY,4,4,4 0
XTY,4,4,10 0
SETZERO,27,1 0
SPMM,27,16,0 0
SPMM,27,17,0 0
SPMM,27,28,0 0
SPMM,27,29,0 0
SPMM,27,30,0 0
SPMM,27,31,0 0
SPMM,27,36,0 0
SPMM,27,37,0 0
SPMM,27,38,0 0
SPMM,27,39,0 0
SPMM,27,48,0 0
SPMM,27,49,0 0
SPMM,27,50,0 0
SETZERO,26,1 0
SPMM,26,4,0 0
SPMM,26,5,0 0
SPMM,26,16,0 0
SPMM,26,17,0 0
SPMM,26,18,0 0
SPMM,26,19,0 0
SPMM,26,28,0 0
SPMM,26,29,0 0
SPMM,26,30,0 0
SPMM,26,31,0 0
SPMM,26,36,0 0
SPMM,26,37,0 0
SPMM,26,38,0 0
SPMM,26,39,0 0
SPMM,26,48,0 0
SPMM,26,49,0 0
SPMM,26,50,0 0
SETZERO,25,1 0
SPMM,25,4,0 0
SPMM,25,5,0 0
SPMM,25,18,0 0
SPMM,25,19,0 0
SPMM,25,31,0 0
SPMM,25,36,0 0
SPMM,25,49,0 0
SPMM,25,50,0 0
SETZERO,24,1 0
SPMM,24,4,0 0
SPMM,24,5,0 0
SPMM,24,16,0 0
SPMM,24,17,0 0
SPMM,24,18,0 0
SPMM,24,19,0 0
SPMM,24,28,0 0
SPMM,24,29,0 0
SPMM,24,30,0 0
SPMM,24,31,0 0
SPMM,24,36,0 0
SPMM,24,37,0 0
SPMM,24,38,0 0
SPMM,24,39,0 0
SPMM,24,48,0 0
SPMM,24,49,0 0
SPMM,24,50,0 0
SPMM,24,0,0 0
SPMM,24,1,0 0
SPMM,24,2,0 0
SPMM,24,3,0 0
SPMM,24,14,0 0
SPMM,24,15,0 0
SPMM,24,20,0 0
SPMM,24,21,0 0
SPMM,24,22,0 0
SPMM,24,23,0 0
SPMM,24,40,0 0
SPMM,24,41,0 0
SPMM,24,42,0 0
SPMM,24,43,0 0
SPMM,25,0,0 0
SPMM,25,1,0 0
SPMM,25,2,0 0
SPMM,25,3,0 0
SPMM,25,14,0 0
SPMM,25,20,0 0
SPMM,25,21,0 0
SPMM,25,40,0 0
SPMM,25,41,0 0
SPMM,25,42,0 0
SPMM,25,43,0 0
SPMM,26,0,0 0
SPMM,26,1,0 0
SPMM,26,2,0 0
SPMM,26,3,0 0
SPMM,26,14,0 0
SPMM,26,15,0 0
SPMM,26,20,0 0
SPMM,26,21,0 0
SPMM,26,22,0 0
SPMM,26,23,0 0
SPMM,26,40,0 0
SPMM,26,41,0 0
SPMM,26,42,0 0
SPMM,26,43,0 0
SPMM,27,15,0 0
SPMM,27,21,0 0
SPMM,27,22,0 0
SPMM,27,23,0 0
SPMM,27,40,0 0
SPMM,27,41,0 0
SPMM,27,42,0 0
SPMM,27,43,0 0
SPMM,20,4,0 0
SPMM,21,4,0 0
SPMM,20,5,0 0
SPMM,21,5,0 0
SPMM,20,14,0 0
SPMM,21,14,0 0
SPMM,23,14,0 0
SPMM,21,15,0 0
SPMM,22,15,0 0
SPMM,23,15,0 0
SPMM,16,36,0 0
SPMM,17,36,0 0
SPMM,18,36,0 0
SPMM,20,36,0 0
SPMM,21,36,0 0
SPMM,22,36,0 0
SPMM,23,36,0 0
SPMM,16,37,0 0
SPMM,17,37,0 0
SPMM,18,37,0 0
SPMM,21,37,0 0
SPMM,22,37,0 0
SPMM,23,37,0 0
SPMM,16,38,0 0
SPMM,17,38,0 0
SPMM,18,38,0 0
SPMM,19,38,0 0
SPMM,21,38,0 0
SPMM,22,38,0 0
SPMM,23,38,0 0
SPMM,16,39,0 0
SPMM,17,39,0 0
SPMM,18,39,0 0
SPMM,19,39,0 0
SPMM,21,39,0 0
SPMM,22,39,0 0
SPMM,23,39,0 0
SPMM,20,0,0 0
SPMM,20,1,0 0
SPMM,20,2,0 0
SPMM,20,3,0 0
SPMM,21,1,0 0
SPMM,21,2,0 0
SPMM,21,3,0 0
DLACPY,35,1 0
SPMM,16,35,0 0
SPMM,17,35,0 0
SPMM,18,35,0 0
SPMM,21,35,0 0
SPMM,22,35,0 0
SPMM,23,35,0 0
SPMM,24,35,0 0
SPMM,26,35,0 0
SPMM,27,35,0 0
SPMM,28,35,0 0
SPMM,29,35,0 0
SPMM,30,35,0 0
SPMM,31,35,0 0
SPMM,32,35,0 0
SPMM,33,35,0 0
SPMM,34,35,0 0
SPMM,35,35,0 0
SPMM,40,35,0 0
SPMM,41,35,0 0
SPMM,42,35,0 0
SPMM,43,35,0 0
SPMM,44,35,0 0
SPMM,45,35,0 0
SPMM,46,35,0 0
SPMM,47,35,0 0
UPDATE,35,1 0
XTY,35,3,4 0
XTY,35,3,10 0
DLACPY,34,1 0
SPMM,16,34,0 0
SPMM,17,34,0 0
SPMM,18,34,0 0
SPMM,21,34,0 0
SPMM,22,34,0 0
SPMM,23,34,0 0
SPMM,24,34,0 0
SPMM,26,34,0 0
SPMM,27,34,0 0
SPMM,28,34,0 0
SPMM,29,34,0 0
SPMM,30,34,0 0
SPMM,31,34,0 0
SPMM,32,34,0 0
SPMM,33,34,0 0
SPMM,34,34,0 0
SPMM,35,34,0 0
SPMM,40,34,0 0
SPMM,41,34,0 0
SPMM,42,34,0 0
SPMM,43,34,0 0
SPMM,44,34,0 0
SPMM,45,34,0 0
SPMM,46,34,0 0
SPMM,47,34,0 0
UPDATE,34,1 0
XTY,34,2,4 0
XTY,34,2,10 0
DLACPY,33,1 0
SPMM,16,33,0 0
SPMM,17,33,0 0
SPMM,18,33,0 0
SPMM,20,33,0 0
SPMM,21,33,0 0
SPMM,22,33,0 0
SPMM,23,33,0 0
SPMM,24,33,0 0
SPMM,25,33,0 0
SPMM,26,33,0 0
SPMM,27,33,0 0
SPMM,28,33,0 0
SPMM,29,33,0 0
SPMM,30,33,0 0
SPMM,31,33,0 0
SPMM,32,33,0 0
SPMM,33,33,0 0
SPMM,34,33,0 0
SPMM,35,33,0 0
SPMM,40,33,0 0
SPMM,41,33,0 0
SPMM,42,33,0 0
SPMM,43,33,0 0
SPMM,44,33,0 0
SPMM,45,33,0 0
SPMM,46,33,0 0
SPMM,47,33,0 0
UPDATE,33,1 0
XTY,33,1,4 0
XTY,33,1,10 0
DLACPY,32,1 0
SPMM,16,32,0 0
SPMM,17,32,0 0
SPMM,18,32,0 0
SPMM,20,32,0 0
XTY,20,4,5 0
XTY,20,4,7 0
SPMM,21,32,0 0
XTY,21,5,5 0
XTY,21,5,7 0
SPMM,22,32,0 0
XTY,22,6,5 0
XTY,22,6,7 0
SPMM,23,32,0 0
XTY,23,7,5 0
XTY,23,7,7 0
SPMM,24,32,0 0
SPMM,25,32,0 0
SPMM,26,32,0 0
SPMM,27,32,0 0
SPMM,28,32,0 0
SPMM,29,32,0 0
SPMM,30,32,0 0
SPMM,31,32,0 0
SPMM,32,32,0 0
SPMM,33,32,0 0
SPMM,34,32,0 0
SPMM,35,32,0 0
SPMM,40,32,0 0
SPMM,41,32,0 0
SPMM,42,32,0 0
SPMM,43,32,0 0
SPMM,44,32,0 0
SPMM,45,32,0 0
SPMM,46,32,0 0
SPMM,47,32,0 0
UPDATE,32,1 0
XTY,32,0,4 0
XTY,32,0,10 0
SPMM,36,32,0 0
SPMM,37,32,0 0
SPMM,38,32,0 0
SPMM,39,32,0 0
SPMM,36,33,0 0
SPMM,37,33,0 0
SPMM,38,33,0 0
SPMM,39,33,0 0
SPMM,36,34,0 0
SPMM,37,34,0 0
SPMM,38,34,0 0
SPMM,39,34,0 0
SPMM,36,35,0 0
SPMM,37,35,0 0
SPMM,38,35,0 0
SPMM,39,35,0 0
SPMM,16,40,0 0
SPMM,17,40,0 0
SPMM,18,40,0 0
SPMM,16,41,0 0
SPMM,17,41,0 0
SPMM,18,41,0 0
SPMM,19,41,0 0
SPMM,16,42,0 0
SPMM,17,42,0 0
SPMM,18,42,0 0
SPMM,19,42,0 0
SPMM,16,43,0 0
SPMM,17,43,0 0
SPMM,18,43,0 0
SPMM,19,43,0 0
SPMM,44,28,0 0
SPMM,45,28,0 0
SPMM,46,28,0 0
SPMM,47,28,0 0
SPMM,44,29,0 0
SPMM,45,29,0 0
SPMM,46,29,0 0
SPMM,47,29,0 0
SPMM,44,30,0 0
SPMM,45,30,0 0
SPMM,46,30,0 0
SPMM,47,30,0 0
SPMM,44,31,0 0
SPMM,45,31,0 0
SPMM,46,31,0 0
SPMM,47,31,0 0
SPMM,28,24,0 0
SPMM,29,24,0 0
SPMM,30,24,0 0
SPMM,31,24,0 0
UPDATE,24,1 0
SPMM,31,25,0 0
UPDATE,25,1 0
SPMM,28,26,0 0
SPMM,29,26,0 0
SPMM,30,26,0 0
SPMM,31,26,0 0
UPDATE,26,1 0
SPMM,28,27,0 0
SPMM,29,27,0 0
SPMM,30,27,0 0
SPMM,31,27,0 0
UPDATE,27,1 0
SPMM,18,14,0 0
SPMM,19,14,0 0
SPMM,16,15,0 0
SPMM,18,15,0 0
SPMM,28,15,0 0
XTY,28,12,5 0
XTY,28,12,7 0
SPMM,29,15,0 0
XTY,29,13,5 0
XTY,29,13,7 0
SPMM,30,15,0 0
XTY,30,14,5 0
XTY,30,14,7 0
SPMM,31,15,0 0
XTY,31,15,5 0
XTY,31,15,7 0
SPMM,44,15,0 0
XTY,44,12,7 0
SPMM,45,15,0 0
XTY,45,13,7 0
SPMM,46,15,0 0
XTY,46,14,7 0
SPMM,47,15,0 0
XTY,47,15,7 0
SPMM,16,44,0 0
SPMM,16,45,0 0
SPMM,16,46,0 0
SPMM,16,47,0 0
XTY,16,0,5 0
XTY,16,0,7 0
SPMM,17,44,0 0
SPMM,17,45,0 0
SPMM,17,46,0 0
SPMM,17,47,0 0
XTY,17,1,5 0
XTY,17,1,7 0
SPMM,18,0,0 0
SPMM,18,1,0 0
SPMM,18,2,0 0
SPMM,18,3,0 0
SPMM,18,44,0 0
SPMM,18,45,0 0
SPMM,18,46,0 0
SPMM,18,47,0 0
XTY,18,2,5 0
XTY,18,2,7 0
SPMM,19,0,0 0
SPMM,19,1,0 0
SPMM,19,2,0 0
SPMM,19,3,0 0
SPMM,19,44,0 0
SPMM,19,45,0 0
SPMM,19,46,0 0
SPMM,19,47,0 0
XTY,19,3,5 0
XTY,19,3,7 0
SETZERO,50,1 0
SPMM,50,15,0 0
SPMM,50,21,0 0
SPMM,50,22,0 0
SPMM,50,23,0 0
SPMM,50,24,0 0
SPMM,50,25,0 0
SPMM,50,26,0 0
SPMM,50,27,0 0
SPMM,50,28,0 0
SPMM,50,29,0 0
SPMM,50,30,0 0
SPMM,50,31,0 0
SPMM,50,36,0 0
SPMM,50,37,0 0
SPMM,50,38,0 0
SPMM,50,39,0 0
SPMM,50,48,0 0
SPMM,50,49,0 0
SPMM,50,50,0 0
SETZERO,49,1 0
SPMM,49,15,0 0
SPMM,49,20,0 0
SPMM,49,21,0 0
SPMM,49,22,0 0
SPMM,49,23,0 0
SPMM,49,24,0 0
SPMM,49,25,0 0
SPMM,49,26,0 0
SPMM,49,27,0 0
SPMM,49,28,0 0
SPMM,49,29,0 0
SPMM,49,30,0 0
SPMM,49,31,0 0
SPMM,49,36,0 0
SPMM,49,37,0 0
SPMM,49,38,0 0
SPMM,49,39,0 0
SPMM,49,48,0 0
SPMM,49,49,0 0
SPMM,49,50,0 0
SETZERO,48,1 0
SPMM,48,15,0 0
SPMM,48,21,0 0
SPMM,48,22,0 0
SPMM,48,23,0 0
SPMM,48,24,0 0
SPMM,48,26,0 0
SPMM,48,27,0 0
SPMM,48,28,0 0
SPMM,48,29,0 0
SPMM,48,30,0 0
SPMM,48,31,0 0
SPMM,48,36,0 0
SPMM,48,37,0 0
SPMM,48,38,0 0
SPMM,48,39,0 0
SPMM,48,48,0 0
SPMM,48,49,0 0
SPMM,48,50,0 0
SPMM,15,32,0 0
SPMM,15,33,0 0
SPMM,15,34,0 0
SPMM,15,35,0 0
SPMM,3,4,0 0
SPMM,3,7,0 0
SPMM,15,28,0 0
SPMM,15,29,0 0
SPMM,15,30,0 0
SPMM,15,31,0 0
SPMM,0,24,0 0
SPMM,1,24,0 0
SPMM,2,24,0 0
SPMM,3,24,0 0
SPMM,4,24,0 0
SPMM,5,24,0 0
SPMM,0,25,0 0
SPMM,1,25,0 0
SPMM,2,25,0 0
SPMM,3,25,0 0
SPMM,4,25,0 0
SPMM,5,25,0 0
SPMM,0,26,0 0
SPMM,1,26,0 0
SPMM,2,26,0 0
SPMM,3,26,0 0
SPMM,4,26,0 0
SPMM,5,26,0 0
SPMM,2,12,0 0
SPMM,3,12,0 0
SPMM,3,13,0 0
SPMM,2,14,0 0
SPMM,3,14,0 0
SPMM,0,18,0 0
SPMM,0,19,0 0
SPMM,0,20,0 0
XTY,0,0,5 0
SPMM,1,18,0 0
SPMM,1,19,0 0
SPMM,1,20,0 0
SPMM,1,21,0 0
SPMM,2,18,0 0
SPMM,2,19,0 0
SPMM,2,20,0 0
SPMM,2,21,0 0
SPMM,3,18,0 0
SPMM,3,19,0 0
SPMM,3,20,0 0
SPMM,3,21,0 0
SPMM,4,3,0 0
SPMM,4,18,0 0
SPMM,4,19,0 0
SPMM,5,18,0 0
SPMM,5,19,0 0
SPMM,7,3,0 0
SPMM,12,2,0 0
SPMM,12,3,0 0
SPMM,13,3,0 0
SPMM,14,2,0 0
SPMM,14,3,0 0
SPMM,11,1,0 0
SPMM,8,2,0 0
SPMM,9,2,0 0
SPMM,10,2,0 0
SPMM,11,2,0 0
SPMM,8,3,0 0
SPMM,9,3,0 0
SPMM,10,3,0 0
SPMM,11,3,0 0
DLACPY,11,1 0
SPMM,1,11,0 0
XTY,1,1,5 0
SPMM,2,11,0 0
SPMM,3,11,0 0
SPMM,4,11,0 0
SPMM,5,11,0 0
SPMM,6,11,0 0
SPMM,7,11,0 0
SPMM,8,11,0 0
SPMM,9,11,0 0
SPMM,10,11,0 0
SPMM,11,11,0 0
SPMM,12,11,0 0
SPMM,13,11,0 0
SPMM,14,11,0 0
UPDATE,11,1 0
XTY,11,11,10 0
DLACPY,10,1 0
SPMM,2,10,0 0
SPMM,3,10,0 0
SPMM,4,10,0 0
SPMM,5,10,0 0
SPMM,6,10,0 0
SPMM,7,10,0 0
SPMM,8,10,0 0
SPMM,9,10,0 0
SPMM,10,10,0 0
SPMM,11,10,0 0
SPMM,12,10,0 0
SPMM,13,10,0 0
SPMM,14,10,0 0
UPDATE,10,1 0
XTY,10,10,10 0
DLACPY,9,1 0
SPMM,2,9,0 0
SPMM,3,9,0 0
SPMM,4,9,0 0
SPMM,5,9,0 0
SPMM,6,9,0 0
SPMM,7,9,0 0
SPMM,8,9,0 0
SPMM,9,9,0 0
SPMM,10,9,0 0
SPMM,11,9,0 0
SPMM,12,9,0 0
SPMM,13,9,0 0
SPMM,14,9,0 0
UPDATE,9,1 0
XTY,9,9,10 0
DLACPY,8,1 0
SPMM,2,8,0 0
XTY,2,2,5 0
SPMM,3,8,0 0
XTY,3,3,5 0
SPMM,4,8,0 0
SPMM,5,8,0 0
SPMM,6,8,0 0
SPMM,7,8,0 0
SPMM,8,8,0 0
SPMM,9,8,0 0
SPMM,10,8,0 0
SPMM,11,8,0 0
SPMM,12,8,0 0
SPMM,13,8,0 0
SPMM,14,8,0 0
UPDATE,8,1 0
XTY,8,8,10 0
RED,RBPBUF,0 0
CONSTRUCTGB 0
SPMM,48,16,0 0
SPMM,48,17,0 0
SPMM,48,18,0 0
SPMM,48,32,0 0
SPMM,48,33,0 0
SPMM,48,34,0 0
SPMM,48,35,0 0
SPMM,48,40,0 0
SPMM,48,41,0 0
SPMM,48,42,0 0
SPMM,48,43,0 0
SPMM,48,44,0 0
SPMM,48,45,0 0
SPMM,48,46,0 0
SPMM,48,47,0 0
XTY,48,0,5 0
XTY,48,0,7 0
SPMM,49,16,0 0
SPMM,49,17,0 0
SPMM,49,18,0 0
SPMM,49,32,0 0
SPMM,49,33,0 0
SPMM,49,34,0 0
SPMM,49,35,0 0
SPMM,49,40,0 0
SPMM,49,41,0 0
SPMM,49,42,0 0
SPMM,49,43,0 0
SPMM,49,44,0 0
SPMM,49,45,0 0
SPMM,49,46,0 0
SPMM,49,47,0 0
XTY,49,1,5 0
XTY,49,1,7 0
SPMM,50,16,0 0
SPMM,50,17,0 0
SPMM,50,18,0 0
SPMM,50,19,0 0
SPMM,50,32,0 0
SPMM,50,33,0 0
SPMM,50,34,0 0
SPMM,50,35,0 0
SPMM,50,40,0 0
SPMM,50,41,0 0
SPMM,50,42,0 0
SPMM,50,43,0 0
SPMM,50,44,0 0
SPMM,50,45,0 0
SPMM,50,46,0 0
SPMM,50,47,0 0
XTY,50,2,5 0
XTY,50,2,7 0
XTY,47,15,5 0
XTY,46,14,5 0
XTY,45,13,5 0
XTY,44,12,5 0
SPMM,24,24,0 0
SPMM,24,25,0 0
SPMM,24,26,0 0
SPMM,24,44,0 0
SPMM,24,45,0 0
SPMM,24,46,0 0
SPMM,24,47,0 0
XTY,24,8,5 0
XTY,24,8,7 0
SPMM,25,24,0 0
SPMM,25,25,0 0
SPMM,25,26,0 0
SPMM,25,44,0 0
SPMM,25,45,0 0
SPMM,25,47,0 0
XTY,25,9,5 0
XTY,25,9,7 0
SPMM,26,24,0 0
SPMM,26,25,0 0
SPMM,26,26,0 0
SPMM,26,27,0 0
SPMM,26,44,0 0
SPMM,26,45,0 0
SPMM,26,46,0 0
SPMM,26,47,0 0
XTY,26,10,5 0
XTY,26,10,7 0
SPMM,27,26,0 0
SPMM,27,27,0 0
SPMM,27,44,0 0
SPMM,27,45,0 0
SPMM,27,46,0 0
SPMM,27,47,0 0
XTY,27,11,5 0
XTY,27,11,7 0
SPMM,36,15,0 0
SPMM,36,20,0 0
SPMM,36,21,0 0
SPMM,36,22,0 0
SPMM,36,23,0 0
XTY,36,4,5 0
XTY,36,4,7 0
SPMM,37,15,0 0
SPMM,37,21,0 0
SPMM,37,22,0 0
SPMM,37,23,0 0
XTY,37,5,5 0
XTY,37,5,7 0
SPMM,38,15,0 0
SPMM,38,21,0 0
SPMM,38,22,0 0
SPMM,38,23,0 0
XTY,38,6,5 0
XTY,38,6,7 0
SPMM,39,15,0 0
SPMM,39,21,0 0
SPMM,39,22,0 0
SPMM,39,23,0 0
XTY,39,7,5 0
XTY,39,7,7 0
SPMM,40,15,0 0
SPMM,41,15,0 0
SPMM,42,15,0 0
SPMM,43,15,0 0
SPMM,32,16,0 0
SPMM,32,17,0 0
SPMM,32,18,0 0
XTY,32,0,5 0
XTY,32,0,7 0
SPMM,33,16,0 0
SPMM,33,17,0 0
SPMM,33,18,0 0
XTY,33,1,5 0
XTY,33,1,7 0
SPMM,34,16,0 0
SPMM,34,17,0 0
SPMM,34,18,0 0
XTY,34,2,5 0
XTY,34,2,7 0
SPMM,35,16,0 0
SPMM,35,17,0 0
SPMM,35,18,0 0
XTY,35,3,5 0
XTY,35,3,7 0
SPMM,40,16,0 0
SPMM,40,17,0 0
SPMM,40,18,0 0
XTY,40,8,5 0
XTY,40,8,7 0
SPMM,41,16,0 0
SPMM,41,17,0 0
SPMM,41,18,0 0
SPMM,41,19,0 0
XTY,41,9,5 0
XTY,41,9,7 0
SPMM,42,16,0 0
SPMM,42,17,0 0
SPMM,42,18,0 0
SPMM,42,19,0 0
XTY,42,10,5 0
XTY,42,10,7 0
SPMM,43,16,0 0
SPMM,43,17,0 0
SPMM,43,18,0 0
SPMM,43,19,0 0
XTY,43,11,5 0
XTY,43,11,7 0
XTY,13,13,5 0
XTY,13,13,7 0
XTY,12,12,5 0
XTY,12,12,7 0
XTY,7,7,5 0
XTY,7,7,7 0
XTY,6,6,5 0
XTY,6,6,7 0
XTY,3,3,7 0
XTY,2,2,7 0
XTY,8,8,4 0
XTY,9,9,4 0
XTY,10,10,4 0
XTY,1,1,7 0
XTY,11,11,4 0
XTY,0,0,7 0
SPMM,8,4,0 0
SPMM,9,4,0 0
SPMM,10,4,0 0
SPMM,11,4,0 0
SPMM,8,5,0 0
SPMM,9,5,0 0
SPMM,10,5,0 0
SPMM,11,5,0 0
SPMM,8,6,0 0
SPMM,9,6,0 0
SPMM,10,6,0 0
SPMM,11,6,0 0
SPMM,8,7,0 0
SPMM,9,7,0 0
SPMM,10,7,0 0
SPMM,11,7,0 0
SPMM,15,40,0 0
SPMM,15,41,0 0
SPMM,15,42,0 0
SPMM,15,43,0 0
SPMM,14,24,0 0
SPMM,15,24,0 0
SPMM,14,25,0 0
SPMM,14,26,0 0
SPMM,15,26,0 0
SPMM,15,27,0 0
SPMM,8,12,0 0
SPMM,9,12,0 0
SPMM,10,12,0 0
SPMM,11,12,0 0
SPMM,8,13,0 0
SPMM,9,13,0 0
SPMM,10,13,0 0
SPMM,11,13,0 0
SPMM,8,14,0 0
XTY,8,8,5 0
XTY,8,8,7 0
SPMM,9,14,0 0
XTY,9,9,5 0
XTY,9,9,7 0
SPMM,10,14,0 0
XTY,10,10,5 0
XTY,10,10,7 0
SPMM,11,14,0 0
XTY,11,11,5 0
XTY,11,11,7 0
SPMM,4,20,0 0
SPMM,4,21,0 0
XTY,4,4,5 0
XTY,4,4,7 0
SPMM,5,20,0 0
SPMM,5,21,0 0
XTY,5,5,5 0
XTY,5,5,7 0
SPMM,14,18,0 0
SPMM,14,19,0 0
XTY,14,14,5 0
XTY,14,14,7 0
SPMM,15,16,0 0
SPMM,15,18,0 0
SPMM,15,36,0 0
SPMM,15,37,0 0
SPMM,15,38,0 0
SPMM,15,39,0 0
SPMM,15,44,0 0
SPMM,15,45,0 0
SPMM,15,46,0 0
SPMM,15,47,0 0
SPMM,15,48,0 0
SPMM,15,49,0 0
SPMM,15,50,0 0
XTY,15,15,5 0
RED,RARBUF,0 0
XTY,15,15,7 0
RED,RAPBUF,0 0
XTY,0,0,4 0
XTY,1,1,4 0
XTY,2,2,4 0
XTY,3,3,4 0
RED,XARBUF,0 0
CONSTRUCTGA1 0
TRANS,RAR 0
SPEUPDATE,RAR 0
CONSTRUCTGA2 0
EIGEN 0
XY,20,6 0
XY,21,6 0
XY,22,6 0
XY,23,6 0
XY,28,6 0
XY,29,6 0
XY,30,6 0
XY,31,6 0
XY,36,6 0
XY,37,6 0
XY,38,6 0
XY,39,6 0
XY,44,6 0
XY,45,6 0
XY,46,6 0
XY,47,6 0
XY,0,7 0
XY,1,7 0
XY,2,7 0
XY,3,7 0
XY,4,7 0
XY,5,7 0
XY,6,7 0
XY,7,7 0
XY,44,11 0
XY,45,11 0
XY,46,11 0
XY,47,11 0
XY,12,8 0
XY,13,8 0
XY,14,8 0
XY,15,8 0
XY,32,9 0
XY,33,9 0
XY,34,9 0
XY,35,9 0
XY,36,9 0
XY,37,9 0
XY,38,9 0
XY,39,9 0
XY,40,9 0
XY,41,9 0
XY,42,9 0
XY,43,9 0
XY,44,9 0
XY,45,9 0
XY,46,9 0
XY,47,9 0
XY,48,9 0
XY,49,9 0
XY,50,9 0
XY,4,10 0
XY,5,10 0
XY,6,10 0
XY,7,10 0
XY,0,11 0
XY,1,11 0
XY,2,11 0
XY,3,11 0
XY,4,11 0
XY,5,11 0
XY,6,11 0
XY,7,11 0
XY,20,11 0
XY,21,11 0
XY,22,11 0
XY,23,11 0
XY,28,11 0
XY,29,11 0
XY,30,11 0
XY,31,11 0
XY,16,6 0
XY,17,6 0
XY,18,6 0
XY,19,6 0
XY,24,6 0
XY,25,6 0
XY,26,6 0
XY,27,6 0
XY,32,6 0
XY,33,6 0
XY,34,6 0
XY,35,6 0
XY,48,6 0
XY,49,6 0
XY,50,6 0
XY,16,7 0
ADD,16,1 0
XY,17,7 0
ADD,17,1 0
XY,18,7 0
ADD,18,1 0
XY,19,7 0
ADD,19,1 0
XY,32,7 0
ADD,32,1 0
XY,33,7 0
ADD,33,1 0
XY,34,7 0
ADD,34,1 0
XY,35,7 0
ADD,35,1 0
XY,48,7 0
ADD,48,1 0
XY,49,7 0
ADD,49,1 0
XY,50,7 0
ADD,50,1 0
XY,4,8 0
XY,5,8 0
XY,6,8 0
XY,7,8 0
XY,8,10 0
XY,9,10 0
XY,10,10 0
XY,11,10 0
XY,20,7 0
ADD,20,1 0
XY,21,7 0
ADD,21,1 0
XY,22,7 0
ADD,22,1 0
XY,23,7 0
ADD,23,1 0
XY,28,7 0
XY,29,7 0
XY,30,7 0
XY,31,7 0
XY,36,7 0
ADD,36,1 0
XY,37,7 0
ADD,37,1 0
XY,38,7 0
ADD,38,1 0
XY,39,7 0
ADD,39,1 0
XY,44,8 0
XY,45,8 0
XY,46,8 0
XY,47,8 0
XY,12,9 0
ADD,12,2 0
XY,13,9 0
ADD,13,2 0
XY,14,9 0
ADD,14,2 0
XY,15,9 0
ADD,15,2 0
XY,20,10 0
ADD,20,3 0
XY,21,10 0
ADD,21,3 0
XY,22,10 0
ADD,22,3 0
XY,23,10 0
ADD,23,3 0
XY,36,10 0
ADD,36,3 0
XY,37,10 0
ADD,37,3 0
XY,38,10 0
ADD,38,3 0
XY,39,10 0
ADD,39,3 0
XY,8,6 0
XY,9,6 0
XY,10,6 0
XY,11,6 0
XY,40,6 0
XY,41,6 0
XY,42,6 0
XY,43,6 0
XY,8,7 0
ADD,8,1 0
ADD,8,3 0
XY,9,7 0
ADD,9,1 0
ADD,9,3 0
XY,10,7 0
ADD,10,1 0
ADD,10,3 0
XY,11,7 0
ADD,11,1 0
ADD,11,3 0
XY,24,7 0
ADD,24,1 0
XY,25,7 0
ADD,25,1 0
XY,26,7 0
ADD,26,1 0
XY,27,7 0
ADD,27,1 0
XY,40,7 0
ADD,40,1 0
XY,41,7 0
ADD,41,1 0
XY,42,7 0
ADD,42,1 0
XY,43,7 0
ADD,43,1 0
XY,0,8 0
XY,1,8 0
XY,2,8 0
XY,3,8 0
XY,8,8 0
XY,9,8 0
XY,10,8 0
XY,11,8 0
XY,32,8 0
ADD,32,2 0
XY,33,8 0
ADD,33,2 0
XY,34,8 0
ADD,34,2 0
XY,35,8 0
ADD,35,2 0
XY,36,8 0
ADD,36,2 0
XY,37,8 0
ADD,37,2 0
XY,38,8 0
ADD,38,2 0
XY,39,8 0
ADD,39,2 0
XY,48,8 0
XY,49,8 0
XY,50,8 0
XY,12,10 0
XY,13,10 0
XY,14,10 0
XY,15,10 0
XY,48,10 0
ADD,48,3 0
XY,49,10 0
ADD,49,3 0
XY,50,10 0
ADD,50,3 0
XY,12,11 0
ADD,12,4 0
XY,13,11 0
ADD,13,4 0
XY,14,11 0
ADD,14,4 0
XY,15,11 0
ADD,15,4 0
XY,24,11 0
XY,25,11 0
XY,26,11 0
XY,27,11 0
ADD,47,2 0
ADD,47,4 0
ADD,46,2 0
ADD,46,4 0
ADD,45,2 0
ADD,45,4 0
ADD,44,2 0
ADD,44,4 0
XY,0,6 0
ADD,0,1 0
XY,1,6 0
ADD,1,1 0
XY,2,6 0
ADD,2,1 0
XY,3,6 0
ADD,3,1 0
XY,4,6 0
ADD,4,1 0
ADD,4,3 0
XY,5,6 0
ADD,5,1 0
ADD,5,3 0
XY,6,6 0
ADD,6,1 0
ADD,6,3 0
XY,7,6 0
ADD,7,1 0
ADD,7,3 0
XY,0,10 0
ADD,0,3 0
XY,1,10 0
ADD,1,3 0
XY,2,10 0
ADD,2,3 0
XY,3,10 0
ADD,3,3 0
XY,24,10 0
ADD,24,3 0
XY,25,10 0
ADD,25,3 0
XY,26,10 0
ADD,26,3 0
XY,27,10 0
ADD,27,3 0
XY,28,8 0
XY,29,8 0
XY,30,8 0
XY,31,8 0
XY,8,9 0
XY,9,9 0
XY,10,9 0
XY,11,9 0
XY,28,9 0
ADD,28,2 0
XY,29,9 0
ADD,29,2 0
XY,30,9 0
ADD,30,2 0
XY,31,9 0
ADD,31,2 0
XY,28,10 0
XY,29,10 0
XY,30,10 0
XY,31,10 0
XY,40,10 0
ADD,40,3 0
XY,41,10 0
ADD,41,3 0
XY,42,10 0
ADD,42,3 0
XY,43,10 0
ADD,43,3 0
XY,32,11 0
ADD,32,4 0
XY,33,11 0
ADD,33,4 0
XY,34,11 0
ADD,34,4 0
XY,35,11 0
ADD,35,4 0
XY,36,11 0
ADD,36,4 0
XY,37,11 0
ADD,37,4 0
XY,38,11 0
ADD,38,4 0
XY,39,11 0
ADD,39,4 0
XY,44,7 0
ADD,44,1 0
XY,45,7 0
ADD,45,1 0
XY,46,7 0
ADD,46,1 0
XY,47,7 0
ADD,47,1 0
XY,16,8 0
XY,17,8 0
XY,18,8 0
XY,19,8 0
XY,24,8 0
XY,25,8 0
XY,26,8 0
XY,27,8 0
XY,40,8 0
ADD,40,2 0
XY,41,8 0
ADD,41,2 0
XY,42,8 0
ADD,42,2 0
XY,43,8 0
ADD,43,2 0
XY,16,9 0
ADD,16,2 0
XY,17,9 0
ADD,17,2 0
XY,18,9 0
ADD,18,2 0
XY,19,9 0
ADD,19,2 0
XY,24,9 0
ADD,24,2 0
ADD,24,4 0
XY,25,9 0
ADD,25,2 0
ADD,25,4 0
XY,26,9 0
ADD,26,2 0
ADD,26,4 0
XY,27,9 0
ADD,27,2 0
ADD,27,4 0
ADD,31,4 0
ADD,30,4 0
ADD,29,4 0
ADD,28,4 0
XY,12,6 0
XY,13,6 0
XY,14,6 0
XY,15,6 0
XY,12,7 0
ADD,12,1 0
XY,13,7 0
ADD,13,1 0
XY,14,7 0
ADD,14,1 0
XY,15,7 0
ADD,15,1 0
XY,0,9 0
XY,1,9 0
XY,2,9 0
XY,3,9 0
XY,16,10 0
ADD,16,3 0
XY,17,10 0
ADD,17,3 0
XY,18,10 0
ADD,18,3 0
XY,19,10 0
ADD,19,3 0
XY,32,10 0
XY,33,10 0
XY,34,10 0
XY,35,10 0
XY,44,10 0
ADD,44,3 0
XY,45,10 0
ADD,45,3 0
XY,46,10 0
ADD,46,3 0
XY,47,10 0
ADD,47,3 0
XY,8,11 0
XY,9,11 0
XY,10,11 0
XY,11,11 0
ADD,15,3 0
ADD,14,3 0
ADD,13,3 0
ADD,12,3 0
ADD,11,2 0
ADD,11,4 0
ADD,10,2 0
ADD,10,4 0
ADD,9,2 0
ADD,9,4 0
ADD,8,2 0
ADD,8,4 0
ADD,31,1 0
ADD,31,3 0
ADD,30,1 0
ADD,30,3 0
ADD,29,1 0
ADD,29,3 0
ADD,28,1 0
ADD,28,3 0
XY,20,8 0
XY,21,8 0
XY,22,8 0
XY,23,8 0
XY,20,9 0
ADD,20,2 0
ADD,20,4 0
XY,21,9 0
ADD,21,2 0
ADD,21,4 0
XY,22,9 0
ADD,22,2 0
ADD,22,4 0
XY,23,9 0
ADD,23,2 0
ADD,23,4 0
XY,40,11 0
ADD,40,4 0
XY,41,11 0
ADD,41,4 0
XY,42,11 0
ADD,42,4 0
XY,43,11 0
ADD,43,4 0
ADD,35,3 0
ADD,34,3 0
ADD,33,3 0
ADD,32,3 0
ADD,3,2 0
ADD,3,4 0
ADD,2,2 0
ADD,2,4 0
ADD,1,2 0
ADD,1,4 0
ADD,0,2 0
ADD,0,4 0
ADD,50,2 0
ADD,49,2 0
ADD,48,2 0
XY,4,9 0
ADD,4,2 0
ADD,4,4 0
XY,5,9 0
ADD,5,2 0
ADD,5,4 0
XY,6,9 0
ADD,6,2 0
ADD,6,4 0
XY,7,9 0
ADD,7,2 0
ADD,7,4 0
XY,16,11 0
ADD,16,4 0
XY,17,11 0
ADD,17,4 0
XY,18,11 0
ADD,18,4 0
XY,19,11 0
ADD,19,4 0
XY,48,11 0
ADD,48,4 0
XY,49,11 0
ADD,49,4 0
XY,50,11 0
ADD,50,4 0
