3663
22,0,1,_X,-1,0,3663
22,0,1,_X,-1,0,3662
22,0,1,_X,-1,0,3661
22,0,1,_P,-1,0,3660
22,0,1,_P,-1,0,3659
22,0,1,_P,-1,0,3658
22,0,1,_P,-1,0,3657
22,0,1,_AX,-1,0,3656
22,0,1,_AX,-1,0,3655
22,0,1,_AX,-1,0,3654
22,0,1,_AX,-1,0,3653
22,0,1,_X,-1,0,3652
22,0,1,_X,-1,0,3651
22,0,1,_X,-1,0,3650
22,0,1,_X,-1,0,3649
22,0,1,_P,-1,0,3648
22,0,1,_P,-1,0,3647
22,0,1,_P,-1,0,3646
22,0,1,_P,-1,0,3645
22,0,1,_P,-1,0,3644
22,0,1,_P,-1,0,3643
22,0,1,_P,-1,0,3642
22,0,1,_P,-1,0,3641
22,0,1,_X,-1,0,3640
22,0,1,_X,-1,0,3639
22,0,1,_X,-1,0,3638
22,0,1,_X,-1,0,3637
22,0,1,_P,-1,0,3636
22,0,1,_P,-1,0,3635
22,0,1,_P,-1,0,3634
22,0,1,_P,-1,0,3633
22,0,1,_AX,-1,0,3632
22,0,1,_AX,-1,0,3631
22,0,1,_AX,-1,0,3630
22,0,1,_AX,-1,0,3629
22,0,1,_X,-1,0,3628
22,0,1,_X,-1,0,3627
22,0,1,_X,-1,0,3626
22,0,1,_X,-1,0,3625
22,0,1,_P,-1,0,3624
22,0,1,_P,-1,0,3623
22,0,1,_P,-1,0,3622
22,0,1,_P,-1,0,3621
22,0,1,_P,-1,0,3620
22,0,1,_P,-1,0,3619
22,0,1,_P,-1,0,3618
22,0,1,_P,-1,0,3617
22,0,1,_X,-1,0,3616
22,0,1,_X,-1,0,3615
22,0,1,_X,-1,0,3614
22,0,1,_X,-1,0,3613
22,0,1,_lambda,-1,0,3612
5,1,0,0,1,0,3611
5,1,1,0,1,0,3610
5,1,2,0,1,0,3609
5,1,3,0,1,0,3608
5,1,20,0,1,0,3607
9,1,20,0,1,0,3606
10,1,20,0,-1,0,3605
5,1,21,0,1,0,3604
9,1,21,0,1,0,3603
10,1,21,0,-1,0,3602
5,1,22,0,1,0,3601
9,1,22,0,1,0,3600
10,1,22,0,-1,0,3599
5,1,23,0,1,0,3598
9,1,23,0,1,0,3597
10,1,23,0,-1,0,3596
5,1,28,0,1,0,3595
5,1,29,0,1,0,3594
5,1,30,0,1,0,3593
5,1,31,0,1,0,3592
5,1,44,0,1,0,3591
9,1,44,0,1,0,3590
10,1,44,0,-1,0,3589
5,1,45,0,1,0,3588
9,1,45,0,1,0,3587
10,1,45,0,-1,0,3586
5,1,46,0,1,0,3585
9,1,46,0,1,0,3584
10,1,46,0,-1,0,3583
5,1,47,0,1,0,3582
9,1,47,0,1,0,3581
10,1,47,0,-1,0,3580
5,1,48,0,1,0,3579
5,1,49,0,1,0,3578
5,1,50,0,1,0,3577
22,0,1,_P,-1,2,3576
22,0,1,_P,-1,2,3575
22,0,1,_P,-1,2,3574
22,0,1,_AX,-1,2,3573
22,0,1,_AX,-1,2,3572
22,0,1,_AX,-1,2,3571
22,0,1,_AX,-1,2,3570
22,0,1,_X,-1,2,3569
5,1,43,0,1,2,3568
9,1,43,0,1,2,3567
10,1,43,0,-1,2,3566
11,2,43,11,0,-1,2,3565
22,0,1,_X,-1,2,3564
5,1,42,0,1,2,3563
9,1,42,0,1,2,3562
10,1,42,0,-1,2,3561
11,2,42,10,0,-1,2,3560
22,0,1,_X,-1,2,3559
5,1,41,0,1,2,3558
9,1,41,0,1,2,3557
10,1,41,0,-1,2,3556
11,2,41,9,0,-1,2,3555
22,0,1,_X,-1,2,3554
5,1,40,0,1,2,3553
9,1,40,0,1,2,3552
10,1,40,0,-1,2,3551
11,2,40,8,0,-1,2,3550
22,0,1,_P,-1,2,3549
22,0,1,_P,-1,2,3548
22,0,1,_P,-1,2,3547
22,0,1,_P,-1,2,3546
22,0,1,_P,-1,2,3545
22,0,1,_P,-1,2,3544
22,0,1,_P,-1,2,3543
22,0,1,_P,-1,2,3542
22,0,1,_AX,-1,2,3541
9,1,31,0,1,2,3540
10,1,31,0,-1,2,3539
11,2,31,15,0,-1,2,3538
22,0,1,_AX,-1,2,3537
9,1,30,0,1,2,3536
10,1,30,0,-1,2,3535
11,2,30,14,0,-1,2,3534
22,0,1,_AX,-1,2,3533
9,1,29,0,1,2,3532
10,1,29,0,-1,2,3531
11,2,29,13,0,-1,2,3530
22,0,1,_AX,-1,2,3529
9,1,28,0,1,2,3528
10,1,28,0,-1,2,3527
11,2,28,12,0,-1,2,3526
22,0,1,_P,-1,2,3525
22,0,1,_P,-1,2,3524
22,0,1,_P,-1,2,3523
22,0,1,_P,-1,2,3522
22,0,1,_X,-1,2,3521
5,1,27,0,1,2,3520
22,0,1,_X,-1,2,3519
5,1,26,0,1,2,3518
22,0,1,_X,-1,2,3517
5,1,25,0,1,2,3516
22,0,1,_X,-1,2,3515
5,1,24,0,1,2,3514
22,0,1,_X,-1,2,3513
5,1,15,0,1,2,3512
22,0,1,_X,-1,2,3511
5,1,14,0,1,2,3510
22,0,1,_X,-1,2,3509
5,1,13,0,1,2,3508
22,0,1,_X,-1,2,3507
5,1,12,0,1,2,3506
22,0,1,_AX,-1,2,3505
9,1,3,0,1,2,3504
10,1,3,0,-1,2,3503
11,2,3,3,0,-1,2,3502
22,0,1,_AX,-1,2,3501
9,1,2,0,1,2,3500
10,1,2,0,-1,2,3499
11,2,2,2,0,-1,2,3498
22,0,1,_AX,-1,2,3497
9,1,1,0,1,2,3496
10,1,1,0,-1,2,3495
11,2,1,1,0,-1,2,3494
22,0,1,_AX,-1,2,3493
9,1,0,0,1,2,3492
10,1,0,0,-1,2,3491
11,2,0,0,0,-1,2,3490
11,2,47,15,0,-1,1,3489
11,2,46,14,0,-1,1,3488
11,2,45,13,0,-1,1,3487
11,2,44,12,0,-1,1,3486
11,2,23,7,0,-1,1,3485
11,2,22,6,0,-1,1,3484
11,2,21,5,0,-1,1,3483
11,2,20,4,0,-1,1,3482
1,0,1,RN,-1,1,3481
22,0,1,_AX,-1,1,3480
9,1,50,0,1,1,3479
22,0,1,_AX,-1,1,3478
9,1,49,0,1,1,3477
22,0,1,_AX,-1,1,3476
9,1,48,0,1,1,3475
22,0,1,_X,-1,1,3474
5,1,39,0,1,1,3473
22,0,1,_X,-1,1,3472
5,1,38,0,1,1,3471
22,0,1,_X,-1,1,3470
5,1,37,0,1,1,3469
22,0,1,_X,-1,1,3468
5,1,36,0,1,1,3467
22,0,1,_X,-1,1,3466
5,1,35,0,1,1,3465
22,0,1,_X,-1,1,3464
5,1,34,0,1,1,3463
22,0,1,_X,-1,1,3462
5,1,33,0,1,1,3461
22,0,1,_X,-1,1,3460
5,1,32,0,1,1,3459
22,0,1,_AX,-1,1,3458
22,0,1,_AX,-1,1,3457
22,0,1,_AX,-1,1,3456
22,0,1,_AX,-1,1,3455
22,0,1,_X,-1,1,3454
5,1,19,0,1,1,3453
9,1,19,0,1,1,3452
10,1,19,0,-1,1,3451
11,2,19,3,0,-1,1,3450
22,0,1,_X,-1,1,3449
5,1,18,0,1,1,3448
9,1,18,0,1,1,3447
10,1,18,0,-1,1,3446
11,2,18,2,0,-1,1,3445
22,0,1,_X,-1,1,3444
5,1,17,0,1,1,3443
9,1,17,0,1,1,3442
10,1,17,0,-1,1,3441
11,2,17,1,0,-1,1,3440
22,0,1,_X,-1,1,3439
5,1,16,0,1,1,3438
9,1,16,0,1,1,3437
10,1,16,0,-1,1,3436
11,2,16,0,0,-1,1,3435
22,0,1,_P,-1,1,3434
22,0,1,_P,-1,1,3433
22,0,1,_P,-1,1,3432
22,0,1,_P,-1,1,3431
22,0,1,_AX,-1,1,3430
22,0,1,_AX,-1,1,3429
22,0,1,_AX,-1,1,3428
22,0,1,_AX,-1,1,3427
22,0,1,_X,-1,1,3426
5,1,11,0,1,1,3425
9,1,11,0,1,1,3424
22,0,1,_X,-1,1,3423
5,1,10,0,1,1,3422
9,1,10,0,1,1,3421
22,0,1,_X,-1,1,3420
5,1,9,0,1,1,3419
9,1,9,0,1,1,3418
22,0,1,_X,-1,1,3417
5,1,8,0,1,1,3416
9,1,8,0,1,1,3415
22,0,1,_P,-1,1,3414
22,0,1,_P,-1,1,3413
22,0,1,_P,-1,1,3412
22,0,1,_P,-1,1,3411
22,0,1,_P,-1,1,3410
22,0,1,_P,-1,1,3409
22,0,1,_P,-1,1,3408
22,0,1,_P,-1,1,3407
10,1,8,0,-1,3,3406
11,2,8,8,0,-1,3,3405
10,1,9,0,-1,3,3404
11,2,9,9,0,-1,3,3403
10,1,10,0,-1,3,3402
11,2,10,10,0,-1,3,3401
10,1,11,0,-1,3,3400
11,2,11,11,0,-1,3,3399
10,1,48,0,-1,3,3398
11,2,48,0,0,-1,3,3397
10,1,49,0,-1,3,3396
11,2,49,1,0,-1,3,3395
10,1,50,0,-1,3,3394
11,2,50,2,0,-1,3,3393
22,0,1,_AX,-1,3,3392
9,1,35,0,1,3,3391
10,1,35,0,-1,3,3390
11,2,35,3,0,-1,3,3389
22,0,1,_AX,-1,3,3388
9,1,34,0,1,3,3387
10,1,34,0,-1,3,3386
11,2,34,2,0,-1,3,3385
22,0,1,_AX,-1,3,3384
9,1,33,0,1,3,3383
10,1,33,0,-1,3,3382
11,2,33,1,0,-1,3,3381
22,0,1,_AX,-1,3,3380
9,1,32,0,1,3,3379
10,1,32,0,-1,3,3378
11,2,32,0,0,-1,3,3377
22,0,1,_AX,-1,3,3376
9,1,27,0,1,3,3375
10,1,27,0,-1,3,3374
11,2,27,11,0,-1,3,3373
22,0,1,_AX,-1,3,3372
9,1,26,0,1,3,3371
10,1,26,0,-1,3,3370
11,2,26,10,0,-1,3,3369
22,0,1,_AX,-1,3,3368
9,1,25,0,1,3,3367
10,1,25,0,-1,3,3366
11,2,25,9,0,-1,3,3365
22,0,1,_AX,-1,3,3364
9,1,24,0,1,3,3363
10,1,24,0,-1,3,3362
11,2,24,8,0,-1,3,3361
22,0,1,_AX,-1,3,3360
9,1,15,0,1,3,3359
10,1,15,0,-1,3,3358
11,2,15,15,0,-1,3,3357
22,0,1,_AX,-1,3,3356
9,1,14,0,1,3,3355
10,1,14,0,-1,3,3354
11,2,14,14,0,-1,3,3353
22,0,1,_AX,-1,3,3352
9,1,13,0,1,3,3351
10,1,13,0,-1,3,3350
11,2,13,13,0,-1,3,3349
22,0,1,_AX,-1,3,3348
9,1,12,0,1,3,3347
10,1,12,0,-1,3,3346
11,2,12,12,0,-1,3,3345
22,0,1,_AX,-1,3,3344
22,0,1,_AX,-1,3,3343
22,0,1,_AX,-1,3,3342
22,0,1,_AX,-1,3,3341
22,0,1,_X,-1,3,3340
5,1,7,0,1,3,3339
9,1,7,0,1,3,3338
10,1,7,0,-1,3,3337
11,2,7,7,0,-1,3,3336
22,0,1,_X,-1,3,3335
5,1,6,0,1,3,3334
9,1,6,0,1,3,3333
10,1,6,0,-1,3,3332
11,2,6,6,0,-1,3,3331
22,0,1,_X,-1,3,3330
5,1,5,0,1,3,3329
9,1,5,0,1,3,3328
10,1,5,0,-1,3,3327
11,2,5,5,0,-1,3,3326
22,0,1,_X,-1,3,3325
5,1,4,0,1,3,3324
9,1,4,0,1,3,3323
10,1,4,0,-1,3,3322
11,2,4,4,0,-1,3,3321
19,1,11,0,1,4,3320
19,1,10,0,1,4,3319
19,1,9,0,1,4,3318
19,1,8,0,1,4,3317
22,0,1,_AP,-1,4,3316
22,0,1,_AP,-1,4,3315
22,0,1,_AP,-1,4,3314
22,0,1,_AP,-1,4,3313
22,0,1,_AP,-1,4,3312
22,0,1,_AP,-1,4,3311
22,0,1,_AP,-1,4,3310
22,0,1,_AP,-1,4,3309
22,0,1,_AP,-1,4,3308
22,0,1,_AP,-1,4,3307
22,0,1,_AP,-1,4,3306
22,0,1,_AX,-1,4,3305
9,1,39,0,1,4,3304
10,1,39,0,-1,4,3303
11,2,39,7,0,-1,4,3302
22,0,1,_AX,-1,4,3301
9,1,38,0,1,4,3300
10,1,38,0,-1,4,3299
11,2,38,6,0,-1,4,3298
22,0,1,_AX,-1,4,3297
9,1,37,0,1,4,3296
10,1,37,0,-1,4,3295
11,2,37,5,0,-1,4,3294
22,0,1,_AX,-1,4,3293
9,1,36,0,1,4,3292
10,1,36,0,-1,4,3291
11,2,36,4,0,-1,4,3290
12,0,1,RNBUF,-1,4,3289
13,0,1,RN,-1,4,3288
1,0,1,actMask,-1,4,3287
20,0,1,actMask,-1,4,3286
14,1,44,0,3,4,3285
14,1,45,0,3,4,3284
14,1,46,0,3,4,3283
14,1,47,0,3,4,3282
14,1,48,0,3,4,3281
14,1,49,0,3,4,3280
14,1,50,0,3,4,3279
22,0,1,_AP,-1,4,3278
22,0,1,_AP,-1,4,3277
22,0,1,_AP,-1,4,3276
22,0,1,_AP,-1,4,3275
22,0,1,_AP,-1,4,3274
14,1,27,0,3,4,3273
22,0,1,_AP,-1,4,3272
14,1,26,0,3,4,3271
22,0,1,_AP,-1,4,3270
14,1,25,0,3,4,3269
22,0,1,_AP,-1,4,3268
14,1,24,0,3,4,3267
22,0,1,_AP,-1,4,3266
22,0,1,_AP,-1,4,3265
22,0,1,_AP,-1,4,3264
22,0,1,_AP,-1,4,3263
22,0,1,_AP,-1,4,3262
22,0,1,_AP,-1,4,3261
22,0,1,_AP,-1,4,3260
22,0,1,_AP,-1,4,3259
22,0,1,_AP,-1,4,3258
22,0,1,_AP,-1,4,3257
22,0,1,_AP,-1,4,3256
22,0,1,_AP,-1,4,3255
22,0,1,_AP,-1,4,3254
22,0,1,_AP,-1,4,3253
22,0,1,_AP,-1,4,3252
22,0,1,_AP,-1,4,3251
22,0,1,_AP,-1,4,3250
22,0,1,_AP,-1,4,3249
22,0,1,_AP,-1,4,3248
22,0,1,_AP,-1,4,3247
14,1,0,0,3,5,3246
14,1,1,0,3,5,3245
14,1,2,0,3,5,3244
14,1,3,0,3,5,3243
14,1,12,0,3,5,3242
14,1,13,0,3,5,3241
14,1,14,0,3,5,3240
14,1,15,0,3,5,3239
14,1,16,0,3,5,3238
14,1,17,0,3,5,3237
14,1,18,0,3,5,3236
14,1,19,0,3,5,3235
14,1,32,0,3,5,3234
14,1,33,0,3,5,3233
14,1,34,0,3,5,3232
14,1,35,0,3,5,3231
14,1,0,0,1,5,3230
3,2,0,0,0,1,5,3229
14,1,1,0,1,5,3228
3,2,1,1,0,1,5,3227
14,1,2,0,1,5,3226
3,2,2,2,0,1,5,3225
14,1,3,0,1,5,3224
3,2,3,3,0,1,5,3223
14,1,20,0,1,5,3222
3,2,20,4,0,1,5,3221
14,1,21,0,1,5,3220
3,2,21,5,0,1,5,3219
14,1,22,0,1,5,3218
3,2,22,6,0,1,5,3217
14,1,23,0,1,5,3216
3,2,23,7,0,1,5,3215
14,1,36,0,1,5,3214
3,2,36,4,0,1,5,3213
14,1,37,0,1,5,3212
3,2,37,5,0,1,5,3211
14,1,38,0,1,5,3210
3,2,38,6,0,1,5,3209
14,1,39,0,1,5,3208
3,2,39,7,0,1,5,3207
22,0,1,_AP,-1,5,3206
22,0,1,_AP,-1,5,3205
22,0,1,_AP,-1,5,3204
22,0,1,_AP,-1,5,3203
14,1,36,0,3,6,3202
14,1,37,0,3,6,3201
14,1,38,0,3,6,3200
14,1,39,0,3,6,3199
14,1,8,0,3,6,3198
14,1,9,0,3,6,3197
14,1,10,0,3,6,3196
14,1,11,0,3,6,3195
14,1,20,0,3,6,3194
14,1,21,0,3,6,3193
14,1,22,0,3,6,3192
14,1,23,0,3,6,3191
14,1,40,0,1,6,3190
14,1,41,0,1,6,3189
14,1,42,0,1,6,3188
14,1,43,0,1,6,3187
14,1,44,0,1,6,3186
3,2,44,12,0,1,6,3185
14,1,45,0,1,6,3184
3,2,45,13,0,1,6,3183
14,1,46,0,1,6,3182
3,2,46,14,0,1,6,3181
14,1,47,0,1,6,3180
3,2,47,15,0,1,6,3179
14,1,40,0,3,6,3178
14,1,41,0,3,6,3177
14,1,42,0,3,6,3176
14,1,43,0,3,6,3175
22,0,1,_AP,-1,6,3174
14,1,31,0,3,6,3173
22,0,1,_AP,-1,6,3172
14,1,30,0,3,6,3171
22,0,1,_AP,-1,6,3170
14,1,29,0,3,6,3169
22,0,1,_AP,-1,6,3168
14,1,28,0,3,6,3167
22,0,1,_AP,-1,6,3166
14,1,7,0,3,6,3165
22,0,1,_AP,-1,6,3164
14,1,6,0,3,6,3163
22,0,1,_AP,-1,6,3162
14,1,5,0,3,6,3161
22,0,1,_AP,-1,6,3160
14,1,4,0,3,6,3159
3,2,43,11,0,1,7,3158
3,2,42,10,0,1,7,3157
3,2,41,9,0,1,7,3156
3,2,40,8,0,1,7,3155
14,1,8,0,1,7,3154
3,2,8,8,0,1,7,3153
14,1,9,0,1,7,3152
3,2,9,9,0,1,7,3151
14,1,10,0,1,7,3150
3,2,10,10,0,1,7,3149
14,1,11,0,1,7,3148
3,2,11,11,0,1,7,3147
14,1,12,0,1,7,3146
3,2,12,12,0,1,7,3145
14,1,13,0,1,7,3144
3,2,13,13,0,1,7,3143
14,1,14,0,1,7,3142
3,2,14,14,0,1,7,3141
14,1,15,0,1,7,3140
3,2,15,15,0,1,7,3139
14,1,16,0,1,7,3138
3,2,16,0,0,1,7,3137
14,1,17,0,1,7,3136
3,2,17,1,0,1,7,3135
14,1,18,0,1,7,3134
3,2,18,2,0,1,7,3133
14,1,19,0,1,7,3132
3,2,19,3,0,1,7,3131
14,1,32,0,1,7,3130
3,2,32,0,0,1,7,3129
14,1,33,0,1,7,3128
3,2,33,1,0,1,7,3127
14,1,34,0,1,7,3126
3,2,34,2,0,1,7,3125
14,1,35,0,1,7,3124
3,2,35,3,0,1,7,3123
14,1,48,0,1,7,3122
3,2,48,0,0,1,7,3121
14,1,49,0,1,7,3120
3,2,49,1,0,1,7,3119
14,1,50,0,1,7,3118
3,2,50,2,0,1,7,3117
14,1,4,0,1,8,3116
3,2,4,4,0,1,8,3115
14,1,5,0,1,8,3114
3,2,5,5,0,1,8,3113
14,1,6,0,1,8,3112
3,2,6,6,0,1,8,3111
14,1,7,0,1,8,3110
3,2,7,7,0,1,8,3109
14,1,24,0,1,8,3108
3,2,24,8,0,1,8,3107
14,1,25,0,1,8,3106
3,2,25,9,0,1,8,3105
14,1,26,0,1,8,3104
3,2,26,10,0,1,8,3103
14,1,27,0,1,8,3102
3,2,27,11,0,1,8,3101
14,1,28,0,1,8,3100
3,2,28,12,0,1,8,3099
14,1,29,0,1,8,3098
3,2,29,13,0,1,8,3097
14,1,30,0,1,8,3096
3,2,30,14,0,1,8,3095
14,1,31,0,1,8,3094
3,2,31,15,0,1,8,3093
4,1,0,1,temp2BUF,-1,8,3092
5,1,20,0,2,8,3091
5,1,21,0,2,8,3090
5,1,22,0,2,8,3089
5,1,23,0,2,8,3088
5,1,36,0,2,8,3087
5,1,37,0,2,8,3086
5,1,38,0,2,8,3085
5,1,39,0,2,8,3084
5,1,44,0,2,8,3083
5,1,45,0,2,8,3082
5,1,46,0,2,8,3081
5,1,47,0,2,8,3080
5,1,48,0,2,8,3079
5,1,49,0,2,8,3078
5,1,50,0,2,8,3077
5,1,0,0,2,9,3076
5,1,1,0,2,9,3075
5,1,2,0,2,9,3074
5,1,3,0,2,9,3073
5,1,8,0,2,9,3072
9,1,8,0,2,9,3071
3,2,8,8,0,2,9,3070
5,1,9,0,2,9,3069
9,1,9,0,2,9,3068
3,2,9,9,0,2,9,3067
5,1,10,0,2,9,3066
9,1,10,0,2,9,3065
3,2,10,10,0,2,9,3064
5,1,11,0,2,9,3063
9,1,11,0,2,9,3062
3,2,11,11,0,2,9,3061
5,1,24,0,2,9,3060
5,1,25,0,2,9,3059
5,1,26,0,2,9,3058
5,1,27,0,2,9,3057
5,1,28,0,2,9,3056
9,1,28,0,2,9,3055
3,2,28,12,0,2,9,3054
5,1,29,0,2,9,3053
9,1,29,0,2,9,3052
3,2,29,13,0,2,9,3051
5,1,30,0,2,9,3050
9,1,30,0,2,9,3049
3,2,30,14,0,2,9,3048
5,1,31,0,2,9,3047
9,1,31,0,2,9,3046
3,2,31,15,0,2,9,3045
5,1,32,0,2,9,3044
9,1,32,0,2,9,3043
3,2,32,0,0,2,9,3042
5,1,33,0,2,9,3041
9,1,33,0,2,9,3040
3,2,33,1,0,2,9,3039
5,1,34,0,2,9,3038
9,1,34,0,2,9,3037
3,2,34,2,0,2,9,3036
5,1,35,0,2,9,3035
9,1,35,0,2,9,3034
3,2,35,3,0,2,9,3033
9,1,50,0,2,11,3032
3,2,50,2,0,2,11,3031
9,1,49,0,2,11,3030
3,2,49,1,0,2,11,3029
9,1,48,0,2,11,3028
3,2,48,0,0,2,11,3027
9,1,47,0,2,11,3026
3,2,47,15,0,2,11,3025
9,1,46,0,2,11,3024
3,2,46,14,0,2,11,3023
9,1,45,0,2,11,3022
3,2,45,13,0,2,11,3021
9,1,44,0,2,11,3020
3,2,44,12,0,2,11,3019
9,1,23,0,2,11,3018
9,1,22,0,2,11,3017
9,1,21,0,2,11,3016
9,1,20,0,2,11,3015
14,1,4,0,2,11,3014
3,2,4,4,0,3,11,3013
14,1,5,0,2,11,3012
3,2,5,5,0,3,11,3011
14,1,6,0,2,11,3010
3,2,6,6,0,3,11,3009
14,1,7,0,2,11,3008
3,2,7,7,0,3,11,3007
14,1,8,0,2,11,3006
3,2,8,8,0,3,11,3005
14,1,9,0,2,11,3004
3,2,9,9,0,3,11,3003
14,1,10,0,2,11,3002
3,2,10,10,0,3,11,3001
14,1,11,0,2,11,3000
3,2,11,11,0,3,11,2999
14,1,12,0,2,11,2998
3,2,12,12,0,3,11,2997
14,1,13,0,2,11,2996
3,2,13,13,0,3,11,2995
14,1,14,0,2,11,2994
3,2,14,14,0,3,11,2993
14,1,15,0,2,11,2992
3,2,15,15,0,3,11,2991
14,1,20,0,2,11,2990
3,2,20,4,0,3,11,2989
14,1,21,0,2,11,2988
3,2,21,5,0,3,11,2987
14,1,22,0,2,11,2986
3,2,22,6,0,3,11,2985
14,1,23,0,2,11,2984
3,2,23,7,0,3,11,2983
14,1,24,0,2,11,2982
3,2,24,8,0,3,11,2981
14,1,25,0,2,11,2980
3,2,25,9,0,3,11,2979
14,1,26,0,2,11,2978
3,2,26,10,0,3,11,2977
14,1,27,0,2,11,2976
3,2,27,11,0,3,11,2975
14,1,28,0,2,11,2974
3,2,28,12,0,3,11,2973
14,1,29,0,2,11,2972
3,2,29,13,0,3,11,2971
14,1,30,0,2,11,2970
3,2,30,14,0,3,11,2969
14,1,31,0,2,11,2968
3,2,31,15,0,3,11,2967
14,1,36,0,2,11,2966
3,2,36,4,0,3,11,2965
14,1,37,0,2,11,2964
3,2,37,5,0,3,11,2963
14,1,38,0,2,11,2962
3,2,38,6,0,3,11,2961
14,1,39,0,2,11,2960
3,2,39,7,0,3,11,2959
14,1,40,0,2,11,2958
3,2,40,8,0,3,11,2957
14,1,41,0,2,11,2956
3,2,41,9,0,3,11,2955
14,1,42,0,2,11,2954
3,2,42,10,0,3,11,2953
14,1,43,0,2,11,2952
3,2,43,11,0,3,11,2951
14,1,48,0,2,11,2950
3,2,48,0,0,3,11,2949
14,1,49,0,2,11,2948
3,2,49,1,0,3,11,2947
14,1,50,0,2,11,2946
3,2,50,2,0,3,11,2945
9,1,27,0,2,10,2944
3,2,27,11,0,2,10,2943
9,1,26,0,2,10,2942
3,2,26,10,0,2,10,2941
9,1,25,0,2,10,2940
3,2,25,9,0,2,10,2939
9,1,24,0,2,10,2938
3,2,24,8,0,2,10,2937
5,1,4,0,2,10,2936
9,1,4,0,2,10,2935
3,2,4,4,0,2,10,2934
5,1,5,0,2,10,2933
9,1,5,0,2,10,2932
3,2,5,5,0,2,10,2931
5,1,6,0,2,10,2930
9,1,6,0,2,10,2929
3,2,6,6,0,2,10,2928
5,1,7,0,2,10,2927
9,1,7,0,2,10,2926
3,2,7,7,0,2,10,2925
5,1,12,0,2,10,2924
9,1,12,0,2,10,2923
3,2,12,12,0,2,10,2922
5,1,13,0,2,10,2921
9,1,13,0,2,10,2920
3,2,13,13,0,2,10,2919
5,1,14,0,2,10,2918
9,1,14,0,2,10,2917
3,2,14,14,0,2,10,2916
5,1,15,0,2,10,2915
9,1,15,0,2,10,2914
3,2,15,15,0,2,10,2913
5,1,16,0,2,10,2912
9,1,16,0,2,10,2911
3,2,16,0,0,2,10,2910
5,1,17,0,2,10,2909
9,1,17,0,2,10,2908
3,2,17,1,0,2,10,2907
5,1,18,0,2,10,2906
9,1,18,0,2,10,2905
3,2,18,2,0,2,10,2904
5,1,19,0,2,10,2903
9,1,19,0,2,10,2902
3,2,19,3,0,2,10,2901
5,1,40,0,2,10,2900
5,1,41,0,2,10,2899
5,1,42,0,2,10,2898
5,1,43,0,2,10,2897
9,1,43,0,2,12,2896
3,2,43,11,0,2,12,2895
9,1,42,0,2,12,2894
3,2,42,10,0,2,12,2893
9,1,41,0,2,12,2892
3,2,41,9,0,2,12,2891
9,1,40,0,2,12,2890
3,2,40,8,0,2,12,2889
3,2,20,4,0,2,12,2888
3,2,21,5,0,2,12,2887
3,2,22,6,0,2,12,2886
3,2,23,7,0,2,12,2885
9,1,3,0,2,12,2884
3,2,3,3,0,2,12,2883
9,1,2,0,2,12,2882
3,2,2,2,0,2,12,2881
9,1,1,0,2,12,2880
3,2,1,1,0,2,12,2879
9,1,0,0,2,12,2878
3,2,0,0,0,2,12,2877
9,1,39,0,2,12,2876
3,2,39,7,0,2,12,2875
9,1,38,0,2,12,2874
3,2,38,6,0,2,12,2873
9,1,37,0,2,12,2872
3,2,37,5,0,2,12,2871
9,1,36,0,2,12,2870
3,2,36,4,0,2,12,2869
4,1,0,1,RBRBUF,-1,12,2868
17,0,1,RBR,-1,12,2867
18,0,1,RBR,-1,12,2866
5,1,0,0,3,12,2865
5,1,1,0,3,12,2864
5,1,2,0,3,12,2863
5,1,3,0,3,12,2862
5,1,20,0,3,12,2861
5,1,21,0,3,12,2860
5,1,22,0,3,12,2859
5,1,23,0,3,12,2858
5,1,36,0,3,12,2857
5,1,37,0,3,12,2856
5,1,38,0,3,12,2855
5,1,39,0,3,12,2854
5,1,40,0,3,12,2853
5,1,41,0,3,12,2852
5,1,42,0,3,12,2851
5,1,43,0,3,12,2850
5,1,44,0,3,12,2849
5,1,45,0,3,12,2848
5,1,46,0,3,12,2847
5,1,47,0,3,12,2846
5,1,48,0,3,12,2845
5,1,49,0,3,12,2844
5,1,50,0,3,12,2843
14,1,0,0,2,12,2842
3,2,0,0,0,3,12,2841
14,1,1,0,2,12,2840
3,2,1,1,0,3,12,2839
14,1,2,0,2,12,2838
3,2,2,2,0,3,12,2837
14,1,3,0,2,12,2836
3,2,3,3,0,3,12,2835
14,1,16,0,2,12,2834
3,2,16,0,0,3,12,2833
14,1,17,0,2,12,2832
3,2,17,1,0,3,12,2831
14,1,18,0,2,12,2830
3,2,18,2,0,3,12,2829
14,1,19,0,2,12,2828
3,2,19,3,0,3,12,2827
14,1,32,0,2,12,2826
3,2,32,0,0,3,12,2825
14,1,33,0,2,12,2824
3,2,33,1,0,3,12,2823
14,1,34,0,2,12,2822
3,2,34,2,0,3,12,2821
14,1,35,0,2,12,2820
3,2,35,3,0,3,12,2819
14,1,44,0,2,13,2818
3,2,44,12,0,3,13,2817
14,1,45,0,2,13,2816
3,2,45,13,0,3,13,2815
14,1,46,0,2,13,2814
3,2,46,14,0,3,13,2813
14,1,47,0,2,13,2812
3,2,47,15,0,3,13,2811
4,1,0,1,PBPBUF,-1,13,2810
17,0,1,PBP,-1,13,2809
18,0,1,PBP,-1,13,2808
5,1,0,0,4,13,2807
5,1,1,0,4,13,2806
5,1,2,0,4,13,2805
5,1,3,0,4,13,2804
5,1,8,0,4,13,2803
5,1,9,0,4,13,2802
5,1,10,0,4,13,2801
5,1,11,0,4,13,2800
5,1,16,0,4,13,2799
5,1,17,0,4,13,2798
5,1,18,0,4,13,2797
5,1,19,0,4,13,2796
5,1,20,0,4,13,2795
5,1,21,0,4,13,2794
5,1,22,0,4,13,2793
5,1,23,0,4,13,2792
5,1,24,0,4,13,2791
5,1,25,0,4,13,2790
5,1,26,0,4,13,2789
5,1,27,0,4,13,2788
5,1,44,0,4,13,2787
5,1,45,0,4,13,2786
5,1,46,0,4,13,2785
5,1,47,0,4,13,2784
5,1,32,0,4,15,2783
5,1,33,0,4,15,2782
5,1,34,0,4,15,2781
5,1,35,0,4,15,2780
5,1,36,0,4,15,2779
5,1,37,0,4,15,2778
5,1,38,0,4,15,2777
5,1,39,0,4,15,2776
5,1,40,0,4,15,2775
5,1,41,0,4,15,2774
5,1,42,0,4,15,2773
5,1,43,0,4,15,2772
5,1,4,0,5,15,2771
5,1,5,0,5,15,2770
5,1,6,0,5,15,2769
5,1,7,0,5,15,2768
5,1,8,0,5,15,2767
5,1,9,0,5,15,2766
5,1,10,0,5,15,2765
5,1,11,0,5,15,2764
5,1,12,0,5,15,2763
5,1,13,0,5,15,2762
5,1,14,0,5,15,2761
5,1,15,0,5,15,2760
5,1,24,0,5,15,2759
7,1,24,0,3,15,2758
8,1,24,0,3,15,2757
5,1,25,0,5,15,2756
7,1,25,0,3,15,2755
8,1,25,0,3,15,2754
5,1,26,0,5,15,2753
7,1,26,0,3,15,2752
8,1,26,0,3,15,2751
5,1,27,0,5,15,2750
7,1,27,0,3,15,2749
8,1,27,0,3,15,2748
5,1,40,0,5,15,2747
5,1,41,0,5,15,2746
5,1,42,0,5,15,2745
5,1,43,0,5,15,2744
5,1,48,0,5,15,2743
5,1,49,0,5,15,2742
5,1,50,0,5,15,2741
5,1,48,0,4,16,2740
5,1,49,0,4,16,2739
5,1,50,0,4,16,2738
5,1,0,0,5,16,2737
5,1,1,0,5,16,2736
5,1,2,0,5,16,2735
5,1,3,0,5,16,2734
5,1,16,0,5,16,2733
5,1,17,0,5,16,2732
5,1,18,0,5,16,2731
5,1,19,0,5,16,2730
5,1,20,0,5,16,2729
7,1,20,0,3,16,2728
8,1,20,0,3,16,2727
5,1,21,0,5,16,2726
7,1,21,0,3,16,2725
8,1,21,0,3,16,2724
5,1,22,0,5,16,2723
7,1,22,0,3,16,2722
8,1,22,0,3,16,2721
5,1,23,0,5,16,2720
7,1,23,0,3,16,2719
8,1,23,0,3,16,2718
5,1,28,0,5,16,2717
5,1,29,0,5,16,2716
5,1,30,0,5,16,2715
5,1,31,0,5,16,2714
5,1,32,0,5,16,2713
5,1,33,0,5,16,2712
5,1,34,0,5,16,2711
5,1,35,0,5,16,2710
5,1,44,0,5,16,2709
7,1,44,0,3,16,2708
8,1,44,0,3,16,2707
5,1,45,0,5,16,2706
7,1,45,0,3,16,2705
8,1,45,0,3,16,2704
5,1,46,0,5,16,2703
7,1,46,0,3,16,2702
8,1,46,0,3,16,2701
5,1,47,0,5,16,2700
7,1,47,0,3,16,2699
8,1,47,0,3,16,2698
5,1,4,0,4,14,2697
5,1,5,0,4,14,2696
5,1,6,0,4,14,2695
5,1,7,0,4,14,2694
5,1,12,0,4,14,2693
5,1,13,0,4,14,2692
5,1,14,0,4,14,2691
5,1,15,0,4,14,2690
5,1,28,0,4,14,2689
5,1,29,0,4,14,2688
5,1,30,0,4,14,2687
5,1,31,0,4,14,2686
5,1,36,0,5,14,2685
5,1,37,0,5,14,2684
5,1,38,0,5,14,2683
5,1,39,0,5,14,2682
5,1,4,0,3,14,2681
5,1,5,0,3,14,2680
5,1,6,0,3,14,2679
5,1,7,0,3,14,2678
5,1,8,0,3,14,2677
5,1,9,0,3,14,2676
5,1,10,0,3,14,2675
5,1,11,0,3,14,2674
5,1,12,0,3,14,2673
5,1,13,0,3,14,2672
5,1,14,0,3,14,2671
5,1,15,0,3,14,2670
5,1,16,0,3,14,2669
5,1,17,0,3,14,2668
5,1,18,0,3,14,2667
5,1,19,0,3,14,2666
5,1,24,0,3,14,2665
5,1,25,0,3,14,2664
5,1,26,0,3,14,2663
5,1,27,0,3,14,2662
5,1,28,0,3,14,2661
5,1,29,0,3,14,2660
5,1,30,0,3,14,2659
5,1,31,0,3,14,2658
5,1,32,0,3,14,2657
5,1,33,0,3,14,2656
5,1,34,0,3,14,2655
5,1,35,0,3,14,2654
7,1,15,0,2,17,2653
8,1,15,0,2,17,2652
7,1,14,0,2,17,2651
8,1,14,0,2,17,2650
7,1,13,0,2,17,2649
8,1,13,0,2,17,2648
7,1,12,0,2,17,2647
8,1,12,0,2,17,2646
7,1,35,0,3,17,2645
7,1,34,0,3,17,2644
7,1,33,0,3,17,2643
7,1,32,0,3,17,2642
7,1,19,0,3,17,2641
8,1,19,0,3,17,2640
7,1,18,0,3,17,2639
8,1,18,0,3,17,2638
7,1,17,0,3,17,2637
8,1,17,0,3,17,2636
7,1,16,0,3,17,2635
8,1,16,0,3,17,2634
7,1,43,0,3,17,2633
7,1,42,0,3,17,2632
7,1,41,0,3,17,2631
7,1,40,0,3,17,2630
7,1,43,0,2,17,2629
3,2,43,11,0,8,17,2628
3,2,43,11,0,9,17,2627
7,1,42,0,2,17,2626
3,2,42,10,0,8,17,2625
3,2,42,10,0,9,17,2624
7,1,41,0,2,17,2623
3,2,41,9,0,8,17,2622
3,2,41,9,0,9,17,2621
7,1,40,0,2,17,2620
3,2,40,8,0,8,17,2619
3,2,40,8,0,9,17,2618
7,1,19,0,2,17,2617
3,2,19,3,0,6,17,2616
7,1,18,0,2,17,2615
3,2,18,2,0,6,17,2614
7,1,17,0,2,17,2613
3,2,17,1,0,6,17,2612
7,1,16,0,2,17,2611
3,2,16,0,0,6,17,2610
3,2,16,0,0,9,19,2609
3,2,17,1,0,9,19,2608
3,2,18,2,0,9,19,2607
3,2,19,3,0,9,19,2606
8,1,40,0,2,19,2605
8,1,41,0,2,19,2604
8,1,42,0,2,19,2603
8,1,43,0,2,19,2602
7,1,39,0,3,19,2601
8,1,39,0,3,19,2600
7,1,38,0,3,19,2599
8,1,38,0,3,19,2598
7,1,37,0,3,19,2597
8,1,37,0,3,19,2596
7,1,36,0,3,19,2595
8,1,36,0,3,19,2594
7,1,7,0,2,19,2593
3,2,7,7,0,6,19,2592
3,2,7,7,0,9,19,2591
7,1,6,0,2,19,2590
3,2,6,6,0,6,19,2589
3,2,6,6,0,9,19,2588
7,1,5,0,2,19,2587
3,2,5,5,0,6,19,2586
3,2,5,5,0,9,19,2585
7,1,4,0,2,19,2584
3,2,4,4,0,6,19,2583
3,2,4,4,0,9,19,2582
7,1,23,0,2,19,2581
8,1,23,0,2,19,2580
3,2,23,7,0,6,19,2579
3,2,23,7,0,8,19,2578
7,1,22,0,2,19,2577
8,1,22,0,2,19,2576
3,2,22,6,0,6,19,2575
3,2,22,6,0,8,19,2574
7,1,21,0,2,19,2573
8,1,21,0,2,19,2572
3,2,21,5,0,6,19,2571
3,2,21,5,0,8,19,2570
7,1,20,0,2,19,2569
8,1,20,0,2,19,2568
3,2,20,4,0,6,19,2567
3,2,20,4,0,8,19,2566
8,1,40,0,3,18,2565
8,1,41,0,3,18,2564
8,1,42,0,3,18,2563
8,1,43,0,3,18,2562
7,1,35,0,2,18,2561
3,2,35,3,0,8,18,2560
3,2,35,3,0,9,18,2559
7,1,34,0,2,18,2558
3,2,34,2,0,8,18,2557
3,2,34,2,0,9,18,2556
7,1,33,0,2,18,2555
3,2,33,1,0,8,18,2554
3,2,33,1,0,9,18,2553
7,1,32,0,2,18,2552
3,2,32,0,0,8,18,2551
3,2,32,0,0,9,18,2550
7,1,47,0,2,18,2549
8,1,47,0,2,18,2548
3,2,47,15,0,8,18,2547
7,1,46,0,2,18,2546
8,1,46,0,2,18,2545
3,2,46,14,0,8,18,2544
7,1,45,0,2,18,2543
8,1,45,0,2,18,2542
3,2,45,13,0,8,18,2541
7,1,44,0,2,18,2540
8,1,44,0,2,18,2539
3,2,44,12,0,8,18,2538
7,1,27,0,2,18,2537
8,1,27,0,2,18,2536
3,2,27,11,0,6,18,2535
3,2,27,11,0,8,18,2534
3,2,27,11,0,9,18,2533
7,1,26,0,2,18,2532
8,1,26,0,2,18,2531
3,2,26,10,0,6,18,2530
3,2,26,10,0,8,18,2529
3,2,26,10,0,9,18,2528
7,1,25,0,2,18,2527
8,1,25,0,2,18,2526
3,2,25,9,0,6,18,2525
3,2,25,9,0,8,18,2524
3,2,25,9,0,9,18,2523
7,1,24,0,2,18,2522
8,1,24,0,2,18,2521
3,2,24,8,0,6,18,2520
3,2,24,8,0,8,18,2519
3,2,24,8,0,9,18,2518
3,2,44,12,0,9,20,2517
3,2,45,13,0,9,20,2516
3,2,46,14,0,9,20,2515
3,2,47,15,0,9,20,2514
3,2,12,12,0,9,20,2513
3,2,13,13,0,9,20,2512
3,2,14,14,0,9,20,2511
3,2,15,15,0,9,20,2510
7,1,31,0,2,20,2509
8,1,31,0,2,20,2508
3,2,31,15,0,6,20,2507
3,2,31,15,0,9,20,2506
7,1,30,0,2,20,2505
8,1,30,0,2,20,2504
3,2,30,14,0,6,20,2503
3,2,30,14,0,9,20,2502
7,1,29,0,2,20,2501
8,1,29,0,2,20,2500
3,2,29,13,0,6,20,2499
3,2,29,13,0,9,20,2498
7,1,28,0,2,20,2497
8,1,28,0,2,20,2496
3,2,28,12,0,6,20,2495
3,2,28,12,0,9,20,2494
7,1,31,0,3,20,2493
8,1,31,0,3,20,2492
7,1,30,0,3,20,2491
8,1,30,0,3,20,2490
7,1,29,0,3,20,2489
8,1,29,0,3,20,2488
7,1,28,0,3,20,2487
8,1,28,0,3,20,2486
7,1,15,0,3,20,2485
8,1,15,0,3,20,2484
3,2,15,15,0,8,20,2483
7,1,14,0,3,20,2482
8,1,14,0,3,20,2481
3,2,14,14,0,8,20,2480
7,1,13,0,3,20,2479
8,1,13,0,3,20,2478
3,2,13,13,0,8,20,2477
7,1,12,0,3,20,2476
8,1,12,0,3,20,2475
3,2,12,12,0,8,20,2474
3,2,28,12,0,8,21,2473
3,2,29,13,0,8,21,2472
3,2,30,14,0,8,21,2471
3,2,31,15,0,8,21,2470
8,1,32,0,2,21,2469
8,1,33,0,2,21,2468
8,1,34,0,2,21,2467
8,1,35,0,2,21,2466
8,1,4,0,2,21,2465
8,1,5,0,2,21,2464
8,1,6,0,2,21,2463
8,1,7,0,2,21,2462
8,1,32,0,3,21,2461
8,1,33,0,3,21,2460
8,1,34,0,3,21,2459
8,1,35,0,3,21,2458
3,2,12,12,0,6,21,2457
3,2,13,13,0,6,21,2456
3,2,14,14,0,6,21,2455
3,2,15,15,0,6,21,2454
7,1,50,0,2,21,2453
8,1,50,0,2,21,2452
3,2,50,2,0,6,21,2451
3,2,50,2,0,9,21,2450
7,1,49,0,2,21,2449
8,1,49,0,2,21,2448
3,2,49,1,0,6,21,2447
3,2,49,1,0,9,21,2446
7,1,48,0,2,21,2445
8,1,48,0,2,21,2444
3,2,48,0,0,6,21,2443
3,2,48,0,0,9,21,2442
7,1,50,0,3,21,2441
8,1,50,0,3,21,2440
3,2,50,2,0,8,21,2439
7,1,49,0,3,21,2438
8,1,49,0,3,21,2437
3,2,49,1,0,8,21,2436
7,1,48,0,3,21,2435
8,1,48,0,3,21,2434
3,2,48,0,0,8,21,2433
7,1,7,0,3,21,2432
8,1,7,0,3,21,2431
3,2,7,7,0,8,21,2430
7,1,6,0,3,21,2429
8,1,6,0,3,21,2428
3,2,6,6,0,8,21,2427
7,1,5,0,3,21,2426
8,1,5,0,3,21,2425
3,2,5,5,0,8,21,2424
7,1,4,0,3,21,2423
8,1,4,0,3,21,2422
3,2,4,4,0,8,21,2421
7,1,11,0,2,21,2420
8,1,11,0,2,21,2419
3,2,11,11,0,9,21,2418
7,1,10,0,2,21,2417
8,1,10,0,2,21,2416
3,2,10,10,0,9,21,2415
7,1,9,0,2,21,2414
8,1,9,0,2,21,2413
3,2,9,9,0,9,21,2412
7,1,8,0,2,21,2411
8,1,8,0,2,21,2410
3,2,8,8,0,9,21,2409
7,1,3,0,2,21,2408
8,1,3,0,2,21,2407
3,2,3,3,0,6,21,2406
3,2,3,3,0,9,21,2405
7,1,2,0,2,21,2404
8,1,2,0,2,21,2403
3,2,2,2,0,6,21,2402
3,2,2,2,0,9,21,2401
7,1,1,0,2,21,2400
8,1,1,0,2,21,2399
3,2,1,1,0,6,21,2398
3,2,1,1,0,9,21,2397
7,1,0,0,2,21,2396
8,1,0,0,2,21,2395
3,2,0,0,0,6,21,2394
3,2,0,0,0,9,21,2393
7,1,19,0,1,23,2392
8,1,19,0,1,23,2391
7,1,18,0,1,23,2390
8,1,18,0,1,23,2389
7,1,17,0,1,23,2388
8,1,17,0,1,23,2387
7,1,16,0,1,23,2386
8,1,16,0,1,23,2385
7,1,50,0,1,23,2384
3,2,50,2,0,4,23,2383
7,1,49,0,1,23,2382
3,2,49,1,0,4,23,2381
7,1,48,0,1,23,2380
3,2,48,0,0,4,23,2379
7,1,47,0,1,23,2378
3,2,47,15,0,4,23,2377
3,2,47,15,0,10,23,2376
7,1,46,0,1,23,2375
3,2,46,14,0,4,23,2374
3,2,46,14,0,10,23,2373
7,1,45,0,1,23,2372
3,2,45,13,0,4,23,2371
3,2,45,13,0,10,23,2370
7,1,44,0,1,23,2369
3,2,44,12,0,4,23,2368
3,2,44,12,0,10,23,2367
7,1,3,0,1,23,2366
3,2,3,3,0,10,23,2365
7,1,2,0,1,23,2364
3,2,2,2,0,10,23,2363
7,1,1,0,1,23,2362
3,2,1,1,0,10,23,2361
7,1,0,0,1,23,2360
3,2,0,0,0,10,23,2359
19,1,47,0,1,23,2358
2,3,47,16,0,0,-1,23,2357
2,3,47,17,0,0,-1,23,2356
2,3,47,18,0,0,-1,23,2355
2,3,47,19,0,0,-1,23,2354
2,3,47,48,0,0,-1,23,2353
2,3,47,49,0,0,-1,23,2352
2,3,47,50,0,0,-1,23,2351
19,1,46,0,1,23,2350
2,3,46,16,0,0,-1,23,2349
2,3,46,17,0,0,-1,23,2348
2,3,46,18,0,0,-1,23,2347
2,3,46,19,0,0,-1,23,2346
2,3,46,48,0,0,-1,23,2345
2,3,46,49,0,0,-1,23,2344
2,3,46,50,0,0,-1,23,2343
19,1,45,0,1,23,2342
2,3,45,16,0,0,-1,23,2341
2,3,45,17,0,0,-1,23,2340
2,3,45,18,0,0,-1,23,2339
2,3,45,19,0,0,-1,23,2338
2,3,45,48,0,0,-1,23,2337
2,3,45,49,0,0,-1,23,2336
2,3,45,50,0,0,-1,23,2335
19,1,44,0,1,23,2334
2,3,44,16,0,0,-1,23,2333
2,3,44,17,0,0,-1,23,2332
2,3,44,18,0,0,-1,23,2331
2,3,44,19,0,0,-1,23,2330
2,3,44,48,0,0,-1,23,2329
2,3,44,49,0,0,-1,23,2328
2,3,44,50,0,0,-1,23,2327
19,1,43,0,1,23,2326
2,3,43,44,0,0,-1,23,2325
2,3,43,45,0,0,-1,23,2324
2,3,43,46,0,0,-1,23,2323
2,3,43,47,0,0,-1,23,2322
2,3,43,48,0,0,-1,23,2321
2,3,43,49,0,0,-1,23,2320
2,3,43,50,0,0,-1,23,2319
19,1,42,0,1,23,2318
2,3,42,44,0,0,-1,23,2317
2,3,42,45,0,0,-1,23,2316
2,3,42,46,0,0,-1,23,2315
2,3,42,47,0,0,-1,23,2314
2,3,42,48,0,0,-1,23,2313
2,3,42,49,0,0,-1,23,2312
2,3,42,50,0,0,-1,23,2311
19,1,41,0,1,23,2310
2,3,41,44,0,0,-1,23,2309
2,3,41,45,0,0,-1,23,2308
2,3,41,46,0,0,-1,23,2307
2,3,41,47,0,0,-1,23,2306
2,3,41,48,0,0,-1,23,2305
2,3,41,49,0,0,-1,23,2304
2,3,41,50,0,0,-1,23,2303
19,1,40,0,1,23,2302
2,3,40,44,0,0,-1,23,2301
2,3,40,45,0,0,-1,23,2300
2,3,40,46,0,0,-1,23,2299
2,3,40,47,0,0,-1,23,2298
2,3,40,48,0,0,-1,23,2297
2,3,40,49,0,0,-1,23,2296
2,3,40,50,0,0,-1,23,2295
19,1,31,0,1,23,2294
2,3,31,44,0,0,-1,23,2293
2,3,31,45,0,0,-1,23,2292
2,3,31,46,0,0,-1,23,2291
2,3,31,47,0,0,-1,23,2290
2,3,31,48,0,0,-1,23,2289
2,3,31,49,0,0,-1,23,2288
2,3,31,50,0,0,-1,23,2287
19,1,30,0,1,23,2286
2,3,30,44,0,0,-1,23,2285
2,3,30,45,0,0,-1,23,2284
2,3,30,46,0,0,-1,23,2283
2,3,30,47,0,0,-1,23,2282
2,3,30,48,0,0,-1,23,2281
2,3,30,49,0,0,-1,23,2280
2,3,30,50,0,0,-1,23,2279
19,1,29,0,1,23,2278
2,3,29,44,0,0,-1,23,2277
2,3,29,45,0,0,-1,23,2276
2,3,29,46,0,0,-1,23,2275
2,3,29,47,0,0,-1,23,2274
2,3,29,48,0,0,-1,23,2273
2,3,29,49,0,0,-1,23,2272
2,3,29,50,0,0,-1,23,2271
19,1,28,0,1,23,2270
2,3,28,44,0,0,-1,23,2269
2,3,28,45,0,0,-1,23,2268
2,3,28,46,0,0,-1,23,2267
2,3,28,47,0,0,-1,23,2266
2,3,28,48,0,0,-1,23,2265
2,3,28,49,0,0,-1,23,2264
2,3,28,50,0,0,-1,23,2263
19,1,23,0,1,23,2262
2,3,23,44,0,0,-1,23,2261
2,3,23,45,0,0,-1,23,2260
2,3,23,46,0,0,-1,23,2259
2,3,23,47,0,0,-1,23,2258
2,3,23,48,0,0,-1,23,2257
2,3,23,49,0,0,-1,23,2256
2,3,23,50,0,0,-1,23,2255
19,1,22,0,1,23,2254
2,3,22,44,0,0,-1,23,2253
2,3,22,45,0,0,-1,23,2252
2,3,22,46,0,0,-1,23,2251
2,3,22,47,0,0,-1,23,2250
2,3,22,48,0,0,-1,23,2249
2,3,22,49,0,0,-1,23,2248
2,3,22,50,0,0,-1,23,2247
19,1,21,0,1,23,2246
2,3,21,44,0,0,-1,23,2245
2,3,21,45,0,0,-1,23,2244
2,3,21,46,0,0,-1,23,2243
2,3,21,47,0,0,-1,23,2242
2,3,21,48,0,0,-1,23,2241
2,3,21,49,0,0,-1,23,2240
2,3,21,50,0,0,-1,23,2239
19,1,20,0,1,23,2238
2,3,20,44,0,0,-1,23,2237
2,3,20,45,0,0,-1,23,2236
2,3,20,47,0,0,-1,23,2235
2,3,20,49,0,0,-1,23,2234
19,1,19,0,1,23,2233
2,3,19,18,0,0,-1,23,2232
2,3,19,19,0,0,-1,23,2231
2,3,19,50,0,0,-1,23,2230
19,1,18,0,1,23,2229
2,3,18,16,0,0,-1,23,2228
2,3,18,17,0,0,-1,23,2227
2,3,18,18,0,0,-1,23,2226
2,3,18,19,0,0,-1,23,2225
2,3,18,48,0,0,-1,23,2224
2,3,18,49,0,0,-1,23,2223
2,3,18,50,0,0,-1,23,2222
19,1,17,0,1,23,2221
2,3,17,16,0,0,-1,23,2220
2,3,17,17,0,0,-1,23,2219
2,3,17,18,0,0,-1,23,2218
2,3,17,48,0,0,-1,23,2217
2,3,17,49,0,0,-1,23,2216
2,3,17,50,0,0,-1,23,2215
19,1,16,0,1,23,2214
2,3,16,16,0,0,-1,23,2213
2,3,16,17,0,0,-1,23,2212
2,3,16,18,0,0,-1,23,2211
2,3,16,48,0,0,-1,23,2210
2,3,16,49,0,0,-1,23,2209
2,3,16,50,0,0,-1,23,2208
3,2,8,8,0,6,22,2207
3,2,9,9,0,6,22,2206
3,2,10,10,0,6,22,2205
3,2,11,11,0,6,22,2204
3,2,44,12,0,6,22,2203
3,2,45,13,0,6,22,2202
3,2,46,14,0,6,22,2201
3,2,47,15,0,6,22,2200
3,2,32,0,0,6,22,2199
3,2,33,1,0,6,22,2198
3,2,34,2,0,6,22,2197
3,2,35,3,0,6,22,2196
3,2,20,4,0,9,22,2195
3,2,21,5,0,9,22,2194
3,2,22,6,0,9,22,2193
3,2,23,7,0,9,22,2192
8,1,16,0,2,22,2191
3,2,16,0,0,8,22,2190
8,1,17,0,2,22,2189
3,2,17,1,0,8,22,2188
8,1,18,0,2,22,2187
3,2,18,2,0,8,22,2186
8,1,19,0,2,22,2185
3,2,19,3,0,8,22,2184
3,2,40,8,0,6,22,2183
3,2,41,9,0,6,22,2182
3,2,42,10,0,6,22,2181
3,2,43,11,0,6,22,2180
7,1,3,0,3,22,2179
8,1,3,0,3,22,2178
3,2,3,3,0,8,22,2177
7,1,2,0,3,22,2176
8,1,2,0,3,22,2175
3,2,2,2,0,8,22,2174
7,1,1,0,3,22,2173
8,1,1,0,3,22,2172
3,2,1,1,0,8,22,2171
7,1,0,0,3,22,2170
8,1,0,0,3,22,2169
3,2,0,0,0,8,22,2168
7,1,11,0,3,22,2167
8,1,11,0,3,22,2166
3,2,11,11,0,8,22,2165
7,1,10,0,3,22,2164
8,1,10,0,3,22,2163
3,2,10,10,0,8,22,2162
7,1,9,0,3,22,2161
8,1,9,0,3,22,2160
3,2,9,9,0,8,22,2159
7,1,8,0,3,22,2158
8,1,8,0,3,22,2157
3,2,8,8,0,8,22,2156
7,1,39,0,2,22,2155
8,1,39,0,2,22,2154
3,2,39,7,0,6,22,2153
3,2,39,7,0,8,22,2152
3,2,39,7,0,9,22,2151
7,1,38,0,2,22,2150
8,1,38,0,2,22,2149
3,2,38,6,0,6,22,2148
3,2,38,6,0,8,22,2147
3,2,38,6,0,9,22,2146
7,1,37,0,2,22,2145
8,1,37,0,2,22,2144
3,2,37,5,0,6,22,2143
3,2,37,5,0,8,22,2142
3,2,37,5,0,9,22,2141
7,1,36,0,2,22,2140
8,1,36,0,2,22,2139
3,2,36,4,0,6,22,2138
4,1,0,1,XAPBUF,-1,22,2137
3,2,36,4,0,8,22,2136
4,1,0,1,PAPBUF,-1,22,2135
16,0,1,PAP,-1,22,2134
3,2,36,4,0,9,22,2133
4,1,0,1,XBPBUF,-1,22,2132
8,1,0,0,1,24,2131
8,1,1,0,1,24,2130
8,1,2,0,1,24,2129
8,1,3,0,1,24,2128
3,2,16,0,0,10,24,2127
3,2,17,1,0,10,24,2126
3,2,18,2,0,10,24,2125
3,2,19,3,0,10,24,2124
7,1,39,0,1,24,2123
2,3,40,39,0,0,-1,24,2122
2,3,41,39,0,0,-1,24,2121
2,3,42,39,0,0,-1,24,2120
2,3,43,39,0,0,-1,24,2119
8,1,39,0,1,24,2118
3,2,39,7,0,4,24,2117
3,2,39,7,0,10,24,2116
7,1,38,0,1,24,2115
2,3,40,38,0,0,-1,24,2114
2,3,41,38,0,0,-1,24,2113
2,3,42,38,0,0,-1,24,2112
2,3,43,38,0,0,-1,24,2111
8,1,38,0,1,24,2110
3,2,38,6,0,4,24,2109
3,2,38,6,0,10,24,2108
7,1,37,0,1,24,2107
2,3,40,37,0,0,-1,24,2106
2,3,41,37,0,0,-1,24,2105
2,3,42,37,0,0,-1,24,2104
2,3,43,37,0,0,-1,24,2103
8,1,37,0,1,24,2102
3,2,37,5,0,4,24,2101
3,2,37,5,0,10,24,2100
7,1,36,0,1,24,2099
2,3,40,36,0,0,-1,24,2098
2,3,41,36,0,0,-1,24,2097
2,3,42,36,0,0,-1,24,2096
2,3,43,36,0,0,-1,24,2095
8,1,36,0,1,24,2094
3,2,36,4,0,4,24,2093
3,2,36,4,0,10,24,2092
7,1,23,0,1,24,2091
2,3,16,23,0,0,-1,24,2090
2,3,17,23,0,0,-1,24,2089
2,3,18,23,0,0,-1,24,2088
2,3,21,23,0,0,-1,24,2087
2,3,22,23,0,0,-1,24,2086
2,3,23,23,0,0,-1,24,2085
2,3,40,23,0,0,-1,24,2084
2,3,41,23,0,0,-1,24,2083
2,3,42,23,0,0,-1,24,2082
2,3,43,23,0,0,-1,24,2081
2,3,44,23,0,0,-1,24,2080
2,3,45,23,0,0,-1,24,2079
2,3,46,23,0,0,-1,24,2078
2,3,47,23,0,0,-1,24,2077
8,1,23,0,1,24,2076
7,1,22,0,1,24,2075
2,3,16,22,0,0,-1,24,2074
2,3,18,22,0,0,-1,24,2073
2,3,21,22,0,0,-1,24,2072
2,3,22,22,0,0,-1,24,2071
2,3,23,22,0,0,-1,24,2070
2,3,40,22,0,0,-1,24,2069
2,3,41,22,0,0,-1,24,2068
2,3,42,22,0,0,-1,24,2067
2,3,43,22,0,0,-1,24,2066
2,3,44,22,0,0,-1,24,2065
2,3,45,22,0,0,-1,24,2064
2,3,46,22,0,0,-1,24,2063
2,3,47,22,0,0,-1,24,2062
8,1,22,0,1,24,2061
7,1,21,0,1,24,2060
2,3,18,21,0,0,-1,24,2059
2,3,19,21,0,0,-1,24,2058
2,3,20,21,0,0,-1,24,2057
2,3,21,21,0,0,-1,24,2056
2,3,22,21,0,0,-1,24,2055
2,3,23,21,0,0,-1,24,2054
2,3,40,21,0,0,-1,24,2053
2,3,41,21,0,0,-1,24,2052
2,3,42,21,0,0,-1,24,2051
2,3,43,21,0,0,-1,24,2050
2,3,44,21,0,0,-1,24,2049
2,3,45,21,0,0,-1,24,2048
2,3,46,21,0,0,-1,24,2047
2,3,47,21,0,0,-1,24,2046
8,1,21,0,1,24,2045
7,1,20,0,1,24,2044
2,3,18,20,0,0,-1,24,2043
2,3,19,20,0,0,-1,24,2042
2,3,20,20,0,0,-1,24,2041
2,3,21,20,0,0,-1,24,2040
2,3,40,20,0,0,-1,24,2039
2,3,41,20,0,0,-1,24,2038
2,3,42,20,0,0,-1,24,2037
2,3,44,20,0,0,-1,24,2036
2,3,45,20,0,0,-1,24,2035
2,3,47,20,0,0,-1,24,2034
8,1,20,0,1,24,2033
19,1,35,0,1,24,2032
2,3,35,21,0,0,-1,24,2031
2,3,35,22,0,0,-1,24,2030
2,3,35,23,0,0,-1,24,2029
2,3,35,36,0,0,-1,24,2028
2,3,35,37,0,0,-1,24,2027
2,3,35,38,0,0,-1,24,2026
2,3,35,39,0,0,-1,24,2025
2,3,35,44,0,0,-1,24,2024
2,3,35,45,0,0,-1,24,2023
2,3,35,46,0,0,-1,24,2022
2,3,35,47,0,0,-1,24,2021
2,3,35,48,0,0,-1,24,2020
2,3,35,49,0,0,-1,24,2019
2,3,35,50,0,0,-1,24,2018
19,1,34,0,1,24,2017
2,3,34,21,0,0,-1,24,2016
2,3,34,22,0,0,-1,24,2015
2,3,34,23,0,0,-1,24,2014
2,3,34,36,0,0,-1,24,2013
2,3,34,37,0,0,-1,24,2012
2,3,34,38,0,0,-1,24,2011
2,3,34,39,0,0,-1,24,2010
2,3,34,44,0,0,-1,24,2009
2,3,34,45,0,0,-1,24,2008
2,3,34,46,0,0,-1,24,2007
2,3,34,47,0,0,-1,24,2006
2,3,34,48,0,0,-1,24,2005
2,3,34,49,0,0,-1,24,2004
2,3,34,50,0,0,-1,24,2003
19,1,33,0,1,24,2002
2,3,33,20,0,0,-1,24,2001
2,3,33,21,0,0,-1,24,2000
2,3,33,22,0,0,-1,24,1999
2,3,33,23,0,0,-1,24,1998
2,3,33,36,0,0,-1,24,1997
2,3,33,37,0,0,-1,24,1996
2,3,33,38,0,0,-1,24,1995
2,3,33,39,0,0,-1,24,1994
2,3,33,44,0,0,-1,24,1993
2,3,33,45,0,0,-1,24,1992
2,3,33,46,0,0,-1,24,1991
2,3,33,47,0,0,-1,24,1990
2,3,33,48,0,0,-1,24,1989
2,3,33,49,0,0,-1,24,1988
2,3,33,50,0,0,-1,24,1987
19,1,32,0,1,24,1986
2,3,32,20,0,0,-1,24,1985
2,3,32,21,0,0,-1,24,1984
2,3,32,22,0,0,-1,24,1983
2,3,32,23,0,0,-1,24,1982
2,3,32,36,0,0,-1,24,1981
2,3,32,37,0,0,-1,24,1980
2,3,32,38,0,0,-1,24,1979
2,3,32,39,0,0,-1,24,1978
2,3,32,44,0,0,-1,24,1977
2,3,32,45,0,0,-1,24,1976
2,3,32,46,0,0,-1,24,1975
2,3,32,47,0,0,-1,24,1974
2,3,32,48,0,0,-1,24,1973
2,3,32,49,0,0,-1,24,1972
2,3,32,50,0,0,-1,24,1971
19,1,15,0,1,24,1970
2,3,15,21,0,0,-1,24,1969
2,3,15,22,0,0,-1,24,1968
2,3,15,23,0,0,-1,24,1967
19,1,14,0,1,24,1966
2,3,14,20,0,0,-1,24,1965
2,3,14,21,0,0,-1,24,1964
2,3,14,23,0,0,-1,24,1963
19,1,13,0,1,24,1962
19,1,12,0,1,24,1961
19,1,7,0,1,24,1960
19,1,6,0,1,24,1959
19,1,5,0,1,24,1958
19,1,4,0,1,24,1957
19,1,3,0,1,24,1956
19,1,2,0,1,24,1955
19,1,1,0,1,24,1954
19,1,0,0,1,24,1953
2,3,0,0,0,0,-1,25,1952
2,3,0,1,0,0,-1,25,1951
2,3,1,0,0,0,-1,25,1950
2,3,1,1,0,0,-1,25,1949
2,3,1,2,0,0,-1,25,1948
2,3,2,1,0,0,-1,25,1947
2,3,2,2,0,0,-1,25,1946
2,3,2,3,0,0,-1,25,1945
2,3,3,2,0,0,-1,25,1944
2,3,3,3,0,0,-1,25,1943
3,2,20,4,0,10,25,1942
3,2,21,5,0,10,25,1941
3,2,22,6,0,10,25,1940
3,2,23,7,0,10,25,1939
3,2,48,0,0,10,25,1938
3,2,49,1,0,10,25,1937
3,2,50,2,0,10,25,1936
7,1,15,0,1,25,1935
2,3,14,15,0,0,-1,25,1934
2,3,15,15,0,0,-1,25,1933
3,2,15,15,0,10,25,1932
7,1,14,0,1,25,1931
2,3,4,14,0,0,-1,25,1930
2,3,5,14,0,0,-1,25,1929
2,3,6,14,0,0,-1,25,1928
2,3,7,14,0,0,-1,25,1927
2,3,12,14,0,0,-1,25,1926
2,3,13,14,0,0,-1,25,1925
2,3,14,14,0,0,-1,25,1924
2,3,15,14,0,0,-1,25,1923
3,2,14,14,0,10,25,1922
7,1,13,0,1,25,1921
2,3,4,13,0,0,-1,25,1920
2,3,5,13,0,0,-1,25,1919
2,3,6,13,0,0,-1,25,1918
2,3,7,13,0,0,-1,25,1917
2,3,12,13,0,0,-1,25,1916
2,3,13,13,0,0,-1,25,1915
2,3,14,13,0,0,-1,25,1914
3,2,13,13,0,10,25,1913
7,1,12,0,1,25,1912
2,3,4,12,0,0,-1,25,1911
2,3,5,12,0,0,-1,25,1910
2,3,6,12,0,0,-1,25,1909
2,3,7,12,0,0,-1,25,1908
2,3,12,12,0,0,-1,25,1907
2,3,13,12,0,0,-1,25,1906
2,3,14,12,0,0,-1,25,1905
3,2,12,12,0,10,25,1904
19,1,39,0,1,25,1903
2,3,39,36,0,0,-1,25,1902
2,3,39,37,0,0,-1,25,1901
2,3,39,38,0,0,-1,25,1900
2,3,39,39,0,0,-1,25,1899
2,3,39,44,0,0,-1,25,1898
2,3,39,45,0,0,-1,25,1897
2,3,39,46,0,0,-1,25,1896
2,3,39,47,0,0,-1,25,1895
2,3,39,48,0,0,-1,25,1894
2,3,39,49,0,0,-1,25,1893
2,3,39,50,0,0,-1,25,1892
19,1,38,0,1,25,1891
2,3,38,36,0,0,-1,25,1890
2,3,38,37,0,0,-1,25,1889
2,3,38,38,0,0,-1,25,1888
2,3,38,39,0,0,-1,25,1887
2,3,38,44,0,0,-1,25,1886
2,3,38,45,0,0,-1,25,1885
2,3,38,46,0,0,-1,25,1884
2,3,38,47,0,0,-1,25,1883
2,3,38,48,0,0,-1,25,1882
2,3,38,49,0,0,-1,25,1881
2,3,38,50,0,0,-1,25,1880
19,1,37,0,1,25,1879
2,3,37,36,0,0,-1,25,1878
2,3,37,37,0,0,-1,25,1877
2,3,37,38,0,0,-1,25,1876
2,3,37,39,0,0,-1,25,1875
2,3,37,44,0,0,-1,25,1874
2,3,37,45,0,0,-1,25,1873
2,3,37,46,0,0,-1,25,1872
2,3,37,47,0,0,-1,25,1871
2,3,37,48,0,0,-1,25,1870
2,3,37,49,0,0,-1,25,1869
2,3,37,50,0,0,-1,25,1868
19,1,36,0,1,25,1867
2,3,36,36,0,0,-1,25,1866
2,3,36,37,0,0,-1,25,1865
2,3,36,38,0,0,-1,25,1864
2,3,36,39,0,0,-1,25,1863
2,3,36,44,0,0,-1,25,1862
2,3,36,45,0,0,-1,25,1861
2,3,36,46,0,0,-1,25,1860
2,3,36,47,0,0,-1,25,1859
2,3,36,48,0,0,-1,25,1858
2,3,36,49,0,0,-1,25,1857
2,3,36,50,0,0,-1,25,1856
2,3,36,16,0,0,-1,26,1855
2,3,36,17,0,0,-1,26,1854
2,3,36,18,0,0,-1,26,1853
2,3,37,16,0,0,-1,26,1852
2,3,37,17,0,0,-1,26,1851
2,3,37,18,0,0,-1,26,1850
2,3,38,16,0,0,-1,26,1849
2,3,38,17,0,0,-1,26,1848
2,3,38,18,0,0,-1,26,1847
2,3,38,19,0,0,-1,26,1846
2,3,39,16,0,0,-1,26,1845
2,3,39,17,0,0,-1,26,1844
2,3,39,18,0,0,-1,26,1843
2,3,39,19,0,0,-1,26,1842
2,3,44,44,0,0,-1,26,1841
2,3,44,45,0,0,-1,26,1840
2,3,44,46,0,0,-1,26,1839
2,3,44,47,0,0,-1,26,1838
2,3,45,44,0,0,-1,26,1837
2,3,45,45,0,0,-1,26,1836
2,3,45,46,0,0,-1,26,1835
2,3,45,47,0,0,-1,26,1834
2,3,46,44,0,0,-1,26,1833
2,3,46,45,0,0,-1,26,1832
2,3,46,46,0,0,-1,26,1831
2,3,46,47,0,0,-1,26,1830
2,3,47,44,0,0,-1,26,1829
2,3,47,45,0,0,-1,26,1828
2,3,47,46,0,0,-1,26,1827
2,3,47,47,0,0,-1,26,1826
8,1,48,0,1,26,1825
8,1,49,0,1,26,1824
8,1,50,0,1,26,1823
3,2,16,0,0,4,26,1822
3,2,17,1,0,4,26,1821
3,2,18,2,0,4,26,1820
3,2,19,3,0,4,26,1819
7,1,27,0,1,26,1818
2,3,16,27,0,0,-1,26,1817
2,3,17,27,0,0,-1,26,1816
2,3,21,27,0,0,-1,26,1815
2,3,22,27,0,0,-1,26,1814
2,3,23,27,0,0,-1,26,1813
2,3,36,27,0,0,-1,26,1812
2,3,37,27,0,0,-1,26,1811
2,3,38,27,0,0,-1,26,1810
2,3,39,27,0,0,-1,26,1809
2,3,40,27,0,0,-1,26,1808
2,3,41,27,0,0,-1,26,1807
2,3,42,27,0,0,-1,26,1806
2,3,43,27,0,0,-1,26,1805
2,3,44,27,0,0,-1,26,1804
2,3,45,27,0,0,-1,26,1803
2,3,46,27,0,0,-1,26,1802
2,3,47,27,0,0,-1,26,1801
3,2,27,11,0,10,26,1800
7,1,26,0,1,26,1799
2,3,16,26,0,0,-1,26,1798
2,3,17,26,0,0,-1,26,1797
2,3,18,26,0,0,-1,26,1796
2,3,19,26,0,0,-1,26,1795
2,3,20,26,0,0,-1,26,1794
2,3,21,26,0,0,-1,26,1793
2,3,22,26,0,0,-1,26,1792
2,3,23,26,0,0,-1,26,1791
2,3,36,26,0,0,-1,26,1790
2,3,37,26,0,0,-1,26,1789
2,3,38,26,0,0,-1,26,1788
2,3,39,26,0,0,-1,26,1787
2,3,40,26,0,0,-1,26,1786
2,3,41,26,0,0,-1,26,1785
2,3,42,26,0,0,-1,26,1784
2,3,43,26,0,0,-1,26,1783
2,3,44,26,0,0,-1,26,1782
2,3,45,26,0,0,-1,26,1781
2,3,46,26,0,0,-1,26,1780
2,3,47,26,0,0,-1,26,1779
3,2,26,10,0,10,26,1778
7,1,25,0,1,26,1777
2,3,18,25,0,0,-1,26,1776
2,3,19,25,0,0,-1,26,1775
2,3,20,25,0,0,-1,26,1774
2,3,21,25,0,0,-1,26,1773
2,3,36,25,0,0,-1,26,1772
2,3,40,25,0,0,-1,26,1771
2,3,41,25,0,0,-1,26,1770
2,3,42,25,0,0,-1,26,1769
2,3,43,25,0,0,-1,26,1768
2,3,44,25,0,0,-1,26,1767
2,3,45,25,0,0,-1,26,1766
2,3,47,25,0,0,-1,26,1765
3,2,25,9,0,10,26,1764
7,1,24,0,1,26,1763
2,3,16,24,0,0,-1,26,1762
2,3,17,24,0,0,-1,26,1761
2,3,18,24,0,0,-1,26,1760
2,3,19,24,0,0,-1,26,1759
2,3,20,24,0,0,-1,26,1758
2,3,21,24,0,0,-1,26,1757
2,3,22,24,0,0,-1,26,1756
2,3,23,24,0,0,-1,26,1755
2,3,36,24,0,0,-1,26,1754
2,3,37,24,0,0,-1,26,1753
2,3,38,24,0,0,-1,26,1752
2,3,39,24,0,0,-1,26,1751
2,3,40,24,0,0,-1,26,1750
2,3,41,24,0,0,-1,26,1749
2,3,42,24,0,0,-1,26,1748
2,3,43,24,0,0,-1,26,1747
2,3,44,24,0,0,-1,26,1746
2,3,45,24,0,0,-1,26,1745
2,3,46,24,0,0,-1,26,1744
2,3,47,24,0,0,-1,26,1743
3,2,24,8,0,10,26,1742
3,2,24,8,0,4,27,1741
3,2,25,9,0,4,27,1740
3,2,26,10,0,4,27,1739
3,2,27,11,0,4,27,1738
3,2,12,12,0,4,27,1737
3,2,13,13,0,4,27,1736
3,2,14,14,0,4,27,1735
3,2,15,15,0,4,27,1734
2,3,20,18,0,0,-1,27,1733
2,3,20,19,0,0,-1,27,1732
2,3,21,18,0,0,-1,27,1731
2,3,21,19,0,0,-1,27,1730
2,3,22,16,0,0,-1,27,1729
2,3,22,18,0,0,-1,27,1728
2,3,23,16,0,0,-1,27,1727
2,3,23,17,0,0,-1,27,1726
2,3,23,18,0,0,-1,27,1725
8,1,44,0,1,27,1724
8,1,45,0,1,27,1723
8,1,46,0,1,27,1722
8,1,47,0,1,27,1721
7,1,31,0,1,27,1720
2,3,16,31,0,0,-1,27,1719
2,3,17,31,0,0,-1,27,1718
2,3,18,31,0,0,-1,27,1717
2,3,19,31,0,0,-1,27,1716
2,3,20,31,0,0,-1,27,1715
2,3,21,31,0,0,-1,27,1714
2,3,22,31,0,0,-1,27,1713
2,3,23,31,0,0,-1,27,1712
2,3,28,31,0,0,-1,27,1711
2,3,29,31,0,0,-1,27,1710
2,3,30,31,0,0,-1,27,1709
2,3,31,31,0,0,-1,27,1708
2,3,32,31,0,0,-1,27,1707
2,3,33,31,0,0,-1,27,1706
2,3,34,31,0,0,-1,27,1705
2,3,35,31,0,0,-1,27,1704
2,3,36,31,0,0,-1,27,1703
2,3,37,31,0,0,-1,27,1702
2,3,38,31,0,0,-1,27,1701
2,3,39,31,0,0,-1,27,1700
2,3,40,31,0,0,-1,27,1699
2,3,41,31,0,0,-1,27,1698
2,3,42,31,0,0,-1,27,1697
2,3,43,31,0,0,-1,27,1696
3,2,31,15,0,4,27,1695
3,2,31,15,0,10,27,1694
7,1,30,0,1,27,1693
2,3,16,30,0,0,-1,27,1692
2,3,17,30,0,0,-1,27,1691
2,3,18,30,0,0,-1,27,1690
2,3,21,30,0,0,-1,27,1689
2,3,22,30,0,0,-1,27,1688
2,3,23,30,0,0,-1,27,1687
2,3,28,30,0,0,-1,27,1686
2,3,29,30,0,0,-1,27,1685
2,3,30,30,0,0,-1,27,1684
2,3,31,30,0,0,-1,27,1683
2,3,32,30,0,0,-1,27,1682
2,3,33,30,0,0,-1,27,1681
2,3,34,30,0,0,-1,27,1680
2,3,35,30,0,0,-1,27,1679
2,3,36,30,0,0,-1,27,1678
2,3,37,30,0,0,-1,27,1677
2,3,38,30,0,0,-1,27,1676
2,3,39,30,0,0,-1,27,1675
2,3,40,30,0,0,-1,27,1674
2,3,41,30,0,0,-1,27,1673
2,3,42,30,0,0,-1,27,1672
2,3,43,30,0,0,-1,27,1671
3,2,30,14,0,4,27,1670
3,2,30,14,0,10,27,1669
7,1,29,0,1,27,1668
2,3,16,29,0,0,-1,27,1667
2,3,17,29,0,0,-1,27,1666
2,3,18,29,0,0,-1,27,1665
2,3,21,29,0,0,-1,27,1664
2,3,22,29,0,0,-1,27,1663
2,3,23,29,0,0,-1,27,1662
2,3,28,29,0,0,-1,27,1661
2,3,29,29,0,0,-1,27,1660
2,3,30,29,0,0,-1,27,1659
2,3,31,29,0,0,-1,27,1658
2,3,32,29,0,0,-1,27,1657
2,3,33,29,0,0,-1,27,1656
2,3,34,29,0,0,-1,27,1655
2,3,35,29,0,0,-1,27,1654
2,3,36,29,0,0,-1,27,1653
2,3,37,29,0,0,-1,27,1652
2,3,38,29,0,0,-1,27,1651
2,3,39,29,0,0,-1,27,1650
2,3,40,29,0,0,-1,27,1649
2,3,41,29,0,0,-1,27,1648
2,3,42,29,0,0,-1,27,1647
2,3,43,29,0,0,-1,27,1646
3,2,29,13,0,4,27,1645
3,2,29,13,0,10,27,1644
7,1,28,0,1,27,1643
2,3,16,28,0,0,-1,27,1642
2,3,17,28,0,0,-1,27,1641
2,3,18,28,0,0,-1,27,1640
2,3,21,28,0,0,-1,27,1639
2,3,22,28,0,0,-1,27,1638
2,3,23,28,0,0,-1,27,1637
2,3,28,28,0,0,-1,27,1636
2,3,29,28,0,0,-1,27,1635
2,3,30,28,0,0,-1,27,1634
2,3,31,28,0,0,-1,27,1633
2,3,32,28,0,0,-1,27,1632
2,3,33,28,0,0,-1,27,1631
2,3,34,28,0,0,-1,27,1630
2,3,35,28,0,0,-1,27,1629
2,3,36,28,0,0,-1,27,1628
2,3,37,28,0,0,-1,27,1627
2,3,38,28,0,0,-1,27,1626
2,3,39,28,0,0,-1,27,1625
2,3,40,28,0,0,-1,27,1624
2,3,41,28,0,0,-1,27,1623
2,3,42,28,0,0,-1,27,1622
2,3,43,28,0,0,-1,27,1621
3,2,28,12,0,4,27,1620
3,2,28,12,0,10,27,1619
7,1,43,0,1,27,1618
2,3,21,43,0,0,-1,27,1617
2,3,22,43,0,0,-1,27,1616
2,3,23,43,0,0,-1,27,1615
2,3,28,43,0,0,-1,27,1614
2,3,29,43,0,0,-1,27,1613
2,3,30,43,0,0,-1,27,1612
2,3,31,43,0,0,-1,27,1611
2,3,32,43,0,0,-1,27,1610
2,3,33,43,0,0,-1,27,1609
2,3,34,43,0,0,-1,27,1608
2,3,35,43,0,0,-1,27,1607
2,3,36,43,0,0,-1,27,1606
2,3,37,43,0,0,-1,27,1605
2,3,38,43,0,0,-1,27,1604
2,3,39,43,0,0,-1,27,1603
2,3,40,43,0,0,-1,27,1602
2,3,41,43,0,0,-1,27,1601
2,3,42,43,0,0,-1,27,1600
2,3,43,43,0,0,-1,27,1599
8,1,43,0,1,27,1598
3,2,43,11,0,4,27,1597
3,2,43,11,0,10,27,1596
7,1,42,0,1,27,1595
2,3,20,42,0,0,-1,27,1594
2,3,21,42,0,0,-1,27,1593
2,3,22,42,0,0,-1,27,1592
2,3,23,42,0,0,-1,27,1591
2,3,28,42,0,0,-1,27,1590
2,3,29,42,0,0,-1,27,1589
2,3,30,42,0,0,-1,27,1588
2,3,31,42,0,0,-1,27,1587
2,3,32,42,0,0,-1,27,1586
2,3,33,42,0,0,-1,27,1585
2,3,34,42,0,0,-1,27,1584
2,3,35,42,0,0,-1,27,1583
2,3,36,42,0,0,-1,27,1582
2,3,37,42,0,0,-1,27,1581
2,3,38,42,0,0,-1,27,1580
2,3,39,42,0,0,-1,27,1579
2,3,40,42,0,0,-1,27,1578
2,3,41,42,0,0,-1,27,1577
2,3,42,42,0,0,-1,27,1576
2,3,43,42,0,0,-1,27,1575
8,1,42,0,1,27,1574
3,2,42,10,0,4,27,1573
3,2,42,10,0,10,27,1572
7,1,41,0,1,27,1571
2,3,20,41,0,0,-1,27,1570
2,3,21,41,0,0,-1,27,1569
2,3,22,41,0,0,-1,27,1568
2,3,23,41,0,0,-1,27,1567
2,3,28,41,0,0,-1,27,1566
2,3,29,41,0,0,-1,27,1565
2,3,30,41,0,0,-1,27,1564
2,3,31,41,0,0,-1,27,1563
2,3,32,41,0,0,-1,27,1562
2,3,33,41,0,0,-1,27,1561
2,3,34,41,0,0,-1,27,1560
2,3,35,41,0,0,-1,27,1559
2,3,36,41,0,0,-1,27,1558
2,3,37,41,0,0,-1,27,1557
2,3,38,41,0,0,-1,27,1556
2,3,39,41,0,0,-1,27,1555
2,3,40,41,0,0,-1,27,1554
2,3,41,41,0,0,-1,27,1553
2,3,42,41,0,0,-1,27,1552
2,3,43,41,0,0,-1,27,1551
8,1,41,0,1,27,1550
3,2,41,9,0,4,27,1549
3,2,41,9,0,10,27,1548
7,1,40,0,1,27,1547
2,3,20,40,0,0,-1,27,1546
2,3,21,40,0,0,-1,27,1545
2,3,22,40,0,0,-1,27,1544
2,3,23,40,0,0,-1,27,1543
2,3,28,40,0,0,-1,27,1542
2,3,29,40,0,0,-1,27,1541
2,3,30,40,0,0,-1,27,1540
2,3,31,40,0,0,-1,27,1539
2,3,32,40,0,0,-1,27,1538
2,3,33,40,0,0,-1,27,1537
2,3,34,40,0,0,-1,27,1536
2,3,35,40,0,0,-1,27,1535
2,3,36,40,0,0,-1,27,1534
2,3,37,40,0,0,-1,27,1533
2,3,38,40,0,0,-1,27,1532
2,3,39,40,0,0,-1,27,1531
2,3,40,40,0,0,-1,27,1530
2,3,41,40,0,0,-1,27,1529
2,3,42,40,0,0,-1,27,1528
2,3,43,40,0,0,-1,27,1527
8,1,40,0,1,27,1526
3,2,40,8,0,4,27,1525
3,2,40,8,0,10,27,1524
2,3,44,40,0,0,-1,28,1523
2,3,45,40,0,0,-1,28,1522
2,3,46,40,0,0,-1,28,1521
2,3,47,40,0,0,-1,28,1520
2,3,44,41,0,0,-1,28,1519
2,3,45,41,0,0,-1,28,1518
2,3,46,41,0,0,-1,28,1517
2,3,47,41,0,0,-1,28,1516
2,3,44,42,0,0,-1,28,1515
2,3,45,42,0,0,-1,28,1514
2,3,46,42,0,0,-1,28,1513
2,3,47,42,0,0,-1,28,1512
2,3,44,43,0,0,-1,28,1511
2,3,45,43,0,0,-1,28,1510
2,3,46,43,0,0,-1,28,1509
2,3,47,43,0,0,-1,28,1508
8,1,28,0,1,28,1507
8,1,29,0,1,28,1506
8,1,30,0,1,28,1505
8,1,31,0,1,28,1504
2,3,32,24,0,0,-1,28,1503
2,3,33,24,0,0,-1,28,1502
2,3,34,24,0,0,-1,28,1501
2,3,35,24,0,0,-1,28,1500
2,3,32,25,0,0,-1,28,1499
2,3,33,25,0,0,-1,28,1498
2,3,32,26,0,0,-1,28,1497
2,3,33,26,0,0,-1,28,1496
2,3,34,26,0,0,-1,28,1495
2,3,35,26,0,0,-1,28,1494
2,3,32,27,0,0,-1,28,1493
2,3,33,27,0,0,-1,28,1492
2,3,34,27,0,0,-1,28,1491
2,3,35,27,0,0,-1,28,1490
8,1,12,0,1,28,1489
8,1,13,0,1,28,1488
8,1,14,0,1,28,1487
2,3,32,15,0,0,-1,28,1486
2,3,33,15,0,0,-1,28,1485
2,3,34,15,0,0,-1,28,1484
2,3,35,15,0,0,-1,28,1483
8,1,15,0,1,28,1482
2,3,31,20,0,0,-1,28,1481
3,2,20,4,0,4,28,1480
2,3,28,21,0,0,-1,28,1479
2,3,29,21,0,0,-1,28,1478
2,3,30,21,0,0,-1,28,1477
2,3,31,21,0,0,-1,28,1476
3,2,21,5,0,4,28,1475
2,3,28,22,0,0,-1,28,1474
2,3,29,22,0,0,-1,28,1473
2,3,30,22,0,0,-1,28,1472
2,3,31,22,0,0,-1,28,1471
3,2,22,6,0,4,28,1470
2,3,28,23,0,0,-1,28,1469
2,3,29,23,0,0,-1,28,1468
2,3,30,23,0,0,-1,28,1467
2,3,31,23,0,0,-1,28,1466
3,2,23,7,0,4,28,1465
2,3,28,36,0,0,-1,28,1464
2,3,29,36,0,0,-1,28,1463
2,3,30,36,0,0,-1,28,1462
2,3,31,36,0,0,-1,28,1461
2,3,44,36,0,0,-1,28,1460
2,3,45,36,0,0,-1,28,1459
2,3,46,36,0,0,-1,28,1458
2,3,47,36,0,0,-1,28,1457
2,3,28,37,0,0,-1,28,1456
2,3,29,37,0,0,-1,28,1455
2,3,30,37,0,0,-1,28,1454
2,3,31,37,0,0,-1,28,1453
2,3,44,37,0,0,-1,28,1452
2,3,45,37,0,0,-1,28,1451
2,3,46,37,0,0,-1,28,1450
2,3,47,37,0,0,-1,28,1449
2,3,28,38,0,0,-1,28,1448
2,3,29,38,0,0,-1,28,1447
2,3,30,38,0,0,-1,28,1446
2,3,31,38,0,0,-1,28,1445
2,3,44,38,0,0,-1,28,1444
2,3,45,38,0,0,-1,28,1443
2,3,46,38,0,0,-1,28,1442
2,3,47,38,0,0,-1,28,1441
2,3,28,39,0,0,-1,28,1440
2,3,29,39,0,0,-1,28,1439
2,3,30,39,0,0,-1,28,1438
2,3,31,39,0,0,-1,28,1437
2,3,44,39,0,0,-1,28,1436
2,3,45,39,0,0,-1,28,1435
2,3,46,39,0,0,-1,28,1434
2,3,47,39,0,0,-1,28,1433
2,3,28,16,0,0,-1,28,1432
2,3,28,17,0,0,-1,28,1431
2,3,28,18,0,0,-1,28,1430
2,3,29,16,0,0,-1,28,1429
2,3,29,17,0,0,-1,28,1428
2,3,29,18,0,0,-1,28,1427
2,3,30,16,0,0,-1,28,1426
2,3,30,17,0,0,-1,28,1425
2,3,30,18,0,0,-1,28,1424
2,3,31,16,0,0,-1,28,1423
2,3,31,17,0,0,-1,28,1422
2,3,31,18,0,0,-1,28,1421
2,3,31,19,0,0,-1,28,1420
7,1,7,0,1,28,1419
2,3,4,7,0,0,-1,28,1418
2,3,5,7,0,0,-1,28,1417
2,3,6,7,0,0,-1,28,1416
2,3,7,7,0,0,-1,28,1415
2,3,12,7,0,0,-1,28,1414
2,3,13,7,0,0,-1,28,1413
2,3,14,7,0,0,-1,28,1412
8,1,7,0,1,28,1411
3,2,7,7,0,4,28,1410
3,2,7,7,0,10,28,1409
7,1,6,0,1,28,1408
2,3,4,6,0,0,-1,28,1407
2,3,5,6,0,0,-1,28,1406
2,3,6,6,0,0,-1,28,1405
2,3,7,6,0,0,-1,28,1404
2,3,12,6,0,0,-1,28,1403
2,3,13,6,0,0,-1,28,1402
2,3,14,6,0,0,-1,28,1401
8,1,6,0,1,28,1400
3,2,6,6,0,4,28,1399
3,2,6,6,0,10,28,1398
7,1,5,0,1,28,1397
2,3,4,5,0,0,-1,28,1396
2,3,5,5,0,0,-1,28,1395
2,3,6,5,0,0,-1,28,1394
2,3,7,5,0,0,-1,28,1393
2,3,12,5,0,0,-1,28,1392
2,3,13,5,0,0,-1,28,1391
2,3,14,5,0,0,-1,28,1390
2,3,18,5,0,0,-1,28,1389
2,3,19,5,0,0,-1,28,1388
8,1,5,0,1,28,1387
3,2,5,5,0,4,28,1386
3,2,5,5,0,10,28,1385
7,1,4,0,1,28,1384
2,3,4,4,0,0,-1,28,1383
2,3,5,4,0,0,-1,28,1382
2,3,6,4,0,0,-1,28,1381
2,3,7,4,0,0,-1,28,1380
2,3,12,4,0,0,-1,28,1379
2,3,13,4,0,0,-1,28,1378
2,3,14,4,0,0,-1,28,1377
2,3,18,4,0,0,-1,28,1376
2,3,19,4,0,0,-1,28,1375
8,1,4,0,1,28,1374
3,2,4,4,0,4,28,1373
3,2,4,4,0,10,28,1372
19,1,27,0,1,28,1371
2,3,27,16,0,0,-1,28,1370
2,3,27,17,0,0,-1,28,1369
2,3,27,28,0,0,-1,28,1368
2,3,27,29,0,0,-1,28,1367
2,3,27,30,0,0,-1,28,1366
2,3,27,31,0,0,-1,28,1365
2,3,27,36,0,0,-1,28,1364
2,3,27,37,0,0,-1,28,1363
2,3,27,38,0,0,-1,28,1362
2,3,27,39,0,0,-1,28,1361
2,3,27,48,0,0,-1,28,1360
2,3,27,49,0,0,-1,28,1359
2,3,27,50,0,0,-1,28,1358
19,1,26,0,1,28,1357
2,3,26,4,0,0,-1,28,1356
2,3,26,5,0,0,-1,28,1355
2,3,26,16,0,0,-1,28,1354
2,3,26,17,0,0,-1,28,1353
2,3,26,18,0,0,-1,28,1352
2,3,26,19,0,0,-1,28,1351
2,3,26,28,0,0,-1,28,1350
2,3,26,29,0,0,-1,28,1349
2,3,26,30,0,0,-1,28,1348
2,3,26,31,0,0,-1,28,1347
2,3,26,36,0,0,-1,28,1346
2,3,26,37,0,0,-1,28,1345
2,3,26,38,0,0,-1,28,1344
2,3,26,39,0,0,-1,28,1343
2,3,26,48,0,0,-1,28,1342
2,3,26,49,0,0,-1,28,1341
2,3,26,50,0,0,-1,28,1340
19,1,25,0,1,28,1339
2,3,25,4,0,0,-1,28,1338
2,3,25,5,0,0,-1,28,1337
2,3,25,18,0,0,-1,28,1336
2,3,25,19,0,0,-1,28,1335
2,3,25,31,0,0,-1,28,1334
2,3,25,36,0,0,-1,28,1333
2,3,25,49,0,0,-1,28,1332
2,3,25,50,0,0,-1,28,1331
19,1,24,0,1,28,1330
2,3,24,4,0,0,-1,28,1329
2,3,24,5,0,0,-1,28,1328
2,3,24,16,0,0,-1,28,1327
2,3,24,17,0,0,-1,28,1326
2,3,24,18,0,0,-1,28,1325
2,3,24,19,0,0,-1,28,1324
2,3,24,28,0,0,-1,28,1323
2,3,24,29,0,0,-1,28,1322
2,3,24,30,0,0,-1,28,1321
2,3,24,31,0,0,-1,28,1320
2,3,24,36,0,0,-1,28,1319
2,3,24,37,0,0,-1,28,1318
2,3,24,38,0,0,-1,28,1317
2,3,24,39,0,0,-1,28,1316
2,3,24,48,0,0,-1,28,1315
2,3,24,49,0,0,-1,28,1314
2,3,24,50,0,0,-1,28,1313
2,3,24,0,0,0,-1,29,1312
2,3,24,1,0,0,-1,29,1311
2,3,24,2,0,0,-1,29,1310
2,3,24,3,0,0,-1,29,1309
2,3,24,14,0,0,-1,29,1308
2,3,24,15,0,0,-1,29,1307
2,3,24,20,0,0,-1,29,1306
2,3,24,21,0,0,-1,29,1305
2,3,24,22,0,0,-1,29,1304
2,3,24,23,0,0,-1,29,1303
2,3,24,40,0,0,-1,29,1302
2,3,24,41,0,0,-1,29,1301
2,3,24,42,0,0,-1,29,1300
2,3,24,43,0,0,-1,29,1299
2,3,25,0,0,0,-1,29,1298
2,3,25,1,0,0,-1,29,1297
2,3,25,2,0,0,-1,29,1296
2,3,25,3,0,0,-1,29,1295
2,3,25,14,0,0,-1,29,1294
2,3,25,20,0,0,-1,29,1293
2,3,25,21,0,0,-1,29,1292
2,3,25,40,0,0,-1,29,1291
2,3,25,41,0,0,-1,29,1290
2,3,25,42,0,0,-1,29,1289
2,3,25,43,0,0,-1,29,1288
2,3,26,0,0,0,-1,29,1287
2,3,26,1,0,0,-1,29,1286
2,3,26,2,0,0,-1,29,1285
2,3,26,3,0,0,-1,29,1284
2,3,26,14,0,0,-1,29,1283
2,3,26,15,0,0,-1,29,1282
2,3,26,20,0,0,-1,29,1281
2,3,26,21,0,0,-1,29,1280
2,3,26,22,0,0,-1,29,1279
2,3,26,23,0,0,-1,29,1278
2,3,26,40,0,0,-1,29,1277
2,3,26,41,0,0,-1,29,1276
2,3,26,42,0,0,-1,29,1275
2,3,26,43,0,0,-1,29,1274
2,3,27,15,0,0,-1,29,1273
2,3,27,21,0,0,-1,29,1272
2,3,27,22,0,0,-1,29,1271
2,3,27,23,0,0,-1,29,1270
2,3,27,40,0,0,-1,29,1269
2,3,27,41,0,0,-1,29,1268
2,3,27,42,0,0,-1,29,1267
2,3,27,43,0,0,-1,29,1266
2,3,20,4,0,0,-1,29,1265
2,3,21,4,0,0,-1,29,1264
2,3,20,5,0,0,-1,29,1263
2,3,21,5,0,0,-1,29,1262
2,3,20,14,0,0,-1,29,1261
2,3,21,14,0,0,-1,29,1260
2,3,23,14,0,0,-1,29,1259
2,3,21,15,0,0,-1,29,1258
2,3,22,15,0,0,-1,29,1257
2,3,23,15,0,0,-1,29,1256
2,3,16,36,0,0,-1,29,1255
2,3,17,36,0,0,-1,29,1254
2,3,18,36,0,0,-1,29,1253
2,3,20,36,0,0,-1,29,1252
2,3,21,36,0,0,-1,29,1251
2,3,22,36,0,0,-1,29,1250
2,3,23,36,0,0,-1,29,1249
2,3,16,37,0,0,-1,29,1248
2,3,17,37,0,0,-1,29,1247
2,3,18,37,0,0,-1,29,1246
2,3,21,37,0,0,-1,29,1245
2,3,22,37,0,0,-1,29,1244
2,3,23,37,0,0,-1,29,1243
2,3,16,38,0,0,-1,29,1242
2,3,17,38,0,0,-1,29,1241
2,3,18,38,0,0,-1,29,1240
2,3,19,38,0,0,-1,29,1239
2,3,21,38,0,0,-1,29,1238
2,3,22,38,0,0,-1,29,1237
2,3,23,38,0,0,-1,29,1236
2,3,16,39,0,0,-1,29,1235
2,3,17,39,0,0,-1,29,1234
2,3,18,39,0,0,-1,29,1233
2,3,19,39,0,0,-1,29,1232
2,3,21,39,0,0,-1,29,1231
2,3,22,39,0,0,-1,29,1230
2,3,23,39,0,0,-1,29,1229
2,3,20,0,0,0,-1,29,1228
2,3,20,1,0,0,-1,29,1227
2,3,20,2,0,0,-1,29,1226
2,3,20,3,0,0,-1,29,1225
2,3,21,1,0,0,-1,29,1224
2,3,21,2,0,0,-1,29,1223
2,3,21,3,0,0,-1,29,1222
7,1,35,0,1,29,1221
2,3,16,35,0,0,-1,29,1220
2,3,17,35,0,0,-1,29,1219
2,3,18,35,0,0,-1,29,1218
2,3,21,35,0,0,-1,29,1217
2,3,22,35,0,0,-1,29,1216
2,3,23,35,0,0,-1,29,1215
2,3,24,35,0,0,-1,29,1214
2,3,26,35,0,0,-1,29,1213
2,3,27,35,0,0,-1,29,1212
2,3,28,35,0,0,-1,29,1211
2,3,29,35,0,0,-1,29,1210
2,3,30,35,0,0,-1,29,1209
2,3,31,35,0,0,-1,29,1208
2,3,32,35,0,0,-1,29,1207
2,3,33,35,0,0,-1,29,1206
2,3,34,35,0,0,-1,29,1205
2,3,35,35,0,0,-1,29,1204
2,3,40,35,0,0,-1,29,1203
2,3,41,35,0,0,-1,29,1202
2,3,42,35,0,0,-1,29,1201
2,3,43,35,0,0,-1,29,1200
2,3,44,35,0,0,-1,29,1199
2,3,45,35,0,0,-1,29,1198
2,3,46,35,0,0,-1,29,1197
2,3,47,35,0,0,-1,29,1196
8,1,35,0,1,29,1195
3,2,35,3,0,4,29,1194
3,2,35,3,0,10,29,1193
7,1,34,0,1,29,1192
2,3,16,34,0,0,-1,29,1191
2,3,17,34,0,0,-1,29,1190
2,3,18,34,0,0,-1,29,1189
2,3,21,34,0,0,-1,29,1188
2,3,22,34,0,0,-1,29,1187
2,3,23,34,0,0,-1,29,1186
2,3,24,34,0,0,-1,29,1185
2,3,26,34,0,0,-1,29,1184
2,3,27,34,0,0,-1,29,1183
2,3,28,34,0,0,-1,29,1182
2,3,29,34,0,0,-1,29,1181
2,3,30,34,0,0,-1,29,1180
2,3,31,34,0,0,-1,29,1179
2,3,32,34,0,0,-1,29,1178
2,3,33,34,0,0,-1,29,1177
2,3,34,34,0,0,-1,29,1176
2,3,35,34,0,0,-1,29,1175
2,3,40,34,0,0,-1,29,1174
2,3,41,34,0,0,-1,29,1173
2,3,42,34,0,0,-1,29,1172
2,3,43,34,0,0,-1,29,1171
2,3,44,34,0,0,-1,29,1170
2,3,45,34,0,0,-1,29,1169
2,3,46,34,0,0,-1,29,1168
2,3,47,34,0,0,-1,29,1167
8,1,34,0,1,29,1166
3,2,34,2,0,4,29,1165
3,2,34,2,0,10,29,1164
7,1,33,0,1,29,1163
2,3,16,33,0,0,-1,29,1162
2,3,17,33,0,0,-1,29,1161
2,3,18,33,0,0,-1,29,1160
2,3,20,33,0,0,-1,29,1159
2,3,21,33,0,0,-1,29,1158
2,3,22,33,0,0,-1,29,1157
2,3,23,33,0,0,-1,29,1156
2,3,24,33,0,0,-1,29,1155
2,3,25,33,0,0,-1,29,1154
2,3,26,33,0,0,-1,29,1153
2,3,27,33,0,0,-1,29,1152
2,3,28,33,0,0,-1,29,1151
2,3,29,33,0,0,-1,29,1150
2,3,30,33,0,0,-1,29,1149
2,3,31,33,0,0,-1,29,1148
2,3,32,33,0,0,-1,29,1147
2,3,33,33,0,0,-1,29,1146
2,3,34,33,0,0,-1,29,1145
2,3,35,33,0,0,-1,29,1144
2,3,40,33,0,0,-1,29,1143
2,3,41,33,0,0,-1,29,1142
2,3,42,33,0,0,-1,29,1141
2,3,43,33,0,0,-1,29,1140
2,3,44,33,0,0,-1,29,1139
2,3,45,33,0,0,-1,29,1138
2,3,46,33,0,0,-1,29,1137
2,3,47,33,0,0,-1,29,1136
8,1,33,0,1,29,1135
3,2,33,1,0,4,29,1134
3,2,33,1,0,10,29,1133
7,1,32,0,1,29,1132
2,3,16,32,0,0,-1,29,1131
2,3,17,32,0,0,-1,29,1130
2,3,18,32,0,0,-1,29,1129
2,3,20,32,0,0,-1,29,1128
3,2,20,4,0,5,29,1127
3,2,20,4,0,7,29,1126
2,3,21,32,0,0,-1,29,1125
3,2,21,5,0,5,29,1124
3,2,21,5,0,7,29,1123
2,3,22,32,0,0,-1,29,1122
3,2,22,6,0,5,29,1121
3,2,22,6,0,7,29,1120
2,3,23,32,0,0,-1,29,1119
3,2,23,7,0,5,29,1118
3,2,23,7,0,7,29,1117
2,3,24,32,0,0,-1,29,1116
2,3,25,32,0,0,-1,29,1115
2,3,26,32,0,0,-1,29,1114
2,3,27,32,0,0,-1,29,1113
2,3,28,32,0,0,-1,29,1112
2,3,29,32,0,0,-1,29,1111
2,3,30,32,0,0,-1,29,1110
2,3,31,32,0,0,-1,29,1109
2,3,32,32,0,0,-1,29,1108
2,3,33,32,0,0,-1,29,1107
2,3,34,32,0,0,-1,29,1106
2,3,35,32,0,0,-1,29,1105
2,3,40,32,0,0,-1,29,1104
2,3,41,32,0,0,-1,29,1103
2,3,42,32,0,0,-1,29,1102
2,3,43,32,0,0,-1,29,1101
2,3,44,32,0,0,-1,29,1100
2,3,45,32,0,0,-1,29,1099
2,3,46,32,0,0,-1,29,1098
2,3,47,32,0,0,-1,29,1097
8,1,32,0,1,29,1096
3,2,32,0,0,4,29,1095
3,2,32,0,0,10,29,1094
2,3,36,32,0,0,-1,30,1093
2,3,37,32,0,0,-1,30,1092
2,3,38,32,0,0,-1,30,1091
2,3,39,32,0,0,-1,30,1090
2,3,36,33,0,0,-1,30,1089
2,3,37,33,0,0,-1,30,1088
2,3,38,33,0,0,-1,30,1087
2,3,39,33,0,0,-1,30,1086
2,3,36,34,0,0,-1,30,1085
2,3,37,34,0,0,-1,30,1084
2,3,38,34,0,0,-1,30,1083
2,3,39,34,0,0,-1,30,1082
2,3,36,35,0,0,-1,30,1081
2,3,37,35,0,0,-1,30,1080
2,3,38,35,0,0,-1,30,1079
2,3,39,35,0,0,-1,30,1078
2,3,16,40,0,0,-1,30,1077
2,3,17,40,0,0,-1,30,1076
2,3,18,40,0,0,-1,30,1075
2,3,16,41,0,0,-1,30,1074
2,3,17,41,0,0,-1,30,1073
2,3,18,41,0,0,-1,30,1072
2,3,19,41,0,0,-1,30,1071
2,3,16,42,0,0,-1,30,1070
2,3,17,42,0,0,-1,30,1069
2,3,18,42,0,0,-1,30,1068
2,3,19,42,0,0,-1,30,1067
2,3,16,43,0,0,-1,30,1066
2,3,17,43,0,0,-1,30,1065
2,3,18,43,0,0,-1,30,1064
2,3,19,43,0,0,-1,30,1063
2,3,44,28,0,0,-1,30,1062
2,3,45,28,0,0,-1,30,1061
2,3,46,28,0,0,-1,30,1060
2,3,47,28,0,0,-1,30,1059
2,3,44,29,0,0,-1,30,1058
2,3,45,29,0,0,-1,30,1057
2,3,46,29,0,0,-1,30,1056
2,3,47,29,0,0,-1,30,1055
2,3,44,30,0,0,-1,30,1054
2,3,45,30,0,0,-1,30,1053
2,3,46,30,0,0,-1,30,1052
2,3,47,30,0,0,-1,30,1051
2,3,44,31,0,0,-1,30,1050
2,3,45,31,0,0,-1,30,1049
2,3,46,31,0,0,-1,30,1048
2,3,47,31,0,0,-1,30,1047
2,3,28,24,0,0,-1,30,1046
2,3,29,24,0,0,-1,30,1045
2,3,30,24,0,0,-1,30,1044
2,3,31,24,0,0,-1,30,1043
8,1,24,0,1,30,1042
2,3,31,25,0,0,-1,30,1041
8,1,25,0,1,30,1040
2,3,28,26,0,0,-1,30,1039
2,3,29,26,0,0,-1,30,1038
2,3,30,26,0,0,-1,30,1037
2,3,31,26,0,0,-1,30,1036
8,1,26,0,1,30,1035
2,3,28,27,0,0,-1,30,1034
2,3,29,27,0,0,-1,30,1033
2,3,30,27,0,0,-1,30,1032
2,3,31,27,0,0,-1,30,1031
8,1,27,0,1,30,1030
2,3,18,14,0,0,-1,30,1029
2,3,19,14,0,0,-1,30,1028
2,3,16,15,0,0,-1,30,1027
2,3,18,15,0,0,-1,30,1026
2,3,28,15,0,0,-1,30,1025
3,2,28,12,0,5,30,1024
3,2,28,12,0,7,30,1023
2,3,29,15,0,0,-1,30,1022
3,2,29,13,0,5,30,1021
3,2,29,13,0,7,30,1020
2,3,30,15,0,0,-1,30,1019
3,2,30,14,0,5,30,1018
3,2,30,14,0,7,30,1017
2,3,31,15,0,0,-1,30,1016
3,2,31,15,0,5,30,1015
3,2,31,15,0,7,30,1014
2,3,44,15,0,0,-1,30,1013
3,2,44,12,0,7,30,1012
2,3,45,15,0,0,-1,30,1011
3,2,45,13,0,7,30,1010
2,3,46,15,0,0,-1,30,1009
3,2,46,14,0,7,30,1008
2,3,47,15,0,0,-1,30,1007
3,2,47,15,0,7,30,1006
2,3,16,44,0,0,-1,30,1005
2,3,16,45,0,0,-1,30,1004
2,3,16,46,0,0,-1,30,1003
2,3,16,47,0,0,-1,30,1002
3,2,16,0,0,5,30,1001
3,2,16,0,0,7,30,1000
2,3,17,44,0,0,-1,30,999
2,3,17,45,0,0,-1,30,998
2,3,17,46,0,0,-1,30,997
2,3,17,47,0,0,-1,30,996
3,2,17,1,0,5,30,995
3,2,17,1,0,7,30,994
2,3,18,0,0,0,-1,30,993
2,3,18,1,0,0,-1,30,992
2,3,18,2,0,0,-1,30,991
2,3,18,3,0,0,-1,30,990
2,3,18,44,0,0,-1,30,989
2,3,18,45,0,0,-1,30,988
2,3,18,46,0,0,-1,30,987
2,3,18,47,0,0,-1,30,986
3,2,18,2,0,5,30,985
3,2,18,2,0,7,30,984
2,3,19,0,0,0,-1,30,983
2,3,19,1,0,0,-1,30,982
2,3,19,2,0,0,-1,30,981
2,3,19,3,0,0,-1,30,980
2,3,19,44,0,0,-1,30,979
2,3,19,45,0,0,-1,30,978
2,3,19,46,0,0,-1,30,977
2,3,19,47,0,0,-1,30,976
3,2,19,3,0,5,30,975
3,2,19,3,0,7,30,974
19,1,50,0,1,30,973
2,3,50,15,0,0,-1,30,972
2,3,50,21,0,0,-1,30,971
2,3,50,22,0,0,-1,30,970
2,3,50,23,0,0,-1,30,969
2,3,50,24,0,0,-1,30,968
2,3,50,25,0,0,-1,30,967
2,3,50,26,0,0,-1,30,966
2,3,50,27,0,0,-1,30,965
2,3,50,28,0,0,-1,30,964
2,3,50,29,0,0,-1,30,963
2,3,50,30,0,0,-1,30,962
2,3,50,31,0,0,-1,30,961
2,3,50,36,0,0,-1,30,960
2,3,50,37,0,0,-1,30,959
2,3,50,38,0,0,-1,30,958
2,3,50,39,0,0,-1,30,957
2,3,50,48,0,0,-1,30,956
2,3,50,49,0,0,-1,30,955
2,3,50,50,0,0,-1,30,954
19,1,49,0,1,30,953
2,3,49,15,0,0,-1,30,952
2,3,49,20,0,0,-1,30,951
2,3,49,21,0,0,-1,30,950
2,3,49,22,0,0,-1,30,949
2,3,49,23,0,0,-1,30,948
2,3,49,24,0,0,-1,30,947
2,3,49,25,0,0,-1,30,946
2,3,49,26,0,0,-1,30,945
2,3,49,27,0,0,-1,30,944
2,3,49,28,0,0,-1,30,943
2,3,49,29,0,0,-1,30,942
2,3,49,30,0,0,-1,30,941
2,3,49,31,0,0,-1,30,940
2,3,49,36,0,0,-1,30,939
2,3,49,37,0,0,-1,30,938
2,3,49,38,0,0,-1,30,937
2,3,49,39,0,0,-1,30,936
2,3,49,48,0,0,-1,30,935
2,3,49,49,0,0,-1,30,934
2,3,49,50,0,0,-1,30,933
19,1,48,0,1,30,932
2,3,48,15,0,0,-1,30,931
2,3,48,21,0,0,-1,30,930
2,3,48,22,0,0,-1,30,929
2,3,48,23,0,0,-1,30,928
2,3,48,24,0,0,-1,30,927
2,3,48,26,0,0,-1,30,926
2,3,48,27,0,0,-1,30,925
2,3,48,28,0,0,-1,30,924
2,3,48,29,0,0,-1,30,923
2,3,48,30,0,0,-1,30,922
2,3,48,31,0,0,-1,30,921
2,3,48,36,0,0,-1,30,920
2,3,48,37,0,0,-1,30,919
2,3,48,38,0,0,-1,30,918
2,3,48,39,0,0,-1,30,917
2,3,48,48,0,0,-1,30,916
2,3,48,49,0,0,-1,30,915
2,3,48,50,0,0,-1,30,914
2,3,15,32,0,0,-1,32,913
2,3,15,33,0,0,-1,32,912
2,3,15,34,0,0,-1,32,911
2,3,15,35,0,0,-1,32,910
2,3,3,4,0,0,-1,32,909
2,3,3,7,0,0,-1,32,908
2,3,15,28,0,0,-1,32,907
2,3,15,29,0,0,-1,32,906
2,3,15,30,0,0,-1,32,905
2,3,15,31,0,0,-1,32,904
2,3,0,24,0,0,-1,32,903
2,3,1,24,0,0,-1,32,902
2,3,2,24,0,0,-1,32,901
2,3,3,24,0,0,-1,32,900
2,3,4,24,0,0,-1,32,899
2,3,5,24,0,0,-1,32,898
2,3,0,25,0,0,-1,32,897
2,3,1,25,0,0,-1,32,896
2,3,2,25,0,0,-1,32,895
2,3,3,25,0,0,-1,32,894
2,3,4,25,0,0,-1,32,893
2,3,5,25,0,0,-1,32,892
2,3,0,26,0,0,-1,32,891
2,3,1,26,0,0,-1,32,890
2,3,2,26,0,0,-1,32,889
2,3,3,26,0,0,-1,32,888
2,3,4,26,0,0,-1,32,887
2,3,5,26,0,0,-1,32,886
2,3,2,12,0,0,-1,32,885
2,3,3,12,0,0,-1,32,884
2,3,3,13,0,0,-1,32,883
2,3,2,14,0,0,-1,32,882
2,3,3,14,0,0,-1,32,881
2,3,0,18,0,0,-1,32,880
2,3,0,19,0,0,-1,32,879
2,3,0,20,0,0,-1,32,878
3,2,0,0,0,5,32,877
2,3,1,18,0,0,-1,32,876
2,3,1,19,0,0,-1,32,875
2,3,1,20,0,0,-1,32,874
2,3,1,21,0,0,-1,32,873
2,3,2,18,0,0,-1,32,872
2,3,2,19,0,0,-1,32,871
2,3,2,20,0,0,-1,32,870
2,3,2,21,0,0,-1,32,869
2,3,3,18,0,0,-1,32,868
2,3,3,19,0,0,-1,32,867
2,3,3,20,0,0,-1,32,866
2,3,3,21,0,0,-1,32,865
2,3,4,3,0,0,-1,32,864
2,3,4,18,0,0,-1,32,863
2,3,4,19,0,0,-1,32,862
2,3,5,18,0,0,-1,32,861
2,3,5,19,0,0,-1,32,860
2,3,7,3,0,0,-1,32,859
2,3,12,2,0,0,-1,32,858
2,3,12,3,0,0,-1,32,857
2,3,13,3,0,0,-1,32,856
2,3,14,2,0,0,-1,32,855
2,3,14,3,0,0,-1,32,854
2,3,11,1,0,0,-1,32,853
2,3,8,2,0,0,-1,32,852
2,3,9,2,0,0,-1,32,851
2,3,10,2,0,0,-1,32,850
2,3,11,2,0,0,-1,32,849
2,3,8,3,0,0,-1,32,848
2,3,9,3,0,0,-1,32,847
2,3,10,3,0,0,-1,32,846
2,3,11,3,0,0,-1,32,845
7,1,11,0,1,32,844
2,3,1,11,0,0,-1,32,843
3,2,1,1,0,5,32,842
2,3,2,11,0,0,-1,32,841
2,3,3,11,0,0,-1,32,840
2,3,4,11,0,0,-1,32,839
2,3,5,11,0,0,-1,32,838
2,3,6,11,0,0,-1,32,837
2,3,7,11,0,0,-1,32,836
2,3,8,11,0,0,-1,32,835
2,3,9,11,0,0,-1,32,834
2,3,10,11,0,0,-1,32,833
2,3,11,11,0,0,-1,32,832
2,3,12,11,0,0,-1,32,831
2,3,13,11,0,0,-1,32,830
2,3,14,11,0,0,-1,32,829
8,1,11,0,1,32,828
3,2,11,11,0,10,32,827
7,1,10,0,1,32,826
2,3,2,10,0,0,-1,32,825
2,3,3,10,0,0,-1,32,824
2,3,4,10,0,0,-1,32,823
2,3,5,10,0,0,-1,32,822
2,3,6,10,0,0,-1,32,821
2,3,7,10,0,0,-1,32,820
2,3,8,10,0,0,-1,32,819
2,3,9,10,0,0,-1,32,818
2,3,10,10,0,0,-1,32,817
2,3,11,10,0,0,-1,32,816
2,3,12,10,0,0,-1,32,815
2,3,13,10,0,0,-1,32,814
2,3,14,10,0,0,-1,32,813
8,1,10,0,1,32,812
3,2,10,10,0,10,32,811
7,1,9,0,1,32,810
2,3,2,9,0,0,-1,32,809
2,3,3,9,0,0,-1,32,808
2,3,4,9,0,0,-1,32,807
2,3,5,9,0,0,-1,32,806
2,3,6,9,0,0,-1,32,805
2,3,7,9,0,0,-1,32,804
2,3,8,9,0,0,-1,32,803
2,3,9,9,0,0,-1,32,802
2,3,10,9,0,0,-1,32,801
2,3,11,9,0,0,-1,32,800
2,3,12,9,0,0,-1,32,799
2,3,13,9,0,0,-1,32,798
2,3,14,9,0,0,-1,32,797
8,1,9,0,1,32,796
3,2,9,9,0,10,32,795
7,1,8,0,1,32,794
2,3,2,8,0,0,-1,32,793
3,2,2,2,0,5,32,792
2,3,3,8,0,0,-1,32,791
3,2,3,3,0,5,32,790
2,3,4,8,0,0,-1,32,789
2,3,5,8,0,0,-1,32,788
2,3,6,8,0,0,-1,32,787
2,3,7,8,0,0,-1,32,786
2,3,8,8,0,0,-1,32,785
2,3,9,8,0,0,-1,32,784
2,3,10,8,0,0,-1,32,783
2,3,11,8,0,0,-1,32,782
2,3,12,8,0,0,-1,32,781
2,3,13,8,0,0,-1,32,780
2,3,14,8,0,0,-1,32,779
8,1,8,0,1,32,778
3,2,8,8,0,10,32,777
4,1,0,1,RBPBUF,-1,32,776
21,0,1,CONSTRUCTGB,-1,32,775
2,3,48,16,0,0,-1,31,774
2,3,48,17,0,0,-1,31,773
2,3,48,18,0,0,-1,31,772
2,3,48,32,0,0,-1,31,771
2,3,48,33,0,0,-1,31,770
2,3,48,34,0,0,-1,31,769
2,3,48,35,0,0,-1,31,768
2,3,48,40,0,0,-1,31,767
2,3,48,41,0,0,-1,31,766
2,3,48,42,0,0,-1,31,765
2,3,48,43,0,0,-1,31,764
2,3,48,44,0,0,-1,31,763
2,3,48,45,0,0,-1,31,762
2,3,48,46,0,0,-1,31,761
2,3,48,47,0,0,-1,31,760
3,2,48,0,0,5,31,759
3,2,48,0,0,7,31,758
2,3,49,16,0,0,-1,31,757
2,3,49,17,0,0,-1,31,756
2,3,49,18,0,0,-1,31,755
2,3,49,32,0,0,-1,31,754
2,3,49,33,0,0,-1,31,753
2,3,49,34,0,0,-1,31,752
2,3,49,35,0,0,-1,31,751
2,3,49,40,0,0,-1,31,750
2,3,49,41,0,0,-1,31,749
2,3,49,42,0,0,-1,31,748
2,3,49,43,0,0,-1,31,747
2,3,49,44,0,0,-1,31,746
2,3,49,45,0,0,-1,31,745
2,3,49,46,0,0,-1,31,744
2,3,49,47,0,0,-1,31,743
3,2,49,1,0,5,31,742
3,2,49,1,0,7,31,741
2,3,50,16,0,0,-1,31,740
2,3,50,17,0,0,-1,31,739
2,3,50,18,0,0,-1,31,738
2,3,50,19,0,0,-1,31,737
2,3,50,32,0,0,-1,31,736
2,3,50,33,0,0,-1,31,735
2,3,50,34,0,0,-1,31,734
2,3,50,35,0,0,-1,31,733
2,3,50,40,0,0,-1,31,732
2,3,50,41,0,0,-1,31,731
2,3,50,42,0,0,-1,31,730
2,3,50,43,0,0,-1,31,729
2,3,50,44,0,0,-1,31,728
2,3,50,45,0,0,-1,31,727
2,3,50,46,0,0,-1,31,726
2,3,50,47,0,0,-1,31,725
3,2,50,2,0,5,31,724
3,2,50,2,0,7,31,723
3,2,47,15,0,5,31,722
3,2,46,14,0,5,31,721
3,2,45,13,0,5,31,720
3,2,44,12,0,5,31,719
2,3,24,24,0,0,-1,31,718
2,3,24,25,0,0,-1,31,717
2,3,24,26,0,0,-1,31,716
2,3,24,44,0,0,-1,31,715
2,3,24,45,0,0,-1,31,714
2,3,24,46,0,0,-1,31,713
2,3,24,47,0,0,-1,31,712
3,2,24,8,0,5,31,711
3,2,24,8,0,7,31,710
2,3,25,24,0,0,-1,31,709
2,3,25,25,0,0,-1,31,708
2,3,25,26,0,0,-1,31,707
2,3,25,44,0,0,-1,31,706
2,3,25,45,0,0,-1,31,705
2,3,25,47,0,0,-1,31,704
3,2,25,9,0,5,31,703
3,2,25,9,0,7,31,702
2,3,26,24,0,0,-1,31,701
2,3,26,25,0,0,-1,31,700
2,3,26,26,0,0,-1,31,699
2,3,26,27,0,0,-1,31,698
2,3,26,44,0,0,-1,31,697
2,3,26,45,0,0,-1,31,696
2,3,26,46,0,0,-1,31,695
2,3,26,47,0,0,-1,31,694
3,2,26,10,0,5,31,693
3,2,26,10,0,7,31,692
2,3,27,26,0,0,-1,31,691
2,3,27,27,0,0,-1,31,690
2,3,27,44,0,0,-1,31,689
2,3,27,45,0,0,-1,31,688
2,3,27,46,0,0,-1,31,687
2,3,27,47,0,0,-1,31,686
3,2,27,11,0,5,31,685
3,2,27,11,0,7,31,684
2,3,36,15,0,0,-1,31,683
2,3,36,20,0,0,-1,31,682
2,3,36,21,0,0,-1,31,681
2,3,36,22,0,0,-1,31,680
2,3,36,23,0,0,-1,31,679
3,2,36,4,0,5,31,678
3,2,36,4,0,7,31,677
2,3,37,15,0,0,-1,31,676
2,3,37,21,0,0,-1,31,675
2,3,37,22,0,0,-1,31,674
2,3,37,23,0,0,-1,31,673
3,2,37,5,0,5,31,672
3,2,37,5,0,7,31,671
2,3,38,15,0,0,-1,31,670
2,3,38,21,0,0,-1,31,669
2,3,38,22,0,0,-1,31,668
2,3,38,23,0,0,-1,31,667
3,2,38,6,0,5,31,666
3,2,38,6,0,7,31,665
2,3,39,15,0,0,-1,31,664
2,3,39,21,0,0,-1,31,663
2,3,39,22,0,0,-1,31,662
2,3,39,23,0,0,-1,31,661
3,2,39,7,0,5,31,660
3,2,39,7,0,7,31,659
2,3,40,15,0,0,-1,31,658
2,3,41,15,0,0,-1,31,657
2,3,42,15,0,0,-1,31,656
2,3,43,15,0,0,-1,31,655
2,3,32,16,0,0,-1,31,654
2,3,32,17,0,0,-1,31,653
2,3,32,18,0,0,-1,31,652
3,2,32,0,0,5,31,651
3,2,32,0,0,7,31,650
2,3,33,16,0,0,-1,31,649
2,3,33,17,0,0,-1,31,648
2,3,33,18,0,0,-1,31,647
3,2,33,1,0,5,31,646
3,2,33,1,0,7,31,645
2,3,34,16,0,0,-1,31,644
2,3,34,17,0,0,-1,31,643
2,3,34,18,0,0,-1,31,642
3,2,34,2,0,5,31,641
3,2,34,2,0,7,31,640
2,3,35,16,0,0,-1,31,639
2,3,35,17,0,0,-1,31,638
2,3,35,18,0,0,-1,31,637
3,2,35,3,0,5,31,636
3,2,35,3,0,7,31,635
2,3,40,16,0,0,-1,31,634
2,3,40,17,0,0,-1,31,633
2,3,40,18,0,0,-1,31,632
3,2,40,8,0,5,31,631
3,2,40,8,0,7,31,630
2,3,41,16,0,0,-1,31,629
2,3,41,17,0,0,-1,31,628
2,3,41,18,0,0,-1,31,627
2,3,41,19,0,0,-1,31,626
3,2,41,9,0,5,31,625
3,2,41,9,0,7,31,624
2,3,42,16,0,0,-1,31,623
2,3,42,17,0,0,-1,31,622
2,3,42,18,0,0,-1,31,621
2,3,42,19,0,0,-1,31,620
3,2,42,10,0,5,31,619
3,2,42,10,0,7,31,618
2,3,43,16,0,0,-1,31,617
2,3,43,17,0,0,-1,31,616
2,3,43,18,0,0,-1,31,615
2,3,43,19,0,0,-1,31,614
3,2,43,11,0,5,31,613
3,2,43,11,0,7,31,612
3,2,13,13,0,5,33,611
3,2,13,13,0,7,33,610
3,2,12,12,0,5,33,609
3,2,12,12,0,7,33,608
3,2,7,7,0,5,33,607
3,2,7,7,0,7,33,606
3,2,6,6,0,5,33,605
3,2,6,6,0,7,33,604
3,2,3,3,0,7,33,603
3,2,2,2,0,7,33,602
3,2,8,8,0,4,33,601
3,2,9,9,0,4,33,600
3,2,10,10,0,4,33,599
3,2,1,1,0,7,33,598
3,2,11,11,0,4,33,597
3,2,0,0,0,7,33,596
2,3,8,4,0,0,-1,33,595
2,3,9,4,0,0,-1,33,594
2,3,10,4,0,0,-1,33,593
2,3,11,4,0,0,-1,33,592
2,3,8,5,0,0,-1,33,591
2,3,9,5,0,0,-1,33,590
2,3,10,5,0,0,-1,33,589
2,3,11,5,0,0,-1,33,588
2,3,8,6,0,0,-1,33,587
2,3,9,6,0,0,-1,33,586
2,3,10,6,0,0,-1,33,585
2,3,11,6,0,0,-1,33,584
2,3,8,7,0,0,-1,33,583
2,3,9,7,0,0,-1,33,582
2,3,10,7,0,0,-1,33,581
2,3,11,7,0,0,-1,33,580
2,3,15,40,0,0,-1,33,579
2,3,15,41,0,0,-1,33,578
2,3,15,42,0,0,-1,33,577
2,3,15,43,0,0,-1,33,576
2,3,14,24,0,0,-1,33,575
2,3,15,24,0,0,-1,33,574
2,3,14,25,0,0,-1,33,573
2,3,14,26,0,0,-1,33,572
2,3,15,26,0,0,-1,33,571
2,3,15,27,0,0,-1,33,570
2,3,8,12,0,0,-1,33,569
2,3,9,12,0,0,-1,33,568
2,3,10,12,0,0,-1,33,567
2,3,11,12,0,0,-1,33,566
2,3,8,13,0,0,-1,33,565
2,3,9,13,0,0,-1,33,564
2,3,10,13,0,0,-1,33,563
2,3,11,13,0,0,-1,33,562
2,3,8,14,0,0,-1,33,561
3,2,8,8,0,5,33,560
3,2,8,8,0,7,33,559
2,3,9,14,0,0,-1,33,558
3,2,9,9,0,5,33,557
3,2,9,9,0,7,33,556
2,3,10,14,0,0,-1,33,555
3,2,10,10,0,5,33,554
3,2,10,10,0,7,33,553
2,3,11,14,0,0,-1,33,552
3,2,11,11,0,5,33,551
3,2,11,11,0,7,33,550
2,3,4,20,0,0,-1,33,549
2,3,4,21,0,0,-1,33,548
3,2,4,4,0,5,33,547
3,2,4,4,0,7,33,546
2,3,5,20,0,0,-1,33,545
2,3,5,21,0,0,-1,33,544
3,2,5,5,0,5,33,543
3,2,5,5,0,7,33,542
2,3,14,18,0,0,-1,33,541
2,3,14,19,0,0,-1,33,540
3,2,14,14,0,5,33,539
3,2,14,14,0,7,33,538
2,3,15,16,0,0,-1,33,537
2,3,15,18,0,0,-1,33,536
2,3,15,36,0,0,-1,33,535
2,3,15,37,0,0,-1,33,534
2,3,15,38,0,0,-1,33,533
2,3,15,39,0,0,-1,33,532
2,3,15,44,0,0,-1,33,531
2,3,15,45,0,0,-1,33,530
2,3,15,46,0,0,-1,33,529
2,3,15,47,0,0,-1,33,528
2,3,15,48,0,0,-1,33,527
2,3,15,49,0,0,-1,33,526
2,3,15,50,0,0,-1,33,525
3,2,15,15,0,5,33,524
4,1,0,1,RARBUF,-1,33,523
3,2,15,15,0,7,33,522
4,1,0,1,RAPBUF,-1,33,521
3,2,0,0,0,4,33,520
3,2,1,1,0,4,33,519
3,2,2,2,0,4,33,518
3,2,3,3,0,4,33,517
4,1,0,1,XARBUF,-1,33,516
21,0,1,CONSTRUCTGA1,-1,33,515
15,0,1,RAR,-1,34,514
16,0,1,RAR,-1,34,513
21,0,1,CONSTRUCTGA2,-1,34,512
21,0,1,EIGEN,-1,34,511
5,1,20,0,6,34,510
5,1,21,0,6,34,509
5,1,22,0,6,34,508
5,1,23,0,6,34,507
5,1,28,0,6,34,506
5,1,29,0,6,34,505
5,1,30,0,6,34,504
5,1,31,0,6,34,503
5,1,36,0,6,34,502
5,1,37,0,6,34,501
5,1,38,0,6,34,500
5,1,39,0,6,34,499
5,1,44,0,6,34,498
5,1,45,0,6,34,497
5,1,46,0,6,34,496
5,1,47,0,6,34,495
5,1,0,0,7,34,494
5,1,1,0,7,34,493
5,1,2,0,7,34,492
5,1,3,0,7,34,491
5,1,4,0,7,34,490
5,1,5,0,7,34,489
5,1,6,0,7,34,488
5,1,7,0,7,34,487
5,1,44,0,11,34,486
5,1,45,0,11,34,485
5,1,46,0,11,34,484
5,1,47,0,11,34,483
5,1,12,0,8,35,482
5,1,13,0,8,35,481
5,1,14,0,8,35,480
5,1,15,0,8,35,479
5,1,32,0,9,35,478
5,1,33,0,9,35,477
5,1,34,0,9,35,476
5,1,35,0,9,35,475
5,1,36,0,9,35,474
5,1,37,0,9,35,473
5,1,38,0,9,35,472
5,1,39,0,9,35,471
5,1,40,0,9,35,470
5,1,41,0,9,35,469
5,1,42,0,9,35,468
5,1,43,0,9,35,467
5,1,44,0,9,35,466
5,1,45,0,9,35,465
5,1,46,0,9,35,464
5,1,47,0,9,35,463
5,1,48,0,9,35,462
5,1,49,0,9,35,461
5,1,50,0,9,35,460
5,1,4,0,10,35,459
5,1,5,0,10,35,458
5,1,6,0,10,35,457
5,1,7,0,10,35,456
5,1,0,0,11,35,455
5,1,1,0,11,35,454
5,1,2,0,11,35,453
5,1,3,0,11,35,452
5,1,4,0,11,35,451
5,1,5,0,11,35,450
5,1,6,0,11,35,449
5,1,7,0,11,35,448
5,1,20,0,11,35,447
5,1,21,0,11,35,446
5,1,22,0,11,35,445
5,1,23,0,11,35,444
5,1,28,0,11,35,443
5,1,29,0,11,35,442
5,1,30,0,11,35,441
5,1,31,0,11,35,440
5,1,16,0,6,36,439
5,1,17,0,6,36,438
5,1,18,0,6,36,437
5,1,19,0,6,36,436
5,1,24,0,6,36,435
5,1,25,0,6,36,434
5,1,26,0,6,36,433
5,1,27,0,6,36,432
5,1,32,0,6,36,431
5,1,33,0,6,36,430
5,1,34,0,6,36,429
5,1,35,0,6,36,428
5,1,48,0,6,36,427
5,1,49,0,6,36,426
5,1,50,0,6,36,425
5,1,16,0,7,36,424
6,1,16,0,1,36,423
5,1,17,0,7,36,422
6,1,17,0,1,36,421
5,1,18,0,7,36,420
6,1,18,0,1,36,419
5,1,19,0,7,36,418
6,1,19,0,1,36,417
5,1,32,0,7,36,416
6,1,32,0,1,36,415
5,1,33,0,7,36,414
6,1,33,0,1,36,413
5,1,34,0,7,36,412
6,1,34,0,1,36,411
5,1,35,0,7,36,410
6,1,35,0,1,36,409
5,1,48,0,7,36,408
6,1,48,0,1,36,407
5,1,49,0,7,36,406
6,1,49,0,1,36,405
5,1,50,0,7,36,404
6,1,50,0,1,36,403
5,1,4,0,8,36,402
5,1,5,0,8,36,401
5,1,6,0,8,36,400
5,1,7,0,8,36,399
5,1,8,0,10,36,398
5,1,9,0,10,36,397
5,1,10,0,10,36,396
5,1,11,0,10,36,395
5,1,20,0,7,38,394
6,1,20,0,1,38,393
5,1,21,0,7,38,392
6,1,21,0,1,38,391
5,1,22,0,7,38,390
6,1,22,0,1,38,389
5,1,23,0,7,38,388
6,1,23,0,1,38,387
5,1,28,0,7,38,386
5,1,29,0,7,38,385
5,1,30,0,7,38,384
5,1,31,0,7,38,383
5,1,36,0,7,38,382
6,1,36,0,1,38,381
5,1,37,0,7,38,380
6,1,37,0,1,38,379
5,1,38,0,7,38,378
6,1,38,0,1,38,377
5,1,39,0,7,38,376
6,1,39,0,1,38,375
5,1,44,0,8,38,374
5,1,45,0,8,38,373
5,1,46,0,8,38,372
5,1,47,0,8,38,371
5,1,12,0,9,38,370
6,1,12,0,2,38,369
5,1,13,0,9,38,368
6,1,13,0,2,38,367
5,1,14,0,9,38,366
6,1,14,0,2,38,365
5,1,15,0,9,38,364
6,1,15,0,2,38,363
5,1,20,0,10,38,362
6,1,20,0,3,38,361
5,1,21,0,10,38,360
6,1,21,0,3,38,359
5,1,22,0,10,38,358
6,1,22,0,3,38,357
5,1,23,0,10,38,356
6,1,23,0,3,38,355
5,1,36,0,10,38,354
6,1,36,0,3,38,353
5,1,37,0,10,38,352
6,1,37,0,3,38,351
5,1,38,0,10,38,350
6,1,38,0,3,38,349
5,1,39,0,10,38,348
6,1,39,0,3,38,347
5,1,8,0,6,37,346
5,1,9,0,6,37,345
5,1,10,0,6,37,344
5,1,11,0,6,37,343
5,1,40,0,6,37,342
5,1,41,0,6,37,341
5,1,42,0,6,37,340
5,1,43,0,6,37,339
5,1,8,0,7,37,338
6,1,8,0,1,37,337
6,1,8,0,3,37,336
5,1,9,0,7,37,335
6,1,9,0,1,37,334
6,1,9,0,3,37,333
5,1,10,0,7,37,332
6,1,10,0,1,37,331
6,1,10,0,3,37,330
5,1,11,0,7,37,329
6,1,11,0,1,37,328
6,1,11,0,3,37,327
5,1,24,0,7,37,326
6,1,24,0,1,37,325
5,1,25,0,7,37,324
6,1,25,0,1,37,323
5,1,26,0,7,37,322
6,1,26,0,1,37,321
5,1,27,0,7,37,320
6,1,27,0,1,37,319
5,1,40,0,7,37,318
6,1,40,0,1,37,317
5,1,41,0,7,37,316
6,1,41,0,1,37,315
5,1,42,0,7,37,314
6,1,42,0,1,37,313
5,1,43,0,7,37,312
6,1,43,0,1,37,311
5,1,0,0,8,37,310
5,1,1,0,8,37,309
5,1,2,0,8,37,308
5,1,3,0,8,37,307
5,1,8,0,8,37,306
5,1,9,0,8,37,305
5,1,10,0,8,37,304
5,1,11,0,8,37,303
5,1,32,0,8,39,302
6,1,32,0,2,39,301
5,1,33,0,8,39,300
6,1,33,0,2,39,299
5,1,34,0,8,39,298
6,1,34,0,2,39,297
5,1,35,0,8,39,296
6,1,35,0,2,39,295
5,1,36,0,8,39,294
6,1,36,0,2,39,293
5,1,37,0,8,39,292
6,1,37,0,2,39,291
5,1,38,0,8,39,290
6,1,38,0,2,39,289
5,1,39,0,8,39,288
6,1,39,0,2,39,287
5,1,48,0,8,39,286
5,1,49,0,8,39,285
5,1,50,0,8,39,284
5,1,12,0,10,39,283
5,1,13,0,10,39,282
5,1,14,0,10,39,281
5,1,15,0,10,39,280
5,1,48,0,10,39,279
6,1,48,0,3,39,278
5,1,49,0,10,39,277
6,1,49,0,3,39,276
5,1,50,0,10,39,275
6,1,50,0,3,39,274
5,1,12,0,11,39,273
6,1,12,0,4,39,272
5,1,13,0,11,39,271
6,1,13,0,4,39,270
5,1,14,0,11,39,269
6,1,14,0,4,39,268
5,1,15,0,11,39,267
6,1,15,0,4,39,266
5,1,24,0,11,39,265
5,1,25,0,11,39,264
5,1,26,0,11,39,263
5,1,27,0,11,39,262
6,1,47,0,2,44,261
6,1,47,0,4,44,260
6,1,46,0,2,44,259
6,1,46,0,4,44,258
6,1,45,0,2,44,257
6,1,45,0,4,44,256
6,1,44,0,2,44,255
6,1,44,0,4,44,254
5,1,0,0,6,44,253
6,1,0,0,1,44,252
5,1,1,0,6,44,251
6,1,1,0,1,44,250
5,1,2,0,6,44,249
6,1,2,0,1,44,248
5,1,3,0,6,44,247
6,1,3,0,1,44,246
5,1,4,0,6,44,245
6,1,4,0,1,44,244
6,1,4,0,3,44,243
5,1,5,0,6,44,242
6,1,5,0,1,44,241
6,1,5,0,3,44,240
5,1,6,0,6,44,239
6,1,6,0,1,44,238
6,1,6,0,3,44,237
5,1,7,0,6,44,236
6,1,7,0,1,44,235
6,1,7,0,3,44,234
5,1,0,0,10,44,233
6,1,0,0,3,44,232
5,1,1,0,10,44,231
6,1,1,0,3,44,230
5,1,2,0,10,44,229
6,1,2,0,3,44,228
5,1,3,0,10,44,227
6,1,3,0,3,44,226
5,1,24,0,10,44,225
6,1,24,0,3,44,224
5,1,25,0,10,44,223
6,1,25,0,3,44,222
5,1,26,0,10,44,221
6,1,26,0,3,44,220
5,1,27,0,10,44,219
6,1,27,0,3,44,218
5,1,28,0,8,41,217
5,1,29,0,8,41,216
5,1,30,0,8,41,215
5,1,31,0,8,41,214
5,1,8,0,9,41,213
5,1,9,0,9,41,212
5,1,10,0,9,41,211
5,1,11,0,9,41,210
5,1,28,0,9,41,209
6,1,28,0,2,41,208
5,1,29,0,9,41,207
6,1,29,0,2,41,206
5,1,30,0,9,41,205
6,1,30,0,2,41,204
5,1,31,0,9,41,203
6,1,31,0,2,41,202
5,1,28,0,10,41,201
5,1,29,0,10,41,200
5,1,30,0,10,41,199
5,1,31,0,10,41,198
5,1,40,0,10,41,197
6,1,40,0,3,41,196
5,1,41,0,10,41,195
6,1,41,0,3,41,194
5,1,42,0,10,41,193
6,1,42,0,3,41,192
5,1,43,0,10,41,191
6,1,43,0,3,41,190
5,1,32,0,11,41,189
6,1,32,0,4,41,188
5,1,33,0,11,41,187
6,1,33,0,4,41,186
5,1,34,0,11,41,185
6,1,34,0,4,41,184
5,1,35,0,11,41,183
6,1,35,0,4,41,182
5,1,36,0,11,41,181
6,1,36,0,4,41,180
5,1,37,0,11,41,179
6,1,37,0,4,41,178
5,1,38,0,11,41,177
6,1,38,0,4,41,176
5,1,39,0,11,41,175
6,1,39,0,4,41,174
5,1,44,0,7,40,173
6,1,44,0,1,40,172
5,1,45,0,7,40,171
6,1,45,0,1,40,170
5,1,46,0,7,40,169
6,1,46,0,1,40,168
5,1,47,0,7,40,167
6,1,47,0,1,40,166
5,1,16,0,8,40,165
5,1,17,0,8,40,164
5,1,18,0,8,40,163
5,1,19,0,8,40,162
5,1,24,0,8,40,161
5,1,25,0,8,40,160
5,1,26,0,8,40,159
5,1,27,0,8,40,158
5,1,40,0,8,40,157
6,1,40,0,2,40,156
5,1,41,0,8,40,155
6,1,41,0,2,40,154
5,1,42,0,8,40,153
6,1,42,0,2,40,152
5,1,43,0,8,40,151
6,1,43,0,2,40,150
5,1,16,0,9,40,149
6,1,16,0,2,40,148
5,1,17,0,9,40,147
6,1,17,0,2,40,146
5,1,18,0,9,40,145
6,1,18,0,2,40,144
5,1,19,0,9,40,143
6,1,19,0,2,40,142
5,1,24,0,9,40,141
6,1,24,0,2,40,140
6,1,24,0,4,40,139
5,1,25,0,9,40,138
6,1,25,0,2,40,137
6,1,25,0,4,40,136
5,1,26,0,9,40,135
6,1,26,0,2,40,134
6,1,26,0,4,40,133
5,1,27,0,9,40,132
6,1,27,0,2,40,131
6,1,27,0,4,40,130
6,1,31,0,4,42,129
6,1,30,0,4,42,128
6,1,29,0,4,42,127
6,1,28,0,4,42,126
5,1,12,0,6,42,125
5,1,13,0,6,42,124
5,1,14,0,6,42,123
5,1,15,0,6,42,122
5,1,12,0,7,42,121
6,1,12,0,1,42,120
5,1,13,0,7,42,119
6,1,13,0,1,42,118
5,1,14,0,7,42,117
6,1,14,0,1,42,116
5,1,15,0,7,42,115
6,1,15,0,1,42,114
5,1,0,0,9,42,113
5,1,1,0,9,42,112
5,1,2,0,9,42,111
5,1,3,0,9,42,110
5,1,16,0,10,42,109
6,1,16,0,3,42,108
5,1,17,0,10,42,107
6,1,17,0,3,42,106
5,1,18,0,10,42,105
6,1,18,0,3,42,104
5,1,19,0,10,42,103
6,1,19,0,3,42,102
5,1,32,0,10,42,101
5,1,33,0,10,42,100
5,1,34,0,10,42,99
5,1,35,0,10,42,98
5,1,44,0,10,42,97
6,1,44,0,3,42,96
5,1,45,0,10,42,95
6,1,45,0,3,42,94
5,1,46,0,10,42,93
6,1,46,0,3,42,92
5,1,47,0,10,42,91
6,1,47,0,3,42,90
5,1,8,0,11,42,89
5,1,9,0,11,42,88
5,1,10,0,11,42,87
5,1,11,0,11,42,86
6,1,15,0,3,43,85
6,1,14,0,3,43,84
6,1,13,0,3,43,83
6,1,12,0,3,43,82
6,1,11,0,2,43,81
6,1,11,0,4,43,80
6,1,10,0,2,43,79
6,1,10,0,4,43,78
6,1,9,0,2,43,77
6,1,9,0,4,43,76
6,1,8,0,2,43,75
6,1,8,0,4,43,74
6,1,31,0,1,43,73
6,1,31,0,3,43,72
6,1,30,0,1,43,71
6,1,30,0,3,43,70
6,1,29,0,1,43,69
6,1,29,0,3,43,68
6,1,28,0,1,43,67
6,1,28,0,3,43,66
5,1,20,0,8,43,65
5,1,21,0,8,43,64
5,1,22,0,8,43,63
5,1,23,0,8,43,62
5,1,20,0,9,43,61
6,1,20,0,2,43,60
6,1,20,0,4,43,59
5,1,21,0,9,43,58
6,1,21,0,2,43,57
6,1,21,0,4,43,56
5,1,22,0,9,43,55
6,1,22,0,2,43,54
6,1,22,0,4,43,53
5,1,23,0,9,43,52
6,1,23,0,2,43,51
6,1,23,0,4,43,50
5,1,40,0,11,43,49
6,1,40,0,4,43,48
5,1,41,0,11,43,47
6,1,41,0,4,43,46
5,1,42,0,11,43,45
6,1,42,0,4,43,44
5,1,43,0,11,43,43
6,1,43,0,4,43,42
6,1,35,0,3,45,41
6,1,34,0,3,45,40
6,1,33,0,3,45,39
6,1,32,0,3,45,38
6,1,3,0,2,45,37
6,1,3,0,4,45,36
6,1,2,0,2,45,35
6,1,2,0,4,45,34
6,1,1,0,2,45,33
6,1,1,0,4,45,32
6,1,0,0,2,45,31
6,1,0,0,4,45,30
6,1,50,0,2,45,29
6,1,49,0,2,45,28
6,1,48,0,2,45,27
5,1,4,0,9,45,26
6,1,4,0,2,45,25
6,1,4,0,4,45,24
5,1,5,0,9,45,23
6,1,5,0,2,45,22
6,1,5,0,4,45,21
5,1,6,0,9,45,20
6,1,6,0,2,45,19
6,1,6,0,4,45,18
5,1,7,0,9,45,17
6,1,7,0,2,45,16
6,1,7,0,4,45,15
5,1,16,0,11,45,14
6,1,16,0,4,45,13
5,1,17,0,11,45,12
6,1,17,0,4,45,11
5,1,18,0,11,45,10
6,1,18,0,4,45,9
5,1,19,0,11,45,8
6,1,19,0,4,45,7
5,1,48,0,11,45,6
6,1,48,0,4,45,5
5,1,49,0,11,45,4
6,1,49,0,4,45,3
5,1,50,0,11,45,2
6,1,50,0,4,45,1
