1960
19,1,50,0,1,0,1960
19,1,49,0,1,0,1959
19,1,48,0,1,0,1958
19,1,47,0,1,0,1957
19,1,46,0,1,0,1956
19,1,45,0,1,0,1955
19,1,44,0,1,0,1954
19,1,43,0,1,0,1953
19,1,42,0,1,0,1952
19,1,41,0,1,0,1951
19,1,40,0,1,0,1950
19,1,39,0,1,0,1949
19,1,38,0,1,0,1948
19,1,37,0,1,0,1947
19,1,36,0,1,0,1946
19,1,35,0,1,0,1945
19,1,34,0,1,0,1944
19,1,33,0,1,0,1943
19,1,32,0,1,0,1942
19,1,31,0,1,0,1941
19,1,30,0,1,0,1940
19,1,29,0,1,0,1939
19,1,28,0,1,0,1938
19,1,27,0,1,0,1937
19,1,26,0,1,0,1936
19,1,25,0,1,0,1935
19,1,24,0,1,0,1934
19,1,23,0,1,0,1933
19,1,22,0,1,0,1932
19,1,21,0,1,0,1931
19,1,20,0,1,0,1930
19,1,19,0,1,0,1929
19,1,18,0,1,0,1928
19,1,17,0,1,0,1927
19,1,16,0,1,0,1926
22,0,1,_X,-1,0,1925
3,2,50,2,0,20,0,1924
22,0,1,_X,-1,0,1923
3,2,49,1,0,20,0,1922
22,0,1,_X,-1,0,1921
3,2,48,0,0,20,0,1920
22,0,1,_X,-1,0,1919
3,2,47,15,0,20,0,1918
22,0,1,_X,-1,0,1917
3,2,46,14,0,20,0,1916
22,0,1,_X,-1,0,1915
3,2,45,13,0,20,0,1914
22,0,1,_X,-1,0,1913
3,2,44,12,0,20,0,1912
22,0,1,_X,-1,0,1911
3,2,43,11,0,20,0,1910
22,0,1,_X,-1,0,1909
3,2,42,10,0,20,0,1908
22,0,1,_X,-1,0,1907
3,2,41,9,0,20,0,1906
22,0,1,_X,-1,0,1905
3,2,40,8,0,20,0,1904
22,0,1,_X,-1,0,1903
3,2,39,7,0,20,0,1902
22,0,1,_X,-1,0,1901
3,2,38,6,0,20,0,1900
22,0,1,_X,-1,0,1899
3,2,37,5,0,20,0,1898
22,0,1,_X,-1,0,1897
3,2,36,4,0,20,0,1896
22,0,1,_X,-1,0,1895
3,2,35,3,0,20,0,1894
22,0,1,_X,-1,0,1893
3,2,34,2,0,20,0,1892
22,0,1,_X,-1,0,1891
3,2,33,1,0,20,0,1890
22,0,1,_X,-1,0,1889
3,2,32,0,0,20,0,1888
22,0,1,_X,-1,0,1887
3,2,27,11,0,20,0,1886
22,0,1,_X,-1,0,1885
3,2,26,10,0,20,0,1884
22,0,1,_X,-1,0,1883
3,2,25,9,0,20,0,1882
22,0,1,_X,-1,0,1881
3,2,24,8,0,20,0,1880
22,0,1,_X,-1,0,1879
3,2,23,7,0,20,0,1878
22,0,1,_X,-1,0,1877
3,2,22,6,0,20,0,1876
22,0,1,_X,-1,0,1875
3,2,21,5,0,20,0,1874
22,0,1,_X,-1,0,1873
3,2,20,4,0,20,0,1872
22,0,1,_X,-1,0,1871
3,2,19,3,0,20,0,1870
22,0,1,_X,-1,0,1869
3,2,18,2,0,20,0,1868
22,0,1,_X,-1,0,1867
3,2,17,1,0,20,0,1866
22,0,1,_X,-1,0,1865
3,2,16,0,0,20,0,1864
22,0,1,_X,-1,0,1863
3,2,15,15,0,20,0,1862
22,0,1,_X,-1,0,1861
3,2,14,14,0,20,0,1860
22,0,1,_X,-1,0,1859
3,2,13,13,0,20,0,1858
22,0,1,_X,-1,0,1857
3,2,12,12,0,20,0,1856
22,0,1,_X,-1,0,1855
3,2,11,11,0,20,0,1854
22,0,1,_X,-1,0,1853
3,2,10,10,0,20,0,1852
22,0,1,_X,-1,0,1851
3,2,9,9,0,20,0,1850
22,0,1,_X,-1,0,1849
3,2,8,8,0,20,0,1848
22,0,1,_X,-1,0,1847
3,2,7,7,0,20,0,1846
22,0,1,_X,-1,0,1845
3,2,6,6,0,20,0,1844
22,0,1,_X,-1,0,1843
3,2,5,5,0,20,0,1842
22,0,1,_X,-1,0,1841
3,2,4,4,0,20,0,1840
22,0,1,_X,-1,0,1839
3,2,3,3,0,20,0,1838
22,0,1,_X,-1,0,1837
3,2,2,2,0,20,0,1836
22,0,1,_X,-1,0,1835
3,2,1,1,0,20,0,1834
22,0,1,_X,-1,0,1833
3,2,0,0,0,20,0,1832
19,1,11,0,1,1,1831
19,1,10,0,1,1,1830
19,1,9,0,1,1,1829
19,1,8,0,1,1,1828
19,1,7,0,1,1,1827
19,1,6,0,1,1,1826
19,1,5,0,1,1,1825
19,1,4,0,1,1,1824
19,1,3,0,1,1,1823
19,1,2,0,1,1,1822
19,1,1,0,1,1,1821
19,1,0,0,1,1,1820
22,0,1,_X,-1,1,1819
3,2,31,15,0,20,1,1818
22,0,1,_X,-1,1,1817
3,2,30,14,0,20,1,1816
22,0,1,_X,-1,1,1815
3,2,29,13,0,20,1,1814
22,0,1,_X,-1,1,1813
3,2,28,12,0,20,1,1812
4,1,0,1,XBXBUF,-1,1,1811
17,0,1,XBX,-1,1,1810
7,1,0,0,20,1,1809
18,0,1,XBX,-1,1,1808
5,1,4,0,20,1,1807
5,1,5,0,20,1,1806
5,1,6,0,20,1,1805
5,1,7,0,20,1,1804
5,1,12,0,20,1,1803
5,1,13,0,20,1,1802
5,1,14,0,20,1,1801
5,1,15,0,20,1,1800
5,1,20,0,20,1,1799
5,1,21,0,20,1,1798
5,1,22,0,20,1,1797
5,1,23,0,20,1,1796
5,1,24,0,20,1,1795
5,1,25,0,20,1,1794
5,1,26,0,20,1,1793
5,1,27,0,20,1,1792
5,1,28,0,20,1,1791
5,1,29,0,20,1,1790
5,1,30,0,20,1,1789
5,1,31,0,20,1,1788
5,1,32,0,20,1,1787
5,1,33,0,20,1,1786
5,1,34,0,20,1,1785
5,1,35,0,20,1,1784
5,1,36,0,20,1,1783
5,1,37,0,20,1,1782
5,1,38,0,20,1,1781
5,1,39,0,20,1,1780
5,1,44,0,20,1,1779
5,1,45,0,20,1,1778
5,1,46,0,20,1,1777
5,1,47,0,20,1,1776
5,1,0,0,20,2,1775
7,1,0,0,21,2,1774
2,3,0,0,0,0,-1,2,1773
2,3,1,0,0,0,-1,2,1772
5,1,1,0,20,2,1771
7,1,1,0,21,2,1770
2,3,0,1,0,0,-1,2,1769
2,3,1,1,0,0,-1,2,1768
2,3,2,1,0,0,-1,2,1767
2,3,11,1,0,0,-1,2,1766
5,1,2,0,20,2,1765
7,1,2,0,21,2,1764
2,3,1,2,0,0,-1,2,1763
2,3,2,2,0,0,-1,2,1762
2,3,3,2,0,0,-1,2,1761
2,3,8,2,0,0,-1,2,1760
2,3,9,2,0,0,-1,2,1759
2,3,10,2,0,0,-1,2,1758
2,3,11,2,0,0,-1,2,1757
5,1,3,0,20,2,1756
7,1,3,0,21,2,1755
2,3,2,3,0,0,-1,2,1754
2,3,3,3,0,0,-1,2,1753
2,3,4,3,0,0,-1,2,1752
2,3,7,3,0,0,-1,2,1751
2,3,8,3,0,0,-1,2,1750
2,3,9,3,0,0,-1,2,1749
2,3,10,3,0,0,-1,2,1748
2,3,11,3,0,0,-1,2,1747
5,1,8,0,20,2,1746
7,1,8,0,21,2,1745
2,3,2,8,0,0,-1,2,1744
2,3,3,8,0,0,-1,2,1743
2,3,4,8,0,0,-1,2,1742
2,3,5,8,0,0,-1,2,1741
2,3,6,8,0,0,-1,2,1740
2,3,7,8,0,0,-1,2,1739
2,3,8,8,0,0,-1,2,1738
2,3,9,8,0,0,-1,2,1737
2,3,10,8,0,0,-1,2,1736
2,3,11,8,0,0,-1,2,1735
5,1,9,0,20,2,1734
7,1,9,0,21,2,1733
2,3,2,9,0,0,-1,2,1732
2,3,3,9,0,0,-1,2,1731
2,3,4,9,0,0,-1,2,1730
2,3,5,9,0,0,-1,2,1729
2,3,6,9,0,0,-1,2,1728
2,3,7,9,0,0,-1,2,1727
2,3,8,9,0,0,-1,2,1726
2,3,9,9,0,0,-1,2,1725
2,3,10,9,0,0,-1,2,1724
2,3,11,9,0,0,-1,2,1723
5,1,10,0,20,2,1722
7,1,10,0,21,2,1721
2,3,2,10,0,0,-1,2,1720
2,3,3,10,0,0,-1,2,1719
2,3,4,10,0,0,-1,2,1718
2,3,5,10,0,0,-1,2,1717
2,3,6,10,0,0,-1,2,1716
2,3,7,10,0,0,-1,2,1715
2,3,8,10,0,0,-1,2,1714
2,3,9,10,0,0,-1,2,1713
2,3,10,10,0,0,-1,2,1712
2,3,11,10,0,0,-1,2,1711
5,1,11,0,20,2,1710
7,1,11,0,21,2,1709
2,3,1,11,0,0,-1,2,1708
2,3,2,11,0,0,-1,2,1707
2,3,3,11,0,0,-1,2,1706
2,3,4,11,0,0,-1,2,1705
2,3,5,11,0,0,-1,2,1704
2,3,6,11,0,0,-1,2,1703
2,3,7,11,0,0,-1,2,1702
2,3,8,11,0,0,-1,2,1701
2,3,9,11,0,0,-1,2,1700
2,3,10,11,0,0,-1,2,1699
2,3,11,11,0,0,-1,2,1698
5,1,16,0,20,2,1697
5,1,17,0,20,2,1696
5,1,18,0,20,2,1695
5,1,19,0,20,2,1694
5,1,40,0,20,2,1693
5,1,41,0,20,2,1692
5,1,42,0,20,2,1691
5,1,43,0,20,2,1690
5,1,48,0,20,2,1689
5,1,49,0,20,2,1688
5,1,50,0,20,2,1687
19,1,15,0,1,2,1686
19,1,14,0,1,2,1685
2,3,14,2,0,0,-1,2,1684
2,3,14,3,0,0,-1,2,1683
2,3,14,8,0,0,-1,2,1682
2,3,14,9,0,0,-1,2,1681
2,3,14,10,0,0,-1,2,1680
2,3,14,11,0,0,-1,2,1679
19,1,13,0,1,2,1678
2,3,13,3,0,0,-1,2,1677
2,3,13,8,0,0,-1,2,1676
2,3,13,9,0,0,-1,2,1675
2,3,13,10,0,0,-1,2,1674
2,3,13,11,0,0,-1,2,1673
19,1,12,0,1,2,1672
2,3,12,2,0,0,-1,2,1671
2,3,12,3,0,0,-1,2,1670
2,3,12,8,0,0,-1,2,1669
2,3,12,9,0,0,-1,2,1668
2,3,12,10,0,0,-1,2,1667
2,3,12,11,0,0,-1,2,1666
7,1,31,0,21,13,1665
2,3,16,31,0,0,-1,13,1664
2,3,17,31,0,0,-1,13,1663
2,3,18,31,0,0,-1,13,1662
2,3,19,31,0,0,-1,13,1661
2,3,20,31,0,0,-1,13,1660
2,3,21,31,0,0,-1,13,1659
2,3,22,31,0,0,-1,13,1658
2,3,23,31,0,0,-1,13,1657
2,3,24,31,0,0,-1,13,1656
2,3,25,31,0,0,-1,13,1655
2,3,26,31,0,0,-1,13,1654
2,3,27,31,0,0,-1,13,1653
2,3,28,31,0,0,-1,13,1652
2,3,29,31,0,0,-1,13,1651
2,3,30,31,0,0,-1,13,1650
2,3,31,31,0,0,-1,13,1649
2,3,32,31,0,0,-1,13,1648
2,3,33,31,0,0,-1,13,1647
2,3,34,31,0,0,-1,13,1646
2,3,35,31,0,0,-1,13,1645
2,3,40,31,0,0,-1,13,1644
2,3,41,31,0,0,-1,13,1643
2,3,42,31,0,0,-1,13,1642
2,3,43,31,0,0,-1,13,1641
2,3,44,31,0,0,-1,13,1640
2,3,45,31,0,0,-1,13,1639
2,3,46,31,0,0,-1,13,1638
2,3,47,31,0,0,-1,13,1637
7,1,30,0,21,13,1636
2,3,16,30,0,0,-1,13,1635
2,3,17,30,0,0,-1,13,1634
2,3,18,30,0,0,-1,13,1633
2,3,21,30,0,0,-1,13,1632
2,3,22,30,0,0,-1,13,1631
2,3,23,30,0,0,-1,13,1630
2,3,24,30,0,0,-1,13,1629
2,3,26,30,0,0,-1,13,1628
2,3,27,30,0,0,-1,13,1627
2,3,28,30,0,0,-1,13,1626
2,3,29,30,0,0,-1,13,1625
2,3,30,30,0,0,-1,13,1624
2,3,31,30,0,0,-1,13,1623
2,3,32,30,0,0,-1,13,1622
2,3,33,30,0,0,-1,13,1621
2,3,34,30,0,0,-1,13,1620
2,3,35,30,0,0,-1,13,1619
2,3,40,30,0,0,-1,13,1618
2,3,41,30,0,0,-1,13,1617
2,3,42,30,0,0,-1,13,1616
2,3,43,30,0,0,-1,13,1615
2,3,44,30,0,0,-1,13,1614
2,3,45,30,0,0,-1,13,1613
2,3,46,30,0,0,-1,13,1612
2,3,47,30,0,0,-1,13,1611
7,1,29,0,21,13,1610
2,3,16,29,0,0,-1,13,1609
2,3,17,29,0,0,-1,13,1608
2,3,18,29,0,0,-1,13,1607
2,3,21,29,0,0,-1,13,1606
2,3,22,29,0,0,-1,13,1605
2,3,23,29,0,0,-1,13,1604
2,3,24,29,0,0,-1,13,1603
2,3,26,29,0,0,-1,13,1602
2,3,27,29,0,0,-1,13,1601
2,3,28,29,0,0,-1,13,1600
2,3,29,29,0,0,-1,13,1599
2,3,30,29,0,0,-1,13,1598
2,3,31,29,0,0,-1,13,1597
2,3,32,29,0,0,-1,13,1596
2,3,33,29,0,0,-1,13,1595
2,3,34,29,0,0,-1,13,1594
2,3,35,29,0,0,-1,13,1593
2,3,40,29,0,0,-1,13,1592
2,3,41,29,0,0,-1,13,1591
2,3,42,29,0,0,-1,13,1590
2,3,43,29,0,0,-1,13,1589
2,3,44,29,0,0,-1,13,1588
2,3,45,29,0,0,-1,13,1587
2,3,46,29,0,0,-1,13,1586
2,3,47,29,0,0,-1,13,1585
7,1,28,0,21,13,1584
2,3,16,28,0,0,-1,13,1583
2,3,17,28,0,0,-1,13,1582
2,3,18,28,0,0,-1,13,1581
2,3,21,28,0,0,-1,13,1580
2,3,22,28,0,0,-1,13,1579
2,3,23,28,0,0,-1,13,1578
2,3,24,28,0,0,-1,13,1577
2,3,26,28,0,0,-1,13,1576
2,3,27,28,0,0,-1,13,1575
2,3,28,28,0,0,-1,13,1574
2,3,29,28,0,0,-1,13,1573
2,3,30,28,0,0,-1,13,1572
2,3,31,28,0,0,-1,13,1571
2,3,32,28,0,0,-1,13,1570
2,3,33,28,0,0,-1,13,1569
2,3,34,28,0,0,-1,13,1568
2,3,35,28,0,0,-1,13,1567
2,3,40,28,0,0,-1,13,1566
2,3,41,28,0,0,-1,13,1565
2,3,42,28,0,0,-1,13,1564
2,3,43,28,0,0,-1,13,1563
2,3,44,28,0,0,-1,13,1562
2,3,45,28,0,0,-1,13,1561
2,3,46,28,0,0,-1,13,1560
2,3,47,28,0,0,-1,13,1559
7,1,35,0,21,10,1558
2,3,21,35,0,0,-1,10,1557
2,3,22,35,0,0,-1,10,1556
2,3,23,35,0,0,-1,10,1555
2,3,28,35,0,0,-1,10,1554
2,3,29,35,0,0,-1,10,1553
2,3,30,35,0,0,-1,10,1552
2,3,31,35,0,0,-1,10,1551
2,3,32,35,0,0,-1,10,1550
2,3,33,35,0,0,-1,10,1549
2,3,34,35,0,0,-1,10,1548
2,3,35,35,0,0,-1,10,1547
2,3,36,35,0,0,-1,10,1546
2,3,37,35,0,0,-1,10,1545
2,3,38,35,0,0,-1,10,1544
2,3,39,35,0,0,-1,10,1543
2,3,40,35,0,0,-1,10,1542
2,3,41,35,0,0,-1,10,1541
2,3,42,35,0,0,-1,10,1540
2,3,43,35,0,0,-1,10,1539
2,3,44,35,0,0,-1,10,1538
2,3,45,35,0,0,-1,10,1537
2,3,46,35,0,0,-1,10,1536
2,3,47,35,0,0,-1,10,1535
2,3,48,35,0,0,-1,10,1534
2,3,49,35,0,0,-1,10,1533
2,3,50,35,0,0,-1,10,1532
7,1,34,0,21,10,1531
2,3,21,34,0,0,-1,10,1530
2,3,22,34,0,0,-1,10,1529
2,3,23,34,0,0,-1,10,1528
2,3,28,34,0,0,-1,10,1527
2,3,29,34,0,0,-1,10,1526
2,3,30,34,0,0,-1,10,1525
2,3,31,34,0,0,-1,10,1524
2,3,32,34,0,0,-1,10,1523
2,3,33,34,0,0,-1,10,1522
2,3,34,34,0,0,-1,10,1521
2,3,35,34,0,0,-1,10,1520
2,3,36,34,0,0,-1,10,1519
2,3,37,34,0,0,-1,10,1518
2,3,38,34,0,0,-1,10,1517
2,3,39,34,0,0,-1,10,1516
2,3,40,34,0,0,-1,10,1515
2,3,41,34,0,0,-1,10,1514
2,3,42,34,0,0,-1,10,1513
2,3,43,34,0,0,-1,10,1512
2,3,44,34,0,0,-1,10,1511
2,3,45,34,0,0,-1,10,1510
2,3,46,34,0,0,-1,10,1509
2,3,47,34,0,0,-1,10,1508
2,3,48,34,0,0,-1,10,1507
2,3,49,34,0,0,-1,10,1506
2,3,50,34,0,0,-1,10,1505
7,1,33,0,21,10,1504
2,3,20,33,0,0,-1,10,1503
2,3,21,33,0,0,-1,10,1502
2,3,22,33,0,0,-1,10,1501
2,3,23,33,0,0,-1,10,1500
2,3,28,33,0,0,-1,10,1499
2,3,29,33,0,0,-1,10,1498
2,3,30,33,0,0,-1,10,1497
2,3,31,33,0,0,-1,10,1496
2,3,32,33,0,0,-1,10,1495
2,3,33,33,0,0,-1,10,1494
2,3,34,33,0,0,-1,10,1493
2,3,35,33,0,0,-1,10,1492
2,3,36,33,0,0,-1,10,1491
2,3,37,33,0,0,-1,10,1490
2,3,38,33,0,0,-1,10,1489
2,3,39,33,0,0,-1,10,1488
2,3,40,33,0,0,-1,10,1487
2,3,41,33,0,0,-1,10,1486
2,3,42,33,0,0,-1,10,1485
2,3,43,33,0,0,-1,10,1484
2,3,44,33,0,0,-1,10,1483
2,3,45,33,0,0,-1,10,1482
2,3,46,33,0,0,-1,10,1481
2,3,47,33,0,0,-1,10,1480
2,3,48,33,0,0,-1,10,1479
2,3,49,33,0,0,-1,10,1478
2,3,50,33,0,0,-1,10,1477
7,1,32,0,21,10,1476
2,3,20,32,0,0,-1,10,1475
2,3,21,32,0,0,-1,10,1474
2,3,22,32,0,0,-1,10,1473
2,3,23,32,0,0,-1,10,1472
2,3,28,32,0,0,-1,10,1471
2,3,29,32,0,0,-1,10,1470
2,3,30,32,0,0,-1,10,1469
2,3,31,32,0,0,-1,10,1468
2,3,32,32,0,0,-1,10,1467
2,3,33,32,0,0,-1,10,1466
2,3,34,32,0,0,-1,10,1465
2,3,35,32,0,0,-1,10,1464
2,3,36,32,0,0,-1,10,1463
2,3,37,32,0,0,-1,10,1462
2,3,38,32,0,0,-1,10,1461
2,3,39,32,0,0,-1,10,1460
2,3,40,32,0,0,-1,10,1459
2,3,41,32,0,0,-1,10,1458
2,3,42,32,0,0,-1,10,1457
2,3,43,32,0,0,-1,10,1456
2,3,44,32,0,0,-1,10,1455
2,3,45,32,0,0,-1,10,1454
2,3,46,32,0,0,-1,10,1453
2,3,47,32,0,0,-1,10,1452
2,3,48,32,0,0,-1,10,1451
2,3,49,32,0,0,-1,10,1450
2,3,50,32,0,0,-1,10,1449
7,1,39,0,21,5,1448
2,3,28,39,0,0,-1,5,1447
2,3,29,39,0,0,-1,5,1446
2,3,30,39,0,0,-1,5,1445
2,3,31,39,0,0,-1,5,1444
2,3,32,39,0,0,-1,5,1443
2,3,33,39,0,0,-1,5,1442
2,3,34,39,0,0,-1,5,1441
2,3,35,39,0,0,-1,5,1440
2,3,36,39,0,0,-1,5,1439
2,3,37,39,0,0,-1,5,1438
2,3,38,39,0,0,-1,5,1437
2,3,39,39,0,0,-1,5,1436
2,3,40,39,0,0,-1,5,1435
2,3,41,39,0,0,-1,5,1434
2,3,42,39,0,0,-1,5,1433
2,3,43,39,0,0,-1,5,1432
7,1,38,0,21,5,1431
2,3,28,38,0,0,-1,5,1430
2,3,29,38,0,0,-1,5,1429
2,3,30,38,0,0,-1,5,1428
2,3,31,38,0,0,-1,5,1427
2,3,32,38,0,0,-1,5,1426
2,3,33,38,0,0,-1,5,1425
2,3,34,38,0,0,-1,5,1424
2,3,35,38,0,0,-1,5,1423
2,3,36,38,0,0,-1,5,1422
2,3,37,38,0,0,-1,5,1421
2,3,38,38,0,0,-1,5,1420
2,3,39,38,0,0,-1,5,1419
2,3,40,38,0,0,-1,5,1418
2,3,41,38,0,0,-1,5,1417
2,3,42,38,0,0,-1,5,1416
2,3,43,38,0,0,-1,5,1415
7,1,37,0,21,5,1414
2,3,28,37,0,0,-1,5,1413
2,3,29,37,0,0,-1,5,1412
2,3,30,37,0,0,-1,5,1411
2,3,31,37,0,0,-1,5,1410
2,3,32,37,0,0,-1,5,1409
2,3,33,37,0,0,-1,5,1408
2,3,34,37,0,0,-1,5,1407
2,3,35,37,0,0,-1,5,1406
2,3,36,37,0,0,-1,5,1405
2,3,37,37,0,0,-1,5,1404
2,3,38,37,0,0,-1,5,1403
2,3,39,37,0,0,-1,5,1402
2,3,40,37,0,0,-1,5,1401
2,3,41,37,0,0,-1,5,1400
2,3,42,37,0,0,-1,5,1399
2,3,43,37,0,0,-1,5,1398
7,1,36,0,21,5,1397
2,3,28,36,0,0,-1,5,1396
2,3,29,36,0,0,-1,5,1395
2,3,30,36,0,0,-1,5,1394
2,3,31,36,0,0,-1,5,1393
2,3,32,36,0,0,-1,5,1392
2,3,33,36,0,0,-1,5,1391
2,3,34,36,0,0,-1,5,1390
2,3,35,36,0,0,-1,5,1389
2,3,36,36,0,0,-1,5,1388
2,3,37,36,0,0,-1,5,1387
2,3,38,36,0,0,-1,5,1386
2,3,39,36,0,0,-1,5,1385
2,3,40,36,0,0,-1,5,1384
2,3,41,36,0,0,-1,5,1383
2,3,42,36,0,0,-1,5,1382
2,3,43,36,0,0,-1,5,1381
7,1,47,0,21,4,1380
2,3,16,47,0,0,-1,4,1379
2,3,17,47,0,0,-1,4,1378
2,3,18,47,0,0,-1,4,1377
2,3,19,47,0,0,-1,4,1376
2,3,20,47,0,0,-1,4,1375
2,3,21,47,0,0,-1,4,1374
2,3,22,47,0,0,-1,4,1373
2,3,23,47,0,0,-1,4,1372
2,3,28,47,0,0,-1,4,1371
2,3,29,47,0,0,-1,4,1370
2,3,30,47,0,0,-1,4,1369
2,3,31,47,0,0,-1,4,1368
2,3,36,47,0,0,-1,4,1367
2,3,37,47,0,0,-1,4,1366
2,3,38,47,0,0,-1,4,1365
2,3,39,47,0,0,-1,4,1364
2,3,40,47,0,0,-1,4,1363
2,3,41,47,0,0,-1,4,1362
2,3,42,47,0,0,-1,4,1361
2,3,43,47,0,0,-1,4,1360
2,3,44,47,0,0,-1,4,1359
2,3,45,47,0,0,-1,4,1358
2,3,46,47,0,0,-1,4,1357
2,3,47,47,0,0,-1,4,1356
2,3,48,47,0,0,-1,4,1355
2,3,49,47,0,0,-1,4,1354
2,3,50,47,0,0,-1,4,1353
7,1,46,0,21,4,1352
2,3,16,46,0,0,-1,4,1351
2,3,17,46,0,0,-1,4,1350
2,3,18,46,0,0,-1,4,1349
2,3,19,46,0,0,-1,4,1348
2,3,21,46,0,0,-1,4,1347
2,3,22,46,0,0,-1,4,1346
2,3,23,46,0,0,-1,4,1345
2,3,28,46,0,0,-1,4,1344
2,3,29,46,0,0,-1,4,1343
2,3,30,46,0,0,-1,4,1342
2,3,31,46,0,0,-1,4,1341
2,3,36,46,0,0,-1,4,1340
2,3,37,46,0,0,-1,4,1339
2,3,38,46,0,0,-1,4,1338
2,3,39,46,0,0,-1,4,1337
2,3,40,46,0,0,-1,4,1336
2,3,41,46,0,0,-1,4,1335
2,3,42,46,0,0,-1,4,1334
2,3,43,46,0,0,-1,4,1333
2,3,44,46,0,0,-1,4,1332
2,3,45,46,0,0,-1,4,1331
2,3,46,46,0,0,-1,4,1330
2,3,47,46,0,0,-1,4,1329
2,3,48,46,0,0,-1,4,1328
2,3,49,46,0,0,-1,4,1327
2,3,50,46,0,0,-1,4,1326
7,1,45,0,21,4,1325
2,3,16,45,0,0,-1,4,1324
2,3,17,45,0,0,-1,4,1323
2,3,18,45,0,0,-1,4,1322
2,3,19,45,0,0,-1,4,1321
2,3,20,45,0,0,-1,4,1320
2,3,21,45,0,0,-1,4,1319
2,3,22,45,0,0,-1,4,1318
2,3,23,45,0,0,-1,4,1317
2,3,28,45,0,0,-1,4,1316
2,3,29,45,0,0,-1,4,1315
2,3,30,45,0,0,-1,4,1314
2,3,31,45,0,0,-1,4,1313
2,3,36,45,0,0,-1,4,1312
2,3,37,45,0,0,-1,4,1311
2,3,38,45,0,0,-1,4,1310
2,3,39,45,0,0,-1,4,1309
2,3,40,45,0,0,-1,4,1308
2,3,41,45,0,0,-1,4,1307
2,3,42,45,0,0,-1,4,1306
2,3,43,45,0,0,-1,4,1305
2,3,44,45,0,0,-1,4,1304
2,3,45,45,0,0,-1,4,1303
2,3,46,45,0,0,-1,4,1302
2,3,47,45,0,0,-1,4,1301
2,3,48,45,0,0,-1,4,1300
2,3,49,45,0,0,-1,4,1299
2,3,50,45,0,0,-1,4,1298
7,1,44,0,21,4,1297
2,3,16,44,0,0,-1,4,1296
2,3,17,44,0,0,-1,4,1295
2,3,18,44,0,0,-1,4,1294
2,3,19,44,0,0,-1,4,1293
2,3,20,44,0,0,-1,4,1292
2,3,21,44,0,0,-1,4,1291
2,3,22,44,0,0,-1,4,1290
2,3,23,44,0,0,-1,4,1289
2,3,28,44,0,0,-1,4,1288
2,3,29,44,0,0,-1,4,1287
2,3,30,44,0,0,-1,4,1286
2,3,31,44,0,0,-1,4,1285
2,3,36,44,0,0,-1,4,1284
2,3,37,44,0,0,-1,4,1283
2,3,38,44,0,0,-1,4,1282
2,3,39,44,0,0,-1,4,1281
2,3,40,44,0,0,-1,4,1280
2,3,41,44,0,0,-1,4,1279
2,3,42,44,0,0,-1,4,1278
2,3,43,44,0,0,-1,4,1277
2,3,44,44,0,0,-1,4,1276
2,3,45,44,0,0,-1,4,1275
2,3,46,44,0,0,-1,4,1274
2,3,47,44,0,0,-1,4,1273
2,3,48,44,0,0,-1,4,1272
2,3,49,44,0,0,-1,4,1271
2,3,50,44,0,0,-1,4,1270
7,1,19,0,21,12,1269
7,1,18,0,21,12,1268
7,1,17,0,21,12,1267
7,1,16,0,21,12,1266
7,1,27,0,21,12,1265
2,3,15,27,0,0,-1,12,1264
2,3,16,27,0,0,-1,12,1263
2,3,17,27,0,0,-1,12,1262
2,3,26,27,0,0,-1,12,1261
2,3,27,27,0,0,-1,12,1260
2,3,28,27,0,0,-1,12,1259
2,3,29,27,0,0,-1,12,1258
2,3,30,27,0,0,-1,12,1257
2,3,31,27,0,0,-1,12,1256
2,3,40,27,0,0,-1,12,1255
2,3,41,27,0,0,-1,12,1254
2,3,42,27,0,0,-1,12,1253
2,3,43,27,0,0,-1,12,1252
2,3,48,27,0,0,-1,12,1251
2,3,49,27,0,0,-1,12,1250
2,3,50,27,0,0,-1,12,1249
7,1,26,0,21,12,1248
2,3,14,26,0,0,-1,12,1247
2,3,15,26,0,0,-1,12,1246
2,3,16,26,0,0,-1,12,1245
2,3,17,26,0,0,-1,12,1244
2,3,18,26,0,0,-1,12,1243
2,3,19,26,0,0,-1,12,1242
2,3,24,26,0,0,-1,12,1241
2,3,25,26,0,0,-1,12,1240
2,3,26,26,0,0,-1,12,1239
2,3,27,26,0,0,-1,12,1238
2,3,28,26,0,0,-1,12,1237
2,3,29,26,0,0,-1,12,1236
2,3,30,26,0,0,-1,12,1235
2,3,31,26,0,0,-1,12,1234
2,3,40,26,0,0,-1,12,1233
2,3,41,26,0,0,-1,12,1232
2,3,42,26,0,0,-1,12,1231
2,3,43,26,0,0,-1,12,1230
2,3,48,26,0,0,-1,12,1229
2,3,49,26,0,0,-1,12,1228
2,3,50,26,0,0,-1,12,1227
7,1,25,0,21,12,1226
2,3,14,25,0,0,-1,12,1225
2,3,18,25,0,0,-1,12,1224
2,3,19,25,0,0,-1,12,1223
2,3,24,25,0,0,-1,12,1222
2,3,25,25,0,0,-1,12,1221
2,3,26,25,0,0,-1,12,1220
2,3,31,25,0,0,-1,12,1219
2,3,40,25,0,0,-1,12,1218
2,3,41,25,0,0,-1,12,1217
2,3,42,25,0,0,-1,12,1216
2,3,43,25,0,0,-1,12,1215
2,3,49,25,0,0,-1,12,1214
2,3,50,25,0,0,-1,12,1213
7,1,24,0,21,12,1212
2,3,14,24,0,0,-1,12,1211
2,3,15,24,0,0,-1,12,1210
2,3,16,24,0,0,-1,12,1209
2,3,17,24,0,0,-1,12,1208
2,3,18,24,0,0,-1,12,1207
2,3,19,24,0,0,-1,12,1206
2,3,24,24,0,0,-1,12,1205
2,3,25,24,0,0,-1,12,1204
2,3,26,24,0,0,-1,12,1203
2,3,28,24,0,0,-1,12,1202
2,3,29,24,0,0,-1,12,1201
2,3,30,24,0,0,-1,12,1200
2,3,31,24,0,0,-1,12,1199
2,3,40,24,0,0,-1,12,1198
2,3,41,24,0,0,-1,12,1197
2,3,42,24,0,0,-1,12,1196
2,3,43,24,0,0,-1,12,1195
2,3,48,24,0,0,-1,12,1194
2,3,49,24,0,0,-1,12,1193
2,3,50,24,0,0,-1,12,1192
7,1,43,0,21,9,1191
2,3,15,43,0,0,-1,9,1190
2,3,24,43,0,0,-1,9,1189
2,3,25,43,0,0,-1,9,1188
2,3,26,43,0,0,-1,9,1187
2,3,27,43,0,0,-1,9,1186
2,3,28,43,0,0,-1,9,1185
2,3,29,43,0,0,-1,9,1184
2,3,30,43,0,0,-1,9,1183
2,3,31,43,0,0,-1,9,1182
2,3,32,43,0,0,-1,9,1181
2,3,33,43,0,0,-1,9,1180
2,3,34,43,0,0,-1,9,1179
2,3,35,43,0,0,-1,9,1178
2,3,36,43,0,0,-1,9,1177
2,3,37,43,0,0,-1,9,1176
2,3,38,43,0,0,-1,9,1175
2,3,39,43,0,0,-1,9,1174
2,3,40,43,0,0,-1,9,1173
2,3,41,43,0,0,-1,9,1172
2,3,42,43,0,0,-1,9,1171
2,3,43,43,0,0,-1,9,1170
2,3,48,43,0,0,-1,9,1169
2,3,49,43,0,0,-1,9,1168
2,3,50,43,0,0,-1,9,1167
7,1,42,0,21,9,1166
2,3,15,42,0,0,-1,9,1165
2,3,24,42,0,0,-1,9,1164
2,3,25,42,0,0,-1,9,1163
2,3,26,42,0,0,-1,9,1162
2,3,27,42,0,0,-1,9,1161
2,3,28,42,0,0,-1,9,1160
2,3,29,42,0,0,-1,9,1159
2,3,30,42,0,0,-1,9,1158
2,3,31,42,0,0,-1,9,1157
2,3,32,42,0,0,-1,9,1156
2,3,33,42,0,0,-1,9,1155
2,3,34,42,0,0,-1,9,1154
2,3,35,42,0,0,-1,9,1153
2,3,36,42,0,0,-1,9,1152
2,3,37,42,0,0,-1,9,1151
2,3,38,42,0,0,-1,9,1150
2,3,39,42,0,0,-1,9,1149
2,3,40,42,0,0,-1,9,1148
2,3,41,42,0,0,-1,9,1147
2,3,42,42,0,0,-1,9,1146
2,3,43,42,0,0,-1,9,1145
2,3,48,42,0,0,-1,9,1144
2,3,49,42,0,0,-1,9,1143
2,3,50,42,0,0,-1,9,1142
7,1,41,0,21,9,1141
2,3,15,41,0,0,-1,9,1140
2,3,24,41,0,0,-1,9,1139
2,3,25,41,0,0,-1,9,1138
2,3,26,41,0,0,-1,9,1137
2,3,27,41,0,0,-1,9,1136
2,3,28,41,0,0,-1,9,1135
2,3,29,41,0,0,-1,9,1134
2,3,30,41,0,0,-1,9,1133
2,3,31,41,0,0,-1,9,1132
2,3,32,41,0,0,-1,9,1131
2,3,33,41,0,0,-1,9,1130
2,3,34,41,0,0,-1,9,1129
2,3,35,41,0,0,-1,9,1128
2,3,36,41,0,0,-1,9,1127
2,3,37,41,0,0,-1,9,1126
2,3,38,41,0,0,-1,9,1125
2,3,39,41,0,0,-1,9,1124
2,3,40,41,0,0,-1,9,1123
2,3,41,41,0,0,-1,9,1122
2,3,42,41,0,0,-1,9,1121
2,3,43,41,0,0,-1,9,1120
2,3,48,41,0,0,-1,9,1119
2,3,49,41,0,0,-1,9,1118
2,3,50,41,0,0,-1,9,1117
7,1,40,0,21,9,1116
2,3,15,40,0,0,-1,9,1115
2,3,24,40,0,0,-1,9,1114
2,3,25,40,0,0,-1,9,1113
2,3,26,40,0,0,-1,9,1112
2,3,27,40,0,0,-1,9,1111
2,3,28,40,0,0,-1,9,1110
2,3,29,40,0,0,-1,9,1109
2,3,30,40,0,0,-1,9,1108
2,3,31,40,0,0,-1,9,1107
2,3,32,40,0,0,-1,9,1106
2,3,33,40,0,0,-1,9,1105
2,3,34,40,0,0,-1,9,1104
2,3,35,40,0,0,-1,9,1103
2,3,36,40,0,0,-1,9,1102
2,3,37,40,0,0,-1,9,1101
2,3,38,40,0,0,-1,9,1100
2,3,39,40,0,0,-1,9,1099
2,3,40,40,0,0,-1,9,1098
2,3,41,40,0,0,-1,9,1097
2,3,42,40,0,0,-1,9,1096
2,3,43,40,0,0,-1,9,1095
2,3,48,40,0,0,-1,9,1094
2,3,49,40,0,0,-1,9,1093
2,3,50,40,0,0,-1,9,1092
7,1,50,0,21,3,1091
2,3,21,50,0,0,-1,3,1090
2,3,22,50,0,0,-1,3,1089
2,3,23,50,0,0,-1,3,1088
2,3,28,50,0,0,-1,3,1087
2,3,29,50,0,0,-1,3,1086
2,3,30,50,0,0,-1,3,1085
2,3,31,50,0,0,-1,3,1084
2,3,40,50,0,0,-1,3,1083
2,3,41,50,0,0,-1,3,1082
2,3,42,50,0,0,-1,3,1081
2,3,43,50,0,0,-1,3,1080
2,3,44,50,0,0,-1,3,1079
2,3,45,50,0,0,-1,3,1078
2,3,46,50,0,0,-1,3,1077
2,3,47,50,0,0,-1,3,1076
2,3,48,50,0,0,-1,3,1075
2,3,49,50,0,0,-1,3,1074
2,3,50,50,0,0,-1,3,1073
7,1,49,0,21,3,1072
2,3,20,49,0,0,-1,3,1071
2,3,21,49,0,0,-1,3,1070
2,3,22,49,0,0,-1,3,1069
2,3,23,49,0,0,-1,3,1068
2,3,28,49,0,0,-1,3,1067
2,3,29,49,0,0,-1,3,1066
2,3,30,49,0,0,-1,3,1065
2,3,31,49,0,0,-1,3,1064
2,3,40,49,0,0,-1,3,1063
2,3,41,49,0,0,-1,3,1062
2,3,42,49,0,0,-1,3,1061
2,3,43,49,0,0,-1,3,1060
2,3,44,49,0,0,-1,3,1059
2,3,45,49,0,0,-1,3,1058
2,3,46,49,0,0,-1,3,1057
2,3,47,49,0,0,-1,3,1056
2,3,48,49,0,0,-1,3,1055
2,3,49,49,0,0,-1,3,1054
2,3,50,49,0,0,-1,3,1053
7,1,48,0,21,3,1052
2,3,21,48,0,0,-1,3,1051
2,3,22,48,0,0,-1,3,1050
2,3,23,48,0,0,-1,3,1049
2,3,28,48,0,0,-1,3,1048
2,3,29,48,0,0,-1,3,1047
2,3,30,48,0,0,-1,3,1046
2,3,31,48,0,0,-1,3,1045
2,3,40,48,0,0,-1,3,1044
2,3,41,48,0,0,-1,3,1043
2,3,42,48,0,0,-1,3,1042
2,3,43,48,0,0,-1,3,1041
2,3,44,48,0,0,-1,3,1040
2,3,45,48,0,0,-1,3,1039
2,3,46,48,0,0,-1,3,1038
2,3,47,48,0,0,-1,3,1037
2,3,48,48,0,0,-1,3,1036
2,3,49,48,0,0,-1,3,1035
2,3,50,48,0,0,-1,3,1034
2,3,18,3,0,0,-1,3,1033
2,3,19,3,0,0,-1,3,1032
2,3,24,3,0,0,-1,3,1031
2,3,25,3,0,0,-1,3,1030
2,3,26,3,0,0,-1,3,1029
2,3,18,2,0,0,-1,3,1028
2,3,19,2,0,0,-1,3,1027
2,3,24,2,0,0,-1,3,1026
2,3,25,2,0,0,-1,3,1025
2,3,26,2,0,0,-1,3,1024
2,3,18,1,0,0,-1,3,1023
2,3,19,1,0,0,-1,3,1022
2,3,24,1,0,0,-1,3,1021
2,3,25,1,0,0,-1,3,1020
2,3,26,1,0,0,-1,3,1019
2,3,18,0,0,0,-1,3,1018
2,3,19,0,0,0,-1,3,1017
2,3,24,0,0,0,-1,3,1016
2,3,25,0,0,0,-1,3,1015
2,3,26,0,0,0,-1,3,1014
7,1,15,0,21,14,1013
2,3,14,15,0,0,-1,14,1012
2,3,15,15,0,0,-1,14,1011
2,3,21,15,0,0,-1,14,1010
2,3,22,15,0,0,-1,14,1009
2,3,23,15,0,0,-1,14,1008
2,3,32,15,0,0,-1,14,1007
2,3,33,15,0,0,-1,14,1006
2,3,34,15,0,0,-1,14,1005
2,3,35,15,0,0,-1,14,1004
7,1,14,0,21,14,1003
2,3,4,14,0,0,-1,14,1002
2,3,5,14,0,0,-1,14,1001
2,3,6,14,0,0,-1,14,1000
2,3,7,14,0,0,-1,14,999
2,3,12,14,0,0,-1,14,998
2,3,13,14,0,0,-1,14,997
2,3,14,14,0,0,-1,14,996
2,3,15,14,0,0,-1,14,995
2,3,20,14,0,0,-1,14,994
2,3,21,14,0,0,-1,14,993
2,3,23,14,0,0,-1,14,992
7,1,13,0,21,14,991
2,3,4,13,0,0,-1,14,990
2,3,5,13,0,0,-1,14,989
2,3,6,13,0,0,-1,14,988
2,3,7,13,0,0,-1,14,987
2,3,12,13,0,0,-1,14,986
2,3,13,13,0,0,-1,14,985
2,3,14,13,0,0,-1,14,984
7,1,12,0,21,14,983
2,3,4,12,0,0,-1,14,982
2,3,5,12,0,0,-1,14,981
2,3,6,12,0,0,-1,14,980
2,3,7,12,0,0,-1,14,979
2,3,12,12,0,0,-1,14,978
2,3,13,12,0,0,-1,14,977
2,3,14,12,0,0,-1,14,976
2,3,16,36,0,0,-1,6,975
2,3,17,36,0,0,-1,6,974
2,3,18,36,0,0,-1,6,973
2,3,24,36,0,0,-1,6,972
2,3,25,36,0,0,-1,6,971
2,3,26,36,0,0,-1,6,970
2,3,27,36,0,0,-1,6,969
2,3,44,36,0,0,-1,6,968
2,3,45,36,0,0,-1,6,967
2,3,46,36,0,0,-1,6,966
2,3,47,36,0,0,-1,6,965
2,3,48,36,0,0,-1,6,964
2,3,49,36,0,0,-1,6,963
2,3,50,36,0,0,-1,6,962
2,3,16,37,0,0,-1,6,961
2,3,17,37,0,0,-1,6,960
2,3,18,37,0,0,-1,6,959
2,3,24,37,0,0,-1,6,958
2,3,26,37,0,0,-1,6,957
2,3,27,37,0,0,-1,6,956
2,3,44,37,0,0,-1,6,955
2,3,45,37,0,0,-1,6,954
2,3,46,37,0,0,-1,6,953
2,3,47,37,0,0,-1,6,952
2,3,48,37,0,0,-1,6,951
2,3,49,37,0,0,-1,6,950
2,3,50,37,0,0,-1,6,949
2,3,16,38,0,0,-1,6,948
2,3,17,38,0,0,-1,6,947
2,3,18,38,0,0,-1,6,946
2,3,19,38,0,0,-1,6,945
2,3,24,38,0,0,-1,6,944
2,3,26,38,0,0,-1,6,943
2,3,27,38,0,0,-1,6,942
2,3,44,38,0,0,-1,6,941
2,3,45,38,0,0,-1,6,940
2,3,46,38,0,0,-1,6,939
2,3,47,38,0,0,-1,6,938
2,3,48,38,0,0,-1,6,937
2,3,49,38,0,0,-1,6,936
2,3,50,38,0,0,-1,6,935
2,3,16,39,0,0,-1,6,934
2,3,17,39,0,0,-1,6,933
2,3,18,39,0,0,-1,6,932
2,3,19,39,0,0,-1,6,931
2,3,24,39,0,0,-1,6,930
2,3,26,39,0,0,-1,6,929
2,3,27,39,0,0,-1,6,928
2,3,44,39,0,0,-1,6,927
2,3,45,39,0,0,-1,6,926
2,3,46,39,0,0,-1,6,925
2,3,47,39,0,0,-1,6,924
2,3,48,39,0,0,-1,6,923
2,3,49,39,0,0,-1,6,922
2,3,50,39,0,0,-1,6,921
2,3,24,44,0,0,-1,8,920
2,3,25,44,0,0,-1,8,919
2,3,26,44,0,0,-1,8,918
2,3,27,44,0,0,-1,8,917
2,3,24,45,0,0,-1,8,916
2,3,25,45,0,0,-1,8,915
2,3,26,45,0,0,-1,8,914
2,3,27,45,0,0,-1,8,913
2,3,24,46,0,0,-1,8,912
2,3,26,46,0,0,-1,8,911
2,3,27,46,0,0,-1,8,910
2,3,24,47,0,0,-1,8,909
2,3,25,47,0,0,-1,8,908
2,3,26,47,0,0,-1,8,907
2,3,27,47,0,0,-1,8,906
7,1,7,0,21,8,905
2,3,3,7,0,0,-1,8,904
2,3,4,7,0,0,-1,8,903
2,3,5,7,0,0,-1,8,902
2,3,6,7,0,0,-1,8,901
2,3,7,7,0,0,-1,8,900
2,3,8,7,0,0,-1,8,899
2,3,9,7,0,0,-1,8,898
2,3,10,7,0,0,-1,8,897
2,3,11,7,0,0,-1,8,896
2,3,12,7,0,0,-1,8,895
2,3,13,7,0,0,-1,8,894
2,3,14,7,0,0,-1,8,893
7,1,6,0,21,8,892
2,3,4,6,0,0,-1,8,891
2,3,5,6,0,0,-1,8,890
2,3,6,6,0,0,-1,8,889
2,3,7,6,0,0,-1,8,888
2,3,8,6,0,0,-1,8,887
2,3,9,6,0,0,-1,8,886
2,3,10,6,0,0,-1,8,885
2,3,11,6,0,0,-1,8,884
2,3,12,6,0,0,-1,8,883
2,3,13,6,0,0,-1,8,882
2,3,14,6,0,0,-1,8,881
7,1,5,0,21,8,880
2,3,4,5,0,0,-1,8,879
2,3,5,5,0,0,-1,8,878
2,3,6,5,0,0,-1,8,877
2,3,7,5,0,0,-1,8,876
2,3,8,5,0,0,-1,8,875
2,3,9,5,0,0,-1,8,874
2,3,10,5,0,0,-1,8,873
2,3,11,5,0,0,-1,8,872
2,3,12,5,0,0,-1,8,871
2,3,13,5,0,0,-1,8,870
2,3,14,5,0,0,-1,8,869
2,3,18,5,0,0,-1,8,868
2,3,19,5,0,0,-1,8,867
2,3,20,5,0,0,-1,8,866
2,3,21,5,0,0,-1,8,865
2,3,24,5,0,0,-1,8,864
2,3,25,5,0,0,-1,8,863
2,3,26,5,0,0,-1,8,862
7,1,4,0,21,8,861
2,3,3,4,0,0,-1,8,860
2,3,4,4,0,0,-1,8,859
2,3,5,4,0,0,-1,8,858
2,3,6,4,0,0,-1,8,857
2,3,7,4,0,0,-1,8,856
2,3,8,4,0,0,-1,8,855
2,3,9,4,0,0,-1,8,854
2,3,10,4,0,0,-1,8,853
2,3,11,4,0,0,-1,8,852
2,3,12,4,0,0,-1,8,851
2,3,13,4,0,0,-1,8,850
2,3,14,4,0,0,-1,8,849
2,3,18,4,0,0,-1,8,848
2,3,19,4,0,0,-1,8,847
2,3,20,4,0,0,-1,8,846
2,3,21,4,0,0,-1,8,845
2,3,24,4,0,0,-1,8,844
2,3,25,4,0,0,-1,8,843
2,3,26,4,0,0,-1,8,842
2,3,16,48,0,0,-1,7,841
2,3,17,48,0,0,-1,7,840
2,3,18,48,0,0,-1,7,839
2,3,24,48,0,0,-1,7,838
2,3,26,48,0,0,-1,7,837
2,3,27,48,0,0,-1,7,836
2,3,32,48,0,0,-1,7,835
2,3,33,48,0,0,-1,7,834
2,3,34,48,0,0,-1,7,833
2,3,35,48,0,0,-1,7,832
2,3,36,48,0,0,-1,7,831
2,3,37,48,0,0,-1,7,830
2,3,38,48,0,0,-1,7,829
2,3,39,48,0,0,-1,7,828
2,3,16,49,0,0,-1,7,827
2,3,17,49,0,0,-1,7,826
2,3,18,49,0,0,-1,7,825
2,3,24,49,0,0,-1,7,824
2,3,25,49,0,0,-1,7,823
2,3,26,49,0,0,-1,7,822
2,3,27,49,0,0,-1,7,821
2,3,32,49,0,0,-1,7,820
2,3,33,49,0,0,-1,7,819
2,3,34,49,0,0,-1,7,818
2,3,35,49,0,0,-1,7,817
2,3,36,49,0,0,-1,7,816
2,3,37,49,0,0,-1,7,815
2,3,38,49,0,0,-1,7,814
2,3,39,49,0,0,-1,7,813
2,3,16,50,0,0,-1,7,812
2,3,17,50,0,0,-1,7,811
2,3,18,50,0,0,-1,7,810
2,3,19,50,0,0,-1,7,809
2,3,24,50,0,0,-1,7,808
2,3,25,50,0,0,-1,7,807
2,3,26,50,0,0,-1,7,806
2,3,27,50,0,0,-1,7,805
2,3,32,50,0,0,-1,7,804
2,3,33,50,0,0,-1,7,803
2,3,34,50,0,0,-1,7,802
2,3,35,50,0,0,-1,7,801
2,3,36,50,0,0,-1,7,800
2,3,37,50,0,0,-1,7,799
2,3,38,50,0,0,-1,7,798
2,3,39,50,0,0,-1,7,797
2,3,15,44,0,0,-1,7,796
2,3,32,44,0,0,-1,7,795
2,3,33,44,0,0,-1,7,794
2,3,34,44,0,0,-1,7,793
2,3,35,44,0,0,-1,7,792
2,3,15,45,0,0,-1,7,791
2,3,32,45,0,0,-1,7,790
2,3,33,45,0,0,-1,7,789
2,3,34,45,0,0,-1,7,788
2,3,35,45,0,0,-1,7,787
2,3,15,46,0,0,-1,7,786
2,3,32,46,0,0,-1,7,785
2,3,33,46,0,0,-1,7,784
2,3,34,46,0,0,-1,7,783
2,3,35,46,0,0,-1,7,782
2,3,15,47,0,0,-1,7,781
2,3,32,47,0,0,-1,7,780
2,3,33,47,0,0,-1,7,779
2,3,34,47,0,0,-1,7,778
2,3,35,47,0,0,-1,7,777
2,3,20,36,0,0,-1,7,776
2,3,21,36,0,0,-1,7,775
2,3,22,36,0,0,-1,7,774
2,3,23,36,0,0,-1,7,773
2,3,21,37,0,0,-1,7,772
2,3,22,37,0,0,-1,7,771
2,3,23,37,0,0,-1,7,770
2,3,21,38,0,0,-1,7,769
2,3,22,38,0,0,-1,7,768
2,3,23,38,0,0,-1,7,767
2,3,21,39,0,0,-1,7,766
2,3,22,39,0,0,-1,7,765
2,3,23,39,0,0,-1,7,764
2,3,20,3,0,0,-1,7,763
2,3,21,3,0,0,-1,7,762
2,3,20,2,0,0,-1,7,761
2,3,21,2,0,0,-1,7,760
2,3,20,1,0,0,-1,7,759
2,3,21,1,0,0,-1,7,758
2,3,20,0,0,0,-1,7,757
2,3,15,48,0,0,-1,11,756
2,3,15,49,0,0,-1,11,755
2,3,15,50,0,0,-1,11,754
2,3,16,40,0,0,-1,11,753
2,3,17,40,0,0,-1,11,752
2,3,18,40,0,0,-1,11,751
2,3,20,40,0,0,-1,11,750
2,3,21,40,0,0,-1,11,749
2,3,22,40,0,0,-1,11,748
2,3,23,40,0,0,-1,11,747
2,3,44,40,0,0,-1,11,746
2,3,45,40,0,0,-1,11,745
2,3,46,40,0,0,-1,11,744
2,3,47,40,0,0,-1,11,743
2,3,16,41,0,0,-1,11,742
2,3,17,41,0,0,-1,11,741
2,3,18,41,0,0,-1,11,740
2,3,19,41,0,0,-1,11,739
2,3,20,41,0,0,-1,11,738
2,3,21,41,0,0,-1,11,737
2,3,22,41,0,0,-1,11,736
2,3,23,41,0,0,-1,11,735
2,3,44,41,0,0,-1,11,734
2,3,45,41,0,0,-1,11,733
2,3,46,41,0,0,-1,11,732
2,3,47,41,0,0,-1,11,731
2,3,16,42,0,0,-1,11,730
2,3,17,42,0,0,-1,11,729
2,3,18,42,0,0,-1,11,728
2,3,19,42,0,0,-1,11,727
2,3,20,42,0,0,-1,11,726
2,3,21,42,0,0,-1,11,725
2,3,22,42,0,0,-1,11,724
2,3,23,42,0,0,-1,11,723
2,3,44,42,0,0,-1,11,722
2,3,45,42,0,0,-1,11,721
2,3,46,42,0,0,-1,11,720
2,3,47,42,0,0,-1,11,719
2,3,16,43,0,0,-1,11,718
2,3,17,43,0,0,-1,11,717
2,3,18,43,0,0,-1,11,716
2,3,19,43,0,0,-1,11,715
2,3,21,43,0,0,-1,11,714
2,3,22,43,0,0,-1,11,713
2,3,23,43,0,0,-1,11,712
2,3,44,43,0,0,-1,11,711
2,3,45,43,0,0,-1,11,710
2,3,46,43,0,0,-1,11,709
2,3,47,43,0,0,-1,11,708
2,3,15,36,0,0,-1,11,707
2,3,15,37,0,0,-1,11,706
2,3,15,38,0,0,-1,11,705
2,3,15,39,0,0,-1,11,704
2,3,15,32,0,0,-1,11,703
2,3,16,32,0,0,-1,11,702
2,3,17,32,0,0,-1,11,701
2,3,18,32,0,0,-1,11,700
2,3,24,32,0,0,-1,11,699
2,3,25,32,0,0,-1,11,698
2,3,26,32,0,0,-1,11,697
2,3,27,32,0,0,-1,11,696
2,3,15,33,0,0,-1,11,695
2,3,16,33,0,0,-1,11,694
2,3,17,33,0,0,-1,11,693
2,3,18,33,0,0,-1,11,692
2,3,24,33,0,0,-1,11,691
2,3,25,33,0,0,-1,11,690
2,3,26,33,0,0,-1,11,689
2,3,27,33,0,0,-1,11,688
2,3,15,34,0,0,-1,11,687
2,3,16,34,0,0,-1,11,686
2,3,17,34,0,0,-1,11,685
2,3,18,34,0,0,-1,11,684
2,3,24,34,0,0,-1,11,683
2,3,26,34,0,0,-1,11,682
2,3,27,34,0,0,-1,11,681
2,3,15,35,0,0,-1,11,680
2,3,16,35,0,0,-1,11,679
2,3,17,35,0,0,-1,11,678
2,3,18,35,0,0,-1,11,677
2,3,24,35,0,0,-1,11,676
2,3,26,35,0,0,-1,11,675
2,3,27,35,0,0,-1,11,674
2,3,2,12,0,0,-1,16,673
2,3,3,12,0,0,-1,16,672
2,3,3,13,0,0,-1,16,671
2,3,2,14,0,0,-1,16,670
2,3,3,14,0,0,-1,16,669
2,3,22,16,0,0,-1,16,668
2,3,23,16,0,0,-1,16,667
2,3,24,16,0,0,-1,16,666
2,3,26,16,0,0,-1,16,665
2,3,27,16,0,0,-1,16,664
2,3,32,16,0,0,-1,16,663
2,3,33,16,0,0,-1,16,662
2,3,34,16,0,0,-1,16,661
2,3,35,16,0,0,-1,16,660
2,3,40,16,0,0,-1,16,659
2,3,41,16,0,0,-1,16,658
2,3,42,16,0,0,-1,16,657
2,3,43,16,0,0,-1,16,656
2,3,44,16,0,0,-1,16,655
2,3,45,16,0,0,-1,16,654
2,3,46,16,0,0,-1,16,653
2,3,47,16,0,0,-1,16,652
2,3,48,16,0,0,-1,16,651
2,3,49,16,0,0,-1,16,650
2,3,50,16,0,0,-1,16,649
2,3,23,17,0,0,-1,16,648
2,3,24,17,0,0,-1,16,647
2,3,26,17,0,0,-1,16,646
2,3,27,17,0,0,-1,16,645
2,3,32,17,0,0,-1,16,644
2,3,33,17,0,0,-1,16,643
2,3,34,17,0,0,-1,16,642
2,3,35,17,0,0,-1,16,641
2,3,40,17,0,0,-1,16,640
2,3,41,17,0,0,-1,16,639
2,3,42,17,0,0,-1,16,638
2,3,43,17,0,0,-1,16,637
2,3,44,17,0,0,-1,16,636
2,3,45,17,0,0,-1,16,635
2,3,46,17,0,0,-1,16,634
2,3,47,17,0,0,-1,16,633
2,3,48,17,0,0,-1,16,632
2,3,49,17,0,0,-1,16,631
2,3,50,17,0,0,-1,16,630
2,3,0,18,0,0,-1,16,629
2,3,1,18,0,0,-1,16,628
2,3,2,18,0,0,-1,16,627
2,3,3,18,0,0,-1,16,626
2,3,20,18,0,0,-1,16,625
2,3,21,18,0,0,-1,16,624
2,3,22,18,0,0,-1,16,623
2,3,23,18,0,0,-1,16,622
2,3,24,18,0,0,-1,16,621
2,3,25,18,0,0,-1,16,620
2,3,26,18,0,0,-1,16,619
2,3,32,18,0,0,-1,16,618
2,3,33,18,0,0,-1,16,617
2,3,34,18,0,0,-1,16,616
2,3,35,18,0,0,-1,16,615
2,3,40,18,0,0,-1,16,614
2,3,41,18,0,0,-1,16,613
2,3,42,18,0,0,-1,16,612
2,3,43,18,0,0,-1,16,611
2,3,44,18,0,0,-1,16,610
2,3,45,18,0,0,-1,16,609
2,3,46,18,0,0,-1,16,608
2,3,47,18,0,0,-1,16,607
2,3,48,18,0,0,-1,16,606
2,3,49,18,0,0,-1,16,605
2,3,50,18,0,0,-1,16,604
2,3,0,19,0,0,-1,16,603
2,3,1,19,0,0,-1,16,602
2,3,2,19,0,0,-1,16,601
2,3,3,19,0,0,-1,16,600
2,3,20,19,0,0,-1,16,599
2,3,21,19,0,0,-1,16,598
2,3,24,19,0,0,-1,16,597
2,3,25,19,0,0,-1,16,596
2,3,26,19,0,0,-1,16,595
2,3,41,19,0,0,-1,16,594
2,3,42,19,0,0,-1,16,593
2,3,43,19,0,0,-1,16,592
2,3,44,19,0,0,-1,16,591
2,3,45,19,0,0,-1,16,590
2,3,46,19,0,0,-1,16,589
2,3,47,19,0,0,-1,16,588
2,3,50,19,0,0,-1,16,587
2,3,24,14,0,0,-1,15,586
2,3,25,14,0,0,-1,15,585
2,3,26,14,0,0,-1,15,584
2,3,24,15,0,0,-1,15,583
2,3,26,15,0,0,-1,15,582
2,3,27,15,0,0,-1,15,581
2,3,40,15,0,0,-1,15,580
2,3,41,15,0,0,-1,15,579
2,3,42,15,0,0,-1,15,578
2,3,43,15,0,0,-1,15,577
2,3,44,15,0,0,-1,15,576
2,3,45,15,0,0,-1,15,575
2,3,46,15,0,0,-1,15,574
2,3,47,15,0,0,-1,15,573
2,3,48,15,0,0,-1,15,572
2,3,49,15,0,0,-1,15,571
2,3,50,15,0,0,-1,15,570
2,3,32,24,0,0,-1,17,569
2,3,33,24,0,0,-1,17,568
2,3,34,24,0,0,-1,17,567
2,3,35,24,0,0,-1,17,566
2,3,32,25,0,0,-1,17,565
2,3,33,25,0,0,-1,17,564
2,3,32,26,0,0,-1,17,563
2,3,33,26,0,0,-1,17,562
2,3,34,26,0,0,-1,17,561
2,3,35,26,0,0,-1,17,560
2,3,32,27,0,0,-1,17,559
2,3,33,27,0,0,-1,17,558
2,3,34,27,0,0,-1,17,557
2,3,35,27,0,0,-1,17,556
7,1,23,0,21,17,555
2,3,14,23,0,0,-1,17,554
2,3,15,23,0,0,-1,17,553
2,3,16,23,0,0,-1,17,552
2,3,17,23,0,0,-1,17,551
2,3,18,23,0,0,-1,17,550
2,3,21,23,0,0,-1,17,549
2,3,22,23,0,0,-1,17,548
2,3,23,23,0,0,-1,17,547
2,3,28,23,0,0,-1,17,546
2,3,29,23,0,0,-1,17,545
2,3,30,23,0,0,-1,17,544
2,3,31,23,0,0,-1,17,543
2,3,32,23,0,0,-1,17,542
2,3,33,23,0,0,-1,17,541
2,3,34,23,0,0,-1,17,540
2,3,35,23,0,0,-1,17,539
2,3,44,23,0,0,-1,17,538
2,3,45,23,0,0,-1,17,537
2,3,46,23,0,0,-1,17,536
2,3,47,23,0,0,-1,17,535
7,1,22,0,21,17,534
2,3,15,22,0,0,-1,17,533
2,3,16,22,0,0,-1,17,532
2,3,18,22,0,0,-1,17,531
2,3,21,22,0,0,-1,17,530
2,3,22,22,0,0,-1,17,529
2,3,23,22,0,0,-1,17,528
2,3,28,22,0,0,-1,17,527
2,3,29,22,0,0,-1,17,526
2,3,30,22,0,0,-1,17,525
2,3,31,22,0,0,-1,17,524
2,3,32,22,0,0,-1,17,523
2,3,33,22,0,0,-1,17,522
2,3,34,22,0,0,-1,17,521
2,3,35,22,0,0,-1,17,520
2,3,44,22,0,0,-1,17,519
2,3,45,22,0,0,-1,17,518
2,3,46,22,0,0,-1,17,517
2,3,47,22,0,0,-1,17,516
7,1,21,0,21,17,515
2,3,14,21,0,0,-1,17,514
2,3,15,21,0,0,-1,17,513
2,3,18,21,0,0,-1,17,512
2,3,19,21,0,0,-1,17,511
2,3,20,21,0,0,-1,17,510
2,3,21,21,0,0,-1,17,509
2,3,22,21,0,0,-1,17,508
2,3,23,21,0,0,-1,17,507
2,3,28,21,0,0,-1,17,506
2,3,29,21,0,0,-1,17,505
2,3,30,21,0,0,-1,17,504
2,3,31,21,0,0,-1,17,503
2,3,32,21,0,0,-1,17,502
2,3,33,21,0,0,-1,17,501
2,3,34,21,0,0,-1,17,500
3,2,34,2,0,21,17,499
2,3,35,21,0,0,-1,17,498
3,2,35,3,0,21,17,497
2,3,44,21,0,0,-1,17,496
2,3,45,21,0,0,-1,17,495
2,3,46,21,0,0,-1,17,494
2,3,47,21,0,0,-1,17,493
7,1,20,0,21,17,492
2,3,14,20,0,0,-1,17,491
2,3,18,20,0,0,-1,17,490
2,3,19,20,0,0,-1,17,489
2,3,20,20,0,0,-1,17,488
2,3,21,20,0,0,-1,17,487
2,3,31,20,0,0,-1,17,486
2,3,32,20,0,0,-1,17,485
3,2,32,0,0,21,17,484
2,3,33,20,0,0,-1,17,483
3,2,33,1,0,21,17,482
2,3,44,20,0,0,-1,17,481
2,3,45,20,0,0,-1,17,480
2,3,47,20,0,0,-1,17,479
2,3,4,20,0,0,-1,18,478
2,3,5,20,0,0,-1,18,477
2,3,40,20,0,0,-1,18,476
2,3,41,20,0,0,-1,18,475
2,3,42,20,0,0,-1,18,474
2,3,49,20,0,0,-1,18,473
2,3,4,21,0,0,-1,18,472
2,3,5,21,0,0,-1,18,471
2,3,40,21,0,0,-1,18,470
2,3,41,21,0,0,-1,18,469
2,3,42,21,0,0,-1,18,468
2,3,43,21,0,0,-1,18,467
2,3,48,21,0,0,-1,18,466
2,3,49,21,0,0,-1,18,465
2,3,50,21,0,0,-1,18,464
2,3,40,22,0,0,-1,18,463
2,3,41,22,0,0,-1,18,462
2,3,42,22,0,0,-1,18,461
2,3,43,22,0,0,-1,18,460
2,3,48,22,0,0,-1,18,459
2,3,49,22,0,0,-1,18,458
2,3,50,22,0,0,-1,18,457
2,3,40,23,0,0,-1,18,456
3,2,40,8,0,21,18,455
2,3,41,23,0,0,-1,18,454
3,2,41,9,0,21,18,453
2,3,42,23,0,0,-1,18,452
3,2,42,10,0,21,18,451
2,3,43,23,0,0,-1,18,450
3,2,43,11,0,21,18,449
2,3,48,23,0,0,-1,18,448
2,3,49,23,0,0,-1,18,447
2,3,50,23,0,0,-1,18,446
2,3,18,14,0,0,-1,18,445
2,3,19,14,0,0,-1,18,444
2,3,16,15,0,0,-1,18,443
2,3,18,15,0,0,-1,18,442
2,3,4,24,0,0,-1,18,441
2,3,5,24,0,0,-1,18,440
2,3,20,24,0,0,-1,18,439
2,3,21,24,0,0,-1,18,438
2,3,22,24,0,0,-1,18,437
2,3,23,24,0,0,-1,18,436
2,3,4,25,0,0,-1,18,435
2,3,5,25,0,0,-1,18,434
2,3,20,25,0,0,-1,18,433
2,3,21,25,0,0,-1,18,432
2,3,4,26,0,0,-1,18,431
2,3,5,26,0,0,-1,18,430
2,3,20,26,0,0,-1,18,429
2,3,21,26,0,0,-1,18,428
2,3,22,26,0,0,-1,18,427
2,3,23,26,0,0,-1,18,426
2,3,21,27,0,0,-1,18,425
2,3,22,27,0,0,-1,18,424
2,3,23,27,0,0,-1,18,423
2,3,15,28,0,0,-1,18,422
2,3,15,29,0,0,-1,18,421
2,3,15,30,0,0,-1,18,420
2,3,15,31,0,0,-1,18,419
3,2,23,7,0,21,19,418
3,2,22,6,0,21,19,417
3,2,21,5,0,21,19,416
3,2,20,4,0,21,19,415
2,3,24,20,0,0,-1,19,414
2,3,25,20,0,0,-1,19,413
2,3,26,20,0,0,-1,19,412
2,3,24,21,0,0,-1,19,411
2,3,25,21,0,0,-1,19,410
3,2,25,9,0,21,19,409
2,3,26,21,0,0,-1,19,408
2,3,27,21,0,0,-1,19,407
2,3,24,22,0,0,-1,19,406
2,3,26,22,0,0,-1,19,405
2,3,27,22,0,0,-1,19,404
2,3,24,23,0,0,-1,19,403
3,2,24,8,0,21,19,402
2,3,26,23,0,0,-1,19,401
3,2,26,10,0,21,19,400
2,3,27,23,0,0,-1,19,399
3,2,27,11,0,21,19,398
3,2,13,13,0,21,19,397
3,2,12,12,0,21,19,396
3,2,7,7,0,21,19,395
3,2,6,6,0,21,19,394
2,3,28,15,0,0,-1,19,393
2,3,29,15,0,0,-1,19,392
2,3,30,15,0,0,-1,19,391
2,3,31,15,0,0,-1,19,390
2,3,44,24,0,0,-1,19,389
2,3,45,24,0,0,-1,19,388
2,3,46,24,0,0,-1,19,387
2,3,47,24,0,0,-1,19,386
2,3,44,25,0,0,-1,19,385
2,3,45,25,0,0,-1,19,384
2,3,47,25,0,0,-1,19,383
2,3,44,26,0,0,-1,19,382
2,3,45,26,0,0,-1,19,381
2,3,46,26,0,0,-1,19,380
2,3,47,26,0,0,-1,19,379
2,3,44,27,0,0,-1,19,378
3,2,44,12,0,21,19,377
2,3,45,27,0,0,-1,19,376
3,2,45,13,0,21,19,375
2,3,46,27,0,0,-1,19,374
3,2,46,14,0,21,19,373
2,3,47,27,0,0,-1,19,372
3,2,47,15,0,21,19,371
2,3,15,16,0,0,-1,19,370
2,3,16,16,0,0,-1,19,369
2,3,17,16,0,0,-1,19,368
2,3,18,16,0,0,-1,19,367
2,3,28,16,0,0,-1,19,366
2,3,29,16,0,0,-1,19,365
2,3,30,16,0,0,-1,19,364
2,3,31,16,0,0,-1,19,363
2,3,16,17,0,0,-1,19,362
2,3,17,17,0,0,-1,19,361
2,3,18,17,0,0,-1,19,360
2,3,28,17,0,0,-1,19,359
2,3,29,17,0,0,-1,19,358
2,3,30,17,0,0,-1,19,357
2,3,31,17,0,0,-1,19,356
2,3,4,18,0,0,-1,19,355
2,3,5,18,0,0,-1,19,354
2,3,14,18,0,0,-1,19,353
2,3,15,18,0,0,-1,19,352
3,2,15,15,0,21,19,351
2,3,16,18,0,0,-1,19,350
3,2,16,0,0,21,19,349
2,3,17,18,0,0,-1,19,348
3,2,17,1,0,21,19,347
2,3,18,18,0,0,-1,19,346
2,3,19,18,0,0,-1,19,345
2,3,28,18,0,0,-1,19,344
3,2,28,12,0,21,19,343
2,3,29,18,0,0,-1,19,342
3,2,29,13,0,21,19,341
2,3,30,18,0,0,-1,19,340
3,2,30,14,0,21,19,339
2,3,31,18,0,0,-1,19,338
2,3,4,19,0,0,-1,19,337
3,2,4,4,0,21,19,336
2,3,5,19,0,0,-1,19,335
3,2,5,5,0,21,19,334
2,3,14,19,0,0,-1,19,333
3,2,14,14,0,21,19,332
2,3,18,19,0,0,-1,19,331
3,2,18,2,0,21,19,330
2,3,19,19,0,0,-1,19,329
3,2,19,3,0,21,19,328
2,3,31,19,0,0,-1,19,327
3,2,31,15,0,21,19,326
2,3,48,28,0,0,-1,19,325
2,3,49,28,0,0,-1,19,324
2,3,50,28,0,0,-1,19,323
2,3,48,29,0,0,-1,19,322
2,3,49,29,0,0,-1,19,321
2,3,50,29,0,0,-1,19,320
2,3,48,30,0,0,-1,19,319
2,3,49,30,0,0,-1,19,318
2,3,50,30,0,0,-1,19,317
2,3,48,31,0,0,-1,19,316
3,2,48,0,0,21,19,315
2,3,49,31,0,0,-1,19,314
3,2,49,1,0,21,19,313
2,3,50,31,0,0,-1,19,312
3,2,50,2,0,21,19,311
2,3,0,20,0,0,-1,20,310
2,3,1,20,0,0,-1,20,309
2,3,2,20,0,0,-1,20,308
2,3,3,20,0,0,-1,20,307
2,3,36,20,0,0,-1,20,306
2,3,1,21,0,0,-1,20,305
2,3,2,21,0,0,-1,20,304
2,3,3,21,0,0,-1,20,303
2,3,36,21,0,0,-1,20,302
2,3,37,21,0,0,-1,20,301
2,3,38,21,0,0,-1,20,300
2,3,39,21,0,0,-1,20,299
2,3,36,22,0,0,-1,20,298
2,3,37,22,0,0,-1,20,297
2,3,38,22,0,0,-1,20,296
2,3,39,22,0,0,-1,20,295
2,3,36,23,0,0,-1,20,294
2,3,37,23,0,0,-1,20,293
2,3,38,23,0,0,-1,20,292
2,3,39,23,0,0,-1,20,291
2,3,8,12,0,0,-1,20,290
2,3,9,12,0,0,-1,20,289
2,3,10,12,0,0,-1,20,288
2,3,11,12,0,0,-1,20,287
2,3,8,13,0,0,-1,20,286
2,3,9,13,0,0,-1,20,285
2,3,10,13,0,0,-1,20,284
2,3,11,13,0,0,-1,20,283
2,3,8,14,0,0,-1,20,282
3,2,8,8,0,21,20,281
2,3,9,14,0,0,-1,20,280
3,2,9,9,0,21,20,279
2,3,10,14,0,0,-1,20,278
3,2,10,10,0,21,20,277
2,3,11,14,0,0,-1,20,276
3,2,11,11,0,21,20,275
2,3,36,15,0,0,-1,20,274
2,3,37,15,0,0,-1,20,273
2,3,38,15,0,0,-1,20,272
2,3,39,15,0,0,-1,20,271
2,3,0,24,0,0,-1,20,270
2,3,1,24,0,0,-1,20,269
2,3,2,24,0,0,-1,20,268
2,3,3,24,0,0,-1,20,267
2,3,36,24,0,0,-1,20,266
2,3,37,24,0,0,-1,20,265
2,3,38,24,0,0,-1,20,264
2,3,39,24,0,0,-1,20,263
2,3,0,25,0,0,-1,20,262
2,3,1,25,0,0,-1,20,261
2,3,2,25,0,0,-1,20,260
2,3,3,25,0,0,-1,20,259
2,3,36,25,0,0,-1,20,258
2,3,0,26,0,0,-1,20,257
3,2,0,0,0,21,20,256
2,3,1,26,0,0,-1,20,255
3,2,1,1,0,21,20,254
2,3,2,26,0,0,-1,20,253
3,2,2,2,0,21,20,252
2,3,3,26,0,0,-1,20,251
3,2,3,3,0,21,20,250
2,3,36,26,0,0,-1,20,249
2,3,37,26,0,0,-1,20,248
2,3,38,26,0,0,-1,20,247
2,3,39,26,0,0,-1,20,246
2,3,36,27,0,0,-1,20,245
2,3,37,27,0,0,-1,20,244
2,3,38,27,0,0,-1,20,243
2,3,39,27,0,0,-1,20,242
2,3,36,16,0,0,-1,20,241
2,3,37,16,0,0,-1,20,240
2,3,38,16,0,0,-1,20,239
2,3,39,16,0,0,-1,20,238
2,3,36,17,0,0,-1,20,237
2,3,37,17,0,0,-1,20,236
2,3,38,17,0,0,-1,20,235
2,3,39,17,0,0,-1,20,234
2,3,36,18,0,0,-1,20,233
2,3,37,18,0,0,-1,20,232
2,3,38,18,0,0,-1,20,231
2,3,39,18,0,0,-1,20,230
2,3,38,19,0,0,-1,20,229
2,3,39,19,0,0,-1,20,228
2,3,36,28,0,0,-1,20,227
2,3,37,28,0,0,-1,20,226
2,3,38,28,0,0,-1,20,225
2,3,39,28,0,0,-1,20,224
2,3,36,29,0,0,-1,20,223
2,3,37,29,0,0,-1,20,222
2,3,38,29,0,0,-1,20,221
2,3,39,29,0,0,-1,20,220
2,3,36,30,0,0,-1,20,219
2,3,37,30,0,0,-1,20,218
2,3,38,30,0,0,-1,20,217
2,3,39,30,0,0,-1,20,216
2,3,36,31,0,0,-1,20,215
3,2,36,4,0,21,20,214
2,3,37,31,0,0,-1,20,213
3,2,37,5,0,21,20,212
2,3,38,31,0,0,-1,20,211
3,2,38,6,0,21,20,210
2,3,39,31,0,0,-1,20,209
3,2,39,7,0,21,20,208
4,1,0,1,XAXBUF,-1,20,207
16,0,1,XAX,-1,20,206
21,0,1,EIGEN,-1,20,205
5,1,0,0,22,20,204
5,1,1,0,22,20,203
5,1,2,0,22,20,202
5,1,3,0,22,20,201
5,1,36,0,22,20,200
5,1,37,0,22,20,199
5,1,38,0,22,20,198
5,1,39,0,22,20,197
7,1,39,0,23,21,196
7,1,38,0,23,21,195
7,1,37,0,23,21,194
7,1,36,0,23,21,193
7,1,3,0,23,21,192
7,1,2,0,23,21,191
7,1,1,0,23,21,190
7,1,0,0,23,21,189
5,1,12,0,21,21,188
7,1,12,0,22,21,187
5,1,13,0,21,21,186
7,1,13,0,22,21,185
5,1,14,0,21,21,184
7,1,14,0,22,21,183
5,1,15,0,21,21,182
7,1,15,0,22,21,181
5,1,4,0,22,21,180
7,1,4,0,23,21,179
5,1,5,0,22,21,178
7,1,5,0,23,21,177
5,1,6,0,22,21,176
7,1,6,0,23,21,175
5,1,7,0,22,21,174
7,1,7,0,23,21,173
5,1,8,0,22,21,172
7,1,8,0,23,21,171
5,1,9,0,22,21,170
7,1,9,0,23,21,169
5,1,10,0,22,21,168
7,1,10,0,23,21,167
5,1,11,0,22,21,166
7,1,11,0,23,21,165
5,1,12,0,22,21,164
7,1,12,0,23,21,163
5,1,13,0,22,21,162
7,1,13,0,23,21,161
5,1,14,0,22,21,160
7,1,14,0,23,21,159
5,1,15,0,22,21,158
7,1,15,0,23,21,157
5,1,16,0,22,21,156
7,1,16,0,23,21,155
5,1,17,0,22,21,154
7,1,17,0,23,21,153
5,1,18,0,22,21,152
7,1,18,0,23,21,151
5,1,19,0,22,21,150
7,1,19,0,23,21,149
5,1,32,0,22,21,148
7,1,32,0,23,21,147
5,1,33,0,22,21,146
7,1,33,0,23,21,145
5,1,34,0,22,21,144
7,1,34,0,23,21,143
5,1,35,0,22,21,142
7,1,35,0,23,21,141
5,1,44,0,22,21,140
5,1,45,0,22,21,139
5,1,46,0,22,21,138
5,1,47,0,22,21,137
5,1,48,0,22,21,136
7,1,48,0,23,21,135
5,1,49,0,22,21,134
7,1,49,0,23,21,133
5,1,50,0,22,21,132
7,1,50,0,23,21,131
7,1,47,0,23,22,130
7,1,46,0,23,22,129
7,1,45,0,23,22,128
7,1,44,0,23,22,127
5,1,0,0,21,22,126
7,1,0,0,22,22,125
5,1,1,0,21,22,124
7,1,1,0,22,22,123
5,1,2,0,21,22,122
7,1,2,0,22,22,121
5,1,3,0,21,22,120
7,1,3,0,22,22,119
5,1,20,0,21,22,118
7,1,20,0,22,22,117
5,1,21,0,21,22,116
7,1,21,0,22,22,115
5,1,22,0,21,22,114
7,1,22,0,22,22,113
5,1,23,0,21,22,112
7,1,23,0,22,22,111
5,1,28,0,21,22,110
7,1,28,0,22,22,109
5,1,29,0,21,22,108
7,1,29,0,22,22,107
5,1,30,0,21,22,106
7,1,30,0,22,22,105
5,1,31,0,21,22,104
7,1,31,0,22,22,103
5,1,36,0,21,22,102
5,1,37,0,21,22,101
5,1,38,0,21,22,100
5,1,39,0,21,22,99
5,1,40,0,21,22,98
7,1,40,0,22,22,97
5,1,41,0,21,22,96
7,1,41,0,22,22,95
5,1,42,0,21,22,94
7,1,42,0,22,22,93
5,1,43,0,21,22,92
7,1,43,0,22,22,91
5,1,44,0,21,22,90
7,1,44,0,22,22,89
5,1,45,0,21,22,88
7,1,45,0,22,22,87
5,1,46,0,21,22,86
7,1,46,0,22,22,85
5,1,47,0,21,22,84
7,1,47,0,22,22,83
5,1,48,0,21,22,82
5,1,49,0,21,22,81
5,1,50,0,21,22,80
5,1,24,0,22,22,79
7,1,24,0,23,22,78
5,1,25,0,22,22,77
7,1,25,0,23,22,76
5,1,26,0,22,22,75
7,1,26,0,23,22,74
5,1,27,0,22,22,73
7,1,27,0,23,22,72
5,1,40,0,22,22,71
7,1,40,0,23,22,70
5,1,41,0,22,22,69
7,1,41,0,23,22,68
5,1,42,0,22,22,67
7,1,42,0,23,22,66
5,1,43,0,22,22,65
7,1,43,0,23,22,64
7,1,50,0,22,23,63
7,1,49,0,22,23,62
7,1,48,0,22,23,61
7,1,39,0,22,23,60
7,1,38,0,22,23,59
7,1,37,0,22,23,58
7,1,36,0,22,23,57
5,1,4,0,21,23,56
7,1,4,0,22,23,55
5,1,5,0,21,23,54
7,1,5,0,22,23,53
5,1,6,0,21,23,52
7,1,6,0,22,23,51
5,1,7,0,21,23,50
7,1,7,0,22,23,49
5,1,8,0,21,23,48
7,1,8,0,22,23,47
5,1,9,0,21,23,46
7,1,9,0,22,23,45
5,1,10,0,21,23,44
7,1,10,0,22,23,43
5,1,11,0,21,23,42
7,1,11,0,22,23,41
5,1,16,0,21,23,40
7,1,16,0,22,23,39
5,1,17,0,21,23,38
7,1,17,0,22,23,37
5,1,18,0,21,23,36
7,1,18,0,22,23,35
5,1,19,0,21,23,34
7,1,19,0,22,23,33
5,1,24,0,21,23,32
7,1,24,0,22,23,31
5,1,25,0,21,23,30
7,1,25,0,22,23,29
5,1,26,0,21,23,28
7,1,26,0,22,23,27
5,1,27,0,21,23,26
7,1,27,0,22,23,25
5,1,32,0,21,23,24
7,1,32,0,22,23,23
5,1,33,0,21,23,22
7,1,33,0,22,23,21
5,1,34,0,21,23,20
7,1,34,0,22,23,19
5,1,35,0,21,23,18
7,1,35,0,22,23,17
5,1,20,0,22,23,16
7,1,20,0,23,23,15
5,1,21,0,22,23,14
7,1,21,0,23,23,13
5,1,22,0,22,23,12
7,1,22,0,23,23,11
5,1,23,0,22,23,10
7,1,23,0,23,23,9
5,1,28,0,22,23,8
7,1,28,0,23,23,7
5,1,29,0,22,23,6
7,1,29,0,23,23,5
5,1,30,0,22,23,4
7,1,30,0,23,23,3
5,1,31,0,22,23,2
7,1,31,0,23,23,1
