2633
22,0,1,_X,-1,0,2633
22,0,1,_X,-1,0,2632
22,0,1,_X,-1,0,2631
22,0,1,_X,-1,0,2630
22,0,1,_X,-1,0,2629
22,0,1,_X,-1,0,2628
22,0,1,_X,-1,0,2627
22,0,1,_X,-1,0,2626
22,0,1,_AX,-1,0,2625
22,0,1,_AX,-1,0,2624
22,0,1,_AX,-1,0,2623
22,0,1,_AX,-1,0,2622
22,0,1,_X,-1,0,2621
22,0,1,_X,-1,0,2620
22,0,1,_X,-1,0,2619
22,0,1,_X,-1,0,2618
22,0,1,_X,-1,0,2617
22,0,1,_X,-1,0,2616
22,0,1,_X,-1,0,2615
22,0,1,_X,-1,0,2614
22,0,1,_AX,-1,0,2613
22,0,1,_AX,-1,0,2612
22,0,1,_AX,-1,0,2611
22,0,1,_AX,-1,0,2610
22,0,1,_AX,-1,0,2609
22,0,1,_AX,-1,0,2608
22,0,1,_AX,-1,0,2607
22,0,1,_AX,-1,0,2606
22,0,1,_X,-1,0,2605
22,0,1,_X,-1,0,2604
22,0,1,_X,-1,0,2603
22,0,1,_X,-1,0,2602
22,0,1,_AX,-1,0,2601
22,0,1,_AX,-1,0,2600
22,0,1,_AX,-1,0,2599
22,0,1,_AX,-1,0,2598
22,0,1,_X,-1,0,2597
22,0,1,_X,-1,0,2596
22,0,1,_X,-1,0,2595
22,0,1,_X,-1,0,2594
22,0,1,_AX,-1,0,2593
22,0,1,_AX,-1,0,2592
22,0,1,_AX,-1,0,2591
22,0,1,_AX,-1,0,2590
22,0,1,_X,-1,0,2589
22,0,1,_X,-1,0,2588
22,0,1,_X,-1,0,2587
22,0,1,_X,-1,0,2586
22,0,1,_X,-1,0,2585
22,0,1,_X,-1,0,2584
22,0,1,_X,-1,0,2583
22,0,1,_X,-1,0,2582
22,0,1,_lambda,-1,0,2581
5,1,4,0,1,0,2580
5,1,5,0,1,0,2579
5,1,6,0,1,0,2578
5,1,7,0,1,0,2577
5,1,12,0,1,0,2576
9,1,12,0,1,0,2575
5,1,13,0,1,0,2574
9,1,13,0,1,0,2573
5,1,14,0,1,0,2572
9,1,14,0,1,0,2571
5,1,15,0,1,0,2570
9,1,15,0,1,0,2569
5,1,16,0,1,0,2568
9,1,16,0,1,0,2567
10,1,16,0,-1,0,2566
11,2,16,0,0,-1,0,2565
5,1,17,0,1,0,2564
9,1,17,0,1,0,2563
10,1,17,0,-1,0,2562
11,2,17,1,0,-1,0,2561
5,1,18,0,1,0,2560
9,1,18,0,1,0,2559
10,1,18,0,-1,0,2558
11,2,18,2,0,-1,0,2557
5,1,19,0,1,0,2556
9,1,19,0,1,0,2555
10,1,19,0,-1,0,2554
11,2,19,3,0,-1,0,2553
5,1,20,0,1,0,2552
9,1,20,0,1,0,2551
5,1,21,0,1,0,2550
9,1,21,0,1,0,2549
5,1,22,0,1,0,2548
9,1,22,0,1,0,2547
5,1,23,0,1,0,2546
9,1,23,0,1,0,2545
5,1,28,0,1,0,2544
5,1,29,0,1,0,2543
5,1,30,0,1,0,2542
5,1,31,0,1,0,2541
5,1,32,0,1,0,2540
9,1,32,0,1,0,2539
10,1,32,0,-1,0,2538
5,1,33,0,1,0,2537
9,1,33,0,1,0,2536
10,1,33,0,-1,0,2535
5,1,34,0,1,0,2534
9,1,34,0,1,0,2533
10,1,34,0,-1,0,2532
5,1,35,0,1,0,2531
9,1,35,0,1,0,2530
10,1,35,0,-1,0,2529
5,1,40,0,1,0,2528
5,1,41,0,1,0,2527
5,1,42,0,1,0,2526
5,1,43,0,1,0,2525
5,1,44,0,1,0,2524
5,1,45,0,1,0,2523
5,1,46,0,1,0,2522
5,1,47,0,1,0,2521
11,2,35,3,0,-1,1,2520
11,2,34,2,0,-1,1,2519
11,2,33,1,0,-1,1,2518
11,2,32,0,0,-1,1,2517
10,1,23,0,-1,1,2516
11,2,23,7,0,-1,1,2515
10,1,22,0,-1,1,2514
11,2,22,6,0,-1,1,2513
10,1,21,0,-1,1,2512
11,2,21,5,0,-1,1,2511
10,1,20,0,-1,1,2510
11,2,20,4,0,-1,1,2509
10,1,15,0,-1,1,2508
11,2,15,15,0,-1,1,2507
10,1,14,0,-1,1,2506
11,2,14,14,0,-1,1,2505
10,1,13,0,-1,1,2504
11,2,13,13,0,-1,1,2503
10,1,12,0,-1,1,2502
11,2,12,12,0,-1,1,2501
22,0,1,_AX,-1,1,2500
9,1,47,0,1,1,2499
10,1,47,0,-1,1,2498
11,2,47,15,0,-1,1,2497
22,0,1,_AX,-1,1,2496
9,1,46,0,1,1,2495
10,1,46,0,-1,1,2494
11,2,46,14,0,-1,1,2493
22,0,1,_AX,-1,1,2492
9,1,45,0,1,1,2491
10,1,45,0,-1,1,2490
11,2,45,13,0,-1,1,2489
22,0,1,_AX,-1,1,2488
9,1,44,0,1,1,2487
10,1,44,0,-1,1,2486
11,2,44,12,0,-1,1,2485
22,0,1,_AX,-1,1,2484
9,1,43,0,1,1,2483
10,1,43,0,-1,1,2482
11,2,43,11,0,-1,1,2481
22,0,1,_AX,-1,1,2480
9,1,42,0,1,1,2479
10,1,42,0,-1,1,2478
11,2,42,10,0,-1,1,2477
22,0,1,_AX,-1,1,2476
9,1,41,0,1,1,2475
10,1,41,0,-1,1,2474
11,2,41,9,0,-1,1,2473
22,0,1,_AX,-1,1,2472
9,1,40,0,1,1,2471
10,1,40,0,-1,1,2470
11,2,40,8,0,-1,1,2469
22,0,1,_X,-1,1,2468
5,1,27,0,1,1,2467
9,1,27,0,1,1,2466
10,1,27,0,-1,1,2465
11,2,27,11,0,-1,1,2464
22,0,1,_X,-1,1,2463
5,1,26,0,1,1,2462
9,1,26,0,1,1,2461
10,1,26,0,-1,1,2460
11,2,26,10,0,-1,1,2459
22,0,1,_X,-1,1,2458
5,1,25,0,1,1,2457
9,1,25,0,1,1,2456
10,1,25,0,-1,1,2455
11,2,25,9,0,-1,1,2454
22,0,1,_X,-1,1,2453
5,1,24,0,1,1,2452
9,1,24,0,1,1,2451
10,1,24,0,-1,1,2450
11,2,24,8,0,-1,1,2449
22,0,1,_AX,-1,1,2448
9,1,7,0,1,1,2447
10,1,7,0,-1,1,2446
22,0,1,_AX,-1,1,2445
9,1,6,0,1,1,2444
10,1,6,0,-1,1,2443
22,0,1,_AX,-1,1,2442
9,1,5,0,1,1,2441
10,1,5,0,-1,1,2440
22,0,1,_AX,-1,1,2439
9,1,4,0,1,1,2438
10,1,4,0,-1,1,2437
22,0,1,_AX,-1,1,2436
22,0,1,_AX,-1,1,2435
22,0,1,_AX,-1,1,2434
22,0,1,_AX,-1,1,2433
22,0,1,_X,-1,1,2432
5,1,3,0,1,1,2431
9,1,3,0,1,1,2430
10,1,3,0,-1,1,2429
11,2,3,3,0,-1,1,2428
22,0,1,_X,-1,1,2427
5,1,2,0,1,1,2426
9,1,2,0,1,1,2425
10,1,2,0,-1,1,2424
11,2,2,2,0,-1,1,2423
22,0,1,_X,-1,1,2422
5,1,1,0,1,1,2421
9,1,1,0,1,1,2420
10,1,1,0,-1,1,2419
11,2,1,1,0,-1,1,2418
22,0,1,_X,-1,1,2417
5,1,0,0,1,1,2416
9,1,0,0,1,1,2415
10,1,0,0,-1,1,2414
11,2,0,0,0,-1,1,2413
11,2,4,4,0,-1,2,2412
11,2,5,5,0,-1,2,2411
11,2,6,6,0,-1,2,2410
11,2,7,7,0,-1,2,2409
19,1,47,0,1,2,2408
19,1,46,0,1,2,2407
19,1,45,0,1,2,2406
19,1,44,0,1,2,2405
1,0,1,RN,-1,2,2404
22,0,1,_AX,-1,2,2403
22,0,1,_AX,-1,2,2402
22,0,1,_AX,-1,2,2401
22,0,1,_X,-1,2,2400
5,1,50,0,1,2,2399
9,1,50,0,1,2,2398
10,1,50,0,-1,2,2397
11,2,50,2,0,-1,2,2396
22,0,1,_X,-1,2,2395
5,1,49,0,1,2,2394
9,1,49,0,1,2,2393
10,1,49,0,-1,2,2392
11,2,49,1,0,-1,2,2391
22,0,1,_X,-1,2,2390
5,1,48,0,1,2,2389
9,1,48,0,1,2,2388
10,1,48,0,-1,2,2387
11,2,48,0,0,-1,2,2386
22,0,1,_AX,-1,2,2385
22,0,1,_AX,-1,2,2384
22,0,1,_AX,-1,2,2383
22,0,1,_AX,-1,2,2382
22,0,1,_X,-1,2,2381
5,1,39,0,1,2,2380
9,1,39,0,1,2,2379
10,1,39,0,-1,2,2378
11,2,39,7,0,-1,2,2377
22,0,1,_X,-1,2,2376
5,1,38,0,1,2,2375
9,1,38,0,1,2,2374
10,1,38,0,-1,2,2373
11,2,38,6,0,-1,2,2372
22,0,1,_X,-1,2,2371
5,1,37,0,1,2,2370
9,1,37,0,1,2,2369
10,1,37,0,-1,2,2368
11,2,37,5,0,-1,2,2367
22,0,1,_X,-1,2,2366
5,1,36,0,1,2,2365
9,1,36,0,1,2,2364
10,1,36,0,-1,2,2363
11,2,36,4,0,-1,2,2362
22,0,1,_AX,-1,2,2361
9,1,31,0,1,2,2360
10,1,31,0,-1,2,2359
11,2,31,15,0,-1,2,2358
22,0,1,_AX,-1,2,2357
9,1,30,0,1,2,2356
10,1,30,0,-1,2,2355
11,2,30,14,0,-1,2,2354
22,0,1,_AX,-1,2,2353
9,1,29,0,1,2,2352
10,1,29,0,-1,2,2351
11,2,29,13,0,-1,2,2350
22,0,1,_AX,-1,2,2349
9,1,28,0,1,2,2348
10,1,28,0,-1,2,2347
11,2,28,12,0,-1,2,2346
22,0,1,_AX,-1,2,2345
22,0,1,_AX,-1,2,2344
22,0,1,_AX,-1,2,2343
22,0,1,_AX,-1,2,2342
22,0,1,_X,-1,2,2341
5,1,11,0,1,2,2340
9,1,11,0,1,2,2339
10,1,11,0,-1,2,2338
11,2,11,11,0,-1,2,2337
22,0,1,_X,-1,2,2336
5,1,10,0,1,2,2335
9,1,10,0,1,2,2334
10,1,10,0,-1,2,2333
11,2,10,10,0,-1,2,2332
22,0,1,_X,-1,2,2331
5,1,9,0,1,2,2330
9,1,9,0,1,2,2329
10,1,9,0,-1,2,2328
11,2,9,9,0,-1,2,2327
22,0,1,_X,-1,2,2326
5,1,8,0,1,2,2325
9,1,8,0,1,2,2324
10,1,8,0,-1,2,2323
11,2,8,8,0,-1,2,2322
12,0,1,RNBUF,-1,2,2321
13,0,1,RN,-1,2,2320
1,0,1,actMask,-1,3,2319
20,0,1,actMask,-1,3,2318
14,1,4,0,1,3,2317
3,2,4,4,0,1,3,2316
14,1,5,0,1,3,2315
3,2,5,5,0,1,3,2314
14,1,6,0,1,3,2313
3,2,6,6,0,1,3,2312
14,1,7,0,1,3,2311
3,2,7,7,0,1,3,2310
14,1,28,0,1,3,2309
14,1,29,0,1,3,2308
14,1,30,0,1,3,2307
14,1,31,0,1,3,2306
14,1,32,0,1,3,2305
3,2,32,0,0,1,3,2304
14,1,33,0,1,3,2303
3,2,33,1,0,1,3,2302
14,1,34,0,1,3,2301
3,2,34,2,0,1,3,2300
14,1,35,0,1,3,2299
3,2,35,3,0,1,3,2298
14,1,36,0,1,3,2297
3,2,36,4,0,1,3,2296
14,1,37,0,1,3,2295
3,2,37,5,0,1,3,2294
14,1,38,0,1,3,2293
3,2,38,6,0,1,3,2292
14,1,39,0,1,3,2291
3,2,39,7,0,1,3,2290
14,1,40,0,1,3,2289
14,1,41,0,1,3,2288
14,1,42,0,1,3,2287
14,1,43,0,1,3,2286
14,1,48,0,1,3,2285
3,2,48,0,0,1,3,2284
14,1,49,0,1,3,2283
3,2,49,1,0,1,3,2282
14,1,50,0,1,3,2281
3,2,50,2,0,1,3,2280
21,0,1,CONSTRUCTGB,-1,3,2279
3,2,43,11,0,1,4,2278
3,2,42,10,0,1,4,2277
3,2,41,9,0,1,4,2276
3,2,40,8,0,1,4,2275
14,1,0,0,1,4,2274
3,2,0,0,0,1,4,2273
14,1,1,0,1,4,2272
3,2,1,1,0,1,4,2271
14,1,2,0,1,4,2270
3,2,2,2,0,1,4,2269
14,1,3,0,1,4,2268
3,2,3,3,0,1,4,2267
14,1,8,0,1,4,2266
3,2,8,8,0,1,4,2265
14,1,9,0,1,4,2264
3,2,9,9,0,1,4,2263
14,1,10,0,1,4,2262
3,2,10,10,0,1,4,2261
14,1,11,0,1,4,2260
3,2,11,11,0,1,4,2259
14,1,12,0,1,4,2258
3,2,12,12,0,1,4,2257
14,1,13,0,1,4,2256
3,2,13,13,0,1,4,2255
14,1,14,0,1,4,2254
3,2,14,14,0,1,4,2253
14,1,15,0,1,4,2252
3,2,15,15,0,1,4,2251
14,1,16,0,1,4,2250
3,2,16,0,0,1,4,2249
14,1,17,0,1,4,2248
3,2,17,1,0,1,4,2247
14,1,18,0,1,4,2246
3,2,18,2,0,1,4,2245
14,1,19,0,1,4,2244
3,2,19,3,0,1,4,2243
14,1,20,0,1,4,2242
3,2,20,4,0,1,4,2241
14,1,21,0,1,4,2240
3,2,21,5,0,1,4,2239
14,1,22,0,1,4,2238
3,2,22,6,0,1,4,2237
14,1,23,0,1,4,2236
3,2,23,7,0,1,4,2235
14,1,24,0,1,4,2234
3,2,24,8,0,1,4,2233
14,1,25,0,1,4,2232
3,2,25,9,0,1,4,2231
14,1,26,0,1,4,2230
3,2,26,10,0,1,4,2229
14,1,27,0,1,4,2228
3,2,27,11,0,1,4,2227
14,1,44,0,1,4,2226
3,2,44,12,0,1,4,2225
14,1,45,0,1,4,2224
3,2,45,13,0,1,4,2223
14,1,46,0,1,4,2222
3,2,46,14,0,1,4,2221
14,1,47,0,1,4,2220
3,2,47,15,0,1,4,2219
3,2,31,15,0,1,5,2218
3,2,30,14,0,1,5,2217
3,2,29,13,0,1,5,2216
3,2,28,12,0,1,5,2215
4,1,0,1,temp2BUF,-1,5,2214
5,1,20,0,2,5,2213
5,1,21,0,2,5,2212
5,1,22,0,2,5,2211
5,1,23,0,2,5,2210
5,1,24,0,2,5,2209
5,1,25,0,2,5,2208
5,1,26,0,2,5,2207
5,1,27,0,2,5,2206
19,1,50,0,1,5,2205
19,1,49,0,1,5,2204
19,1,48,0,1,5,2203
19,1,43,0,1,5,2202
19,1,42,0,1,5,2201
19,1,41,0,1,5,2200
19,1,40,0,1,5,2199
19,1,35,0,1,5,2198
19,1,34,0,1,5,2197
19,1,33,0,1,5,2196
19,1,32,0,1,5,2195
19,1,31,0,1,5,2194
19,1,30,0,1,5,2193
19,1,29,0,1,5,2192
19,1,28,0,1,5,2191
19,1,27,0,1,5,2190
19,1,26,0,1,5,2189
19,1,25,0,1,5,2188
19,1,24,0,1,5,2187
19,1,23,0,1,5,2186
19,1,22,0,1,5,2185
19,1,21,0,1,5,2184
19,1,20,0,1,5,2183
19,1,19,0,1,5,2182
19,1,18,0,1,5,2181
19,1,17,0,1,5,2180
19,1,16,0,1,5,2179
19,1,7,0,1,5,2178
19,1,6,0,1,5,2177
19,1,5,0,1,5,2176
19,1,4,0,1,5,2175
19,1,3,0,1,5,2174
19,1,2,0,1,5,2173
19,1,1,0,1,5,2172
19,1,0,0,1,5,2171
5,1,4,0,2,6,2170
9,1,4,0,2,6,2169
3,2,4,4,0,2,6,2168
5,1,5,0,2,6,2167
9,1,5,0,2,6,2166
3,2,5,5,0,2,6,2165
5,1,6,0,2,6,2164
9,1,6,0,2,6,2163
3,2,6,6,0,2,6,2162
5,1,7,0,2,6,2161
9,1,7,0,2,6,2160
3,2,7,7,0,2,6,2159
5,1,8,0,2,6,2158
9,1,8,0,2,6,2157
3,2,8,8,0,2,6,2156
5,1,9,0,2,6,2155
9,1,9,0,2,6,2154
3,2,9,9,0,2,6,2153
5,1,10,0,2,6,2152
9,1,10,0,2,6,2151
3,2,10,10,0,2,6,2150
5,1,11,0,2,6,2149
9,1,11,0,2,6,2148
3,2,11,11,0,2,6,2147
5,1,16,0,2,6,2146
9,1,16,0,2,6,2145
3,2,16,0,0,2,6,2144
5,1,17,0,2,6,2143
9,1,17,0,2,6,2142
3,2,17,1,0,2,6,2141
5,1,18,0,2,6,2140
9,1,18,0,2,6,2139
3,2,18,2,0,2,6,2138
5,1,19,0,2,6,2137
9,1,19,0,2,6,2136
3,2,19,3,0,2,6,2135
5,1,32,0,2,6,2134
9,1,32,0,2,6,2133
3,2,32,0,0,2,6,2132
5,1,33,0,2,6,2131
9,1,33,0,2,6,2130
3,2,33,1,0,2,6,2129
5,1,34,0,2,6,2128
9,1,34,0,2,6,2127
3,2,34,2,0,2,6,2126
5,1,35,0,2,6,2125
9,1,35,0,2,6,2124
3,2,35,3,0,2,6,2123
5,1,36,0,2,6,2122
9,1,36,0,2,6,2121
3,2,36,4,0,2,6,2120
5,1,37,0,2,6,2119
9,1,37,0,2,6,2118
3,2,37,5,0,2,6,2117
5,1,38,0,2,6,2116
9,1,38,0,2,6,2115
3,2,38,6,0,2,6,2114
5,1,39,0,2,6,2113
9,1,39,0,2,6,2112
3,2,39,7,0,2,6,2111
9,1,27,0,2,7,2110
3,2,27,11,0,2,7,2109
9,1,26,0,2,7,2108
3,2,26,10,0,2,7,2107
9,1,25,0,2,7,2106
3,2,25,9,0,2,7,2105
9,1,24,0,2,7,2104
3,2,24,8,0,2,7,2103
9,1,23,0,2,7,2102
3,2,23,7,0,2,7,2101
9,1,22,0,2,7,2100
3,2,22,6,0,2,7,2099
9,1,21,0,2,7,2098
3,2,21,5,0,2,7,2097
9,1,20,0,2,7,2096
3,2,20,4,0,2,7,2095
5,1,0,0,2,7,2094
9,1,0,0,2,7,2093
3,2,0,0,0,2,7,2092
5,1,1,0,2,7,2091
9,1,1,0,2,7,2090
3,2,1,1,0,2,7,2089
5,1,2,0,2,7,2088
9,1,2,0,2,7,2087
3,2,2,2,0,2,7,2086
5,1,3,0,2,7,2085
9,1,3,0,2,7,2084
3,2,3,3,0,2,7,2083
5,1,12,0,2,7,2082
9,1,12,0,2,7,2081
3,2,12,12,0,2,7,2080
5,1,13,0,2,7,2079
9,1,13,0,2,7,2078
3,2,13,13,0,2,7,2077
5,1,14,0,2,7,2076
9,1,14,0,2,7,2075
3,2,14,14,0,2,7,2074
5,1,15,0,2,7,2073
9,1,15,0,2,7,2072
3,2,15,15,0,2,7,2071
5,1,28,0,2,7,2070
9,1,28,0,2,7,2069
3,2,28,12,0,2,7,2068
5,1,29,0,2,7,2067
9,1,29,0,2,7,2066
3,2,29,13,0,2,7,2065
5,1,30,0,2,7,2064
9,1,30,0,2,7,2063
3,2,30,14,0,2,7,2062
5,1,31,0,2,7,2061
9,1,31,0,2,7,2060
3,2,31,15,0,2,7,2059
5,1,40,0,2,7,2058
9,1,40,0,2,7,2057
3,2,40,8,0,2,7,2056
5,1,41,0,2,7,2055
9,1,41,0,2,7,2054
3,2,41,9,0,2,7,2053
5,1,42,0,2,7,2052
9,1,42,0,2,7,2051
3,2,42,10,0,2,7,2050
5,1,43,0,2,7,2049
9,1,43,0,2,7,2048
3,2,43,11,0,2,7,2047
5,1,44,0,2,7,2046
9,1,44,0,2,7,2045
3,2,44,12,0,2,7,2044
5,1,45,0,2,7,2043
9,1,45,0,2,7,2042
3,2,45,13,0,2,7,2041
5,1,46,0,2,7,2040
9,1,46,0,2,7,2039
3,2,46,14,0,2,7,2038
5,1,47,0,2,7,2037
9,1,47,0,2,7,2036
3,2,47,15,0,2,7,2035
5,1,48,0,2,7,2034
9,1,48,0,2,7,2033
3,2,48,0,0,2,7,2032
5,1,49,0,2,7,2031
9,1,49,0,2,7,2030
3,2,49,1,0,2,7,2029
5,1,50,0,2,7,2028
9,1,50,0,2,7,2027
3,2,50,2,0,2,7,2026
4,1,0,1,RBRBUF,-1,7,2025
17,0,1,RBR,-1,7,2024
18,0,1,RBR,-1,7,2023
19,1,39,0,1,7,2022
19,1,38,0,1,7,2021
19,1,37,0,1,7,2020
19,1,36,0,1,7,2019
19,1,11,0,1,7,2018
19,1,10,0,1,7,2017
19,1,9,0,1,7,2016
19,1,8,0,1,7,2015
5,1,8,0,3,8,2014
7,1,8,0,1,8,2013
2,3,2,8,0,0,-1,8,2012
2,3,3,8,0,0,-1,8,2011
2,3,4,8,0,0,-1,8,2010
2,3,5,8,0,0,-1,8,2009
2,3,6,8,0,0,-1,8,2008
2,3,7,8,0,0,-1,8,2007
2,3,8,8,0,0,-1,8,2006
2,3,9,8,0,0,-1,8,2005
2,3,10,8,0,0,-1,8,2004
2,3,11,8,0,0,-1,8,2003
8,1,8,0,1,8,2002
3,2,8,8,0,4,8,2001
5,1,9,0,3,8,2000
7,1,9,0,1,8,1999
2,3,2,9,0,0,-1,8,1998
2,3,3,9,0,0,-1,8,1997
2,3,4,9,0,0,-1,8,1996
2,3,5,9,0,0,-1,8,1995
2,3,6,9,0,0,-1,8,1994
2,3,7,9,0,0,-1,8,1993
2,3,8,9,0,0,-1,8,1992
2,3,9,9,0,0,-1,8,1991
2,3,10,9,0,0,-1,8,1990
2,3,11,9,0,0,-1,8,1989
8,1,9,0,1,8,1988
3,2,9,9,0,4,8,1987
5,1,10,0,3,8,1986
7,1,10,0,1,8,1985
2,3,2,10,0,0,-1,8,1984
2,3,3,10,0,0,-1,8,1983
2,3,4,10,0,0,-1,8,1982
2,3,5,10,0,0,-1,8,1981
2,3,6,10,0,0,-1,8,1980
2,3,7,10,0,0,-1,8,1979
2,3,8,10,0,0,-1,8,1978
2,3,9,10,0,0,-1,8,1977
2,3,10,10,0,0,-1,8,1976
2,3,11,10,0,0,-1,8,1975
8,1,10,0,1,8,1974
3,2,10,10,0,4,8,1973
5,1,11,0,3,8,1972
7,1,11,0,1,8,1971
2,3,1,11,0,0,-1,8,1970
2,3,2,11,0,0,-1,8,1969
2,3,3,11,0,0,-1,8,1968
2,3,4,11,0,0,-1,8,1967
2,3,5,11,0,0,-1,8,1966
2,3,6,11,0,0,-1,8,1965
2,3,7,11,0,0,-1,8,1964
2,3,8,11,0,0,-1,8,1963
2,3,9,11,0,0,-1,8,1962
2,3,10,11,0,0,-1,8,1961
2,3,11,11,0,0,-1,8,1960
8,1,11,0,1,8,1959
3,2,11,11,0,4,8,1958
5,1,28,0,3,8,1957
5,1,29,0,3,8,1956
5,1,30,0,3,8,1955
5,1,31,0,3,8,1954
5,1,32,0,3,8,1953
5,1,33,0,3,8,1952
5,1,34,0,3,8,1951
5,1,35,0,3,8,1950
5,1,40,0,3,8,1949
5,1,41,0,3,8,1948
5,1,42,0,3,8,1947
5,1,43,0,3,8,1946
5,1,44,0,3,8,1945
7,1,44,0,1,8,1944
5,1,45,0,3,8,1943
7,1,45,0,1,8,1942
5,1,46,0,3,8,1941
7,1,46,0,1,8,1940
5,1,47,0,3,8,1939
7,1,47,0,1,8,1938
19,1,15,0,1,8,1937
19,1,14,0,1,8,1936
2,3,14,8,0,0,-1,8,1935
2,3,14,9,0,0,-1,8,1934
2,3,14,10,0,0,-1,8,1933
2,3,14,11,0,0,-1,8,1932
19,1,13,0,1,8,1931
2,3,13,8,0,0,-1,8,1930
2,3,13,9,0,0,-1,8,1929
2,3,13,10,0,0,-1,8,1928
2,3,13,11,0,0,-1,8,1927
19,1,12,0,1,8,1926
2,3,12,8,0,0,-1,8,1925
2,3,12,9,0,0,-1,8,1924
2,3,12,10,0,0,-1,8,1923
2,3,12,11,0,0,-1,8,1922
5,1,4,0,3,10,1921
7,1,4,0,1,10,1920
2,3,3,4,0,0,-1,10,1919
2,3,4,4,0,0,-1,10,1918
2,3,5,4,0,0,-1,10,1917
2,3,6,4,0,0,-1,10,1916
2,3,7,4,0,0,-1,10,1915
2,3,8,4,0,0,-1,10,1914
2,3,9,4,0,0,-1,10,1913
2,3,10,4,0,0,-1,10,1912
2,3,11,4,0,0,-1,10,1911
2,3,12,4,0,0,-1,10,1910
2,3,13,4,0,0,-1,10,1909
2,3,14,4,0,0,-1,10,1908
2,3,18,4,0,0,-1,10,1907
2,3,19,4,0,0,-1,10,1906
2,3,20,4,0,0,-1,10,1905
2,3,21,4,0,0,-1,10,1904
2,3,24,4,0,0,-1,10,1903
2,3,25,4,0,0,-1,10,1902
2,3,26,4,0,0,-1,10,1901
8,1,4,0,1,10,1900
3,2,4,4,0,4,10,1899
5,1,5,0,3,10,1898
7,1,5,0,1,10,1897
2,3,4,5,0,0,-1,10,1896
2,3,5,5,0,0,-1,10,1895
2,3,6,5,0,0,-1,10,1894
2,3,7,5,0,0,-1,10,1893
2,3,8,5,0,0,-1,10,1892
2,3,9,5,0,0,-1,10,1891
2,3,10,5,0,0,-1,10,1890
2,3,11,5,0,0,-1,10,1889
2,3,12,5,0,0,-1,10,1888
2,3,13,5,0,0,-1,10,1887
2,3,14,5,0,0,-1,10,1886
2,3,18,5,0,0,-1,10,1885
2,3,19,5,0,0,-1,10,1884
2,3,20,5,0,0,-1,10,1883
2,3,21,5,0,0,-1,10,1882
2,3,24,5,0,0,-1,10,1881
2,3,25,5,0,0,-1,10,1880
2,3,26,5,0,0,-1,10,1879
8,1,5,0,1,10,1878
3,2,5,5,0,4,10,1877
5,1,6,0,3,10,1876
7,1,6,0,1,10,1875
2,3,4,6,0,0,-1,10,1874
2,3,5,6,0,0,-1,10,1873
2,3,6,6,0,0,-1,10,1872
2,3,7,6,0,0,-1,10,1871
2,3,8,6,0,0,-1,10,1870
2,3,9,6,0,0,-1,10,1869
2,3,10,6,0,0,-1,10,1868
2,3,11,6,0,0,-1,10,1867
2,3,12,6,0,0,-1,10,1866
2,3,13,6,0,0,-1,10,1865
2,3,14,6,0,0,-1,10,1864
8,1,6,0,1,10,1863
3,2,6,6,0,4,10,1862
5,1,7,0,3,10,1861
7,1,7,0,1,10,1860
2,3,3,7,0,0,-1,10,1859
2,3,4,7,0,0,-1,10,1858
2,3,5,7,0,0,-1,10,1857
2,3,6,7,0,0,-1,10,1856
2,3,7,7,0,0,-1,10,1855
2,3,8,7,0,0,-1,10,1854
2,3,9,7,0,0,-1,10,1853
2,3,10,7,0,0,-1,10,1852
2,3,11,7,0,0,-1,10,1851
2,3,12,7,0,0,-1,10,1850
2,3,13,7,0,0,-1,10,1849
2,3,14,7,0,0,-1,10,1848
8,1,7,0,1,10,1847
3,2,7,7,0,4,10,1846
5,1,12,0,3,10,1845
5,1,13,0,3,10,1844
5,1,14,0,3,10,1843
5,1,15,0,3,10,1842
5,1,16,0,3,10,1841
5,1,17,0,3,10,1840
5,1,18,0,3,10,1839
5,1,19,0,3,10,1838
5,1,20,0,3,10,1837
5,1,21,0,3,10,1836
5,1,22,0,3,10,1835
5,1,23,0,3,10,1834
5,1,48,0,3,10,1833
5,1,49,0,3,10,1832
5,1,50,0,3,10,1831
5,1,0,0,3,9,1830
7,1,0,0,1,9,1829
2,3,0,0,0,0,-1,9,1828
2,3,1,0,0,0,-1,9,1827
2,3,18,0,0,0,-1,9,1826
2,3,19,0,0,0,-1,9,1825
2,3,20,0,0,0,-1,9,1824
2,3,24,0,0,0,-1,9,1823
2,3,25,0,0,0,-1,9,1822
2,3,26,0,0,0,-1,9,1821
8,1,0,0,1,9,1820
3,2,0,0,0,4,9,1819
5,1,1,0,3,9,1818
7,1,1,0,1,9,1817
2,3,0,1,0,0,-1,9,1816
2,3,1,1,0,0,-1,9,1815
2,3,2,1,0,0,-1,9,1814
2,3,11,1,0,0,-1,9,1813
2,3,18,1,0,0,-1,9,1812
2,3,19,1,0,0,-1,9,1811
2,3,20,1,0,0,-1,9,1810
2,3,21,1,0,0,-1,9,1809
2,3,24,1,0,0,-1,9,1808
2,3,25,1,0,0,-1,9,1807
2,3,26,1,0,0,-1,9,1806
8,1,1,0,1,9,1805
3,2,1,1,0,4,9,1804
5,1,2,0,3,9,1803
7,1,2,0,1,9,1802
2,3,1,2,0,0,-1,9,1801
2,3,2,2,0,0,-1,9,1800
2,3,3,2,0,0,-1,9,1799
2,3,8,2,0,0,-1,9,1798
2,3,9,2,0,0,-1,9,1797
2,3,10,2,0,0,-1,9,1796
2,3,11,2,0,0,-1,9,1795
2,3,12,2,0,0,-1,9,1794
2,3,14,2,0,0,-1,9,1793
2,3,18,2,0,0,-1,9,1792
2,3,19,2,0,0,-1,9,1791
2,3,20,2,0,0,-1,9,1790
2,3,21,2,0,0,-1,9,1789
2,3,24,2,0,0,-1,9,1788
2,3,25,2,0,0,-1,9,1787
2,3,26,2,0,0,-1,9,1786
8,1,2,0,1,9,1785
3,2,2,2,0,4,9,1784
5,1,3,0,3,9,1783
7,1,3,0,1,9,1782
2,3,2,3,0,0,-1,9,1781
2,3,3,3,0,0,-1,9,1780
2,3,4,3,0,0,-1,9,1779
2,3,7,3,0,0,-1,9,1778
2,3,8,3,0,0,-1,9,1777
2,3,9,3,0,0,-1,9,1776
2,3,10,3,0,0,-1,9,1775
2,3,11,3,0,0,-1,9,1774
2,3,12,3,0,0,-1,9,1773
2,3,13,3,0,0,-1,9,1772
2,3,14,3,0,0,-1,9,1771
2,3,18,3,0,0,-1,9,1770
2,3,19,3,0,0,-1,9,1769
2,3,20,3,0,0,-1,9,1768
2,3,21,3,0,0,-1,9,1767
2,3,24,3,0,0,-1,9,1766
2,3,25,3,0,0,-1,9,1765
2,3,26,3,0,0,-1,9,1764
8,1,3,0,1,9,1763
3,2,3,3,0,4,9,1762
5,1,24,0,3,9,1761
5,1,25,0,3,9,1760
5,1,26,0,3,9,1759
5,1,27,0,3,9,1758
5,1,36,0,3,9,1757
5,1,37,0,3,9,1756
5,1,38,0,3,9,1755
5,1,39,0,3,9,1754
7,1,50,0,1,11,1753
2,3,15,50,0,0,-1,11,1752
2,3,16,50,0,0,-1,11,1751
2,3,17,50,0,0,-1,11,1750
2,3,18,50,0,0,-1,11,1749
2,3,19,50,0,0,-1,11,1748
2,3,21,50,0,0,-1,11,1747
2,3,22,50,0,0,-1,11,1746
2,3,23,50,0,0,-1,11,1745
2,3,24,50,0,0,-1,11,1744
2,3,25,50,0,0,-1,11,1743
2,3,26,50,0,0,-1,11,1742
2,3,27,50,0,0,-1,11,1741
2,3,28,50,0,0,-1,11,1740
2,3,29,50,0,0,-1,11,1739
2,3,30,50,0,0,-1,11,1738
2,3,31,50,0,0,-1,11,1737
2,3,32,50,0,0,-1,11,1736
2,3,33,50,0,0,-1,11,1735
2,3,34,50,0,0,-1,11,1734
2,3,35,50,0,0,-1,11,1733
2,3,36,50,0,0,-1,11,1732
2,3,37,50,0,0,-1,11,1731
2,3,38,50,0,0,-1,11,1730
2,3,39,50,0,0,-1,11,1729
2,3,40,50,0,0,-1,11,1728
2,3,41,50,0,0,-1,11,1727
2,3,42,50,0,0,-1,11,1726
2,3,43,50,0,0,-1,11,1725
2,3,44,50,0,0,-1,11,1724
2,3,45,50,0,0,-1,11,1723
2,3,46,50,0,0,-1,11,1722
2,3,47,50,0,0,-1,11,1721
2,3,48,50,0,0,-1,11,1720
2,3,49,50,0,0,-1,11,1719
2,3,50,50,0,0,-1,11,1718
8,1,50,0,1,11,1717
3,2,50,2,0,4,11,1716
7,1,49,0,1,11,1715
2,3,15,49,0,0,-1,11,1714
2,3,16,49,0,0,-1,11,1713
2,3,17,49,0,0,-1,11,1712
2,3,18,49,0,0,-1,11,1711
2,3,20,49,0,0,-1,11,1710
2,3,21,49,0,0,-1,11,1709
2,3,22,49,0,0,-1,11,1708
2,3,23,49,0,0,-1,11,1707
2,3,24,49,0,0,-1,11,1706
2,3,25,49,0,0,-1,11,1705
2,3,26,49,0,0,-1,11,1704
2,3,27,49,0,0,-1,11,1703
2,3,28,49,0,0,-1,11,1702
2,3,29,49,0,0,-1,11,1701
2,3,30,49,0,0,-1,11,1700
2,3,31,49,0,0,-1,11,1699
2,3,32,49,0,0,-1,11,1698
2,3,33,49,0,0,-1,11,1697
2,3,34,49,0,0,-1,11,1696
2,3,35,49,0,0,-1,11,1695
2,3,36,49,0,0,-1,11,1694
2,3,37,49,0,0,-1,11,1693
2,3,38,49,0,0,-1,11,1692
2,3,39,49,0,0,-1,11,1691
2,3,40,49,0,0,-1,11,1690
2,3,41,49,0,0,-1,11,1689
2,3,42,49,0,0,-1,11,1688
2,3,43,49,0,0,-1,11,1687
2,3,44,49,0,0,-1,11,1686
2,3,45,49,0,0,-1,11,1685
2,3,46,49,0,0,-1,11,1684
2,3,47,49,0,0,-1,11,1683
2,3,48,49,0,0,-1,11,1682
2,3,49,49,0,0,-1,11,1681
2,3,50,49,0,0,-1,11,1680
8,1,49,0,1,11,1679
3,2,49,1,0,4,11,1678
7,1,48,0,1,11,1677
2,3,15,48,0,0,-1,11,1676
2,3,16,48,0,0,-1,11,1675
2,3,17,48,0,0,-1,11,1674
2,3,18,48,0,0,-1,11,1673
2,3,21,48,0,0,-1,11,1672
2,3,22,48,0,0,-1,11,1671
2,3,23,48,0,0,-1,11,1670
2,3,24,48,0,0,-1,11,1669
2,3,26,48,0,0,-1,11,1668
2,3,27,48,0,0,-1,11,1667
2,3,28,48,0,0,-1,11,1666
2,3,29,48,0,0,-1,11,1665
2,3,30,48,0,0,-1,11,1664
2,3,31,48,0,0,-1,11,1663
2,3,32,48,0,0,-1,11,1662
2,3,33,48,0,0,-1,11,1661
2,3,34,48,0,0,-1,11,1660
2,3,35,48,0,0,-1,11,1659
2,3,36,48,0,0,-1,11,1658
2,3,37,48,0,0,-1,11,1657
2,3,38,48,0,0,-1,11,1656
2,3,39,48,0,0,-1,11,1655
2,3,40,48,0,0,-1,11,1654
2,3,41,48,0,0,-1,11,1653
2,3,42,48,0,0,-1,11,1652
2,3,43,48,0,0,-1,11,1651
2,3,44,48,0,0,-1,11,1650
2,3,45,48,0,0,-1,11,1649
2,3,46,48,0,0,-1,11,1648
2,3,47,48,0,0,-1,11,1647
2,3,48,48,0,0,-1,11,1646
2,3,49,48,0,0,-1,11,1645
2,3,50,48,0,0,-1,11,1644
8,1,48,0,1,11,1643
3,2,48,0,0,4,11,1642
7,1,27,0,1,12,1641
2,3,16,27,0,0,-1,12,1640
2,3,17,27,0,0,-1,12,1639
2,3,21,27,0,0,-1,12,1638
2,3,22,27,0,0,-1,12,1637
2,3,23,27,0,0,-1,12,1636
2,3,26,27,0,0,-1,12,1635
2,3,27,27,0,0,-1,12,1634
2,3,28,27,0,0,-1,12,1633
2,3,29,27,0,0,-1,12,1632
2,3,30,27,0,0,-1,12,1631
2,3,31,27,0,0,-1,12,1630
2,3,32,27,0,0,-1,12,1629
2,3,33,27,0,0,-1,12,1628
2,3,34,27,0,0,-1,12,1627
2,3,35,27,0,0,-1,12,1626
2,3,36,27,0,0,-1,12,1625
2,3,37,27,0,0,-1,12,1624
2,3,38,27,0,0,-1,12,1623
2,3,39,27,0,0,-1,12,1622
2,3,40,27,0,0,-1,12,1621
2,3,41,27,0,0,-1,12,1620
2,3,42,27,0,0,-1,12,1619
2,3,43,27,0,0,-1,12,1618
2,3,44,27,0,0,-1,12,1617
2,3,45,27,0,0,-1,12,1616
2,3,46,27,0,0,-1,12,1615
2,3,47,27,0,0,-1,12,1614
2,3,48,27,0,0,-1,12,1613
2,3,49,27,0,0,-1,12,1612
2,3,50,27,0,0,-1,12,1611
8,1,27,0,1,12,1610
7,1,26,0,1,12,1609
2,3,16,26,0,0,-1,12,1608
2,3,17,26,0,0,-1,12,1607
2,3,18,26,0,0,-1,12,1606
2,3,19,26,0,0,-1,12,1605
2,3,20,26,0,0,-1,12,1604
2,3,21,26,0,0,-1,12,1603
2,3,22,26,0,0,-1,12,1602
2,3,23,26,0,0,-1,12,1601
2,3,24,26,0,0,-1,12,1600
2,3,25,26,0,0,-1,12,1599
2,3,26,26,0,0,-1,12,1598
2,3,27,26,0,0,-1,12,1597
2,3,28,26,0,0,-1,12,1596
2,3,29,26,0,0,-1,12,1595
2,3,30,26,0,0,-1,12,1594
2,3,31,26,0,0,-1,12,1593
2,3,32,26,0,0,-1,12,1592
2,3,33,26,0,0,-1,12,1591
2,3,34,26,0,0,-1,12,1590
2,3,35,26,0,0,-1,12,1589
2,3,36,26,0,0,-1,12,1588
2,3,37,26,0,0,-1,12,1587
2,3,38,26,0,0,-1,12,1586
2,3,39,26,0,0,-1,12,1585
2,3,40,26,0,0,-1,12,1584
2,3,41,26,0,0,-1,12,1583
2,3,42,26,0,0,-1,12,1582
2,3,43,26,0,0,-1,12,1581
2,3,44,26,0,0,-1,12,1580
2,3,45,26,0,0,-1,12,1579
2,3,46,26,0,0,-1,12,1578
2,3,47,26,0,0,-1,12,1577
2,3,48,26,0,0,-1,12,1576
2,3,49,26,0,0,-1,12,1575
2,3,50,26,0,0,-1,12,1574
8,1,26,0,1,12,1573
7,1,25,0,1,12,1572
2,3,18,25,0,0,-1,12,1571
2,3,19,25,0,0,-1,12,1570
2,3,20,25,0,0,-1,12,1569
2,3,21,25,0,0,-1,12,1568
2,3,24,25,0,0,-1,12,1567
2,3,25,25,0,0,-1,12,1566
2,3,26,25,0,0,-1,12,1565
2,3,31,25,0,0,-1,12,1564
2,3,32,25,0,0,-1,12,1563
2,3,33,25,0,0,-1,12,1562
2,3,36,25,0,0,-1,12,1561
2,3,40,25,0,0,-1,12,1560
2,3,41,25,0,0,-1,12,1559
2,3,42,25,0,0,-1,12,1558
2,3,43,25,0,0,-1,12,1557
2,3,44,25,0,0,-1,12,1556
2,3,45,25,0,0,-1,12,1555
2,3,47,25,0,0,-1,12,1554
2,3,49,25,0,0,-1,12,1553
2,3,50,25,0,0,-1,12,1552
8,1,25,0,1,12,1551
7,1,24,0,1,12,1550
2,3,16,24,0,0,-1,12,1549
2,3,17,24,0,0,-1,12,1548
2,3,18,24,0,0,-1,12,1547
2,3,19,24,0,0,-1,12,1546
2,3,20,24,0,0,-1,12,1545
2,3,21,24,0,0,-1,12,1544
2,3,22,24,0,0,-1,12,1543
2,3,23,24,0,0,-1,12,1542
2,3,24,24,0,0,-1,12,1541
2,3,25,24,0,0,-1,12,1540
2,3,26,24,0,0,-1,12,1539
2,3,28,24,0,0,-1,12,1538
2,3,29,24,0,0,-1,12,1537
2,3,30,24,0,0,-1,12,1536
2,3,31,24,0,0,-1,12,1535
2,3,32,24,0,0,-1,12,1534
2,3,33,24,0,0,-1,12,1533
2,3,34,24,0,0,-1,12,1532
2,3,35,24,0,0,-1,12,1531
2,3,36,24,0,0,-1,12,1530
2,3,37,24,0,0,-1,12,1529
2,3,38,24,0,0,-1,12,1528
2,3,39,24,0,0,-1,12,1527
2,3,40,24,0,0,-1,12,1526
2,3,41,24,0,0,-1,12,1525
2,3,42,24,0,0,-1,12,1524
2,3,43,24,0,0,-1,12,1523
2,3,44,24,0,0,-1,12,1522
2,3,45,24,0,0,-1,12,1521
2,3,46,24,0,0,-1,12,1520
2,3,47,24,0,0,-1,12,1519
2,3,48,24,0,0,-1,12,1518
2,3,49,24,0,0,-1,12,1517
2,3,50,24,0,0,-1,12,1516
8,1,24,0,1,12,1515
7,1,15,0,1,12,1514
2,3,14,15,0,0,-1,12,1513
2,3,15,15,0,0,-1,12,1512
2,3,24,15,0,0,-1,12,1511
2,3,26,15,0,0,-1,12,1510
2,3,27,15,0,0,-1,12,1509
2,3,28,15,0,0,-1,12,1508
2,3,29,15,0,0,-1,12,1507
2,3,30,15,0,0,-1,12,1506
2,3,31,15,0,0,-1,12,1505
2,3,32,15,0,0,-1,12,1504
2,3,33,15,0,0,-1,12,1503
2,3,34,15,0,0,-1,12,1502
2,3,35,15,0,0,-1,12,1501
2,3,40,15,0,0,-1,12,1500
2,3,41,15,0,0,-1,12,1499
2,3,42,15,0,0,-1,12,1498
2,3,43,15,0,0,-1,12,1497
8,1,15,0,1,12,1496
3,2,15,15,0,4,12,1495
7,1,14,0,1,12,1494
2,3,2,14,0,0,-1,12,1493
2,3,3,14,0,0,-1,12,1492
2,3,12,14,0,0,-1,12,1491
2,3,13,14,0,0,-1,12,1490
2,3,14,14,0,0,-1,12,1489
2,3,15,14,0,0,-1,12,1488
2,3,24,14,0,0,-1,12,1487
2,3,25,14,0,0,-1,12,1486
2,3,26,14,0,0,-1,12,1485
8,1,14,0,1,12,1484
3,2,14,14,0,4,12,1483
7,1,13,0,1,12,1482
2,3,3,13,0,0,-1,12,1481
2,3,12,13,0,0,-1,12,1480
2,3,13,13,0,0,-1,12,1479
2,3,14,13,0,0,-1,12,1478
8,1,13,0,1,12,1477
3,2,13,13,0,4,12,1476
7,1,12,0,1,12,1475
2,3,2,12,0,0,-1,12,1474
2,3,3,12,0,0,-1,12,1473
2,3,12,12,0,0,-1,12,1472
2,3,13,12,0,0,-1,12,1471
2,3,14,12,0,0,-1,12,1470
8,1,12,0,1,12,1469
3,2,12,12,0,4,12,1468
7,1,35,0,1,12,1467
2,3,16,35,0,0,-1,12,1466
2,3,17,35,0,0,-1,12,1465
2,3,18,35,0,0,-1,12,1464
2,3,24,35,0,0,-1,12,1463
2,3,26,35,0,0,-1,12,1462
2,3,27,35,0,0,-1,12,1461
2,3,28,35,0,0,-1,12,1460
2,3,29,35,0,0,-1,12,1459
2,3,30,35,0,0,-1,12,1458
2,3,31,35,0,0,-1,12,1457
2,3,32,35,0,0,-1,12,1456
2,3,33,35,0,0,-1,12,1455
2,3,34,35,0,0,-1,12,1454
2,3,35,35,0,0,-1,12,1453
2,3,36,35,0,0,-1,12,1452
2,3,37,35,0,0,-1,12,1451
2,3,38,35,0,0,-1,12,1450
2,3,39,35,0,0,-1,12,1449
2,3,40,35,0,0,-1,12,1448
2,3,41,35,0,0,-1,12,1447
2,3,42,35,0,0,-1,12,1446
2,3,43,35,0,0,-1,12,1445
2,3,44,35,0,0,-1,12,1444
2,3,45,35,0,0,-1,12,1443
2,3,46,35,0,0,-1,12,1442
2,3,47,35,0,0,-1,12,1441
2,3,48,35,0,0,-1,12,1440
2,3,49,35,0,0,-1,12,1439
2,3,50,35,0,0,-1,12,1438
3,2,35,3,0,4,12,1437
7,1,34,0,1,12,1436
2,3,16,34,0,0,-1,12,1435
2,3,17,34,0,0,-1,12,1434
2,3,18,34,0,0,-1,12,1433
2,3,24,34,0,0,-1,12,1432
2,3,26,34,0,0,-1,12,1431
2,3,27,34,0,0,-1,12,1430
2,3,28,34,0,0,-1,12,1429
2,3,29,34,0,0,-1,12,1428
2,3,30,34,0,0,-1,12,1427
2,3,31,34,0,0,-1,12,1426
2,3,32,34,0,0,-1,12,1425
2,3,33,34,0,0,-1,12,1424
2,3,34,34,0,0,-1,12,1423
2,3,35,34,0,0,-1,12,1422
2,3,36,34,0,0,-1,12,1421
2,3,37,34,0,0,-1,12,1420
2,3,38,34,0,0,-1,12,1419
2,3,39,34,0,0,-1,12,1418
2,3,40,34,0,0,-1,12,1417
2,3,41,34,0,0,-1,12,1416
2,3,42,34,0,0,-1,12,1415
2,3,43,34,0,0,-1,12,1414
2,3,44,34,0,0,-1,12,1413
2,3,45,34,0,0,-1,12,1412
2,3,46,34,0,0,-1,12,1411
2,3,47,34,0,0,-1,12,1410
2,3,48,34,0,0,-1,12,1409
2,3,49,34,0,0,-1,12,1408
2,3,50,34,0,0,-1,12,1407
3,2,34,2,0,4,12,1406
7,1,33,0,1,12,1405
2,3,16,33,0,0,-1,12,1404
2,3,17,33,0,0,-1,12,1403
2,3,18,33,0,0,-1,12,1402
2,3,24,33,0,0,-1,12,1401
2,3,25,33,0,0,-1,12,1400
2,3,26,33,0,0,-1,12,1399
2,3,27,33,0,0,-1,12,1398
2,3,28,33,0,0,-1,12,1397
2,3,29,33,0,0,-1,12,1396
2,3,30,33,0,0,-1,12,1395
2,3,31,33,0,0,-1,12,1394
2,3,32,33,0,0,-1,12,1393
2,3,33,33,0,0,-1,12,1392
2,3,34,33,0,0,-1,12,1391
2,3,35,33,0,0,-1,12,1390
2,3,36,33,0,0,-1,12,1389
2,3,37,33,0,0,-1,12,1388
2,3,38,33,0,0,-1,12,1387
2,3,39,33,0,0,-1,12,1386
2,3,40,33,0,0,-1,12,1385
2,3,41,33,0,0,-1,12,1384
2,3,42,33,0,0,-1,12,1383
2,3,43,33,0,0,-1,12,1382
2,3,44,33,0,0,-1,12,1381
2,3,45,33,0,0,-1,12,1380
2,3,46,33,0,0,-1,12,1379
2,3,47,33,0,0,-1,12,1378
2,3,48,33,0,0,-1,12,1377
2,3,49,33,0,0,-1,12,1376
2,3,50,33,0,0,-1,12,1375
3,2,33,1,0,4,12,1374
7,1,32,0,1,12,1373
2,3,16,32,0,0,-1,12,1372
2,3,17,32,0,0,-1,12,1371
2,3,18,32,0,0,-1,12,1370
2,3,24,32,0,0,-1,12,1369
2,3,25,32,0,0,-1,12,1368
2,3,26,32,0,0,-1,12,1367
2,3,27,32,0,0,-1,12,1366
2,3,28,32,0,0,-1,12,1365
2,3,29,32,0,0,-1,12,1364
2,3,30,32,0,0,-1,12,1363
2,3,31,32,0,0,-1,12,1362
2,3,32,32,0,0,-1,12,1361
2,3,33,32,0,0,-1,12,1360
2,3,34,32,0,0,-1,12,1359
2,3,35,32,0,0,-1,12,1358
2,3,36,32,0,0,-1,12,1357
2,3,37,32,0,0,-1,12,1356
2,3,38,32,0,0,-1,12,1355
2,3,39,32,0,0,-1,12,1354
2,3,40,32,0,0,-1,12,1353
2,3,41,32,0,0,-1,12,1352
2,3,42,32,0,0,-1,12,1351
2,3,43,32,0,0,-1,12,1350
2,3,44,32,0,0,-1,12,1349
2,3,45,32,0,0,-1,12,1348
2,3,46,32,0,0,-1,12,1347
2,3,47,32,0,0,-1,12,1346
2,3,48,32,0,0,-1,12,1345
2,3,49,32,0,0,-1,12,1344
2,3,50,32,0,0,-1,12,1343
3,2,32,0,0,4,12,1342
8,1,32,0,1,13,1341
8,1,33,0,1,13,1340
8,1,34,0,1,13,1339
8,1,35,0,1,13,1338
2,3,18,14,0,0,-1,13,1337
2,3,19,14,0,0,-1,13,1336
2,3,16,15,0,0,-1,13,1335
2,3,18,15,0,0,-1,13,1334
3,2,24,8,0,4,13,1333
3,2,25,9,0,4,13,1332
3,2,26,10,0,4,13,1331
3,2,27,11,0,4,13,1330
7,1,23,0,1,13,1329
2,3,16,23,0,0,-1,13,1328
2,3,17,23,0,0,-1,13,1327
2,3,18,23,0,0,-1,13,1326
2,3,21,23,0,0,-1,13,1325
2,3,22,23,0,0,-1,13,1324
2,3,23,23,0,0,-1,13,1323
2,3,24,23,0,0,-1,13,1322
2,3,26,23,0,0,-1,13,1321
2,3,27,23,0,0,-1,13,1320
2,3,28,23,0,0,-1,13,1319
2,3,29,23,0,0,-1,13,1318
2,3,30,23,0,0,-1,13,1317
2,3,31,23,0,0,-1,13,1316
2,3,32,23,0,0,-1,13,1315
2,3,33,23,0,0,-1,13,1314
2,3,34,23,0,0,-1,13,1313
2,3,35,23,0,0,-1,13,1312
2,3,36,23,0,0,-1,13,1311
2,3,37,23,0,0,-1,13,1310
2,3,38,23,0,0,-1,13,1309
2,3,39,23,0,0,-1,13,1308
2,3,40,23,0,0,-1,13,1307
2,3,41,23,0,0,-1,13,1306
2,3,42,23,0,0,-1,13,1305
2,3,43,23,0,0,-1,13,1304
2,3,44,23,0,0,-1,13,1303
2,3,45,23,0,0,-1,13,1302
2,3,46,23,0,0,-1,13,1301
2,3,47,23,0,0,-1,13,1300
2,3,48,23,0,0,-1,13,1299
2,3,49,23,0,0,-1,13,1298
2,3,50,23,0,0,-1,13,1297
8,1,23,0,1,13,1296
3,2,23,7,0,4,13,1295
7,1,22,0,1,13,1294
2,3,16,22,0,0,-1,13,1293
2,3,18,22,0,0,-1,13,1292
2,3,21,22,0,0,-1,13,1291
2,3,22,22,0,0,-1,13,1290
2,3,23,22,0,0,-1,13,1289
2,3,24,22,0,0,-1,13,1288
2,3,26,22,0,0,-1,13,1287
2,3,27,22,0,0,-1,13,1286
2,3,28,22,0,0,-1,13,1285
2,3,29,22,0,0,-1,13,1284
2,3,30,22,0,0,-1,13,1283
2,3,31,22,0,0,-1,13,1282
2,3,32,22,0,0,-1,13,1281
2,3,33,22,0,0,-1,13,1280
2,3,34,22,0,0,-1,13,1279
2,3,35,22,0,0,-1,13,1278
2,3,36,22,0,0,-1,13,1277
2,3,37,22,0,0,-1,13,1276
2,3,38,22,0,0,-1,13,1275
2,3,39,22,0,0,-1,13,1274
2,3,40,22,0,0,-1,13,1273
2,3,41,22,0,0,-1,13,1272
2,3,42,22,0,0,-1,13,1271
2,3,43,22,0,0,-1,13,1270
2,3,44,22,0,0,-1,13,1269
2,3,45,22,0,0,-1,13,1268
2,3,46,22,0,0,-1,13,1267
2,3,47,22,0,0,-1,13,1266
2,3,48,22,0,0,-1,13,1265
2,3,49,22,0,0,-1,13,1264
2,3,50,22,0,0,-1,13,1263
8,1,22,0,1,13,1262
3,2,22,6,0,4,13,1261
7,1,21,0,1,13,1260
2,3,18,21,0,0,-1,13,1259
2,3,19,21,0,0,-1,13,1258
2,3,20,21,0,0,-1,13,1257
2,3,21,21,0,0,-1,13,1256
2,3,22,21,0,0,-1,13,1255
2,3,23,21,0,0,-1,13,1254
2,3,24,21,0,0,-1,13,1253
2,3,25,21,0,0,-1,13,1252
2,3,26,21,0,0,-1,13,1251
2,3,27,21,0,0,-1,13,1250
2,3,28,21,0,0,-1,13,1249
2,3,29,21,0,0,-1,13,1248
2,3,30,21,0,0,-1,13,1247
2,3,31,21,0,0,-1,13,1246
2,3,32,21,0,0,-1,13,1245
2,3,33,21,0,0,-1,13,1244
2,3,34,21,0,0,-1,13,1243
2,3,35,21,0,0,-1,13,1242
2,3,36,21,0,0,-1,13,1241
2,3,37,21,0,0,-1,13,1240
2,3,38,21,0,0,-1,13,1239
2,3,39,21,0,0,-1,13,1238
2,3,40,21,0,0,-1,13,1237
2,3,41,21,0,0,-1,13,1236
2,3,42,21,0,0,-1,13,1235
2,3,43,21,0,0,-1,13,1234
2,3,44,21,0,0,-1,13,1233
2,3,45,21,0,0,-1,13,1232
2,3,46,21,0,0,-1,13,1231
2,3,47,21,0,0,-1,13,1230
2,3,48,21,0,0,-1,13,1229
2,3,49,21,0,0,-1,13,1228
2,3,50,21,0,0,-1,13,1227
8,1,21,0,1,13,1226
3,2,21,5,0,4,13,1225
7,1,20,0,1,13,1224
2,3,18,20,0,0,-1,13,1223
2,3,19,20,0,0,-1,13,1222
2,3,20,20,0,0,-1,13,1221
2,3,21,20,0,0,-1,13,1220
2,3,24,20,0,0,-1,13,1219
2,3,25,20,0,0,-1,13,1218
2,3,26,20,0,0,-1,13,1217
2,3,31,20,0,0,-1,13,1216
2,3,32,20,0,0,-1,13,1215
2,3,33,20,0,0,-1,13,1214
2,3,36,20,0,0,-1,13,1213
2,3,40,20,0,0,-1,13,1212
2,3,41,20,0,0,-1,13,1211
2,3,42,20,0,0,-1,13,1210
2,3,44,20,0,0,-1,13,1209
2,3,45,20,0,0,-1,13,1208
2,3,47,20,0,0,-1,13,1207
2,3,49,20,0,0,-1,13,1206
8,1,20,0,1,13,1205
3,2,20,4,0,4,13,1204
7,1,31,0,1,13,1203
2,3,15,31,0,0,-1,13,1202
2,3,16,31,0,0,-1,13,1201
2,3,17,31,0,0,-1,13,1200
2,3,18,31,0,0,-1,13,1199
2,3,19,31,0,0,-1,13,1198
2,3,20,31,0,0,-1,13,1197
2,3,21,31,0,0,-1,13,1196
2,3,22,31,0,0,-1,13,1195
2,3,23,31,0,0,-1,13,1194
2,3,24,31,0,0,-1,13,1193
2,3,25,31,0,0,-1,13,1192
2,3,26,31,0,0,-1,13,1191
2,3,27,31,0,0,-1,13,1190
2,3,28,31,0,0,-1,13,1189
2,3,29,31,0,0,-1,13,1188
2,3,30,31,0,0,-1,13,1187
2,3,31,31,0,0,-1,13,1186
2,3,32,31,0,0,-1,13,1185
2,3,33,31,0,0,-1,13,1184
2,3,34,31,0,0,-1,13,1183
2,3,35,31,0,0,-1,13,1182
2,3,36,31,0,0,-1,13,1181
2,3,37,31,0,0,-1,13,1180
2,3,38,31,0,0,-1,13,1179
2,3,39,31,0,0,-1,13,1178
2,3,40,31,0,0,-1,13,1177
2,3,41,31,0,0,-1,13,1176
2,3,42,31,0,0,-1,13,1175
2,3,43,31,0,0,-1,13,1174
2,3,44,31,0,0,-1,13,1173
2,3,45,31,0,0,-1,13,1172
2,3,46,31,0,0,-1,13,1171
2,3,47,31,0,0,-1,13,1170
8,1,31,0,1,13,1169
3,2,31,15,0,4,13,1168
7,1,30,0,1,13,1167
2,3,15,30,0,0,-1,13,1166
2,3,16,30,0,0,-1,13,1165
2,3,17,30,0,0,-1,13,1164
2,3,18,30,0,0,-1,13,1163
2,3,21,30,0,0,-1,13,1162
2,3,22,30,0,0,-1,13,1161
2,3,23,30,0,0,-1,13,1160
2,3,24,30,0,0,-1,13,1159
2,3,26,30,0,0,-1,13,1158
2,3,27,30,0,0,-1,13,1157
2,3,28,30,0,0,-1,13,1156
2,3,29,30,0,0,-1,13,1155
2,3,30,30,0,0,-1,13,1154
2,3,31,30,0,0,-1,13,1153
2,3,32,30,0,0,-1,13,1152
2,3,33,30,0,0,-1,13,1151
2,3,34,30,0,0,-1,13,1150
2,3,35,30,0,0,-1,13,1149
2,3,36,30,0,0,-1,13,1148
2,3,37,30,0,0,-1,13,1147
2,3,38,30,0,0,-1,13,1146
2,3,39,30,0,0,-1,13,1145
2,3,40,30,0,0,-1,13,1144
2,3,41,30,0,0,-1,13,1143
2,3,42,30,0,0,-1,13,1142
2,3,43,30,0,0,-1,13,1141
2,3,44,30,0,0,-1,13,1140
2,3,45,30,0,0,-1,13,1139
2,3,46,30,0,0,-1,13,1138
2,3,47,30,0,0,-1,13,1137
8,1,30,0,1,13,1136
3,2,30,14,0,4,13,1135
7,1,29,0,1,13,1134
2,3,15,29,0,0,-1,13,1133
2,3,16,29,0,0,-1,13,1132
2,3,17,29,0,0,-1,13,1131
2,3,18,29,0,0,-1,13,1130
2,3,21,29,0,0,-1,13,1129
2,3,22,29,0,0,-1,13,1128
2,3,23,29,0,0,-1,13,1127
2,3,24,29,0,0,-1,13,1126
2,3,26,29,0,0,-1,13,1125
2,3,27,29,0,0,-1,13,1124
2,3,28,29,0,0,-1,13,1123
2,3,29,29,0,0,-1,13,1122
2,3,30,29,0,0,-1,13,1121
2,3,31,29,0,0,-1,13,1120
2,3,32,29,0,0,-1,13,1119
2,3,33,29,0,0,-1,13,1118
2,3,34,29,0,0,-1,13,1117
2,3,35,29,0,0,-1,13,1116
2,3,36,29,0,0,-1,13,1115
2,3,37,29,0,0,-1,13,1114
2,3,38,29,0,0,-1,13,1113
2,3,39,29,0,0,-1,13,1112
2,3,40,29,0,0,-1,13,1111
2,3,41,29,0,0,-1,13,1110
2,3,42,29,0,0,-1,13,1109
2,3,43,29,0,0,-1,13,1108
2,3,44,29,0,0,-1,13,1107
2,3,45,29,0,0,-1,13,1106
2,3,46,29,0,0,-1,13,1105
2,3,47,29,0,0,-1,13,1104
8,1,29,0,1,13,1103
3,2,29,13,0,4,13,1102
7,1,28,0,1,13,1101
2,3,15,28,0,0,-1,13,1100
2,3,16,28,0,0,-1,13,1099
2,3,17,28,0,0,-1,13,1098
2,3,18,28,0,0,-1,13,1097
2,3,21,28,0,0,-1,13,1096
2,3,22,28,0,0,-1,13,1095
2,3,23,28,0,0,-1,13,1094
2,3,24,28,0,0,-1,13,1093
2,3,26,28,0,0,-1,13,1092
2,3,27,28,0,0,-1,13,1091
2,3,28,28,0,0,-1,13,1090
2,3,29,28,0,0,-1,13,1089
2,3,30,28,0,0,-1,13,1088
2,3,31,28,0,0,-1,13,1087
2,3,32,28,0,0,-1,13,1086
2,3,33,28,0,0,-1,13,1085
2,3,34,28,0,0,-1,13,1084
2,3,35,28,0,0,-1,13,1083
2,3,36,28,0,0,-1,13,1082
2,3,37,28,0,0,-1,13,1081
2,3,38,28,0,0,-1,13,1080
2,3,39,28,0,0,-1,13,1079
2,3,40,28,0,0,-1,13,1078
2,3,41,28,0,0,-1,13,1077
2,3,42,28,0,0,-1,13,1076
2,3,43,28,0,0,-1,13,1075
2,3,44,28,0,0,-1,13,1074
2,3,45,28,0,0,-1,13,1073
2,3,46,28,0,0,-1,13,1072
2,3,47,28,0,0,-1,13,1071
8,1,28,0,1,13,1070
3,2,28,12,0,4,13,1069
2,3,0,20,0,0,-1,14,1068
2,3,1,20,0,0,-1,14,1067
2,3,2,20,0,0,-1,14,1066
2,3,3,20,0,0,-1,14,1065
2,3,1,21,0,0,-1,14,1064
2,3,2,21,0,0,-1,14,1063
2,3,3,21,0,0,-1,14,1062
2,3,20,32,0,0,-1,14,1061
2,3,21,32,0,0,-1,14,1060
2,3,22,32,0,0,-1,14,1059
2,3,23,32,0,0,-1,14,1058
2,3,20,33,0,0,-1,14,1057
2,3,21,33,0,0,-1,14,1056
2,3,22,33,0,0,-1,14,1055
2,3,23,33,0,0,-1,14,1054
2,3,21,34,0,0,-1,14,1053
2,3,22,34,0,0,-1,14,1052
2,3,23,34,0,0,-1,14,1051
2,3,21,35,0,0,-1,14,1050
2,3,22,35,0,0,-1,14,1049
2,3,23,35,0,0,-1,14,1048
2,3,8,12,0,0,-1,14,1047
2,3,9,12,0,0,-1,14,1046
2,3,10,12,0,0,-1,14,1045
2,3,11,12,0,0,-1,14,1044
2,3,8,13,0,0,-1,14,1043
2,3,9,13,0,0,-1,14,1042
2,3,10,13,0,0,-1,14,1041
2,3,11,13,0,0,-1,14,1040
2,3,8,14,0,0,-1,14,1039
3,2,8,8,0,5,14,1038
2,3,9,14,0,0,-1,14,1037
3,2,9,9,0,5,14,1036
2,3,10,14,0,0,-1,14,1035
3,2,10,10,0,5,14,1034
2,3,11,14,0,0,-1,14,1033
3,2,11,11,0,5,14,1032
2,3,20,14,0,0,-1,14,1031
2,3,21,14,0,0,-1,14,1030
2,3,23,14,0,0,-1,14,1029
2,3,21,15,0,0,-1,14,1028
2,3,22,15,0,0,-1,14,1027
2,3,23,15,0,0,-1,14,1026
2,3,0,24,0,0,-1,14,1025
2,3,1,24,0,0,-1,14,1024
2,3,2,24,0,0,-1,14,1023
2,3,3,24,0,0,-1,14,1022
2,3,0,25,0,0,-1,14,1021
2,3,1,25,0,0,-1,14,1020
2,3,2,25,0,0,-1,14,1019
2,3,3,25,0,0,-1,14,1018
2,3,0,26,0,0,-1,14,1017
2,3,1,26,0,0,-1,14,1016
2,3,2,26,0,0,-1,14,1015
2,3,3,26,0,0,-1,14,1014
7,1,19,0,1,14,1013
2,3,0,19,0,0,-1,14,1012
2,3,1,19,0,0,-1,14,1011
2,3,2,19,0,0,-1,14,1010
2,3,3,19,0,0,-1,14,1009
2,3,18,19,0,0,-1,14,1008
2,3,19,19,0,0,-1,14,1007
2,3,20,19,0,0,-1,14,1006
2,3,21,19,0,0,-1,14,1005
2,3,24,19,0,0,-1,14,1004
2,3,25,19,0,0,-1,14,1003
2,3,26,19,0,0,-1,14,1002
2,3,31,19,0,0,-1,14,1001
2,3,41,19,0,0,-1,14,1000
2,3,42,19,0,0,-1,14,999
2,3,43,19,0,0,-1,14,998
2,3,44,19,0,0,-1,14,997
2,3,45,19,0,0,-1,14,996
2,3,46,19,0,0,-1,14,995
2,3,47,19,0,0,-1,14,994
2,3,50,19,0,0,-1,14,993
8,1,19,0,1,14,992
3,2,19,3,0,4,14,991
7,1,18,0,1,14,990
2,3,0,18,0,0,-1,14,989
3,2,0,0,0,5,14,988
2,3,1,18,0,0,-1,14,987
3,2,1,1,0,5,14,986
2,3,2,18,0,0,-1,14,985
3,2,2,2,0,5,14,984
2,3,3,18,0,0,-1,14,983
3,2,3,3,0,5,14,982
2,3,16,18,0,0,-1,14,981
2,3,17,18,0,0,-1,14,980
2,3,18,18,0,0,-1,14,979
2,3,19,18,0,0,-1,14,978
2,3,20,18,0,0,-1,14,977
2,3,21,18,0,0,-1,14,976
2,3,22,18,0,0,-1,14,975
2,3,23,18,0,0,-1,14,974
2,3,24,18,0,0,-1,14,973
2,3,25,18,0,0,-1,14,972
2,3,26,18,0,0,-1,14,971
2,3,28,18,0,0,-1,14,970
2,3,29,18,0,0,-1,14,969
2,3,30,18,0,0,-1,14,968
2,3,31,18,0,0,-1,14,967
2,3,32,18,0,0,-1,14,966
2,3,33,18,0,0,-1,14,965
2,3,34,18,0,0,-1,14,964
2,3,35,18,0,0,-1,14,963
2,3,40,18,0,0,-1,14,962
2,3,41,18,0,0,-1,14,961
2,3,42,18,0,0,-1,14,960
2,3,43,18,0,0,-1,14,959
2,3,44,18,0,0,-1,14,958
2,3,45,18,0,0,-1,14,957
2,3,46,18,0,0,-1,14,956
2,3,47,18,0,0,-1,14,955
2,3,48,18,0,0,-1,14,954
2,3,49,18,0,0,-1,14,953
2,3,50,18,0,0,-1,14,952
8,1,18,0,1,14,951
3,2,18,2,0,4,14,950
7,1,17,0,1,14,949
2,3,16,17,0,0,-1,14,948
2,3,17,17,0,0,-1,14,947
2,3,18,17,0,0,-1,14,946
2,3,23,17,0,0,-1,14,945
2,3,24,17,0,0,-1,14,944
2,3,26,17,0,0,-1,14,943
2,3,27,17,0,0,-1,14,942
2,3,28,17,0,0,-1,14,941
2,3,29,17,0,0,-1,14,940
2,3,30,17,0,0,-1,14,939
2,3,31,17,0,0,-1,14,938
2,3,32,17,0,0,-1,14,937
2,3,33,17,0,0,-1,14,936
2,3,34,17,0,0,-1,14,935
2,3,35,17,0,0,-1,14,934
2,3,40,17,0,0,-1,14,933
2,3,41,17,0,0,-1,14,932
2,3,42,17,0,0,-1,14,931
2,3,43,17,0,0,-1,14,930
2,3,44,17,0,0,-1,14,929
2,3,45,17,0,0,-1,14,928
2,3,46,17,0,0,-1,14,927
2,3,47,17,0,0,-1,14,926
2,3,48,17,0,0,-1,14,925
2,3,49,17,0,0,-1,14,924
2,3,50,17,0,0,-1,14,923
8,1,17,0,1,14,922
3,2,17,1,0,4,14,921
7,1,16,0,1,14,920
2,3,16,16,0,0,-1,14,919
2,3,17,16,0,0,-1,14,918
2,3,18,16,0,0,-1,14,917
2,3,22,16,0,0,-1,14,916
2,3,23,16,0,0,-1,14,915
2,3,24,16,0,0,-1,14,914
2,3,26,16,0,0,-1,14,913
2,3,27,16,0,0,-1,14,912
2,3,28,16,0,0,-1,14,911
2,3,29,16,0,0,-1,14,910
2,3,30,16,0,0,-1,14,909
2,3,31,16,0,0,-1,14,908
2,3,32,16,0,0,-1,14,907
2,3,33,16,0,0,-1,14,906
2,3,34,16,0,0,-1,14,905
2,3,35,16,0,0,-1,14,904
2,3,40,16,0,0,-1,14,903
2,3,41,16,0,0,-1,14,902
2,3,42,16,0,0,-1,14,901
2,3,43,16,0,0,-1,14,900
2,3,44,16,0,0,-1,14,899
2,3,45,16,0,0,-1,14,898
2,3,46,16,0,0,-1,14,897
2,3,47,16,0,0,-1,14,896
2,3,48,16,0,0,-1,14,895
2,3,49,16,0,0,-1,14,894
2,3,50,16,0,0,-1,14,893
8,1,16,0,1,14,892
3,2,16,0,0,4,14,891
2,3,16,47,0,0,-1,14,890
2,3,17,47,0,0,-1,14,889
2,3,18,47,0,0,-1,14,888
2,3,19,47,0,0,-1,14,887
2,3,20,47,0,0,-1,14,886
2,3,21,47,0,0,-1,14,885
2,3,22,47,0,0,-1,14,884
2,3,23,47,0,0,-1,14,883
2,3,24,47,0,0,-1,14,882
2,3,25,47,0,0,-1,14,881
2,3,26,47,0,0,-1,14,880
2,3,27,47,0,0,-1,14,879
2,3,28,47,0,0,-1,14,878
2,3,29,47,0,0,-1,14,877
2,3,30,47,0,0,-1,14,876
2,3,31,47,0,0,-1,14,875
2,3,32,47,0,0,-1,14,874
2,3,33,47,0,0,-1,14,873
2,3,34,47,0,0,-1,14,872
2,3,35,47,0,0,-1,14,871
2,3,40,47,0,0,-1,14,870
2,3,41,47,0,0,-1,14,869
2,3,42,47,0,0,-1,14,868
2,3,43,47,0,0,-1,14,867
8,1,47,0,1,14,866
3,2,47,15,0,4,14,865
2,3,16,46,0,0,-1,14,864
2,3,17,46,0,0,-1,14,863
2,3,18,46,0,0,-1,14,862
2,3,19,46,0,0,-1,14,861
2,3,21,46,0,0,-1,14,860
2,3,22,46,0,0,-1,14,859
2,3,23,46,0,0,-1,14,858
2,3,24,46,0,0,-1,14,857
2,3,26,46,0,0,-1,14,856
2,3,27,46,0,0,-1,14,855
2,3,28,46,0,0,-1,14,854
2,3,29,46,0,0,-1,14,853
2,3,30,46,0,0,-1,14,852
2,3,31,46,0,0,-1,14,851
2,3,32,46,0,0,-1,14,850
2,3,33,46,0,0,-1,14,849
2,3,34,46,0,0,-1,14,848
2,3,35,46,0,0,-1,14,847
2,3,40,46,0,0,-1,14,846
2,3,41,46,0,0,-1,14,845
2,3,42,46,0,0,-1,14,844
2,3,43,46,0,0,-1,14,843
8,1,46,0,1,14,842
3,2,46,14,0,4,14,841
2,3,16,45,0,0,-1,14,840
2,3,17,45,0,0,-1,14,839
2,3,18,45,0,0,-1,14,838
2,3,19,45,0,0,-1,14,837
2,3,20,45,0,0,-1,14,836
2,3,21,45,0,0,-1,14,835
2,3,22,45,0,0,-1,14,834
2,3,23,45,0,0,-1,14,833
2,3,24,45,0,0,-1,14,832
2,3,25,45,0,0,-1,14,831
2,3,26,45,0,0,-1,14,830
2,3,27,45,0,0,-1,14,829
2,3,28,45,0,0,-1,14,828
2,3,29,45,0,0,-1,14,827
2,3,30,45,0,0,-1,14,826
2,3,31,45,0,0,-1,14,825
2,3,32,45,0,0,-1,14,824
2,3,33,45,0,0,-1,14,823
2,3,34,45,0,0,-1,14,822
2,3,35,45,0,0,-1,14,821
2,3,40,45,0,0,-1,14,820
2,3,41,45,0,0,-1,14,819
2,3,42,45,0,0,-1,14,818
2,3,43,45,0,0,-1,14,817
8,1,45,0,1,14,816
3,2,45,13,0,4,14,815
2,3,16,44,0,0,-1,14,814
2,3,17,44,0,0,-1,14,813
2,3,18,44,0,0,-1,14,812
2,3,19,44,0,0,-1,14,811
2,3,20,44,0,0,-1,14,810
2,3,21,44,0,0,-1,14,809
2,3,22,44,0,0,-1,14,808
2,3,23,44,0,0,-1,14,807
2,3,24,44,0,0,-1,14,806
2,3,25,44,0,0,-1,14,805
2,3,26,44,0,0,-1,14,804
2,3,27,44,0,0,-1,14,803
2,3,28,44,0,0,-1,14,802
2,3,29,44,0,0,-1,14,801
2,3,30,44,0,0,-1,14,800
2,3,31,44,0,0,-1,14,799
2,3,32,44,0,0,-1,14,798
2,3,33,44,0,0,-1,14,797
2,3,34,44,0,0,-1,14,796
2,3,35,44,0,0,-1,14,795
2,3,40,44,0,0,-1,14,794
2,3,41,44,0,0,-1,14,793
2,3,42,44,0,0,-1,14,792
2,3,43,44,0,0,-1,14,791
8,1,44,0,1,14,790
3,2,44,12,0,4,14,789
7,1,39,0,1,15,788
2,3,16,39,0,0,-1,15,787
2,3,17,39,0,0,-1,15,786
2,3,18,39,0,0,-1,15,785
2,3,19,39,0,0,-1,15,784
2,3,21,39,0,0,-1,15,783
2,3,22,39,0,0,-1,15,782
2,3,23,39,0,0,-1,15,781
2,3,24,39,0,0,-1,15,780
2,3,26,39,0,0,-1,15,779
2,3,27,39,0,0,-1,15,778
2,3,28,39,0,0,-1,15,777
2,3,29,39,0,0,-1,15,776
2,3,30,39,0,0,-1,15,775
2,3,31,39,0,0,-1,15,774
2,3,32,39,0,0,-1,15,773
2,3,33,39,0,0,-1,15,772
2,3,34,39,0,0,-1,15,771
2,3,35,39,0,0,-1,15,770
2,3,36,39,0,0,-1,15,769
2,3,37,39,0,0,-1,15,768
2,3,38,39,0,0,-1,15,767
2,3,39,39,0,0,-1,15,766
2,3,40,39,0,0,-1,15,765
2,3,41,39,0,0,-1,15,764
2,3,42,39,0,0,-1,15,763
2,3,43,39,0,0,-1,15,762
2,3,48,39,0,0,-1,15,761
2,3,49,39,0,0,-1,15,760
2,3,50,39,0,0,-1,15,759
8,1,39,0,1,15,758
3,2,39,7,0,4,15,757
7,1,38,0,1,15,756
2,3,16,38,0,0,-1,15,755
2,3,17,38,0,0,-1,15,754
2,3,18,38,0,0,-1,15,753
2,3,19,38,0,0,-1,15,752
2,3,21,38,0,0,-1,15,751
2,3,22,38,0,0,-1,15,750
2,3,23,38,0,0,-1,15,749
2,3,24,38,0,0,-1,15,748
2,3,26,38,0,0,-1,15,747
2,3,27,38,0,0,-1,15,746
2,3,28,38,0,0,-1,15,745
2,3,29,38,0,0,-1,15,744
2,3,30,38,0,0,-1,15,743
2,3,31,38,0,0,-1,15,742
2,3,32,38,0,0,-1,15,741
2,3,33,38,0,0,-1,15,740
2,3,34,38,0,0,-1,15,739
2,3,35,38,0,0,-1,15,738
2,3,36,38,0,0,-1,15,737
2,3,37,38,0,0,-1,15,736
2,3,38,38,0,0,-1,15,735
2,3,39,38,0,0,-1,15,734
2,3,40,38,0,0,-1,15,733
2,3,41,38,0,0,-1,15,732
2,3,42,38,0,0,-1,15,731
2,3,43,38,0,0,-1,15,730
2,3,48,38,0,0,-1,15,729
2,3,49,38,0,0,-1,15,728
2,3,50,38,0,0,-1,15,727
8,1,38,0,1,15,726
3,2,38,6,0,4,15,725
7,1,37,0,1,15,724
2,3,16,37,0,0,-1,15,723
2,3,17,37,0,0,-1,15,722
2,3,18,37,0,0,-1,15,721
2,3,21,37,0,0,-1,15,720
2,3,22,37,0,0,-1,15,719
2,3,23,37,0,0,-1,15,718
2,3,24,37,0,0,-1,15,717
2,3,26,37,0,0,-1,15,716
2,3,27,37,0,0,-1,15,715
2,3,28,37,0,0,-1,15,714
2,3,29,37,0,0,-1,15,713
2,3,30,37,0,0,-1,15,712
2,3,31,37,0,0,-1,15,711
2,3,32,37,0,0,-1,15,710
2,3,33,37,0,0,-1,15,709
2,3,34,37,0,0,-1,15,708
2,3,35,37,0,0,-1,15,707
2,3,36,37,0,0,-1,15,706
2,3,37,37,0,0,-1,15,705
2,3,38,37,0,0,-1,15,704
2,3,39,37,0,0,-1,15,703
2,3,40,37,0,0,-1,15,702
2,3,41,37,0,0,-1,15,701
2,3,42,37,0,0,-1,15,700
2,3,43,37,0,0,-1,15,699
2,3,48,37,0,0,-1,15,698
2,3,49,37,0,0,-1,15,697
2,3,50,37,0,0,-1,15,696
8,1,37,0,1,15,695
3,2,37,5,0,4,15,694
7,1,36,0,1,15,693
2,3,16,36,0,0,-1,15,692
2,3,17,36,0,0,-1,15,691
2,3,18,36,0,0,-1,15,690
2,3,20,36,0,0,-1,15,689
2,3,21,36,0,0,-1,15,688
2,3,22,36,0,0,-1,15,687
2,3,23,36,0,0,-1,15,686
2,3,24,36,0,0,-1,15,685
2,3,25,36,0,0,-1,15,684
2,3,26,36,0,0,-1,15,683
2,3,27,36,0,0,-1,15,682
2,3,28,36,0,0,-1,15,681
2,3,29,36,0,0,-1,15,680
2,3,30,36,0,0,-1,15,679
2,3,31,36,0,0,-1,15,678
2,3,32,36,0,0,-1,15,677
2,3,33,36,0,0,-1,15,676
2,3,34,36,0,0,-1,15,675
2,3,35,36,0,0,-1,15,674
2,3,36,36,0,0,-1,15,673
2,3,37,36,0,0,-1,15,672
2,3,38,36,0,0,-1,15,671
2,3,39,36,0,0,-1,15,670
2,3,40,36,0,0,-1,15,669
2,3,41,36,0,0,-1,15,668
2,3,42,36,0,0,-1,15,667
2,3,43,36,0,0,-1,15,666
2,3,48,36,0,0,-1,15,665
2,3,49,36,0,0,-1,15,664
2,3,50,36,0,0,-1,15,663
8,1,36,0,1,15,662
3,2,36,4,0,4,15,661
7,1,43,0,1,15,660
2,3,16,43,0,0,-1,15,659
2,3,17,43,0,0,-1,15,658
2,3,18,43,0,0,-1,15,657
2,3,19,43,0,0,-1,15,656
2,3,21,43,0,0,-1,15,655
2,3,22,43,0,0,-1,15,654
2,3,23,43,0,0,-1,15,653
2,3,24,43,0,0,-1,15,652
2,3,25,43,0,0,-1,15,651
2,3,26,43,0,0,-1,15,650
2,3,27,43,0,0,-1,15,649
2,3,28,43,0,0,-1,15,648
2,3,29,43,0,0,-1,15,647
2,3,30,43,0,0,-1,15,646
2,3,31,43,0,0,-1,15,645
2,3,32,43,0,0,-1,15,644
2,3,33,43,0,0,-1,15,643
2,3,34,43,0,0,-1,15,642
2,3,35,43,0,0,-1,15,641
2,3,36,43,0,0,-1,15,640
2,3,37,43,0,0,-1,15,639
2,3,38,43,0,0,-1,15,638
2,3,39,43,0,0,-1,15,637
2,3,40,43,0,0,-1,15,636
2,3,41,43,0,0,-1,15,635
2,3,42,43,0,0,-1,15,634
2,3,43,43,0,0,-1,15,633
2,3,44,43,0,0,-1,15,632
2,3,45,43,0,0,-1,15,631
2,3,46,43,0,0,-1,15,630
2,3,47,43,0,0,-1,15,629
2,3,48,43,0,0,-1,15,628
2,3,49,43,0,0,-1,15,627
2,3,50,43,0,0,-1,15,626
8,1,43,0,1,15,625
7,1,42,0,1,15,624
2,3,16,42,0,0,-1,15,623
2,3,17,42,0,0,-1,15,622
2,3,18,42,0,0,-1,15,621
2,3,19,42,0,0,-1,15,620
2,3,20,42,0,0,-1,15,619
2,3,21,42,0,0,-1,15,618
2,3,22,42,0,0,-1,15,617
2,3,23,42,0,0,-1,15,616
2,3,24,42,0,0,-1,15,615
2,3,25,42,0,0,-1,15,614
2,3,26,42,0,0,-1,15,613
2,3,27,42,0,0,-1,15,612
2,3,28,42,0,0,-1,15,611
2,3,29,42,0,0,-1,15,610
2,3,30,42,0,0,-1,15,609
2,3,31,42,0,0,-1,15,608
2,3,32,42,0,0,-1,15,607
2,3,33,42,0,0,-1,15,606
2,3,34,42,0,0,-1,15,605
2,3,35,42,0,0,-1,15,604
2,3,36,42,0,0,-1,15,603
2,3,37,42,0,0,-1,15,602
2,3,38,42,0,0,-1,15,601
2,3,39,42,0,0,-1,15,600
2,3,40,42,0,0,-1,15,599
2,3,41,42,0,0,-1,15,598
2,3,42,42,0,0,-1,15,597
2,3,43,42,0,0,-1,15,596
2,3,44,42,0,0,-1,15,595
2,3,45,42,0,0,-1,15,594
2,3,46,42,0,0,-1,15,593
2,3,47,42,0,0,-1,15,592
2,3,48,42,0,0,-1,15,591
2,3,49,42,0,0,-1,15,590
2,3,50,42,0,0,-1,15,589
8,1,42,0,1,15,588
7,1,41,0,1,15,587
2,3,16,41,0,0,-1,15,586
2,3,17,41,0,0,-1,15,585
2,3,18,41,0,0,-1,15,584
2,3,19,41,0,0,-1,15,583
3,2,19,3,0,5,15,582
2,3,20,41,0,0,-1,15,581
2,3,21,41,0,0,-1,15,580
2,3,22,41,0,0,-1,15,579
2,3,23,41,0,0,-1,15,578
2,3,24,41,0,0,-1,15,577
2,3,25,41,0,0,-1,15,576
2,3,26,41,0,0,-1,15,575
2,3,27,41,0,0,-1,15,574
2,3,28,41,0,0,-1,15,573
2,3,29,41,0,0,-1,15,572
2,3,30,41,0,0,-1,15,571
2,3,31,41,0,0,-1,15,570
2,3,32,41,0,0,-1,15,569
2,3,33,41,0,0,-1,15,568
2,3,34,41,0,0,-1,15,567
2,3,35,41,0,0,-1,15,566
2,3,36,41,0,0,-1,15,565
2,3,37,41,0,0,-1,15,564
2,3,38,41,0,0,-1,15,563
2,3,39,41,0,0,-1,15,562
2,3,40,41,0,0,-1,15,561
2,3,41,41,0,0,-1,15,560
2,3,42,41,0,0,-1,15,559
2,3,43,41,0,0,-1,15,558
2,3,44,41,0,0,-1,15,557
2,3,45,41,0,0,-1,15,556
2,3,46,41,0,0,-1,15,555
2,3,47,41,0,0,-1,15,554
2,3,48,41,0,0,-1,15,553
2,3,49,41,0,0,-1,15,552
2,3,50,41,0,0,-1,15,551
8,1,41,0,1,15,550
7,1,40,0,1,15,549
2,3,16,40,0,0,-1,15,548
3,2,16,0,0,5,15,547
2,3,17,40,0,0,-1,15,546
3,2,17,1,0,5,15,545
2,3,18,40,0,0,-1,15,544
3,2,18,2,0,5,15,543
2,3,20,40,0,0,-1,15,542
3,2,20,4,0,5,15,541
2,3,21,40,0,0,-1,15,540
3,2,21,5,0,5,15,539
2,3,22,40,0,0,-1,15,538
3,2,22,6,0,5,15,537
2,3,23,40,0,0,-1,15,536
3,2,23,7,0,5,15,535
2,3,24,40,0,0,-1,15,534
3,2,24,8,0,5,15,533
2,3,25,40,0,0,-1,15,532
3,2,25,9,0,5,15,531
2,3,26,40,0,0,-1,15,530
3,2,26,10,0,5,15,529
2,3,27,40,0,0,-1,15,528
3,2,27,11,0,5,15,527
2,3,28,40,0,0,-1,15,526
3,2,28,12,0,5,15,525
2,3,29,40,0,0,-1,15,524
3,2,29,13,0,5,15,523
2,3,30,40,0,0,-1,15,522
3,2,30,14,0,5,15,521
2,3,31,40,0,0,-1,15,520
3,2,31,15,0,5,15,519
2,3,32,40,0,0,-1,15,518
3,2,32,0,0,5,15,517
2,3,33,40,0,0,-1,15,516
3,2,33,1,0,5,15,515
2,3,34,40,0,0,-1,15,514
3,2,34,2,0,5,15,513
2,3,35,40,0,0,-1,15,512
3,2,35,3,0,5,15,511
2,3,36,40,0,0,-1,15,510
2,3,37,40,0,0,-1,15,509
2,3,38,40,0,0,-1,15,508
2,3,39,40,0,0,-1,15,507
2,3,40,40,0,0,-1,15,506
3,2,40,8,0,5,15,505
2,3,41,40,0,0,-1,15,504
3,2,41,9,0,5,15,503
2,3,42,40,0,0,-1,15,502
3,2,42,10,0,5,15,501
2,3,43,40,0,0,-1,15,500
3,2,43,11,0,5,15,499
2,3,44,40,0,0,-1,15,498
2,3,45,40,0,0,-1,15,497
2,3,46,40,0,0,-1,15,496
2,3,47,40,0,0,-1,15,495
2,3,48,40,0,0,-1,15,494
2,3,49,40,0,0,-1,15,493
2,3,50,40,0,0,-1,15,492
8,1,40,0,1,15,491
2,3,15,40,0,0,-1,16,490
3,2,40,8,0,4,16,489
2,3,15,41,0,0,-1,16,488
3,2,41,9,0,4,16,487
2,3,15,42,0,0,-1,16,486
3,2,42,10,0,4,16,485
2,3,15,43,0,0,-1,16,484
3,2,43,11,0,4,16,483
4,1,0,1,XARBUF,-1,16,482
2,3,15,36,0,0,-1,16,481
2,3,44,36,0,0,-1,16,480
2,3,45,36,0,0,-1,16,479
2,3,46,36,0,0,-1,16,478
2,3,47,36,0,0,-1,16,477
2,3,15,37,0,0,-1,16,476
2,3,44,37,0,0,-1,16,475
2,3,45,37,0,0,-1,16,474
2,3,46,37,0,0,-1,16,473
2,3,47,37,0,0,-1,16,472
2,3,15,38,0,0,-1,16,471
2,3,44,38,0,0,-1,16,470
2,3,45,38,0,0,-1,16,469
2,3,46,38,0,0,-1,16,468
2,3,47,38,0,0,-1,16,467
2,3,15,39,0,0,-1,16,466
2,3,44,39,0,0,-1,16,465
2,3,45,39,0,0,-1,16,464
2,3,46,39,0,0,-1,16,463
2,3,47,39,0,0,-1,16,462
2,3,15,16,0,0,-1,16,461
2,3,36,16,0,0,-1,16,460
2,3,37,16,0,0,-1,16,459
2,3,38,16,0,0,-1,16,458
2,3,39,16,0,0,-1,16,457
2,3,36,17,0,0,-1,16,456
2,3,37,17,0,0,-1,16,455
2,3,38,17,0,0,-1,16,454
2,3,39,17,0,0,-1,16,453
2,3,4,18,0,0,-1,16,452
2,3,5,18,0,0,-1,16,451
2,3,14,18,0,0,-1,16,450
2,3,15,18,0,0,-1,16,449
2,3,36,18,0,0,-1,16,448
2,3,37,18,0,0,-1,16,447
2,3,38,18,0,0,-1,16,446
2,3,39,18,0,0,-1,16,445
2,3,4,19,0,0,-1,16,444
2,3,5,19,0,0,-1,16,443
2,3,14,19,0,0,-1,16,442
2,3,38,19,0,0,-1,16,441
2,3,39,19,0,0,-1,16,440
2,3,48,28,0,0,-1,16,439
2,3,49,28,0,0,-1,16,438
2,3,50,28,0,0,-1,16,437
2,3,48,29,0,0,-1,16,436
2,3,49,29,0,0,-1,16,435
2,3,50,29,0,0,-1,16,434
2,3,48,30,0,0,-1,16,433
2,3,49,30,0,0,-1,16,432
2,3,50,30,0,0,-1,16,431
2,3,48,31,0,0,-1,16,430
2,3,49,31,0,0,-1,16,429
2,3,50,31,0,0,-1,16,428
2,3,4,20,0,0,-1,16,427
2,3,5,20,0,0,-1,16,426
2,3,14,20,0,0,-1,16,425
2,3,4,21,0,0,-1,16,424
2,3,5,21,0,0,-1,16,423
2,3,14,21,0,0,-1,16,422
2,3,15,21,0,0,-1,16,421
2,3,15,22,0,0,-1,16,420
2,3,14,23,0,0,-1,16,419
2,3,15,23,0,0,-1,16,418
2,3,15,32,0,0,-1,16,417
2,3,15,33,0,0,-1,16,416
2,3,15,34,0,0,-1,16,415
2,3,15,35,0,0,-1,16,414
3,2,13,13,0,5,16,413
3,2,12,12,0,5,16,412
2,3,4,12,0,0,-1,16,411
2,3,5,12,0,0,-1,16,410
2,3,6,12,0,0,-1,16,409
2,3,7,12,0,0,-1,16,408
2,3,4,13,0,0,-1,16,407
2,3,5,13,0,0,-1,16,406
2,3,6,13,0,0,-1,16,405
2,3,7,13,0,0,-1,16,404
2,3,4,14,0,0,-1,16,403
2,3,5,14,0,0,-1,16,402
2,3,6,14,0,0,-1,16,401
3,2,6,6,0,5,16,400
2,3,7,14,0,0,-1,16,399
3,2,7,7,0,5,16,398
2,3,36,15,0,0,-1,16,397
2,3,37,15,0,0,-1,16,396
2,3,38,15,0,0,-1,16,395
2,3,39,15,0,0,-1,16,394
2,3,44,15,0,0,-1,16,393
2,3,45,15,0,0,-1,16,392
2,3,46,15,0,0,-1,16,391
2,3,47,15,0,0,-1,16,390
2,3,48,15,0,0,-1,16,389
2,3,49,15,0,0,-1,16,388
2,3,50,15,0,0,-1,16,387
2,3,4,24,0,0,-1,16,386
2,3,5,24,0,0,-1,16,385
2,3,14,24,0,0,-1,16,384
2,3,15,24,0,0,-1,16,383
2,3,4,25,0,0,-1,16,382
2,3,5,25,0,0,-1,16,381
2,3,14,25,0,0,-1,16,380
2,3,4,26,0,0,-1,16,379
3,2,4,4,0,5,16,378
2,3,5,26,0,0,-1,16,377
3,2,5,5,0,5,16,376
2,3,14,26,0,0,-1,16,375
3,2,14,14,0,5,16,374
2,3,15,26,0,0,-1,16,373
2,3,15,27,0,0,-1,16,372
2,3,15,44,0,0,-1,16,371
2,3,15,45,0,0,-1,16,370
2,3,15,46,0,0,-1,16,369
2,3,15,47,0,0,-1,16,368
3,2,15,15,0,5,16,367
2,3,36,47,0,0,-1,16,366
2,3,37,47,0,0,-1,16,365
2,3,38,47,0,0,-1,16,364
2,3,39,47,0,0,-1,16,363
2,3,44,47,0,0,-1,16,362
2,3,45,47,0,0,-1,16,361
2,3,46,47,0,0,-1,16,360
2,3,47,47,0,0,-1,16,359
2,3,48,47,0,0,-1,16,358
2,3,49,47,0,0,-1,16,357
2,3,50,47,0,0,-1,16,356
2,3,36,46,0,0,-1,16,355
2,3,37,46,0,0,-1,16,354
2,3,38,46,0,0,-1,16,353
2,3,39,46,0,0,-1,16,352
2,3,44,46,0,0,-1,16,351
2,3,45,46,0,0,-1,16,350
2,3,46,46,0,0,-1,16,349
2,3,47,46,0,0,-1,16,348
2,3,48,46,0,0,-1,16,347
2,3,49,46,0,0,-1,16,346
2,3,50,46,0,0,-1,16,345
2,3,36,45,0,0,-1,16,344
2,3,37,45,0,0,-1,16,343
2,3,38,45,0,0,-1,16,342
2,3,39,45,0,0,-1,16,341
2,3,44,45,0,0,-1,16,340
2,3,45,45,0,0,-1,16,339
2,3,46,45,0,0,-1,16,338
2,3,47,45,0,0,-1,16,337
2,3,48,45,0,0,-1,16,336
2,3,49,45,0,0,-1,16,335
2,3,50,45,0,0,-1,16,334
2,3,36,44,0,0,-1,16,333
3,2,36,4,0,5,16,332
2,3,37,44,0,0,-1,16,331
3,2,37,5,0,5,16,330
2,3,38,44,0,0,-1,16,329
3,2,38,6,0,5,16,328
2,3,39,44,0,0,-1,16,327
3,2,39,7,0,5,16,326
2,3,44,44,0,0,-1,16,325
3,2,44,12,0,5,16,324
2,3,45,44,0,0,-1,16,323
3,2,45,13,0,5,16,322
2,3,46,44,0,0,-1,16,321
3,2,46,14,0,5,16,320
2,3,47,44,0,0,-1,16,319
3,2,47,15,0,5,16,318
2,3,48,44,0,0,-1,16,317
3,2,48,0,0,5,16,316
2,3,49,44,0,0,-1,16,315
3,2,49,1,0,5,16,314
2,3,50,44,0,0,-1,16,313
3,2,50,2,0,5,16,312
4,1,0,1,RARBUF,-1,17,311
15,0,1,RAR,-1,17,310
16,0,1,RAR,-1,17,309
21,0,1,CONSTRUCTGA,-1,17,308
21,0,1,EIGEN,-1,17,307
5,1,0,0,6,17,306
5,1,1,0,6,17,305
5,1,2,0,6,17,304
5,1,3,0,6,17,303
5,1,4,0,6,17,302
5,1,5,0,6,17,301
5,1,6,0,6,17,300
5,1,7,0,6,17,299
5,1,16,0,6,17,298
5,1,17,0,6,17,297
5,1,18,0,6,17,296
5,1,19,0,6,17,295
5,1,20,0,6,17,294
5,1,21,0,6,17,293
5,1,22,0,6,17,292
5,1,23,0,6,17,291
5,1,24,0,6,17,290
5,1,25,0,6,17,289
5,1,26,0,6,17,288
5,1,27,0,6,17,287
5,1,48,0,6,17,286
5,1,49,0,6,17,285
5,1,50,0,6,17,284
5,1,16,0,11,17,283
5,1,17,0,11,17,282
5,1,18,0,11,17,281
5,1,19,0,11,17,280
5,1,20,0,11,17,279
5,1,21,0,11,17,278
5,1,22,0,11,17,277
5,1,23,0,11,17,276
5,1,28,0,6,18,275
5,1,29,0,6,18,274
5,1,30,0,6,18,273
5,1,31,0,6,18,272
5,1,40,0,6,18,271
5,1,41,0,6,18,270
5,1,42,0,6,18,269
5,1,43,0,6,18,268
5,1,44,0,6,18,267
5,1,45,0,6,18,266
5,1,46,0,6,18,265
5,1,47,0,6,18,264
5,1,4,0,8,18,263
5,1,5,0,8,18,262
5,1,6,0,8,18,261
5,1,7,0,8,18,260
5,1,12,0,8,18,259
5,1,13,0,8,18,258
5,1,14,0,8,18,257
5,1,15,0,8,18,256
5,1,48,0,8,18,255
5,1,49,0,8,18,254
5,1,50,0,8,18,253
5,1,28,0,10,18,252
6,1,28,0,3,18,251
5,1,29,0,10,18,250
6,1,29,0,3,18,249
5,1,30,0,10,18,248
6,1,30,0,3,18,247
5,1,31,0,10,18,246
6,1,31,0,3,18,245
5,1,36,0,10,18,244
5,1,37,0,10,18,243
5,1,38,0,10,18,242
5,1,39,0,10,18,241
5,1,32,0,6,19,240
5,1,33,0,6,19,239
5,1,34,0,6,19,238
5,1,35,0,6,19,237
5,1,36,0,6,19,236
5,1,37,0,6,19,235
5,1,38,0,6,19,234
5,1,39,0,6,19,233
5,1,36,0,8,19,232
5,1,37,0,8,19,231
5,1,38,0,8,19,230
5,1,39,0,8,19,229
5,1,44,0,8,19,228
5,1,45,0,8,19,227
5,1,46,0,8,19,226
5,1,47,0,8,19,225
5,1,32,0,10,19,224
6,1,32,0,3,19,223
5,1,33,0,10,19,222
6,1,33,0,3,19,221
5,1,34,0,10,19,220
6,1,34,0,3,19,219
5,1,35,0,10,19,218
6,1,35,0,3,19,217
5,1,0,0,8,20,216
5,1,1,0,8,20,215
5,1,2,0,8,20,214
5,1,3,0,8,20,213
5,1,20,0,8,20,212
6,1,20,0,4,20,211
5,1,21,0,8,20,210
6,1,21,0,4,20,209
5,1,22,0,8,20,208
6,1,22,0,4,20,207
5,1,23,0,8,20,206
6,1,23,0,4,20,205
5,1,28,0,8,20,204
5,1,29,0,8,20,203
5,1,30,0,8,20,202
5,1,31,0,8,20,201
5,1,32,0,8,20,200
5,1,33,0,8,20,199
5,1,34,0,8,20,198
5,1,35,0,8,20,197
5,1,8,0,10,20,196
5,1,9,0,10,20,195
5,1,10,0,10,20,194
5,1,11,0,10,20,193
5,1,24,0,10,20,192
6,1,24,0,3,20,191
5,1,25,0,10,20,190
6,1,25,0,3,20,189
5,1,26,0,10,20,188
6,1,26,0,3,20,187
5,1,27,0,10,20,186
6,1,27,0,3,20,185
5,1,12,0,11,20,184
5,1,13,0,11,20,183
5,1,14,0,11,20,182
5,1,15,0,11,20,181
5,1,28,0,11,20,180
6,1,28,0,4,20,179
5,1,29,0,11,20,178
6,1,29,0,4,20,177
5,1,30,0,11,20,176
6,1,30,0,4,20,175
5,1,31,0,11,20,174
6,1,31,0,4,20,173
5,1,32,0,11,20,172
6,1,32,0,4,20,171
5,1,33,0,11,20,170
6,1,33,0,4,20,169
5,1,34,0,11,20,168
6,1,34,0,4,20,167
5,1,35,0,11,20,166
6,1,35,0,4,20,165
5,1,48,0,11,20,164
6,1,48,0,4,20,163
5,1,49,0,11,20,162
6,1,49,0,4,20,161
5,1,50,0,11,20,160
6,1,50,0,4,20,159
5,1,8,0,6,21,158
6,1,8,0,3,21,157
5,1,9,0,6,21,156
6,1,9,0,3,21,155
5,1,10,0,6,21,154
6,1,10,0,3,21,153
5,1,11,0,6,21,152
6,1,11,0,3,21,151
5,1,44,0,10,21,150
5,1,45,0,10,21,149
5,1,46,0,10,21,148
5,1,47,0,10,21,147
5,1,48,0,10,21,146
5,1,49,0,10,21,145
5,1,50,0,10,21,144
5,1,0,0,11,21,143
6,1,0,0,4,21,142
5,1,1,0,11,21,141
6,1,1,0,4,21,140
5,1,2,0,11,21,139
6,1,2,0,4,21,138
5,1,3,0,11,21,137
6,1,3,0,4,21,136
5,1,4,0,11,21,135
6,1,4,0,4,21,134
5,1,5,0,11,21,133
6,1,5,0,4,21,132
5,1,6,0,11,21,131
6,1,6,0,4,21,130
5,1,7,0,11,21,129
6,1,7,0,4,21,128
5,1,8,0,11,21,127
5,1,9,0,11,21,126
5,1,10,0,11,21,125
5,1,11,0,11,21,124
5,1,24,0,11,21,123
5,1,25,0,11,21,122
5,1,26,0,11,21,121
5,1,27,0,11,21,120
5,1,36,0,11,21,119
6,1,36,0,4,21,118
5,1,37,0,11,21,117
6,1,37,0,4,21,116
5,1,38,0,11,21,115
6,1,38,0,4,21,114
5,1,39,0,11,21,113
6,1,39,0,4,21,112
5,1,40,0,11,21,111
5,1,41,0,11,21,110
5,1,42,0,11,21,109
5,1,43,0,11,21,108
6,1,50,0,3,22,107
6,1,49,0,3,22,106
6,1,48,0,3,22,105
6,1,47,0,3,22,104
6,1,46,0,3,22,103
6,1,45,0,3,22,102
6,1,44,0,3,22,101
6,1,15,0,4,22,100
6,1,14,0,4,22,99
6,1,13,0,4,22,98
6,1,12,0,4,22,97
6,1,39,0,3,22,96
6,1,38,0,3,22,95
6,1,37,0,3,22,94
6,1,36,0,3,22,93
5,1,12,0,6,22,92
5,1,13,0,6,22,91
5,1,14,0,6,22,90
5,1,15,0,6,22,89
5,1,40,0,8,22,88
6,1,40,0,4,22,87
5,1,41,0,8,22,86
6,1,41,0,4,22,85
5,1,42,0,8,22,84
6,1,42,0,4,22,83
5,1,43,0,8,22,82
6,1,43,0,4,22,81
5,1,4,0,10,22,80
6,1,4,0,3,22,79
5,1,5,0,10,22,78
6,1,5,0,3,22,77
5,1,6,0,10,22,76
6,1,6,0,3,22,75
5,1,7,0,10,22,74
6,1,7,0,3,22,73
5,1,12,0,10,22,72
6,1,12,0,3,22,71
5,1,13,0,10,22,70
6,1,13,0,3,22,69
5,1,14,0,10,22,68
6,1,14,0,3,22,67
5,1,15,0,10,22,66
6,1,15,0,3,22,65
5,1,16,0,10,22,64
5,1,17,0,10,22,63
5,1,18,0,10,22,62
5,1,19,0,10,22,61
5,1,40,0,10,22,60
6,1,40,0,3,22,59
5,1,41,0,10,22,58
6,1,41,0,3,22,57
5,1,42,0,10,22,56
6,1,42,0,3,22,55
5,1,43,0,10,22,54
6,1,43,0,3,22,53
6,1,19,0,3,23,52
6,1,18,0,3,23,51
6,1,17,0,3,23,50
6,1,16,0,3,23,49
5,1,8,0,8,23,48
6,1,8,0,4,23,47
5,1,9,0,8,23,46
6,1,9,0,4,23,45
5,1,10,0,8,23,44
6,1,10,0,4,23,43
5,1,11,0,8,23,42
6,1,11,0,4,23,41
5,1,16,0,8,23,40
6,1,16,0,4,23,39
5,1,17,0,8,23,38
6,1,17,0,4,23,37
5,1,18,0,8,23,36
6,1,18,0,4,23,35
5,1,19,0,8,23,34
6,1,19,0,4,23,33
5,1,24,0,8,23,32
6,1,24,0,4,23,31
5,1,25,0,8,23,30
6,1,25,0,4,23,29
5,1,26,0,8,23,28
6,1,26,0,4,23,27
5,1,27,0,8,23,26
6,1,27,0,4,23,25
5,1,0,0,10,23,24
6,1,0,0,3,23,23
5,1,1,0,10,23,22
6,1,1,0,3,23,21
5,1,2,0,10,23,20
6,1,2,0,3,23,19
5,1,3,0,10,23,18
6,1,3,0,3,23,17
5,1,20,0,10,23,16
6,1,20,0,3,23,15
5,1,21,0,10,23,14
6,1,21,0,3,23,13
5,1,22,0,10,23,12
6,1,22,0,3,23,11
5,1,23,0,10,23,10
6,1,23,0,3,23,9
5,1,44,0,11,23,8
6,1,44,0,4,23,7
5,1,45,0,11,23,6
6,1,45,0,4,23,5
5,1,46,0,11,23,4
6,1,46,0,4,23,3
5,1,47,0,11,23,2
6,1,47,0,4,23,1
