CrayPat/X:  Version 7.0.0 Revision 5c29ce2  12/11/17 15:26:24

Number of PEs (MPI ranks):    1
                           
Numbers of PEs per Node:      1
                           
Numbers of Threads per PE:    1
                           
Number of Cores per Socket:  16

Execution start time:  Wed Apr  3 14:44:00 2019

System name and speed:  nid00150  2.301 GHz (nominal)

Intel Haswell CPU  Family:  6  Model: 63  Stepping:  2


Current path to data file:
  /global/cscratch1/sd/afibuzza/deepsparse_autotune_haswell/lobpcg_executioner_v9_part_vtune.pat+21391-150t   (RTS)


Notes for table 1:

  Table option:
    -O profile
  Options implied by table option:
    -d ti%@0.95,ti,imb_ti,imb_ti%,tr -b gr,fu
  Other options:
    -T 

  Options for related tables:
    -O profile_pe.th           -O profile_th_pe       
    -O profile+src             -O profile_max         
    -O load_balance            -O callers             
    -O callers+src             -O calltree            
    -O calltree+src        

  The Total value for Time, Calls is the sum of the Group values.
  The Group value for Time, Calls is the sum of the Function values.
    (To specify different aggregations, see: pat_help report options s1)

  This table shows only lines with Time% > 0.

  Imbalance percentages are relative to a set of threads or PEs.
  Other percentages at each level are of the Total for the program.
    (For percentages relative to next level up, specify:
      -s percent=r[elative])

Table 1:  Profile by Function Group and Function

  Time% |      Time | Imb. |  Imb. |     Calls | Group
        |           | Time | Time% |           |  Function
       
 100.0% | 60.811123 |   -- |    -- | 518,704.0 | Total
|-----------------------------------------------------------------------------
|  89.2% | 54.245989 |   -- |    -- | 162,031.0 | USER
||----------------------------------------------------------------------------
||  59.1% | 35.955155 |   -- |    -- |       1.0 | main
||  22.2% | 13.517737 |   -- |    -- |       1.0 | void read_custom<>
||   6.9% |  4.196906 |   -- |    -- |       1.0 | void csc2blkcoord<>
||   0.4% |  0.236161 |   -- |    -- |       3.0 | buildTaskInfoStruct
||   0.2% |  0.107212 |   -- |    -- |       3.0 | readPartBoundary
||   0.1% |  0.076427 |   -- |    -- |      20.0 | inverse
||   0.1% |  0.061475 |   -- |    -- |  23,712.0 | _XTY_v1_exe
||   0.0% |  0.018582 |   -- |    -- |  29,851.0 | split
||   0.0% |  0.018345 |   -- |    -- |      21.0 | make_identity_mat
||   0.0% |  0.013361 |   -- |    -- |  40,436.0 | void spmm_blkcoord_finegrained_exe_fixed_buf<>
||   0.0% |  0.013331 |   -- |    -- |  26,923.0 | _XY_exe
||   0.0% |  0.010663 |   -- |    -- |     166.0 | mat_copy
||   0.0% |  0.004716 |   -- |    -- |   9,386.0 | mat_addition_task_exe
||   0.0% |  0.004266 |   -- |    -- |   6,916.0 | getActiveBlockVector_task_exe
||   0.0% |  0.003830 |   -- |    -- |   6,916.0 | updateBlockVector_task_exe
||   0.0% |  0.003697 |   -- |    -- |   7,657.0 | custom_dlacpy_task_exe
||   0.0% |  0.002139 |   -- |    -- |   4,940.0 | mat_sub_task_exe
||   0.0% |  0.000815 |   -- |    -- |   2,470.0 | mat_mult_task_exe
||   0.0% |  0.000733 |   -- |    -- |   2,470.0 | sum_sqrt_task_COL
||   0.0% |  0.000284 |   -- |    -- |      96.0 | _XTY_v1_RED
||   0.0% |  0.000102 |   -- |    -- |      11.0 | diag
||   0.0% |  0.000021 |   -- |    -- |       1.0 | exit
||   0.0% |  0.000017 |   -- |    -- |      10.0 | sum_sqrt_task_RNRED
||   0.0% |  0.000009 |   -- |    -- |      10.0 | update_activeMask_task_exe
||   0.0% |  0.000004 |   -- |    -- |      10.0 | sum_sqrt_task_SQRT
||============================================================================
|  10.5% |  6.413272 |   -- |    -- | 121,276.0 | ETC
||----------------------------------------------------------------------------
||  10.2% |  6.230699 |   -- |    -- |  50,655.0 | cblas_dgemm
||   0.2% |  0.100848 |   -- |    -- |   3,721.0 | __sci_dpotrf2_
||   0.1% |  0.070909 |   -- |    -- |     960.0 | dgetrfhva_
||   0.0% |  0.006091 |   -- |    -- |      88.0 | __sci_dsygv_
||   0.0% |  0.003784 |   -- |    -- |  54,180.0 | dlartg_ref_
||   0.0% |  0.000441 |   -- |    -- |   5,958.0 | crayblas_get_max_threads
||   0.0% |  0.000314 |   -- |    -- |   4,518.0 | __sci_dlasr_
||   0.0% |  0.000058 |   -- |    -- |      31.0 | dpotrf_var_a_
||   0.0% |  0.000050 |   -- |    -- |     654.0 | __sci_dlarfg_
||   0.0% |  0.000017 |   -- |    -- |     229.0 | __sci_dlarf_
||   0.0% |  0.000015 |   -- |    -- |      40.0 | dtrtri_var_a_
||   0.0% |  0.000013 |   -- |    -- |      99.0 | dsyevref_
||   0.0% |  0.000008 |   -- |    -- |      11.0 | __sci_dsygs2_
||   0.0% |  0.000006 |   -- |    -- |      22.0 | __sci_dlansy_
||   0.0% |  0.000004 |   -- |    -- |      11.0 | __sci_dsygst_
||   0.0% |  0.000004 |   -- |    -- |      11.0 | __sci_dsytd2_
||   0.0% |  0.000004 |   -- |    -- |      50.0 | __sci_dsteqr_
||   0.0% |  0.000002 |   -- |    -- |      11.0 | __sci_dsytrd_
||   0.0% |  0.000002 |   -- |    -- |      11.0 | __sci_dorgtr_
||   0.0% |  0.000002 |   -- |    -- |      11.0 | __sci_dlanst_
||   0.0% |  0.000001 |   -- |    -- |       5.0 | zarpm_haswell
||============================================================================
|   0.2% |  0.142414 |   -- |    -- |  26,607.0 | OMP
||----------------------------------------------------------------------------
||   0.2% |  0.120653 |   -- |    -- |      20.0 | omp_get_wtime
||   0.0% |  0.021672 |   -- |    -- |  26,386.0 | omp_get_thread_num
||   0.0% |  0.000089 |   -- |    -- |     201.0 | omp_get_num_threads
||============================================================================
|   0.0% |  0.009448 |   -- |    -- | 208,790.0 | BLAS
||----------------------------------------------------------------------------
||   0.0% |  0.009293 |   -- |    -- | 205,811.0 | __sci_dgemm_
||   0.0% |  0.000034 |   -- |    -- |     447.0 | gotoblas_dsyr2__haswell
||   0.0% |  0.000032 |   -- |    -- |     280.0 | gotoblas_dlaswp__haswell
||   0.0% |  0.000027 |   -- |    -- |     358.0 | gotoblas_dgemv__haswell
||   0.0% |  0.000016 |   -- |    -- |     218.0 | gotoblas_dsymv__haswell
||   0.0% |  0.000016 |   -- |    -- |     218.0 | gotoblas_dger__haswell
||   0.0% |  0.000013 |   -- |    -- |     676.0 | gotoblas_daxpy__haswell
||   0.0% |  0.000010 |   -- |    -- |     143.0 | gotoblas_dswap__haswell
||   0.0% |  0.000007 |   -- |    -- |     639.0 | gotoblas_dscal__haswell
|=============================================================================

Notes for table 2:

  Table option:
    -O profile+hwpc
  Options implied by table option:
    -d ti%@0.95,ti,imb_ti,imb_ti%,tr,P -b gr,fu
  Other options:
    -T 

  Options for related tables:
    -O profile_pe.th           -O profile_th_pe       
    -O profile+src             -O profile_max         
    -O load_balance            -O callers             
    -O callers+src             -O calltree            
    -O calltree+src        

  The Total value for each data item is the sum of the Group values.
  The Group value for each data item is the sum of the Function values.
    (To specify different aggregations, see: pat_help report options s1)

  This table shows only lines with Time% > 0.

  Imbalance percentages are relative to a set of threads or PEs.
  Other percentages at each level are of the Total for the program.
    (For percentages relative to next level up, specify:
      -s percent=r[elative])

Table 2:  Profile by Function Group and Function

Group / Function

  
==============================================================================
  Total
------------------------------------------------------------------------------
  Time%                                          100.0% 
  Time                                        60.811123 secs
  Imb. Time                                          -- secs
  Imb. Time%                                         -- 
  Calls                   0.009M/sec          518,704.0 calls
  PAPI_L1_DCM             0.049G/sec  2,971,010,152.000 misses
  PAPI_L2_DCM             0.016G/sec    997,581,728.000 misses
  PAPI_L3_TCM             0.004G/sec    224,895,599.000 misses
  Average Time per Call                        0.000117 secs
  CrayPat Overhead : Time  1.3%                         
==============================================================================
  USER
------------------------------------------------------------------------------
  Time%                                           89.2% 
  Time                                        54.245989 secs
  Imb. Time                                          -- secs
  Imb. Time%                                         -- 
  Calls                   0.003M/sec          162,031.0 calls
  PAPI_L1_DCM             0.034G/sec  1,855,804,465.000 misses
  PAPI_L2_DCM             0.008G/sec    428,704,612.000 misses
  PAPI_L3_TCM             0.001G/sec     76,161,194.000 misses
  Average Time per Call                        0.000335 secs
  CrayPat Overhead : Time  0.5%                         
==============================================================================
  USER / main
------------------------------------------------------------------------------
  Time%                                           59.1% 
  Time                                        35.955155 secs
  Imb. Time                                          -- secs
  Imb. Time%                                         -- 
  Calls                   0.028 /sec                1.0 calls
  PAPI_L1_DCM             0.048G/sec  1,725,362,668.000 misses
  PAPI_L2_DCM             0.012G/sec    417,655,928.000 misses
  PAPI_L3_TCM             0.002G/sec     73,181,087.000 misses
  Average Time per Call                       35.955155 secs
  CrayPat Overhead : Time  0.0%                         
==============================================================================
  USER / void read_custom<>
------------------------------------------------------------------------------
  Time%                                           22.2% 
  Time                                        13.517737 secs
  Imb. Time                                          -- secs
  Imb. Time%                                         -- 
  Calls                   0.074 /sec                1.0 calls
  PAPI_L1_DCM             0.001G/sec     18,794,097.000 misses
  PAPI_L2_DCM             0.164M/sec      2,219,875.000 misses
  PAPI_L3_TCM           299.828 /sec          4,053.000 misses
  Average Time per Call                       13.517737 secs
  CrayPat Overhead : Time  0.0%                         
==============================================================================
  USER / void csc2blkcoord<>
------------------------------------------------------------------------------
  Time%                                            6.9% 
  Time                                         4.196906 secs
  Imb. Time                                          -- secs
  Imb. Time%                                         -- 
  Calls                   0.238 /sec                1.0 calls
  PAPI_L1_DCM             0.025G/sec    105,869,331.000 misses
  PAPI_L2_DCM             0.002G/sec      7,543,510.000 misses
  PAPI_L3_TCM             0.659M/sec      2,765,380.000 misses
  Average Time per Call                        4.196906 secs
  CrayPat Overhead : Time  0.0%                         
==============================================================================
  USER / buildTaskInfoStruct
------------------------------------------------------------------------------
  Time%                                            0.4% 
  Time                                         0.236161 secs
  Imb. Time                                          -- secs
  Imb. Time%                                         -- 
  Calls                  12.703 /sec                3.0 calls
  PAPI_L1_DCM             0.002G/sec        435,007.000 misses
  PAPI_L2_DCM             0.057M/sec         13,439.000 misses
  PAPI_L3_TCM             0.004M/sec            866.000 misses
  Average Time per Call                        0.078720 secs
  CrayPat Overhead : Time  0.0%                         
==============================================================================
  USER / readPartBoundary
------------------------------------------------------------------------------
  Time%                                            0.2% 
  Time                                         0.107212 secs
  Imb. Time                                          -- secs
  Imb. Time%                                         -- 
  Calls                  27.982 /sec                3.0 calls
  PAPI_L1_DCM             0.013M/sec          1,409.000 misses
  PAPI_L2_DCM             0.011M/sec          1,227.000 misses
  PAPI_L3_TCM           447.712 /sec             48.000 misses
  Average Time per Call                        0.035737 secs
  CrayPat Overhead : Time  0.0%                         
==============================================================================
  USER / inverse
------------------------------------------------------------------------------
  Time%                                            0.1% 
  Time                                         0.076427 secs
  Imb. Time                                          -- secs
  Imb. Time%                                         -- 
  Calls                 261.688 /sec               20.0 calls
  PAPI_L1_DCM             0.345M/sec         26,366.000 misses
  PAPI_L2_DCM             0.080M/sec          6,078.000 misses
  PAPI_L3_TCM             0.156M/sec         11,937.000 misses
  Average Time per Call                        0.003821 secs
  CrayPat Overhead : Time  0.0%                         
==============================================================================
  USER / _XTY_v1_exe
------------------------------------------------------------------------------
  Time%                                             0.1% 
  Time                                          0.061475 secs
  Imb. Time                                           -- secs
  Imb. Time%                                          -- 
  Calls                    0.386M/sec           23,712.0 calls
  PAPI_L1_DCM              0.017G/sec      1,066,784.000 misses
  PAPI_L2_DCM              0.004G/sec        249,978.000 misses
  PAPI_L3_TCM              0.665M/sec         40,867.000 misses
  Average Time per Call                         0.000003 secs
  CrayPat Overhead : Time  59.0%                         
==============================================================================
  USER / split
------------------------------------------------------------------------------
  Time%                                              0.0% 
  Time                                           0.018582 secs
  Imb. Time                                            -- secs
  Imb. Time%                                           -- 
  Calls                     0.002G/sec           29,851.0 calls
  PAPI_L1_DCM               0.022G/sec        417,345.000 misses
  PAPI_L2_DCM               0.975M/sec         18,122.000 misses
  PAPI_L3_TCM               0.024M/sec            452.000 misses
  Average Time per Call                          0.000001 secs
  CrayPat Overhead : Time  245.9%                         
==============================================================================
  USER / make_identity_mat
------------------------------------------------------------------------------
  Time%                                              0.0% 
  Time                                           0.018345 secs
  Imb. Time                                            -- secs
  Imb. Time%                                           -- 
  Calls                     0.001M/sec               21.0 calls
  PAPI_L1_DCM               0.292M/sec          5,366.000 misses
  PAPI_L2_DCM               0.223M/sec          4,098.000 misses
  PAPI_L3_TCM               0.168M/sec          3,081.000 misses
  Average Time per Call                          0.000874 secs
  CrayPat Overhead : Time    0.2%                         
==============================================================================
  USER / void spmm_blkcoord_finegrained_exe_fixed_buf<>
------------------------------------------------------------------------------
  Time%                                              0.0% 
  Time                                           0.013361 secs
  Imb. Time                                            -- secs
  Imb. Time%                                           -- 
  Calls                     0.003G/sec           40,436.0 calls
  PAPI_L1_DCM               0.081G/sec      1,086,865.000 misses
  PAPI_L2_DCM               0.024G/sec        323,879.000 misses
  PAPI_L3_TCM               0.004G/sec         49,336.000 misses
  Average Time per Call                          0.000000 secs
  CrayPat Overhead : Time  463.3%                         
==============================================================================
  USER / _XY_exe
------------------------------------------------------------------------------
  Time%                                              0.0% 
  Time                                           0.013331 secs
  Imb. Time                                            -- secs
  Imb. Time%                                           -- 
  Calls                     0.002G/sec           26,923.0 calls
  PAPI_L1_DCM               0.082G/sec      1,099,690.000 misses
  PAPI_L2_DCM               0.018G/sec        236,627.000 misses
  PAPI_L3_TCM               0.002G/sec         28,005.000 misses
  Average Time per Call                          0.000000 secs
  CrayPat Overhead : Time  309.1%                         
==============================================================================
  USER / mat_copy
------------------------------------------------------------------------------
  Time%                                              0.0% 
  Time                                           0.010663 secs
  Imb. Time                                            -- secs
  Imb. Time%                                           -- 
  Calls                     0.016M/sec              166.0 calls
  PAPI_L1_DCM               0.001G/sec         15,407.000 misses
  PAPI_L2_DCM               0.584M/sec          6,232.000 misses
  PAPI_L3_TCM               0.374M/sec          3,990.000 misses
  Average Time per Call                          0.000064 secs
  CrayPat Overhead : Time    2.4%                         
==============================================================================
  USER / mat_addition_task_exe
------------------------------------------------------------------------------
  Time%                                              0.0% 
  Time                                           0.004716 secs
  Imb. Time                                            -- secs
  Imb. Time%                                           -- 
  Calls                     0.002G/sec            9,386.0 calls
  PAPI_L1_DCM               0.071G/sec        333,727.000 misses
  PAPI_L2_DCM               0.024G/sec        113,414.000 misses
  PAPI_L3_TCM               0.002G/sec          8,497.000 misses
  Average Time per Call                          0.000001 secs
  CrayPat Overhead : Time  304.6%                         
==============================================================================
  USER / getActiveBlockVector_task_exe
------------------------------------------------------------------------------
  Time%                                              0.0% 
  Time                                           0.004266 secs
  Imb. Time                                            -- secs
  Imb. Time%                                           -- 
  Calls                     0.002G/sec            6,916.0 calls
  PAPI_L1_DCM               0.081G/sec        347,126.000 misses
  PAPI_L2_DCM               0.017G/sec         74,360.000 misses
  PAPI_L3_TCM               0.004G/sec         14,941.000 misses
  Average Time per Call                          0.000001 secs
  CrayPat Overhead : Time  248.1%                         
==============================================================================
  USER / updateBlockVector_task_exe
------------------------------------------------------------------------------
  Time%                                              0.0% 
  Time                                           0.003830 secs
  Imb. Time                                            -- secs
  Imb. Time%                                           -- 
  Calls                     0.002G/sec            6,916.0 calls
  PAPI_L1_DCM               0.078G/sec        299,188.000 misses
  PAPI_L2_DCM               0.019G/sec         72,451.000 misses
  PAPI_L3_TCM               0.004G/sec         14,401.000 misses
  Average Time per Call                          0.000001 secs
  CrayPat Overhead : Time  276.4%                         
==============================================================================
  USER / custom_dlacpy_task_exe
------------------------------------------------------------------------------
  Time%                                              0.0% 
  Time                                           0.003697 secs
  Imb. Time                                            -- secs
  Imb. Time%                                           -- 
  Calls                     0.002G/sec            7,657.0 calls
  PAPI_L1_DCM               0.079G/sec        291,328.000 misses
  PAPI_L2_DCM               0.019G/sec         69,357.000 misses
  PAPI_L3_TCM               0.005G/sec         18,979.000 misses
  Average Time per Call                          0.000000 secs
  CrayPat Overhead : Time  317.0%                         
==============================================================================
  USER / mat_sub_task_exe
------------------------------------------------------------------------------
  Time%                                              0.0% 
  Time                                           0.002139 secs
  Imb. Time                                            -- secs
  Imb. Time%                                           -- 
  Calls                     0.002G/sec            4,940.0 calls
  PAPI_L1_DCM               0.087G/sec        186,545.000 misses
  PAPI_L2_DCM               0.021G/sec         45,310.000 misses
  PAPI_L3_TCM               0.003G/sec          5,727.000 misses
  Average Time per Call                          0.000000 secs
  CrayPat Overhead : Time  353.6%                         
==============================================================================
  USER / mat_mult_task_exe
------------------------------------------------------------------------------
  Time%                                              0.0% 
  Time                                           0.000815 secs
  Imb. Time                                            -- secs
  Imb. Time%                                           -- 
  Calls                     0.003G/sec            2,470.0 calls
  PAPI_L1_DCM               0.094G/sec         76,780.000 misses
  PAPI_L2_DCM               0.025G/sec         20,060.000 misses
  PAPI_L3_TCM               0.003G/sec          2,248.000 misses
  Average Time per Call                          0.000000 secs
  CrayPat Overhead : Time  463.9%                         
==============================================================================
  USER / sum_sqrt_task_COL
------------------------------------------------------------------------------
  Time%                                              0.0% 
  Time                                           0.000733 secs
  Imb. Time                                            -- secs
  Imb. Time%                                           -- 
  Calls                     0.003G/sec            2,470.0 calls
  PAPI_L1_DCM               0.096G/sec         70,237.000 misses
  PAPI_L2_DCM               0.031G/sec         22,837.000 misses
  PAPI_L3_TCM               0.002G/sec          1,363.000 misses
  Average Time per Call                          0.000000 secs
  CrayPat Overhead : Time  515.9%                         
==============================================================================
  USER / _XTY_v1_RED
------------------------------------------------------------------------------
  Time%                                              0.0% 
  Time                                           0.000284 secs
  Imb. Time                                            -- secs
  Imb. Time%                                           -- 
  Calls                     0.337M/sec               96.0 calls
  PAPI_L1_DCM               0.050G/sec         14,280.000 misses
  PAPI_L2_DCM               0.020G/sec          5,649.000 misses
  PAPI_L3_TCM               0.014G/sec          4,047.000 misses
  Average Time per Call                          0.000003 secs
  CrayPat Overhead : Time   51.7%                         
==============================================================================
  USER / diag
------------------------------------------------------------------------------
  Time%                                              0.0% 
  Time                                           0.000102 secs
  Imb. Time                                            -- secs
  Imb. Time%                                           -- 
  Calls                     0.107M/sec               11.0 calls
  PAPI_L1_DCM               0.022G/sec          2,218.000 misses
  PAPI_L2_DCM               0.011G/sec          1,120.000 misses
  PAPI_L3_TCM               0.005G/sec            492.000 misses
  Average Time per Call                          0.000009 secs
  CrayPat Overhead : Time   16.4%                         
==============================================================================
  USER / exit
------------------------------------------------------------------------------
  Time%                                              0.0% 
  Time                                           0.000021 secs
  Imb. Time                                            -- secs
  Imb. Time%                                           -- 
  Calls                     0.047M/sec                1.0 calls
  PAPI_L1_DCM               0.041G/sec            877.000 misses
  PAPI_L2_DCM               0.027G/sec            584.000 misses
  PAPI_L3_TCM               0.040G/sec            848.000 misses
  Average Time per Call                          0.000021 secs
  CrayPat Overhead : Time    7.2%                         
==============================================================================
  USER / sum_sqrt_task_RNRED
------------------------------------------------------------------------------
  Time%                                              0.0% 
  Time                                           0.000017 secs
  Imb. Time                                            -- secs
  Imb. Time%                                           -- 
  Calls                     0.589M/sec               10.0 calls
  PAPI_L1_DCM               0.063G/sec          1,074.000 misses
  PAPI_L2_DCM               0.016G/sec            269.000 misses
  PAPI_L3_TCM               0.023G/sec            384.000 misses
  Average Time per Call                          0.000002 secs
  CrayPat Overhead : Time   90.2%                         
==============================================================================
  USER / update_activeMask_task_exe
------------------------------------------------------------------------------
  Time%                                              0.0% 
  Time                                           0.000009 secs
  Imb. Time                                            -- secs
  Imb. Time%                                           -- 
  Calls                     0.001G/sec               10.0 calls
  PAPI_L1_DCM               0.047G/sec            419.000 misses
  PAPI_L2_DCM               0.015G/sec            136.000 misses
  PAPI_L3_TCM               0.014G/sec            128.000 misses
  Average Time per Call                          0.000001 secs
  CrayPat Overhead : Time  170.9%                         
==============================================================================
  USER / sum_sqrt_task_SQRT
------------------------------------------------------------------------------
  Time%                                              0.0% 
  Time                                           0.000004 secs
  Imb. Time                                            -- secs
  Imb. Time%                                           -- 
  Calls                     0.002G/sec               10.0 calls
  PAPI_L1_DCM               0.077G/sec            331.000 misses
  PAPI_L2_DCM               0.017G/sec             72.000 misses
  PAPI_L3_TCM               0.009G/sec             37.000 misses
  Average Time per Call                          0.000000 secs
  CrayPat Overhead : Time  354.7%                         
==============================================================================
==============================================================================
  ETC
------------------------------------------------------------------------------
  Time%                                             10.5% 
  Time                                           6.413272 secs
  Imb. Time                                            -- secs
  Imb. Time%                                           -- 
  Calls                     0.019M/sec          121,276.0 calls
  PAPI_L1_DCM               0.173G/sec  1,110,982,441.000 misses
  PAPI_L2_DCM               0.088G/sec    567,136,360.000 misses
  PAPI_L3_TCM               0.023G/sec    148,717,400.000 misses
  Average Time per Call                          0.000053 secs
  CrayPat Overhead : Time    2.9%                         
==============================================================================
  ETC / cblas_dgemm
------------------------------------------------------------------------------
  Time%                                             10.2% 
  Time                                           6.230699 secs
  Imb. Time                                            -- secs
  Imb. Time%                                           -- 
  Calls                     0.008M/sec           50,655.0 calls
  PAPI_L1_DCM               0.178G/sec  1,110,238,851.000 misses
  PAPI_L2_DCM               0.091G/sec    567,124,444.000 misses
  PAPI_L3_TCM               0.024G/sec    148,693,932.000 misses
  Average Time per Call                          0.000123 secs
  CrayPat Overhead : Time    1.2%                         
==============================================================================
  ETC / __sci_dpotrf2_
------------------------------------------------------------------------------
  Time%                                              0.2% 
  Time                                           0.100848 secs
  Imb. Time                                            -- secs
  Imb. Time%                                           -- 
  Calls                     0.037M/sec            3,721.0 calls
  PAPI_L1_DCM               0.694M/sec         70,001.000 misses
  PAPI_L2_DCM               0.036M/sec          3,661.000 misses
  PAPI_L3_TCM               0.147M/sec         14,848.000 misses
  Average Time per Call                          0.000027 secs
  CrayPat Overhead : Time    5.6%                         
==============================================================================
  ETC / dgetrfhva_
------------------------------------------------------------------------------
  Time%                                              0.1% 
  Time                                           0.070909 secs
  Imb. Time                                            -- secs
  Imb. Time%                                           -- 
  Calls                     0.014M/sec              960.0 calls
  PAPI_L1_DCM               0.292M/sec         20,692.000 misses
  PAPI_L2_DCM               0.018M/sec          1,294.000 misses
  PAPI_L3_TCM               0.070M/sec          4,974.000 misses
  Average Time per Call                          0.000074 secs
  CrayPat Overhead : Time    2.1%                         
==============================================================================
  ETC / __sci_dsygv_
------------------------------------------------------------------------------
  Time%                                              0.0% 
  Time                                           0.006091 secs
  Imb. Time                                            -- secs
  Imb. Time%                                           -- 
  Calls                     0.014M/sec               88.0 calls
  PAPI_L1_DCM               0.969M/sec          5,899.000 misses
  PAPI_L2_DCM               0.307M/sec          1,872.000 misses
  PAPI_L3_TCM               0.320M/sec          1,951.000 misses
  Average Time per Call                          0.000069 secs
  CrayPat Overhead : Time    2.2%                         
==============================================================================
  ETC / dlartg_ref_
------------------------------------------------------------------------------
  Time%                                                0.0% 
  Time                                             0.003784 secs
  Imb. Time                                              -- secs
  Imb. Time%                                             -- 
  Calls                       0.014G/sec           54,180.0 calls
  PAPI_L1_DCM                 0.133G/sec        503,847.000 misses
  PAPI_L2_DCM                 0.165M/sec            626.000 misses
  PAPI_L3_TCM                 0.017M/sec             66.000 misses
  Average Time per Call                            0.000000 secs
  CrayPat Overhead : Time  2,191.5%                         
==============================================================================
  ETC / crayblas_get_max_threads
------------------------------------------------------------------------------
  Time%                                                0.0% 
  Time                                             0.000441 secs
  Imb. Time                                              -- secs
  Imb. Time%                                             -- 
  Calls                       0.014G/sec            5,958.0 calls
  PAPI_L1_DCM                 0.158G/sec         69,839.000 misses
  PAPI_L2_DCM                 0.001G/sec            576.000 misses
  PAPI_L3_TCM                 0.304M/sec            134.000 misses
  Average Time per Call                            0.000000 secs
  CrayPat Overhead : Time  2,068.4%                         
==============================================================================
  ETC / __sci_dlasr_
------------------------------------------------------------------------------
  Time%                                                0.0% 
  Time                                             0.000314 secs
  Imb. Time                                              -- secs
  Imb. Time%                                             -- 
  Calls                       0.014G/sec            4,518.0 calls
  PAPI_L1_DCM                 0.172G/sec         54,021.000 misses
  PAPI_L2_DCM                 0.002G/sec            669.000 misses
  PAPI_L3_TCM                 0.169M/sec             53.000 misses
  Average Time per Call                            0.000000 secs
  CrayPat Overhead : Time  2,200.1%                         
==============================================================================
  ETC / dpotrf_var_a_
------------------------------------------------------------------------------
  Time%                                                0.0% 
  Time                                             0.000058 secs
  Imb. Time                                              -- secs
  Imb. Time%                                             -- 
  Calls                       0.532M/sec               31.0 calls
  PAPI_L1_DCM                 0.036G/sec          2,104.000 misses
  PAPI_L2_DCM                 0.027G/sec          1,562.000 misses
  PAPI_L3_TCM                 0.014G/sec            798.000 misses
  Average Time per Call                            0.000002 secs
  CrayPat Overhead : Time     81.5%                         
==============================================================================
  ETC / __sci_dlarfg_
------------------------------------------------------------------------------
  Time%                                                0.0% 
  Time                                             0.000050 secs
  Imb. Time                                              -- secs
  Imb. Time%                                             -- 
  Calls                       0.013G/sec              654.0 calls
  PAPI_L1_DCM                 0.161G/sec          8,026.000 misses
  PAPI_L2_DCM                 0.003G/sec            139.000 misses
  PAPI_L3_TCM                 0.361M/sec             18.000 misses
  Average Time per Call                            0.000000 secs
  CrayPat Overhead : Time  2,009.1%                         
==============================================================================
  ETC / __sci_dlarf_
------------------------------------------------------------------------------
  Time%                                                0.0% 
  Time                                             0.000017 secs
  Imb. Time                                              -- secs
  Imb. Time%                                             -- 
  Calls                       0.014G/sec              229.0 calls
  PAPI_L1_DCM                 0.178G/sec          2,967.000 misses
  PAPI_L2_DCM                 0.010G/sec            163.000 misses
  PAPI_L3_TCM                 0.002G/sec             27.000 misses
  Average Time per Call                            0.000000 secs
  CrayPat Overhead : Time  2,101.8%                         
==============================================================================
  ETC / dtrtri_var_a_
------------------------------------------------------------------------------
  Time%                                                0.0% 
  Time                                             0.000015 secs
  Imb. Time                                              -- secs
  Imb. Time%                                             -- 
  Calls                       0.003G/sec               40.0 calls
  PAPI_L1_DCM                 0.069G/sec          1,008.000 misses
  PAPI_L2_DCM                 0.017G/sec            252.000 misses
  PAPI_L3_TCM                 0.005G/sec             73.000 misses
  Average Time per Call                            0.000000 secs
  CrayPat Overhead : Time    417.0%                         
==============================================================================
  ETC / dsyevref_
------------------------------------------------------------------------------
  Time%                                                0.0% 
  Time                                             0.000013 secs
  Imb. Time                                              -- secs
  Imb. Time%                                             -- 
  Calls                       0.007G/sec               99.0 calls
  PAPI_L1_DCM                 0.120G/sec          1,614.000 misses
  PAPI_L2_DCM                 0.018G/sec            246.000 misses
  PAPI_L3_TCM                 0.008G/sec            107.000 misses
  Average Time per Call                            0.000000 secs
  CrayPat Overhead : Time  1,127.7%                         
==============================================================================
  ETC / __sci_dsygs2_
------------------------------------------------------------------------------
  Time%                                                0.0% 
  Time                                             0.000008 secs
  Imb. Time                                              -- secs
  Imb. Time%                                             -- 
  Calls                       0.001G/sec               11.0 calls
  PAPI_L1_DCM                 0.054G/sec            422.000 misses
  PAPI_L2_DCM                 0.017G/sec            133.000 misses
  PAPI_L3_TCM                 0.014G/sec            110.000 misses
  Average Time per Call                            0.000001 secs
  CrayPat Overhead : Time    216.1%                         
==============================================================================
  ETC / __sci_dlansy_
------------------------------------------------------------------------------
  Time%                                                0.0% 
  Time                                             0.000006 secs
  Imb. Time                                              -- secs
  Imb. Time%                                             -- 
  Calls                       0.004G/sec               22.0 calls
  PAPI_L1_DCM                 0.096G/sec            535.000 misses
  PAPI_L2_DCM                 0.014G/sec             75.000 misses
  PAPI_L3_TCM                 0.010G/sec             56.000 misses
  Average Time per Call                            0.000000 secs
  CrayPat Overhead : Time    607.2%                         
==============================================================================
  ETC / __sci_dsygst_
------------------------------------------------------------------------------
  Time%                                                0.0% 
  Time                                             0.000004 secs
  Imb. Time                                              -- secs
  Imb. Time%                                             -- 
  Calls                       0.003G/sec               11.0 calls
  PAPI_L1_DCM                 0.092G/sec            388.000 misses
  PAPI_L2_DCM                 0.025G/sec            105.000 misses
  PAPI_L3_TCM                 0.009G/sec             39.000 misses
  Average Time per Call                            0.000000 secs
  CrayPat Overhead : Time    399.4%                         
==============================================================================
  ETC / __sci_dsytd2_
------------------------------------------------------------------------------
  Time%                                                0.0% 
  Time                                             0.000004 secs
  Imb. Time                                              -- secs
  Imb. Time%                                             -- 
  Calls                       0.003G/sec               11.0 calls
  PAPI_L1_DCM                 0.064G/sec            265.000 misses
  PAPI_L2_DCM                 0.022G/sec             91.000 misses
  PAPI_L3_TCM                 0.004G/sec             15.000 misses
  Average Time per Call                            0.000000 secs
  CrayPat Overhead : Time    406.4%                         
==============================================================================
  ETC / __sci_dsteqr_
------------------------------------------------------------------------------
  Time%                                                0.0% 
  Time                                             0.000004 secs
  Imb. Time                                              -- secs
  Imb. Time%                                             -- 
  Calls                       0.013G/sec               50.0 calls
  PAPI_L1_DCM                 0.247G/sec            921.000 misses
  PAPI_L2_DCM                 0.070G/sec            260.000 misses
  PAPI_L3_TCM                 0.039G/sec            146.000 misses
  Average Time per Call                            0.000000 secs
  CrayPat Overhead : Time  2,055.8%                         
==============================================================================
  ETC / __sci_dsytrd_
------------------------------------------------------------------------------
  Time%                                                0.0% 
  Time                                             0.000002 secs
  Imb. Time                                              -- secs
  Imb. Time%                                             -- 
  Calls                       0.005G/sec               11.0 calls
  PAPI_L1_DCM                 0.129G/sec            295.000 misses
  PAPI_L2_DCM                 0.010G/sec             24.000 misses
  PAPI_L3_TCM                 0.006G/sec             14.000 misses
  Average Time per Call                            0.000000 secs
  CrayPat Overhead : Time    734.7%                         
==============================================================================
  ETC / __sci_dorgtr_
------------------------------------------------------------------------------
  Time%                                                0.0% 
  Time                                             0.000002 secs
  Imb. Time                                              -- secs
  Imb. Time%                                             -- 
  Calls                       0.005G/sec               11.0 calls
  PAPI_L1_DCM                 0.143G/sec            325.000 misses
  PAPI_L2_DCM                 0.029G/sec             67.000 misses
  PAPI_L3_TCM                 0.007G/sec             16.000 misses
  Average Time per Call                            0.000000 secs
  CrayPat Overhead : Time    738.6%                         
==============================================================================
  ETC / __sci_dlanst_
------------------------------------------------------------------------------
  Time%                                                0.0% 
  Time                                             0.000002 secs
  Imb. Time                                              -- secs
  Imb. Time%                                             -- 
  Calls                       0.006G/sec               11.0 calls
  PAPI_L1_DCM                 0.174G/sec            320.000 misses
  PAPI_L2_DCM                 0.042G/sec             78.000 misses
  PAPI_L3_TCM                 0.010G/sec             18.000 misses
  Average Time per Call                            0.000000 secs
  CrayPat Overhead : Time    915.2%                         
==============================================================================
  ETC / zarpm_haswell
------------------------------------------------------------------------------
  Time%                                                0.0% 
  Time                                             0.000001 secs
  Imb. Time                                              -- secs
  Imb. Time%                                             -- 
  Calls                       0.004G/sec                5.0 calls
  PAPI_L1_DCM                 0.074G/sec            101.000 misses
  PAPI_L2_DCM                 0.017G/sec             23.000 misses
  PAPI_L3_TCM                 0.004G/sec              5.000 misses
  Average Time per Call                            0.000000 secs
  CrayPat Overhead : Time    559.4%                         
==============================================================================
==============================================================================
  OMP
------------------------------------------------------------------------------
  Time%                                                0.2% 
  Time                                             0.142414 secs
  Imb. Time                                              -- secs
  Imb. Time%                                             -- 
  Calls                       0.187M/sec           26,607.0 calls
  PAPI_L1_DCM                 0.009G/sec      1,263,100.000 misses
  PAPI_L2_DCM                 0.007G/sec      1,003,100.000 misses
  PAPI_L3_TCM                 0.074M/sec         10,497.000 misses
  Average Time per Call                            0.000005 secs
  CrayPat Overhead : Time     28.6%                         
==============================================================================
  OMP / omp_get_wtime
------------------------------------------------------------------------------
  Time%                                                0.2% 
  Time                                             0.120653 secs
  Imb. Time                                              -- secs
  Imb. Time%                                             -- 
  Calls                     165.764 /sec               20.0 calls
  PAPI_L1_DCM                 0.010M/sec          1,174.000 misses
  PAPI_L2_DCM                 0.006M/sec            776.000 misses
  PAPI_L3_TCM                 0.004M/sec            511.000 misses
  Average Time per Call                            0.006033 secs
  CrayPat Overhead : Time      0.0%                         
==============================================================================
  OMP / omp_get_thread_num
------------------------------------------------------------------------------
  Time%                                                0.0% 
  Time                                             0.021672 secs
  Imb. Time                                              -- secs
  Imb. Time%                                             -- 
  Calls                       0.001G/sec           26,386.0 calls
  PAPI_L1_DCM                 0.058G/sec      1,257,335.000 misses
  PAPI_L2_DCM                 0.046G/sec      1,000,980.000 misses
  PAPI_L3_TCM                 0.405M/sec          8,772.000 misses
  Average Time per Call                            0.000001 secs
  CrayPat Overhead : Time    186.4%                         
==============================================================================
  OMP / omp_get_num_threads
------------------------------------------------------------------------------
  Time%                                                0.0% 
  Time                                             0.000089 secs
  Imb. Time                                              -- secs
  Imb. Time%                                             -- 
  Calls                       0.002G/sec              201.0 calls
  PAPI_L1_DCM                 0.052G/sec          4,591.000 misses
  PAPI_L2_DCM                 0.015G/sec          1,344.000 misses
  PAPI_L3_TCM                 0.014G/sec          1,214.000 misses
  Average Time per Call                            0.000000 secs
  CrayPat Overhead : Time    347.1%                         
==============================================================================
==============================================================================
  BLAS
------------------------------------------------------------------------------
  Time%                                                0.0% 
  Time                                             0.009448 secs
  Imb. Time                                              -- secs
  Imb. Time%                                             -- 
  Calls                       0.022G/sec          208,790.0 calls
  PAPI_L1_DCM                 0.313G/sec      2,960,146.000 misses
  PAPI_L2_DCM                 0.078G/sec        737,656.000 misses
  PAPI_L3_TCM                 0.689M/sec          6,508.000 misses
  Average Time per Call                            0.000000 secs
  CrayPat Overhead : Time  3,382.6%                         
==============================================================================
  BLAS / __sci_dgemm_
------------------------------------------------------------------------------
  Time%                                                0.0% 
  Time                                             0.009293 secs
  Imb. Time                                              -- secs
  Imb. Time%                                             -- 
  Calls                       0.022G/sec          205,811.0 calls
  PAPI_L1_DCM                 0.314G/sec      2,917,097.000 misses
  PAPI_L2_DCM                 0.079G/sec        735,823.000 misses
  PAPI_L3_TCM                 0.654M/sec          6,078.000 misses
  Average Time per Call                            0.000000 secs
  CrayPat Overhead : Time  3,390.1%                         
==============================================================================
  BLAS / gotoblas_dsyr2__haswell
------------------------------------------------------------------------------
  Time%                                                0.0% 
  Time                                             0.000034 secs
  Imb. Time                                              -- secs
  Imb. Time%                                             -- 
  Calls                       0.013G/sec              447.0 calls
  PAPI_L1_DCM                 0.210G/sec          7,099.000 misses
  PAPI_L2_DCM                 0.004G/sec            122.000 misses
  PAPI_L3_TCM                 0.650M/sec             22.000 misses
  Average Time per Call                            0.000000 secs
  CrayPat Overhead : Time  2,021.8%                         
==============================================================================
  BLAS / gotoblas_dlaswp__haswell
------------------------------------------------------------------------------
  Time%                                                0.0% 
  Time                                             0.000032 secs
  Imb. Time                                              -- secs
  Imb. Time%                                             -- 
  Calls                       0.009G/sec              280.0 calls
  PAPI_L1_DCM                 0.100G/sec          3,240.000 misses
  PAPI_L2_DCM                 0.008G/sec            247.000 misses
  PAPI_L3_TCM                 0.002G/sec             68.000 misses
  Average Time per Call                            0.000000 secs
  CrayPat Overhead : Time  1,319.2%                         
==============================================================================
  BLAS / gotoblas_dgemv__haswell
------------------------------------------------------------------------------
  Time%                                                0.0% 
  Time                                             0.000027 secs
  Imb. Time                                              -- secs
  Imb. Time%                                             -- 
  Calls                       0.013G/sec              358.0 calls
  PAPI_L1_DCM                 0.167G/sec          4,512.000 misses
  PAPI_L2_DCM                 0.010G/sec            260.000 misses
  PAPI_L3_TCM                 0.005G/sec            142.000 misses
  Average Time per Call                            0.000000 secs
  CrayPat Overhead : Time  2,031.8%                         
==============================================================================
  BLAS / gotoblas_dsymv__haswell
------------------------------------------------------------------------------
  Time%                                                0.0% 
  Time                                             0.000016 secs
  Imb. Time                                              -- secs
  Imb. Time%                                             -- 
  Calls                       0.014G/sec              218.0 calls
  PAPI_L1_DCM                 0.186G/sec          3,000.000 misses
  PAPI_L2_DCM                 0.007G/sec            106.000 misses
  PAPI_L3_TCM                 0.124M/sec              2.000 misses
  Average Time per Call                            0.000000 secs
  CrayPat Overhead : Time  2,071.9%                         
==============================================================================
  BLAS / gotoblas_dger__haswell
------------------------------------------------------------------------------
  Time%                                                0.0% 
  Time                                             0.000016 secs
  Imb. Time                                              -- secs
  Imb. Time%                                             -- 
  Calls                       0.014G/sec              218.0 calls
  PAPI_L1_DCM                 0.208G/sec          3,281.000 misses
  PAPI_L2_DCM                 0.009G/sec            140.000 misses
  PAPI_L3_TCM                 0.698M/sec             11.000 misses
  Average Time per Call                            0.000000 secs
  CrayPat Overhead : Time  2,117.8%                         
==============================================================================
  BLAS / gotoblas_daxpy__haswell
------------------------------------------------------------------------------
  Time%                                                0.0% 
  Time                                             0.000013 secs
  Imb. Time                                              -- secs
  Imb. Time%                                             -- 
  Calls                       0.052G/sec              676.0 calls
  PAPI_L1_DCM                 0.848G/sec         10,955.000 misses
  PAPI_L2_DCM                 0.032G/sec            410.000 misses
  PAPI_L3_TCM                 0.010G/sec            126.000 misses
  Average Time per Call                            0.000000 secs
  CrayPat Overhead : Time  8,006.8%                         
==============================================================================
  BLAS / gotoblas_dswap__haswell
------------------------------------------------------------------------------
  Time%                                                0.0% 
  Time                                             0.000010 secs
  Imb. Time                                              -- secs
  Imb. Time%                                             -- 
  Calls                       0.014G/sec              143.0 calls
  PAPI_L1_DCM                 0.191G/sec          1,954.000 misses
  PAPI_L2_DCM                 0.025G/sec            258.000 misses
  PAPI_L3_TCM                 0.098M/sec              1.000 misses
  Average Time per Call                            0.000000 secs
  CrayPat Overhead : Time  2,137.4%                         
==============================================================================
  BLAS / gotoblas_dscal__haswell
------------------------------------------------------------------------------
  Time%                                                 0.0% 
  Time                                              0.000007 secs
  Imb. Time                                               -- secs
  Imb. Time%                                              -- 
  Calls                        0.091G/sec              639.0 calls
  PAPI_L1_DCM                  1.282G/sec          9,008.000 misses
  PAPI_L2_DCM                  0.041G/sec            290.000 misses
  PAPI_L3_TCM                  0.008G/sec             58.000 misses
  Average Time per Call                             0.000000 secs
  CrayPat Overhead : Time  13,921.5%                         
==============================================================================

Notes for table 3:

  Table option:
    -O program_energy
  Options implied by table option:
    -d PM_ENERGY_NODE,Pn,PM_ENERGY_ACC,Pa,pt -b to -s
    aggr_ni_PM_ENERGY_ACC=sum -s aggr_ni_PM_ENERGY_NODE=sum
  Other options:
    -T 


Table 3:  Program energy and power usage (from Cray PM)

   Node |     Node |   Process | Total
 Energy |    Power |      Time | 
    (J) |      (W) |           | 
       
  7,643 |  123.472 | 61.900453 | Total

Notes for table 4:

  Table option:
    -O mem_bw
  Options implied by table option:
    -d
    Mem_Traffic,Mem_Traffic_Local,Mem_Traffic_Remote,tt,Mem_Traffic_rate -b nn -s aggr_nn=avg -s aggr_pe=sum -s aggr_pe_tB=avg -s aggr_pe_tE=avg -s aggr_pe_uB=avg -s aggr_pe_uE=avg -s mem_bw=0.05 -s sort_by_nn=yes
  Other options:
    -T 

  The Total value for Thread Time is the avg of the Numanode values.
    (To specify different aggregations, see: pat_help report options s1)


Table 4:  Memory Bandwidth by Numanode

    Thread | Numanode
      Time | 
          
 61.668139 | Avg of Numanode values
|----------------------------------
| 61.668139 | numanode.0
|==================================

Notes for table 5:

  Table option:
    -O program_time
  Options implied by table option:
    -d pt,hm -b to
  Other options:
    -T 

  The value shown for Process HiMem is calculated from information in
  the /proc/self/numa_maps files captured near the end of the program. 
  It is the total size of all pages, including huge pages, that were
  actually mapped into physical memory from both private and shared
  memory segments.


Table 5:  Wall Clock Time, Memory High Water Mark

   Process |  Process | Total
      Time |    HiMem | 
           | (MBytes) | 
          
 61.900453 |  5,238.1 | Total

========================  Additional details  ========================

Experiment:  trace

Original path to data file:
  /global/cscratch1/sd/afibuzza/deepsparse_autotune_haswell/lobpcg_executioner_v9_part_vtune.pat+21391-150t/xf-files   (RTS)

Original program:
  /global/cscratch1/sd/afibuzza/deepsparse_autotune_haswell/exe_cp_gnu/lobpcg_executioner_v9_part_vtune.x

Instrumented with:
  pat_build -g omp,blas -u -o \
    exe_cp_gnu/lobpcg_executioner_v9_part_vtune.pat -f \
    exe_cp_gnu/lobpcg_executioner_v9_part_vtune.x

Instrumented program:
  /global/cscratch1/sd/afibuzza/deepsparse_autotune_haswell/./exe_cp_gnu/lobpcg_executioner_v9_part_vtune.pat

Program invocation:
  /global/cscratch1/sd/afibuzza/deepsparse_autotune_haswell/./exe_cp_gnu/lobpcg_executioner_v9_part_vtune.pat 8 8192 ../deepsparse_autotune/HV15R.cus HV15R_8k_8k_part4096_nonloop_taskinfo.txt HV15R_8k_8k_part4096_firstloop_taskinfo.txt ...

Exit Status:  0 for 1 PE

Memory pagesize:  4 KiB

Memory hugepagesize:  Not Available

Programming environment:  GNU

Runtime environment variables:
  ATP_HOME=/opt/cray/pe/atp/2.1.3
  ATP_IGNORE_SIGTERM=1
  ATP_MRNET_COMM_PATH=/opt/cray/pe/atp/2.1.3/libexec/atp_mrnet_commnode_wrapper
  ATP_POST_LINK_OPTS=-Wl,-L/opt/cray/pe/atp/2.1.3/libApp/ 
  CRAYPE_VERSION=2.5.15
  CRAY_LIBSCI_VERSION=18.07.1
  DVS_VERSION=0.9.0
  GCC_VERSION=7.3.0
  GNU_VERSION=7.3.0
  LIBSCI_VERSION=18.07.1
  MODULE_VERSION=3.2.10.6
  MODULE_VERSION_STACK=3.2.10.6
  MPICH_ABORT_ON_ERROR=1
  MPICH_DIR=/opt/cray/pe/mpt/7.7.3/gni/mpich-gnu/7.1
  MPICH_MPIIO_DVS_MAXNODES=32
  OMP_NUM_THREADS=1
  PATH=/opt/cray/pe/perftools/7.0.0/bin:/opt/cray/pe/papi/5.5.1.4/bin:/opt/cray/rca/2.2.18-6.0.7.0_33.3__g2aa4f39.ari/bin:/opt/cray/alps/6.6.43-6.0.7.0_26.4__ga796da3.ari/sbin:/opt/cray/job/2.2.3-6.0.7.0_44.1__g6c4e934.ari/bin:/usr/common/software/altd/2.0/bin:/usr/common/software/bin:/usr/common/mss/bin:/usr/common/nsg/bin:/opt/cray/pe/mpt/7.7.3/gni/bin:/opt/cray/pe/craype/2.5.15/bin:/opt/gcc/7.3.0/bin:/opt/ovis/bin:/opt/ovis/sbin:/usr/syscom/nsg/sbin:/usr/syscom/nsg/bin:/opt/cray/pe/modules/3.2.10.6/bin:/usr/local/bin:/usr/bin:/bin:/usr/bin/X11:/usr/games:/usr/lib/mit/bin:/usr/lib/mit/sbin:/opt/cray/pe/bin
  PAT_BUILD_PAPI_BASEDIR=/opt/cray/pe/papi/5.5.1.4
  PAT_REPORT_PRUNE_NAME=_cray$mt_execute_,_cray$mt_start_,__cray_hwpc_,f_cray_hwpc_,cstart,__pat_,pat_region_,PAT_,OMP.slave_loop,slave_entry,_new_slave_entry,THREAD_POOL_join,__libc_start_main,_start,__start,start_thread,__wrap_,UPC_ADIO_,_upc_,upc_,__caf_,__pgas_,syscall,__device_stub
  PAT_RT_PERFCTR=PAPI_L1_DCM,PAPI_L2_DCM,PAPI_L3_TCM
  PERFTOOLS_VERSION=7.0.0
  PMI_CONTROL_PORT=63191
  PMI_CRAY_NO_SMP_ORDER=0
  PMI_NO_FORK=1

Report time environment variables:
    CRAYPAT_ROOT=/opt/cray/pe/perftools/7.0.0
    PAT_REPORT_PRUNE_NAME=_cray$mt_execute_,_cray$mt_start_,__cray_hwpc_,f_cray_hwpc_,cstart,__pat_,pat_region_,PAT_,OMP.slave_loop,slave_entry,_new_slave_entry,THREAD_POOL_join,__libc_start_main,_start,__start,start_thread,__wrap_,UPC_ADIO_,_upc_,upc_,__caf_,__pgas_,syscall,__device_stub

Number of MPI control variables collected:  0

  (To see the list, specify: -s mpi_cvar=show)

Report command line options:  -T

Operating system:
  Linux 4.4.103-6.38_4.0.153-cray_ari_c #1 SMP Thu Nov 1 16:05:05 UTC 2018 (6ef8fef)

Hardware performance counter events:
   PAPI_L1_DCM  Level 1 data cache misses
   PAPI_L2_DCM  Level 2 data cache misses
   PAPI_L3_TCM  Level 3 cache misses

Estimated minimum instrumentation overhead per call of a traced function,
  which was subtracted from the data shown in this report
  (for raw data, use the option:  -s overhead=include):
    Time  1.531  microsecs

Number of traced functions that were called:  37

  (To see the list, specify:  -s traced_functions=show)

