CrayPat/X:  Version 7.0.0 Revision 5c29ce2  12/11/17 15:26:24

Number of PEs (MPI ranks):    1
                           
Numbers of PEs per Node:      1
                           
Numbers of Threads per PE:   16
                           
Number of Cores per Socket:  16

Execution start time:  Mon Apr  8 11:09:48 2019

System name and speed:  nid00035  2.301 GHz (nominal)

Intel Haswell CPU  Family:  6  Model: 63  Stepping:  2


Current path to data file:
  /global/cscratch1/sd/afibuzza/deepsparse_autotune_haswell/lobpcg_executioner_v9_vtune.pat+39288-35t   (RTS)


Notes for table 1:

  Table option:
    -O profile
  Options implied by table option:
    -d ti%@0.95,ti,imb_ti,imb_ti%,tr -b gr,fu,th=HIDE
  Other options:
    -T 

  Options for related tables:
    -O profile_pe.th           -O profile_th_pe       
    -O profile+src             -O profile_max         
    -O load_balance            -O callers             
    -O callers+src             -O calltree            
    -O calltree+src        

  The Total value for Time, Calls is the sum of the Group values.
  The Group value for Time, Calls is the sum of the Function values.
  The Function value for Time, Calls is the value for the main thread only.
    (If the main thread is atypical, try the option -s aggr_th=sum.)
    (To specify different aggregations, see: pat_help report options s1)

  This table shows only lines with Time% > 0.

  Imbalance percentages are relative to a set of threads or PEs.
  Other percentages at each level are of the Total for the program.
    (For percentages relative to next level up, specify:
      -s percent=r[elative])

Table 1:  Profile by Function Group and Function

  Time% |      Time |     Imb. |  Imb. |     Calls | Group
        |           |     Time | Time% |           |  Function
        |           |          |       |           |   Thread=HIDE
       
 100.0% | 25.826377 |       -- |    -- | 364,193.0 | Total
|-----------------------------------------------------------------------------
|  99.3% | 25.649438 |       -- |    -- | 361,548.0 | USER
||----------------------------------------------------------------------------
||  49.5% | 12.772780 |       -- |    -- |       1.0 | void read_custom<>
||  16.5% |  4.263847 |       -- |    -- |       1.0 | void csc2blkcoord<>
||  10.7% |  2.760604 |       -- |    -- |       1.0 | main
||   8.7% |  2.251290 |       -- |    -- |  47,328.0 | _XTY_v1_exe
||   4.2% |  1.073909 |       -- |    -- |  53,737.0 | _XY_exe
||   2.5% |  0.633719 |       -- |    -- |  13,804.0 | updateBlockVector_task_exe
||   2.0% |  0.522905 |       -- |    -- | 111,166.0 | void spmm_blkcoord_finegrained_exe_fixed_buf<>
||   1.6% |  0.424510 |       -- |    -- |       1.0 | exit
||   1.2% |  0.303180 |       -- |    -- |       3.0 | buildTaskInfoStruct
||   0.8% |  0.217017 |       -- |    -- |  13,804.0 | getActiveBlockVector_task_exe
||   0.7% |  0.192270 |       -- |    -- |  15,283.0 | custom_dlacpy_task_exe
||   0.3% |  0.070995 |       -- |    -- |   9,860.0 | mat_sub_task_exe
||   0.2% |  0.054172 |       -- |    -- |  18,734.0 | mat_addition_task_exe
||   0.2% |  0.044931 |       -- |    -- |  67,837.0 | split
||   0.1% |  0.029217 | 0.026931 | 99.9% |       2.0 | make_identity_mat
||   0.1% |  0.015497 |       -- |    -- |   4,930.0 | sum_sqrt_task_COL
||   0.1% |  0.013002 |       -- |    -- |   4,930.0 | mat_mult_task_exe
||   0.0% |  0.005340 |       -- |    -- |      96.0 | _XTY_v1_RED
||   0.0% |  0.000145 |       -- |    -- |      10.0 | sum_sqrt_task_RNRED
||   0.0% |  0.000061 |       -- |    -- |      10.0 | update_activeMask_task_exe
||   0.0% |  0.000046 |       -- |    -- |      10.0 | sum_sqrt_task_SQRT
||============================================================================
|   0.7% |  0.169393 |       -- |    -- |     806.0 | ETC
||----------------------------------------------------------------------------
||   0.6% |  0.167782 | 0.081774 |  7.7% |     791.0 | cblas_dgemm
||   0.0% |  0.001611 |       -- |    -- |      15.0 | GOMP_parallel
||============================================================================
|   0.0% |  0.005470 |       -- |    -- |     600.0 | OMP
||----------------------------------------------------------------------------
||   0.0% |  0.003522 |       -- |    -- |      20.0 | omp_get_wtime
||   0.0% |  0.001890 | 0.001705 | 20.6% |     575.0 | omp_get_thread_num
||   0.0% |  0.000059 | 0.000021 | 27.4% |       5.0 | omp_get_num_threads
||============================================================================
|   0.0% |  0.002076 |       -- |    -- |   1,239.0 | BLAS
||----------------------------------------------------------------------------
||   0.0% |  0.002076 | 0.001438 |  9.7% |   1,239.0 | __sci_dgemm_
|=============================================================================

Notes for table 2:

  Table option:
    -O profile_max
  Options implied by table option:
    -d ti%@0.95,ti,imb_ti,imb_ti% -b fu,th=HIDE -s aggr_fu=max -s
    aggr_pe=max -s aggr_th=max -s total=HIDE
  Other options:
    -T 

  Options for related tables:
    -O profile_pe_th           -O profile_pe.th       
    -O profile_th_pe           -O profile+src         
    -O load_balance            -O callers             
    -O callers+src             -O calltree            
    -O calltree+src        

  The Function value for Time is the max of the Thread values.
    (To specify different aggregations, see: pat_help report options s1)

  This table shows only lines with Time% > 0.

  Imbalance percentages are relative to a set of threads or PEs.
  Other percentages at each level are of the Total for the program.
    (For percentages relative to next level up, specify:
      -s percent=r[elative])

Table 2:  Profile of maximum function times

  Time% |      Time |     Imb. |  Imb. | Function
        |           |     Time | Time% |  Thread=HIDE
|-----------------------------------------------------------------------------
| 100.0% | 12.772780 |       -- |    -- | void read_custom<>
|  33.4% |  4.263847 |       -- |    -- | void csc2blkcoord<>
|  21.6% |  2.760604 |       -- |    -- | main
|  17.6% |  2.251290 |       -- |    -- | _XTY_v1_exe
|   8.9% |  1.137166 | 0.081774 |  7.7% | cblas_dgemm
|   8.4% |  1.073909 |       -- |    -- | _XY_exe
|   5.0% |  0.633719 |       -- |    -- | updateBlockVector_task_exe
|   4.1% |  0.522905 |       -- |    -- | void spmm_blkcoord_finegrained_exe_fixed_buf<>
|   3.3% |  0.424510 |       -- |    -- | exit
|   2.4% |  0.303180 |       -- |    -- | buildTaskInfoStruct
|   1.7% |  0.217017 |       -- |    -- | getActiveBlockVector_task_exe
|   1.5% |  0.192270 |       -- |    -- | custom_dlacpy_task_exe
|   0.9% |  0.110367 | 0.100838 | 99.7% | __sci_dpotrf2_
|   0.8% |  0.100711 | 0.090496 | 99.8% | dgetrfhva_
|   0.7% |  0.084335 | 0.075552 | 99.5% | inverse
|   0.6% |  0.070995 |       -- |    -- | mat_sub_task_exe
|   0.4% |  0.054172 |       -- |    -- | mat_addition_task_exe
|   0.4% |  0.044931 |       -- |    -- | split
|   0.2% |  0.031117 | 0.027195 | 99.9% | __sci_dsygv_
|   0.2% |  0.029217 | 0.026931 | 99.9% | make_identity_mat
|   0.2% |  0.023412 | 0.021113 | 99.2% | mat_copy
|   0.1% |  0.015813 | 0.001438 |  9.7% | __sci_dgemm_
|   0.1% |  0.015497 |       -- |    -- | sum_sqrt_task_COL
|   0.1% |  0.013002 |       -- |    -- | mat_mult_task_exe
|   0.1% |  0.008842 | 0.001705 | 20.6% | omp_get_thread_num
|   0.0% |  0.005340 |       -- |    -- | _XTY_v1_RED
|   0.0% |  0.003522 |       -- |    -- | omp_get_wtime
|   0.0% |  0.001611 |       -- |    -- | GOMP_parallel
|   0.0% |  0.000811 | 0.000459 | 64.7% | dlartg_ref_
|   0.0% |  0.000145 |       -- |    -- | sum_sqrt_task_RNRED
|   0.0% |  0.000125 | 0.000061 | 56.1% | __sci_dlarfg_
|   0.0% |  0.000122 | 0.000058 | 54.5% | gotoblas_daxpy__haswell
|   0.0% |  0.000098 | 0.000056 | 62.6% | gotoblas_dscal__haswell
|   0.0% |  0.000083 | 0.000021 | 27.4% | omp_get_num_threads
|   0.0% |  0.000077 | 0.000035 | 52.3% | gotoblas_dsyr2__haswell
|   0.0% |  0.000071 | 0.000028 | 44.6% | __sci_dlasr_
|   0.0% |  0.000061 |       -- |    -- | update_activeMask_task_exe
|   0.0% |  0.000060 | 0.000047 | 87.7% | dtrtri_var_a_
|   0.0% |  0.000059 | 0.000026 | 48.9% | gotoblas_dlaswp__haswell
|   0.0% |  0.000047 | 0.000024 | 54.6% | gotoblas_dgemv__haswell
|   0.0% |  0.000046 |       -- |    -- | sum_sqrt_task_SQRT
|   0.0% |  0.000037 | 0.000016 | 49.0% | gotoblas_dsymv__haswell
|   0.0% |  0.000032 | 0.000015 | 55.6% | __sci_dlarf_
|   0.0% |  0.000031 | 0.000015 | 56.3% | gotoblas_dger__haswell
|   0.0% |  0.000027 | 0.000015 | 64.4% | diag
|   0.0% |  0.000023 | 0.000015 | 71.1% | dpotrf_var_a_
|   0.0% |  0.000021 | 0.000009 | 50.0% | dsyevref_
|   0.0% |  0.000014 | 0.000011 | 87.1% | __sci_dsygs2_
|   0.0% |  0.000007 | 0.000003 | 59.0% | __sci_dsteqr_
|   0.0% |  0.000006 | 0.000004 | 75.8% | gotoblas_dswap__haswell
|   0.0% |  0.000005 | 0.000002 | 49.5% | __sci_dlansy_
|   0.0% |  0.000003 | 0.000001 | 50.9% | __sci_dsytd2_
|   0.0% |  0.000003 | 0.000001 | 47.6% | __sci_dsygst_
|   0.0% |  0.000002 | 0.000001 | 51.0% | __sci_dsytrd_
|   0.0% |  0.000002 | 0.000001 | 42.8% | __sci_dorgtr_
|   0.0% |  0.000002 |       -- |    -- | zarpm_haswell
|   0.0% |  0.000001 | 0.000001 | 59.2% | __sci_dlanst_
|=============================================================================

Notes for table 3:

  Table option:
    -O load_imbalance_thread
  Options implied by table option:
    -d max_ti,imb_ti,imb_ti% -b th
  Other options:
    -T 


  Imbalance percentages are relative to a set of threads or PEs.

Table 3:  Load Imbalance by Thread

 Max. Time | Imb. Time |  Imb. | Thread
           |           | Time% | 
          
 25.826565 | 23.123368 | 95.5% | Total
|-----------------------------------------
| 25.826565 |        -- |    -- | thread.0
|  1.429414 |        -- |    -- | thread.3
|  1.168589 |        -- |    -- | thread.6
|  1.161905 |        -- |    -- | thread.4
|  1.149745 |        -- |    -- | thread.9
|  1.141557 |        -- |    -- | thread.13
|  1.141248 |        -- |    -- | thread.7
|  1.140449 |        -- |    -- | thread.11
|  1.140242 |        -- |    -- | thread.12
|  1.139306 |        -- |    -- | thread.15
|  1.137604 |        -- |    -- | thread.2
|  1.136663 |        -- |    -- | thread.8
|  1.136080 |        -- |    -- | thread.10
|  1.135118 |        -- |    -- | thread.5
|  1.134881 |        -- |    -- | thread.14
|  1.131783 |        -- |    -- | thread.1
|=========================================

Notes for table 4:

  Table option:
    -O profile+hwpc
  Options implied by table option:
    -d ti%@0.95,ti,imb_ti,imb_ti%,tr,P -b gr,fu,th=HIDE
  Other options:
    -T 

  Options for related tables:
    -O profile_pe.th           -O profile_th_pe       
    -O profile+src             -O profile_max         
    -O load_balance            -O callers             
    -O callers+src             -O calltree            
    -O calltree+src        

  The Total value for each data item is the sum of the Group values.
  The Group value for each data item is the sum of the Function values.
  The Function value for each data item is the value for the main thread only.
    (If the main thread is atypical, try the option -s aggr_th=sum.)
    (To specify different aggregations, see: pat_help report options s1)

  This table shows only lines with Time% > 0.

  Imbalance percentages are relative to a set of threads or PEs.
  Other percentages at each level are of the Total for the program.
    (For percentages relative to next level up, specify:
      -s percent=r[elative])

Table 4:  Profile by Function Group and Function

Group / Function / Thread=HIDE

  
==============================================================================
  Total
------------------------------------------------------------------------------
  Time%                                        100.0% 
  Time                                      25.826377 secs
  Imb. Time                                        -- secs
  Imb. Time%                                       -- 
  Calls                   0.014M/sec        364,193.0 calls
  PAPI_L1_DCM             0.030G/sec  764,067,632.000 misses
  PAPI_L2_DCM             0.013G/sec  335,242,960.000 misses
  PAPI_L3_TCM             0.401M/sec   10,354,971.000 misses
  Average Time per Call                      0.000071 secs
  CrayPat Overhead : Time  2.2%                       
==============================================================================
  USER
------------------------------------------------------------------------------
  Time%                                         99.3% 
  Time                                      25.649438 secs
  Imb. Time                                        -- secs
  Imb. Time%                                       -- 
  Calls                   0.014M/sec        361,548.0 calls
  PAPI_L1_DCM             0.029G/sec  751,399,490.000 misses
  PAPI_L2_DCM             0.013G/sec  330,370,208.000 misses
  PAPI_L3_TCM             0.364M/sec    9,346,425.000 misses
  Average Time per Call                      0.000071 secs
  CrayPat Overhead : Time  2.2%                       
==============================================================================
  USER / void read_custom<>
------------------------------------------------------------------------------
  Time%                                         49.5% 
  Time                                      12.772780 secs
  Imb. Time                                        -- secs
  Imb. Time%                                       -- 
  Calls                   0.078 /sec              1.0 calls
  PAPI_L1_DCM             0.001G/sec   18,252,605.000 misses
  PAPI_L2_DCM             0.132M/sec    1,685,683.000 misses
  PAPI_L3_TCM           245.600 /sec        3,137.000 misses
  Average Time per Call                     12.772780 secs
  CrayPat Overhead : Time  0.0%                       
==============================================================================
  USER / void csc2blkcoord<>
------------------------------------------------------------------------------
  Time%                                         16.5% 
  Time                                       4.263847 secs
  Imb. Time                                        -- secs
  Imb. Time%                                       -- 
  Calls                   0.235 /sec              1.0 calls
  PAPI_L1_DCM             0.027G/sec  113,257,750.000 misses
  PAPI_L2_DCM             0.003G/sec   11,369,984.000 misses
  PAPI_L3_TCM             0.964M/sec    4,111,249.000 misses
  Average Time per Call                      4.263847 secs
  CrayPat Overhead : Time  0.0%                       
==============================================================================
  USER / main
------------------------------------------------------------------------------
  Time%                                         10.7% 
  Time                                       2.760604 secs
  Imb. Time                                        -- secs
  Imb. Time%                                       -- 
  Calls                   0.362 /sec              1.0 calls
  PAPI_L1_DCM             0.012G/sec   32,523,764.000 misses
  PAPI_L2_DCM             0.004G/sec   10,406,403.000 misses
  PAPI_L3_TCM             0.547M/sec    1,509,541.000 misses
  Average Time per Call                      2.760604 secs
  CrayPat Overhead : Time  0.0%                       
==============================================================================
  USER / _XTY_v1_exe
------------------------------------------------------------------------------
  Time%                                          8.7% 
  Time                                       2.251290 secs
  Imb. Time                                        -- secs
  Imb. Time%                                       -- 
  Calls                   0.021M/sec         47,328.0 calls
  PAPI_L1_DCM             0.112G/sec  252,305,511.000 misses
  PAPI_L2_DCM             0.078G/sec  175,752,846.000 misses
  PAPI_L3_TCM             0.552M/sec    1,242,923.000 misses
  Average Time per Call                      0.000048 secs
  CrayPat Overhead : Time  3.2%                       
==============================================================================
  USER / _XY_exe
------------------------------------------------------------------------------
  Time%                                          4.2% 
  Time                                       1.073909 secs
  Imb. Time                                        -- secs
  Imb. Time%                                       -- 
  Calls                   0.050M/sec         53,737.0 calls
  PAPI_L1_DCM             0.161G/sec  173,422,924.000 misses
  PAPI_L2_DCM             0.059G/sec   63,382,960.000 misses
  PAPI_L3_TCM             0.470M/sec      505,068.000 misses
  Average Time per Call                      0.000020 secs
  CrayPat Overhead : Time  7.6%                       
==============================================================================
  USER / updateBlockVector_task_exe
------------------------------------------------------------------------------
  Time%                                          2.5% 
  Time                                       0.633719 secs
  Imb. Time                                        -- secs
  Imb. Time%                                       -- 
  Calls                   0.022M/sec         13,804.0 calls
  PAPI_L1_DCM             0.130G/sec   82,572,661.000 misses
  PAPI_L2_DCM             0.079G/sec   50,232,773.000 misses
  PAPI_L3_TCM             0.660M/sec      418,285.000 misses
  Average Time per Call                      0.000046 secs
  CrayPat Overhead : Time  3.3%                       
==============================================================================
  USER / void spmm_blkcoord_finegrained_exe_fixed_buf<>
------------------------------------------------------------------------------
  Time%                                           2.0% 
  Time                                        0.522905 secs
  Imb. Time                                         -- secs
  Imb. Time%                                        -- 
  Calls                    0.213M/sec        111,166.0 calls
  PAPI_L1_DCM              0.016G/sec    8,602,698.000 misses
  PAPI_L2_DCM              0.005G/sec    2,586,534.000 misses
  PAPI_L3_TCM              0.001G/sec      542,944.000 misses
  Average Time per Call                       0.000005 secs
  CrayPat Overhead : Time  32.5%                       
==============================================================================
  USER / exit
------------------------------------------------------------------------------
  Time%                                           1.6% 
  Time                                        0.424510 secs
  Imb. Time                                         -- secs
  Imb. Time%                                        -- 
  Calls                    2.356 /sec              1.0 calls
  PAPI_L1_DCM              0.006M/sec        2,406.000 misses
  PAPI_L2_DCM              0.005M/sec        2,060.000 misses
  PAPI_L3_TCM              0.003M/sec        1,330.000 misses
  Average Time per Call                       0.424510 secs
  CrayPat Overhead : Time   0.0%                       
==============================================================================
  USER / buildTaskInfoStruct
------------------------------------------------------------------------------
  Time%                                           1.2% 
  Time                                        0.303180 secs
  Imb. Time                                         -- secs
  Imb. Time%                                        -- 
  Calls                    9.895 /sec              3.0 calls
  PAPI_L1_DCM              0.002G/sec      555,478.000 misses
  PAPI_L2_DCM              0.071M/sec       21,640.000 misses
  PAPI_L3_TCM              0.007M/sec        2,259.000 misses
  Average Time per Call                       0.101060 secs
  CrayPat Overhead : Time   0.0%                       
==============================================================================
  USER / getActiveBlockVector_task_exe
------------------------------------------------------------------------------
  Time%                                           0.8% 
  Time                                        0.217017 secs
  Imb. Time                                         -- secs
  Imb. Time%                                        -- 
  Calls                    0.064M/sec         13,804.0 calls
  PAPI_L1_DCM              0.156G/sec   33,762,488.000 misses
  PAPI_L2_DCM              0.049G/sec   10,628,511.000 misses
  PAPI_L3_TCM              0.002G/sec      421,839.000 misses
  Average Time per Call                       0.000016 secs
  CrayPat Overhead : Time   9.7%                       
==============================================================================
  USER / custom_dlacpy_task_exe
------------------------------------------------------------------------------
  Time%                                           0.7% 
  Time                                        0.192270 secs
  Imb. Time                                         -- secs
  Imb. Time%                                        -- 
  Calls                    0.079M/sec         15,283.0 calls
  PAPI_L1_DCM              0.131G/sec   25,095,995.000 misses
  PAPI_L2_DCM              0.012G/sec    2,283,751.000 misses
  PAPI_L3_TCM              0.001G/sec      234,552.000 misses
  Average Time per Call                       0.000013 secs
  CrayPat Overhead : Time  12.1%                       
==============================================================================
  USER / mat_sub_task_exe
------------------------------------------------------------------------------
  Time%                                           0.3% 
  Time                                        0.070995 secs
  Imb. Time                                         -- secs
  Imb. Time%                                        -- 
  Calls                    0.139M/sec          9,860.0 calls
  PAPI_L1_DCM              0.112G/sec    7,940,666.000 misses
  PAPI_L2_DCM              0.014G/sec    1,024,509.000 misses
  PAPI_L3_TCM              0.947M/sec       67,221.000 misses
  Average Time per Call                       0.000007 secs
  CrayPat Overhead : Time  21.2%                       
==============================================================================
  USER / mat_addition_task_exe
------------------------------------------------------------------------------
  Time%                                           0.2% 
  Time                                        0.054172 secs
  Imb. Time                                         -- secs
  Imb. Time%                                        -- 
  Calls                    0.346M/sec         18,734.0 calls
  PAPI_L1_DCM              0.031G/sec    1,698,009.000 misses
  PAPI_L2_DCM              0.009G/sec      508,113.000 misses
  PAPI_L3_TCM              0.003G/sec      136,680.000 misses
  Average Time per Call                       0.000003 secs
  CrayPat Overhead : Time  52.8%                       
==============================================================================
  USER / split
------------------------------------------------------------------------------
  Time%                                            0.2% 
  Time                                         0.044931 secs
  Imb. Time                                          -- secs
  Imb. Time%                                         -- 
  Calls                     0.002G/sec         67,837.0 calls
  PAPI_L1_DCM               0.010G/sec      463,901.000 misses
  PAPI_L2_DCM               0.926M/sec       41,617.000 misses
  PAPI_L3_TCM               0.006M/sec          284.000 misses
  Average Time per Call                        0.000001 secs
  CrayPat Overhead : Time  230.5%                       
==============================================================================
  USER / make_identity_mat
------------------------------------------------------------------------------
  Time%                                            0.1% 
  Time                                         0.029217 secs
  Imb. Time                                    0.026931 secs
  Imb. Time%                                      99.9% 
  Calls                    68.453 /sec              2.0 calls
  PAPI_L1_DCM               0.018M/sec          525.000 misses
  PAPI_L2_DCM               0.010M/sec          293.000 misses
  PAPI_L3_TCM               0.001M/sec           35.000 misses
  Average Time per Call                        0.014609 secs
  CrayPat Overhead : Time    0.0%                       
==============================================================================
  USER / sum_sqrt_task_COL
------------------------------------------------------------------------------
  Time%                                            0.1% 
  Time                                         0.015497 secs
  Imb. Time                                          -- secs
  Imb. Time%                                         -- 
  Calls                     0.318M/sec          4,930.0 calls
  PAPI_L1_DCM               0.023G/sec      352,720.000 misses
  PAPI_L2_DCM               0.009G/sec      136,865.000 misses
  PAPI_L3_TCM               0.002G/sec       23,364.000 misses
  Average Time per Call                        0.000003 secs
  CrayPat Overhead : Time   48.6%                       
==============================================================================
  USER / mat_mult_task_exe
------------------------------------------------------------------------------
  Time%                                            0.1% 
  Time                                         0.013002 secs
  Imb. Time                                          -- secs
  Imb. Time%                                         -- 
  Calls                     0.379M/sec          4,930.0 calls
  PAPI_L1_DCM               0.029G/sec      378,943.000 misses
  PAPI_L2_DCM               0.011G/sec      148,421.000 misses
  PAPI_L3_TCM               0.001G/sec       16,773.000 misses
  Average Time per Call                        0.000003 secs
  CrayPat Overhead : Time   57.9%                       
==============================================================================
  USER / _XTY_v1_RED
------------------------------------------------------------------------------
  Time%                                            0.0% 
  Time                                         0.005340 secs
  Imb. Time                                          -- secs
  Imb. Time%                                         -- 
  Calls                     0.018M/sec             96.0 calls
  PAPI_L1_DCM               0.038G/sec      205,519.000 misses
  PAPI_L2_DCM               0.029G/sec      155,054.000 misses
  PAPI_L3_TCM               0.020G/sec      107,899.000 misses
  Average Time per Call                        0.000056 secs
  CrayPat Overhead : Time    2.7%                       
==============================================================================
  USER / sum_sqrt_task_RNRED
------------------------------------------------------------------------------
  Time%                                            0.0% 
  Time                                         0.000145 secs
  Imb. Time                                          -- secs
  Imb. Time%                                         -- 
  Calls                     0.069M/sec             10.0 calls
  PAPI_L1_DCM               0.019G/sec        2,688.000 misses
  PAPI_L2_DCM               0.010G/sec        1,420.000 misses
  PAPI_L3_TCM               0.005G/sec          723.000 misses
  Average Time per Call                        0.000015 secs
  CrayPat Overhead : Time   10.5%                       
==============================================================================
  USER / update_activeMask_task_exe
------------------------------------------------------------------------------
  Time%                                            0.0% 
  Time                                         0.000061 secs
  Imb. Time                                          -- secs
  Imb. Time%                                         -- 
  Calls                     0.163M/sec             10.0 calls
  PAPI_L1_DCM               0.020G/sec        1,220.000 misses
  PAPI_L2_DCM               0.007G/sec          414.000 misses
  PAPI_L3_TCM               0.003G/sec          212.000 misses
  Average Time per Call                        0.000006 secs
  CrayPat Overhead : Time   24.8%                       
==============================================================================
  USER / sum_sqrt_task_SQRT
------------------------------------------------------------------------------
  Time%                                            0.0% 
  Time                                         0.000046 secs
  Imb. Time                                          -- secs
  Imb. Time%                                         -- 
  Calls                     0.219M/sec             10.0 calls
  PAPI_L1_DCM               0.022G/sec        1,019.000 misses
  PAPI_L2_DCM               0.008G/sec          357.000 misses
  PAPI_L3_TCM               0.002G/sec          107.000 misses
  Average Time per Call                        0.000005 secs
  CrayPat Overhead : Time   33.4%                       
==============================================================================
==============================================================================
  ETC
------------------------------------------------------------------------------
  Time%                                            0.7% 
  Time                                         0.169393 secs
  Imb. Time                                          -- secs
  Imb. Time%                                         -- 
  Calls                     0.005M/sec            806.0 calls
  PAPI_L1_DCM               0.074G/sec   12,568,932.000 misses
  PAPI_L2_DCM               0.029G/sec    4,836,056.000 misses
  PAPI_L3_TCM               0.006G/sec    1,002,878.000 misses
  Average Time per Call                        0.000210 secs
  CrayPat Overhead : Time    0.7%                       
==============================================================================
  ETC / cblas_dgemm
------------------------------------------------------------------------------
  Time%                                            0.6% 
  Time                                         0.167782 secs
  Imb. Time                                    0.081774 secs
  Imb. Time%                                       7.7% 
  Calls                     0.005M/sec            791.0 calls
  PAPI_L1_DCM               0.075G/sec   12,566,446.000 misses
  PAPI_L2_DCM               0.029G/sec    4,834,568.000 misses
  PAPI_L3_TCM               0.006G/sec    1,002,369.000 misses
  Average Time per Call                        0.000212 secs
  CrayPat Overhead : Time    0.7%                       
==============================================================================
  ETC / GOMP_parallel
------------------------------------------------------------------------------
  Time%                                            0.0% 
  Time                                         0.001611 secs
  Imb. Time                                          -- secs
  Imb. Time%                                         -- 
  Calls                     0.009M/sec             15.0 calls
  PAPI_L1_DCM               0.002G/sec        2,486.000 misses
  PAPI_L2_DCM               0.924M/sec        1,488.000 misses
  PAPI_L3_TCM               0.316M/sec          509.000 misses
  Average Time per Call                        0.000107 secs
  CrayPat Overhead : Time    1.4%                       
==============================================================================
==============================================================================
  OMP
------------------------------------------------------------------------------
  Time%                                            0.0% 
  Time                                         0.005470 secs
  Imb. Time                                          -- secs
  Imb. Time%                                         -- 
  Calls                     0.110M/sec            600.0 calls
  PAPI_L1_DCM               0.007G/sec       39,933.000 misses
  PAPI_L2_DCM               0.005G/sec       25,620.000 misses
  PAPI_L3_TCM               0.901M/sec        4,931.000 misses
  Average Time per Call                        0.000009 secs
  CrayPat Overhead : Time   16.7%                       
==============================================================================
  OMP / omp_get_wtime
------------------------------------------------------------------------------
  Time%                                            0.0% 
  Time                                         0.003522 secs
  Imb. Time                                          -- secs
  Imb. Time%                                         -- 
  Calls                     0.006M/sec             20.0 calls
  PAPI_L1_DCM               0.351M/sec        1,235.000 misses
  PAPI_L2_DCM               0.264M/sec          930.000 misses
  PAPI_L3_TCM               0.452M/sec        1,593.000 misses
  Average Time per Call                        0.000176 secs
  CrayPat Overhead : Time    0.9%                       
==============================================================================
  OMP / omp_get_thread_num
------------------------------------------------------------------------------
  Time%                                            0.0% 
  Time                                         0.001890 secs
  Imb. Time                                    0.001705 secs
  Imb. Time%                                      20.6% 
  Calls                     0.304M/sec            575.0 calls
  PAPI_L1_DCM               0.020G/sec       38,308.000 misses
  PAPI_L2_DCM               0.013G/sec       24,424.000 misses
  PAPI_L3_TCM               0.002G/sec        3,113.000 misses
  Average Time per Call                        0.000003 secs
  CrayPat Overhead : Time   46.5%                       
==============================================================================
  OMP / omp_get_num_threads
------------------------------------------------------------------------------
  Time%                                            0.0% 
  Time                                         0.000059 secs
  Imb. Time                                    0.000021 secs
  Imb. Time%                                      27.4% 
  Calls                     0.085M/sec              5.0 calls
  PAPI_L1_DCM               0.007G/sec          390.000 misses
  PAPI_L2_DCM               0.005G/sec          266.000 misses
  PAPI_L3_TCM               0.004G/sec          225.000 misses
  Average Time per Call                        0.000012 secs
  CrayPat Overhead : Time   13.0%                       
==============================================================================
==============================================================================
  BLAS
------------------------------------------------------------------------------
  Time%                                            0.0% 
  Time                                         0.002076 secs
  Imb. Time                                          -- secs
  Imb. Time%                                         -- 
  Calls                     0.597M/sec          1,239.0 calls
  PAPI_L1_DCM               0.029G/sec       59,277.000 misses
  PAPI_L2_DCM               0.005G/sec       11,076.000 misses
  PAPI_L3_TCM               0.355M/sec          737.000 misses
  Average Time per Call                        0.000002 secs
  CrayPat Overhead : Time   91.1%                       
==============================================================================
  BLAS / __sci_dgemm_
------------------------------------------------------------------------------
  Time%                                            0.0% 
  Time                                         0.002076 secs
  Imb. Time                                    0.001438 secs
  Imb. Time%                                       9.7% 
  Calls                     0.597M/sec          1,239.0 calls
  PAPI_L1_DCM               0.029G/sec       59,277.000 misses
  PAPI_L2_DCM               0.005G/sec       11,076.000 misses
  PAPI_L3_TCM               0.355M/sec          737.000 misses
  Average Time per Call                        0.000002 secs
  CrayPat Overhead : Time   91.1%                       
==============================================================================

Notes for table 5:

  Table option:
    -O program_energy
  Options implied by table option:
    -d PM_ENERGY_NODE,Pn,PM_ENERGY_ACC,Pa,pt -b th=HIDE -s
    aggr_ni_PM_ENERGY_ACC=sum -s aggr_ni_PM_ENERGY_NODE=sum
  Other options:
    -T 

  The Total value for Node Energy (J), Process Time is the value for the main thread only.
    (If the main thread is atypical, try the option -s aggr_th=sum.)
    (To specify different aggregations, see: pat_help report options s1)


Table 5:  Program energy and power usage (from Cray PM)

   Node |     Node |   Process | Thread=HIDE
 Energy |    Power |      Time | 
    (J) |      (W) |           | 
       
  3,695 |  138.414 | 26.695304 | Thread.0 value

Notes for table 6:

  Table option:
    -O mem_bw
  Options implied by table option:
    -d
    Mem_Traffic,Mem_Traffic_Local,Mem_Traffic_Remote,tt,Mem_Traffic_rate -b nn -s aggr_nn=avg -s aggr_pe=sum -s aggr_pe_tB=avg -s aggr_pe_tE=avg -s aggr_pe_uB=avg -s aggr_pe_uE=avg -s mem_bw=0.05 -s sort_by_nn=yes
  Other options:
    -T 

  The Total value for Thread Time is the avg of the Numanode values.
    (To specify different aggregations, see: pat_help report options s1)


Table 6:  Memory Bandwidth by Numanode

     Thread | Numanode
       Time | 
           
 160.920028 | Avg of Numanode values
|-----------------------------------
| 160.920028 | numanode.0
|===================================

Notes for table 7:

  Table option:
    -O program_time
  Options implied by table option:
    -d pt,hm -b th
  Other options:
    -T 

  The Total value for Process HiMem (MBytes), Process Time is the value for the main thread only.
    (If the main thread is atypical, try the option -s aggr_th=sum.)
    (To specify different aggregations, see: pat_help report options s1)

  The value shown for Process HiMem is calculated from information in
  the /proc/self/numa_maps files captured near the end of the program. 
  It is the total size of all pages, including huge pages, that were
  actually mapped into physical memory from both private and shared
  memory segments.


Table 7:  Wall Clock Time, Memory High Water Mark

   Process |  Process | Thread
      Time |    HiMem | 
           | (MBytes) | 
          
 26.695304 |  5,269.4 | Thread.0 value
|-------------------------------------
| 26.695304 |  5,269.4 | thread.0
|=====================================

========================  Additional details  ========================

Experiment:  trace

Original path to data file:
  /global/cscratch1/sd/afibuzza/deepsparse_autotune_haswell/lobpcg_executioner_v9_vtune.pat+39288-35t/xf-files   (RTS)

Original program:
  /global/cscratch1/sd/afibuzza/deepsparse_autotune_haswell/exe_cp_gnu/lobpcg_executioner_v9_vtune.x

Instrumented with:
  pat_build -g omp,blas -u -o \
    exe_cp_gnu/lobpcg_executioner_v9_vtune.pat -f \
    exe_cp_gnu/lobpcg_executioner_v9_vtune.x

Instrumented program:
  /global/cscratch1/sd/afibuzza/deepsparse_autotune_haswell/./exe_cp_gnu/lobpcg_executioner_v9_vtune.pat

Program invocation:
  /global/cscratch1/sd/afibuzza/deepsparse_autotune_haswell/./exe_cp_gnu/lobpcg_executioner_v9_vtune.pat 8 4096 ../deepsparse_autotune/HV15R.cus global_graph/HV15R/HV15R_4k_nonloop_globalgraph_taskinfo.txt ...

Exit Status:  0 for 1 PE

Thread start functions and creator functions:
     1 thread:  main
    15 threads:  gomp_thread_start <- gomp_team_start

Memory pagesize:  4 KiB

Memory hugepagesize:  Not Available

Programming environment:  GNU

Runtime environment variables:
  ATP_HOME=/opt/cray/pe/atp/2.1.3
  ATP_IGNORE_SIGTERM=1
  ATP_MRNET_COMM_PATH=/opt/cray/pe/atp/2.1.3/libexec/atp_mrnet_commnode_wrapper
  ATP_POST_LINK_OPTS=-Wl,-L/opt/cray/pe/atp/2.1.3/libApp/ 
  CRAYPE_VERSION=2.5.15
  CRAY_LIBSCI_VERSION=18.07.1
  DVS_VERSION=0.9.0
  GCC_VERSION=7.3.0
  GNU_VERSION=7.3.0
  LIBSCI_VERSION=18.07.1
  MODULE_VERSION=3.2.10.6
  MODULE_VERSION_STACK=3.2.10.6
  MPICH_ABORT_ON_ERROR=1
  MPICH_DIR=/opt/cray/pe/mpt/7.7.3/gni/mpich-gnu/7.1
  MPICH_MPIIO_DVS_MAXNODES=32
  OMP_NUM_THREADS=16
  PATH=/opt/cray/pe/perftools/7.0.0/bin:/opt/cray/pe/papi/5.5.1.4/bin:/opt/cray/rca/2.2.18-6.0.7.0_33.3__g2aa4f39.ari/bin:/opt/cray/alps/6.6.43-6.0.7.0_26.4__ga796da3.ari/sbin:/opt/cray/job/2.2.3-6.0.7.0_44.1__g6c4e934.ari/bin:/usr/common/software/altd/2.0/bin:/usr/common/software/bin:/usr/common/mss/bin:/usr/common/nsg/bin:/opt/cray/pe/mpt/7.7.3/gni/bin:/opt/cray/pe/craype/2.5.15/bin:/opt/gcc/7.3.0/bin:/opt/ovis/bin:/opt/ovis/sbin:/usr/syscom/nsg/sbin:/usr/syscom/nsg/bin:/opt/cray/pe/modules/3.2.10.6/bin:/usr/local/bin:/usr/bin:/bin:/usr/bin/X11:/usr/games:/usr/lib/mit/bin:/usr/lib/mit/sbin:/opt/cray/pe/bin
  PAT_BUILD_PAPI_BASEDIR=/opt/cray/pe/papi/5.5.1.4
  PAT_REPORT_PRUNE_NAME=_cray$mt_execute_,_cray$mt_start_,__cray_hwpc_,f_cray_hwpc_,cstart,__pat_,pat_region_,PAT_,OMP.slave_loop,slave_entry,_new_slave_entry,THREAD_POOL_join,__libc_start_main,_start,__start,start_thread,__wrap_,UPC_ADIO_,_upc_,upc_,__caf_,__pgas_,syscall,__device_stub
  PAT_RT_PERFCTR=PAPI_L1_DCM,PAPI_L2_DCM,PAPI_L3_TCM
  PERFTOOLS_VERSION=7.0.0
  PMI_CONTROL_PORT=63531
  PMI_CRAY_NO_SMP_ORDER=0
  PMI_NO_FORK=1

Report time environment variables:
    CRAYPAT_ROOT=/opt/cray/pe/perftools/7.0.0
    PAT_REPORT_PRUNE_NAME=_cray$mt_execute_,_cray$mt_start_,__cray_hwpc_,f_cray_hwpc_,cstart,__pat_,pat_region_,PAT_,OMP.slave_loop,slave_entry,_new_slave_entry,THREAD_POOL_join,__libc_start_main,_start,__start,start_thread,__wrap_,UPC_ADIO_,_upc_,upc_,__caf_,__pgas_,syscall,__device_stub

Number of MPI control variables collected:  0

  (To see the list, specify: -s mpi_cvar=show)

Report command line options:  -T

Operating system:
  Linux 4.4.103-6.38_4.0.153-cray_ari_c #1 SMP Thu Nov 1 16:05:05 UTC 2018 (6ef8fef)

Hardware performance counter events:
   PAPI_L1_DCM  Level 1 data cache misses
   PAPI_L2_DCM  Level 2 data cache misses
   PAPI_L3_TCM  Level 3 cache misses

Estimated minimum instrumentation overhead per call of a traced function,
  which was subtracted from the data shown in this report
  (for raw data, use the option:  -s overhead=include):
    Time  1.527  microsecs

Number of traced functions that were called:  36

  (To see the list, specify:  -s traced_functions=show)

