800
0
32
48
77
101
117
150
182
214
230
262
278
310
342
358
374
390
422
438
462
478
510
526
558
590
622
654
670
686
702
734
750
766
798
830
862
894
918
950
982
998
1030
1062
1094
1126
1158
1190
1206
1222
1254
1286
1318
1350
1382
1406
1438
1454
1486
1518
1550
1566
1590
1606
1638
1654
1686
1718
1734
1766
1798
1814
1830
1862
1878
1894
1926
1942
1974
1990
2022
2054
2086
2118
2150
2182
2198
2230
2262
2278
2294
2334
2359
2391
2423
2447
2463
2479
2511
2527
2559
2591
2607
2639
2663
2695
2727
2759
2791
2823
2849
2869
2901
2917
2949
2981
3013
3062
3073
3089
3105
3121
3137
3153
3169
3185
3201
3217
3233
3249
3265
3281
3297
3313
3329
3345
3361
3377
3393
3409
3425
3441
3457
3473
3489
3505
3521
3537
3553
3569
3585
3601
3617
3633
3649
3665
3689
3705
3721
3737
3753
3769
3785
3801
3817
3833
3857
3873
3889
3905
3921
3937
3953
3969
3985
4001
4017
4027
4052
4084
4100
4132
4164
4196
4212
4244
4260
4292
4308
4340
4372
4404
4436
4468
4484
4516
4548
4564
4580
4612
4644
4676
4692
4724
4756
4788
4820
4852
4884
4916
4948
4980
5012
5044
5076
5092
5124
5156
5180
5196
5228
5260
5292
5324
5356
5388
5420
5452
5476
5508
5524
5556
5588
5604
5636
5668
5691
5731
5755
5780
5798
5814
5830
5846
5862
5936
5952
5968
5984
6032
6048
6064
6080
6096
6166
6183
6208
6240
6258
6262
6284
6321
6371
6403
6424
6502
6510
6518
6579
6643
6696
6785
6846
6862
6961
7015
7084
7093
7133
7149
7222
7292
7338
7354
7429
7480
7556
7580
7644
7684
7715
7729
7825
7888
7903
7919
7957
7976
8050
8149
8209
8221
8267
8299
8340
8380
8417
8433
8518
8562
8578
8649
8728
8744
8790
8803
8858
8885
8907
8915
8940
8968
8998
9012
9034
9068
9084
9116
9158
9175
9231
9247
9313
9347
9381
9389
9490
9499
9507
9523
9580
9634
9650
9731
9758
9774
9864
9872
9891
9977
9997
10019
10035
10140
10151
10167
10183
10199
10223
10258
10324
10350
10396
10415
10432
10472
10518
10604
10610
10622
10645
10723
10763
10846
10866
10877
10915
10933
11016
11029
11043
11098
11120
11136
11264
11276
11290
11352
11375
11396
11427
11498
11542
11550
11577
11588
11624
11628
11638
11667
11689
11729
11742
11782
11833
11869
11925
11951
11970
12001
12019
12048
12082
12094
12118
12146
12155
12239
12285
12326
12355
12392
12414
12483
12591
12606
12704
12718
12734
12828
12858
12896
12920
12935
12975
12982
13013
13075
13100
13118
13168
13207
13241
13257
13302
13353
13360
13404
13475
13525
13534
13581
13622
13640
13692
13723
13739
13795
13809
13843
13923
13934
13953
13988
14016
14055
14107
14157
14178
14210
14225
14282
14293
14305
14314
14350
14369
14391
14410
14462
14484
14522
14550
14583
14597
14635
14713
14747
14765
14839
14845
14856
14938
14968
14984
15006
15080
15086
15089
15120
15160
15166
15206
15256
15289
15350
15369
15387
15403
15411
15450
15476
15499
15519
15535
15589
15638
15659
15689
15710
15728
15760
15789
15799
15861
15887
15948
16000
16009
16057
16081
16086
16126
16161
16169
16201
16216
16234
16242
16251
16282
16323
16334
16384
16441
16462
16502
16533
16571
16617
16639
16685
16694
16699
16722
16745
16771
16850
16866
16886
16924
16932
16987
17003
17019
17070
17110
17152
17165
17245
17260
17276
17305
17350
17355
17393
17417
17457
17512
17555
17581
17604
17645
17649
17703
17748
17784
17796
17833
17873
17894
17908
17935
17963
17990
18001
18026
18053
18066
18170
18178
18235
18247
18263
18279
18294
18331
18340
18371
18422
18442
18480
18491
18502
18520
18528
18544
18560
18576
18592
18608
18624
18640
18656
18672
18688
18704
18720
18736
18752
18765
18775
18791
18807
18823
18839
18855
18871
18887
18903
18919
18935
18951
18967
18983
18999
19015
19031
19047
19063
19079
19095
19111
19127
19143
19159
19175
19191
19207
19223
19239
19255
19271
19287
19303
19319
19335
19351
19367
19383
19399
19415
19431
19447
19463
19479
19495
19511
19527
19543
19567
19583
19599
19615
19631
19647
19663
19679
19695
19711
19727
19743
19759
19775
19791
19799
19815
19831
19847
19863
19879
19895
19911
19927
19943
19959
19975
19983
19999
20015
20031
20047
20063
20079
20095
20111
20127
20143
20159
20175
20191
20207
20223
20239
20255
20271
20287
20303
20319
20335
20351
20367
20383
20399
20415
20431
20447
20463
20479
20495
20511
20527
20543
20559
20575
20591
20607
20623
20639
20655
20671
20687
20703
20719
20727
20743
20759
20775
20791
20807
20823
20839
20855
20871
20887
20903
20919
20935
20951
20967
20983
20999
21015
21031
21047
21063
21071
21087
21103
21119
21135
21151
21175
21191
21207
21223
21239
21255
21271
21287
21303
21319
21335
21351
21367
21383
21399
21423
21436
21446
21462
