483
22,0,1,_lambda,-1,0,0
22,0,1,_X,-1,0,0
22,0,1,_AX,-1,0,0
22,0,1,_X,-1,0,0
22,0,1,_AX,-1,0,0
22,0,1,_X,-1,0,0
22,0,1,_AX,-1,0,0
22,0,1,_X,-1,0,0
22,0,1,_AX,-1,0,0
22,0,1,_X,-1,0,0
22,0,1,_AX,-1,0,0
22,0,1,_X,-1,0,0
22,0,1,_AX,-1,0,0
22,0,1,_X,-1,0,0
22,0,1,_AX,-1,0,0
22,0,1,_X,-1,0,0
22,0,1,_AX,-1,0,0
22,0,1,_X,-1,0,0
22,0,1,_AX,-1,0,0
22,0,1,_X,-1,0,0
22,0,1,_AX,-1,0,0
22,0,1,_X,-1,0,0
22,0,1,_AX,-1,0,0
22,0,1,_X,-1,0,0
22,0,1,_AX,-1,0,0
22,0,1,_X,-1,0,0
22,0,1,_AX,-1,0,0
22,0,1,_X,-1,0,0
22,0,1,_AX,-1,0,0
22,0,1,_X,-1,0,0
22,0,1,_AX,-1,0,0
22,0,1,_X,-1,0,0
22,0,1,_AX,-1,0,0
5,1,0,0,1,0,0
5,1,1,0,1,0,0
5,1,2,0,1,0,0
5,1,3,0,1,0,0
5,1,4,0,1,0,0
5,1,5,0,1,0,0
5,1,6,0,1,0,0
5,1,7,0,1,0,0
5,1,8,0,1,0,0
5,1,9,0,1,0,0
5,1,10,0,1,0,0
5,1,11,0,1,0,0
5,1,12,0,1,0,0
5,1,13,0,1,0,0
5,1,14,0,1,0,0
5,1,15,0,1,0,0
9,1,0,0,1,0,0
9,1,1,0,1,0,0
9,1,2,0,1,0,0
9,1,3,0,1,0,0
9,1,4,0,1,0,0
9,1,5,0,1,0,0
9,1,6,0,1,0,0
9,1,7,0,1,0,0
9,1,8,0,1,0,0
9,1,9,0,1,0,0
9,1,10,0,1,0,0
9,1,11,0,1,0,0
9,1,12,0,1,0,0
9,1,13,0,1,0,0
9,1,14,0,1,0,0
9,1,15,0,1,0,0
1,0,1,RN,-1,0,0
10,1,0,0,-1,0,0
10,1,1,0,-1,0,0
10,1,2,0,-1,0,0
10,1,3,0,-1,0,0
10,1,4,0,-1,0,0
10,1,5,0,-1,0,0
10,1,6,0,-1,0,0
10,1,7,0,-1,0,0
10,1,8,0,-1,0,0
10,1,9,0,-1,0,0
10,1,10,0,-1,0,0
10,1,11,0,-1,0,0
10,1,12,0,-1,0,0
10,1,13,0,-1,0,0
10,1,14,0,-1,0,0
10,1,15,0,-1,0,0
11,2,0,0,0,-1,0,0
11,2,1,1,0,-1,0,0
11,2,2,2,0,-1,0,0
11,2,3,3,0,-1,0,0
11,2,4,4,0,-1,0,0
11,2,5,5,0,-1,0,0
11,2,6,6,0,-1,0,0
11,2,7,7,0,-1,0,0
11,2,8,8,0,-1,0,0
11,2,9,9,0,-1,0,0
11,2,10,10,0,-1,0,0
11,2,11,11,0,-1,0,0
11,2,12,12,0,-1,0,0
11,2,13,13,0,-1,0,0
11,2,14,14,0,-1,0,0
11,2,15,15,0,-1,0,0
12,0,1,RNBUF,-1,0,0
13,0,1,RN,-1,0,0
1,0,1,actMask,-1,0,0
20,0,1,actMask,-1,0,0
14,1,0,0,1,0,0
14,1,1,0,1,0,0
14,1,2,0,1,0,0
14,1,3,0,1,0,0
14,1,4,0,1,0,0
14,1,5,0,1,0,0
14,1,6,0,1,0,0
14,1,7,0,1,0,0
14,1,8,0,1,0,0
14,1,9,0,1,0,0
14,1,10,0,1,0,0
14,1,11,0,1,0,0
14,1,12,0,1,0,0
14,1,13,0,1,0,0
14,1,14,0,1,0,0
14,1,15,0,1,0,0
3,2,0,0,0,1,0,0
3,2,1,1,0,1,0,0
3,2,2,2,0,1,0,0
3,2,3,3,0,1,0,0
3,2,4,4,0,1,0,0
3,2,5,5,0,1,0,0
3,2,6,6,0,1,0,0
3,2,7,7,0,1,0,0
3,2,8,8,0,1,0,0
3,2,9,9,0,1,0,0
3,2,10,10,0,1,0,0
3,2,11,11,0,1,0,0
3,2,12,12,0,1,0,0
3,2,13,13,0,1,0,0
3,2,14,14,0,1,0,0
3,2,15,15,0,1,0,0
4,1,0,1,temp2BUF,-1,0,0
5,1,0,0,2,0,0
5,1,1,0,2,0,0
5,1,2,0,2,0,0
5,1,3,0,2,0,0
5,1,4,0,2,0,0
5,1,5,0,2,0,0
5,1,6,0,2,0,0
5,1,7,0,2,0,0
5,1,8,0,2,0,0
5,1,9,0,2,0,0
5,1,10,0,2,0,0
5,1,11,0,2,0,0
5,1,12,0,2,0,0
5,1,13,0,2,0,0
5,1,14,0,2,0,0
5,1,15,0,2,0,0
9,1,0,0,2,0,0
9,1,1,0,2,0,0
9,1,2,0,2,0,0
9,1,3,0,2,0,0
9,1,4,0,2,0,0
9,1,5,0,2,0,0
9,1,6,0,2,0,0
9,1,7,0,2,0,0
9,1,8,0,2,0,0
9,1,9,0,2,0,0
9,1,10,0,2,0,0
9,1,11,0,2,0,0
9,1,12,0,2,0,0
9,1,13,0,2,0,0
9,1,14,0,2,0,0
9,1,15,0,2,0,0
3,2,0,0,0,2,0,0
3,2,1,1,0,2,0,0
3,2,2,2,0,2,0,0
3,2,3,3,0,2,0,0
3,2,4,4,0,2,0,0
3,2,5,5,0,2,0,0
3,2,6,6,0,2,0,0
3,2,7,7,0,2,0,0
3,2,8,8,0,2,0,0
3,2,9,9,0,2,0,0
3,2,10,10,0,2,0,0
3,2,11,11,0,2,0,0
3,2,12,12,0,2,0,0
3,2,13,13,0,2,0,0
3,2,14,14,0,2,0,0
3,2,15,15,0,2,0,0
4,1,0,1,RBRBUF,-1,0,0
17,0,1,RBR,-1,0,0
18,0,1,RBR,-1,0,0
5,1,0,0,3,0,0
5,1,1,0,3,0,0
5,1,2,0,3,0,0
5,1,3,0,3,0,0
5,1,4,0,3,0,0
5,1,5,0,3,0,0
5,1,6,0,3,0,0
5,1,7,0,3,0,0
5,1,8,0,3,0,0
5,1,9,0,3,0,0
5,1,10,0,3,0,0
5,1,11,0,3,0,0
5,1,12,0,3,0,0
5,1,13,0,3,0,0
5,1,14,0,3,0,0
5,1,15,0,3,0,0
7,1,0,0,1,0,0
7,1,1,0,1,0,0
7,1,2,0,1,0,0
7,1,3,0,1,0,0
7,1,4,0,1,0,0
7,1,5,0,1,0,0
7,1,6,0,1,0,0
7,1,7,0,1,0,0
7,1,8,0,1,0,0
7,1,9,0,1,0,0
7,1,10,0,1,0,0
7,1,11,0,1,0,0
7,1,12,0,1,0,0
7,1,13,0,1,0,0
7,1,14,0,1,0,0
7,1,15,0,1,0,0
19,1,0,0,1,0,0
2,3,0,0,0,0,-1,0,0
19,1,1,0,1,0,0
2,3,1,0,0,0,-1,0,0
2,3,1,1,0,0,-1,0,0
19,1,2,0,1,0,0
2,3,2,0,0,0,-1,0,0
2,3,2,1,0,0,-1,0,0
2,3,2,2,0,0,-1,0,0
19,1,3,0,1,0,0
2,3,3,0,0,0,-1,0,0
2,3,3,1,0,0,-1,0,0
2,3,3,2,0,0,-1,0,0
2,3,3,3,0,0,-1,0,0
19,1,4,0,1,0,0
2,3,4,0,0,0,-1,0,0
2,3,4,1,0,0,-1,0,0
2,3,4,2,0,0,-1,0,0
2,3,4,3,0,0,-1,0,0
2,3,4,4,0,0,-1,0,0
19,1,5,0,1,0,0
2,3,5,0,0,0,-1,0,0
2,3,5,1,0,0,-1,0,0
2,3,5,2,0,0,-1,0,0
2,3,5,3,0,0,-1,0,0
2,3,5,4,0,0,-1,0,0
2,3,5,5,0,0,-1,0,0
19,1,6,0,1,0,0
2,3,6,0,0,0,-1,0,0
2,3,6,1,0,0,-1,0,0
2,3,6,2,0,0,-1,0,0
2,3,6,3,0,0,-1,0,0
2,3,6,4,0,0,-1,0,0
2,3,6,5,0,0,-1,0,0
2,3,6,6,0,0,-1,0,0
19,1,7,0,1,0,0
2,3,7,0,0,0,-1,0,0
2,3,7,1,0,0,-1,0,0
2,3,7,2,0,0,-1,0,0
2,3,7,3,0,0,-1,0,0
2,3,7,4,0,0,-1,0,0
2,3,7,5,0,0,-1,0,0
2,3,7,6,0,0,-1,0,0
2,3,7,7,0,0,-1,0,0
19,1,8,0,1,0,0
2,3,8,0,0,0,-1,0,0
2,3,8,1,0,0,-1,0,0
2,3,8,3,0,0,-1,0,0
2,3,8,7,0,0,-1,0,0
2,3,8,8,0,0,-1,0,0
19,1,9,0,1,0,0
2,3,9,7,0,0,-1,0,0
2,3,9,8,0,0,-1,0,0
2,3,9,9,0,0,-1,0,0
19,1,10,0,1,0,0
2,3,10,0,0,0,-1,0,0
2,3,10,1,0,0,-1,0,0
2,3,10,3,0,0,-1,0,0
2,3,10,7,0,0,-1,0,0
2,3,10,8,0,0,-1,0,0
2,3,10,9,0,0,-1,0,0
2,3,10,10,0,0,-1,0,0
19,1,11,0,1,0,0
2,3,11,0,0,0,-1,0,0
2,3,11,1,0,0,-1,0,0
2,3,11,3,0,0,-1,0,0
2,3,11,7,0,0,-1,0,0
2,3,11,8,0,0,-1,0,0
2,3,11,9,0,0,-1,0,0
2,3,11,10,0,0,-1,0,0
2,3,11,11,0,0,-1,0,0
19,1,12,0,1,0,0
2,3,12,0,0,0,-1,0,0
2,3,12,1,0,0,-1,0,0
2,3,12,7,0,0,-1,0,0
2,3,12,8,0,0,-1,0,0
2,3,12,9,0,0,-1,0,0
2,3,12,10,0,0,-1,0,0
2,3,12,11,0,0,-1,0,0
2,3,12,12,0,0,-1,0,0
19,1,13,0,1,0,0
2,3,13,7,0,0,-1,0,0
2,3,13,8,0,0,-1,0,0
2,3,13,9,0,0,-1,0,0
2,3,13,10,0,0,-1,0,0
2,3,13,11,0,0,-1,0,0
2,3,13,12,0,0,-1,0,0
2,3,13,13,0,0,-1,0,0
19,1,14,0,1,0,0
2,3,14,7,0,0,-1,0,0
2,3,14,8,0,0,-1,0,0
2,3,14,9,0,0,-1,0,0
2,3,14,10,0,0,-1,0,0
2,3,14,11,0,0,-1,0,0
2,3,14,12,0,0,-1,0,0
2,3,14,13,0,0,-1,0,0
2,3,14,14,0,0,-1,0,0
19,1,15,0,1,0,0
2,3,15,0,0,0,-1,0,0
2,3,15,1,0,0,-1,0,0
2,3,15,2,0,0,-1,0,0
2,3,15,3,0,0,-1,0,0
2,3,15,4,0,0,-1,0,0
2,3,15,5,0,0,-1,0,0
2,3,15,6,0,0,-1,0,0
2,3,15,7,0,0,-1,0,0
2,3,15,8,0,0,-1,0,0
2,3,15,9,0,0,-1,0,0
2,3,15,10,0,0,-1,0,0
2,3,15,11,0,0,-1,0,0
2,3,15,12,0,0,-1,0,0
2,3,15,13,0,0,-1,0,0
2,3,15,14,0,0,-1,0,0
2,3,15,15,0,0,-1,0,0
8,1,0,0,1,0,0
8,1,1,0,1,0,0
8,1,2,0,1,0,0
8,1,3,0,1,0,0
8,1,4,0,1,0,0
8,1,5,0,1,0,0
8,1,6,0,1,0,0
8,1,7,0,1,0,0
8,1,8,0,1,0,0
8,1,9,0,1,0,0
8,1,10,0,1,0,0
8,1,11,0,1,0,0
8,1,12,0,1,0,0
8,1,13,0,1,0,0
8,1,14,0,1,0,0
8,1,15,0,1,0,0
3,2,0,0,0,4,0,0
3,2,1,1,0,4,0,0
3,2,2,2,0,4,0,0
3,2,3,3,0,4,0,0
3,2,4,4,0,4,0,0
3,2,5,5,0,4,0,0
3,2,6,6,0,4,0,0
3,2,7,7,0,4,0,0
3,2,8,8,0,4,0,0
3,2,9,9,0,4,0,0
3,2,10,10,0,4,0,0
3,2,11,11,0,4,0,0
3,2,12,12,0,4,0,0
3,2,13,13,0,4,0,0
3,2,14,14,0,4,0,0
3,2,15,15,0,4,0,0
4,1,0,1,XARBUF,-1,0,0
3,2,0,0,0,5,0,0
3,2,1,1,0,5,0,0
3,2,2,2,0,5,0,0
3,2,3,3,0,5,0,0
3,2,4,4,0,5,0,0
3,2,5,5,0,5,0,0
3,2,6,6,0,5,0,0
3,2,7,7,0,5,0,0
3,2,8,8,0,5,0,0
3,2,9,9,0,5,0,0
3,2,10,10,0,5,0,0
3,2,11,11,0,5,0,0
3,2,12,12,0,5,0,0
3,2,13,13,0,5,0,0
3,2,14,14,0,5,0,0
3,2,15,15,0,5,0,0
4,1,0,1,RARBUF,-1,0,0
15,0,1,RAR,-1,0,0
16,0,1,RAR,-1,0,0
21,0,1,CONSTRUCTGA,-1,0,0
21,0,1,CONSTRUCTGB,-1,0,0
21,0,1,EIGEN,-1,0,0
5,1,0,0,6,0,0
5,1,1,0,6,0,0
5,1,2,0,6,0,0
5,1,3,0,6,0,0
5,1,4,0,6,0,0
5,1,5,0,6,0,0
5,1,6,0,6,0,0
5,1,7,0,6,0,0
5,1,8,0,6,0,0
5,1,9,0,6,0,0
5,1,10,0,6,0,0
5,1,11,0,6,0,0
5,1,12,0,6,0,0
5,1,13,0,6,0,0
5,1,14,0,6,0,0
5,1,15,0,6,0,0
5,1,0,0,8,0,0
5,1,1,0,8,0,0
5,1,2,0,8,0,0
5,1,3,0,8,0,0
5,1,4,0,8,0,0
5,1,5,0,8,0,0
5,1,6,0,8,0,0
5,1,7,0,8,0,0
5,1,8,0,8,0,0
5,1,9,0,8,0,0
5,1,10,0,8,0,0
5,1,11,0,8,0,0
5,1,12,0,8,0,0
5,1,13,0,8,0,0
5,1,14,0,8,0,0
5,1,15,0,8,0,0
5,1,0,0,10,0,0
5,1,1,0,10,0,0
5,1,2,0,10,0,0
5,1,3,0,10,0,0
5,1,4,0,10,0,0
5,1,5,0,10,0,0
5,1,6,0,10,0,0
5,1,7,0,10,0,0
5,1,8,0,10,0,0
5,1,9,0,10,0,0
5,1,10,0,10,0,0
5,1,11,0,10,0,0
5,1,12,0,10,0,0
5,1,13,0,10,0,0
5,1,14,0,10,0,0
5,1,15,0,10,0,0
6,1,0,0,3,0,0
6,1,1,0,3,0,0
6,1,2,0,3,0,0
6,1,3,0,3,0,0
6,1,4,0,3,0,0
6,1,5,0,3,0,0
6,1,6,0,3,0,0
6,1,7,0,3,0,0
6,1,8,0,3,0,0
6,1,9,0,3,0,0
6,1,10,0,3,0,0
6,1,11,0,3,0,0
6,1,12,0,3,0,0
6,1,13,0,3,0,0
6,1,14,0,3,0,0
6,1,15,0,3,0,0
5,1,0,0,11,0,0
5,1,1,0,11,0,0
5,1,2,0,11,0,0
5,1,3,0,11,0,0
5,1,4,0,11,0,0
5,1,5,0,11,0,0
5,1,6,0,11,0,0
5,1,7,0,11,0,0
5,1,8,0,11,0,0
5,1,9,0,11,0,0
5,1,10,0,11,0,0
5,1,11,0,11,0,0
5,1,12,0,11,0,0
5,1,13,0,11,0,0
5,1,14,0,11,0,0
5,1,15,0,11,0,0
6,1,0,0,4,0,0
6,1,1,0,4,0,0
6,1,2,0,4,0,0
6,1,3,0,4,0,0
6,1,4,0,4,0,0
6,1,5,0,4,0,0
6,1,6,0,4,0,0
6,1,7,0,4,0,0
6,1,8,0,4,0,0
6,1,9,0,4,0,0
6,1,10,0,4,0,0
6,1,11,0,4,0,0
6,1,12,0,4,0,0
6,1,13,0,4,0,0
6,1,14,0,4,0,0
6,1,15,0,4,0,0
