100
0
257
481
737
961
1177
1401
1593
1785
2009
2201
2348
2478
2544
2640
2736
2864
2960
3056
3166
3263
3424
3616
3840
3936
4128
4320
4517
4732
4863
4959
6334
6550
6646
9143
9841
11474
13666
13762
14920
15468
15783
18179
19095
19531
21212
21414
21880
21999
23818
24479
26498
27445
27907
30374
30736
32238
33094
33471
34032
34964
35284
36408
37289
38025
39162
39485
40329
40487
41551
41906
42204
42241
42273
42401
42497
42593
42657
42776
42872
42936
43032
43128
43192
43256
43352
43448
43503
43599
43695
43805
43901
43997
44093
44189
44267
44363
44459
44555
44651
