SETZERO,61,1 153 3396
SETZERO,60,1 153 3395
SETZERO,59,1 153 3394
SETZERO,58,1 153 3393
SETZERO,57,1 153 3392
SETZERO,56,1 153 3391
SETZERO,55,1 153 3390
SETZERO,54,1 153 3389
SETZERO,53,1 153 3388
SETZERO,52,1 153 3387
SETZERO,51,1 153 3386
SETZERO,50,1 153 3385
SETZERO,49,1 153 3384
SETZERO,48,1 153 3383
SETZERO,15,1 151 3382
SETZERO,14,1 151 3381
SETZERO,13,1 151 3380
SETZERO,12,1 151 3379
SETZERO,11,1 151 3378
SETZERO,10,1 151 3377
SETZERO,9,1 151 3376
SETZERO,8,1 151 3375
SETZERO,7,1 151 3374
SETZERO,6,1 151 3373
SETZERO,5,1 151 3372
SETZERO,4,1 151 3371
SETZERO,3,1 151 3370
SETZERO,2,1 151 3369
SETZERO,1,1 151 3368
SETZERO,0,1 151 3367
SETZERO,47,1 150 3366
SETZERO,46,1 150 3365
SETZERO,45,1 150 3364
SETZERO,44,1 150 3363
SETZERO,43,1 150 3362
SETZERO,42,1 150 3361
SETZERO,41,1 150 3360
SETZERO,40,1 150 3359
SETZERO,39,1 150 3358
SETZERO,38,1 150 3357
SETZERO,37,1 150 3356
SETZERO,36,1 150 3355
SETZERO,35,1 150 3354
SETZERO,34,1 150 3353
SETZERO,33,1 150 3352
SETZERO,32,1 150 3351
SETZERO,31,1 148 3350
SETZERO,30,1 148 3349
SETZERO,29,1 148 3348
SETZERO,28,1 148 3347
SETZERO,27,1 148 3346
SETZERO,26,1 148 3345
SETZERO,25,1 148 3344
SETZERO,24,1 148 3343
SETZERO,23,1 148 3342
SETZERO,22,1 148 3341
SETZERO,21,1 148 3340
SETZERO,20,1 148 3339
SETZERO,19,1 148 3338
SETZERO,18,1 148 3337
SETZERO,17,1 148 3336
SETZERO,16,1 148 3335
_AP,61 77 3334
_AP,60 77 3333
_AP,59 77 3332
_AP,58 77 3331
_AP,57 77 3330
_AP,56 77 3329
_AP,55 77 3328
_AP,54 77 3327
_AP,53 77 3326
_AP,52 77 3325
_AP,51 77 3324
_AP,50 77 3323
_AP,49 77 3322
_AP,48 77 3321
_AX,61 45 3320
_AX,60 45 3319
_AX,59 45 3318
_AX,58 45 3317
_AX,57 45 3316
_AX,56 45 3315
_AX,55 45 3314
_AX,54 45 3313
_AX,53 45 3312
_AX,52 45 3311
_AX,51 45 3310
_AX,50 45 3309
_AX,49 45 3308
_AX,48 45 3307
_AX,47 30 3306
_AX,46 30 3305
_AX,45 30 3304
_AX,44 30 3303
_AX,43 30 3302
_AX,42 30 3301
_AX,41 30 3300
_AX,40 30 3299
_AX,39 30 3298
_AX,38 30 3297
_AX,37 30 3296
_AX,36 30 3295
_AX,35 30 3294
_AX,34 30 3293
_AX,33 30 3292
_AX,32 30 3291
_P,31 30 3290
_P,30 30 3289
_P,29 30 3288
_P,28 30 3287
_P,27 30 3286
_P,26 30 3285
_P,25 30 3284
_P,24 30 3283
_P,23 30 3282
_P,22 30 3281
_P,21 30 3280
_P,20 30 3279
_P,19 30 3278
_P,18 30 3277
_P,17 30 3276
_P,16 30 3275
_P,61 29 3274
_P,60 29 3273
_P,59 29 3272
_P,58 29 3271
_P,57 29 3270
_P,56 29 3269
_P,55 29 3268
_P,54 29 3267
_P,53 29 3266
_P,52 29 3265
_P,51 29 3264
_P,50 29 3263
_P,49 29 3262
_P,48 29 3261
_P,47 22 3260
_P,46 22 3259
_P,45 22 3258
_P,44 22 3257
_P,43 22 3256
_P,42 22 3255
_P,41 22 3254
_P,40 22 3253
_P,39 22 3252
_P,38 22 3251
_P,37 22 3250
_P,36 22 3249
_P,35 22 3248
_P,34 22 3247
_P,33 22 3246
_P,32 22 3245
_X,47 1 3244
_X,46 1 3243
_X,45 1 3242
_X,44 1 3241
_X,43 1 3240
_X,42 1 3239
_X,41 1 3238
_X,40 1 3237
_X,39 1 3236
_X,38 1 3235
_X,37 1 3234
_X,36 1 3233
_X,35 1 3232
_X,34 1 3231
_X,33 1 3230
_X,32 1 3229
_AX,31 1 3228
_AX,30 1 3227
_AX,29 1 3226
_AX,28 1 3225
_AX,27 1 3224
_AX,26 1 3223
_AX,25 1 3222
_AX,24 1 3221
_AX,23 1 3220
_AX,22 1 3219
_AX,21 1 3218
_AX,20 1 3217
_AX,19 1 3216
_AX,18 1 3215
_AX,17 1 3214
_AX,16 1 3213
RESET,RN 2 3212
_lambda 2 3211
XY,32,1 2 3210
XY,33,1 2 3209
XY,34,1 2 3208
XY,35,1 2 3207
XY,36,1 2 3206
XY,37,1 2 3205
XY,38,1 2 3204
XY,39,1 2 3203
XY,40,1 2 3202
XY,41,1 2 3201
XY,42,1 2 3200
XY,43,1 2 3199
XY,44,1 2 3198
XY,45,1 2 3197
XY,46,1 2 3196
XY,47,1 2 3195
SUB,47,1 43 3194
MULT,47 43 3193
SUB,46,1 43 3192
MULT,46 43 3191
SUB,45,1 43 3190
MULT,45 43 3189
SUB,44,1 43 3188
MULT,44 43 3187
SUB,43,1 43 3186
MULT,43 43 3185
SUB,42,1 43 3184
MULT,42 43 3183
SUB,41,1 43 3182
MULT,41 43 3181
SUB,40,1 43 3180
MULT,40 43 3179
SUB,39,1 43 3178
MULT,39 43 3177
SUB,38,1 43 3176
MULT,38 43 3175
SUB,37,1 43 3174
MULT,37 43 3173
SUB,36,1 43 3172
MULT,36 43 3171
SUB,35,1 43 3170
MULT,35 43 3169
SUB,34,1 43 3168
MULT,34 43 3167
SUB,33,1 43 3166
MULT,33 43 3165
SUB,32,1 43 3164
MULT,32 43 3163
COL,32,12 44 3162
COL,33,13 44 3161
COL,34,14 44 3160
COL,35,15 44 3159
COL,36,16 44 3158
COL,37,17 44 3157
COL,38,18 44 3156
COL,39,19 44 3155
COL,40,0 44 3154
COL,41,1 44 3153
COL,42,2 44 3152
COL,43,3 44 3151
COL,44,4 44 3150
COL,45,5 44 3149
COL,46,6 44 3148
COL,47,7 44 3147
_X,15 28 3146
XY,15,1 28 3145
_X,14 28 3144
XY,14,1 28 3143
_X,13 28 3142
XY,13,1 28 3141
_X,12 28 3140
XY,12,1 28 3139
_X,11 28 3138
XY,11,1 28 3137
_X,10 28 3136
XY,10,1 28 3135
_X,9 28 3134
XY,9,1 28 3133
_X,8 28 3132
XY,8,1 28 3131
_X,7 28 3130
XY,7,1 28 3129
_X,6 28 3128
XY,6,1 28 3127
_X,5 28 3126
XY,5,1 28 3125
_X,4 28 3124
XY,4,1 28 3123
_X,3 28 3122
XY,3,1 28 3121
_X,2 28 3120
XY,2,1 28 3119
_X,1 28 3118
XY,1,1 28 3117
_X,0 28 3116
XY,0,1 28 3115
_AX,15 36 3114
SUB,15,1 36 3113
MULT,15 36 3112
_AX,14 36 3111
SUB,14,1 36 3110
MULT,14 36 3109
_AX,13 36 3108
SUB,13,1 36 3107
MULT,13 36 3106
_AX,12 36 3105
SUB,12,1 36 3104
MULT,12 36 3103
_AX,11 36 3102
SUB,11,1 36 3101
MULT,11 36 3100
_AX,10 36 3099
SUB,10,1 36 3098
MULT,10 36 3097
_AX,9 36 3096
SUB,9,1 36 3095
MULT,9 36 3094
_AX,8 36 3093
SUB,8,1 36 3092
MULT,8 36 3091
_AX,7 36 3090
SUB,7,1 36 3089
MULT,7 36 3088
_AX,6 36 3087
SUB,6,1 36 3086
MULT,6 36 3085
_AX,5 36 3084
SUB,5,1 36 3083
MULT,5 36 3082
_AX,4 36 3081
SUB,4,1 36 3080
MULT,4 36 3079
_AX,3 36 3078
SUB,3,1 36 3077
MULT,3 36 3076
_AX,2 36 3075
SUB,2,1 36 3074
MULT,2 36 3073
_AX,1 36 3072
SUB,1,1 36 3071
MULT,1 36 3070
_AX,0 36 3069
SUB,0,1 36 3068
MULT,0 36 3067
COL,0,0 37 3066
COL,1,1 37 3065
COL,2,2 37 3064
COL,3,3 37 3063
COL,4,4 37 3062
COL,5,5 37 3061
COL,6,6 37 3060
COL,7,7 37 3059
COL,8,8 37 3058
COL,9,9 37 3057
COL,10,10 37 3056
COL,11,11 37 3055
COL,12,12 37 3054
COL,13,13 37 3053
COL,14,14 37 3052
COL,15,15 37 3051
_X,31 8 3050
XY,31,1 8 3049
_X,30 8 3048
XY,30,1 8 3047
_X,29 8 3046
XY,29,1 8 3045
_X,28 8 3044
XY,28,1 8 3043
_X,27 8 3042
XY,27,1 8 3041
_X,26 8 3040
XY,26,1 8 3039
_X,25 8 3038
XY,25,1 8 3037
_X,24 8 3036
XY,24,1 8 3035
_X,23 8 3034
XY,23,1 8 3033
_X,22 8 3032
XY,22,1 8 3031
_X,21 8 3030
XY,21,1 8 3029
_X,20 8 3028
XY,20,1 8 3027
_X,19 8 3026
XY,19,1 8 3025
_X,18 8 3024
XY,18,1 8 3023
_X,17 8 3022
XY,17,1 8 3021
_X,16 8 3020
XY,16,1 8 3019
SUB,16,1 14 3018
MULT,16 14 3017
SUB,17,1 14 3016
MULT,17 14 3015
SUB,18,1 14 3014
MULT,18 14 3013
SUB,19,1 14 3012
MULT,19 14 3011
SUB,20,1 14 3010
MULT,20 14 3009
SUB,21,1 14 3008
MULT,21 14 3007
SUB,22,1 14 3006
MULT,22 14 3005
SUB,23,1 14 3004
MULT,23 14 3003
SUB,24,1 14 3002
MULT,24 14 3001
SUB,25,1 14 3000
MULT,25 14 2999
SUB,26,1 14 2998
MULT,26 14 2997
SUB,27,1 14 2996
MULT,27 14 2995
SUB,28,1 14 2994
MULT,28 14 2993
SUB,29,1 14 2992
MULT,29 14 2991
SUB,30,1 14 2990
MULT,30 14 2989
SUB,31,1 14 2988
MULT,31 14 2987
COL,31,11 15 2986
COL,30,10 15 2985
COL,29,9 15 2984
COL,28,8 15 2983
COL,27,7 15 2982
COL,26,6 15 2981
COL,25,5 15 2980
COL,24,4 15 2979
COL,23,3 15 2978
COL,22,2 15 2977
COL,21,1 15 2976
COL,20,0 15 2975
COL,19,19 15 2974
COL,18,18 15 2973
COL,17,17 15 2972
COL,16,16 15 2971
_X,61 21 2970
XY,61,1 21 2969
_X,60 21 2968
XY,60,1 21 2967
_X,59 21 2966
XY,59,1 21 2965
_X,58 21 2964
XY,58,1 21 2963
_X,57 21 2962
XY,57,1 21 2961
_X,56 21 2960
XY,56,1 21 2959
_X,55 21 2958
XY,55,1 21 2957
_X,54 21 2956
XY,54,1 21 2955
_X,53 21 2954
XY,53,1 21 2953
_X,52 21 2952
XY,52,1 21 2951
_X,51 21 2950
XY,51,1 21 2949
_X,50 21 2948
XY,50,1 21 2947
_X,49 21 2946
XY,49,1 21 2945
_X,48 21 2944
XY,48,1 21 2943
SUB,48,1 51 2942
MULT,48 51 2941
SUB,49,1 51 2940
MULT,49 51 2939
SUB,50,1 51 2938
MULT,50 51 2937
SUB,51,1 51 2936
MULT,51 51 2935
SUB,52,1 51 2934
MULT,52 51 2933
SUB,53,1 51 2932
MULT,53 51 2931
SUB,54,1 51 2930
MULT,54 51 2929
SUB,55,1 51 2928
MULT,55 51 2927
SUB,56,1 51 2926
MULT,56 51 2925
SUB,57,1 51 2924
MULT,57 51 2923
SUB,58,1 51 2922
MULT,58 51 2921
SUB,59,1 51 2920
MULT,59 51 2919
SUB,60,1 51 2918
MULT,60 51 2917
SUB,61,1 51 2916
MULT,61 51 2915
COL,61,1 52 2914
COL,60,0 52 2913
COL,59,19 52 2912
COL,58,18 52 2911
COL,57,17 52 2910
COL,56,16 52 2909
COL,55,15 52 2908
COL,54,14 52 2907
COL,53,13 52 2906
COL,52,12 52 2905
COL,51,11 52 2904
COL,50,10 52 2903
COL,49,9 52 2902
COL,48,8 52 2901
RNRED,RNBUF 52 2900
SQRT,RN 52 2899
RESET,actMask 53 2898
CONV,actMask 53 2897
_AP,15 53 2896
GET,15,3 53 2895
_AP,14 53 2894
GET,14,3 53 2893
_AP,13 53 2892
GET,13,3 53 2891
_AP,12 53 2890
GET,12,3 53 2889
_AP,11 53 2888
GET,11,3 53 2887
_AP,10 53 2886
GET,10,3 53 2885
_AP,9 53 2884
GET,9,3 53 2883
_AP,8 53 2882
GET,8,3 53 2881
_AP,7 53 2880
GET,7,3 53 2879
_AP,6 53 2878
GET,6,3 53 2877
_AP,5 53 2876
GET,5,3 53 2875
_AP,4 53 2874
GET,4,3 53 2873
_AP,3 53 2872
GET,3,3 53 2871
_AP,2 53 2870
GET,2,3 53 2869
_AP,1 53 2868
GET,1,3 53 2867
_AP,0 53 2866
GET,0,3 53 2865
GET,0,1 62 2864
XTY,0,0,1 62 2863
GET,1,1 62 2862
XTY,1,1,1 62 2861
GET,2,1 62 2860
XTY,2,2,1 62 2859
GET,3,1 62 2858
XTY,3,3,1 62 2857
GET,4,1 62 2856
XTY,4,4,1 62 2855
GET,5,1 62 2854
XTY,5,5,1 62 2853
GET,6,1 62 2852
XTY,6,6,1 62 2851
GET,7,1 62 2850
XTY,7,7,1 62 2849
GET,8,1 62 2848
XTY,8,8,1 62 2847
GET,9,1 62 2846
XTY,9,9,1 62 2845
GET,10,1 62 2844
XTY,10,10,1 62 2843
GET,11,1 62 2842
XTY,11,11,1 62 2841
GET,12,1 62 2840
XTY,12,12,1 62 2839
GET,13,1 62 2838
XTY,13,13,1 62 2837
GET,14,1 62 2836
XTY,14,14,1 62 2835
GET,15,1 62 2834
XTY,15,15,1 62 2833
GET,16,1 72 2832
XTY,16,16,1 72 2831
GET,17,1 72 2830
XTY,17,17,1 72 2829
GET,18,1 72 2828
XTY,18,18,1 72 2827
GET,19,1 72 2826
XTY,19,19,1 72 2825
GET,20,1 72 2824
XTY,20,0,1 72 2823
GET,21,1 72 2822
XTY,21,1,1 72 2821
GET,22,1 72 2820
XTY,22,2,1 72 2819
GET,23,1 72 2818
XTY,23,3,1 72 2817
GET,24,1 72 2816
XTY,24,4,1 72 2815
GET,25,1 72 2814
XTY,25,5,1 72 2813
GET,26,1 72 2812
XTY,26,6,1 72 2811
GET,27,1 72 2810
XTY,27,7,1 72 2809
GET,28,1 72 2808
XTY,28,8,1 72 2807
GET,29,1 72 2806
XTY,29,9,1 72 2805
GET,30,1 72 2804
XTY,30,10,1 72 2803
GET,31,1 72 2802
XTY,31,11,1 72 2801
GET,32,1 65 2800
GET,33,1 65 2799
GET,34,1 65 2798
GET,35,1 65 2797
GET,36,1 65 2796
GET,37,1 65 2795
GET,38,1 65 2794
GET,39,1 65 2793
GET,40,1 65 2792
GET,41,1 65 2791
GET,42,1 65 2790
GET,43,1 65 2789
GET,44,1 65 2788
GET,45,1 65 2787
GET,46,1 65 2786
GET,47,1 65 2785
XTY,47,7,1 66 2784
XTY,46,6,1 66 2783
XTY,45,5,1 66 2782
XTY,44,4,1 66 2781
XTY,43,3,1 66 2780
XTY,42,2,1 66 2779
XTY,41,1,1 66 2778
XTY,40,0,1 66 2777
XTY,39,19,1 66 2776
XTY,38,18,1 66 2775
XTY,37,17,1 66 2774
XTY,36,16,1 66 2773
XTY,35,15,1 66 2772
XTY,34,14,1 66 2771
XTY,33,13,1 66 2770
XTY,32,12,1 66 2769
GET,48,1 54 2768
GET,49,1 54 2767
GET,50,1 54 2766
GET,51,1 54 2765
GET,52,1 54 2764
GET,53,1 54 2763
GET,54,1 54 2762
GET,55,1 54 2761
GET,56,1 54 2760
GET,57,1 54 2759
GET,58,1 54 2758
GET,59,1 54 2757
GET,60,1 54 2756
GET,61,1 54 2755
XTY,61,1,1 56 2754
XTY,60,0,1 56 2753
XTY,59,19,1 56 2752
XTY,58,18,1 56 2751
XTY,57,17,1 56 2750
XTY,56,16,1 56 2749
XTY,55,15,1 56 2748
XTY,54,14,1 56 2747
XTY,53,13,1 56 2746
XTY,52,12,1 56 2745
XTY,51,11,1 56 2744
XTY,50,10,1 56 2743
XTY,49,9,1 56 2742
XTY,48,8,1 56 2741
RED,temp2BUF,0 73 2740
XY,0,2 75 2739
XY,1,2 75 2738
XY,2,2 75 2737
XY,3,2 75 2736
XY,4,2 75 2735
XY,5,2 75 2734
XY,6,2 75 2733
XY,7,2 75 2732
XY,8,2 75 2731
XY,9,2 75 2730
XY,10,2 75 2729
XY,11,2 75 2728
XY,12,2 75 2727
XY,13,2 75 2726
XY,14,2 75 2725
XY,15,2 75 2724
SUB,15,2 84 2723
XTY,15,15,2 84 2722
SUB,14,2 84 2721
XTY,14,14,2 84 2720
SUB,13,2 84 2719
XTY,13,13,2 84 2718
SUB,12,2 84 2717
XTY,12,12,2 84 2716
SUB,11,2 84 2715
XTY,11,11,2 84 2714
SUB,10,2 84 2713
XTY,10,10,2 84 2712
SUB,9,2 84 2711
XTY,9,9,2 84 2710
SUB,8,2 84 2709
XTY,8,8,2 84 2708
SUB,7,2 84 2707
XTY,7,7,2 84 2706
SUB,6,2 84 2705
XTY,6,6,2 84 2704
SUB,5,2 84 2703
XTY,5,5,2 84 2702
SUB,4,2 84 2701
XTY,4,4,2 84 2700
SUB,3,2 84 2699
XTY,3,3,2 84 2698
SUB,2,2 84 2697
XTY,2,2,2 84 2696
SUB,1,2 84 2695
XTY,1,1,2 84 2694
SUB,0,2 84 2693
XTY,0,0,2 84 2692
XY,16,2 76 2691
XY,17,2 76 2690
XY,18,2 76 2689
XY,19,2 76 2688
XY,20,2 76 2687
XY,21,2 76 2686
XY,22,2 76 2685
XY,23,2 76 2684
XY,24,2 76 2683
XY,25,2 76 2682
XY,26,2 76 2681
XY,27,2 76 2680
XY,28,2 76 2679
XY,29,2 76 2678
XY,30,2 76 2677
XY,31,2 76 2676
SUB,31,2 82 2675
XTY,31,11,2 82 2674
SUB,30,2 82 2673
XTY,30,10,2 82 2672
SUB,29,2 82 2671
XTY,29,9,2 82 2670
SUB,28,2 82 2669
XTY,28,8,2 82 2668
SUB,27,2 82 2667
XTY,27,7,2 82 2666
SUB,26,2 82 2665
XTY,26,6,2 82 2664
SUB,25,2 82 2663
XTY,25,5,2 82 2662
SUB,24,2 82 2661
XTY,24,4,2 82 2660
SUB,23,2 82 2659
XTY,23,3,2 82 2658
SUB,22,2 82 2657
XTY,22,2,2 82 2656
SUB,21,2 82 2655
XTY,21,1,2 82 2654
SUB,20,2 82 2653
XTY,20,0,2 82 2652
SUB,19,2 82 2651
XTY,19,19,2 82 2650
SUB,18,2 82 2649
XTY,18,18,2 82 2648
SUB,17,2 82 2647
XTY,17,17,2 82 2646
SUB,16,2 82 2645
XTY,16,16,2 82 2644
XY,32,2 74 2643
XY,33,2 74 2642
XY,34,2 74 2641
XY,35,2 74 2640
XY,36,2 74 2639
XY,37,2 74 2638
XY,38,2 74 2637
XY,39,2 74 2636
XY,40,2 74 2635
XY,41,2 74 2634
XY,42,2 74 2633
XY,43,2 74 2632
XY,44,2 74 2631
XY,45,2 74 2630
XY,46,2 74 2629
XY,47,2 74 2628
SUB,47,2 79 2627
XTY,47,7,2 79 2626
SUB,46,2 79 2625
XTY,46,6,2 79 2624
SUB,45,2 79 2623
XTY,45,5,2 79 2622
SUB,44,2 79 2621
XTY,44,4,2 79 2620
SUB,43,2 79 2619
XTY,43,3,2 79 2618
SUB,42,2 79 2617
XTY,42,2,2 79 2616
SUB,41,2 79 2615
XTY,41,1,2 79 2614
SUB,40,2 79 2613
XTY,40,0,2 79 2612
SUB,39,2 79 2611
XTY,39,19,2 79 2610
SUB,38,2 79 2609
XTY,38,18,2 79 2608
SUB,37,2 79 2607
XTY,37,17,2 79 2606
SUB,36,2 79 2605
XTY,36,16,2 79 2604
SUB,35,2 79 2603
XTY,35,15,2 79 2602
SUB,34,2 79 2601
XTY,34,14,2 79 2600
SUB,33,2 79 2599
XTY,33,13,2 79 2598
SUB,32,2 79 2597
XTY,32,12,2 79 2596
XY,48,2 145 2595
SUB,48,2 145 2594
XTY,48,8,2 145 2593
XY,49,2 145 2592
SUB,49,2 145 2591
XTY,49,9,2 145 2590
XY,50,2 145 2589
SUB,50,2 145 2588
XTY,50,10,2 145 2587
XY,51,2 145 2586
SUB,51,2 145 2585
XTY,51,11,2 145 2584
XY,52,2 145 2583
SUB,52,2 145 2582
XTY,52,12,2 145 2581
XY,53,2 145 2580
SUB,53,2 145 2579
XTY,53,13,2 145 2578
XY,54,2 145 2577
SUB,54,2 145 2576
XTY,54,14,2 145 2575
XY,55,2 145 2574
SUB,55,2 145 2573
XTY,55,15,2 145 2572
XY,56,2 145 2571
SUB,56,2 145 2570
XTY,56,16,2 145 2569
XY,57,2 145 2568
SUB,57,2 145 2567
XTY,57,17,2 145 2566
XY,58,2 145 2565
SUB,58,2 145 2564
XTY,58,18,2 145 2563
XY,59,2 145 2562
SUB,59,2 145 2561
XTY,59,19,2 145 2560
XY,60,2 145 2559
SUB,60,2 145 2558
XTY,60,0,2 145 2557
XY,61,2 145 2556
SUB,61,2 145 2555
XTY,61,1,2 145 2554
RED,RBRBUF,0 146 2553
CHOL,RBR 147 2552
INV,RBR 147 2551
XY,48,3 147 2550
XY,49,3 147 2549
XY,50,3 147 2548
XY,51,3 147 2547
XY,52,3 147 2546
XY,53,3 147 2545
XY,54,3 147 2544
XY,55,3 147 2543
XY,56,3 147 2542
XY,57,3 147 2541
XY,58,3 147 2540
XY,59,3 147 2539
XY,60,3 147 2538
XY,61,3 147 2537
DLACPY,61,1 174 2536
SPMM,61,61,0 174 2535
XTY,61,1,4 174 2534
DLACPY,60,1 174 2533
SPMM,60,60,0 174 2532
SPMM,61,60,0 174 2531
XTY,60,0,4 174 2530
DLACPY,59,1 174 2529
SPMM,59,59,0 174 2528
SPMM,60,59,0 174 2527
SPMM,61,59,0 174 2526
XTY,59,19,4 174 2525
DLACPY,58,1 174 2524
SPMM,58,58,0 174 2523
SPMM,59,58,0 174 2522
SPMM,60,58,0 174 2521
SPMM,61,58,0 174 2520
XTY,58,18,4 174 2519
DLACPY,57,1 174 2518
SPMM,57,57,0 174 2517
SPMM,58,57,0 174 2516
SPMM,59,57,0 174 2515
SPMM,60,57,0 174 2514
SPMM,61,57,0 174 2513
XTY,57,17,4 174 2512
DLACPY,56,1 174 2511
SPMM,56,56,0 174 2510
SPMM,57,56,0 174 2509
SPMM,58,56,0 174 2508
SPMM,59,56,0 174 2507
SPMM,60,56,0 174 2506
SPMM,61,56,0 174 2505
XTY,56,16,4 174 2504
DLACPY,55,1 174 2503
SPMM,55,55,0 174 2502
SPMM,56,55,0 174 2501
SPMM,57,55,0 174 2500
SPMM,58,55,0 174 2499
SPMM,59,55,0 174 2498
SPMM,60,55,0 174 2497
SPMM,61,55,0 174 2496
XTY,55,15,4 174 2495
DLACPY,54,1 174 2494
SPMM,54,54,0 174 2493
SPMM,55,54,0 174 2492
SPMM,56,54,0 174 2491
SPMM,57,54,0 174 2490
SPMM,58,54,0 174 2489
SPMM,59,54,0 174 2488
SPMM,60,54,0 174 2487
SPMM,61,54,0 174 2486
XTY,54,14,4 174 2485
DLACPY,53,1 174 2484
SPMM,53,53,0 174 2483
SPMM,54,53,0 174 2482
SPMM,55,53,0 174 2481
SPMM,56,53,0 174 2480
SPMM,57,53,0 174 2479
SPMM,58,53,0 174 2478
SPMM,59,53,0 174 2477
SPMM,61,53,0 174 2476
XTY,53,13,4 174 2475
DLACPY,52,1 174 2474
SPMM,52,52,0 174 2473
SPMM,53,52,0 174 2472
SPMM,54,52,0 174 2471
SPMM,56,52,0 174 2470
SPMM,57,52,0 174 2469
SPMM,60,52,0 174 2468
SPMM,61,52,0 174 2467
XTY,52,12,4 174 2466
DLACPY,51,1 174 2465
SPMM,51,51,0 174 2464
SPMM,52,51,0 174 2463
SPMM,53,51,0 174 2462
SPMM,54,51,0 174 2461
XTY,51,11,4 174 2460
DLACPY,50,1 174 2459
SPMM,50,50,0 174 2458
SPMM,51,50,0 174 2457
SPMM,52,50,0 174 2456
SPMM,53,50,0 174 2455
SPMM,54,50,0 174 2454
SPMM,55,50,0 174 2453
SPMM,56,50,0 174 2452
SPMM,58,50,0 174 2451
SPMM,59,50,0 174 2450
SPMM,61,50,0 174 2449
XTY,50,10,4 174 2448
DLACPY,49,1 174 2447
SPMM,49,49,0 174 2446
SPMM,50,49,0 174 2445
SPMM,51,49,0 174 2444
SPMM,52,49,0 174 2443
SPMM,53,49,0 174 2442
SPMM,54,49,0 174 2441
SPMM,55,49,0 174 2440
SPMM,56,49,0 174 2439
XTY,49,9,4 174 2438
DLACPY,48,1 174 2437
SPMM,48,48,0 174 2436
SPMM,49,48,0 174 2435
SPMM,50,48,0 174 2434
SPMM,51,48,0 174 2433
SPMM,52,48,0 174 2432
SPMM,53,48,0 174 2431
SPMM,54,48,0 174 2430
SPMM,55,48,0 174 2429
SPMM,56,48,0 174 2428
SPMM,58,48,0 174 2427
SPMM,59,48,0 174 2426
SPMM,60,48,0 174 2425
SPMM,61,48,0 174 2424
XTY,48,8,4 174 2423
UPDATE,48,1 175 2422
UPDATE,49,1 175 2421
UPDATE,50,1 175 2420
UPDATE,51,1 175 2419
UPDATE,52,1 175 2418
UPDATE,53,1 175 2417
UPDATE,54,1 175 2416
UPDATE,55,1 175 2415
UPDATE,56,1 175 2414
UPDATE,57,1 175 2413
UPDATE,58,1 175 2412
UPDATE,59,1 175 2411
UPDATE,60,1 175 2410
UPDATE,61,1 175 2409
XY,0,3 152 2408
XY,1,3 152 2407
XY,2,3 152 2406
XY,3,3 152 2405
XY,4,3 152 2404
XY,5,3 152 2403
XY,6,3 152 2402
XY,7,3 152 2401
XY,8,3 152 2400
XY,9,3 152 2399
XY,10,3 152 2398
XY,11,3 152 2397
XY,12,3 152 2396
XY,13,3 152 2395
XY,14,3 152 2394
XY,15,3 152 2393
DLACPY,15,1 183 2392
SPMM,15,15,0 183 2391
DLACPY,14,1 183 2390
SPMM,14,14,0 183 2389
SPMM,15,14,0 183 2388
DLACPY,13,1 183 2387
SPMM,13,13,0 183 2386
SPMM,14,13,0 183 2385
SPMM,15,13,0 183 2384
DLACPY,12,1 183 2383
SPMM,12,12,0 183 2382
SPMM,13,12,0 183 2381
SPMM,15,12,0 183 2380
DLACPY,11,1 183 2379
SPMM,11,11,0 183 2378
SPMM,12,11,0 183 2377
SPMM,13,11,0 183 2376
SPMM,14,11,0 183 2375
SPMM,15,11,0 183 2374
DLACPY,10,1 183 2373
SPMM,10,10,0 183 2372
SPMM,11,10,0 183 2371
SPMM,12,10,0 183 2370
SPMM,13,10,0 183 2369
SPMM,14,10,0 183 2368
SPMM,15,10,0 183 2367
DLACPY,9,1 183 2366
SPMM,9,9,0 183 2365
SPMM,10,9,0 183 2364
SPMM,11,9,0 183 2363
SPMM,12,9,0 183 2362
SPMM,13,9,0 183 2361
SPMM,14,9,0 183 2360
SPMM,15,9,0 183 2359
DLACPY,8,1 183 2358
SPMM,8,8,0 183 2357
SPMM,9,8,0 183 2356
SPMM,11,8,0 183 2355
SPMM,12,8,0 183 2354
SPMM,13,8,0 183 2353
SPMM,14,8,0 183 2352
SPMM,15,8,0 183 2351
DLACPY,7,1 183 2350
SPMM,7,7,0 183 2349
SPMM,8,7,0 183 2348
SPMM,9,7,0 183 2347
SPMM,10,7,0 183 2346
SPMM,11,7,0 183 2345
SPMM,12,7,0 183 2344
SPMM,13,7,0 183 2343
SPMM,14,7,0 183 2342
SPMM,15,7,0 183 2341
DLACPY,6,1 183 2340
SPMM,6,6,0 183 2339
SPMM,7,6,0 183 2338
SPMM,9,6,0 183 2337
SPMM,10,6,0 183 2336
SPMM,12,6,0 183 2335
SPMM,13,6,0 183 2334
SPMM,14,6,0 183 2333
SPMM,15,6,0 183 2332
DLACPY,5,1 183 2331
SPMM,5,5,0 183 2330
SPMM,6,5,0 183 2329
SPMM,7,5,0 183 2328
SPMM,8,5,0 183 2327
SPMM,9,5,0 183 2326
SPMM,10,5,0 183 2325
SPMM,11,5,0 183 2324
SPMM,12,5,0 183 2323
SPMM,13,5,0 183 2322
SPMM,14,5,0 183 2321
SPMM,15,5,0 183 2320
DLACPY,4,1 183 2319
SPMM,4,4,0 183 2318
SPMM,5,4,0 183 2317
SPMM,6,4,0 183 2316
SPMM,7,4,0 183 2315
SPMM,8,4,0 183 2314
SPMM,9,4,0 183 2313
SPMM,10,4,0 183 2312
SPMM,11,4,0 183 2311
SPMM,12,4,0 183 2310
SPMM,13,4,0 183 2309
SPMM,14,4,0 183 2308
SPMM,15,4,0 183 2307
DLACPY,3,1 183 2306
SPMM,3,3,0 183 2305
SPMM,4,3,0 183 2304
SPMM,5,3,0 183 2303
SPMM,6,3,0 183 2302
SPMM,7,3,0 183 2301
SPMM,8,3,0 183 2300
SPMM,9,3,0 183 2299
SPMM,10,3,0 183 2298
SPMM,11,3,0 183 2297
SPMM,12,3,0 183 2296
SPMM,13,3,0 183 2295
SPMM,14,3,0 183 2294
SPMM,15,3,0 183 2293
DLACPY,2,1 183 2292
SPMM,2,2,0 183 2291
SPMM,3,2,0 183 2290
SPMM,14,2,0 183 2289
SPMM,15,2,0 183 2288
DLACPY,1,1 183 2287
SPMM,1,1,0 183 2286
SPMM,2,1,0 183 2285
SPMM,3,1,0 183 2284
SPMM,4,1,0 183 2283
SPMM,5,1,0 183 2282
SPMM,6,1,0 183 2281
SPMM,7,1,0 183 2280
SPMM,8,1,0 183 2279
SPMM,9,1,0 183 2278
SPMM,10,1,0 183 2277
SPMM,11,1,0 183 2276
SPMM,12,1,0 183 2275
SPMM,13,1,0 183 2274
SPMM,14,1,0 183 2273
SPMM,15,1,0 183 2272
DLACPY,0,1 183 2271
SPMM,0,0,0 183 2270
SPMM,1,0,0 183 2269
SPMM,3,0,0 183 2268
SPMM,4,0,0 183 2267
SPMM,5,0,0 183 2266
SPMM,6,0,0 183 2265
SPMM,7,0,0 183 2264
SPMM,8,0,0 183 2263
SPMM,9,0,0 183 2262
SPMM,10,0,0 183 2261
SPMM,11,0,0 183 2260
SPMM,12,0,0 183 2259
SPMM,13,0,0 183 2258
SPMM,14,0,0 183 2257
SPMM,15,0,0 183 2256
SPMM,16,0,0 201 2255
SPMM,17,0,0 201 2254
SPMM,23,0,0 201 2253
SPMM,24,0,0 201 2252
SPMM,25,0,0 201 2251
SPMM,27,0,0 201 2250
SPMM,28,0,0 201 2249
SPMM,29,0,0 201 2248
SPMM,30,0,0 201 2247
SPMM,16,1,0 201 2246
SPMM,17,1,0 201 2245
SPMM,18,1,0 201 2244
SPMM,19,1,0 201 2243
SPMM,20,1,0 201 2242
SPMM,21,1,0 201 2241
SPMM,22,1,0 201 2240
SPMM,23,1,0 201 2239
SPMM,24,1,0 201 2238
SPMM,25,1,0 201 2237
SPMM,26,1,0 201 2236
SPMM,27,1,0 201 2235
SPMM,28,1,0 201 2234
SPMM,29,1,0 201 2233
SPMM,30,1,0 201 2232
SPMM,17,2,0 201 2231
SPMM,18,2,0 201 2230
SPMM,19,2,0 201 2229
SPMM,20,2,0 201 2228
SPMM,21,2,0 201 2227
SPMM,22,2,0 201 2226
SPMM,23,2,0 201 2225
SPMM,24,2,0 201 2224
SPMM,25,2,0 201 2223
SPMM,26,2,0 201 2222
SPMM,27,2,0 201 2221
SPMM,28,2,0 201 2220
SPMM,29,2,0 201 2219
SPMM,30,2,0 201 2218
SPMM,16,3,0 201 2217
SPMM,17,3,0 201 2216
SPMM,18,3,0 201 2215
SPMM,19,3,0 201 2214
SPMM,21,3,0 201 2213
SPMM,23,3,0 201 2212
SPMM,24,3,0 201 2211
SPMM,25,3,0 201 2210
SPMM,26,3,0 201 2209
SPMM,27,3,0 201 2208
SPMM,28,3,0 201 2207
SPMM,29,3,0 201 2206
SPMM,30,3,0 201 2205
SPMM,16,4,0 201 2204
SPMM,17,4,0 201 2203
SPMM,30,4,0 201 2202
SPMM,16,5,0 201 2201
SPMM,17,5,0 201 2200
SPMM,23,5,0 201 2199
SPMM,24,5,0 201 2198
SPMM,25,5,0 201 2197
SPMM,27,5,0 201 2196
SPMM,28,5,0 201 2195
SPMM,30,5,0 201 2194
SPMM,16,6,0 201 2193
SPMM,17,6,0 201 2192
SPMM,16,7,0 201 2191
SPMM,17,7,0 201 2190
SPMM,16,8,0 201 2189
SPMM,17,8,0 201 2188
SPMM,16,9,0 201 2187
SPMM,17,9,0 201 2186
SPMM,23,9,0 201 2185
SPMM,24,9,0 201 2184
SPMM,28,9,0 201 2183
SPMM,29,9,0 201 2182
SPMM,30,9,0 201 2181
SPMM,16,10,0 201 2180
SPMM,17,10,0 201 2179
SPMM,16,11,0 201 2178
SPMM,17,11,0 201 2177
SPMM,16,12,0 201 2176
SPMM,17,12,0 201 2175
SPMM,16,13,0 201 2174
SPMM,17,13,0 201 2173
SPMM,23,13,0 201 2172
SPMM,24,13,0 201 2171
SPMM,30,13,0 201 2170
SPMM,16,14,0 201 2169
SPMM,17,14,0 201 2168
SPMM,23,14,0 201 2167
SPMM,24,14,0 201 2166
SPMM,30,14,0 201 2165
SPMM,16,15,0 201 2164
SPMM,17,15,0 201 2163
SPMM,23,15,0 201 2162
SPMM,24,15,0 201 2161
SPMM,25,15,0 201 2160
SPMM,26,15,0 201 2159
SPMM,27,15,0 201 2158
SPMM,28,15,0 201 2157
SPMM,29,15,0 201 2156
SPMM,30,15,0 201 2155
SPMM,48,0,0 186 2154
SPMM,61,0,0 186 2153
SPMM,61,2,0 186 2152
SPMM,61,3,0 186 2151
SPMM,61,4,0 186 2150
SPMM,48,5,0 186 2149
SPMM,61,5,0 186 2148
SPMM,61,6,0 186 2147
SPMM,61,7,0 186 2146
SPMM,61,8,0 186 2145
SPMM,61,9,0 186 2144
SPMM,61,10,0 186 2143
SPMM,61,11,0 186 2142
SPMM,61,12,0 186 2141
SPMM,61,13,0 186 2140
XTY,15,15,5 184 2139
XTY,14,14,5 184 2138
XTY,13,13,5 184 2137
XTY,12,12,5 184 2136
XTY,11,11,5 184 2135
XTY,10,10,5 184 2134
XTY,9,9,5 184 2133
XTY,8,8,5 184 2132
XTY,7,7,5 184 2131
XTY,6,6,5 184 2130
XTY,5,5,5 184 2129
XTY,4,4,5 184 2128
XTY,3,3,5 184 2127
XTY,1,1,5 184 2126
XTY,0,0,5 184 2125
XTY,2,2,5 184 2124
XY,16,3 177 2123
DLACPY,16,1 177 2122
XY,17,3 177 2121
DLACPY,17,1 177 2120
XY,18,3 177 2119
DLACPY,18,1 177 2118
XY,19,3 177 2117
DLACPY,19,1 177 2116
XY,20,3 177 2115
DLACPY,20,1 177 2114
XY,21,3 177 2113
DLACPY,21,1 177 2112
XY,22,3 177 2111
DLACPY,22,1 177 2110
XY,23,3 177 2109
DLACPY,23,1 177 2108
XY,24,3 177 2107
DLACPY,24,1 177 2106
XY,25,3 177 2105
DLACPY,25,1 177 2104
XY,26,3 177 2103
DLACPY,26,1 177 2102
XY,27,3 177 2101
DLACPY,27,1 177 2100
XY,28,3 177 2099
DLACPY,28,1 177 2098
XY,29,3 177 2097
DLACPY,29,1 177 2096
XY,30,3 177 2095
DLACPY,30,1 177 2094
XY,31,3 177 2093
DLACPY,31,1 177 2092
SPMM,32,31,0 208 2091
SPMM,34,31,0 208 2090
SPMM,35,31,0 208 2089
SPMM,36,31,0 208 2088
SPMM,37,31,0 208 2087
SPMM,38,31,0 208 2086
SPMM,39,31,0 208 2085
SPMM,40,31,0 208 2084
SPMM,41,31,0 208 2083
SPMM,42,31,0 208 2082
SPMM,43,31,0 208 2081
SPMM,44,31,0 208 2080
SPMM,45,31,0 208 2079
SPMM,46,31,0 208 2078
SPMM,47,31,0 208 2077
SPMM,32,30,0 208 2076
SPMM,34,30,0 208 2075
SPMM,35,30,0 208 2074
SPMM,36,30,0 208 2073
SPMM,37,30,0 208 2072
SPMM,38,30,0 208 2071
SPMM,39,30,0 208 2070
SPMM,40,30,0 208 2069
SPMM,41,30,0 208 2068
SPMM,42,30,0 208 2067
SPMM,43,30,0 208 2066
SPMM,44,30,0 208 2065
SPMM,45,30,0 208 2064
SPMM,46,30,0 208 2063
SPMM,47,30,0 208 2062
UPDATE,31,1 210 2061
UPDATE,30,1 210 2060
UPDATE,29,1 210 2059
UPDATE,28,1 210 2058
UPDATE,27,1 210 2057
UPDATE,26,1 210 2056
UPDATE,25,1 210 2055
UPDATE,24,1 210 2054
UPDATE,23,1 210 2053
UPDATE,22,1 210 2052
UPDATE,21,1 210 2051
UPDATE,20,1 210 2050
UPDATE,19,1 210 2049
UPDATE,18,1 210 2048
UPDATE,17,1 210 2047
UPDATE,16,1 210 2046
XTY,31,11,4 195 2045
XTY,30,10,4 195 2044
XTY,29,9,4 195 2043
XTY,28,8,4 195 2042
XTY,27,7,4 195 2041
XTY,26,6,4 195 2040
XTY,25,5,4 195 2039
XTY,24,4,4 195 2038
XTY,23,3,4 195 2037
XTY,22,2,4 195 2036
XTY,21,1,4 195 2035
XTY,20,0,4 195 2034
XTY,19,19,4 195 2033
XTY,18,18,4 195 2032
XTY,17,17,4 195 2031
XTY,16,16,4 195 2030
SPMM,31,31,0 207 2029
SPMM,30,30,0 207 2028
SPMM,31,30,0 207 2027
XTY,31,11,5 207 2026
SPMM,29,29,0 207 2025
SPMM,30,29,0 207 2024
SPMM,28,28,0 207 2023
SPMM,29,28,0 207 2022
SPMM,30,28,0 207 2021
SPMM,27,27,0 207 2020
SPMM,28,27,0 207 2019
SPMM,29,27,0 207 2018
SPMM,30,27,0 207 2017
SPMM,26,26,0 207 2016
SPMM,27,26,0 207 2015
SPMM,28,26,0 207 2014
SPMM,29,26,0 207 2013
SPMM,30,26,0 207 2012
SPMM,25,25,0 207 2011
SPMM,26,25,0 207 2010
SPMM,27,25,0 207 2009
SPMM,28,25,0 207 2008
SPMM,29,25,0 207 2007
SPMM,30,25,0 207 2006
SPMM,24,24,0 207 2005
SPMM,25,24,0 207 2004
SPMM,26,24,0 207 2003
SPMM,27,24,0 207 2002
SPMM,28,24,0 207 2001
SPMM,29,24,0 207 2000
SPMM,30,24,0 207 1999
SPMM,23,23,0 207 1998
SPMM,24,23,0 207 1997
SPMM,25,23,0 207 1996
SPMM,26,23,0 207 1995
SPMM,27,23,0 207 1994
XTY,27,7,5 207 1993
SPMM,28,23,0 207 1992
SPMM,29,23,0 207 1991
SPMM,30,23,0 207 1990
SPMM,22,22,0 207 1989
SPMM,23,22,0 207 1988
SPMM,21,21,0 207 1987
SPMM,22,21,0 207 1986
SPMM,23,21,0 207 1985
SPMM,25,21,0 207 1984
SPMM,26,21,0 207 1983
SPMM,30,21,0 207 1982
SPMM,20,20,0 207 1981
SPMM,21,20,0 207 1980
SPMM,22,20,0 207 1979
SPMM,23,20,0 207 1978
SPMM,19,19,0 207 1977
SPMM,20,19,0 207 1976
SPMM,21,19,0 207 1975
SPMM,22,19,0 207 1974
SPMM,23,19,0 207 1973
SPMM,24,19,0 207 1972
SPMM,25,19,0 207 1971
SPMM,28,19,0 207 1970
SPMM,29,19,0 207 1969
XTY,29,9,5 207 1968
SPMM,30,19,0 207 1967
SPMM,18,18,0 207 1966
SPMM,19,18,0 207 1965
SPMM,20,18,0 207 1964
SPMM,21,18,0 207 1963
SPMM,22,18,0 207 1962
SPMM,23,18,0 207 1961
SPMM,24,18,0 207 1960
XTY,24,4,5 207 1959
SPMM,25,18,0 207 1958
SPMM,26,18,0 207 1957
XTY,26,6,5 207 1956
SPMM,28,18,0 207 1955
XTY,28,8,5 207 1954
SPMM,30,18,0 207 1953
XTY,30,10,5 207 1952
SPMM,17,17,0 207 1951
SPMM,18,17,0 207 1950
XTY,18,18,5 207 1949
SPMM,19,17,0 207 1948
XTY,19,19,5 207 1947
SPMM,20,17,0 207 1946
XTY,20,0,5 207 1945
SPMM,21,17,0 207 1944
XTY,21,1,5 207 1943
SPMM,22,17,0 207 1942
XTY,22,2,5 207 1941
SPMM,23,17,0 207 1940
XTY,23,3,5 207 1939
SPMM,25,17,0 207 1938
XTY,25,5,5 207 1937
SPMM,16,16,0 207 1936
XTY,16,16,5 207 1935
SPMM,17,16,0 207 1934
XTY,17,17,5 207 1933
XY,32,3 149 1932
XY,33,3 149 1931
XY,34,3 149 1930
XY,35,3 149 1929
XY,36,3 149 1928
XY,37,3 149 1927
XY,38,3 149 1926
XY,39,3 149 1925
XY,40,3 149 1924
XY,41,3 149 1923
XY,42,3 149 1922
XY,43,3 149 1921
XY,44,3 149 1920
XY,45,3 149 1919
XY,46,3 149 1918
XY,47,3 149 1917
DLACPY,47,1 159 1916
SPMM,47,47,0 159 1915
DLACPY,46,1 159 1914
SPMM,46,46,0 159 1913
SPMM,47,46,0 159 1912
DLACPY,45,1 159 1911
SPMM,45,45,0 159 1910
SPMM,46,45,0 159 1909
SPMM,47,45,0 159 1908
DLACPY,44,1 159 1907
SPMM,44,44,0 159 1906
SPMM,45,44,0 159 1905
SPMM,46,44,0 159 1904
SPMM,47,44,0 159 1903
DLACPY,43,1 159 1902
SPMM,43,43,0 159 1901
SPMM,44,43,0 159 1900
SPMM,45,43,0 159 1899
SPMM,46,43,0 159 1898
SPMM,47,43,0 159 1897
DLACPY,42,1 159 1896
SPMM,42,42,0 159 1895
SPMM,43,42,0 159 1894
SPMM,44,42,0 159 1893
SPMM,45,42,0 159 1892
SPMM,46,42,0 159 1891
SPMM,47,42,0 159 1890
DLACPY,41,1 159 1889
SPMM,41,41,0 159 1888
SPMM,42,41,0 159 1887
SPMM,43,41,0 159 1886
SPMM,44,41,0 159 1885
SPMM,45,41,0 159 1884
SPMM,46,41,0 159 1883
SPMM,47,41,0 159 1882
DLACPY,40,1 159 1881
SPMM,40,40,0 159 1880
SPMM,41,40,0 159 1879
SPMM,42,40,0 159 1878
SPMM,43,40,0 159 1877
SPMM,44,40,0 159 1876
SPMM,45,40,0 159 1875
SPMM,46,40,0 159 1874
SPMM,47,40,0 159 1873
DLACPY,39,1 159 1872
SPMM,39,39,0 159 1871
SPMM,40,39,0 159 1870
SPMM,41,39,0 159 1869
SPMM,42,39,0 159 1868
SPMM,43,39,0 159 1867
SPMM,44,39,0 159 1866
SPMM,45,39,0 159 1865
SPMM,46,39,0 159 1864
SPMM,47,39,0 159 1863
DLACPY,38,1 159 1862
SPMM,38,38,0 159 1861
SPMM,39,38,0 159 1860
SPMM,40,38,0 159 1859
SPMM,41,38,0 159 1858
SPMM,42,38,0 159 1857
SPMM,43,38,0 159 1856
SPMM,44,38,0 159 1855
SPMM,45,38,0 159 1854
SPMM,46,38,0 159 1853
SPMM,47,38,0 159 1852
DLACPY,37,1 159 1851
SPMM,37,37,0 159 1850
SPMM,38,37,0 159 1849
SPMM,39,37,0 159 1848
SPMM,40,37,0 159 1847
SPMM,41,37,0 159 1846
SPMM,43,37,0 159 1845
SPMM,45,37,0 159 1844
SPMM,46,37,0 159 1843
SPMM,47,37,0 159 1842
DLACPY,36,1 159 1841
SPMM,36,36,0 159 1840
SPMM,37,36,0 159 1839
SPMM,38,36,0 159 1838
SPMM,39,36,0 159 1837
SPMM,40,36,0 159 1836
SPMM,41,36,0 159 1835
SPMM,42,36,0 159 1834
SPMM,43,36,0 159 1833
SPMM,44,36,0 159 1832
SPMM,45,36,0 159 1831
SPMM,46,36,0 159 1830
SPMM,47,36,0 159 1829
DLACPY,35,1 159 1828
SPMM,35,35,0 159 1827
SPMM,36,35,0 159 1826
SPMM,37,35,0 159 1825
SPMM,38,35,0 159 1824
SPMM,39,35,0 159 1823
SPMM,40,35,0 159 1822
SPMM,41,35,0 159 1821
SPMM,42,35,0 159 1820
SPMM,43,35,0 159 1819
SPMM,44,35,0 159 1818
SPMM,45,35,0 159 1817
SPMM,46,35,0 159 1816
SPMM,47,35,0 159 1815
DLACPY,34,1 159 1814
SPMM,34,34,0 159 1813
SPMM,35,34,0 159 1812
SPMM,36,34,0 159 1811
SPMM,37,34,0 159 1810
SPMM,38,34,0 159 1809
SPMM,39,34,0 159 1808
SPMM,40,34,0 159 1807
SPMM,41,34,0 159 1806
SPMM,42,34,0 159 1805
SPMM,43,34,0 159 1804
SPMM,44,34,0 159 1803
SPMM,45,34,0 159 1802
SPMM,46,34,0 159 1801
SPMM,47,34,0 159 1800
DLACPY,33,1 159 1799
SPMM,33,33,0 159 1798
SPMM,34,33,0 159 1797
SPMM,45,33,0 159 1796
DLACPY,32,1 159 1795
SPMM,32,32,0 159 1794
SPMM,33,32,0 159 1793
SPMM,34,32,0 159 1792
SPMM,35,32,0 159 1791
SPMM,36,32,0 159 1790
SPMM,37,32,0 159 1789
SPMM,38,32,0 159 1788
SPMM,39,32,0 159 1787
SPMM,40,32,0 159 1786
SPMM,41,32,0 159 1785
SPMM,42,32,0 159 1784
SPMM,43,32,0 159 1783
SPMM,44,32,0 159 1782
SPMM,45,32,0 159 1781
SPMM,46,32,0 159 1780
SPMM,47,32,0 159 1779
SPMM,48,32,0 165 1778
SPMM,49,32,0 165 1777
SPMM,50,32,0 165 1776
SPMM,51,32,0 165 1775
SPMM,52,32,0 165 1774
SPMM,53,32,0 165 1773
SPMM,54,32,0 165 1772
SPMM,55,32,0 165 1771
SPMM,56,32,0 165 1770
SPMM,57,32,0 165 1769
SPMM,58,32,0 165 1768
SPMM,59,32,0 165 1767
SPMM,60,32,0 165 1766
SPMM,61,32,0 165 1765
SPMM,48,33,0 165 1764
SPMM,49,33,0 165 1763
SPMM,50,33,0 165 1762
SPMM,51,33,0 165 1761
SPMM,52,33,0 165 1760
SPMM,53,33,0 165 1759
SPMM,54,33,0 165 1758
SPMM,55,33,0 165 1757
SPMM,56,33,0 165 1756
SPMM,57,33,0 165 1755
SPMM,58,33,0 165 1754
SPMM,59,33,0 165 1753
SPMM,60,33,0 165 1752
SPMM,61,33,0 165 1751
SPMM,48,34,0 165 1750
SPMM,50,34,0 165 1749
SPMM,52,34,0 165 1748
SPMM,53,34,0 165 1747
SPMM,54,34,0 165 1746
SPMM,55,34,0 165 1745
SPMM,56,34,0 165 1744
SPMM,57,34,0 165 1743
SPMM,58,34,0 165 1742
SPMM,59,34,0 165 1741
SPMM,60,34,0 165 1740
SPMM,61,34,0 165 1739
SPMM,48,35,0 165 1738
SPMM,54,35,0 165 1737
SPMM,56,35,0 165 1736
SPMM,58,35,0 165 1735
SPMM,60,35,0 165 1734
SPMM,61,35,0 165 1733
SPMM,48,36,0 165 1732
SPMM,61,36,0 165 1731
SPMM,48,37,0 165 1730
SPMM,61,37,0 165 1729
SPMM,48,38,0 165 1728
SPMM,61,38,0 165 1727
SPMM,48,39,0 165 1726
SPMM,54,39,0 165 1725
SPMM,58,39,0 165 1724
SPMM,59,39,0 165 1723
SPMM,60,39,0 165 1722
SPMM,61,39,0 165 1721
SPMM,48,40,0 165 1720
SPMM,54,40,0 165 1719
SPMM,58,40,0 165 1718
SPMM,59,40,0 165 1717
SPMM,61,40,0 165 1716
SPMM,48,41,0 165 1715
SPMM,61,41,0 165 1714
SPMM,48,42,0 165 1713
SPMM,48,43,0 165 1712
SPMM,54,43,0 165 1711
SPMM,60,43,0 165 1710
SPMM,61,43,0 165 1709
SPMM,48,44,0 165 1708
SPMM,54,44,0 165 1707
SPMM,60,44,0 165 1706
SPMM,61,44,0 165 1705
SPMM,48,45,0 165 1704
SPMM,54,45,0 165 1703
SPMM,56,45,0 165 1702
SPMM,57,45,0 165 1701
SPMM,58,45,0 165 1700
SPMM,59,45,0 165 1699
SPMM,60,45,0 165 1698
SPMM,48,46,0 165 1697
SPMM,48,47,0 165 1696
SPMM,61,47,0 165 1695
UPDATE,32,1 166 1694
UPDATE,33,1 166 1693
UPDATE,34,1 166 1692
UPDATE,35,1 166 1691
UPDATE,36,1 166 1690
UPDATE,37,1 166 1689
UPDATE,38,1 166 1688
UPDATE,39,1 166 1687
UPDATE,40,1 166 1686
UPDATE,41,1 166 1685
UPDATE,42,1 166 1684
UPDATE,43,1 166 1683
UPDATE,44,1 166 1682
UPDATE,45,1 166 1681
UPDATE,46,1 166 1680
UPDATE,47,1 166 1679
XTY,32,12,4 167 1678
XTY,33,13,4 167 1677
XTY,34,14,4 167 1676
XTY,35,15,4 167 1675
XTY,36,16,4 167 1674
XTY,37,17,4 167 1673
XTY,38,18,4 167 1672
XTY,39,19,4 167 1671
XTY,40,0,4 167 1670
XTY,41,1,4 167 1669
XTY,42,2,4 167 1668
XTY,43,3,4 167 1667
XTY,44,4,4 167 1666
XTY,45,5,4 167 1665
XTY,46,6,4 167 1664
XTY,47,7,4 167 1663
XTY,0,0,4 209 1662
XTY,1,1,4 209 1661
XTY,2,2,4 209 1660
XTY,3,3,4 209 1659
XTY,4,4,4 209 1658
XTY,5,5,4 209 1657
XTY,6,6,4 209 1656
XTY,7,7,4 209 1655
XTY,8,8,4 209 1654
XTY,9,9,4 209 1653
XTY,10,10,4 209 1652
XTY,11,11,4 209 1651
XTY,12,12,4 209 1650
XTY,13,13,4 209 1649
XTY,14,14,4 209 1648
XTY,15,15,4 209 1647
RED,XARBUF,0 209 1646
GET,16,2 81 1645
GET,17,2 81 1644
GET,18,2 81 1643
GET,19,2 81 1642
GET,20,2 81 1641
GET,21,2 81 1640
GET,22,2 81 1639
GET,23,2 81 1638
GET,24,2 81 1637
GET,25,2 81 1636
GET,26,2 81 1635
GET,27,2 81 1634
GET,28,2 81 1633
GET,29,2 81 1632
GET,30,2 81 1631
GET,31,2 81 1630
XTY,31,11,3 83 1629
XTY,30,10,3 83 1628
XTY,29,9,3 83 1627
XTY,28,8,3 83 1626
XTY,27,7,3 83 1625
XTY,26,6,3 83 1624
XTY,25,5,3 83 1623
XTY,24,4,3 83 1622
XTY,23,3,3 83 1621
XTY,22,2,3 83 1620
XTY,21,1,3 83 1619
XTY,20,0,3 83 1618
XTY,19,19,3 83 1617
XTY,18,18,3 83 1616
XTY,17,17,3 83 1615
XTY,16,16,3 83 1614
GET,32,2 78 1613
XTY,32,12,3 78 1612
GET,33,2 78 1611
XTY,33,13,3 78 1610
GET,34,2 78 1609
XTY,34,14,3 78 1608
GET,35,2 78 1607
XTY,35,15,3 78 1606
GET,36,2 78 1605
XTY,36,16,3 78 1604
GET,37,2 78 1603
XTY,37,17,3 78 1602
GET,38,2 78 1601
XTY,38,18,3 78 1600
GET,39,2 78 1599
XTY,39,19,3 78 1598
GET,40,2 78 1597
XTY,40,0,3 78 1596
GET,41,2 78 1595
XTY,41,1,3 78 1594
GET,42,2 78 1593
XTY,42,2,3 78 1592
GET,43,2 78 1591
XTY,43,3,3 78 1590
GET,44,2 78 1589
XTY,44,4,3 78 1588
GET,45,2 78 1587
XTY,45,5,3 78 1586
GET,46,2 78 1585
XTY,46,6,3 78 1584
GET,47,2 78 1583
XTY,47,7,3 78 1582
GET,48,2 80 1581
XTY,48,8,3 80 1580
GET,49,2 80 1579
XTY,49,9,3 80 1578
GET,50,2 80 1577
XTY,50,10,3 80 1576
GET,51,2 80 1575
XTY,51,11,3 80 1574
GET,52,2 80 1573
XTY,52,12,3 80 1572
GET,53,2 80 1571
XTY,53,13,3 80 1570
GET,54,2 80 1569
XTY,54,14,3 80 1568
GET,55,2 80 1567
XTY,55,15,3 80 1566
GET,56,2 80 1565
XTY,56,16,3 80 1564
GET,57,2 80 1563
XTY,57,17,3 80 1562
GET,58,2 80 1561
XTY,58,18,3 80 1560
GET,59,2 80 1559
XTY,59,19,3 80 1558
GET,60,2 80 1557
XTY,60,0,3 80 1556
GET,61,2 80 1555
XTY,61,1,3 80 1554
_AP,31 55 1553
GET,31,3 55 1552
_AP,30 55 1551
GET,30,3 55 1550
_AP,29 55 1549
GET,29,3 55 1548
_AP,28 55 1547
GET,28,3 55 1546
_AP,27 55 1545
GET,27,3 55 1544
_AP,26 55 1543
GET,26,3 55 1542
_AP,25 55 1541
GET,25,3 55 1540
_AP,24 55 1539
GET,24,3 55 1538
_AP,23 55 1537
GET,23,3 55 1536
_AP,22 55 1535
GET,22,3 55 1534
_AP,21 55 1533
GET,21,3 55 1532
_AP,20 55 1531
GET,20,3 55 1530
_AP,19 55 1529
GET,19,3 55 1528
_AP,18 55 1527
GET,18,3 55 1526
_AP,17 55 1525
GET,17,3 55 1524
_AP,16 55 1523
GET,16,3 55 1522
_AP,47 63 1521
GET,47,3 63 1520
_AP,46 63 1519
GET,46,3 63 1518
_AP,45 63 1517
GET,45,3 63 1516
_AP,44 63 1515
GET,44,3 63 1514
_AP,43 63 1513
GET,43,3 63 1512
_AP,42 63 1511
GET,42,3 63 1510
_AP,41 63 1509
GET,41,3 63 1508
_AP,40 63 1507
GET,40,3 63 1506
_AP,39 63 1505
GET,39,3 63 1504
_AP,38 63 1503
GET,38,3 63 1502
_AP,37 63 1501
GET,37,3 63 1500
_AP,36 63 1499
GET,36,3 63 1498
_AP,35 63 1497
GET,35,3 63 1496
_AP,34 63 1495
GET,34,3 63 1494
_AP,33 63 1493
GET,33,3 63 1492
_AP,32 63 1491
GET,32,3 63 1490
_P,15 0 1489
_P,14 0 1488
_P,13 0 1487
_P,12 0 1486
_P,11 0 1485
_P,10 0 1484
_P,9 0 1483
_P,8 0 1482
_P,7 0 1481
_P,6 0 1480
_P,5 0 1479
_P,4 0 1478
_P,3 0 1477
_P,2 0 1476
_P,1 0 1475
_P,0 0 1474
GET,0,2 85 1473
XTY,0,0,3 85 1472
GET,1,2 85 1471
XTY,1,1,3 85 1470
GET,2,2 85 1469
XTY,2,2,3 85 1468
GET,3,2 85 1467
XTY,3,3,3 85 1466
GET,4,2 85 1465
XTY,4,4,3 85 1464
GET,5,2 85 1463
XTY,5,5,3 85 1462
GET,6,2 85 1461
XTY,6,6,3 85 1460
GET,7,2 85 1459
XTY,7,7,3 85 1458
GET,8,2 85 1457
XTY,8,8,3 85 1456
GET,9,2 85 1455
XTY,9,9,3 85 1454
GET,10,2 85 1453
XTY,10,10,3 85 1452
GET,11,2 85 1451
XTY,11,11,3 85 1450
GET,12,2 85 1449
XTY,12,12,3 85 1448
GET,13,2 85 1447
XTY,13,13,3 85 1446
GET,14,2 85 1445
XTY,14,14,3 85 1444
GET,15,2 85 1443
XTY,15,15,3 85 1442
RED,PBPBUF,0 85 1441
CHOL,PBP 86 1440
INV,PBP 86 1439
XY,0,4 86 1438
XY,1,4 86 1437
XY,2,4 86 1436
XY,3,4 86 1435
XY,4,4 86 1434
XY,5,4 86 1433
XY,6,4 86 1432
XY,7,4 86 1431
XY,8,4 86 1430
XY,9,4 86 1429
XY,10,4 86 1428
XY,11,4 86 1427
XY,12,4 86 1426
XY,13,4 86 1425
XY,14,4 86 1424
XY,15,4 86 1423
DLACPY,15,2 110 1422
XTY,15,15,9 110 1421
DLACPY,14,2 110 1420
XTY,14,14,9 110 1419
DLACPY,13,2 110 1418
XTY,13,13,9 110 1417
DLACPY,12,2 110 1416
XTY,12,12,9 110 1415
DLACPY,11,2 110 1414
XTY,11,11,9 110 1413
DLACPY,10,2 110 1412
XTY,10,10,9 110 1411
DLACPY,9,2 110 1410
XTY,9,9,9 110 1409
DLACPY,8,2 110 1408
XTY,8,8,9 110 1407
DLACPY,7,2 110 1406
XTY,7,7,9 110 1405
DLACPY,6,2 110 1404
XTY,6,6,9 110 1403
DLACPY,5,2 110 1402
XTY,5,5,9 110 1401
DLACPY,4,2 110 1400
XTY,4,4,9 110 1399
DLACPY,3,2 110 1398
XTY,3,3,9 110 1397
DLACPY,2,2 110 1396
XTY,2,2,9 110 1395
DLACPY,1,2 110 1394
XTY,1,1,9 110 1393
DLACPY,0,2 110 1392
XTY,0,0,9 110 1391
UPDATE,0,2 126 1390
UPDATE,1,2 126 1389
UPDATE,2,2 126 1388
UPDATE,3,2 126 1387
UPDATE,4,2 126 1386
UPDATE,5,2 126 1385
UPDATE,6,2 126 1384
UPDATE,7,2 126 1383
UPDATE,8,2 126 1382
UPDATE,9,2 126 1381
UPDATE,10,2 126 1380
UPDATE,11,2 126 1379
UPDATE,12,2 126 1378
UPDATE,13,2 126 1377
UPDATE,14,2 126 1376
UPDATE,15,2 126 1375
XTY,0,0,6 111 1374
XTY,1,1,6 111 1373
XTY,2,2,6 111 1372
XTY,3,3,6 111 1371
XTY,4,4,6 111 1370
XTY,5,5,6 111 1369
XTY,6,6,6 111 1368
XTY,7,7,6 111 1367
XTY,8,8,6 111 1366
XTY,9,9,6 111 1365
XTY,10,10,6 111 1364
XTY,11,11,6 111 1363
XTY,12,12,6 111 1362
XTY,13,13,6 111 1361
XTY,14,14,6 111 1360
XTY,15,15,6 111 1359
XTY,0,0,7 193 1358
XTY,1,1,7 193 1357
XTY,2,2,7 193 1356
XTY,3,3,7 193 1355
XTY,4,4,7 193 1354
XTY,5,5,7 193 1353
XTY,6,6,7 193 1352
XTY,7,7,7 193 1351
XTY,8,8,7 193 1350
XTY,9,9,7 193 1349
XTY,10,10,7 193 1348
XTY,11,11,7 193 1347
XTY,12,12,7 193 1346
XTY,13,13,7 193 1345
XTY,14,14,7 193 1344
XTY,15,15,7 193 1343
XY,16,4 87 1342
XY,17,4 87 1341
XY,18,4 87 1340
XY,19,4 87 1339
XY,20,4 87 1338
XY,21,4 87 1337
XY,22,4 87 1336
XY,23,4 87 1335
XY,24,4 87 1334
XY,25,4 87 1333
XY,26,4 87 1332
XY,27,4 87 1331
XY,28,4 87 1330
XY,29,4 87 1329
XY,30,4 87 1328
XY,31,4 87 1327
DLACPY,31,2 117 1326
XTY,31,11,6 117 1325
DLACPY,30,2 117 1324
XTY,30,10,6 117 1323
DLACPY,29,2 117 1322
XTY,29,9,6 117 1321
DLACPY,28,2 117 1320
XTY,28,8,6 117 1319
DLACPY,27,2 117 1318
XTY,27,7,6 117 1317
DLACPY,26,2 117 1316
XTY,26,6,6 117 1315
DLACPY,25,2 117 1314
XTY,25,5,6 117 1313
DLACPY,24,2 117 1312
XTY,24,4,6 117 1311
DLACPY,23,2 117 1310
XTY,23,3,6 117 1309
DLACPY,22,2 117 1308
XTY,22,2,6 117 1307
DLACPY,21,2 117 1306
XTY,21,1,6 117 1305
DLACPY,20,2 117 1304
XTY,20,0,6 117 1303
DLACPY,19,2 117 1302
XTY,19,19,6 117 1301
DLACPY,18,2 117 1300
XTY,18,18,6 117 1299
DLACPY,17,2 117 1298
XTY,17,17,6 117 1297
DLACPY,16,2 117 1296
XTY,16,16,6 117 1295
UPDATE,16,2 118 1294
UPDATE,17,2 118 1293
UPDATE,18,2 118 1292
UPDATE,19,2 118 1291
UPDATE,20,2 118 1290
UPDATE,21,2 118 1289
UPDATE,22,2 118 1288
UPDATE,23,2 118 1287
UPDATE,24,2 118 1286
UPDATE,25,2 118 1285
UPDATE,26,2 118 1284
UPDATE,27,2 118 1283
UPDATE,28,2 118 1282
UPDATE,29,2 118 1281
UPDATE,30,2 118 1280
UPDATE,31,2 118 1279
XTY,16,16,9 128 1278
XTY,17,17,9 128 1277
XTY,18,18,9 128 1276
XTY,19,19,9 128 1275
XTY,20,0,9 128 1274
XTY,21,1,9 128 1273
XTY,22,2,9 128 1272
XTY,23,3,9 128 1271
XTY,24,4,9 128 1270
XTY,25,5,9 128 1269
XTY,26,6,9 128 1268
XTY,27,7,9 128 1267
XTY,28,8,9 128 1266
XTY,29,9,9 128 1265
XTY,30,10,9 128 1264
XTY,31,11,9 128 1263
XTY,16,16,10 185 1262
XTY,17,17,10 185 1261
XTY,18,18,10 185 1260
XTY,19,19,10 185 1259
XTY,20,0,10 185 1258
XTY,21,1,10 185 1257
XTY,22,2,10 185 1256
XTY,23,3,10 185 1255
XTY,24,4,10 185 1254
XTY,25,5,10 185 1253
XTY,26,6,10 185 1252
XTY,27,7,10 185 1251
XTY,28,8,10 185 1250
XTY,29,9,10 185 1249
XTY,30,10,10 185 1248
XTY,31,11,10 185 1247
XY,32,4 94 1246
XY,33,4 94 1245
XY,34,4 94 1244
XY,35,4 94 1243
XY,36,4 94 1242
XY,37,4 94 1241
XY,38,4 94 1240
XY,39,4 94 1239
XY,40,4 94 1238
XY,41,4 94 1237
XY,42,4 94 1236
XY,43,4 94 1235
XY,44,4 94 1234
XY,45,4 94 1233
XY,46,4 94 1232
XY,47,4 94 1231
DLACPY,47,2 137 1230
UPDATE,47,2 137 1229
XTY,47,7,6 137 1228
DLACPY,46,2 137 1227
UPDATE,46,2 137 1226
XTY,46,6,6 137 1225
DLACPY,45,2 137 1224
UPDATE,45,2 137 1223
XTY,45,5,6 137 1222
DLACPY,44,2 137 1221
UPDATE,44,2 137 1220
XTY,44,4,6 137 1219
DLACPY,43,2 137 1218
UPDATE,43,2 137 1217
XTY,43,3,6 137 1216
DLACPY,42,2 137 1215
UPDATE,42,2 137 1214
XTY,42,2,6 137 1213
DLACPY,41,2 137 1212
UPDATE,41,2 137 1211
XTY,41,1,6 137 1210
DLACPY,40,2 137 1209
UPDATE,40,2 137 1208
XTY,40,0,6 137 1207
DLACPY,39,2 137 1206
UPDATE,39,2 137 1205
XTY,39,19,6 137 1204
DLACPY,38,2 137 1203
UPDATE,38,2 137 1202
XTY,38,18,6 137 1201
DLACPY,37,2 137 1200
UPDATE,37,2 137 1199
XTY,37,17,6 137 1198
DLACPY,36,2 137 1197
UPDATE,36,2 137 1196
XTY,36,16,6 137 1195
DLACPY,35,2 137 1194
UPDATE,35,2 137 1193
XTY,35,15,6 137 1192
DLACPY,34,2 137 1191
UPDATE,34,2 137 1190
XTY,34,14,6 137 1189
DLACPY,33,2 137 1188
UPDATE,33,2 137 1187
XTY,33,13,6 137 1186
DLACPY,32,2 137 1185
UPDATE,32,2 137 1184
XTY,32,12,6 137 1183
XTY,33,13,7 217 1182
XTY,36,16,7 217 1181
XTY,37,17,7 217 1180
XTY,38,18,7 217 1179
XTY,39,19,7 217 1178
XTY,40,0,7 217 1177
XTY,41,1,7 217 1176
XTY,42,2,7 217 1175
SPMM,32,0,0 217 1174
SPMM,34,0,0 217 1173
SPMM,35,0,0 217 1172
SPMM,43,0,0 217 1171
SPMM,44,0,0 217 1170
SPMM,45,0,0 217 1169
SPMM,46,0,0 217 1168
SPMM,47,0,0 217 1167
SPMM,32,1,0 217 1166
SPMM,34,1,0 217 1165
SPMM,35,1,0 217 1164
SPMM,43,1,0 217 1163
SPMM,44,1,0 217 1162
SPMM,45,1,0 217 1161
SPMM,46,1,0 217 1160
SPMM,32,4,0 217 1159
SPMM,34,4,0 217 1158
SPMM,35,4,0 217 1157
SPMM,43,4,0 217 1156
SPMM,45,4,0 217 1155
SPMM,47,4,0 217 1154
SPMM,32,5,0 217 1153
SPMM,34,5,0 217 1152
SPMM,35,5,0 217 1151
SPMM,43,5,0 217 1150
SPMM,44,5,0 217 1149
XTY,44,4,7 217 1148
SPMM,45,5,0 217 1147
SPMM,46,5,0 217 1146
XTY,46,6,7 217 1145
SPMM,47,5,0 217 1144
XTY,47,7,7 217 1143
SPMM,32,12,0 217 1142
SPMM,35,12,0 217 1141
SPMM,43,12,0 217 1140
XTY,43,3,7 217 1139
SPMM,32,14,0 217 1138
SPMM,34,14,0 217 1137
XTY,34,14,7 217 1136
SPMM,35,14,0 217 1135
SPMM,45,14,0 217 1134
SPMM,32,15,0 217 1133
XTY,32,12,7 217 1132
SPMM,35,15,0 217 1131
XTY,35,15,7 217 1130
SPMM,45,15,0 217 1129
XTY,45,5,7 217 1128
XTY,45,5,5 218 1127
XTY,35,15,5 218 1126
XTY,32,12,5 218 1125
XTY,34,14,5 218 1124
XTY,43,3,5 218 1123
XTY,47,7,5 218 1122
XTY,46,6,5 218 1121
XTY,44,4,5 218 1120
XTY,42,2,5 218 1119
XTY,41,1,5 218 1118
XTY,40,0,5 218 1117
XTY,39,19,5 218 1116
XTY,38,18,5 218 1115
XTY,37,17,5 218 1114
XTY,36,16,5 218 1113
XTY,33,13,5 218 1112
XTY,32,12,9 138 1111
XTY,33,13,9 138 1110
XTY,34,14,9 138 1109
XTY,35,15,9 138 1108
XTY,36,16,9 138 1107
XTY,37,17,9 138 1106
XTY,38,18,9 138 1105
XTY,39,19,9 138 1104
XTY,40,0,9 138 1103
XTY,41,1,9 138 1102
XTY,42,2,9 138 1101
XTY,43,3,9 138 1100
XTY,44,4,9 138 1099
XTY,45,5,9 138 1098
XTY,46,6,9 138 1097
XTY,47,7,9 138 1096
XTY,32,12,10 168 1095
XTY,33,13,10 168 1094
XTY,34,14,10 168 1093
XTY,35,15,10 168 1092
XTY,36,16,10 168 1091
XTY,37,17,10 168 1090
XTY,38,18,10 168 1089
XTY,39,19,10 168 1088
XTY,40,0,10 168 1087
XTY,41,1,10 168 1086
XTY,42,2,10 168 1085
XTY,43,3,10 168 1084
XTY,44,4,10 168 1083
XTY,45,5,10 168 1082
XTY,46,6,10 168 1081
XTY,47,7,10 168 1080
XY,48,4 95 1079
XY,49,4 95 1078
XY,50,4 95 1077
XY,51,4 95 1076
XY,52,4 95 1075
XY,53,4 95 1074
XY,54,4 95 1073
XY,55,4 95 1072
XY,56,4 95 1071
XY,57,4 95 1070
XY,58,4 95 1069
XY,59,4 95 1068
XY,60,4 95 1067
XY,61,4 95 1066
DLACPY,61,2 102 1065
UPDATE,61,2 102 1064
XTY,61,1,9 102 1063
DLACPY,60,2 102 1062
UPDATE,60,2 102 1061
XTY,60,0,9 102 1060
DLACPY,59,2 102 1059
UPDATE,59,2 102 1058
XTY,59,19,9 102 1057
DLACPY,58,2 102 1056
UPDATE,58,2 102 1055
XTY,58,18,9 102 1054
DLACPY,57,2 102 1053
UPDATE,57,2 102 1052
XTY,57,17,9 102 1051
DLACPY,56,2 102 1050
UPDATE,56,2 102 1049
XTY,56,16,9 102 1048
DLACPY,55,2 102 1047
UPDATE,55,2 102 1046
XTY,55,15,9 102 1045
DLACPY,54,2 102 1044
UPDATE,54,2 102 1043
XTY,54,14,9 102 1042
DLACPY,53,2 102 1041
UPDATE,53,2 102 1040
XTY,53,13,9 102 1039
DLACPY,52,2 102 1038
UPDATE,52,2 102 1037
XTY,52,12,9 102 1036
DLACPY,51,2 102 1035
UPDATE,51,2 102 1034
XTY,51,11,9 102 1033
DLACPY,50,2 102 1032
UPDATE,50,2 102 1031
XTY,50,10,9 102 1030
DLACPY,49,2 102 1029
UPDATE,49,2 102 1028
XTY,49,9,9 102 1027
DLACPY,48,2 102 1026
UPDATE,48,2 102 1025
XTY,48,8,9 102 1024
XTY,48,8,6 103 1023
XTY,49,9,6 103 1022
XTY,50,10,6 103 1021
XTY,51,11,6 103 1020
XTY,52,12,6 103 1019
XTY,53,13,6 103 1018
XTY,54,14,6 103 1017
XTY,55,15,6 103 1016
XTY,56,16,6 103 1015
XTY,57,17,6 103 1014
XTY,58,18,6 103 1013
XTY,59,19,6 103 1012
XTY,60,0,6 103 1011
XTY,61,1,6 103 1010
XTY,49,9,7 192 1009
XTY,50,10,7 192 1008
XTY,51,11,7 192 1007
XTY,52,12,7 192 1006
XTY,53,13,7 192 1005
XTY,55,15,7 192 1004
XTY,57,17,7 192 1003
SPMM,48,31,0 192 1002
SPMM,54,31,0 192 1001
SPMM,58,31,0 192 1000
SPMM,59,31,0 192 999
XTY,59,19,7 192 998
SPMM,60,31,0 192 997
SPMM,61,31,0 192 996
SPMM,48,30,0 192 995
XTY,48,8,7 192 994
SPMM,54,30,0 192 993
XTY,54,14,7 192 992
SPMM,56,30,0 192 991
XTY,56,16,7 192 990
SPMM,58,30,0 192 989
XTY,58,18,7 192 988
SPMM,60,30,0 192 987
XTY,60,0,7 192 986
SPMM,61,30,0 192 985
SPMM,61,28,0 192 984
SPMM,61,27,0 192 983
SPMM,61,26,0 192 982
SPMM,61,25,0 192 981
SPMM,61,24,0 192 980
SPMM,61,23,0 192 979
SPMM,61,22,0 192 978
SPMM,61,21,0 192 977
SPMM,61,20,0 192 976
SPMM,61,19,0 192 975
SPMM,61,17,0 192 974
SPMM,61,16,0 192 973
XTY,61,1,7 192 972
XTY,61,1,5 194 971
XTY,60,0,5 194 970
XTY,58,18,5 194 969
XTY,56,16,5 194 968
XTY,54,14,5 194 967
XTY,48,8,5 194 966
XTY,59,19,5 194 965
XTY,57,17,5 194 964
XTY,55,15,5 194 963
XTY,53,13,5 194 962
XTY,52,12,5 194 961
XTY,50,10,5 194 960
XTY,51,11,5 194 959
XTY,49,9,5 194 958
RED,RARBUF,0 219 957
TRANS,RAR 219 956
XTY,16,16,7 219 955
XTY,17,17,7 219 954
XTY,18,18,7 219 953
XTY,19,19,7 219 952
XTY,20,0,7 219 951
XTY,21,1,7 219 950
XTY,22,2,7 219 949
XTY,23,3,7 219 948
XTY,24,4,7 219 947
XTY,25,5,7 219 946
XTY,26,6,7 219 945
XTY,27,7,7 219 944
XTY,28,8,7 219 943
XTY,29,9,7 219 942
XTY,30,10,7 219 941
XTY,31,11,7 219 940
RED,RAPBUF,0 219 939
XTY,48,8,10 176 938
XTY,49,9,10 176 937
XTY,50,10,10 176 936
XTY,51,11,10 176 935
XTY,52,12,10 176 934
XTY,53,13,10 176 933
XTY,54,14,10 176 932
XTY,55,15,10 176 931
XTY,56,16,10 176 930
XTY,57,17,10 176 929
XTY,58,18,10 176 928
XTY,59,19,10 176 927
XTY,60,0,10 176 926
XTY,61,1,10 176 925
XTY,0,0,10 211 924
XTY,1,1,10 211 923
XTY,2,2,10 211 922
XTY,3,3,10 211 921
XTY,4,4,10 211 920
XTY,5,5,10 211 919
XTY,6,6,10 211 918
XTY,7,7,10 211 917
XTY,8,8,10 211 916
XTY,9,9,10 211 915
XTY,10,10,10 211 914
XTY,11,11,10 211 913
XTY,12,12,10 211 912
XTY,13,13,10 211 911
XTY,14,14,10 211 910
XTY,15,15,10 211 909
RED,RBPBUF,0 211 908
XY,0,5 96 907
XY,1,5 96 906
XY,2,5 96 905
XY,3,5 96 904
XY,4,5 96 903
XY,5,5 96 902
XY,6,5 96 901
XY,7,5 96 900
XY,8,5 96 899
XY,9,5 96 898
XY,10,5 96 897
XY,11,5 96 896
XY,12,5 96 895
XY,13,5 96 894
XY,14,5 96 893
XY,15,5 96 892
DLACPY,15,3 124 891
XTY,15,15,8 124 890
DLACPY,14,3 124 889
XTY,14,14,8 124 888
DLACPY,13,3 124 887
XTY,13,13,8 124 886
DLACPY,12,3 124 885
XTY,12,12,8 124 884
DLACPY,11,3 124 883
XTY,11,11,8 124 882
DLACPY,10,3 124 881
XTY,10,10,8 124 880
DLACPY,9,3 124 879
XTY,9,9,8 124 878
DLACPY,8,3 124 877
XTY,8,8,8 124 876
DLACPY,7,3 124 875
XTY,7,7,8 124 874
DLACPY,6,3 124 873
XTY,6,6,8 124 872
DLACPY,5,3 124 871
XTY,5,5,8 124 870
DLACPY,4,3 124 869
XTY,4,4,8 124 868
DLACPY,3,3 124 867
XTY,3,3,8 124 866
DLACPY,2,3 124 865
XTY,2,2,8 124 864
DLACPY,1,3 124 863
XTY,1,1,8 124 862
DLACPY,0,3 124 861
XTY,0,0,8 124 860
UPDATE,0,3 125 859
UPDATE,1,3 125 858
UPDATE,2,3 125 857
UPDATE,3,3 125 856
UPDATE,4,3 125 855
UPDATE,5,3 125 854
UPDATE,6,3 125 853
UPDATE,7,3 125 852
UPDATE,8,3 125 851
UPDATE,9,3 125 850
UPDATE,10,3 125 849
UPDATE,11,3 125 848
UPDATE,12,3 125 847
UPDATE,13,3 125 846
UPDATE,14,3 125 845
UPDATE,15,3 125 844
XY,16,5 129 843
DLACPY,16,3 129 842
XY,17,5 129 841
DLACPY,17,3 129 840
XY,18,5 129 839
DLACPY,18,3 129 838
XY,19,5 129 837
DLACPY,19,3 129 836
XY,20,5 129 835
DLACPY,20,3 129 834
XY,21,5 129 833
DLACPY,21,3 129 832
XY,22,5 129 831
DLACPY,22,3 129 830
XY,23,5 129 829
DLACPY,23,3 129 828
XY,24,5 129 827
DLACPY,24,3 129 826
XY,25,5 129 825
DLACPY,25,3 129 824
XY,26,5 129 823
DLACPY,26,3 129 822
XY,27,5 129 821
DLACPY,27,3 129 820
XY,28,5 129 819
DLACPY,28,3 129 818
XY,29,5 129 817
DLACPY,29,3 129 816
XY,30,5 129 815
DLACPY,30,3 129 814
XY,31,5 129 813
DLACPY,31,3 129 812
XTY,31,11,8 130 811
XTY,30,10,8 130 810
XTY,29,9,8 130 809
XTY,28,8,8 130 808
XTY,27,7,8 130 807
XTY,26,6,8 130 806
XTY,25,5,8 130 805
XTY,24,4,8 130 804
XTY,23,3,8 130 803
XTY,22,2,8 130 802
XTY,21,1,8 130 801
XTY,20,0,8 130 800
XTY,19,19,8 130 799
XTY,18,18,8 130 798
XTY,17,17,8 130 797
XTY,16,16,8 130 796
XY,32,5 127 795
XY,33,5 127 794
XY,34,5 127 793
XY,35,5 127 792
XY,36,5 127 791
XY,37,5 127 790
XY,38,5 127 789
XY,39,5 127 788
XY,40,5 127 787
XY,41,5 127 786
XY,42,5 127 785
XY,43,5 127 784
XY,44,5 127 783
XY,45,5 127 782
XY,46,5 127 781
XY,47,5 127 780
DLACPY,47,3 131 779
DLACPY,46,3 131 778
DLACPY,45,3 131 777
DLACPY,44,3 131 776
DLACPY,43,3 131 775
DLACPY,42,3 131 774
DLACPY,41,3 131 773
DLACPY,40,3 131 772
DLACPY,39,3 131 771
DLACPY,38,3 131 770
DLACPY,37,3 131 769
DLACPY,36,3 131 768
DLACPY,35,3 131 767
DLACPY,34,3 131 766
DLACPY,33,3 131 765
DLACPY,32,3 131 764
UPDATE,32,3 139 763
XTY,32,12,8 139 762
UPDATE,33,3 139 761
XTY,33,13,8 139 760
UPDATE,34,3 139 759
XTY,34,14,8 139 758
UPDATE,35,3 139 757
XTY,35,15,8 139 756
UPDATE,36,3 139 755
XTY,36,16,8 139 754
UPDATE,37,3 139 753
XTY,37,17,8 139 752
UPDATE,38,3 139 751
XTY,38,18,8 139 750
UPDATE,39,3 139 749
XTY,39,19,8 139 748
UPDATE,40,3 139 747
XTY,40,0,8 139 746
UPDATE,41,3 139 745
XTY,41,1,8 139 744
UPDATE,42,3 139 743
XTY,42,2,8 139 742
UPDATE,43,3 139 741
XTY,43,3,8 139 740
UPDATE,44,3 139 739
XTY,44,4,8 139 738
UPDATE,45,3 139 737
XTY,45,5,8 139 736
UPDATE,46,3 139 735
XTY,46,6,8 139 734
UPDATE,47,3 139 733
XTY,47,7,8 139 732
GET,48,3 93 731
XY,48,5 93 730
DLACPY,48,3 93 729
GET,49,3 93 728
XY,49,5 93 727
DLACPY,49,3 93 726
GET,50,3 93 725
XY,50,5 93 724
DLACPY,50,3 93 723
GET,51,3 93 722
XY,51,5 93 721
DLACPY,51,3 93 720
GET,52,3 93 719
XY,52,5 93 718
DLACPY,52,3 93 717
GET,53,3 93 716
XY,53,5 93 715
DLACPY,53,3 93 714
GET,54,3 93 713
XY,54,5 93 712
DLACPY,54,3 93 711
GET,55,3 93 710
XY,55,5 93 709
DLACPY,55,3 93 708
GET,56,3 93 707
XY,56,5 93 706
DLACPY,56,3 93 705
GET,57,3 93 704
XY,57,5 93 703
DLACPY,57,3 93 702
GET,58,3 93 701
XY,58,5 93 700
DLACPY,58,3 93 699
GET,59,3 93 698
XY,59,5 93 697
DLACPY,59,3 93 696
GET,60,3 93 695
XY,60,5 93 694
DLACPY,60,3 93 693
GET,61,3 93 692
XY,61,5 93 691
DLACPY,61,3 93 690
UPDATE,61,3 220 689
UPDATE,60,3 220 688
UPDATE,59,3 220 687
UPDATE,58,3 220 686
UPDATE,57,3 220 685
UPDATE,56,3 220 684
UPDATE,55,3 220 683
UPDATE,54,3 220 682
UPDATE,53,3 220 681
UPDATE,52,3 220 680
UPDATE,51,3 220 679
UPDATE,50,3 220 678
UPDATE,49,3 220 677
UPDATE,48,3 220 676
SPEUPDATE,RAR 220 675
RED,XBPBUF,0 220 674
UPDATE,0,1 220 673
UPDATE,1,1 220 672
UPDATE,2,1 220 671
UPDATE,3,1 220 670
UPDATE,4,1 220 669
UPDATE,5,1 220 668
UPDATE,6,1 220 667
UPDATE,7,1 220 666
UPDATE,8,1 220 665
UPDATE,9,1 220 664
UPDATE,10,1 220 663
UPDATE,11,1 220 662
UPDATE,12,1 220 661
UPDATE,13,1 220 660
UPDATE,14,1 220 659
UPDATE,15,1 220 658
XTY,61,1,8 104 657
XTY,60,0,8 104 656
XTY,59,19,8 104 655
XTY,58,18,8 104 654
XTY,57,17,8 104 653
XTY,56,16,8 104 652
XTY,55,15,8 104 651
XTY,54,14,8 104 650
XTY,53,13,8 104 649
XTY,52,12,8 104 648
XTY,51,11,8 104 647
XTY,50,10,8 104 646
XTY,49,9,8 104 645
XTY,48,8,8 104 644
RED,PAPBUF,0 221 643
SPEUPDATE,PAP 221 642
UPDATE,31,3 221 641
UPDATE,30,3 221 640
UPDATE,29,3 221 639
UPDATE,28,3 221 638
UPDATE,27,3 221 637
UPDATE,26,3 221 636
UPDATE,25,3 221 635
UPDATE,24,3 221 634
UPDATE,23,3 221 633
UPDATE,22,3 221 632
UPDATE,21,3 221 631
UPDATE,20,3 221 630
UPDATE,19,3 221 629
UPDATE,18,3 221 628
UPDATE,17,3 221 627
UPDATE,16,3 221 626
CONSTRUCTGB 222 625
RED,XAPBUF,0 222 624
CONSTRUCTGA1 222 623
CONSTRUCTGA2 222 622
EIGEN 222 621
XY,48,11 222 620
XY,49,11 222 619
XY,50,11 222 618
XY,51,11 222 617
XY,52,11 222 616
XY,53,11 222 615
XY,54,11 222 614
XY,55,11 222 613
XY,56,11 222 612
XY,57,11 222 611
XY,58,11 222 610
XY,59,11 222 609
XY,60,11 222 608
XY,61,11 222 607
XY,0,6 228 606
XY,1,6 228 605
XY,2,6 228 604
XY,3,6 228 603
XY,4,6 228 602
XY,5,6 228 601
XY,6,6 228 600
XY,7,6 228 599
XY,8,6 228 598
XY,9,6 228 597
XY,10,6 228 596
XY,11,6 228 595
XY,12,6 228 594
XY,13,6 228 593
XY,14,6 228 592
XY,15,6 228 591
XY,16,6 233 590
XY,17,6 233 589
XY,18,6 233 588
XY,19,6 233 587
XY,20,6 233 586
XY,21,6 233 585
XY,22,6 233 584
XY,23,6 233 583
XY,24,6 233 582
XY,25,6 233 581
XY,26,6 233 580
XY,27,6 233 579
XY,28,6 233 578
XY,29,6 233 577
XY,30,6 233 576
XY,31,6 233 575
XY,16,7 289 574
ADD,16,1 289 573
XY,17,7 289 572
ADD,17,1 289 571
XY,18,7 289 570
ADD,18,1 289 569
XY,19,7 289 568
ADD,19,1 289 567
XY,20,7 289 566
ADD,20,1 289 565
XY,21,7 289 564
ADD,21,1 289 563
XY,22,7 289 562
ADD,22,1 289 561
XY,23,7 289 560
ADD,23,1 289 559
XY,24,7 289 558
ADD,24,1 289 557
XY,25,7 289 556
ADD,25,1 289 555
XY,26,7 289 554
ADD,26,1 289 553
XY,27,7 289 552
ADD,27,1 289 551
XY,28,7 289 550
ADD,28,1 289 549
XY,29,7 289 548
ADD,29,1 289 547
XY,30,7 289 546
ADD,30,1 289 545
XY,31,7 289 544
ADD,31,1 289 543
XY,48,6 260 542
XY,49,6 260 541
XY,50,6 260 540
XY,51,6 260 539
XY,52,6 260 538
XY,53,6 260 537
XY,54,6 260 536
XY,55,6 260 535
XY,56,6 260 534
XY,57,6 260 533
XY,58,6 260 532
XY,59,6 260 531
XY,60,6 260 530
XY,61,6 260 529
XY,48,7 266 528
ADD,48,1 266 527
XY,49,7 266 526
ADD,49,1 266 525
XY,50,7 266 524
ADD,50,1 266 523
XY,51,7 266 522
ADD,51,1 266 521
XY,52,7 266 520
ADD,52,1 266 519
XY,53,7 266 518
ADD,53,1 266 517
XY,54,7 266 516
ADD,54,1 266 515
XY,55,7 266 514
ADD,55,1 266 513
XY,56,7 266 512
ADD,56,1 266 511
XY,57,7 266 510
ADD,57,1 266 509
XY,58,7 266 508
ADD,58,1 266 507
XY,59,7 266 506
ADD,59,1 266 505
XY,60,7 266 504
ADD,60,1 266 503
XY,61,7 266 502
ADD,61,1 266 501
XY,48,10 351 500
ADD,48,3 351 499
XY,49,10 351 498
ADD,49,3 351 497
XY,50,10 351 496
ADD,50,3 351 495
XY,51,10 351 494
ADD,51,3 351 493
XY,52,10 351 492
ADD,52,3 351 491
XY,53,10 351 490
ADD,53,3 351 489
XY,54,10 351 488
ADD,54,3 351 487
XY,55,10 351 486
ADD,55,3 351 485
XY,56,10 351 484
ADD,56,3 351 483
XY,57,10 351 482
ADD,57,3 351 481
XY,58,10 351 480
ADD,58,3 351 479
XY,59,10 351 478
ADD,59,3 351 477
XY,60,10 351 476
ADD,60,3 351 475
XY,61,10 351 474
ADD,61,3 351 473
XY,0,7 255 472
XY,1,7 255 471
XY,2,7 255 470
XY,3,7 255 469
XY,4,7 255 468
XY,5,7 255 467
XY,6,7 255 466
XY,7,7 255 465
XY,8,7 255 464
XY,9,7 255 463
XY,10,7 255 462
XY,11,7 255 461
XY,12,7 255 460
XY,13,7 255 459
XY,14,7 255 458
XY,15,7 255 457
ADD,15,1 267 456
ADD,14,1 267 455
ADD,13,1 267 454
ADD,12,1 267 453
ADD,11,1 267 452
ADD,10,1 267 451
ADD,9,1 267 450
ADD,8,1 267 449
ADD,7,1 267 448
ADD,6,1 267 447
ADD,5,1 267 446
ADD,4,1 267 445
ADD,3,1 267 444
ADD,2,1 267 443
ADD,1,1 267 442
ADD,0,1 267 441
XY,32,7 244 440
XY,33,7 244 439
XY,34,7 244 438
XY,35,7 244 437
XY,36,7 244 436
XY,37,7 244 435
XY,38,7 244 434
XY,39,7 244 433
XY,40,7 244 432
XY,41,7 244 431
XY,42,7 244 430
XY,43,7 244 429
XY,44,7 244 428
XY,45,7 244 427
XY,46,7 244 426
XY,47,7 244 425
XY,32,6 250 424
ADD,32,1 250 423
XY,33,6 250 422
ADD,33,1 250 421
XY,34,6 250 420
ADD,34,1 250 419
XY,35,6 250 418
ADD,35,1 250 417
XY,36,6 250 416
ADD,36,1 250 415
XY,37,6 250 414
ADD,37,1 250 413
XY,38,6 250 412
ADD,38,1 250 411
XY,39,6 250 410
ADD,39,1 250 409
XY,40,6 250 408
ADD,40,1 250 407
XY,41,6 250 406
ADD,41,1 250 405
XY,42,6 250 404
ADD,42,1 250 403
XY,43,6 250 402
ADD,43,1 250 401
XY,44,6 250 400
ADD,44,1 250 399
XY,45,6 250 398
ADD,45,1 250 397
XY,46,6 250 396
ADD,46,1 250 395
XY,47,6 250 394
ADD,47,1 250 393
XY,0,8 290 392
XY,1,8 290 391
XY,2,8 290 390
XY,3,8 290 389
XY,4,8 290 388
XY,5,8 290 387
XY,6,8 290 386
XY,7,8 290 385
XY,8,8 290 384
XY,9,8 290 383
XY,10,8 290 382
XY,11,8 290 381
XY,12,8 290 380
XY,13,8 290 379
XY,14,8 290 378
XY,15,8 290 377
XY,0,9 314 376
XY,1,9 314 375
XY,2,9 314 374
XY,3,9 314 373
XY,4,9 314 372
XY,5,9 314 371
XY,6,9 314 370
XY,7,9 314 369
XY,8,9 314 368
XY,9,9 314 367
XY,10,9 314 366
XY,11,9 314 365
XY,12,9 314 364
XY,13,9 314 363
XY,14,9 314 362
XY,15,9 314 361
XY,16,9 278 360
XY,17,9 278 359
XY,18,9 278 358
XY,19,9 278 357
XY,20,9 278 356
XY,21,9 278 355
XY,22,9 278 354
XY,23,9 278 353
XY,24,9 278 352
XY,25,9 278 351
XY,26,9 278 350
XY,27,9 278 349
XY,28,9 278 348
XY,29,9 278 347
XY,30,9 278 346
XY,31,9 278 345
XY,16,8 357 344
ADD,16,2 357 343
XY,17,8 357 342
ADD,17,2 357 341
XY,18,8 357 340
ADD,18,2 357 339
XY,19,8 357 338
ADD,19,2 357 337
XY,20,8 357 336
ADD,20,2 357 335
XY,21,8 357 334
ADD,21,2 357 333
XY,22,8 357 332
ADD,22,2 357 331
XY,23,8 357 330
ADD,23,2 357 329
XY,24,8 357 328
ADD,24,2 357 327
XY,25,8 357 326
ADD,25,2 357 325
XY,26,8 357 324
ADD,26,2 357 323
XY,27,8 357 322
ADD,27,2 357 321
XY,28,8 357 320
ADD,28,2 357 319
XY,29,8 357 318
ADD,29,2 357 317
XY,30,8 357 316
ADD,30,2 357 315
XY,31,8 357 314
ADD,31,2 357 313
XY,32,9 326 312
XY,33,9 326 311
XY,34,9 326 310
XY,35,9 326 309
XY,36,9 326 308
XY,37,9 326 307
XY,38,9 326 306
XY,39,9 326 305
XY,40,9 326 304
XY,41,9 326 303
XY,42,9 326 302
XY,43,9 326 301
XY,44,9 326 300
XY,45,9 326 299
XY,46,9 326 298
XY,47,9 326 297
XY,32,8 332 296
ADD,32,2 332 295
XY,33,8 332 294
ADD,33,2 332 293
XY,34,8 332 292
ADD,34,2 332 291
XY,35,8 332 290
ADD,35,2 332 289
XY,36,8 332 288
ADD,36,2 332 287
XY,37,8 332 286
ADD,37,2 332 285
XY,38,8 332 284
ADD,38,2 332 283
XY,39,8 332 282
ADD,39,2 332 281
XY,40,8 332 280
ADD,40,2 332 279
XY,41,8 332 278
ADD,41,2 332 277
XY,42,8 332 276
ADD,42,2 332 275
XY,43,8 332 274
ADD,43,2 332 273
XY,44,8 332 272
ADD,44,2 332 271
XY,45,8 332 270
ADD,45,2 332 269
XY,46,8 332 268
ADD,46,2 332 267
XY,47,8 332 266
ADD,47,2 332 265
XY,32,11 344 264
ADD,32,4 344 263
XY,33,11 344 262
ADD,33,4 344 261
XY,34,11 344 260
ADD,34,4 344 259
XY,35,11 344 258
ADD,35,4 344 257
XY,36,11 344 256
ADD,36,4 344 255
XY,37,11 344 254
ADD,37,4 344 253
XY,38,11 344 252
ADD,38,4 344 251
XY,39,11 344 250
ADD,39,4 344 249
XY,40,11 344 248
ADD,40,4 344 247
XY,41,11 344 246
ADD,41,4 344 245
XY,42,11 344 244
ADD,42,4 344 243
XY,43,11 344 242
ADD,43,4 344 241
XY,44,11 344 240
ADD,44,4 344 239
XY,45,11 344 238
ADD,45,4 344 237
XY,46,11 344 236
ADD,46,4 344 235
XY,47,11 344 234
ADD,47,4 344 233
XY,48,9 238 232
XY,49,9 238 231
XY,50,9 238 230
XY,51,9 238 229
XY,52,9 238 228
XY,53,9 238 227
XY,54,9 238 226
XY,55,9 238 225
XY,56,9 238 224
XY,57,9 238 223
XY,58,9 238 222
XY,59,9 238 221
XY,60,9 238 220
XY,61,9 238 219
XY,48,8 296 218
ADD,48,2 296 217
XY,49,8 296 216
ADD,49,2 296 215
XY,50,8 296 214
ADD,50,2 296 213
XY,51,8 296 212
ADD,51,2 296 211
XY,52,8 296 210
ADD,52,2 296 209
XY,53,8 296 208
ADD,53,2 296 207
XY,54,8 296 206
ADD,54,2 296 205
XY,55,8 296 204
ADD,55,2 296 203
XY,56,8 296 202
ADD,56,2 296 201
XY,57,8 296 200
ADD,57,2 296 199
XY,58,8 296 198
ADD,58,2 296 197
XY,59,8 296 196
ADD,59,2 296 195
XY,60,8 296 194
ADD,60,2 296 193
XY,61,8 296 192
ADD,61,2 296 191
ADD,61,4 321 190
ADD,60,4 321 189
ADD,59,4 321 188
ADD,58,4 321 187
ADD,57,4 321 186
ADD,56,4 321 185
ADD,55,4 321 184
ADD,54,4 321 183
ADD,53,4 321 182
ADD,52,4 321 181
ADD,51,4 321 180
ADD,50,4 321 179
ADD,49,4 321 178
ADD,48,4 321 177
XY,0,10 272 176
XY,1,10 272 175
XY,2,10 272 174
XY,3,10 272 173
XY,4,10 272 172
XY,5,10 272 171
XY,6,10 272 170
XY,7,10 272 169
XY,8,10 272 168
XY,9,10 272 167
XY,10,10 272 166
XY,11,10 272 165
XY,12,10 272 164
XY,13,10 272 163
XY,14,10 272 162
XY,15,10 272 161
ADD,15,3 273 160
ADD,14,3 273 159
ADD,13,3 273 158
ADD,12,3 273 157
ADD,11,3 273 156
ADD,10,3 273 155
ADD,9,3 273 154
ADD,8,3 273 153
ADD,7,3 273 152
ADD,6,3 273 151
ADD,5,3 273 150
ADD,4,3 273 149
ADD,3,3 273 148
ADD,2,3 273 147
ADD,1,3 273 146
ADD,0,3 273 145
XY,16,10 283 144
XY,17,10 283 143
XY,18,10 283 142
XY,19,10 283 141
XY,20,10 283 140
XY,21,10 283 139
XY,22,10 283 138
XY,23,10 283 137
XY,24,10 283 136
XY,25,10 283 135
XY,26,10 283 134
XY,27,10 283 133
XY,28,10 283 132
XY,29,10 283 131
XY,30,10 283 130
XY,31,10 283 129
ADD,31,3 308 128
ADD,30,3 308 127
ADD,29,3 308 126
ADD,28,3 308 125
ADD,27,3 308 124
ADD,26,3 308 123
ADD,25,3 308 122
ADD,24,3 308 121
ADD,23,3 308 120
ADD,22,3 308 119
ADD,21,3 308 118
ADD,20,3 308 117
ADD,19,3 308 116
ADD,18,3 308 115
ADD,17,3 308 114
ADD,16,3 308 113
XY,32,10 307 112
XY,33,10 307 111
XY,34,10 307 110
XY,35,10 307 109
XY,36,10 307 108
XY,37,10 307 107
XY,38,10 307 106
XY,39,10 307 105
XY,40,10 307 104
XY,41,10 307 103
XY,42,10 307 102
XY,43,10 307 101
XY,44,10 307 100
XY,45,10 307 99
XY,46,10 307 98
XY,47,10 307 97
ADD,47,3 345 96
ADD,46,3 345 95
ADD,45,3 345 94
ADD,44,3 345 93
ADD,43,3 345 92
ADD,42,3 345 91
ADD,41,3 345 90
ADD,40,3 345 89
ADD,39,3 345 88
ADD,38,3 345 87
ADD,37,3 345 86
ADD,36,3 345 85
ADD,35,3 345 84
ADD,34,3 345 83
ADD,33,3 345 82
ADD,32,3 345 81
XY,0,11 302 80
XY,1,11 302 79
XY,2,11 302 78
XY,3,11 302 77
XY,4,11 302 76
XY,5,11 302 75
XY,6,11 302 74
XY,7,11 302 73
XY,8,11 302 72
XY,9,11 302 71
XY,10,11 302 70
XY,11,11 302 69
XY,12,11 302 68
XY,13,11 302 67
XY,14,11 302 66
XY,15,11 302 65
ADD,15,2 320 64
ADD,15,4 320 63
ADD,14,2 320 62
ADD,14,4 320 61
ADD,13,2 320 60
ADD,13,4 320 59
ADD,12,2 320 58
ADD,12,4 320 57
ADD,11,2 320 56
ADD,11,4 320 55
ADD,10,2 320 54
ADD,10,4 320 53
ADD,9,2 320 52
ADD,9,4 320 51
ADD,8,2 320 50
ADD,8,4 320 49
ADD,7,2 320 48
ADD,7,4 320 47
ADD,6,2 320 46
ADD,6,4 320 45
ADD,5,2 320 44
ADD,5,4 320 43
ADD,4,2 320 42
ADD,4,4 320 41
ADD,3,2 320 40
ADD,3,4 320 39
ADD,2,2 320 38
ADD,2,4 320 37
ADD,1,2 320 36
ADD,1,4 320 35
ADD,0,2 320 34
ADD,0,4 320 33
XY,16,11 338 32
XY,17,11 338 31
XY,18,11 338 30
XY,19,11 338 29
XY,20,11 338 28
XY,21,11 338 27
XY,22,11 338 26
XY,23,11 338 25
XY,24,11 338 24
XY,25,11 338 23
XY,26,11 338 22
XY,27,11 338 21
XY,28,11 338 20
XY,29,11 338 19
XY,30,11 338 18
XY,31,11 338 17
ADD,31,4 358 16
ADD,30,4 358 15
ADD,29,4 358 14
ADD,28,4 358 13
ADD,27,4 358 12
ADD,26,4 358 11
ADD,25,4 358 10
ADD,24,4 358 9
ADD,23,4 358 8
ADD,22,4 358 7
ADD,21,4 358 6
ADD,20,4 358 5
ADD,19,4 358 4
ADD,18,4 358 3
ADD,17,4 358 2
ADD,16,4 358 1
