SETZERO,7,1 6 2146
SETZERO,6,1 6 2145
SETZERO,5,1 6 2144
SETZERO,4,1 6 2143
SETZERO,3,1 6 2142
SETZERO,2,1 6 2141
SETZERO,1,1 6 2140
SETZERO,0,1 6 2139
_AX,23 6 2138
_AX,22 6 2137
_AX,21 6 2136
_AX,20 6 2135
_AX,19 6 2134
_AX,18 6 2133
_AX,17 6 2132
_AX,16 6 2131
_X,23 6 2130
_X,22 6 2129
_X,21 6 2128
_X,20 6 2127
_X,19 6 2126
_X,18 6 2125
_X,17 6 2124
_X,16 6 2123
RESET,RN 0 2122
_X,15 0 2121
_X,14 0 2120
_X,13 0 2119
_X,12 0 2118
_X,11 0 2117
_X,10 0 2116
_X,9 0 2115
_X,8 0 2114
_lambda 0 2113
XY,8,1 0 2112
XY,9,1 0 2111
XY,10,1 0 2110
XY,11,1 0 2109
XY,12,1 0 2108
XY,13,1 0 2107
XY,14,1 0 2106
XY,15,1 0 2105
_AX,15 11 2104
SUB,15,1 11 2103
MULT,15 11 2102
COL,15,15 11 2101
_AX,14 11 2100
SUB,14,1 11 2099
MULT,14 11 2098
COL,14,14 11 2097
_AX,13 11 2096
SUB,13,1 11 2095
MULT,13 11 2094
COL,13,13 11 2093
_AX,12 11 2092
SUB,12,1 11 2091
MULT,12 11 2090
COL,12,12 11 2089
_AX,11 11 2088
SUB,11,1 11 2087
MULT,11 11 2086
COL,11,11 11 2085
_AX,10 11 2084
SUB,10,1 11 2083
MULT,10 11 2082
COL,10,10 11 2081
_AX,9 11 2080
SUB,9,1 11 2079
MULT,9 11 2078
COL,9,9 11 2077
_AX,8 11 2076
SUB,8,1 11 2075
MULT,8 11 2074
COL,8,8 11 2073
SETZERO,15,1 10 2072
SETZERO,14,1 10 2071
SETZERO,13,1 10 2070
SETZERO,12,1 10 2069
SETZERO,11,1 10 2068
SETZERO,10,1 10 2067
SETZERO,9,1 10 2066
SETZERO,8,1 10 2065
_AX,39 10 2064
_AX,38 10 2063
_AX,37 10 2062
_AX,36 10 2061
_AX,35 10 2060
_AX,34 10 2059
_AX,33 10 2058
_AX,32 10 2057
_X,7 10 2056
XY,7,1 10 2055
_X,6 10 2054
XY,6,1 10 2053
_X,5 10 2052
XY,5,1 10 2051
_X,4 10 2050
XY,4,1 10 2049
_X,3 10 2048
XY,3,1 10 2047
_X,2 10 2046
XY,2,1 10 2045
_X,1 10 2044
XY,1,1 10 2043
_X,0 10 2042
XY,0,1 10 2041
_AX,7 12 2040
SUB,7,1 12 2039
MULT,7 12 2038
COL,7,7 12 2037
_AX,6 12 2036
SUB,6,1 12 2035
MULT,6 12 2034
COL,6,6 12 2033
_AX,5 12 2032
SUB,5,1 12 2031
MULT,5 12 2030
COL,5,5 12 2029
_AX,4 12 2028
SUB,4,1 12 2027
MULT,4 12 2026
COL,4,4 12 2025
_AX,3 12 2024
SUB,3,1 12 2023
MULT,3 12 2022
COL,3,3 12 2021
_AX,2 12 2020
SUB,2,1 12 2019
MULT,2 12 2018
COL,2,2 12 2017
_AX,1 12 2016
SUB,1,1 12 2015
MULT,1 12 2014
COL,1,1 12 2013
_AX,0 12 2012
SUB,0,1 12 2011
MULT,0 12 2010
COL,0,0 12 2009
XY,16,1 7 2008
SUB,16,1 7 2007
MULT,16 7 2006
XY,17,1 7 2005
SUB,17,1 7 2004
MULT,17 7 2003
XY,18,1 7 2002
SUB,18,1 7 2001
MULT,18 7 2000
XY,19,1 7 1999
SUB,19,1 7 1998
MULT,19 7 1997
XY,20,1 7 1996
SUB,20,1 7 1995
MULT,20 7 1994
XY,21,1 7 1993
SUB,21,1 7 1992
MULT,21 7 1991
XY,22,1 7 1990
SUB,22,1 7 1989
MULT,22 7 1988
XY,23,1 7 1987
SUB,23,1 7 1986
MULT,23 7 1985
COL,23,3 8 1984
COL,22,2 8 1983
COL,21,1 8 1982
COL,20,0 8 1981
COL,19,19 8 1980
COL,18,18 8 1979
COL,17,17 8 1978
COL,16,16 8 1977
_AX,55 2 1976
_AX,54 2 1975
_AX,53 2 1974
_AX,52 2 1973
_AX,51 2 1972
_AX,50 2 1971
_AX,49 2 1970
_AX,48 2 1969
_X,31 2 1968
XY,31,1 2 1967
_X,30 2 1966
XY,30,1 2 1965
_X,29 2 1964
XY,29,1 2 1963
_X,28 2 1962
XY,28,1 2 1961
_X,27 2 1960
XY,27,1 2 1959
_X,26 2 1958
XY,26,1 2 1957
_X,25 2 1956
XY,25,1 2 1955
_X,24 2 1954
XY,24,1 2 1953
SETZERO,55,1 4 1952
SETZERO,54,1 4 1951
SETZERO,53,1 4 1950
SETZERO,52,1 4 1949
SETZERO,51,1 4 1948
SETZERO,50,1 4 1947
SETZERO,49,1 4 1946
SETZERO,48,1 4 1945
_X,55 4 1944
XY,55,1 4 1943
_X,54 4 1942
XY,54,1 4 1941
_X,53 4 1940
XY,53,1 4 1939
_X,52 4 1938
XY,52,1 4 1937
_X,51 4 1936
XY,51,1 4 1935
_X,50 4 1934
XY,50,1 4 1933
_X,49 4 1932
XY,49,1 4 1931
_X,48 4 1930
XY,48,1 4 1929
SETZERO,47,1 1 1928
SETZERO,46,1 1 1927
SETZERO,45,1 1 1926
SETZERO,44,1 1 1925
SETZERO,43,1 1 1924
SETZERO,42,1 1 1923
SETZERO,41,1 1 1922
SETZERO,40,1 1 1921
SETZERO,31,1 1 1920
SETZERO,30,1 1 1919
SETZERO,29,1 1 1918
SETZERO,28,1 1 1917
SETZERO,27,1 1 1916
SETZERO,26,1 1 1915
SETZERO,25,1 1 1914
SETZERO,24,1 1 1913
_X,61 1 1912
XY,61,1 1 1911
_X,60 1 1910
XY,60,1 1 1909
_X,59 1 1908
XY,59,1 1 1907
_X,58 1 1906
XY,58,1 1 1905
_X,57 1 1904
XY,57,1 1 1903
_X,56 1 1902
XY,56,1 1 1901
_AX,61 3 1900
SUB,61,1 3 1899
_AX,60 3 1898
SUB,60,1 3 1897
_AX,59 3 1896
SUB,59,1 3 1895
_AX,58 3 1894
SUB,58,1 3 1893
_AX,57 3 1892
SUB,57,1 3 1891
_AX,56 3 1890
SUB,56,1 3 1889
_X,47 3 1888
XY,47,1 3 1887
_X,46 3 1886
XY,46,1 3 1885
_X,45 3 1884
XY,45,1 3 1883
_X,44 3 1882
XY,44,1 3 1881
_X,43 3 1880
XY,43,1 3 1879
_X,42 3 1878
XY,42,1 3 1877
_X,41 3 1876
XY,41,1 3 1875
_X,40 3 1874
XY,40,1 3 1873
MULT,56 5 1872
MULT,57 5 1871
MULT,58 5 1870
MULT,59 5 1869
MULT,60 5 1868
MULT,61 5 1867
_AX,31 5 1866
SUB,31,1 5 1865
MULT,31 5 1864
_AX,30 5 1863
SUB,30,1 5 1862
MULT,30 5 1861
_AX,29 5 1860
SUB,29,1 5 1859
MULT,29 5 1858
_AX,28 5 1857
SUB,28,1 5 1856
MULT,28 5 1855
_AX,27 5 1854
SUB,27,1 5 1853
MULT,27 5 1852
_AX,26 5 1851
SUB,26,1 5 1850
MULT,26 5 1849
_AX,25 5 1848
SUB,25,1 5 1847
MULT,25 5 1846
_AX,24 5 1845
SUB,24,1 5 1844
MULT,24 5 1843
COL,61,1 14 1842
COL,60,0 14 1841
COL,59,19 14 1840
COL,58,18 14 1839
COL,57,17 14 1838
COL,56,16 14 1837
SUB,48,1 14 1836
MULT,48 14 1835
COL,48,8 14 1834
SUB,49,1 14 1833
MULT,49 14 1832
COL,49,9 14 1831
SUB,50,1 14 1830
MULT,50 14 1829
COL,50,10 14 1828
SUB,51,1 14 1827
MULT,51 14 1826
COL,51,11 14 1825
SUB,52,1 14 1824
MULT,52 14 1823
COL,52,12 14 1822
SUB,53,1 14 1821
MULT,53 14 1820
COL,53,13 14 1819
SUB,54,1 14 1818
MULT,54 14 1817
COL,54,14 14 1816
SUB,55,1 14 1815
MULT,55 14 1814
COL,55,15 14 1813
COL,24,4 9 1812
COL,25,5 9 1811
COL,26,6 9 1810
COL,27,7 9 1809
COL,28,8 9 1808
COL,29,9 9 1807
COL,30,10 9 1806
COL,31,11 9 1805
SETZERO,39,1 9 1804
SETZERO,38,1 9 1803
SETZERO,37,1 9 1802
SETZERO,36,1 9 1801
SETZERO,35,1 9 1800
SETZERO,34,1 9 1799
SETZERO,33,1 9 1798
SETZERO,32,1 9 1797
SETZERO,23,1 9 1796
SETZERO,22,1 9 1795
SETZERO,21,1 9 1794
SETZERO,20,1 9 1793
SETZERO,19,1 9 1792
SETZERO,18,1 9 1791
SETZERO,17,1 9 1790
SETZERO,16,1 9 1789
_AX,47 13 1788
SUB,47,1 13 1787
MULT,47 13 1786
_AX,46 13 1785
SUB,46,1 13 1784
MULT,46 13 1783
_AX,45 13 1782
SUB,45,1 13 1781
MULT,45 13 1780
_AX,44 13 1779
SUB,44,1 13 1778
MULT,44 13 1777
_AX,43 13 1776
SUB,43,1 13 1775
MULT,43 13 1774
_AX,42 13 1773
SUB,42,1 13 1772
MULT,42 13 1771
_AX,41 13 1770
SUB,41,1 13 1769
MULT,41 13 1768
_AX,40 13 1767
SUB,40,1 13 1766
MULT,40 13 1765
COL,40,0 15 1764
COL,41,1 15 1763
COL,42,2 15 1762
COL,43,3 15 1761
COL,44,4 15 1760
COL,45,5 15 1759
COL,46,6 15 1758
COL,47,7 15 1757
_X,39 15 1756
XY,39,1 15 1755
_X,38 15 1754
XY,38,1 15 1753
_X,37 15 1752
XY,37,1 15 1751
_X,36 15 1750
XY,36,1 15 1749
_X,35 15 1748
XY,35,1 15 1747
_X,34 15 1746
XY,34,1 15 1745
_X,33 15 1744
XY,33,1 15 1743
_X,32 15 1742
XY,32,1 15 1741
SUB,32,1 16 1740
MULT,32 16 1739
COL,32,12 16 1738
SUB,33,1 16 1737
MULT,33 16 1736
COL,33,13 16 1735
SUB,34,1 16 1734
MULT,34 16 1733
COL,34,14 16 1732
SUB,35,1 16 1731
MULT,35 16 1730
COL,35,15 16 1729
SUB,36,1 16 1728
MULT,36 16 1727
COL,36,16 16 1726
SUB,37,1 16 1725
MULT,37 16 1724
COL,37,17 16 1723
SUB,38,1 16 1722
MULT,38 16 1721
COL,38,18 16 1720
SUB,39,1 16 1719
MULT,39 16 1718
COL,39,19 16 1717
RNRED,RNBUF 16 1716
SQRT,RN 17 1715
RESET,actMask 17 1714
CONV,actMask 17 1713
GET,0,1 17 1712
XTY,0,0,1 17 1711
GET,1,1 17 1710
XTY,1,1,1 17 1709
GET,2,1 17 1708
XTY,2,2,1 17 1707
GET,3,1 17 1706
XTY,3,3,1 17 1705
GET,4,1 17 1704
XTY,4,4,1 17 1703
GET,5,1 17 1702
XTY,5,5,1 17 1701
GET,6,1 17 1700
XTY,6,6,1 17 1699
GET,7,1 17 1698
XTY,7,7,1 17 1697
CONSTRUCTGB 17 1696
SETZERO,61,1 17 1695
SETZERO,60,1 17 1694
SETZERO,59,1 17 1693
SETZERO,58,1 17 1692
SETZERO,57,1 17 1691
SETZERO,56,1 17 1690
GET,8,1 18 1689
XTY,8,8,1 18 1688
GET,9,1 18 1687
XTY,9,9,1 18 1686
GET,10,1 18 1685
XTY,10,10,1 18 1684
GET,11,1 18 1683
XTY,11,11,1 18 1682
GET,12,1 18 1681
XTY,12,12,1 18 1680
GET,13,1 18 1679
XTY,13,13,1 18 1678
GET,14,1 18 1677
XTY,14,14,1 18 1676
GET,15,1 18 1675
XTY,15,15,1 18 1674
GET,16,1 21 1673
XTY,16,16,1 21 1672
GET,17,1 21 1671
XTY,17,17,1 21 1670
GET,18,1 21 1669
XTY,18,18,1 21 1668
GET,19,1 21 1667
XTY,19,19,1 21 1666
GET,20,1 21 1665
XTY,20,0,1 21 1664
GET,21,1 21 1663
XTY,21,1,1 21 1662
GET,22,1 21 1661
XTY,22,2,1 21 1660
GET,23,1 21 1659
XTY,23,3,1 21 1658
GET,24,1 23 1657
XTY,24,4,1 23 1656
GET,25,1 23 1655
XTY,25,5,1 23 1654
GET,26,1 23 1653
XTY,26,6,1 23 1652
GET,27,1 23 1651
XTY,27,7,1 23 1650
GET,28,1 23 1649
XTY,28,8,1 23 1648
GET,29,1 23 1647
XTY,29,9,1 23 1646
GET,30,1 23 1645
XTY,30,10,1 23 1644
GET,31,1 23 1643
XTY,31,11,1 23 1642
GET,32,1 19 1641
XTY,32,12,1 19 1640
GET,33,1 19 1639
XTY,33,13,1 19 1638
GET,34,1 19 1637
XTY,34,14,1 19 1636
GET,35,1 19 1635
XTY,35,15,1 19 1634
GET,36,1 19 1633
XTY,36,16,1 19 1632
GET,37,1 19 1631
XTY,37,17,1 19 1630
GET,38,1 19 1629
XTY,38,18,1 19 1628
GET,39,1 19 1627
XTY,39,19,1 19 1626
GET,40,1 22 1625
GET,41,1 22 1624
GET,42,1 22 1623
GET,43,1 22 1622
GET,44,1 22 1621
GET,45,1 22 1620
GET,46,1 22 1619
GET,47,1 22 1618
GET,48,1 20 1617
XTY,48,8,1 20 1616
GET,49,1 20 1615
XTY,49,9,1 20 1614
GET,50,1 20 1613
XTY,50,10,1 20 1612
GET,51,1 20 1611
XTY,51,11,1 20 1610
GET,52,1 20 1609
XTY,52,12,1 20 1608
GET,53,1 20 1607
XTY,53,13,1 20 1606
GET,54,1 20 1605
XTY,54,14,1 20 1604
GET,55,1 20 1603
XTY,55,15,1 20 1602
GET,56,1 24 1601
XTY,56,16,1 24 1600
GET,57,1 24 1599
XTY,57,17,1 24 1598
GET,58,1 24 1597
XTY,58,18,1 24 1596
GET,59,1 24 1595
XTY,59,19,1 24 1594
GET,60,1 24 1593
XTY,60,0,1 24 1592
GET,61,1 24 1591
XTY,61,1,1 24 1590
XTY,47,7,1 25 1589
XTY,46,6,1 25 1588
XTY,45,5,1 25 1587
XTY,44,4,1 25 1586
XTY,43,3,1 25 1585
XTY,42,2,1 25 1584
XTY,41,1,1 25 1583
XTY,40,0,1 25 1582
RED,temp2BUF,0 25 1581
XY,8,2 30 1580
SUB,8,2 30 1579
XTY,8,8,2 30 1578
XY,9,2 30 1577
SUB,9,2 30 1576
XTY,9,9,2 30 1575
XY,10,2 30 1574
SUB,10,2 30 1573
XTY,10,10,2 30 1572
XY,11,2 30 1571
SUB,11,2 30 1570
XTY,11,11,2 30 1569
XY,12,2 30 1568
SUB,12,2 30 1567
XTY,12,12,2 30 1566
XY,13,2 30 1565
SUB,13,2 30 1564
XTY,13,13,2 30 1563
XY,14,2 30 1562
SUB,14,2 30 1561
XTY,14,14,2 30 1560
XY,15,2 30 1559
SUB,15,2 30 1558
XTY,15,15,2 30 1557
XY,0,2 29 1556
XY,1,2 29 1555
XY,2,2 29 1554
XY,3,2 29 1553
XY,4,2 29 1552
XY,5,2 29 1551
XY,6,2 29 1550
XY,7,2 29 1549
XY,24,2 29 1548
XY,25,2 29 1547
XY,26,2 29 1546
XY,27,2 29 1545
XY,28,2 29 1544
XY,29,2 29 1543
XY,30,2 29 1542
XY,31,2 29 1541
SUB,31,2 33 1540
XTY,31,11,2 33 1539
SUB,30,2 33 1538
XTY,30,10,2 33 1537
SUB,29,2 33 1536
XTY,29,9,2 33 1535
SUB,28,2 33 1534
XTY,28,8,2 33 1533
SUB,27,2 33 1532
XTY,27,7,2 33 1531
SUB,26,2 33 1530
XTY,26,6,2 33 1529
SUB,25,2 33 1528
XTY,25,5,2 33 1527
SUB,24,2 33 1526
XTY,24,4,2 33 1525
SUB,7,2 33 1524
XTY,7,7,2 33 1523
SUB,6,2 33 1522
XTY,6,6,2 33 1521
SUB,5,2 33 1520
XTY,5,5,2 33 1519
SUB,4,2 33 1518
XTY,4,4,2 33 1517
SUB,3,2 33 1516
XTY,3,3,2 33 1515
SUB,2,2 33 1514
XTY,2,2,2 33 1513
SUB,1,2 33 1512
XTY,1,1,2 33 1511
SUB,0,2 33 1510
XTY,0,0,2 33 1509
XY,32,2 26 1508
XY,33,2 26 1507
XY,34,2 26 1506
XY,35,2 26 1505
XY,36,2 26 1504
XY,37,2 26 1503
XY,38,2 26 1502
XY,39,2 26 1501
XY,40,2 27 1500
XY,41,2 27 1499
XY,42,2 27 1498
XY,43,2 27 1497
XY,44,2 27 1496
XY,45,2 27 1495
XY,46,2 27 1494
XY,47,2 27 1493
XY,48,2 27 1492
XY,49,2 27 1491
XY,50,2 27 1490
XY,51,2 27 1489
XY,52,2 27 1488
XY,53,2 27 1487
XY,54,2 27 1486
XY,55,2 27 1485
SUB,47,2 31 1484
XTY,47,7,2 31 1483
SUB,46,2 31 1482
XTY,46,6,2 31 1481
SUB,45,2 31 1480
XTY,45,5,2 31 1479
SUB,44,2 31 1478
XTY,44,4,2 31 1477
SUB,43,2 31 1476
XTY,43,3,2 31 1475
SUB,42,2 31 1474
XTY,42,2,2 31 1473
SUB,41,2 31 1472
XTY,41,1,2 31 1471
SUB,40,2 31 1470
XTY,40,0,2 31 1469
SUB,39,2 31 1468
XTY,39,19,2 31 1467
SUB,38,2 31 1466
XTY,38,18,2 31 1465
SUB,37,2 31 1464
XTY,37,17,2 31 1463
SUB,36,2 31 1462
XTY,36,16,2 31 1461
SUB,35,2 31 1460
XTY,35,15,2 31 1459
SUB,34,2 31 1458
XTY,34,14,2 31 1457
SUB,33,2 31 1456
XTY,33,13,2 31 1455
SUB,32,2 31 1454
XTY,32,12,2 31 1453
XY,16,2 28 1452
XY,17,2 28 1451
XY,18,2 28 1450
XY,19,2 28 1449
XY,20,2 28 1448
XY,21,2 28 1447
XY,22,2 28 1446
XY,23,2 28 1445
XY,56,2 28 1444
XY,57,2 28 1443
XY,58,2 28 1442
XY,59,2 28 1441
XY,60,2 28 1440
XY,61,2 28 1439
SUB,23,2 32 1438
XTY,23,3,2 32 1437
SUB,22,2 32 1436
XTY,22,2,2 32 1435
SUB,21,2 32 1434
XTY,21,1,2 32 1433
SUB,20,2 32 1432
XTY,20,0,2 32 1431
SUB,19,2 32 1430
XTY,19,19,2 32 1429
SUB,18,2 32 1428
XTY,18,18,2 32 1427
SUB,17,2 32 1426
XTY,17,17,2 32 1425
SUB,16,2 32 1424
XTY,16,16,2 32 1423
SUB,55,2 32 1422
XTY,55,15,2 32 1421
SUB,54,2 32 1420
XTY,54,14,2 32 1419
SUB,53,2 32 1418
XTY,53,13,2 32 1417
SUB,52,2 32 1416
XTY,52,12,2 32 1415
SUB,51,2 32 1414
XTY,51,11,2 32 1413
SUB,50,2 32 1412
XTY,50,10,2 32 1411
SUB,49,2 32 1410
XTY,49,9,2 32 1409
SUB,48,2 32 1408
XTY,48,8,2 32 1407
SUB,61,2 34 1406
XTY,61,1,2 34 1405
SUB,60,2 34 1404
XTY,60,0,2 34 1403
SUB,59,2 34 1402
XTY,59,19,2 34 1401
SUB,58,2 34 1400
XTY,58,18,2 34 1399
SUB,57,2 34 1398
XTY,57,17,2 34 1397
SUB,56,2 34 1396
XTY,56,16,2 34 1395
RED,RBRBUF,0 34 1394
CHOL,RBR 34 1393
INV,RBR 34 1392
XY,56,3 34 1391
DLACPY,56,1 34 1390
XY,57,3 34 1389
DLACPY,57,1 34 1388
XY,58,3 34 1387
DLACPY,58,1 34 1386
XY,59,3 34 1385
DLACPY,59,1 34 1384
XY,60,3 34 1383
DLACPY,60,1 34 1382
XY,61,3 34 1381
DLACPY,61,1 34 1380
XY,8,3 35 1379
XY,9,3 35 1378
XY,10,3 35 1377
XY,11,3 35 1376
XY,12,3 35 1375
XY,13,3 35 1374
XY,14,3 35 1373
XY,15,3 35 1372
DLACPY,15,1 41 1371
SPMM,16,15,0 41 1370
SPMM,17,15,0 41 1369
SPMM,23,15,0 41 1368
SPMM,24,15,0 41 1367
SPMM,25,15,0 41 1366
SPMM,26,15,0 41 1365
SPMM,27,15,0 41 1364
SPMM,28,15,0 41 1363
SPMM,29,15,0 41 1362
SPMM,30,15,0 41 1361
SPMM,32,15,0 41 1360
SPMM,35,15,0 41 1359
DLACPY,14,1 41 1358
SPMM,16,14,0 41 1357
SPMM,17,14,0 41 1356
SPMM,23,14,0 41 1355
SPMM,24,14,0 41 1354
SPMM,30,14,0 41 1353
SPMM,32,14,0 41 1352
SPMM,34,14,0 41 1351
SPMM,35,14,0 41 1350
DLACPY,13,1 41 1349
SPMM,16,13,0 41 1348
SPMM,17,13,0 41 1347
SPMM,23,13,0 41 1346
SPMM,24,13,0 41 1345
SPMM,30,13,0 41 1344
DLACPY,12,1 41 1343
SPMM,16,12,0 41 1342
SPMM,17,12,0 41 1341
SPMM,32,12,0 41 1340
SPMM,35,12,0 41 1339
DLACPY,11,1 41 1338
SPMM,16,11,0 41 1337
SPMM,17,11,0 41 1336
DLACPY,10,1 41 1335
SPMM,16,10,0 41 1334
SPMM,17,10,0 41 1333
DLACPY,9,1 41 1332
SPMM,16,9,0 41 1331
SPMM,17,9,0 41 1330
SPMM,23,9,0 41 1329
SPMM,24,9,0 41 1328
SPMM,28,9,0 41 1327
SPMM,29,9,0 41 1326
SPMM,30,9,0 41 1325
DLACPY,8,1 41 1324
SPMM,16,8,0 41 1323
SPMM,17,8,0 41 1322
XY,0,3 36 1321
XY,1,3 36 1320
XY,2,3 36 1319
XY,3,3 36 1318
XY,4,3 36 1317
XY,5,3 36 1316
XY,6,3 36 1315
XY,7,3 36 1314
XY,16,3 36 1313
XY,17,3 36 1312
XY,18,3 36 1311
XY,19,3 36 1310
XY,20,3 36 1309
XY,21,3 36 1308
XY,22,3 36 1307
XY,23,3 36 1306
DLACPY,23,1 39 1305
SPMM,23,23,0 39 1304
SPMM,24,23,0 39 1303
SPMM,25,23,0 39 1302
SPMM,26,23,0 39 1301
SPMM,27,23,0 39 1300
SPMM,28,23,0 39 1299
SPMM,29,23,0 39 1298
SPMM,30,23,0 39 1297
DLACPY,22,1 39 1296
SPMM,22,22,0 39 1295
SPMM,23,22,0 39 1294
DLACPY,21,1 39 1293
SPMM,21,21,0 39 1292
SPMM,22,21,0 39 1291
SPMM,23,21,0 39 1290
SPMM,25,21,0 39 1289
SPMM,26,21,0 39 1288
SPMM,30,21,0 39 1287
DLACPY,20,1 39 1286
SPMM,20,20,0 39 1285
SPMM,21,20,0 39 1284
SPMM,22,20,0 39 1283
SPMM,23,20,0 39 1282
DLACPY,19,1 39 1281
SPMM,19,19,0 39 1280
SPMM,20,19,0 39 1279
SPMM,21,19,0 39 1278
SPMM,22,19,0 39 1277
SPMM,23,19,0 39 1276
SPMM,24,19,0 39 1275
SPMM,25,19,0 39 1274
SPMM,28,19,0 39 1273
SPMM,29,19,0 39 1272
SPMM,30,19,0 39 1271
DLACPY,18,1 39 1270
SPMM,18,18,0 39 1269
SPMM,19,18,0 39 1268
SPMM,20,18,0 39 1267
SPMM,21,18,0 39 1266
SPMM,22,18,0 39 1265
SPMM,23,18,0 39 1264
SPMM,24,18,0 39 1263
SPMM,25,18,0 39 1262
SPMM,26,18,0 39 1261
SPMM,28,18,0 39 1260
SPMM,30,18,0 39 1259
DLACPY,17,1 39 1258
SPMM,17,17,0 39 1257
SPMM,18,17,0 39 1256
SPMM,19,17,0 39 1255
SPMM,20,17,0 39 1254
SPMM,21,17,0 39 1253
SPMM,22,17,0 39 1252
SPMM,23,17,0 39 1251
SPMM,25,17,0 39 1250
DLACPY,16,1 39 1249
SPMM,16,16,0 39 1248
SPMM,17,16,0 39 1247
UPDATE,16,1 49 1246
UPDATE,17,1 49 1245
UPDATE,18,1 49 1244
UPDATE,19,1 49 1243
UPDATE,20,1 49 1242
UPDATE,21,1 49 1241
UPDATE,22,1 49 1240
UPDATE,23,1 49 1239
SPMM,61,8,0 49 1238
UPDATE,8,1 49 1237
SPMM,61,9,0 49 1236
UPDATE,9,1 49 1235
SPMM,61,10,0 49 1234
UPDATE,10,1 49 1233
SPMM,61,11,0 49 1232
UPDATE,11,1 49 1231
SPMM,61,12,0 49 1230
UPDATE,12,1 49 1229
SPMM,61,13,0 49 1228
UPDATE,13,1 49 1227
UPDATE,14,1 49 1226
UPDATE,15,1 49 1225
DLACPY,7,1 44 1224
SPMM,8,7,0 44 1223
SPMM,9,7,0 44 1222
SPMM,10,7,0 44 1221
SPMM,11,7,0 44 1220
SPMM,12,7,0 44 1219
SPMM,13,7,0 44 1218
SPMM,14,7,0 44 1217
SPMM,15,7,0 44 1216
SPMM,16,7,0 44 1215
SPMM,17,7,0 44 1214
DLACPY,6,1 44 1213
SPMM,9,6,0 44 1212
SPMM,10,6,0 44 1211
SPMM,12,6,0 44 1210
SPMM,13,6,0 44 1209
SPMM,14,6,0 44 1208
SPMM,15,6,0 44 1207
SPMM,16,6,0 44 1206
SPMM,17,6,0 44 1205
DLACPY,5,1 44 1204
SPMM,8,5,0 44 1203
SPMM,9,5,0 44 1202
SPMM,10,5,0 44 1201
SPMM,11,5,0 44 1200
SPMM,12,5,0 44 1199
SPMM,13,5,0 44 1198
SPMM,14,5,0 44 1197
SPMM,15,5,0 44 1196
SPMM,16,5,0 44 1195
SPMM,17,5,0 44 1194
SPMM,23,5,0 44 1193
SPMM,24,5,0 44 1192
SPMM,25,5,0 44 1191
SPMM,27,5,0 44 1190
SPMM,28,5,0 44 1189
SPMM,30,5,0 44 1188
DLACPY,4,1 44 1187
SPMM,8,4,0 44 1186
SPMM,9,4,0 44 1185
SPMM,10,4,0 44 1184
SPMM,11,4,0 44 1183
SPMM,12,4,0 44 1182
SPMM,13,4,0 44 1181
SPMM,14,4,0 44 1180
SPMM,15,4,0 44 1179
SPMM,16,4,0 44 1178
SPMM,17,4,0 44 1177
SPMM,30,4,0 44 1176
DLACPY,3,1 44 1175
SPMM,8,3,0 44 1174
SPMM,9,3,0 44 1173
SPMM,10,3,0 44 1172
SPMM,11,3,0 44 1171
SPMM,12,3,0 44 1170
SPMM,13,3,0 44 1169
SPMM,14,3,0 44 1168
SPMM,15,3,0 44 1167
SPMM,16,3,0 44 1166
SPMM,17,3,0 44 1165
SPMM,18,3,0 44 1164
SPMM,19,3,0 44 1163
SPMM,21,3,0 44 1162
SPMM,23,3,0 44 1161
SPMM,24,3,0 44 1160
SPMM,25,3,0 44 1159
SPMM,26,3,0 44 1158
SPMM,27,3,0 44 1157
SPMM,28,3,0 44 1156
SPMM,29,3,0 44 1155
SPMM,30,3,0 44 1154
DLACPY,2,1 44 1153
SPMM,14,2,0 44 1152
SPMM,15,2,0 44 1151
SPMM,17,2,0 44 1150
SPMM,18,2,0 44 1149
SPMM,19,2,0 44 1148
SPMM,20,2,0 44 1147
SPMM,21,2,0 44 1146
SPMM,22,2,0 44 1145
SPMM,23,2,0 44 1144
SPMM,24,2,0 44 1143
SPMM,25,2,0 44 1142
SPMM,26,2,0 44 1141
SPMM,27,2,0 44 1140
SPMM,28,2,0 44 1139
SPMM,29,2,0 44 1138
SPMM,30,2,0 44 1137
DLACPY,1,1 44 1136
SPMM,8,1,0 44 1135
SPMM,9,1,0 44 1134
SPMM,10,1,0 44 1133
SPMM,11,1,0 44 1132
SPMM,12,1,0 44 1131
SPMM,13,1,0 44 1130
SPMM,14,1,0 44 1129
SPMM,15,1,0 44 1128
SPMM,16,1,0 44 1127
SPMM,17,1,0 44 1126
SPMM,18,1,0 44 1125
SPMM,19,1,0 44 1124
SPMM,20,1,0 44 1123
SPMM,21,1,0 44 1122
SPMM,22,1,0 44 1121
SPMM,23,1,0 44 1120
SPMM,24,1,0 44 1119
SPMM,25,1,0 44 1118
SPMM,26,1,0 44 1117
SPMM,27,1,0 44 1116
SPMM,28,1,0 44 1115
SPMM,29,1,0 44 1114
SPMM,30,1,0 44 1113
DLACPY,0,1 44 1112
SPMM,8,0,0 44 1111
SPMM,9,0,0 44 1110
SPMM,10,0,0 44 1109
SPMM,11,0,0 44 1108
SPMM,12,0,0 44 1107
SPMM,13,0,0 44 1106
SPMM,14,0,0 44 1105
SPMM,15,0,0 44 1104
SPMM,16,0,0 44 1103
SPMM,17,0,0 44 1102
SPMM,23,0,0 44 1101
SPMM,24,0,0 44 1100
SPMM,25,0,0 44 1099
SPMM,27,0,0 44 1098
SPMM,28,0,0 44 1097
SPMM,29,0,0 44 1096
SPMM,30,0,0 44 1095
SPMM,8,8,0 55 1094
XTY,8,8,5 55 1093
SPMM,9,8,0 55 1092
SPMM,11,8,0 55 1091
SPMM,12,8,0 55 1090
SPMM,13,8,0 55 1089
SPMM,14,8,0 55 1088
SPMM,15,8,0 55 1087
SPMM,9,9,0 55 1086
XTY,9,9,5 55 1085
SPMM,10,9,0 55 1084
SPMM,11,9,0 55 1083
SPMM,12,9,0 55 1082
SPMM,13,9,0 55 1081
SPMM,14,9,0 55 1080
SPMM,15,9,0 55 1079
SPMM,10,10,0 55 1078
XTY,10,10,5 55 1077
SPMM,11,10,0 55 1076
SPMM,12,10,0 55 1075
SPMM,13,10,0 55 1074
SPMM,14,10,0 55 1073
SPMM,15,10,0 55 1072
SPMM,11,11,0 55 1071
XTY,11,11,5 55 1070
SPMM,12,11,0 55 1069
SPMM,13,11,0 55 1068
SPMM,14,11,0 55 1067
SPMM,15,11,0 55 1066
SPMM,12,12,0 55 1065
XTY,12,12,5 55 1064
SPMM,13,12,0 55 1063
SPMM,15,12,0 55 1062
SPMM,13,13,0 55 1061
XTY,13,13,5 55 1060
SPMM,14,13,0 55 1059
SPMM,15,13,0 55 1058
SPMM,14,14,0 55 1057
XTY,14,14,5 55 1056
SPMM,15,14,0 55 1055
SPMM,15,15,0 55 1054
XTY,15,15,5 55 1053
SPMM,32,0,0 45 1052
SPMM,34,0,0 45 1051
SPMM,35,0,0 45 1050
SPMM,32,1,0 45 1049
SPMM,34,1,0 45 1048
SPMM,35,1,0 45 1047
SPMM,32,4,0 45 1046
SPMM,34,4,0 45 1045
SPMM,35,4,0 45 1044
SPMM,32,5,0 45 1043
SPMM,34,5,0 45 1042
SPMM,35,5,0 45 1041
SPMM,43,0,0 46 1040
SPMM,44,0,0 46 1039
SPMM,45,0,0 46 1038
SPMM,46,0,0 46 1037
SPMM,47,0,0 46 1036
SPMM,43,1,0 46 1035
SPMM,44,1,0 46 1034
SPMM,45,1,0 46 1033
SPMM,46,1,0 46 1032
SPMM,43,4,0 46 1031
SPMM,45,4,0 46 1030
SPMM,47,4,0 46 1029
SPMM,43,5,0 46 1028
SPMM,44,5,0 46 1027
SPMM,45,5,0 46 1026
SPMM,46,5,0 46 1025
SPMM,47,5,0 46 1024
SPMM,61,0,0 47 1023
SPMM,61,2,0 47 1022
SPMM,61,3,0 47 1021
SPMM,61,4,0 47 1020
SPMM,61,5,0 47 1019
SPMM,61,6,0 47 1018
SPMM,61,7,0 47 1017
UPDATE,0,1 50 1016
UPDATE,1,1 50 1015
UPDATE,2,1 50 1014
UPDATE,3,1 50 1013
UPDATE,4,1 50 1012
UPDATE,5,1 50 1011
UPDATE,6,1 50 1010
UPDATE,7,1 50 1009
XTY,23,3,5 48 1008
XTY,17,17,5 48 1007
XTY,16,16,5 48 1006
XTY,0,0,4 48 1005
XTY,22,2,5 48 1004
XTY,21,1,5 48 1003
XTY,20,0,5 48 1002
XTY,19,19,5 48 1001
XTY,18,18,5 48 1000
XTY,1,1,4 48 999
XTY,2,2,4 48 998
XTY,3,3,4 48 997
XTY,4,4,4 48 996
XTY,5,5,4 48 995
XTY,6,6,4 48 994
XTY,7,7,4 48 993
SPMM,0,0,0 52 992
XTY,0,0,5 52 991
SPMM,1,0,0 52 990
SPMM,3,0,0 52 989
SPMM,4,0,0 52 988
SPMM,5,0,0 52 987
SPMM,6,0,0 52 986
SPMM,7,0,0 52 985
SPMM,1,1,0 52 984
XTY,1,1,5 52 983
SPMM,2,1,0 52 982
SPMM,3,1,0 52 981
SPMM,4,1,0 52 980
SPMM,5,1,0 52 979
SPMM,6,1,0 52 978
SPMM,7,1,0 52 977
SPMM,2,2,0 52 976
XTY,2,2,5 52 975
SPMM,3,2,0 52 974
SPMM,3,3,0 52 973
XTY,3,3,5 52 972
SPMM,4,3,0 52 971
SPMM,5,3,0 52 970
SPMM,6,3,0 52 969
SPMM,7,3,0 52 968
SPMM,4,4,0 52 967
XTY,4,4,5 52 966
SPMM,5,4,0 52 965
SPMM,6,4,0 52 964
SPMM,7,4,0 52 963
SPMM,5,5,0 52 962
XTY,5,5,5 52 961
SPMM,6,5,0 52 960
SPMM,7,5,0 52 959
SPMM,6,6,0 52 958
XTY,6,6,5 52 957
SPMM,7,6,0 52 956
SPMM,7,7,0 52 955
XTY,7,7,5 52 954
XY,32,3 37 953
XY,33,3 37 952
XY,34,3 37 951
XY,35,3 37 950
XY,36,3 37 949
XY,37,3 37 948
XY,38,3 37 947
XY,39,3 37 946
XY,40,3 37 945
XY,41,3 37 944
XY,42,3 37 943
XY,43,3 37 942
XY,44,3 37 941
XY,45,3 37 940
XY,46,3 37 939
XY,47,3 37 938
DLACPY,47,1 56 937
SPMM,47,47,0 56 936
SPMM,48,47,0 56 935
SPMM,61,47,0 56 934
DLACPY,46,1 56 933
SPMM,46,46,0 56 932
SPMM,47,46,0 56 931
SPMM,48,46,0 56 930
DLACPY,45,1 56 929
SPMM,45,45,0 56 928
SPMM,46,45,0 56 927
SPMM,47,45,0 56 926
SPMM,48,45,0 56 925
SPMM,54,45,0 56 924
SPMM,56,45,0 56 923
SPMM,57,45,0 56 922
SPMM,58,45,0 56 921
SPMM,59,45,0 56 920
SPMM,60,45,0 56 919
DLACPY,44,1 56 918
SPMM,44,44,0 56 917
SPMM,45,44,0 56 916
SPMM,46,44,0 56 915
SPMM,47,44,0 56 914
SPMM,48,44,0 56 913
SPMM,54,44,0 56 912
SPMM,60,44,0 56 911
SPMM,61,44,0 56 910
DLACPY,43,1 56 909
SPMM,43,43,0 56 908
SPMM,44,43,0 56 907
SPMM,45,43,0 56 906
SPMM,46,43,0 56 905
SPMM,47,43,0 56 904
SPMM,48,43,0 56 903
SPMM,54,43,0 56 902
SPMM,60,43,0 56 901
SPMM,61,43,0 56 900
DLACPY,42,1 56 899
SPMM,42,42,0 56 898
SPMM,43,42,0 56 897
SPMM,44,42,0 56 896
SPMM,45,42,0 56 895
SPMM,46,42,0 56 894
SPMM,47,42,0 56 893
SPMM,48,42,0 56 892
DLACPY,41,1 56 891
SPMM,41,41,0 56 890
SPMM,42,41,0 56 889
SPMM,43,41,0 56 888
SPMM,44,41,0 56 887
SPMM,45,41,0 56 886
SPMM,46,41,0 56 885
SPMM,47,41,0 56 884
SPMM,48,41,0 56 883
SPMM,61,41,0 56 882
DLACPY,40,1 56 881
SPMM,40,40,0 56 880
SPMM,41,40,0 56 879
SPMM,42,40,0 56 878
SPMM,43,40,0 56 877
SPMM,44,40,0 56 876
SPMM,45,40,0 56 875
SPMM,46,40,0 56 874
SPMM,47,40,0 56 873
SPMM,48,40,0 56 872
SPMM,54,40,0 56 871
SPMM,58,40,0 56 870
SPMM,59,40,0 56 869
SPMM,61,40,0 56 868
DLACPY,39,1 40 867
SPMM,40,39,0 40 866
SPMM,41,39,0 40 865
SPMM,42,39,0 40 864
SPMM,43,39,0 40 863
SPMM,44,39,0 40 862
SPMM,45,39,0 40 861
SPMM,46,39,0 40 860
SPMM,47,39,0 40 859
SPMM,58,39,0 40 858
SPMM,59,39,0 40 857
SPMM,60,39,0 40 856
SPMM,61,39,0 40 855
UPDATE,39,1 40 854
DLACPY,38,1 40 853
SPMM,40,38,0 40 852
SPMM,41,38,0 40 851
SPMM,42,38,0 40 850
SPMM,43,38,0 40 849
SPMM,44,38,0 40 848
SPMM,45,38,0 40 847
SPMM,46,38,0 40 846
SPMM,47,38,0 40 845
SPMM,61,38,0 40 844
UPDATE,38,1 40 843
DLACPY,37,1 40 842
SPMM,40,37,0 40 841
SPMM,41,37,0 40 840
SPMM,43,37,0 40 839
SPMM,45,37,0 40 838
SPMM,46,37,0 40 837
SPMM,47,37,0 40 836
SPMM,61,37,0 40 835
UPDATE,37,1 40 834
DLACPY,36,1 40 833
SPMM,40,36,0 40 832
SPMM,41,36,0 40 831
SPMM,42,36,0 40 830
SPMM,43,36,0 40 829
SPMM,44,36,0 40 828
SPMM,45,36,0 40 827
SPMM,46,36,0 40 826
SPMM,47,36,0 40 825
SPMM,61,36,0 40 824
UPDATE,36,1 40 823
DLACPY,35,1 40 822
SPMM,40,35,0 40 821
SPMM,41,35,0 40 820
SPMM,42,35,0 40 819
SPMM,43,35,0 40 818
SPMM,44,35,0 40 817
SPMM,45,35,0 40 816
SPMM,46,35,0 40 815
SPMM,47,35,0 40 814
SPMM,56,35,0 40 813
SPMM,58,35,0 40 812
SPMM,60,35,0 40 811
SPMM,61,35,0 40 810
UPDATE,35,1 40 809
DLACPY,34,1 40 808
SPMM,40,34,0 40 807
SPMM,41,34,0 40 806
SPMM,42,34,0 40 805
SPMM,43,34,0 40 804
SPMM,44,34,0 40 803
SPMM,45,34,0 40 802
SPMM,46,34,0 40 801
SPMM,47,34,0 40 800
SPMM,56,34,0 40 799
SPMM,57,34,0 40 798
SPMM,58,34,0 40 797
SPMM,59,34,0 40 796
SPMM,60,34,0 40 795
SPMM,61,34,0 40 794
UPDATE,34,1 40 793
DLACPY,33,1 40 792
SPMM,45,33,0 40 791
SPMM,56,33,0 40 790
SPMM,57,33,0 40 789
SPMM,58,33,0 40 788
SPMM,59,33,0 40 787
SPMM,60,33,0 40 786
SPMM,61,33,0 40 785
UPDATE,33,1 40 784
DLACPY,32,1 40 783
SPMM,40,32,0 40 782
SPMM,41,32,0 40 781
SPMM,42,32,0 40 780
SPMM,43,32,0 40 779
SPMM,44,32,0 40 778
SPMM,45,32,0 40 777
SPMM,46,32,0 40 776
SPMM,47,32,0 40 775
SPMM,56,32,0 40 774
SPMM,57,32,0 40 773
SPMM,58,32,0 40 772
SPMM,59,32,0 40 771
SPMM,60,32,0 40 770
SPMM,61,32,0 40 769
UPDATE,32,1 40 768
SPMM,32,32,0 42 767
SPMM,33,32,0 42 766
SPMM,34,32,0 42 765
SPMM,35,32,0 42 764
SPMM,36,32,0 42 763
SPMM,37,32,0 42 762
SPMM,38,32,0 42 761
SPMM,39,32,0 42 760
SPMM,33,33,0 42 759
SPMM,34,33,0 42 758
SPMM,34,34,0 42 757
SPMM,35,34,0 42 756
SPMM,36,34,0 42 755
SPMM,37,34,0 42 754
SPMM,38,34,0 42 753
SPMM,39,34,0 42 752
SPMM,35,35,0 42 751
SPMM,36,35,0 42 750
SPMM,37,35,0 42 749
SPMM,38,35,0 42 748
SPMM,39,35,0 42 747
SPMM,36,36,0 42 746
SPMM,37,36,0 42 745
SPMM,38,36,0 42 744
SPMM,39,36,0 42 743
SPMM,37,37,0 42 742
SPMM,38,37,0 42 741
SPMM,39,37,0 42 740
SPMM,38,38,0 42 739
SPMM,39,38,0 42 738
SPMM,39,39,0 42 737
SPMM,48,32,0 53 736
SPMM,49,32,0 53 735
SPMM,50,32,0 53 734
SPMM,51,32,0 53 733
SPMM,52,32,0 53 732
SPMM,53,32,0 53 731
SPMM,54,32,0 53 730
SPMM,55,32,0 53 729
SPMM,48,33,0 53 728
SPMM,49,33,0 53 727
SPMM,50,33,0 53 726
SPMM,51,33,0 53 725
SPMM,52,33,0 53 724
SPMM,53,33,0 53 723
SPMM,54,33,0 53 722
SPMM,55,33,0 53 721
SPMM,48,34,0 53 720
SPMM,50,34,0 53 719
SPMM,52,34,0 53 718
SPMM,53,34,0 53 717
SPMM,54,34,0 53 716
SPMM,55,34,0 53 715
SPMM,48,35,0 53 714
SPMM,54,35,0 53 713
SPMM,48,36,0 53 712
SPMM,48,37,0 53 711
SPMM,48,38,0 53 710
SPMM,48,39,0 53 709
SPMM,54,39,0 53 708
SPMM,61,16,0 53 707
SPMM,61,17,0 53 706
SPMM,61,19,0 53 705
SPMM,61,20,0 53 704
SPMM,61,21,0 53 703
SPMM,61,22,0 53 702
SPMM,61,23,0 53 701
XTY,32,12,4 43 700
XTY,33,13,4 43 699
XTY,34,14,4 43 698
XTY,35,15,4 43 697
XTY,36,16,4 43 696
XTY,37,17,4 43 695
XTY,38,18,4 43 694
XTY,39,19,4 43 693
XTY,8,8,4 43 692
XTY,9,9,4 43 691
XTY,10,10,4 43 690
XTY,11,11,4 43 689
XTY,12,12,4 43 688
XTY,13,13,4 43 687
XTY,14,14,4 43 686
XTY,15,15,4 43 685
XY,24,3 38 684
XY,25,3 38 683
XY,26,3 38 682
XY,27,3 38 681
XY,28,3 38 680
XY,29,3 38 679
XY,30,3 38 678
XY,31,3 38 677
XY,48,3 38 676
XY,49,3 38 675
XY,50,3 38 674
XY,51,3 38 673
XY,52,3 38 672
XY,53,3 38 671
XY,54,3 38 670
XY,55,3 38 669
DLACPY,55,1 51 668
SPMM,55,55,0 51 667
SPMM,56,55,0 51 666
SPMM,57,55,0 51 665
SPMM,58,55,0 51 664
SPMM,59,55,0 51 663
SPMM,60,55,0 51 662
SPMM,61,55,0 51 661
DLACPY,54,1 51 660
SPMM,54,54,0 51 659
SPMM,55,54,0 51 658
SPMM,56,54,0 51 657
SPMM,57,54,0 51 656
SPMM,58,54,0 51 655
SPMM,59,54,0 51 654
SPMM,60,54,0 51 653
SPMM,61,54,0 51 652
DLACPY,53,1 51 651
SPMM,53,53,0 51 650
SPMM,54,53,0 51 649
SPMM,55,53,0 51 648
SPMM,56,53,0 51 647
SPMM,57,53,0 51 646
SPMM,58,53,0 51 645
SPMM,59,53,0 51 644
SPMM,61,53,0 51 643
DLACPY,52,1 51 642
SPMM,52,52,0 51 641
SPMM,53,52,0 51 640
SPMM,54,52,0 51 639
SPMM,56,52,0 51 638
SPMM,57,52,0 51 637
SPMM,60,52,0 51 636
SPMM,61,52,0 51 635
DLACPY,51,1 51 634
SPMM,51,51,0 51 633
SPMM,52,51,0 51 632
SPMM,53,51,0 51 631
SPMM,54,51,0 51 630
DLACPY,50,1 51 629
SPMM,50,50,0 51 628
SPMM,51,50,0 51 627
SPMM,52,50,0 51 626
SPMM,53,50,0 51 625
SPMM,54,50,0 51 624
SPMM,55,50,0 51 623
SPMM,56,50,0 51 622
SPMM,58,50,0 51 621
SPMM,59,50,0 51 620
SPMM,61,50,0 51 619
DLACPY,49,1 51 618
SPMM,49,49,0 51 617
SPMM,50,49,0 51 616
SPMM,51,49,0 51 615
SPMM,52,49,0 51 614
SPMM,53,49,0 51 613
SPMM,54,49,0 51 612
SPMM,55,49,0 51 611
SPMM,56,49,0 51 610
DLACPY,48,1 51 609
SPMM,48,48,0 51 608
SPMM,49,48,0 51 607
SPMM,50,48,0 51 606
SPMM,51,48,0 51 605
SPMM,52,48,0 51 604
SPMM,53,48,0 51 603
SPMM,54,48,0 51 602
SPMM,55,48,0 51 601
SPMM,56,48,0 51 600
SPMM,58,48,0 51 599
SPMM,59,48,0 51 598
SPMM,60,48,0 51 597
SPMM,61,48,0 51 596
UPDATE,48,1 54 595
UPDATE,49,1 54 594
UPDATE,50,1 54 593
UPDATE,51,1 54 592
UPDATE,52,1 54 591
UPDATE,53,1 54 590
UPDATE,54,1 54 589
UPDATE,55,1 54 588
SPMM,61,61,0 54 587
SPMM,60,60,0 54 586
SPMM,61,60,0 54 585
SPMM,59,59,0 54 584
SPMM,60,59,0 54 583
SPMM,61,59,0 54 582
SPMM,58,58,0 54 581
SPMM,59,58,0 54 580
SPMM,60,58,0 54 579
SPMM,61,58,0 54 578
SPMM,57,57,0 54 577
SPMM,58,57,0 54 576
SPMM,59,57,0 54 575
SPMM,60,57,0 54 574
SPMM,61,57,0 54 573
SPMM,56,56,0 54 572
SPMM,57,56,0 54 571
SPMM,58,56,0 54 570
SPMM,59,56,0 54 569
SPMM,60,56,0 54 568
SPMM,61,56,0 54 567
XTY,48,8,4 57 566
XTY,49,9,4 57 565
XTY,50,10,4 57 564
XTY,51,11,4 57 563
XTY,52,12,4 57 562
XTY,53,13,4 57 561
XTY,54,14,4 57 560
XTY,55,15,4 57 559
UPDATE,40,1 57 558
XTY,40,0,4 57 557
UPDATE,41,1 57 556
XTY,41,1,4 57 555
UPDATE,42,1 57 554
XTY,42,2,4 57 553
UPDATE,43,1 57 552
XTY,43,3,4 57 551
UPDATE,44,1 57 550
XTY,44,4,4 57 549
UPDATE,45,1 57 548
XTY,45,5,4 57 547
UPDATE,46,1 57 546
XTY,46,6,4 57 545
UPDATE,47,1 57 544
XTY,47,7,4 57 543
DLACPY,31,1 58 542
SPMM,31,31,0 58 541
SPMM,48,31,0 58 540
SPMM,54,31,0 58 539
DLACPY,30,1 58 538
SPMM,30,30,0 58 537
SPMM,31,30,0 58 536
SPMM,48,30,0 58 535
SPMM,54,30,0 58 534
DLACPY,29,1 58 533
SPMM,29,29,0 58 532
SPMM,30,29,0 58 531
DLACPY,28,1 58 530
SPMM,28,28,0 58 529
SPMM,29,28,0 58 528
SPMM,30,28,0 58 527
DLACPY,27,1 58 526
SPMM,27,27,0 58 525
SPMM,28,27,0 58 524
SPMM,29,27,0 58 523
SPMM,30,27,0 58 522
DLACPY,26,1 58 521
SPMM,26,26,0 58 520
SPMM,27,26,0 58 519
SPMM,28,26,0 58 518
SPMM,29,26,0 58 517
SPMM,30,26,0 58 516
DLACPY,25,1 58 515
SPMM,25,25,0 58 514
SPMM,26,25,0 58 513
SPMM,27,25,0 58 512
SPMM,28,25,0 58 511
SPMM,29,25,0 58 510
SPMM,30,25,0 58 509
DLACPY,24,1 58 508
SPMM,24,24,0 58 507
SPMM,25,24,0 58 506
SPMM,26,24,0 58 505
SPMM,27,24,0 58 504
SPMM,28,24,0 58 503
SPMM,29,24,0 58 502
SPMM,30,24,0 58 501
SPMM,32,30,0 62 500
SPMM,34,30,0 62 499
SPMM,35,30,0 62 498
SPMM,36,30,0 62 497
SPMM,37,30,0 62 496
SPMM,38,30,0 62 495
SPMM,39,30,0 62 494
SPMM,32,31,0 62 493
XTY,32,12,5 62 492
SPMM,34,31,0 62 491
XTY,34,14,5 62 490
SPMM,35,31,0 62 489
XTY,35,15,5 62 488
SPMM,36,31,0 62 487
XTY,36,16,5 62 486
SPMM,37,31,0 62 485
XTY,37,17,5 62 484
SPMM,38,31,0 62 483
XTY,38,18,5 62 482
SPMM,39,31,0 62 481
XTY,39,19,5 62 480
XTY,33,13,5 62 479
SPMM,61,24,0 63 478
SPMM,61,25,0 63 477
SPMM,61,26,0 63 476
SPMM,61,27,0 63 475
SPMM,61,28,0 63 474
SPMM,56,30,0 63 473
XTY,56,16,5 63 472
SPMM,58,30,0 63 471
SPMM,60,30,0 63 470
SPMM,61,30,0 63 469
SPMM,58,31,0 63 468
XTY,58,18,5 63 467
SPMM,59,31,0 63 466
XTY,59,19,5 63 465
SPMM,60,31,0 63 464
XTY,60,0,5 63 463
SPMM,61,31,0 63 462
XTY,61,1,5 63 461
XTY,57,17,5 63 460
UPDATE,24,1 61 459
UPDATE,25,1 61 458
UPDATE,26,1 61 457
UPDATE,27,1 61 456
UPDATE,28,1 61 455
UPDATE,29,1 61 454
XTY,54,14,5 61 453
UPDATE,30,1 61 452
UPDATE,31,1 61 451
XTY,55,15,5 61 450
XTY,53,13,5 61 449
XTY,52,12,5 61 448
XTY,51,11,5 61 447
XTY,50,10,5 61 446
XTY,49,9,5 61 445
SPMM,48,0,0 61 444
SPMM,48,5,0 61 443
XTY,48,8,5 61 442
XTY,30,10,5 59 441
XTY,29,9,5 59 440
XTY,28,8,5 59 439
XTY,27,7,5 59 438
XTY,26,6,5 59 437
XTY,25,5,5 59 436
XTY,24,4,5 59 435
XTY,31,11,5 59 434
SPMM,40,30,0 59 433
SPMM,41,30,0 59 432
SPMM,42,30,0 59 431
SPMM,43,30,0 59 430
SPMM,44,30,0 59 429
SPMM,45,30,0 59 428
SPMM,46,30,0 59 427
SPMM,47,30,0 59 426
SPMM,40,31,0 59 425
SPMM,41,31,0 59 424
SPMM,42,31,0 59 423
SPMM,43,31,0 59 422
SPMM,44,31,0 59 421
SPMM,45,31,0 59 420
SPMM,46,31,0 59 419
SPMM,47,31,0 59 418
XTY,47,7,5 60 417
XTY,46,6,5 60 416
XTY,44,4,5 60 415
XTY,42,2,5 60 414
XTY,41,1,5 60 413
XTY,40,0,5 60 412
SPMM,43,12,0 60 411
XTY,43,3,5 60 410
SPMM,45,14,0 60 409
SPMM,45,15,0 60 408
XTY,45,5,5 60 407
RED,RARBUF,0 64 406
TRANS,RAR 64 405
XTY,16,16,4 64 404
XTY,17,17,4 64 403
XTY,18,18,4 64 402
XTY,19,19,4 64 401
XTY,20,0,4 64 400
XTY,21,1,4 64 399
XTY,22,2,4 64 398
XTY,23,3,4 64 397
XTY,24,4,4 65 396
XTY,25,5,4 65 395
XTY,26,6,4 65 394
XTY,27,7,4 65 393
XTY,28,8,4 65 392
XTY,29,9,4 65 391
XTY,30,10,4 65 390
XTY,31,11,4 65 389
UPDATE,61,1 65 388
XTY,61,1,4 65 387
UPDATE,60,1 65 386
XTY,60,0,4 65 385
UPDATE,59,1 65 384
XTY,59,19,4 65 383
UPDATE,58,1 65 382
XTY,58,18,4 65 381
UPDATE,57,1 65 380
XTY,57,17,4 65 379
UPDATE,56,1 65 378
XTY,56,16,4 65 377
RED,XARBUF,0 65 376
SPEUPDATE,RAR 66 375
CONSTRUCTGA 66 374
EIGEN 66 373
XY,24,11 66 372
XY,25,11 66 371
XY,26,11 66 370
XY,27,11 66 369
XY,28,11 66 368
XY,29,11 66 367
XY,30,11 66 366
XY,31,11 66 365
XY,16,6 75 364
XY,17,6 75 363
XY,18,6 75 362
XY,19,6 75 361
XY,20,6 75 360
XY,21,6 75 359
XY,22,6 75 358
XY,23,6 75 357
XY,16,10 81 356
ADD,16,3 81 355
XY,17,10 81 354
ADD,17,3 81 353
XY,18,10 81 352
ADD,18,3 81 351
XY,19,10 81 350
ADD,19,3 81 349
XY,20,10 81 348
ADD,20,3 81 347
XY,21,10 81 346
ADD,21,3 81 345
XY,22,10 81 344
ADD,22,3 81 343
XY,23,10 81 342
ADD,23,3 81 341
XY,40,6 76 340
XY,41,6 76 339
XY,42,6 76 338
XY,43,6 76 337
XY,44,6 76 336
XY,45,6 76 335
XY,46,6 76 334
XY,47,6 76 333
XY,40,10 85 332
ADD,40,3 85 331
XY,41,10 85 330
ADD,41,3 85 329
XY,42,10 85 328
ADD,42,3 85 327
XY,43,10 85 326
ADD,43,3 85 325
XY,44,10 85 324
ADD,44,3 85 323
XY,45,10 85 322
ADD,45,3 85 321
XY,46,10 85 320
ADD,46,3 85 319
XY,47,10 85 318
ADD,47,3 85 317
XY,32,6 70 316
XY,33,6 70 315
XY,34,6 70 314
XY,35,6 70 313
XY,36,6 70 312
XY,37,6 70 311
XY,38,6 70 310
XY,39,6 70 309
XY,48,6 70 308
XY,49,6 70 307
XY,50,6 70 306
XY,51,6 70 305
XY,52,6 70 304
XY,53,6 70 303
XY,54,6 70 302
XY,55,6 70 301
XY,48,10 74 300
ADD,48,3 74 299
XY,49,10 74 298
ADD,49,3 74 297
XY,50,10 74 296
ADD,50,3 74 295
XY,51,10 74 294
ADD,51,3 74 293
XY,52,10 74 292
ADD,52,3 74 291
XY,53,10 74 290
ADD,53,3 74 289
XY,54,10 74 288
ADD,54,3 74 287
XY,55,10 74 286
ADD,55,3 74 285
XY,32,10 88 284
ADD,32,3 88 283
XY,33,10 88 282
ADD,33,3 88 281
XY,34,10 88 280
ADD,34,3 88 279
XY,35,10 88 278
ADD,35,3 88 277
XY,36,10 88 276
ADD,36,3 88 275
XY,37,10 88 274
ADD,37,3 88 273
XY,38,10 88 272
ADD,38,3 88 271
XY,39,10 88 270
ADD,39,3 88 269
XY,24,8 86 268
XY,25,8 86 267
XY,26,8 86 266
XY,27,8 86 265
XY,28,8 86 264
XY,29,8 86 263
XY,30,8 86 262
XY,31,8 86 261
ADD,31,4 90 260
ADD,30,4 90 259
ADD,29,4 90 258
ADD,28,4 90 257
ADD,27,4 90 256
ADD,26,4 90 255
ADD,25,4 90 254
ADD,24,4 90 253
XY,0,6 71 252
XY,1,6 71 251
XY,2,6 71 250
XY,3,6 71 249
XY,4,6 71 248
XY,5,6 71 247
XY,6,6 71 246
XY,7,6 71 245
XY,56,10 71 244
XY,57,10 71 243
XY,58,10 71 242
XY,59,10 71 241
XY,60,10 71 240
XY,61,10 71 239
XY,56,6 72 238
ADD,56,3 72 237
XY,57,6 72 236
ADD,57,3 72 235
XY,58,6 72 234
ADD,58,3 72 233
XY,59,6 72 232
ADD,59,3 72 231
XY,60,6 72 230
ADD,60,3 72 229
XY,61,6 72 228
ADD,61,3 72 227
XY,0,10 77 226
ADD,0,3 77 225
XY,1,10 77 224
ADD,1,3 77 223
XY,2,10 77 222
ADD,2,3 77 221
XY,3,10 77 220
ADD,3,3 77 219
XY,4,10 77 218
ADD,4,3 77 217
XY,5,10 77 216
ADD,5,3 77 215
XY,6,10 77 214
ADD,6,3 77 213
XY,7,10 77 212
ADD,7,3 77 211
XY,0,11 73 210
XY,1,11 73 209
XY,2,11 73 208
XY,3,11 73 207
XY,4,11 73 206
XY,5,11 73 205
XY,6,11 73 204
XY,7,11 73 203
XY,0,8 84 202
ADD,0,4 84 201
XY,1,8 84 200
ADD,1,4 84 199
XY,2,8 84 198
ADD,2,4 84 197
XY,3,8 84 196
ADD,3,4 84 195
XY,4,8 84 194
ADD,4,4 84 193
XY,5,8 84 192
ADD,5,4 84 191
XY,6,8 84 190
ADD,6,4 84 189
XY,7,8 84 188
ADD,7,4 84 187
XY,8,8 79 186
XY,9,8 79 185
XY,10,8 79 184
XY,11,8 79 183
XY,12,8 79 182
XY,13,8 79 181
XY,14,8 79 180
XY,15,8 79 179
XY,16,11 79 178
XY,17,11 79 177
XY,18,11 79 176
XY,19,11 79 175
XY,20,11 79 174
XY,21,11 79 173
XY,22,11 79 172
XY,23,11 79 171
XY,16,8 91 170
ADD,16,4 91 169
XY,17,8 91 168
ADD,17,4 91 167
XY,18,8 91 166
ADD,18,4 91 165
XY,19,8 91 164
ADD,19,4 91 163
XY,20,8 91 162
ADD,20,4 91 161
XY,21,8 91 160
ADD,21,4 91 159
XY,22,8 91 158
ADD,22,4 91 157
XY,23,8 91 156
ADD,23,4 91 155
XY,8,11 82 154
ADD,8,4 82 153
XY,9,11 82 152
ADD,9,4 82 151
XY,10,11 82 150
ADD,10,4 82 149
XY,11,11 82 148
ADD,11,4 82 147
XY,12,11 82 146
ADD,12,4 82 145
XY,13,11 82 144
ADD,13,4 82 143
XY,14,11 82 142
ADD,14,4 82 141
XY,15,11 82 140
ADD,15,4 82 139
XY,24,6 69 138
XY,25,6 69 137
XY,26,6 69 136
XY,27,6 69 135
XY,28,6 69 134
XY,29,6 69 133
XY,30,6 69 132
XY,31,6 69 131
XY,32,11 69 130
XY,33,11 69 129
XY,34,11 69 128
XY,35,11 69 127
XY,36,11 69 126
XY,37,11 69 125
XY,38,11 69 124
XY,39,11 69 123
XY,32,8 92 122
ADD,32,4 92 121
XY,33,8 92 120
ADD,33,4 92 119
XY,34,8 92 118
ADD,34,4 92 117
XY,35,8 92 116
ADD,35,4 92 115
XY,36,8 92 114
ADD,36,4 92 113
XY,37,8 92 112
ADD,37,4 92 111
XY,38,8 92 110
ADD,38,4 92 109
XY,39,8 92 108
ADD,39,4 92 107
XY,24,10 89 106
ADD,24,3 89 105
XY,25,10 89 104
ADD,25,3 89 103
XY,26,10 89 102
ADD,26,3 89 101
XY,27,10 89 100
ADD,27,3 89 99
XY,28,10 89 98
ADD,28,3 89 97
XY,29,10 89 96
ADD,29,3 89 95
XY,30,10 89 94
ADD,30,3 89 93
XY,31,10 89 92
ADD,31,3 89 91
XY,40,11 78 90
XY,41,11 78 89
XY,42,11 78 88
XY,43,11 78 87
XY,44,11 78 86
XY,45,11 78 85
XY,46,11 78 84
XY,47,11 78 83
XY,40,8 80 82
ADD,40,4 80 81
XY,41,8 80 80
ADD,41,4 80 79
XY,42,8 80 78
ADD,42,4 80 77
XY,43,8 80 76
ADD,43,4 80 75
XY,44,8 80 74
ADD,44,4 80 73
XY,45,8 80 72
ADD,45,4 80 71
XY,46,8 80 70
ADD,46,4 80 69
XY,47,8 80 68
ADD,47,4 80 67
XY,8,6 68 66
XY,9,6 68 65
XY,10,6 68 64
XY,11,6 68 63
XY,12,6 68 62
XY,13,6 68 61
XY,14,6 68 60
XY,15,6 68 59
XY,48,11 68 58
XY,49,11 68 57
XY,50,11 68 56
XY,51,11 68 55
XY,52,11 68 54
XY,53,11 68 53
XY,54,11 68 52
XY,55,11 68 51
XY,48,8 83 50
ADD,48,4 83 49
XY,49,8 83 48
ADD,49,4 83 47
XY,50,8 83 46
ADD,50,4 83 45
XY,51,8 83 44
ADD,51,4 83 43
XY,52,8 83 42
ADD,52,4 83 41
XY,53,8 83 40
ADD,53,4 83 39
XY,54,8 83 38
ADD,54,4 83 37
XY,55,8 83 36
ADD,55,4 83 35
XY,8,10 87 34
ADD,8,3 87 33
XY,9,10 87 32
ADD,9,3 87 31
XY,10,10 87 30
ADD,10,3 87 29
XY,11,10 87 28
ADD,11,3 87 27
XY,12,10 87 26
ADD,12,3 87 25
XY,13,10 87 24
ADD,13,3 87 23
XY,14,10 87 22
ADD,14,3 87 21
XY,15,10 87 20
ADD,15,3 87 19
XY,56,11 67 18
XY,57,11 67 17
XY,58,11 67 16
XY,59,11 67 15
XY,60,11 67 14
XY,61,11 67 13
XY,56,8 93 12
ADD,56,4 93 11
XY,57,8 93 10
ADD,57,4 93 9
XY,58,8 93 8
ADD,58,4 93 7
XY,59,8 93 6
ADD,59,4 93 5
XY,60,8 93 4
ADD,60,4 93 3
XY,61,8 93 2
ADD,61,4 93 1
