1225
22,0,1,_X,-1,0,0
22,0,1,_X,-1,0,0
22,0,1,_X,-1,0,0
22,0,1,_X,-1,0,0
22,0,1,_X,-1,0,0
22,0,1,_X,-1,0,0
22,0,1,_X,-1,0,0
22,0,1,_X,-1,0,0
22,0,1,_X,-1,0,0
22,0,1,_X,-1,0,0
22,0,1,_X,-1,0,0
22,0,1,_X,-1,0,0
22,0,1,_X,-1,0,0
22,0,1,_X,-1,0,0
22,0,1,_X,-1,0,0
22,0,1,_X,-1,0,0
22,0,1,_X,-1,0,0
22,0,1,_X,-1,0,0
22,0,1,_X,-1,0,0
22,0,1,_X,-1,0,0
22,0,1,_X,-1,0,0
22,0,1,_X,-1,0,0
22,0,1,_X,-1,0,0
22,0,1,_X,-1,0,0
22,0,1,_X,-1,0,0
22,0,1,_X,-1,0,0
22,0,1,_X,-1,0,0
22,0,1,_X,-1,0,0
22,0,1,_X,-1,0,0
22,0,1,_X,-1,0,0
22,0,1,_X,-1,0,0
22,0,1,_X,-1,0,0
22,0,1,_X,-1,0,0
22,0,1,_X,-1,0,0
22,0,1,_X,-1,0,0
22,0,1,_X,-1,0,0
22,0,1,_X,-1,0,0
22,0,1,_X,-1,0,0
22,0,1,_X,-1,0,0
22,0,1,_X,-1,0,0
22,0,1,_X,-1,0,0
22,0,1,_X,-1,0,0
22,0,1,_X,-1,0,0
22,0,1,_X,-1,0,0
22,0,1,_X,-1,0,0
22,0,1,_X,-1,0,0
22,0,1,_X,-1,0,0
22,0,1,_X,-1,0,0
22,0,1,_X,-1,0,0
22,0,1,_X,-1,0,0
22,0,1,_X,-1,0,0
22,0,1,_X,-1,0,0
22,0,1,_X,-1,0,0
22,0,1,_X,-1,0,0
22,0,1,_X,-1,0,0
22,0,1,_X,-1,0,0
22,0,1,_X,-1,0,0
22,0,1,_X,-1,0,0
22,0,1,_X,-1,0,0
22,0,1,_X,-1,0,0
22,0,1,_X,-1,0,0
22,0,1,_X,-1,0,0
3,2,0,0,0,20,0,0
3,2,1,1,0,20,0,0
3,2,2,2,0,20,0,0
3,2,3,3,0,20,0,0
3,2,4,4,0,20,0,0
3,2,5,5,0,20,0,0
3,2,6,6,0,20,0,0
3,2,7,7,0,20,0,0
3,2,8,8,0,20,0,0
3,2,9,9,0,20,0,0
3,2,10,10,0,20,0,0
3,2,11,11,0,20,0,0
3,2,12,12,0,20,0,0
3,2,13,13,0,20,0,0
3,2,14,14,0,20,0,0
3,2,15,15,0,20,0,0
3,2,16,0,0,20,0,0
3,2,17,1,0,20,0,0
3,2,18,2,0,20,0,0
3,2,19,3,0,20,0,0
3,2,20,4,0,20,0,0
3,2,21,5,0,20,0,0
3,2,22,6,0,20,0,0
3,2,23,7,0,20,0,0
3,2,24,8,0,20,0,0
3,2,25,9,0,20,0,0
3,2,26,10,0,20,0,0
3,2,27,11,0,20,0,0
3,2,28,12,0,20,0,0
3,2,29,13,0,20,0,0
3,2,30,14,0,20,0,0
3,2,31,15,0,20,0,0
3,2,32,0,0,20,0,0
3,2,33,1,0,20,0,0
3,2,34,2,0,20,0,0
3,2,35,3,0,20,0,0
3,2,36,4,0,20,0,0
3,2,37,5,0,20,0,0
3,2,38,6,0,20,0,0
3,2,39,7,0,20,0,0
3,2,40,8,0,20,0,0
3,2,41,9,0,20,0,0
3,2,42,10,0,20,0,0
3,2,43,11,0,20,0,0
3,2,44,12,0,20,0,0
3,2,45,13,0,20,0,0
3,2,46,14,0,20,0,0
3,2,47,15,0,20,0,0
3,2,48,0,0,20,0,0
3,2,49,1,0,20,0,0
3,2,50,2,0,20,0,0
3,2,51,3,0,20,0,0
3,2,52,4,0,20,0,0
3,2,53,5,0,20,0,0
3,2,54,6,0,20,0,0
3,2,55,7,0,20,0,0
3,2,56,8,0,20,0,0
3,2,57,9,0,20,0,0
3,2,58,10,0,20,0,0
3,2,59,11,0,20,0,0
3,2,60,12,0,20,0,0
3,2,61,13,0,20,0,0
4,1,0,1,XBXBUF,-1,0,0
17,0,1,XBX,-1,0,0
7,1,0,0,20,0,0
18,0,1,XBX,-1,0,0
5,1,0,0,20,0,0
5,1,1,0,20,0,0
5,1,2,0,20,0,0
5,1,3,0,20,0,0
5,1,4,0,20,0,0
5,1,5,0,20,0,0
5,1,6,0,20,0,0
5,1,7,0,20,0,0
5,1,8,0,20,0,0
5,1,9,0,20,0,0
5,1,10,0,20,0,0
5,1,11,0,20,0,0
5,1,12,0,20,0,0
5,1,13,0,20,0,0
5,1,14,0,20,0,0
5,1,15,0,20,0,0
5,1,16,0,20,0,0
5,1,17,0,20,0,0
5,1,18,0,20,0,0
5,1,19,0,20,0,0
5,1,20,0,20,0,0
5,1,21,0,20,0,0
5,1,22,0,20,0,0
5,1,23,0,20,0,0
5,1,24,0,20,0,0
5,1,25,0,20,0,0
5,1,26,0,20,0,0
5,1,27,0,20,0,0
5,1,28,0,20,0,0
5,1,29,0,20,0,0
5,1,30,0,20,0,0
5,1,31,0,20,0,0
5,1,32,0,20,0,0
5,1,33,0,20,0,0
5,1,34,0,20,0,0
5,1,35,0,20,0,0
5,1,36,0,20,0,0
5,1,37,0,20,0,0
5,1,38,0,20,0,0
5,1,39,0,20,0,0
5,1,40,0,20,0,0
5,1,41,0,20,0,0
5,1,42,0,20,0,0
5,1,43,0,20,0,0
5,1,44,0,20,0,0
5,1,45,0,20,0,0
5,1,46,0,20,0,0
5,1,47,0,20,0,0
5,1,48,0,20,0,0
5,1,49,0,20,0,0
5,1,50,0,20,0,0
5,1,51,0,20,0,0
5,1,52,0,20,0,0
5,1,53,0,20,0,0
5,1,54,0,20,0,0
5,1,55,0,20,0,0
5,1,56,0,20,0,0
5,1,57,0,20,0,0
5,1,58,0,20,0,0
5,1,59,0,20,0,0
5,1,60,0,20,0,0
5,1,61,0,20,0,0
7,1,0,0,21,0,0
7,1,1,0,21,0,0
7,1,2,0,21,0,0
7,1,3,0,21,0,0
7,1,4,0,21,0,0
7,1,5,0,21,0,0
7,1,6,0,21,0,0
7,1,7,0,21,0,0
7,1,8,0,21,0,0
7,1,9,0,21,0,0
7,1,10,0,21,0,0
7,1,11,0,21,0,0
7,1,12,0,21,0,0
7,1,13,0,21,0,0
7,1,14,0,21,0,0
7,1,15,0,21,0,0
7,1,16,0,21,0,0
7,1,17,0,21,0,0
7,1,18,0,21,0,0
7,1,19,0,21,0,0
7,1,20,0,21,0,0
7,1,21,0,21,0,0
7,1,22,0,21,0,0
7,1,23,0,21,0,0
7,1,24,0,21,0,0
7,1,25,0,21,0,0
7,1,26,0,21,0,0
7,1,27,0,21,0,0
7,1,28,0,21,0,0
7,1,29,0,21,0,0
7,1,30,0,21,0,0
7,1,31,0,21,0,0
7,1,32,0,21,0,0
7,1,33,0,21,0,0
7,1,34,0,21,0,0
7,1,35,0,21,0,0
7,1,36,0,21,0,0
7,1,37,0,21,0,0
7,1,38,0,21,0,0
7,1,39,0,21,0,0
7,1,40,0,21,0,0
7,1,41,0,21,0,0
7,1,42,0,21,0,0
7,1,43,0,21,0,0
7,1,44,0,21,0,0
7,1,45,0,21,0,0
7,1,46,0,21,0,0
7,1,47,0,21,0,0
7,1,48,0,21,0,0
7,1,49,0,21,0,0
7,1,50,0,21,0,0
7,1,51,0,21,0,0
7,1,52,0,21,0,0
7,1,53,0,21,0,0
7,1,54,0,21,0,0
7,1,55,0,21,0,0
7,1,56,0,21,0,0
7,1,57,0,21,0,0
7,1,58,0,21,0,0
7,1,59,0,21,0,0
7,1,60,0,21,0,0
7,1,61,0,21,0,0
19,1,0,0,1,0,0
2,3,0,0,0,0,-1,0,0
2,3,0,1,0,0,-1,0,0
2,3,0,2,0,0,-1,0,0
2,3,0,3,0,0,-1,0,0
2,3,0,4,0,0,-1,0,0
2,3,0,5,0,0,-1,0,0
2,3,0,6,0,0,-1,0,0
2,3,0,7,0,0,-1,0,0
2,3,0,8,0,0,-1,0,0
2,3,0,9,0,0,-1,0,0
2,3,0,10,0,0,-1,0,0
2,3,0,11,0,0,-1,0,0
2,3,0,12,0,0,-1,0,0
2,3,0,13,0,0,-1,0,0
2,3,0,14,0,0,-1,0,0
19,1,1,0,1,0,0
2,3,1,0,0,0,-1,0,0
2,3,1,1,0,0,-1,0,0
2,3,1,2,0,0,-1,0,0
2,3,1,3,0,0,-1,0,0
2,3,1,4,0,0,-1,0,0
2,3,1,5,0,0,-1,0,0
2,3,1,6,0,0,-1,0,0
2,3,1,7,0,0,-1,0,0
2,3,1,8,0,0,-1,0,0
2,3,1,9,0,0,-1,0,0
2,3,1,12,0,0,-1,0,0
2,3,1,13,0,0,-1,0,0
2,3,1,14,0,0,-1,0,0
2,3,1,15,0,0,-1,0,0
19,1,2,0,1,0,0
2,3,2,0,0,0,-1,0,0
2,3,2,1,0,0,-1,0,0
2,3,2,2,0,0,-1,0,0
2,3,2,3,0,0,-1,0,0
2,3,2,5,0,0,-1,0,0
2,3,2,6,0,0,-1,0,0
2,3,2,9,0,0,-1,0,0
2,3,2,10,0,0,-1,0,0
2,3,2,11,0,0,-1,0,0
2,3,2,12,0,0,-1,0,0
2,3,2,13,0,0,-1,0,0
2,3,2,14,0,0,-1,0,0
2,3,2,15,0,0,-1,0,0
19,1,3,0,1,0,0
2,3,3,0,0,0,-1,0,0
2,3,3,1,0,0,-1,0,0
2,3,3,2,0,0,-1,0,0
2,3,3,3,0,0,-1,0,0
2,3,3,4,0,0,-1,0,0
2,3,3,5,0,0,-1,0,0
2,3,3,6,0,0,-1,0,0
2,3,3,7,0,0,-1,0,0
2,3,3,8,0,0,-1,0,0
2,3,3,9,0,0,-1,0,0
2,3,3,10,0,0,-1,0,0
2,3,3,12,0,0,-1,0,0
2,3,3,13,0,0,-1,0,0
2,3,3,14,0,0,-1,0,0
2,3,3,15,0,0,-1,0,0
19,1,4,0,1,0,0
2,3,4,0,0,0,-1,0,0
2,3,4,1,0,0,-1,0,0
2,3,4,3,0,0,-1,0,0
2,3,4,4,0,0,-1,0,0
2,3,4,5,0,0,-1,0,0
2,3,4,6,0,0,-1,0,0
2,3,4,9,0,0,-1,0,0
2,3,4,10,0,0,-1,0,0
2,3,4,11,0,0,-1,0,0
2,3,4,12,0,0,-1,0,0
2,3,4,13,0,0,-1,0,0
2,3,4,15,0,0,-1,0,0
19,1,5,0,1,0,0
2,3,5,0,0,0,-1,0,0
2,3,5,1,0,0,-1,0,0
2,3,5,2,0,0,-1,0,0
2,3,5,3,0,0,-1,0,0
2,3,5,4,0,0,-1,0,0
2,3,5,5,0,0,-1,0,0
2,3,5,6,0,0,-1,0,0
2,3,5,7,0,0,-1,0,0
2,3,5,8,0,0,-1,0,0
2,3,5,9,0,0,-1,0,0
2,3,5,10,0,0,-1,0,0
2,3,5,11,0,0,-1,0,0
2,3,5,12,0,0,-1,0,0
2,3,5,13,0,0,-1,0,0
2,3,5,15,0,0,-1,0,0
19,1,6,0,1,0,0
2,3,6,0,0,0,-1,0,0
2,3,6,1,0,0,-1,0,0
2,3,6,2,0,0,-1,0,0
2,3,6,3,0,0,-1,0,0
2,3,6,4,0,0,-1,0,0
2,3,6,5,0,0,-1,0,0
2,3,6,6,0,0,-1,0,0
2,3,6,7,0,0,-1,0,0
2,3,6,11,0,0,-1,0,0
2,3,6,12,0,0,-1,0,0
2,3,6,13,0,0,-1,0,0
2,3,6,14,0,0,-1,0,0
2,3,6,15,0,0,-1,0,0
2,3,6,20,0,0,-1,0,0
2,3,6,21,0,0,-1,0,0
2,3,6,40,0,0,-1,0,0
19,1,7,0,1,0,0
2,3,7,0,0,0,-1,0,0
2,3,7,1,0,0,-1,0,0
2,3,7,3,0,0,-1,0,0
2,3,7,5,0,0,-1,0,0
2,3,7,6,0,0,-1,0,0
2,3,7,7,0,0,-1,0,0
2,3,7,8,0,0,-1,0,0
2,3,7,13,0,0,-1,0,0
2,3,7,14,0,0,-1,0,0
2,3,7,15,0,0,-1,0,0
2,3,7,20,0,0,-1,0,0
2,3,7,21,0,0,-1,0,0
2,3,7,22,0,0,-1,0,0
2,3,7,40,0,0,-1,0,0
2,3,7,41,0,0,-1,0,0
19,1,8,0,1,0,0
2,3,8,0,0,0,-1,0,0
2,3,8,1,0,0,-1,0,0
2,3,8,3,0,0,-1,0,0
2,3,8,5,0,0,-1,0,0
2,3,8,7,0,0,-1,0,0
2,3,8,8,0,0,-1,0,0
2,3,8,9,0,0,-1,0,0
2,3,8,14,0,0,-1,0,0
2,3,8,15,0,0,-1,0,0
2,3,8,21,0,0,-1,0,0
2,3,8,22,0,0,-1,0,0
2,3,8,40,0,0,-1,0,0
2,3,8,41,0,0,-1,0,0
19,1,9,0,1,0,0
2,3,9,0,0,0,-1,0,0
2,3,9,1,0,0,-1,0,0
2,3,9,2,0,0,-1,0,0
2,3,9,3,0,0,-1,0,0
2,3,9,4,0,0,-1,0,0
2,3,9,5,0,0,-1,0,0
2,3,9,8,0,0,-1,0,0
2,3,9,9,0,0,-1,0,0
2,3,9,10,0,0,-1,0,0
2,3,9,14,0,0,-1,0,0
2,3,9,15,0,0,-1,0,0
2,3,9,22,0,0,-1,0,0
2,3,9,23,0,0,-1,0,0
2,3,9,41,0,0,-1,0,0
2,3,9,42,0,0,-1,0,0
19,1,10,0,1,0,0
2,3,10,0,0,0,-1,0,0
2,3,10,2,0,0,-1,0,0
2,3,10,3,0,0,-1,0,0
2,3,10,4,0,0,-1,0,0
2,3,10,5,0,0,-1,0,0
2,3,10,9,0,0,-1,0,0
2,3,10,10,0,0,-1,0,0
2,3,10,11,0,0,-1,0,0
2,3,10,14,0,0,-1,0,0
2,3,10,15,0,0,-1,0,0
2,3,10,22,0,0,-1,0,0
2,3,10,23,0,0,-1,0,0
2,3,10,24,0,0,-1,0,0
2,3,10,41,0,0,-1,0,0
2,3,10,42,0,0,-1,0,0
19,1,11,0,1,0,0
2,3,11,0,0,0,-1,0,0
2,3,11,2,0,0,-1,0,0
2,3,11,4,0,0,-1,0,0
2,3,11,5,0,0,-1,0,0
2,3,11,6,0,0,-1,0,0
2,3,11,10,0,0,-1,0,0
2,3,11,11,0,0,-1,0,0
2,3,11,12,0,0,-1,0,0
2,3,11,14,0,0,-1,0,0
2,3,11,15,0,0,-1,0,0
2,3,11,16,0,0,-1,0,0
2,3,11,23,0,0,-1,0,0
2,3,11,24,0,0,-1,0,0
2,3,11,42,0,0,-1,0,0
19,1,12,0,1,0,0
2,3,12,0,0,0,-1,0,0
2,3,12,1,0,0,-1,0,0
2,3,12,2,0,0,-1,0,0
2,3,12,3,0,0,-1,0,0
2,3,12,4,0,0,-1,0,0
2,3,12,5,0,0,-1,0,0
2,3,12,6,0,0,-1,0,0
2,3,12,11,0,0,-1,0,0
2,3,12,12,0,0,-1,0,0
2,3,12,13,0,0,-1,0,0
2,3,12,14,0,0,-1,0,0
2,3,12,15,0,0,-1,0,0
2,3,12,16,0,0,-1,0,0
2,3,12,24,0,0,-1,0,0
2,3,12,25,0,0,-1,0,0
2,3,12,42,0,0,-1,0,0
19,1,13,0,1,0,0
2,3,13,0,0,0,-1,0,0
2,3,13,1,0,0,-1,0,0
2,3,13,2,0,0,-1,0,0
2,3,13,3,0,0,-1,0,0
2,3,13,4,0,0,-1,0,0
2,3,13,5,0,0,-1,0,0
2,3,13,6,0,0,-1,0,0
2,3,13,7,0,0,-1,0,0
2,3,13,12,0,0,-1,0,0
2,3,13,13,0,0,-1,0,0
2,3,13,14,0,0,-1,0,0
2,3,13,15,0,0,-1,0,0
2,3,13,16,0,0,-1,0,0
2,3,13,24,0,0,-1,0,0
2,3,13,25,0,0,-1,0,0
2,3,13,26,0,0,-1,0,0
2,3,13,40,0,0,-1,0,0
19,1,14,0,1,0,0
2,3,14,0,0,0,-1,0,0
2,3,14,1,0,0,-1,0,0
2,3,14,2,0,0,-1,0,0
2,3,14,3,0,0,-1,0,0
2,3,14,6,0,0,-1,0,0
2,3,14,7,0,0,-1,0,0
2,3,14,8,0,0,-1,0,0
2,3,14,9,0,0,-1,0,0
2,3,14,10,0,0,-1,0,0
2,3,14,11,0,0,-1,0,0
2,3,14,12,0,0,-1,0,0
2,3,14,13,0,0,-1,0,0
2,3,14,14,0,0,-1,0,0
2,3,14,15,0,0,-1,0,0
2,3,14,16,0,0,-1,0,0
2,3,14,40,0,0,-1,0,0
2,3,14,41,0,0,-1,0,0
2,3,14,42,0,0,-1,0,0
19,1,15,0,1,0,0
2,3,15,1,0,0,-1,0,0
2,3,15,2,0,0,-1,0,0
2,3,15,3,0,0,-1,0,0
2,3,15,4,0,0,-1,0,0
2,3,15,5,0,0,-1,0,0
2,3,15,6,0,0,-1,0,0
2,3,15,7,0,0,-1,0,0
2,3,15,8,0,0,-1,0,0
2,3,15,9,0,0,-1,0,0
2,3,15,10,0,0,-1,0,0
2,3,15,11,0,0,-1,0,0
2,3,15,12,0,0,-1,0,0
2,3,15,13,0,0,-1,0,0
2,3,15,14,0,0,-1,0,0
2,3,15,15,0,0,-1,0,0
2,3,15,16,0,0,-1,0,0
2,3,15,20,0,0,-1,0,0
2,3,15,21,0,0,-1,0,0
2,3,15,22,0,0,-1,0,0
2,3,15,23,0,0,-1,0,0
2,3,15,24,0,0,-1,0,0
2,3,15,25,0,0,-1,0,0
2,3,15,26,0,0,-1,0,0
2,3,15,42,0,0,-1,0,0
19,1,16,0,1,0,0
2,3,16,11,0,0,-1,0,0
2,3,16,12,0,0,-1,0,0
2,3,16,13,0,0,-1,0,0
2,3,16,14,0,0,-1,0,0
2,3,16,15,0,0,-1,0,0
2,3,16,16,0,0,-1,0,0
2,3,16,17,0,0,-1,0,0
2,3,16,42,0,0,-1,0,0
2,3,16,43,0,0,-1,0,0
19,1,17,0,1,0,0
2,3,17,16,0,0,-1,0,0
2,3,17,17,0,0,-1,0,0
2,3,17,18,0,0,-1,0,0
2,3,17,43,0,0,-1,0,0
2,3,17,44,0,0,-1,0,0
2,3,17,50,0,0,-1,0,0
2,3,17,51,0,0,-1,0,0
2,3,17,52,0,0,-1,0,0
2,3,17,53,0,0,-1,0,0
2,3,17,54,0,0,-1,0,0
19,1,18,0,1,0,0
2,3,18,17,0,0,-1,0,0
2,3,18,18,0,0,-1,0,0
2,3,18,19,0,0,-1,0,0
2,3,18,28,0,0,-1,0,0
2,3,18,29,0,0,-1,0,0
2,3,18,44,0,0,-1,0,0
2,3,18,52,0,0,-1,0,0
2,3,18,53,0,0,-1,0,0
2,3,18,54,0,0,-1,0,0
2,3,18,55,0,0,-1,0,0
19,1,19,0,1,0,0
2,3,19,18,0,0,-1,0,0
2,3,19,19,0,0,-1,0,0
2,3,19,20,0,0,-1,0,0
2,3,19,29,0,0,-1,0,0
2,3,19,30,0,0,-1,0,0
19,1,20,0,1,0,0
2,3,20,6,0,0,-1,0,0
2,3,20,7,0,0,-1,0,0
2,3,20,15,0,0,-1,0,0
2,3,20,19,0,0,-1,0,0
2,3,20,20,0,0,-1,0,0
2,3,20,21,0,0,-1,0,0
2,3,20,30,0,0,-1,0,0
2,3,20,31,0,0,-1,0,0
19,1,21,0,1,0,0
2,3,21,6,0,0,-1,0,0
2,3,21,7,0,0,-1,0,0
2,3,21,8,0,0,-1,0,0
2,3,21,15,0,0,-1,0,0
2,3,21,20,0,0,-1,0,0
2,3,21,21,0,0,-1,0,0
2,3,21,22,0,0,-1,0,0
2,3,21,31,0,0,-1,0,0
2,3,21,32,0,0,-1,0,0
19,1,22,0,1,0,0
2,3,22,7,0,0,-1,0,0
2,3,22,8,0,0,-1,0,0
2,3,22,9,0,0,-1,0,0
2,3,22,10,0,0,-1,0,0
2,3,22,15,0,0,-1,0,0
2,3,22,21,0,0,-1,0,0
2,3,22,22,0,0,-1,0,0
2,3,22,23,0,0,-1,0,0
2,3,22,32,0,0,-1,0,0
2,3,22,33,0,0,-1,0,0
19,1,23,0,1,0,0
2,3,23,9,0,0,-1,0,0
2,3,23,10,0,0,-1,0,0
2,3,23,11,0,0,-1,0,0
2,3,23,15,0,0,-1,0,0
2,3,23,22,0,0,-1,0,0
2,3,23,23,0,0,-1,0,0
2,3,23,24,0,0,-1,0,0
2,3,23,33,0,0,-1,0,0
2,3,23,34,0,0,-1,0,0
19,1,24,0,1,0,0
2,3,24,10,0,0,-1,0,0
2,3,24,11,0,0,-1,0,0
2,3,24,12,0,0,-1,0,0
2,3,24,13,0,0,-1,0,0
2,3,24,15,0,0,-1,0,0
2,3,24,23,0,0,-1,0,0
2,3,24,24,0,0,-1,0,0
2,3,24,25,0,0,-1,0,0
2,3,24,34,0,0,-1,0,0
2,3,24,35,0,0,-1,0,0
19,1,25,0,1,0,0
2,3,25,12,0,0,-1,0,0
2,3,25,13,0,0,-1,0,0
2,3,25,15,0,0,-1,0,0
2,3,25,24,0,0,-1,0,0
2,3,25,25,0,0,-1,0,0
2,3,25,26,0,0,-1,0,0
2,3,25,35,0,0,-1,0,0
2,3,25,36,0,0,-1,0,0
19,1,26,0,1,0,0
2,3,26,25,0,0,-1,0,0
2,3,26,26,0,0,-1,0,0
2,3,26,27,0,0,-1,0,0
2,3,26,36,0,0,-1,0,0
2,3,26,37,0,0,-1,0,0
19,1,27,0,1,0,0
2,3,27,26,0,0,-1,0,0
2,3,27,27,0,0,-1,0,0
2,3,27,28,0,0,-1,0,0
2,3,27,37,0,0,-1,0,0
2,3,27,38,0,0,-1,0,0
2,3,27,50,0,0,-1,0,0
2,3,27,51,0,0,-1,0,0
2,3,27,52,0,0,-1,0,0
2,3,27,53,0,0,-1,0,0
2,3,27,54,0,0,-1,0,0
19,1,28,0,1,0,0
2,3,28,18,0,0,-1,0,0
2,3,28,27,0,0,-1,0,0
2,3,28,28,0,0,-1,0,0
2,3,28,29,0,0,-1,0,0
2,3,28,38,0,0,-1,0,0
2,3,28,39,0,0,-1,0,0
2,3,28,51,0,0,-1,0,0
2,3,28,52,0,0,-1,0,0
2,3,28,53,0,0,-1,0,0
2,3,28,54,0,0,-1,0,0
2,3,28,55,0,0,-1,0,0
19,1,29,0,1,0,0
2,3,29,18,0,0,-1,0,0
2,3,29,19,0,0,-1,0,0
2,3,29,28,0,0,-1,0,0
2,3,29,29,0,0,-1,0,0
2,3,29,30,0,0,-1,0,0
2,3,29,55,0,0,-1,0,0
2,3,29,56,0,0,-1,0,0
19,1,30,0,1,0,0
2,3,30,19,0,0,-1,0,0
2,3,30,20,0,0,-1,0,0
2,3,30,29,0,0,-1,0,0
2,3,30,30,0,0,-1,0,0
2,3,30,31,0,0,-1,0,0
2,3,30,55,0,0,-1,0,0
2,3,30,56,0,0,-1,0,0
19,1,31,0,1,0,0
2,3,31,20,0,0,-1,0,0
2,3,31,21,0,0,-1,0,0
2,3,31,30,0,0,-1,0,0
2,3,31,31,0,0,-1,0,0
2,3,31,32,0,0,-1,0,0
2,3,31,56,0,0,-1,0,0
2,3,31,57,0,0,-1,0,0
19,1,32,0,1,0,0
2,3,32,21,0,0,-1,0,0
2,3,32,22,0,0,-1,0,0
2,3,32,31,0,0,-1,0,0
2,3,32,32,0,0,-1,0,0
2,3,32,33,0,0,-1,0,0
2,3,32,56,0,0,-1,0,0
2,3,32,57,0,0,-1,0,0
19,1,33,0,1,0,0
2,3,33,22,0,0,-1,0,0
2,3,33,23,0,0,-1,0,0
2,3,33,32,0,0,-1,0,0
2,3,33,33,0,0,-1,0,0
2,3,33,34,0,0,-1,0,0
2,3,33,57,0,0,-1,0,0
2,3,33,58,0,0,-1,0,0
19,1,34,0,1,0,0
2,3,34,23,0,0,-1,0,0
2,3,34,24,0,0,-1,0,0
2,3,34,33,0,0,-1,0,0
2,3,34,34,0,0,-1,0,0
2,3,34,35,0,0,-1,0,0
2,3,34,58,0,0,-1,0,0
2,3,34,59,0,0,-1,0,0
19,1,35,0,1,0,0
2,3,35,24,0,0,-1,0,0
2,3,35,25,0,0,-1,0,0
2,3,35,34,0,0,-1,0,0
2,3,35,35,0,0,-1,0,0
2,3,35,36,0,0,-1,0,0
2,3,35,58,0,0,-1,0,0
2,3,35,59,0,0,-1,0,0
19,1,36,0,1,0,0
2,3,36,25,0,0,-1,0,0
2,3,36,26,0,0,-1,0,0
2,3,36,35,0,0,-1,0,0
2,3,36,36,0,0,-1,0,0
2,3,36,37,0,0,-1,0,0
2,3,36,59,0,0,-1,0,0
2,3,36,60,0,0,-1,0,0
19,1,37,0,1,0,0
2,3,37,26,0,0,-1,0,0
2,3,37,27,0,0,-1,0,0
2,3,37,36,0,0,-1,0,0
2,3,37,37,0,0,-1,0,0
2,3,37,38,0,0,-1,0,0
2,3,37,59,0,0,-1,0,0
2,3,37,60,0,0,-1,0,0
19,1,38,0,1,0,0
2,3,38,27,0,0,-1,0,0
2,3,38,28,0,0,-1,0,0
2,3,38,37,0,0,-1,0,0
2,3,38,38,0,0,-1,0,0
2,3,38,39,0,0,-1,0,0
2,3,38,60,0,0,-1,0,0
2,3,38,61,0,0,-1,0,0
19,1,39,0,1,0,0
2,3,39,28,0,0,-1,0,0
2,3,39,38,0,0,-1,0,0
2,3,39,39,0,0,-1,0,0
2,3,39,40,0,0,-1,0,0
2,3,39,41,0,0,-1,0,0
2,3,39,61,0,0,-1,0,0
19,1,40,0,1,0,0
2,3,40,6,0,0,-1,0,0
2,3,40,7,0,0,-1,0,0
2,3,40,8,0,0,-1,0,0
2,3,40,13,0,0,-1,0,0
2,3,40,14,0,0,-1,0,0
2,3,40,39,0,0,-1,0,0
2,3,40,40,0,0,-1,0,0
2,3,40,41,0,0,-1,0,0
2,3,40,44,0,0,-1,0,0
2,3,40,45,0,0,-1,0,0
19,1,41,0,1,0,0
2,3,41,7,0,0,-1,0,0
2,3,41,8,0,0,-1,0,0
2,3,41,9,0,0,-1,0,0
2,3,41,10,0,0,-1,0,0
2,3,41,14,0,0,-1,0,0
2,3,41,39,0,0,-1,0,0
2,3,41,40,0,0,-1,0,0
2,3,41,41,0,0,-1,0,0
2,3,41,42,0,0,-1,0,0
2,3,41,44,0,0,-1,0,0
2,3,41,45,0,0,-1,0,0
2,3,41,46,0,0,-1,0,0
2,3,41,47,0,0,-1,0,0
19,1,42,0,1,0,0
2,3,42,9,0,0,-1,0,0
2,3,42,10,0,0,-1,0,0
2,3,42,11,0,0,-1,0,0
2,3,42,12,0,0,-1,0,0
2,3,42,14,0,0,-1,0,0
2,3,42,15,0,0,-1,0,0
2,3,42,16,0,0,-1,0,0
2,3,42,41,0,0,-1,0,0
2,3,42,42,0,0,-1,0,0
2,3,42,43,0,0,-1,0,0
2,3,42,46,0,0,-1,0,0
2,3,42,47,0,0,-1,0,0
2,3,42,48,0,0,-1,0,0
19,1,43,0,1,0,0
2,3,43,16,0,0,-1,0,0
2,3,43,17,0,0,-1,0,0
2,3,43,42,0,0,-1,0,0
2,3,43,43,0,0,-1,0,0
2,3,43,44,0,0,-1,0,0
2,3,43,48,0,0,-1,0,0
2,3,43,49,0,0,-1,0,0
2,3,43,50,0,0,-1,0,0
19,1,44,0,1,0,0
2,3,44,17,0,0,-1,0,0
2,3,44,18,0,0,-1,0,0
2,3,44,40,0,0,-1,0,0
2,3,44,41,0,0,-1,0,0
2,3,44,43,0,0,-1,0,0
2,3,44,44,0,0,-1,0,0
2,3,44,45,0,0,-1,0,0
2,3,44,49,0,0,-1,0,0
2,3,44,50,0,0,-1,0,0
19,1,45,0,1,0,0
2,3,45,40,0,0,-1,0,0
2,3,45,41,0,0,-1,0,0
2,3,45,44,0,0,-1,0,0
2,3,45,45,0,0,-1,0,0
2,3,45,46,0,0,-1,0,0
19,1,46,0,1,0,0
2,3,46,41,0,0,-1,0,0
2,3,46,42,0,0,-1,0,0
2,3,46,45,0,0,-1,0,0
2,3,46,46,0,0,-1,0,0
2,3,46,47,0,0,-1,0,0
19,1,47,0,1,0,0
2,3,47,41,0,0,-1,0,0
2,3,47,42,0,0,-1,0,0
2,3,47,46,0,0,-1,0,0
2,3,47,47,0,0,-1,0,0
2,3,47,48,0,0,-1,0,0
19,1,48,0,1,0,0
2,3,48,42,0,0,-1,0,0
2,3,48,43,0,0,-1,0,0
2,3,48,47,0,0,-1,0,0
2,3,48,48,0,0,-1,0,0
2,3,48,49,0,0,-1,0,0
19,1,49,0,1,0,0
2,3,49,43,0,0,-1,0,0
2,3,49,44,0,0,-1,0,0
2,3,49,48,0,0,-1,0,0
2,3,49,49,0,0,-1,0,0
2,3,49,50,0,0,-1,0,0
19,1,50,0,1,0,0
2,3,50,17,0,0,-1,0,0
2,3,50,26,0,0,-1,0,0
2,3,50,27,0,0,-1,0,0
2,3,50,43,0,0,-1,0,0
2,3,50,44,0,0,-1,0,0
2,3,50,49,0,0,-1,0,0
2,3,50,50,0,0,-1,0,0
2,3,50,51,0,0,-1,0,0
19,1,51,0,1,0,0
2,3,51,17,0,0,-1,0,0
2,3,51,26,0,0,-1,0,0
2,3,51,27,0,0,-1,0,0
2,3,51,28,0,0,-1,0,0
2,3,51,50,0,0,-1,0,0
2,3,51,51,0,0,-1,0,0
2,3,51,52,0,0,-1,0,0
2,3,51,53,0,0,-1,0,0
19,1,52,0,1,0,0
2,3,52,17,0,0,-1,0,0
2,3,52,18,0,0,-1,0,0
2,3,52,27,0,0,-1,0,0
2,3,52,28,0,0,-1,0,0
2,3,52,51,0,0,-1,0,0
2,3,52,52,0,0,-1,0,0
2,3,52,53,0,0,-1,0,0
2,3,52,54,0,0,-1,0,0
19,1,53,0,1,0,0
2,3,53,17,0,0,-1,0,0
2,3,53,18,0,0,-1,0,0
2,3,53,27,0,0,-1,0,0
2,3,53,28,0,0,-1,0,0
2,3,53,51,0,0,-1,0,0
2,3,53,52,0,0,-1,0,0
2,3,53,53,0,0,-1,0,0
2,3,53,54,0,0,-1,0,0
19,1,54,0,1,0,0
2,3,54,17,0,0,-1,0,0
2,3,54,18,0,0,-1,0,0
2,3,54,27,0,0,-1,0,0
2,3,54,28,0,0,-1,0,0
2,3,54,52,0,0,-1,0,0
2,3,54,53,0,0,-1,0,0
2,3,54,54,0,0,-1,0,0
2,3,54,55,0,0,-1,0,0
19,1,55,0,1,0,0
2,3,55,18,0,0,-1,0,0
2,3,55,28,0,0,-1,0,0
2,3,55,29,0,0,-1,0,0
2,3,55,30,0,0,-1,0,0
2,3,55,54,0,0,-1,0,0
2,3,55,55,0,0,-1,0,0
2,3,55,56,0,0,-1,0,0
19,1,56,0,1,0,0
2,3,56,29,0,0,-1,0,0
2,3,56,30,0,0,-1,0,0
2,3,56,31,0,0,-1,0,0
2,3,56,32,0,0,-1,0,0
2,3,56,55,0,0,-1,0,0
2,3,56,56,0,0,-1,0,0
2,3,56,57,0,0,-1,0,0
19,1,57,0,1,0,0
2,3,57,31,0,0,-1,0,0
2,3,57,32,0,0,-1,0,0
2,3,57,33,0,0,-1,0,0
2,3,57,56,0,0,-1,0,0
2,3,57,57,0,0,-1,0,0
2,3,57,58,0,0,-1,0,0
19,1,58,0,1,0,0
2,3,58,33,0,0,-1,0,0
2,3,58,34,0,0,-1,0,0
2,3,58,35,0,0,-1,0,0
2,3,58,57,0,0,-1,0,0
2,3,58,58,0,0,-1,0,0
2,3,58,59,0,0,-1,0,0
19,1,59,0,1,0,0
2,3,59,34,0,0,-1,0,0
2,3,59,35,0,0,-1,0,0
2,3,59,36,0,0,-1,0,0
2,3,59,37,0,0,-1,0,0
2,3,59,58,0,0,-1,0,0
2,3,59,59,0,0,-1,0,0
2,3,59,60,0,0,-1,0,0
19,1,60,0,1,0,0
2,3,60,36,0,0,-1,0,0
2,3,60,37,0,0,-1,0,0
2,3,60,38,0,0,-1,0,0
2,3,60,59,0,0,-1,0,0
2,3,60,60,0,0,-1,0,0
2,3,60,61,0,0,-1,0,0
19,1,61,0,1,0,0
2,3,61,38,0,0,-1,0,0
2,3,61,39,0,0,-1,0,0
2,3,61,60,0,0,-1,0,0
2,3,61,61,0,0,-1,0,0
3,2,0,0,0,21,0,0
3,2,1,1,0,21,0,0
3,2,2,2,0,21,0,0
3,2,3,3,0,21,0,0
3,2,4,4,0,21,0,0
3,2,5,5,0,21,0,0
3,2,6,6,0,21,0,0
3,2,7,7,0,21,0,0
3,2,8,8,0,21,0,0
3,2,9,9,0,21,0,0
3,2,10,10,0,21,0,0
3,2,11,11,0,21,0,0
3,2,12,12,0,21,0,0
3,2,13,13,0,21,0,0
3,2,14,14,0,21,0,0
3,2,15,15,0,21,0,0
3,2,16,0,0,21,0,0
3,2,17,1,0,21,0,0
3,2,18,2,0,21,0,0
3,2,19,3,0,21,0,0
3,2,20,4,0,21,0,0
3,2,21,5,0,21,0,0
3,2,22,6,0,21,0,0
3,2,23,7,0,21,0,0
3,2,24,8,0,21,0,0
3,2,25,9,0,21,0,0
3,2,26,10,0,21,0,0
3,2,27,11,0,21,0,0
3,2,28,12,0,21,0,0
3,2,29,13,0,21,0,0
3,2,30,14,0,21,0,0
3,2,31,15,0,21,0,0
3,2,32,0,0,21,0,0
3,2,33,1,0,21,0,0
3,2,34,2,0,21,0,0
3,2,35,3,0,21,0,0
3,2,36,4,0,21,0,0
3,2,37,5,0,21,0,0
3,2,38,6,0,21,0,0
3,2,39,7,0,21,0,0
3,2,40,8,0,21,0,0
3,2,41,9,0,21,0,0
3,2,42,10,0,21,0,0
3,2,43,11,0,21,0,0
3,2,44,12,0,21,0,0
3,2,45,13,0,21,0,0
3,2,46,14,0,21,0,0
3,2,47,15,0,21,0,0
3,2,48,0,0,21,0,0
3,2,49,1,0,21,0,0
3,2,50,2,0,21,0,0
3,2,51,3,0,21,0,0
3,2,52,4,0,21,0,0
3,2,53,5,0,21,0,0
3,2,54,6,0,21,0,0
3,2,55,7,0,21,0,0
3,2,56,8,0,21,0,0
3,2,57,9,0,21,0,0
3,2,58,10,0,21,0,0
3,2,59,11,0,21,0,0
3,2,60,12,0,21,0,0
3,2,61,13,0,21,0,0
4,1,0,1,XAXBUF,-1,0,0
16,0,1,XAX,-1,0,0
21,0,1,EIGEN,-1,0,0
5,1,0,0,21,0,0
5,1,1,0,21,0,0
5,1,2,0,21,0,0
5,1,3,0,21,0,0
5,1,4,0,21,0,0
5,1,5,0,21,0,0
5,1,6,0,21,0,0
5,1,7,0,21,0,0
5,1,8,0,21,0,0
5,1,9,0,21,0,0
5,1,10,0,21,0,0
5,1,11,0,21,0,0
5,1,12,0,21,0,0
5,1,13,0,21,0,0
5,1,14,0,21,0,0
5,1,15,0,21,0,0
5,1,16,0,21,0,0
5,1,17,0,21,0,0
5,1,18,0,21,0,0
5,1,19,0,21,0,0
5,1,20,0,21,0,0
5,1,21,0,21,0,0
5,1,22,0,21,0,0
5,1,23,0,21,0,0
5,1,24,0,21,0,0
5,1,25,0,21,0,0
5,1,26,0,21,0,0
5,1,27,0,21,0,0
5,1,28,0,21,0,0
5,1,29,0,21,0,0
5,1,30,0,21,0,0
5,1,31,0,21,0,0
5,1,32,0,21,0,0
5,1,33,0,21,0,0
5,1,34,0,21,0,0
5,1,35,0,21,0,0
5,1,36,0,21,0,0
5,1,37,0,21,0,0
5,1,38,0,21,0,0
5,1,39,0,21,0,0
5,1,40,0,21,0,0
5,1,41,0,21,0,0
5,1,42,0,21,0,0
5,1,43,0,21,0,0
5,1,44,0,21,0,0
5,1,45,0,21,0,0
5,1,46,0,21,0,0
5,1,47,0,21,0,0
5,1,48,0,21,0,0
5,1,49,0,21,0,0
5,1,50,0,21,0,0
5,1,51,0,21,0,0
5,1,52,0,21,0,0
5,1,53,0,21,0,0
5,1,54,0,21,0,0
5,1,55,0,21,0,0
5,1,56,0,21,0,0
5,1,57,0,21,0,0
5,1,58,0,21,0,0
5,1,59,0,21,0,0
5,1,60,0,21,0,0
5,1,61,0,21,0,0
7,1,0,0,22,0,0
7,1,1,0,22,0,0
7,1,2,0,22,0,0
7,1,3,0,22,0,0
7,1,4,0,22,0,0
7,1,5,0,22,0,0
7,1,6,0,22,0,0
7,1,7,0,22,0,0
7,1,8,0,22,0,0
7,1,9,0,22,0,0
7,1,10,0,22,0,0
7,1,11,0,22,0,0
7,1,12,0,22,0,0
7,1,13,0,22,0,0
7,1,14,0,22,0,0
7,1,15,0,22,0,0
7,1,16,0,22,0,0
7,1,17,0,22,0,0
7,1,18,0,22,0,0
7,1,19,0,22,0,0
7,1,20,0,22,0,0
7,1,21,0,22,0,0
7,1,22,0,22,0,0
7,1,23,0,22,0,0
7,1,24,0,22,0,0
7,1,25,0,22,0,0
7,1,26,0,22,0,0
7,1,27,0,22,0,0
7,1,28,0,22,0,0
7,1,29,0,22,0,0
7,1,30,0,22,0,0
7,1,31,0,22,0,0
7,1,32,0,22,0,0
7,1,33,0,22,0,0
7,1,34,0,22,0,0
7,1,35,0,22,0,0
7,1,36,0,22,0,0
7,1,37,0,22,0,0
7,1,38,0,22,0,0
7,1,39,0,22,0,0
7,1,40,0,22,0,0
7,1,41,0,22,0,0
7,1,42,0,22,0,0
7,1,43,0,22,0,0
7,1,44,0,22,0,0
7,1,45,0,22,0,0
7,1,46,0,22,0,0
7,1,47,0,22,0,0
7,1,48,0,22,0,0
7,1,49,0,22,0,0
7,1,50,0,22,0,0
7,1,51,0,22,0,0
7,1,52,0,22,0,0
7,1,53,0,22,0,0
7,1,54,0,22,0,0
7,1,55,0,22,0,0
7,1,56,0,22,0,0
7,1,57,0,22,0,0
7,1,58,0,22,0,0
7,1,59,0,22,0,0
7,1,60,0,22,0,0
7,1,61,0,22,0,0
5,1,0,0,22,0,0
5,1,1,0,22,0,0
5,1,2,0,22,0,0
5,1,3,0,22,0,0
5,1,4,0,22,0,0
5,1,5,0,22,0,0
5,1,6,0,22,0,0
5,1,7,0,22,0,0
5,1,8,0,22,0,0
5,1,9,0,22,0,0
5,1,10,0,22,0,0
5,1,11,0,22,0,0
5,1,12,0,22,0,0
5,1,13,0,22,0,0
5,1,14,0,22,0,0
5,1,15,0,22,0,0
5,1,16,0,22,0,0
5,1,17,0,22,0,0
5,1,18,0,22,0,0
5,1,19,0,22,0,0
5,1,20,0,22,0,0
5,1,21,0,22,0,0
5,1,22,0,22,0,0
5,1,23,0,22,0,0
5,1,24,0,22,0,0
5,1,25,0,22,0,0
5,1,26,0,22,0,0
5,1,27,0,22,0,0
5,1,28,0,22,0,0
5,1,29,0,22,0,0
5,1,30,0,22,0,0
5,1,31,0,22,0,0
5,1,32,0,22,0,0
5,1,33,0,22,0,0
5,1,34,0,22,0,0
5,1,35,0,22,0,0
5,1,36,0,22,0,0
5,1,37,0,22,0,0
5,1,38,0,22,0,0
5,1,39,0,22,0,0
5,1,40,0,22,0,0
5,1,41,0,22,0,0
5,1,42,0,22,0,0
5,1,43,0,22,0,0
5,1,44,0,22,0,0
5,1,45,0,22,0,0
5,1,46,0,22,0,0
5,1,47,0,22,0,0
5,1,48,0,22,0,0
5,1,49,0,22,0,0
5,1,50,0,22,0,0
5,1,51,0,22,0,0
5,1,52,0,22,0,0
5,1,53,0,22,0,0
5,1,54,0,22,0,0
5,1,55,0,22,0,0
5,1,56,0,22,0,0
5,1,57,0,22,0,0
5,1,58,0,22,0,0
5,1,59,0,22,0,0
5,1,60,0,22,0,0
5,1,61,0,22,0,0
7,1,0,0,23,0,0
7,1,1,0,23,0,0
7,1,2,0,23,0,0
7,1,3,0,23,0,0
7,1,4,0,23,0,0
7,1,5,0,23,0,0
7,1,6,0,23,0,0
7,1,7,0,23,0,0
7,1,8,0,23,0,0
7,1,9,0,23,0,0
7,1,10,0,23,0,0
7,1,11,0,23,0,0
7,1,12,0,23,0,0
7,1,13,0,23,0,0
7,1,14,0,23,0,0
7,1,15,0,23,0,0
7,1,16,0,23,0,0
7,1,17,0,23,0,0
7,1,18,0,23,0,0
7,1,19,0,23,0,0
7,1,20,0,23,0,0
7,1,21,0,23,0,0
7,1,22,0,23,0,0
7,1,23,0,23,0,0
7,1,24,0,23,0,0
7,1,25,0,23,0,0
7,1,26,0,23,0,0
7,1,27,0,23,0,0
7,1,28,0,23,0,0
7,1,29,0,23,0,0
7,1,30,0,23,0,0
7,1,31,0,23,0,0
7,1,32,0,23,0,0
7,1,33,0,23,0,0
7,1,34,0,23,0,0
7,1,35,0,23,0,0
7,1,36,0,23,0,0
7,1,37,0,23,0,0
7,1,38,0,23,0,0
7,1,39,0,23,0,0
7,1,40,0,23,0,0
7,1,41,0,23,0,0
7,1,42,0,23,0,0
7,1,43,0,23,0,0
7,1,44,0,23,0,0
7,1,45,0,23,0,0
7,1,46,0,23,0,0
7,1,47,0,23,0,0
7,1,48,0,23,0,0
7,1,49,0,23,0,0
7,1,50,0,23,0,0
7,1,51,0,23,0,0
7,1,52,0,23,0,0
7,1,53,0,23,0,0
7,1,54,0,23,0,0
7,1,55,0,23,0,0
7,1,56,0,23,0,0
7,1,57,0,23,0,0
7,1,58,0,23,0,0
7,1,59,0,23,0,0
7,1,60,0,23,0,0
7,1,61,0,23,0,0
