4258
22,0,1,_lambda,-1,0,0
22,0,1,_X,-1,0,0
22,0,1,_AX,-1,0,0
22,0,1,_X,-1,0,0
22,0,1,_AX,-1,0,0
22,0,1,_X,-1,0,0
22,0,1,_AX,-1,0,0
22,0,1,_X,-1,0,0
22,0,1,_AX,-1,0,0
22,0,1,_X,-1,0,0
22,0,1,_AX,-1,0,0
22,0,1,_X,-1,0,0
22,0,1,_AX,-1,0,0
22,0,1,_X,-1,0,0
22,0,1,_AX,-1,0,0
22,0,1,_X,-1,0,0
22,0,1,_AX,-1,0,0
22,0,1,_X,-1,0,0
22,0,1,_AX,-1,0,0
22,0,1,_X,-1,0,0
22,0,1,_AX,-1,0,0
22,0,1,_X,-1,0,0
22,0,1,_AX,-1,0,0
22,0,1,_X,-1,0,0
22,0,1,_AX,-1,0,0
22,0,1,_X,-1,0,0
22,0,1,_AX,-1,0,0
22,0,1,_X,-1,0,0
22,0,1,_AX,-1,0,0
22,0,1,_X,-1,0,0
22,0,1,_AX,-1,0,0
22,0,1,_X,-1,0,0
22,0,1,_AX,-1,0,0
22,0,1,_X,-1,0,0
22,0,1,_AX,-1,0,0
22,0,1,_X,-1,0,0
22,0,1,_AX,-1,0,0
22,0,1,_X,-1,0,0
22,0,1,_AX,-1,0,0
22,0,1,_X,-1,0,0
22,0,1,_AX,-1,0,0
22,0,1,_X,-1,0,0
22,0,1,_AX,-1,0,0
22,0,1,_X,-1,0,0
22,0,1,_AX,-1,0,0
22,0,1,_X,-1,0,0
22,0,1,_AX,-1,0,0
22,0,1,_X,-1,0,0
22,0,1,_AX,-1,0,0
22,0,1,_X,-1,0,0
22,0,1,_AX,-1,0,0
22,0,1,_X,-1,0,0
22,0,1,_AX,-1,0,0
22,0,1,_X,-1,0,0
22,0,1,_AX,-1,0,0
22,0,1,_X,-1,0,0
22,0,1,_AX,-1,0,0
22,0,1,_X,-1,0,0
22,0,1,_AX,-1,0,0
22,0,1,_X,-1,0,0
22,0,1,_AX,-1,0,0
22,0,1,_X,-1,0,0
22,0,1,_AX,-1,0,0
22,0,1,_X,-1,0,0
22,0,1,_AX,-1,0,0
22,0,1,_X,-1,0,0
22,0,1,_AX,-1,0,0
22,0,1,_X,-1,0,0
22,0,1,_AX,-1,0,0
22,0,1,_X,-1,0,0
22,0,1,_AX,-1,0,0
22,0,1,_X,-1,0,0
22,0,1,_AX,-1,0,0
22,0,1,_X,-1,0,0
22,0,1,_AX,-1,0,0
22,0,1,_X,-1,0,0
22,0,1,_AX,-1,0,0
22,0,1,_X,-1,0,0
22,0,1,_AX,-1,0,0
22,0,1,_X,-1,0,0
22,0,1,_AX,-1,0,0
22,0,1,_X,-1,0,0
22,0,1,_AX,-1,0,0
22,0,1,_X,-1,0,0
22,0,1,_AX,-1,0,0
22,0,1,_X,-1,0,0
22,0,1,_AX,-1,0,0
22,0,1,_X,-1,0,0
22,0,1,_AX,-1,0,0
22,0,1,_X,-1,0,0
22,0,1,_AX,-1,0,0
22,0,1,_X,-1,0,0
22,0,1,_AX,-1,0,0
22,0,1,_X,-1,0,0
22,0,1,_AX,-1,0,0
22,0,1,_X,-1,0,0
22,0,1,_AX,-1,0,0
22,0,1,_X,-1,0,0
22,0,1,_AX,-1,0,0
22,0,1,_X,-1,0,0
22,0,1,_AX,-1,0,0
22,0,1,_X,-1,0,0
22,0,1,_AX,-1,0,0
22,0,1,_X,-1,0,0
22,0,1,_AX,-1,0,0
22,0,1,_X,-1,0,0
22,0,1,_AX,-1,0,0
22,0,1,_X,-1,0,0
22,0,1,_AX,-1,0,0
22,0,1,_X,-1,0,0
22,0,1,_AX,-1,0,0
22,0,1,_X,-1,0,0
22,0,1,_AX,-1,0,0
22,0,1,_X,-1,0,0
22,0,1,_AX,-1,0,0
22,0,1,_X,-1,0,0
22,0,1,_AX,-1,0,0
22,0,1,_X,-1,0,0
22,0,1,_AX,-1,0,0
22,0,1,_X,-1,0,0
22,0,1,_AX,-1,0,0
22,0,1,_X,-1,0,0
22,0,1,_AX,-1,0,0
22,0,1,_X,-1,0,0
22,0,1,_AX,-1,0,0
22,0,1,_X,-1,0,0
22,0,1,_AX,-1,0,0
22,0,1,_X,-1,0,0
22,0,1,_AX,-1,0,0
22,0,1,_X,-1,0,0
22,0,1,_AX,-1,0,0
22,0,1,_X,-1,0,0
22,0,1,_AX,-1,0,0
22,0,1,_X,-1,0,0
22,0,1,_AX,-1,0,0
22,0,1,_X,-1,0,0
22,0,1,_AX,-1,0,0
22,0,1,_X,-1,0,0
22,0,1,_AX,-1,0,0
22,0,1,_X,-1,0,0
22,0,1,_AX,-1,0,0
22,0,1,_X,-1,0,0
22,0,1,_AX,-1,0,0
22,0,1,_X,-1,0,0
22,0,1,_AX,-1,0,0
22,0,1,_X,-1,0,0
22,0,1,_AX,-1,0,0
22,0,1,_X,-1,0,0
22,0,1,_AX,-1,0,0
22,0,1,_X,-1,0,0
22,0,1,_AX,-1,0,0
22,0,1,_X,-1,0,0
22,0,1,_AX,-1,0,0
22,0,1,_X,-1,0,0
22,0,1,_AX,-1,0,0
22,0,1,_X,-1,0,0
22,0,1,_AX,-1,0,0
22,0,1,_X,-1,0,0
22,0,1,_AX,-1,0,0
22,0,1,_X,-1,0,0
22,0,1,_AX,-1,0,0
22,0,1,_X,-1,0,0
22,0,1,_AX,-1,0,0
22,0,1,_X,-1,0,0
22,0,1,_AX,-1,0,0
22,0,1,_X,-1,0,0
22,0,1,_AX,-1,0,0
22,0,1,_X,-1,0,0
22,0,1,_AX,-1,0,0
22,0,1,_X,-1,0,0
22,0,1,_AX,-1,0,0
22,0,1,_X,-1,0,0
22,0,1,_AX,-1,0,0
22,0,1,_X,-1,0,0
22,0,1,_AX,-1,0,0
22,0,1,_X,-1,0,0
22,0,1,_AX,-1,0,0
22,0,1,_X,-1,0,0
22,0,1,_AX,-1,0,0
22,0,1,_X,-1,0,0
22,0,1,_AX,-1,0,0
22,0,1,_X,-1,0,0
22,0,1,_AX,-1,0,0
22,0,1,_X,-1,0,0
22,0,1,_AX,-1,0,0
22,0,1,_X,-1,0,0
22,0,1,_AX,-1,0,0
22,0,1,_X,-1,0,0
22,0,1,_AX,-1,0,0
22,0,1,_X,-1,0,0
22,0,1,_AX,-1,0,0
22,0,1,_X,-1,0,0
22,0,1,_AX,-1,0,0
22,0,1,_X,-1,0,0
22,0,1,_AX,-1,0,0
22,0,1,_X,-1,0,0
22,0,1,_AX,-1,0,0
22,0,1,_X,-1,0,0
22,0,1,_AX,-1,0,0
22,0,1,_X,-1,0,0
22,0,1,_AX,-1,0,0
22,0,1,_X,-1,0,0
22,0,1,_AX,-1,0,0
22,0,1,_X,-1,0,0
22,0,1,_AX,-1,0,0
22,0,1,_X,-1,0,0
22,0,1,_AX,-1,0,0
22,0,1,_X,-1,0,0
22,0,1,_AX,-1,0,0
22,0,1,_X,-1,0,0
22,0,1,_AX,-1,0,0
22,0,1,_X,-1,0,0
22,0,1,_AX,-1,0,0
22,0,1,_X,-1,0,0
22,0,1,_AX,-1,0,0
22,0,1,_X,-1,0,0
22,0,1,_AX,-1,0,0
22,0,1,_X,-1,0,0
22,0,1,_AX,-1,0,0
22,0,1,_X,-1,0,0
22,0,1,_AX,-1,0,0
22,0,1,_X,-1,0,0
22,0,1,_AX,-1,0,0
22,0,1,_X,-1,0,0
22,0,1,_AX,-1,0,0
22,0,1,_X,-1,0,0
22,0,1,_AX,-1,0,0
22,0,1,_X,-1,0,0
22,0,1,_AX,-1,0,0
22,0,1,_X,-1,0,0
22,0,1,_AX,-1,0,0
22,0,1,_X,-1,0,0
22,0,1,_AX,-1,0,0
22,0,1,_X,-1,0,0
22,0,1,_AX,-1,0,0
22,0,1,_X,-1,0,0
22,0,1,_AX,-1,0,0
22,0,1,_X,-1,0,0
22,0,1,_AX,-1,0,0
22,0,1,_X,-1,0,0
22,0,1,_AX,-1,0,0
22,0,1,_X,-1,0,0
22,0,1,_AX,-1,0,0
22,0,1,_X,-1,0,0
22,0,1,_AX,-1,0,0
22,0,1,_X,-1,0,0
22,0,1,_AX,-1,0,0
22,0,1,_X,-1,0,0
22,0,1,_AX,-1,0,0
5,1,0,0,1,0,0
5,1,1,0,1,0,0
5,1,2,0,1,0,0
5,1,3,0,1,0,0
5,1,4,0,1,0,0
5,1,5,0,1,0,0
5,1,6,0,1,0,0
5,1,7,0,1,0,0
5,1,8,0,1,0,0
5,1,9,0,1,0,0
5,1,10,0,1,0,0
5,1,11,0,1,0,0
5,1,12,0,1,0,0
5,1,13,0,1,0,0
5,1,14,0,1,0,0
5,1,15,0,1,0,0
5,1,16,0,1,0,0
5,1,17,0,1,0,0
5,1,18,0,1,0,0
5,1,19,0,1,0,0
5,1,20,0,1,0,0
5,1,21,0,1,0,0
5,1,22,0,1,0,0
5,1,23,0,1,0,0
5,1,24,0,1,0,0
5,1,25,0,1,0,0
5,1,26,0,1,0,0
5,1,27,0,1,0,0
5,1,28,0,1,0,0
5,1,29,0,1,0,0
5,1,30,0,1,0,0
5,1,31,0,1,0,0
5,1,32,0,1,0,0
5,1,33,0,1,0,0
5,1,34,0,1,0,0
5,1,35,0,1,0,0
5,1,36,0,1,0,0
5,1,37,0,1,0,0
5,1,38,0,1,0,0
5,1,39,0,1,0,0
5,1,40,0,1,0,0
5,1,41,0,1,0,0
5,1,42,0,1,0,0
5,1,43,0,1,0,0
5,1,44,0,1,0,0
5,1,45,0,1,0,0
5,1,46,0,1,0,0
5,1,47,0,1,0,0
5,1,48,0,1,0,0
5,1,49,0,1,0,0
5,1,50,0,1,0,0
5,1,51,0,1,0,0
5,1,52,0,1,0,0
5,1,53,0,1,0,0
5,1,54,0,1,0,0
5,1,55,0,1,0,0
5,1,56,0,1,0,0
5,1,57,0,1,0,0
5,1,58,0,1,0,0
5,1,59,0,1,0,0
5,1,60,0,1,0,0
5,1,61,0,1,0,0
5,1,62,0,1,0,0
5,1,63,0,1,0,0
5,1,64,0,1,0,0
5,1,65,0,1,0,0
5,1,66,0,1,0,0
5,1,67,0,1,0,0
5,1,68,0,1,0,0
5,1,69,0,1,0,0
5,1,70,0,1,0,0
5,1,71,0,1,0,0
5,1,72,0,1,0,0
5,1,73,0,1,0,0
5,1,74,0,1,0,0
5,1,75,0,1,0,0
5,1,76,0,1,0,0
5,1,77,0,1,0,0
5,1,78,0,1,0,0
5,1,79,0,1,0,0
5,1,80,0,1,0,0
5,1,81,0,1,0,0
5,1,82,0,1,0,0
5,1,83,0,1,0,0
5,1,84,0,1,0,0
5,1,85,0,1,0,0
5,1,86,0,1,0,0
5,1,87,0,1,0,0
5,1,88,0,1,0,0
5,1,89,0,1,0,0
5,1,90,0,1,0,0
5,1,91,0,1,0,0
5,1,92,0,1,0,0
5,1,93,0,1,0,0
5,1,94,0,1,0,0
5,1,95,0,1,0,0
5,1,96,0,1,0,0
5,1,97,0,1,0,0
5,1,98,0,1,0,0
5,1,99,0,1,0,0
5,1,100,0,1,0,0
5,1,101,0,1,0,0
5,1,102,0,1,0,0
5,1,103,0,1,0,0
5,1,104,0,1,0,0
5,1,105,0,1,0,0
5,1,106,0,1,0,0
5,1,107,0,1,0,0
5,1,108,0,1,0,0
5,1,109,0,1,0,0
5,1,110,0,1,0,0
5,1,111,0,1,0,0
5,1,112,0,1,0,0
5,1,113,0,1,0,0
5,1,114,0,1,0,0
5,1,115,0,1,0,0
5,1,116,0,1,0,0
5,1,117,0,1,0,0
5,1,118,0,1,0,0
5,1,119,0,1,0,0
5,1,120,0,1,0,0
5,1,121,0,1,0,0
5,1,122,0,1,0,0
5,1,123,0,1,0,0
9,1,0,0,1,0,0
9,1,1,0,1,0,0
9,1,2,0,1,0,0
9,1,3,0,1,0,0
9,1,4,0,1,0,0
9,1,5,0,1,0,0
9,1,6,0,1,0,0
9,1,7,0,1,0,0
9,1,8,0,1,0,0
9,1,9,0,1,0,0
9,1,10,0,1,0,0
9,1,11,0,1,0,0
9,1,12,0,1,0,0
9,1,13,0,1,0,0
9,1,14,0,1,0,0
9,1,15,0,1,0,0
9,1,16,0,1,0,0
9,1,17,0,1,0,0
9,1,18,0,1,0,0
9,1,19,0,1,0,0
9,1,20,0,1,0,0
9,1,21,0,1,0,0
9,1,22,0,1,0,0
9,1,23,0,1,0,0
9,1,24,0,1,0,0
9,1,25,0,1,0,0
9,1,26,0,1,0,0
9,1,27,0,1,0,0
9,1,28,0,1,0,0
9,1,29,0,1,0,0
9,1,30,0,1,0,0
9,1,31,0,1,0,0
9,1,32,0,1,0,0
9,1,33,0,1,0,0
9,1,34,0,1,0,0
9,1,35,0,1,0,0
9,1,36,0,1,0,0
9,1,37,0,1,0,0
9,1,38,0,1,0,0
9,1,39,0,1,0,0
9,1,40,0,1,0,0
9,1,41,0,1,0,0
9,1,42,0,1,0,0
9,1,43,0,1,0,0
9,1,44,0,1,0,0
9,1,45,0,1,0,0
9,1,46,0,1,0,0
9,1,47,0,1,0,0
9,1,48,0,1,0,0
9,1,49,0,1,0,0
9,1,50,0,1,0,0
9,1,51,0,1,0,0
9,1,52,0,1,0,0
9,1,53,0,1,0,0
9,1,54,0,1,0,0
9,1,55,0,1,0,0
9,1,56,0,1,0,0
9,1,57,0,1,0,0
9,1,58,0,1,0,0
9,1,59,0,1,0,0
9,1,60,0,1,0,0
9,1,61,0,1,0,0
9,1,62,0,1,0,0
9,1,63,0,1,0,0
9,1,64,0,1,0,0
9,1,65,0,1,0,0
9,1,66,0,1,0,0
9,1,67,0,1,0,0
9,1,68,0,1,0,0
9,1,69,0,1,0,0
9,1,70,0,1,0,0
9,1,71,0,1,0,0
9,1,72,0,1,0,0
9,1,73,0,1,0,0
9,1,74,0,1,0,0
9,1,75,0,1,0,0
9,1,76,0,1,0,0
9,1,77,0,1,0,0
9,1,78,0,1,0,0
9,1,79,0,1,0,0
9,1,80,0,1,0,0
9,1,81,0,1,0,0
9,1,82,0,1,0,0
9,1,83,0,1,0,0
9,1,84,0,1,0,0
9,1,85,0,1,0,0
9,1,86,0,1,0,0
9,1,87,0,1,0,0
9,1,88,0,1,0,0
9,1,89,0,1,0,0
9,1,90,0,1,0,0
9,1,91,0,1,0,0
9,1,92,0,1,0,0
9,1,93,0,1,0,0
9,1,94,0,1,0,0
9,1,95,0,1,0,0
9,1,96,0,1,0,0
9,1,97,0,1,0,0
9,1,98,0,1,0,0
9,1,99,0,1,0,0
9,1,100,0,1,0,0
9,1,101,0,1,0,0
9,1,102,0,1,0,0
9,1,103,0,1,0,0
9,1,104,0,1,0,0
9,1,105,0,1,0,0
9,1,106,0,1,0,0
9,1,107,0,1,0,0
9,1,108,0,1,0,0
9,1,109,0,1,0,0
9,1,110,0,1,0,0
9,1,111,0,1,0,0
9,1,112,0,1,0,0
9,1,113,0,1,0,0
9,1,114,0,1,0,0
9,1,115,0,1,0,0
9,1,116,0,1,0,0
9,1,117,0,1,0,0
9,1,118,0,1,0,0
9,1,119,0,1,0,0
9,1,120,0,1,0,0
9,1,121,0,1,0,0
9,1,122,0,1,0,0
9,1,123,0,1,0,0
1,0,1,RN,-1,0,0
10,1,0,0,-1,0,0
10,1,1,0,-1,0,0
10,1,2,0,-1,0,0
10,1,3,0,-1,0,0
10,1,4,0,-1,0,0
10,1,5,0,-1,0,0
10,1,6,0,-1,0,0
10,1,7,0,-1,0,0
10,1,8,0,-1,0,0
10,1,9,0,-1,0,0
10,1,10,0,-1,0,0
10,1,11,0,-1,0,0
10,1,12,0,-1,0,0
10,1,13,0,-1,0,0
10,1,14,0,-1,0,0
10,1,15,0,-1,0,0
10,1,16,0,-1,0,0
10,1,17,0,-1,0,0
10,1,18,0,-1,0,0
10,1,19,0,-1,0,0
10,1,20,0,-1,0,0
10,1,21,0,-1,0,0
10,1,22,0,-1,0,0
10,1,23,0,-1,0,0
10,1,24,0,-1,0,0
10,1,25,0,-1,0,0
10,1,26,0,-1,0,0
10,1,27,0,-1,0,0
10,1,28,0,-1,0,0
10,1,29,0,-1,0,0
10,1,30,0,-1,0,0
10,1,31,0,-1,0,0
10,1,32,0,-1,0,0
10,1,33,0,-1,0,0
10,1,34,0,-1,0,0
10,1,35,0,-1,0,0
10,1,36,0,-1,0,0
10,1,37,0,-1,0,0
10,1,38,0,-1,0,0
10,1,39,0,-1,0,0
10,1,40,0,-1,0,0
10,1,41,0,-1,0,0
10,1,42,0,-1,0,0
10,1,43,0,-1,0,0
10,1,44,0,-1,0,0
10,1,45,0,-1,0,0
10,1,46,0,-1,0,0
10,1,47,0,-1,0,0
10,1,48,0,-1,0,0
10,1,49,0,-1,0,0
10,1,50,0,-1,0,0
10,1,51,0,-1,0,0
10,1,52,0,-1,0,0
10,1,53,0,-1,0,0
10,1,54,0,-1,0,0
10,1,55,0,-1,0,0
10,1,56,0,-1,0,0
10,1,57,0,-1,0,0
10,1,58,0,-1,0,0
10,1,59,0,-1,0,0
10,1,60,0,-1,0,0
10,1,61,0,-1,0,0
10,1,62,0,-1,0,0
10,1,63,0,-1,0,0
10,1,64,0,-1,0,0
10,1,65,0,-1,0,0
10,1,66,0,-1,0,0
10,1,67,0,-1,0,0
10,1,68,0,-1,0,0
10,1,69,0,-1,0,0
10,1,70,0,-1,0,0
10,1,71,0,-1,0,0
10,1,72,0,-1,0,0
10,1,73,0,-1,0,0
10,1,74,0,-1,0,0
10,1,75,0,-1,0,0
10,1,76,0,-1,0,0
10,1,77,0,-1,0,0
10,1,78,0,-1,0,0
10,1,79,0,-1,0,0
10,1,80,0,-1,0,0
10,1,81,0,-1,0,0
10,1,82,0,-1,0,0
10,1,83,0,-1,0,0
10,1,84,0,-1,0,0
10,1,85,0,-1,0,0
10,1,86,0,-1,0,0
10,1,87,0,-1,0,0
10,1,88,0,-1,0,0
10,1,89,0,-1,0,0
10,1,90,0,-1,0,0
10,1,91,0,-1,0,0
10,1,92,0,-1,0,0
10,1,93,0,-1,0,0
10,1,94,0,-1,0,0
10,1,95,0,-1,0,0
10,1,96,0,-1,0,0
10,1,97,0,-1,0,0
10,1,98,0,-1,0,0
10,1,99,0,-1,0,0
10,1,100,0,-1,0,0
10,1,101,0,-1,0,0
10,1,102,0,-1,0,0
10,1,103,0,-1,0,0
10,1,104,0,-1,0,0
10,1,105,0,-1,0,0
10,1,106,0,-1,0,0
10,1,107,0,-1,0,0
10,1,108,0,-1,0,0
10,1,109,0,-1,0,0
10,1,110,0,-1,0,0
10,1,111,0,-1,0,0
10,1,112,0,-1,0,0
10,1,113,0,-1,0,0
10,1,114,0,-1,0,0
10,1,115,0,-1,0,0
10,1,116,0,-1,0,0
10,1,117,0,-1,0,0
10,1,118,0,-1,0,0
10,1,119,0,-1,0,0
10,1,120,0,-1,0,0
10,1,121,0,-1,0,0
10,1,122,0,-1,0,0
10,1,123,0,-1,0,0
11,2,0,0,0,-1,0,0
11,2,1,1,0,-1,0,0
11,2,2,2,0,-1,0,0
11,2,3,3,0,-1,0,0
11,2,4,4,0,-1,0,0
11,2,5,5,0,-1,0,0
11,2,6,6,0,-1,0,0
11,2,7,7,0,-1,0,0
11,2,8,8,0,-1,0,0
11,2,9,9,0,-1,0,0
11,2,10,10,0,-1,0,0
11,2,11,11,0,-1,0,0
11,2,12,12,0,-1,0,0
11,2,13,13,0,-1,0,0
11,2,14,14,0,-1,0,0
11,2,15,15,0,-1,0,0
11,2,16,0,0,-1,0,0
11,2,17,1,0,-1,0,0
11,2,18,2,0,-1,0,0
11,2,19,3,0,-1,0,0
11,2,20,4,0,-1,0,0
11,2,21,5,0,-1,0,0
11,2,22,6,0,-1,0,0
11,2,23,7,0,-1,0,0
11,2,24,8,0,-1,0,0
11,2,25,9,0,-1,0,0
11,2,26,10,0,-1,0,0
11,2,27,11,0,-1,0,0
11,2,28,12,0,-1,0,0
11,2,29,13,0,-1,0,0
11,2,30,14,0,-1,0,0
11,2,31,15,0,-1,0,0
11,2,32,0,0,-1,0,0
11,2,33,1,0,-1,0,0
11,2,34,2,0,-1,0,0
11,2,35,3,0,-1,0,0
11,2,36,4,0,-1,0,0
11,2,37,5,0,-1,0,0
11,2,38,6,0,-1,0,0
11,2,39,7,0,-1,0,0
11,2,40,8,0,-1,0,0
11,2,41,9,0,-1,0,0
11,2,42,10,0,-1,0,0
11,2,43,11,0,-1,0,0
11,2,44,12,0,-1,0,0
11,2,45,13,0,-1,0,0
11,2,46,14,0,-1,0,0
11,2,47,15,0,-1,0,0
11,2,48,0,0,-1,0,0
11,2,49,1,0,-1,0,0
11,2,50,2,0,-1,0,0
11,2,51,3,0,-1,0,0
11,2,52,4,0,-1,0,0
11,2,53,5,0,-1,0,0
11,2,54,6,0,-1,0,0
11,2,55,7,0,-1,0,0
11,2,56,8,0,-1,0,0
11,2,57,9,0,-1,0,0
11,2,58,10,0,-1,0,0
11,2,59,11,0,-1,0,0
11,2,60,12,0,-1,0,0
11,2,61,13,0,-1,0,0
11,2,62,14,0,-1,0,0
11,2,63,15,0,-1,0,0
11,2,64,0,0,-1,0,0
11,2,65,1,0,-1,0,0
11,2,66,2,0,-1,0,0
11,2,67,3,0,-1,0,0
11,2,68,4,0,-1,0,0
11,2,69,5,0,-1,0,0
11,2,70,6,0,-1,0,0
11,2,71,7,0,-1,0,0
11,2,72,8,0,-1,0,0
11,2,73,9,0,-1,0,0
11,2,74,10,0,-1,0,0
11,2,75,11,0,-1,0,0
11,2,76,12,0,-1,0,0
11,2,77,13,0,-1,0,0
11,2,78,14,0,-1,0,0
11,2,79,15,0,-1,0,0
11,2,80,0,0,-1,0,0
11,2,81,1,0,-1,0,0
11,2,82,2,0,-1,0,0
11,2,83,3,0,-1,0,0
11,2,84,4,0,-1,0,0
11,2,85,5,0,-1,0,0
11,2,86,6,0,-1,0,0
11,2,87,7,0,-1,0,0
11,2,88,8,0,-1,0,0
11,2,89,9,0,-1,0,0
11,2,90,10,0,-1,0,0
11,2,91,11,0,-1,0,0
11,2,92,12,0,-1,0,0
11,2,93,13,0,-1,0,0
11,2,94,14,0,-1,0,0
11,2,95,15,0,-1,0,0
11,2,96,0,0,-1,0,0
11,2,97,1,0,-1,0,0
11,2,98,2,0,-1,0,0
11,2,99,3,0,-1,0,0
11,2,100,4,0,-1,0,0
11,2,101,5,0,-1,0,0
11,2,102,6,0,-1,0,0
11,2,103,7,0,-1,0,0
11,2,104,8,0,-1,0,0
11,2,105,9,0,-1,0,0
11,2,106,10,0,-1,0,0
11,2,107,11,0,-1,0,0
11,2,108,12,0,-1,0,0
11,2,109,13,0,-1,0,0
11,2,110,14,0,-1,0,0
11,2,111,15,0,-1,0,0
11,2,112,0,0,-1,0,0
11,2,113,1,0,-1,0,0
11,2,114,2,0,-1,0,0
11,2,115,3,0,-1,0,0
11,2,116,4,0,-1,0,0
11,2,117,5,0,-1,0,0
11,2,118,6,0,-1,0,0
11,2,119,7,0,-1,0,0
11,2,120,8,0,-1,0,0
11,2,121,9,0,-1,0,0
11,2,122,10,0,-1,0,0
11,2,123,11,0,-1,0,0
12,0,1,RNBUF,-1,0,0
13,0,1,RN,-1,0,0
1,0,1,actMask,-1,0,0
20,0,1,actMask,-1,0,0
14,1,0,0,1,0,0
14,1,1,0,1,0,0
14,1,2,0,1,0,0
14,1,3,0,1,0,0
14,1,4,0,1,0,0
14,1,5,0,1,0,0
14,1,6,0,1,0,0
14,1,7,0,1,0,0
14,1,8,0,1,0,0
14,1,9,0,1,0,0
14,1,10,0,1,0,0
14,1,11,0,1,0,0
14,1,12,0,1,0,0
14,1,13,0,1,0,0
14,1,14,0,1,0,0
14,1,15,0,1,0,0
14,1,16,0,1,0,0
14,1,17,0,1,0,0
14,1,18,0,1,0,0
14,1,19,0,1,0,0
14,1,20,0,1,0,0
14,1,21,0,1,0,0
14,1,22,0,1,0,0
14,1,23,0,1,0,0
14,1,24,0,1,0,0
14,1,25,0,1,0,0
14,1,26,0,1,0,0
14,1,27,0,1,0,0
14,1,28,0,1,0,0
14,1,29,0,1,0,0
14,1,30,0,1,0,0
14,1,31,0,1,0,0
14,1,32,0,1,0,0
14,1,33,0,1,0,0
14,1,34,0,1,0,0
14,1,35,0,1,0,0
14,1,36,0,1,0,0
14,1,37,0,1,0,0
14,1,38,0,1,0,0
14,1,39,0,1,0,0
14,1,40,0,1,0,0
14,1,41,0,1,0,0
14,1,42,0,1,0,0
14,1,43,0,1,0,0
14,1,44,0,1,0,0
14,1,45,0,1,0,0
14,1,46,0,1,0,0
14,1,47,0,1,0,0
14,1,48,0,1,0,0
14,1,49,0,1,0,0
14,1,50,0,1,0,0
14,1,51,0,1,0,0
14,1,52,0,1,0,0
14,1,53,0,1,0,0
14,1,54,0,1,0,0
14,1,55,0,1,0,0
14,1,56,0,1,0,0
14,1,57,0,1,0,0
14,1,58,0,1,0,0
14,1,59,0,1,0,0
14,1,60,0,1,0,0
14,1,61,0,1,0,0
14,1,62,0,1,0,0
14,1,63,0,1,0,0
14,1,64,0,1,0,0
14,1,65,0,1,0,0
14,1,66,0,1,0,0
14,1,67,0,1,0,0
14,1,68,0,1,0,0
14,1,69,0,1,0,0
14,1,70,0,1,0,0
14,1,71,0,1,0,0
14,1,72,0,1,0,0
14,1,73,0,1,0,0
14,1,74,0,1,0,0
14,1,75,0,1,0,0
14,1,76,0,1,0,0
14,1,77,0,1,0,0
14,1,78,0,1,0,0
14,1,79,0,1,0,0
14,1,80,0,1,0,0
14,1,81,0,1,0,0
14,1,82,0,1,0,0
14,1,83,0,1,0,0
14,1,84,0,1,0,0
14,1,85,0,1,0,0
14,1,86,0,1,0,0
14,1,87,0,1,0,0
14,1,88,0,1,0,0
14,1,89,0,1,0,0
14,1,90,0,1,0,0
14,1,91,0,1,0,0
14,1,92,0,1,0,0
14,1,93,0,1,0,0
14,1,94,0,1,0,0
14,1,95,0,1,0,0
14,1,96,0,1,0,0
14,1,97,0,1,0,0
14,1,98,0,1,0,0
14,1,99,0,1,0,0
14,1,100,0,1,0,0
14,1,101,0,1,0,0
14,1,102,0,1,0,0
14,1,103,0,1,0,0
14,1,104,0,1,0,0
14,1,105,0,1,0,0
14,1,106,0,1,0,0
14,1,107,0,1,0,0
14,1,108,0,1,0,0
14,1,109,0,1,0,0
14,1,110,0,1,0,0
14,1,111,0,1,0,0
14,1,112,0,1,0,0
14,1,113,0,1,0,0
14,1,114,0,1,0,0
14,1,115,0,1,0,0
14,1,116,0,1,0,0
14,1,117,0,1,0,0
14,1,118,0,1,0,0
14,1,119,0,1,0,0
14,1,120,0,1,0,0
14,1,121,0,1,0,0
14,1,122,0,1,0,0
14,1,123,0,1,0,0
3,2,0,0,0,1,0,0
3,2,1,1,0,1,0,0
3,2,2,2,0,1,0,0
3,2,3,3,0,1,0,0
3,2,4,4,0,1,0,0
3,2,5,5,0,1,0,0
3,2,6,6,0,1,0,0
3,2,7,7,0,1,0,0
3,2,8,8,0,1,0,0
3,2,9,9,0,1,0,0
3,2,10,10,0,1,0,0
3,2,11,11,0,1,0,0
3,2,12,12,0,1,0,0
3,2,13,13,0,1,0,0
3,2,14,14,0,1,0,0
3,2,15,15,0,1,0,0
3,2,16,0,0,1,0,0
3,2,17,1,0,1,0,0
3,2,18,2,0,1,0,0
3,2,19,3,0,1,0,0
3,2,20,4,0,1,0,0
3,2,21,5,0,1,0,0
3,2,22,6,0,1,0,0
3,2,23,7,0,1,0,0
3,2,24,8,0,1,0,0
3,2,25,9,0,1,0,0
3,2,26,10,0,1,0,0
3,2,27,11,0,1,0,0
3,2,28,12,0,1,0,0
3,2,29,13,0,1,0,0
3,2,30,14,0,1,0,0
3,2,31,15,0,1,0,0
3,2,32,0,0,1,0,0
3,2,33,1,0,1,0,0
3,2,34,2,0,1,0,0
3,2,35,3,0,1,0,0
3,2,36,4,0,1,0,0
3,2,37,5,0,1,0,0
3,2,38,6,0,1,0,0
3,2,39,7,0,1,0,0
3,2,40,8,0,1,0,0
3,2,41,9,0,1,0,0
3,2,42,10,0,1,0,0
3,2,43,11,0,1,0,0
3,2,44,12,0,1,0,0
3,2,45,13,0,1,0,0
3,2,46,14,0,1,0,0
3,2,47,15,0,1,0,0
3,2,48,0,0,1,0,0
3,2,49,1,0,1,0,0
3,2,50,2,0,1,0,0
3,2,51,3,0,1,0,0
3,2,52,4,0,1,0,0
3,2,53,5,0,1,0,0
3,2,54,6,0,1,0,0
3,2,55,7,0,1,0,0
3,2,56,8,0,1,0,0
3,2,57,9,0,1,0,0
3,2,58,10,0,1,0,0
3,2,59,11,0,1,0,0
3,2,60,12,0,1,0,0
3,2,61,13,0,1,0,0
3,2,62,14,0,1,0,0
3,2,63,15,0,1,0,0
3,2,64,0,0,1,0,0
3,2,65,1,0,1,0,0
3,2,66,2,0,1,0,0
3,2,67,3,0,1,0,0
3,2,68,4,0,1,0,0
3,2,69,5,0,1,0,0
3,2,70,6,0,1,0,0
3,2,71,7,0,1,0,0
3,2,72,8,0,1,0,0
3,2,73,9,0,1,0,0
3,2,74,10,0,1,0,0
3,2,75,11,0,1,0,0
3,2,76,12,0,1,0,0
3,2,77,13,0,1,0,0
3,2,78,14,0,1,0,0
3,2,79,15,0,1,0,0
3,2,80,0,0,1,0,0
3,2,81,1,0,1,0,0
3,2,82,2,0,1,0,0
3,2,83,3,0,1,0,0
3,2,84,4,0,1,0,0
3,2,85,5,0,1,0,0
3,2,86,6,0,1,0,0
3,2,87,7,0,1,0,0
3,2,88,8,0,1,0,0
3,2,89,9,0,1,0,0
3,2,90,10,0,1,0,0
3,2,91,11,0,1,0,0
3,2,92,12,0,1,0,0
3,2,93,13,0,1,0,0
3,2,94,14,0,1,0,0
3,2,95,15,0,1,0,0
3,2,96,0,0,1,0,0
3,2,97,1,0,1,0,0
3,2,98,2,0,1,0,0
3,2,99,3,0,1,0,0
3,2,100,4,0,1,0,0
3,2,101,5,0,1,0,0
3,2,102,6,0,1,0,0
3,2,103,7,0,1,0,0
3,2,104,8,0,1,0,0
3,2,105,9,0,1,0,0
3,2,106,10,0,1,0,0
3,2,107,11,0,1,0,0
3,2,108,12,0,1,0,0
3,2,109,13,0,1,0,0
3,2,110,14,0,1,0,0
3,2,111,15,0,1,0,0
3,2,112,0,0,1,0,0
3,2,113,1,0,1,0,0
3,2,114,2,0,1,0,0
3,2,115,3,0,1,0,0
3,2,116,4,0,1,0,0
3,2,117,5,0,1,0,0
3,2,118,6,0,1,0,0
3,2,119,7,0,1,0,0
3,2,120,8,0,1,0,0
3,2,121,9,0,1,0,0
3,2,122,10,0,1,0,0
3,2,123,11,0,1,0,0
4,1,0,1,temp2BUF,-1,0,0
5,1,0,0,2,0,0
5,1,1,0,2,0,0
5,1,2,0,2,0,0
5,1,3,0,2,0,0
5,1,4,0,2,0,0
5,1,5,0,2,0,0
5,1,6,0,2,0,0
5,1,7,0,2,0,0
5,1,8,0,2,0,0
5,1,9,0,2,0,0
5,1,10,0,2,0,0
5,1,11,0,2,0,0
5,1,12,0,2,0,0
5,1,13,0,2,0,0
5,1,14,0,2,0,0
5,1,15,0,2,0,0
5,1,16,0,2,0,0
5,1,17,0,2,0,0
5,1,18,0,2,0,0
5,1,19,0,2,0,0
5,1,20,0,2,0,0
5,1,21,0,2,0,0
5,1,22,0,2,0,0
5,1,23,0,2,0,0
5,1,24,0,2,0,0
5,1,25,0,2,0,0
5,1,26,0,2,0,0
5,1,27,0,2,0,0
5,1,28,0,2,0,0
5,1,29,0,2,0,0
5,1,30,0,2,0,0
5,1,31,0,2,0,0
5,1,32,0,2,0,0
5,1,33,0,2,0,0
5,1,34,0,2,0,0
5,1,35,0,2,0,0
5,1,36,0,2,0,0
5,1,37,0,2,0,0
5,1,38,0,2,0,0
5,1,39,0,2,0,0
5,1,40,0,2,0,0
5,1,41,0,2,0,0
5,1,42,0,2,0,0
5,1,43,0,2,0,0
5,1,44,0,2,0,0
5,1,45,0,2,0,0
5,1,46,0,2,0,0
5,1,47,0,2,0,0
5,1,48,0,2,0,0
5,1,49,0,2,0,0
5,1,50,0,2,0,0
5,1,51,0,2,0,0
5,1,52,0,2,0,0
5,1,53,0,2,0,0
5,1,54,0,2,0,0
5,1,55,0,2,0,0
5,1,56,0,2,0,0
5,1,57,0,2,0,0
5,1,58,0,2,0,0
5,1,59,0,2,0,0
5,1,60,0,2,0,0
5,1,61,0,2,0,0
5,1,62,0,2,0,0
5,1,63,0,2,0,0
5,1,64,0,2,0,0
5,1,65,0,2,0,0
5,1,66,0,2,0,0
5,1,67,0,2,0,0
5,1,68,0,2,0,0
5,1,69,0,2,0,0
5,1,70,0,2,0,0
5,1,71,0,2,0,0
5,1,72,0,2,0,0
5,1,73,0,2,0,0
5,1,74,0,2,0,0
5,1,75,0,2,0,0
5,1,76,0,2,0,0
5,1,77,0,2,0,0
5,1,78,0,2,0,0
5,1,79,0,2,0,0
5,1,80,0,2,0,0
5,1,81,0,2,0,0
5,1,82,0,2,0,0
5,1,83,0,2,0,0
5,1,84,0,2,0,0
5,1,85,0,2,0,0
5,1,86,0,2,0,0
5,1,87,0,2,0,0
5,1,88,0,2,0,0
5,1,89,0,2,0,0
5,1,90,0,2,0,0
5,1,91,0,2,0,0
5,1,92,0,2,0,0
5,1,93,0,2,0,0
5,1,94,0,2,0,0
5,1,95,0,2,0,0
5,1,96,0,2,0,0
5,1,97,0,2,0,0
5,1,98,0,2,0,0
5,1,99,0,2,0,0
5,1,100,0,2,0,0
5,1,101,0,2,0,0
5,1,102,0,2,0,0
5,1,103,0,2,0,0
5,1,104,0,2,0,0
5,1,105,0,2,0,0
5,1,106,0,2,0,0
5,1,107,0,2,0,0
5,1,108,0,2,0,0
5,1,109,0,2,0,0
5,1,110,0,2,0,0
5,1,111,0,2,0,0
5,1,112,0,2,0,0
5,1,113,0,2,0,0
5,1,114,0,2,0,0
5,1,115,0,2,0,0
5,1,116,0,2,0,0
5,1,117,0,2,0,0
5,1,118,0,2,0,0
5,1,119,0,2,0,0
5,1,120,0,2,0,0
5,1,121,0,2,0,0
5,1,122,0,2,0,0
5,1,123,0,2,0,0
9,1,0,0,2,0,0
9,1,1,0,2,0,0
9,1,2,0,2,0,0
9,1,3,0,2,0,0
9,1,4,0,2,0,0
9,1,5,0,2,0,0
9,1,6,0,2,0,0
9,1,7,0,2,0,0
9,1,8,0,2,0,0
9,1,9,0,2,0,0
9,1,10,0,2,0,0
9,1,11,0,2,0,0
9,1,12,0,2,0,0
9,1,13,0,2,0,0
9,1,14,0,2,0,0
9,1,15,0,2,0,0
9,1,16,0,2,0,0
9,1,17,0,2,0,0
9,1,18,0,2,0,0
9,1,19,0,2,0,0
9,1,20,0,2,0,0
9,1,21,0,2,0,0
9,1,22,0,2,0,0
9,1,23,0,2,0,0
9,1,24,0,2,0,0
9,1,25,0,2,0,0
9,1,26,0,2,0,0
9,1,27,0,2,0,0
9,1,28,0,2,0,0
9,1,29,0,2,0,0
9,1,30,0,2,0,0
9,1,31,0,2,0,0
9,1,32,0,2,0,0
9,1,33,0,2,0,0
9,1,34,0,2,0,0
9,1,35,0,2,0,0
9,1,36,0,2,0,0
9,1,37,0,2,0,0
9,1,38,0,2,0,0
9,1,39,0,2,0,0
9,1,40,0,2,0,0
9,1,41,0,2,0,0
9,1,42,0,2,0,0
9,1,43,0,2,0,0
9,1,44,0,2,0,0
9,1,45,0,2,0,0
9,1,46,0,2,0,0
9,1,47,0,2,0,0
9,1,48,0,2,0,0
9,1,49,0,2,0,0
9,1,50,0,2,0,0
9,1,51,0,2,0,0
9,1,52,0,2,0,0
9,1,53,0,2,0,0
9,1,54,0,2,0,0
9,1,55,0,2,0,0
9,1,56,0,2,0,0
9,1,57,0,2,0,0
9,1,58,0,2,0,0
9,1,59,0,2,0,0
9,1,60,0,2,0,0
9,1,61,0,2,0,0
9,1,62,0,2,0,0
9,1,63,0,2,0,0
9,1,64,0,2,0,0
9,1,65,0,2,0,0
9,1,66,0,2,0,0
9,1,67,0,2,0,0
9,1,68,0,2,0,0
9,1,69,0,2,0,0
9,1,70,0,2,0,0
9,1,71,0,2,0,0
9,1,72,0,2,0,0
9,1,73,0,2,0,0
9,1,74,0,2,0,0
9,1,75,0,2,0,0
9,1,76,0,2,0,0
9,1,77,0,2,0,0
9,1,78,0,2,0,0
9,1,79,0,2,0,0
9,1,80,0,2,0,0
9,1,81,0,2,0,0
9,1,82,0,2,0,0
9,1,83,0,2,0,0
9,1,84,0,2,0,0
9,1,85,0,2,0,0
9,1,86,0,2,0,0
9,1,87,0,2,0,0
9,1,88,0,2,0,0
9,1,89,0,2,0,0
9,1,90,0,2,0,0
9,1,91,0,2,0,0
9,1,92,0,2,0,0
9,1,93,0,2,0,0
9,1,94,0,2,0,0
9,1,95,0,2,0,0
9,1,96,0,2,0,0
9,1,97,0,2,0,0
9,1,98,0,2,0,0
9,1,99,0,2,0,0
9,1,100,0,2,0,0
9,1,101,0,2,0,0
9,1,102,0,2,0,0
9,1,103,0,2,0,0
9,1,104,0,2,0,0
9,1,105,0,2,0,0
9,1,106,0,2,0,0
9,1,107,0,2,0,0
9,1,108,0,2,0,0
9,1,109,0,2,0,0
9,1,110,0,2,0,0
9,1,111,0,2,0,0
9,1,112,0,2,0,0
9,1,113,0,2,0,0
9,1,114,0,2,0,0
9,1,115,0,2,0,0
9,1,116,0,2,0,0
9,1,117,0,2,0,0
9,1,118,0,2,0,0
9,1,119,0,2,0,0
9,1,120,0,2,0,0
9,1,121,0,2,0,0
9,1,122,0,2,0,0
9,1,123,0,2,0,0
3,2,0,0,0,2,0,0
3,2,1,1,0,2,0,0
3,2,2,2,0,2,0,0
3,2,3,3,0,2,0,0
3,2,4,4,0,2,0,0
3,2,5,5,0,2,0,0
3,2,6,6,0,2,0,0
3,2,7,7,0,2,0,0
3,2,8,8,0,2,0,0
3,2,9,9,0,2,0,0
3,2,10,10,0,2,0,0
3,2,11,11,0,2,0,0
3,2,12,12,0,2,0,0
3,2,13,13,0,2,0,0
3,2,14,14,0,2,0,0
3,2,15,15,0,2,0,0
3,2,16,0,0,2,0,0
3,2,17,1,0,2,0,0
3,2,18,2,0,2,0,0
3,2,19,3,0,2,0,0
3,2,20,4,0,2,0,0
3,2,21,5,0,2,0,0
3,2,22,6,0,2,0,0
3,2,23,7,0,2,0,0
3,2,24,8,0,2,0,0
3,2,25,9,0,2,0,0
3,2,26,10,0,2,0,0
3,2,27,11,0,2,0,0
3,2,28,12,0,2,0,0
3,2,29,13,0,2,0,0
3,2,30,14,0,2,0,0
3,2,31,15,0,2,0,0
3,2,32,0,0,2,0,0
3,2,33,1,0,2,0,0
3,2,34,2,0,2,0,0
3,2,35,3,0,2,0,0
3,2,36,4,0,2,0,0
3,2,37,5,0,2,0,0
3,2,38,6,0,2,0,0
3,2,39,7,0,2,0,0
3,2,40,8,0,2,0,0
3,2,41,9,0,2,0,0
3,2,42,10,0,2,0,0
3,2,43,11,0,2,0,0
3,2,44,12,0,2,0,0
3,2,45,13,0,2,0,0
3,2,46,14,0,2,0,0
3,2,47,15,0,2,0,0
3,2,48,0,0,2,0,0
3,2,49,1,0,2,0,0
3,2,50,2,0,2,0,0
3,2,51,3,0,2,0,0
3,2,52,4,0,2,0,0
3,2,53,5,0,2,0,0
3,2,54,6,0,2,0,0
3,2,55,7,0,2,0,0
3,2,56,8,0,2,0,0
3,2,57,9,0,2,0,0
3,2,58,10,0,2,0,0
3,2,59,11,0,2,0,0
3,2,60,12,0,2,0,0
3,2,61,13,0,2,0,0
3,2,62,14,0,2,0,0
3,2,63,15,0,2,0,0
3,2,64,0,0,2,0,0
3,2,65,1,0,2,0,0
3,2,66,2,0,2,0,0
3,2,67,3,0,2,0,0
3,2,68,4,0,2,0,0
3,2,69,5,0,2,0,0
3,2,70,6,0,2,0,0
3,2,71,7,0,2,0,0
3,2,72,8,0,2,0,0
3,2,73,9,0,2,0,0
3,2,74,10,0,2,0,0
3,2,75,11,0,2,0,0
3,2,76,12,0,2,0,0
3,2,77,13,0,2,0,0
3,2,78,14,0,2,0,0
3,2,79,15,0,2,0,0
3,2,80,0,0,2,0,0
3,2,81,1,0,2,0,0
3,2,82,2,0,2,0,0
3,2,83,3,0,2,0,0
3,2,84,4,0,2,0,0
3,2,85,5,0,2,0,0
3,2,86,6,0,2,0,0
3,2,87,7,0,2,0,0
3,2,88,8,0,2,0,0
3,2,89,9,0,2,0,0
3,2,90,10,0,2,0,0
3,2,91,11,0,2,0,0
3,2,92,12,0,2,0,0
3,2,93,13,0,2,0,0
3,2,94,14,0,2,0,0
3,2,95,15,0,2,0,0
3,2,96,0,0,2,0,0
3,2,97,1,0,2,0,0
3,2,98,2,0,2,0,0
3,2,99,3,0,2,0,0
3,2,100,4,0,2,0,0
3,2,101,5,0,2,0,0
3,2,102,6,0,2,0,0
3,2,103,7,0,2,0,0
3,2,104,8,0,2,0,0
3,2,105,9,0,2,0,0
3,2,106,10,0,2,0,0
3,2,107,11,0,2,0,0
3,2,108,12,0,2,0,0
3,2,109,13,0,2,0,0
3,2,110,14,0,2,0,0
3,2,111,15,0,2,0,0
3,2,112,0,0,2,0,0
3,2,113,1,0,2,0,0
3,2,114,2,0,2,0,0
3,2,115,3,0,2,0,0
3,2,116,4,0,2,0,0
3,2,117,5,0,2,0,0
3,2,118,6,0,2,0,0
3,2,119,7,0,2,0,0
3,2,120,8,0,2,0,0
3,2,121,9,0,2,0,0
3,2,122,10,0,2,0,0
3,2,123,11,0,2,0,0
4,1,0,1,RBRBUF,-1,0,0
17,0,1,RBR,-1,0,0
18,0,1,RBR,-1,0,0
5,1,0,0,3,0,0
5,1,1,0,3,0,0
5,1,2,0,3,0,0
5,1,3,0,3,0,0
5,1,4,0,3,0,0
5,1,5,0,3,0,0
5,1,6,0,3,0,0
5,1,7,0,3,0,0
5,1,8,0,3,0,0
5,1,9,0,3,0,0
5,1,10,0,3,0,0
5,1,11,0,3,0,0
5,1,12,0,3,0,0
5,1,13,0,3,0,0
5,1,14,0,3,0,0
5,1,15,0,3,0,0
5,1,16,0,3,0,0
5,1,17,0,3,0,0
5,1,18,0,3,0,0
5,1,19,0,3,0,0
5,1,20,0,3,0,0
5,1,21,0,3,0,0
5,1,22,0,3,0,0
5,1,23,0,3,0,0
5,1,24,0,3,0,0
5,1,25,0,3,0,0
5,1,26,0,3,0,0
5,1,27,0,3,0,0
5,1,28,0,3,0,0
5,1,29,0,3,0,0
5,1,30,0,3,0,0
5,1,31,0,3,0,0
5,1,32,0,3,0,0
5,1,33,0,3,0,0
5,1,34,0,3,0,0
5,1,35,0,3,0,0
5,1,36,0,3,0,0
5,1,37,0,3,0,0
5,1,38,0,3,0,0
5,1,39,0,3,0,0
5,1,40,0,3,0,0
5,1,41,0,3,0,0
5,1,42,0,3,0,0
5,1,43,0,3,0,0
5,1,44,0,3,0,0
5,1,45,0,3,0,0
5,1,46,0,3,0,0
5,1,47,0,3,0,0
5,1,48,0,3,0,0
5,1,49,0,3,0,0
5,1,50,0,3,0,0
5,1,51,0,3,0,0
5,1,52,0,3,0,0
5,1,53,0,3,0,0
5,1,54,0,3,0,0
5,1,55,0,3,0,0
5,1,56,0,3,0,0
5,1,57,0,3,0,0
5,1,58,0,3,0,0
5,1,59,0,3,0,0
5,1,60,0,3,0,0
5,1,61,0,3,0,0
5,1,62,0,3,0,0
5,1,63,0,3,0,0
5,1,64,0,3,0,0
5,1,65,0,3,0,0
5,1,66,0,3,0,0
5,1,67,0,3,0,0
5,1,68,0,3,0,0
5,1,69,0,3,0,0
5,1,70,0,3,0,0
5,1,71,0,3,0,0
5,1,72,0,3,0,0
5,1,73,0,3,0,0
5,1,74,0,3,0,0
5,1,75,0,3,0,0
5,1,76,0,3,0,0
5,1,77,0,3,0,0
5,1,78,0,3,0,0
5,1,79,0,3,0,0
5,1,80,0,3,0,0
5,1,81,0,3,0,0
5,1,82,0,3,0,0
5,1,83,0,3,0,0
5,1,84,0,3,0,0
5,1,85,0,3,0,0
5,1,86,0,3,0,0
5,1,87,0,3,0,0
5,1,88,0,3,0,0
5,1,89,0,3,0,0
5,1,90,0,3,0,0
5,1,91,0,3,0,0
5,1,92,0,3,0,0
5,1,93,0,3,0,0
5,1,94,0,3,0,0
5,1,95,0,3,0,0
5,1,96,0,3,0,0
5,1,97,0,3,0,0
5,1,98,0,3,0,0
5,1,99,0,3,0,0
5,1,100,0,3,0,0
5,1,101,0,3,0,0
5,1,102,0,3,0,0
5,1,103,0,3,0,0
5,1,104,0,3,0,0
5,1,105,0,3,0,0
5,1,106,0,3,0,0
5,1,107,0,3,0,0
5,1,108,0,3,0,0
5,1,109,0,3,0,0
5,1,110,0,3,0,0
5,1,111,0,3,0,0
5,1,112,0,3,0,0
5,1,113,0,3,0,0
5,1,114,0,3,0,0
5,1,115,0,3,0,0
5,1,116,0,3,0,0
5,1,117,0,3,0,0
5,1,118,0,3,0,0
5,1,119,0,3,0,0
5,1,120,0,3,0,0
5,1,121,0,3,0,0
5,1,122,0,3,0,0
5,1,123,0,3,0,0
7,1,0,0,1,0,0
7,1,1,0,1,0,0
7,1,2,0,1,0,0
7,1,3,0,1,0,0
7,1,4,0,1,0,0
7,1,5,0,1,0,0
7,1,6,0,1,0,0
7,1,7,0,1,0,0
7,1,8,0,1,0,0
7,1,9,0,1,0,0
7,1,10,0,1,0,0
7,1,11,0,1,0,0
7,1,12,0,1,0,0
7,1,13,0,1,0,0
7,1,14,0,1,0,0
7,1,15,0,1,0,0
7,1,16,0,1,0,0
7,1,17,0,1,0,0
7,1,18,0,1,0,0
7,1,19,0,1,0,0
7,1,20,0,1,0,0
7,1,21,0,1,0,0
7,1,22,0,1,0,0
7,1,23,0,1,0,0
7,1,24,0,1,0,0
7,1,25,0,1,0,0
7,1,26,0,1,0,0
7,1,27,0,1,0,0
7,1,28,0,1,0,0
7,1,29,0,1,0,0
7,1,30,0,1,0,0
7,1,31,0,1,0,0
7,1,32,0,1,0,0
7,1,33,0,1,0,0
7,1,34,0,1,0,0
7,1,35,0,1,0,0
7,1,36,0,1,0,0
7,1,37,0,1,0,0
7,1,38,0,1,0,0
7,1,39,0,1,0,0
7,1,40,0,1,0,0
7,1,41,0,1,0,0
7,1,42,0,1,0,0
7,1,43,0,1,0,0
7,1,44,0,1,0,0
7,1,45,0,1,0,0
7,1,46,0,1,0,0
7,1,47,0,1,0,0
7,1,48,0,1,0,0
7,1,49,0,1,0,0
7,1,50,0,1,0,0
7,1,51,0,1,0,0
7,1,52,0,1,0,0
7,1,53,0,1,0,0
7,1,54,0,1,0,0
7,1,55,0,1,0,0
7,1,56,0,1,0,0
7,1,57,0,1,0,0
7,1,58,0,1,0,0
7,1,59,0,1,0,0
7,1,60,0,1,0,0
7,1,61,0,1,0,0
7,1,62,0,1,0,0
7,1,63,0,1,0,0
7,1,64,0,1,0,0
7,1,65,0,1,0,0
7,1,66,0,1,0,0
7,1,67,0,1,0,0
7,1,68,0,1,0,0
7,1,69,0,1,0,0
7,1,70,0,1,0,0
7,1,71,0,1,0,0
7,1,72,0,1,0,0
7,1,73,0,1,0,0
7,1,74,0,1,0,0
7,1,75,0,1,0,0
7,1,76,0,1,0,0
7,1,77,0,1,0,0
7,1,78,0,1,0,0
7,1,79,0,1,0,0
7,1,80,0,1,0,0
7,1,81,0,1,0,0
7,1,82,0,1,0,0
7,1,83,0,1,0,0
7,1,84,0,1,0,0
7,1,85,0,1,0,0
7,1,86,0,1,0,0
7,1,87,0,1,0,0
7,1,88,0,1,0,0
7,1,89,0,1,0,0
7,1,90,0,1,0,0
7,1,91,0,1,0,0
7,1,92,0,1,0,0
7,1,93,0,1,0,0
7,1,94,0,1,0,0
7,1,95,0,1,0,0
7,1,96,0,1,0,0
7,1,97,0,1,0,0
7,1,98,0,1,0,0
7,1,99,0,1,0,0
7,1,100,0,1,0,0
7,1,101,0,1,0,0
7,1,102,0,1,0,0
7,1,103,0,1,0,0
7,1,104,0,1,0,0
7,1,105,0,1,0,0
7,1,106,0,1,0,0
7,1,107,0,1,0,0
7,1,108,0,1,0,0
7,1,109,0,1,0,0
7,1,110,0,1,0,0
7,1,111,0,1,0,0
7,1,112,0,1,0,0
7,1,113,0,1,0,0
7,1,114,0,1,0,0
7,1,115,0,1,0,0
7,1,116,0,1,0,0
7,1,117,0,1,0,0
7,1,118,0,1,0,0
7,1,119,0,1,0,0
7,1,120,0,1,0,0
7,1,121,0,1,0,0
7,1,122,0,1,0,0
7,1,123,0,1,0,0
19,1,0,0,1,0,0
2,3,0,0,0,0,-1,0,0
2,3,0,1,0,0,-1,0,0
2,3,0,2,0,0,-1,0,0
2,3,0,3,0,0,-1,0,0
2,3,0,4,0,0,-1,0,0
2,3,0,6,0,0,-1,0,0
2,3,0,7,0,0,-1,0,0
2,3,0,8,0,0,-1,0,0
2,3,0,12,0,0,-1,0,0
2,3,0,13,0,0,-1,0,0
2,3,0,14,0,0,-1,0,0
2,3,0,15,0,0,-1,0,0
2,3,0,16,0,0,-1,0,0
2,3,0,17,0,0,-1,0,0
2,3,0,18,0,0,-1,0,0
2,3,0,19,0,0,-1,0,0
2,3,0,27,0,0,-1,0,0
2,3,0,28,0,0,-1,0,0
19,1,1,0,1,0,0
2,3,1,0,0,0,-1,0,0
2,3,1,1,0,0,-1,0,0
2,3,1,2,0,0,-1,0,0
2,3,1,3,0,0,-1,0,0
2,3,1,4,0,0,-1,0,0
2,3,1,5,0,0,-1,0,0
2,3,1,6,0,0,-1,0,0
2,3,1,7,0,0,-1,0,0
2,3,1,8,0,0,-1,0,0
2,3,1,9,0,0,-1,0,0
2,3,1,10,0,0,-1,0,0
2,3,1,18,0,0,-1,0,0
2,3,1,19,0,0,-1,0,0
2,3,1,20,0,0,-1,0,0
2,3,1,21,0,0,-1,0,0
2,3,1,22,0,0,-1,0,0
2,3,1,23,0,0,-1,0,0
2,3,1,24,0,0,-1,0,0
2,3,1,25,0,0,-1,0,0
2,3,1,26,0,0,-1,0,0
2,3,1,28,0,0,-1,0,0
2,3,1,29,0,0,-1,0,0
19,1,2,0,1,0,0
2,3,2,0,0,0,-1,0,0
2,3,2,1,0,0,-1,0,0
2,3,2,2,0,0,-1,0,0
2,3,2,3,0,0,-1,0,0
2,3,2,5,0,0,-1,0,0
2,3,2,6,0,0,-1,0,0
2,3,2,9,0,0,-1,0,0
2,3,2,10,0,0,-1,0,0
2,3,2,12,0,0,-1,0,0
2,3,2,13,0,0,-1,0,0
2,3,2,14,0,0,-1,0,0
2,3,2,15,0,0,-1,0,0
2,3,2,25,0,0,-1,0,0
2,3,2,26,0,0,-1,0,0
2,3,2,27,0,0,-1,0,0
2,3,2,28,0,0,-1,0,0
2,3,2,29,0,0,-1,0,0
2,3,2,30,0,0,-1,0,0
19,1,3,0,1,0,0
2,3,3,0,0,0,-1,0,0
2,3,3,1,0,0,-1,0,0
2,3,3,2,0,0,-1,0,0
2,3,3,3,0,0,-1,0,0
2,3,3,4,0,0,-1,0,0
2,3,3,10,0,0,-1,0,0
2,3,3,11,0,0,-1,0,0
2,3,3,14,0,0,-1,0,0
2,3,3,15,0,0,-1,0,0
2,3,3,16,0,0,-1,0,0
2,3,3,17,0,0,-1,0,0
2,3,3,18,0,0,-1,0,0
2,3,3,19,0,0,-1,0,0
2,3,3,27,0,0,-1,0,0
2,3,3,28,0,0,-1,0,0
19,1,4,0,1,0,0
2,3,4,0,0,0,-1,0,0
2,3,4,1,0,0,-1,0,0
2,3,4,3,0,0,-1,0,0
2,3,4,4,0,0,-1,0,0
2,3,4,5,0,0,-1,0,0
2,3,4,11,0,0,-1,0,0
2,3,4,18,0,0,-1,0,0
2,3,4,19,0,0,-1,0,0
2,3,4,20,0,0,-1,0,0
2,3,4,21,0,0,-1,0,0
2,3,4,22,0,0,-1,0,0
2,3,4,23,0,0,-1,0,0
2,3,4,28,0,0,-1,0,0
2,3,4,29,0,0,-1,0,0
19,1,5,0,1,0,0
2,3,5,1,0,0,-1,0,0
2,3,5,2,0,0,-1,0,0
2,3,5,4,0,0,-1,0,0
2,3,5,5,0,0,-1,0,0
2,3,5,6,0,0,-1,0,0
2,3,5,11,0,0,-1,0,0
2,3,5,12,0,0,-1,0,0
2,3,5,21,0,0,-1,0,0
2,3,5,22,0,0,-1,0,0
2,3,5,23,0,0,-1,0,0
2,3,5,24,0,0,-1,0,0
2,3,5,25,0,0,-1,0,0
2,3,5,26,0,0,-1,0,0
2,3,5,29,0,0,-1,0,0
2,3,5,30,0,0,-1,0,0
19,1,6,0,1,0,0
2,3,6,0,0,0,-1,0,0
2,3,6,1,0,0,-1,0,0
2,3,6,2,0,0,-1,0,0
2,3,6,5,0,0,-1,0,0
2,3,6,6,0,0,-1,0,0
2,3,6,7,0,0,-1,0,0
2,3,6,10,0,0,-1,0,0
2,3,6,12,0,0,-1,0,0
2,3,6,13,0,0,-1,0,0
2,3,6,14,0,0,-1,0,0
2,3,6,15,0,0,-1,0,0
2,3,6,16,0,0,-1,0,0
2,3,6,25,0,0,-1,0,0
2,3,6,26,0,0,-1,0,0
2,3,6,27,0,0,-1,0,0
2,3,6,29,0,0,-1,0,0
2,3,6,30,0,0,-1,0,0
19,1,7,0,1,0,0
2,3,7,0,0,0,-1,0,0
2,3,7,1,0,0,-1,0,0
2,3,7,6,0,0,-1,0,0
2,3,7,7,0,0,-1,0,0
2,3,7,8,0,0,-1,0,0
2,3,7,10,0,0,-1,0,0
2,3,7,11,0,0,-1,0,0
2,3,7,14,0,0,-1,0,0
2,3,7,15,0,0,-1,0,0
2,3,7,16,0,0,-1,0,0
2,3,7,17,0,0,-1,0,0
2,3,7,18,0,0,-1,0,0
2,3,7,19,0,0,-1,0,0
2,3,7,20,0,0,-1,0,0
2,3,7,30,0,0,-1,0,0
2,3,7,31,0,0,-1,0,0
19,1,8,0,1,0,0
2,3,8,0,0,0,-1,0,0
2,3,8,1,0,0,-1,0,0
2,3,8,7,0,0,-1,0,0
2,3,8,8,0,0,-1,0,0
2,3,8,9,0,0,-1,0,0
2,3,8,11,0,0,-1,0,0
2,3,8,19,0,0,-1,0,0
2,3,8,20,0,0,-1,0,0
2,3,8,21,0,0,-1,0,0
2,3,8,22,0,0,-1,0,0
2,3,8,23,0,0,-1,0,0
2,3,8,30,0,0,-1,0,0
2,3,8,31,0,0,-1,0,0
19,1,9,0,1,0,0
2,3,9,1,0,0,-1,0,0
2,3,9,2,0,0,-1,0,0
2,3,9,8,0,0,-1,0,0
2,3,9,9,0,0,-1,0,0
2,3,9,10,0,0,-1,0,0
2,3,9,11,0,0,-1,0,0
2,3,9,12,0,0,-1,0,0
2,3,9,22,0,0,-1,0,0
2,3,9,23,0,0,-1,0,0
2,3,9,24,0,0,-1,0,0
2,3,9,25,0,0,-1,0,0
2,3,9,26,0,0,-1,0,0
2,3,9,27,0,0,-1,0,0
2,3,9,31,0,0,-1,0,0
19,1,10,0,1,0,0
2,3,10,1,0,0,-1,0,0
2,3,10,2,0,0,-1,0,0
2,3,10,3,0,0,-1,0,0
2,3,10,6,0,0,-1,0,0
2,3,10,7,0,0,-1,0,0
2,3,10,9,0,0,-1,0,0
2,3,10,10,0,0,-1,0,0
2,3,10,11,0,0,-1,0,0
2,3,10,12,0,0,-1,0,0
2,3,10,13,0,0,-1,0,0
2,3,10,14,0,0,-1,0,0
2,3,10,15,0,0,-1,0,0
2,3,10,16,0,0,-1,0,0
2,3,10,17,0,0,-1,0,0
2,3,10,26,0,0,-1,0,0
2,3,10,27,0,0,-1,0,0
2,3,10,30,0,0,-1,0,0
2,3,10,31,0,0,-1,0,0
19,1,11,0,1,0,0
2,3,11,3,0,0,-1,0,0
2,3,11,4,0,0,-1,0,0
2,3,11,5,0,0,-1,0,0
2,3,11,7,0,0,-1,0,0
2,3,11,8,0,0,-1,0,0
2,3,11,9,0,0,-1,0,0
2,3,11,10,0,0,-1,0,0
2,3,11,11,0,0,-1,0,0
2,3,11,12,0,0,-1,0,0
2,3,11,16,0,0,-1,0,0
2,3,11,17,0,0,-1,0,0
2,3,11,18,0,0,-1,0,0
2,3,11,19,0,0,-1,0,0
2,3,11,20,0,0,-1,0,0
2,3,11,21,0,0,-1,0,0
2,3,11,22,0,0,-1,0,0
2,3,11,23,0,0,-1,0,0
2,3,11,24,0,0,-1,0,0
2,3,11,30,0,0,-1,0,0
2,3,11,31,0,0,-1,0,0
19,1,12,0,1,0,0
2,3,12,0,0,0,-1,0,0
2,3,12,2,0,0,-1,0,0
2,3,12,5,0,0,-1,0,0
2,3,12,6,0,0,-1,0,0
2,3,12,9,0,0,-1,0,0
2,3,12,10,0,0,-1,0,0
2,3,12,11,0,0,-1,0,0
2,3,12,12,0,0,-1,0,0
2,3,12,13,0,0,-1,0,0
2,3,12,23,0,0,-1,0,0
2,3,12,24,0,0,-1,0,0
2,3,12,25,0,0,-1,0,0
2,3,12,26,0,0,-1,0,0
2,3,12,27,0,0,-1,0,0
2,3,12,30,0,0,-1,0,0
2,3,12,31,0,0,-1,0,0
2,3,12,40,0,0,-1,0,0
2,3,12,41,0,0,-1,0,0
2,3,12,42,0,0,-1,0,0
2,3,12,80,0,0,-1,0,0
19,1,13,0,1,0,0
2,3,13,0,0,0,-1,0,0
2,3,13,2,0,0,-1,0,0
2,3,13,6,0,0,-1,0,0
2,3,13,10,0,0,-1,0,0
2,3,13,12,0,0,-1,0,0
2,3,13,13,0,0,-1,0,0
2,3,13,14,0,0,-1,0,0
2,3,13,27,0,0,-1,0,0
2,3,13,28,0,0,-1,0,0
2,3,13,30,0,0,-1,0,0
2,3,13,40,0,0,-1,0,0
2,3,13,41,0,0,-1,0,0
2,3,13,42,0,0,-1,0,0
2,3,13,80,0,0,-1,0,0
19,1,14,0,1,0,0
2,3,14,0,0,0,-1,0,0
2,3,14,2,0,0,-1,0,0
2,3,14,3,0,0,-1,0,0
2,3,14,6,0,0,-1,0,0
2,3,14,7,0,0,-1,0,0
2,3,14,10,0,0,-1,0,0
2,3,14,13,0,0,-1,0,0
2,3,14,14,0,0,-1,0,0
2,3,14,15,0,0,-1,0,0
2,3,14,27,0,0,-1,0,0
2,3,14,28,0,0,-1,0,0
2,3,14,30,0,0,-1,0,0
2,3,14,41,0,0,-1,0,0
2,3,14,42,0,0,-1,0,0
2,3,14,43,0,0,-1,0,0
2,3,14,80,0,0,-1,0,0
19,1,15,0,1,0,0
2,3,15,0,0,0,-1,0,0
2,3,15,2,0,0,-1,0,0
2,3,15,3,0,0,-1,0,0
2,3,15,6,0,0,-1,0,0
2,3,15,7,0,0,-1,0,0
2,3,15,10,0,0,-1,0,0
2,3,15,14,0,0,-1,0,0
2,3,15,15,0,0,-1,0,0
2,3,15,16,0,0,-1,0,0
2,3,15,27,0,0,-1,0,0
2,3,15,28,0,0,-1,0,0
2,3,15,30,0,0,-1,0,0
2,3,15,42,0,0,-1,0,0
2,3,15,43,0,0,-1,0,0
2,3,15,44,0,0,-1,0,0
2,3,15,80,0,0,-1,0,0
2,3,15,82,0,0,-1,0,0
19,1,16,0,1,0,0
2,3,16,0,0,0,-1,0,0
2,3,16,3,0,0,-1,0,0
2,3,16,6,0,0,-1,0,0
2,3,16,7,0,0,-1,0,0
2,3,16,10,0,0,-1,0,0
2,3,16,11,0,0,-1,0,0
2,3,16,15,0,0,-1,0,0
2,3,16,16,0,0,-1,0,0
2,3,16,17,0,0,-1,0,0
2,3,16,28,0,0,-1,0,0
2,3,16,30,0,0,-1,0,0
2,3,16,42,0,0,-1,0,0
2,3,16,43,0,0,-1,0,0
2,3,16,44,0,0,-1,0,0
2,3,16,80,0,0,-1,0,0
2,3,16,82,0,0,-1,0,0
2,3,16,83,0,0,-1,0,0
19,1,17,0,1,0,0
2,3,17,0,0,0,-1,0,0
2,3,17,3,0,0,-1,0,0
2,3,17,7,0,0,-1,0,0
2,3,17,10,0,0,-1,0,0
2,3,17,11,0,0,-1,0,0
2,3,17,16,0,0,-1,0,0
2,3,17,17,0,0,-1,0,0
2,3,17,18,0,0,-1,0,0
2,3,17,28,0,0,-1,0,0
2,3,17,30,0,0,-1,0,0
2,3,17,43,0,0,-1,0,0
2,3,17,44,0,0,-1,0,0
2,3,17,45,0,0,-1,0,0
2,3,17,82,0,0,-1,0,0
2,3,17,83,0,0,-1,0,0
19,1,18,0,1,0,0
2,3,18,0,0,0,-1,0,0
2,3,18,1,0,0,-1,0,0
2,3,18,3,0,0,-1,0,0
2,3,18,4,0,0,-1,0,0
2,3,18,7,0,0,-1,0,0
2,3,18,11,0,0,-1,0,0
2,3,18,17,0,0,-1,0,0
2,3,18,18,0,0,-1,0,0
2,3,18,19,0,0,-1,0,0
2,3,18,28,0,0,-1,0,0
2,3,18,30,0,0,-1,0,0
2,3,18,44,0,0,-1,0,0
2,3,18,45,0,0,-1,0,0
2,3,18,46,0,0,-1,0,0
2,3,18,82,0,0,-1,0,0
2,3,18,83,0,0,-1,0,0
19,1,19,0,1,0,0
2,3,19,0,0,0,-1,0,0
2,3,19,1,0,0,-1,0,0
2,3,19,3,0,0,-1,0,0
2,3,19,4,0,0,-1,0,0
2,3,19,7,0,0,-1,0,0
2,3,19,8,0,0,-1,0,0
2,3,19,11,0,0,-1,0,0
2,3,19,18,0,0,-1,0,0
2,3,19,19,0,0,-1,0,0
2,3,19,20,0,0,-1,0,0
2,3,19,28,0,0,-1,0,0
2,3,19,29,0,0,-1,0,0
2,3,19,30,0,0,-1,0,0
2,3,19,31,0,0,-1,0,0
2,3,19,44,0,0,-1,0,0
2,3,19,45,0,0,-1,0,0
2,3,19,46,0,0,-1,0,0
2,3,19,47,0,0,-1,0,0
2,3,19,83,0,0,-1,0,0
2,3,19,84,0,0,-1,0,0
19,1,20,0,1,0,0
2,3,20,1,0,0,-1,0,0
2,3,20,4,0,0,-1,0,0
2,3,20,7,0,0,-1,0,0
2,3,20,8,0,0,-1,0,0
2,3,20,11,0,0,-1,0,0
2,3,20,19,0,0,-1,0,0
2,3,20,20,0,0,-1,0,0
2,3,20,21,0,0,-1,0,0
2,3,20,28,0,0,-1,0,0
2,3,20,29,0,0,-1,0,0
2,3,20,30,0,0,-1,0,0
2,3,20,31,0,0,-1,0,0
2,3,20,45,0,0,-1,0,0
2,3,20,46,0,0,-1,0,0
2,3,20,47,0,0,-1,0,0
2,3,20,83,0,0,-1,0,0
2,3,20,84,0,0,-1,0,0
19,1,21,0,1,0,0
2,3,21,1,0,0,-1,0,0
2,3,21,4,0,0,-1,0,0
2,3,21,5,0,0,-1,0,0
2,3,21,8,0,0,-1,0,0
2,3,21,11,0,0,-1,0,0
2,3,21,20,0,0,-1,0,0
2,3,21,21,0,0,-1,0,0
2,3,21,22,0,0,-1,0,0
2,3,21,28,0,0,-1,0,0
2,3,21,29,0,0,-1,0,0
2,3,21,30,0,0,-1,0,0
2,3,21,31,0,0,-1,0,0
2,3,21,46,0,0,-1,0,0
2,3,21,47,0,0,-1,0,0
2,3,21,48,0,0,-1,0,0
2,3,21,83,0,0,-1,0,0
2,3,21,84,0,0,-1,0,0
19,1,22,0,1,0,0
2,3,22,1,0,0,-1,0,0
2,3,22,4,0,0,-1,0,0
2,3,22,5,0,0,-1,0,0
2,3,22,8,0,0,-1,0,0
2,3,22,9,0,0,-1,0,0
2,3,22,11,0,0,-1,0,0
2,3,22,21,0,0,-1,0,0
2,3,22,22,0,0,-1,0,0
2,3,22,23,0,0,-1,0,0
2,3,22,29,0,0,-1,0,0
2,3,22,31,0,0,-1,0,0
2,3,22,47,0,0,-1,0,0
2,3,22,48,0,0,-1,0,0
2,3,22,49,0,0,-1,0,0
2,3,22,84,0,0,-1,0,0
2,3,22,85,0,0,-1,0,0
19,1,23,0,1,0,0
2,3,23,1,0,0,-1,0,0
2,3,23,4,0,0,-1,0,0
2,3,23,5,0,0,-1,0,0
2,3,23,8,0,0,-1,0,0
2,3,23,9,0,0,-1,0,0
2,3,23,11,0,0,-1,0,0
2,3,23,12,0,0,-1,0,0
2,3,23,22,0,0,-1,0,0
2,3,23,23,0,0,-1,0,0
2,3,23,24,0,0,-1,0,0
2,3,23,29,0,0,-1,0,0
2,3,23,31,0,0,-1,0,0
2,3,23,32,0,0,-1,0,0
2,3,23,47,0,0,-1,0,0
2,3,23,48,0,0,-1,0,0
2,3,23,49,0,0,-1,0,0
2,3,23,84,0,0,-1,0,0
2,3,23,85,0,0,-1,0,0
19,1,24,0,1,0,0
2,3,24,1,0,0,-1,0,0
2,3,24,5,0,0,-1,0,0
2,3,24,9,0,0,-1,0,0
2,3,24,11,0,0,-1,0,0
2,3,24,12,0,0,-1,0,0
2,3,24,23,0,0,-1,0,0
2,3,24,24,0,0,-1,0,0
2,3,24,25,0,0,-1,0,0
2,3,24,29,0,0,-1,0,0
2,3,24,31,0,0,-1,0,0
2,3,24,32,0,0,-1,0,0
2,3,24,48,0,0,-1,0,0
2,3,24,49,0,0,-1,0,0
2,3,24,50,0,0,-1,0,0
2,3,24,85,0,0,-1,0,0
19,1,25,0,1,0,0
2,3,25,1,0,0,-1,0,0
2,3,25,2,0,0,-1,0,0
2,3,25,5,0,0,-1,0,0
2,3,25,6,0,0,-1,0,0
2,3,25,9,0,0,-1,0,0
2,3,25,12,0,0,-1,0,0
2,3,25,24,0,0,-1,0,0
2,3,25,25,0,0,-1,0,0
2,3,25,26,0,0,-1,0,0
2,3,25,29,0,0,-1,0,0
2,3,25,31,0,0,-1,0,0
2,3,25,32,0,0,-1,0,0
2,3,25,49,0,0,-1,0,0
2,3,25,50,0,0,-1,0,0
2,3,25,51,0,0,-1,0,0
19,1,26,0,1,0,0
2,3,26,1,0,0,-1,0,0
2,3,26,2,0,0,-1,0,0
2,3,26,5,0,0,-1,0,0
2,3,26,6,0,0,-1,0,0
2,3,26,9,0,0,-1,0,0
2,3,26,10,0,0,-1,0,0
2,3,26,12,0,0,-1,0,0
2,3,26,25,0,0,-1,0,0
2,3,26,26,0,0,-1,0,0
2,3,26,27,0,0,-1,0,0
2,3,26,29,0,0,-1,0,0
2,3,26,30,0,0,-1,0,0
2,3,26,31,0,0,-1,0,0
2,3,26,32,0,0,-1,0,0
2,3,26,49,0,0,-1,0,0
2,3,26,50,0,0,-1,0,0
2,3,26,51,0,0,-1,0,0
2,3,26,52,0,0,-1,0,0
19,1,27,0,1,0,0
2,3,27,0,0,0,-1,0,0
2,3,27,2,0,0,-1,0,0
2,3,27,3,0,0,-1,0,0
2,3,27,6,0,0,-1,0,0
2,3,27,9,0,0,-1,0,0
2,3,27,10,0,0,-1,0,0
2,3,27,12,0,0,-1,0,0
2,3,27,13,0,0,-1,0,0
2,3,27,14,0,0,-1,0,0
2,3,27,15,0,0,-1,0,0
2,3,27,26,0,0,-1,0,0
2,3,27,27,0,0,-1,0,0
2,3,27,28,0,0,-1,0,0
2,3,27,29,0,0,-1,0,0
2,3,27,30,0,0,-1,0,0
2,3,27,31,0,0,-1,0,0
2,3,27,32,0,0,-1,0,0
2,3,27,50,0,0,-1,0,0
2,3,27,51,0,0,-1,0,0
2,3,27,52,0,0,-1,0,0
2,3,27,80,0,0,-1,0,0
19,1,28,0,1,0,0
2,3,28,0,0,0,-1,0,0
2,3,28,1,0,0,-1,0,0
2,3,28,2,0,0,-1,0,0
2,3,28,3,0,0,-1,0,0
2,3,28,4,0,0,-1,0,0
2,3,28,13,0,0,-1,0,0
2,3,28,14,0,0,-1,0,0
2,3,28,15,0,0,-1,0,0
2,3,28,16,0,0,-1,0,0
2,3,28,17,0,0,-1,0,0
2,3,28,18,0,0,-1,0,0
2,3,28,19,0,0,-1,0,0
2,3,28,20,0,0,-1,0,0
2,3,28,21,0,0,-1,0,0
2,3,28,27,0,0,-1,0,0
2,3,28,28,0,0,-1,0,0
2,3,28,29,0,0,-1,0,0
2,3,28,80,0,0,-1,0,0
2,3,28,82,0,0,-1,0,0
2,3,28,83,0,0,-1,0,0
2,3,28,84,0,0,-1,0,0
19,1,29,0,1,0,0
2,3,29,1,0,0,-1,0,0
2,3,29,2,0,0,-1,0,0
2,3,29,4,0,0,-1,0,0
2,3,29,5,0,0,-1,0,0
2,3,29,6,0,0,-1,0,0
2,3,29,19,0,0,-1,0,0
2,3,29,20,0,0,-1,0,0
2,3,29,21,0,0,-1,0,0
2,3,29,22,0,0,-1,0,0
2,3,29,23,0,0,-1,0,0
2,3,29,24,0,0,-1,0,0
2,3,29,25,0,0,-1,0,0
2,3,29,26,0,0,-1,0,0
2,3,29,27,0,0,-1,0,0
2,3,29,28,0,0,-1,0,0
2,3,29,29,0,0,-1,0,0
2,3,29,30,0,0,-1,0,0
2,3,29,31,0,0,-1,0,0
2,3,29,32,0,0,-1,0,0
2,3,29,83,0,0,-1,0,0
2,3,29,84,0,0,-1,0,0
2,3,29,85,0,0,-1,0,0
19,1,30,0,1,0,0
2,3,30,2,0,0,-1,0,0
2,3,30,5,0,0,-1,0,0
2,3,30,6,0,0,-1,0,0
2,3,30,7,0,0,-1,0,0
2,3,30,8,0,0,-1,0,0
2,3,30,10,0,0,-1,0,0
2,3,30,11,0,0,-1,0,0
2,3,30,12,0,0,-1,0,0
2,3,30,13,0,0,-1,0,0
2,3,30,14,0,0,-1,0,0
2,3,30,15,0,0,-1,0,0
2,3,30,16,0,0,-1,0,0
2,3,30,17,0,0,-1,0,0
2,3,30,18,0,0,-1,0,0
2,3,30,19,0,0,-1,0,0
2,3,30,20,0,0,-1,0,0
2,3,30,21,0,0,-1,0,0
2,3,30,26,0,0,-1,0,0
2,3,30,27,0,0,-1,0,0
2,3,30,29,0,0,-1,0,0
2,3,30,30,0,0,-1,0,0
2,3,30,31,0,0,-1,0,0
2,3,30,32,0,0,-1,0,0
2,3,30,40,0,0,-1,0,0
2,3,30,41,0,0,-1,0,0
2,3,30,42,0,0,-1,0,0
2,3,30,43,0,0,-1,0,0
2,3,30,44,0,0,-1,0,0
2,3,30,45,0,0,-1,0,0
2,3,30,46,0,0,-1,0,0
2,3,30,47,0,0,-1,0,0
19,1,31,0,1,0,0
2,3,31,7,0,0,-1,0,0
2,3,31,8,0,0,-1,0,0
2,3,31,9,0,0,-1,0,0
2,3,31,10,0,0,-1,0,0
2,3,31,11,0,0,-1,0,0
2,3,31,12,0,0,-1,0,0
2,3,31,19,0,0,-1,0,0
2,3,31,20,0,0,-1,0,0
2,3,31,21,0,0,-1,0,0
2,3,31,22,0,0,-1,0,0
2,3,31,23,0,0,-1,0,0
2,3,31,24,0,0,-1,0,0
2,3,31,25,0,0,-1,0,0
2,3,31,26,0,0,-1,0,0
2,3,31,27,0,0,-1,0,0
2,3,31,29,0,0,-1,0,0
2,3,31,30,0,0,-1,0,0
2,3,31,31,0,0,-1,0,0
2,3,31,32,0,0,-1,0,0
2,3,31,45,0,0,-1,0,0
2,3,31,46,0,0,-1,0,0
2,3,31,47,0,0,-1,0,0
2,3,31,48,0,0,-1,0,0
2,3,31,49,0,0,-1,0,0
2,3,31,50,0,0,-1,0,0
2,3,31,51,0,0,-1,0,0
2,3,31,52,0,0,-1,0,0
2,3,31,85,0,0,-1,0,0
19,1,32,0,1,0,0
2,3,32,23,0,0,-1,0,0
2,3,32,24,0,0,-1,0,0
2,3,32,25,0,0,-1,0,0
2,3,32,26,0,0,-1,0,0
2,3,32,27,0,0,-1,0,0
2,3,32,29,0,0,-1,0,0
2,3,32,30,0,0,-1,0,0
2,3,32,31,0,0,-1,0,0
2,3,32,32,0,0,-1,0,0
2,3,32,33,0,0,-1,0,0
2,3,32,85,0,0,-1,0,0
2,3,32,86,0,0,-1,0,0
19,1,33,0,1,0,0
2,3,33,32,0,0,-1,0,0
2,3,33,33,0,0,-1,0,0
2,3,33,34,0,0,-1,0,0
2,3,33,85,0,0,-1,0,0
2,3,33,86,0,0,-1,0,0
2,3,33,87,0,0,-1,0,0
19,1,34,0,1,0,0
2,3,34,33,0,0,-1,0,0
2,3,34,34,0,0,-1,0,0
2,3,34,35,0,0,-1,0,0
2,3,34,86,0,0,-1,0,0
2,3,34,87,0,0,-1,0,0
2,3,34,101,0,0,-1,0,0
2,3,34,102,0,0,-1,0,0
2,3,34,103,0,0,-1,0,0
2,3,34,104,0,0,-1,0,0
19,1,35,0,1,0,0
2,3,35,34,0,0,-1,0,0
2,3,35,35,0,0,-1,0,0
2,3,35,36,0,0,-1,0,0
2,3,35,87,0,0,-1,0,0
2,3,35,88,0,0,-1,0,0
2,3,35,101,0,0,-1,0,0
2,3,35,102,0,0,-1,0,0
2,3,35,103,0,0,-1,0,0
2,3,35,104,0,0,-1,0,0
2,3,35,105,0,0,-1,0,0
2,3,35,106,0,0,-1,0,0
2,3,35,107,0,0,-1,0,0
2,3,35,108,0,0,-1,0,0
2,3,35,109,0,0,-1,0,0
19,1,36,0,1,0,0
2,3,36,35,0,0,-1,0,0
2,3,36,36,0,0,-1,0,0
2,3,36,37,0,0,-1,0,0
2,3,36,57,0,0,-1,0,0
2,3,36,58,0,0,-1,0,0
2,3,36,88,0,0,-1,0,0
2,3,36,105,0,0,-1,0,0
2,3,36,106,0,0,-1,0,0
2,3,36,107,0,0,-1,0,0
2,3,36,108,0,0,-1,0,0
2,3,36,109,0,0,-1,0,0
2,3,36,110,0,0,-1,0,0
19,1,37,0,1,0,0
2,3,37,36,0,0,-1,0,0
2,3,37,37,0,0,-1,0,0
2,3,37,38,0,0,-1,0,0
2,3,37,57,0,0,-1,0,0
2,3,37,58,0,0,-1,0,0
2,3,37,59,0,0,-1,0,0
19,1,38,0,1,0,0
2,3,38,37,0,0,-1,0,0
2,3,38,38,0,0,-1,0,0
2,3,38,39,0,0,-1,0,0
2,3,38,58,0,0,-1,0,0
2,3,38,59,0,0,-1,0,0
2,3,38,60,0,0,-1,0,0
19,1,39,0,1,0,0
2,3,39,38,0,0,-1,0,0
2,3,39,39,0,0,-1,0,0
2,3,39,40,0,0,-1,0,0
2,3,39,59,0,0,-1,0,0
2,3,39,60,0,0,-1,0,0
2,3,39,61,0,0,-1,0,0
19,1,40,0,1,0,0
2,3,40,12,0,0,-1,0,0
2,3,40,30,0,0,-1,0,0
2,3,40,39,0,0,-1,0,0
2,3,40,40,0,0,-1,0,0
2,3,40,41,0,0,-1,0,0
2,3,40,60,0,0,-1,0,0
2,3,40,61,0,0,-1,0,0
2,3,40,62,0,0,-1,0,0
19,1,41,0,1,0,0
2,3,41,12,0,0,-1,0,0
2,3,41,13,0,0,-1,0,0
2,3,41,14,0,0,-1,0,0
2,3,41,30,0,0,-1,0,0
2,3,41,40,0,0,-1,0,0
2,3,41,41,0,0,-1,0,0
2,3,41,42,0,0,-1,0,0
2,3,41,61,0,0,-1,0,0
2,3,41,62,0,0,-1,0,0
2,3,41,63,0,0,-1,0,0
19,1,42,0,1,0,0
2,3,42,12,0,0,-1,0,0
2,3,42,13,0,0,-1,0,0
2,3,42,14,0,0,-1,0,0
2,3,42,15,0,0,-1,0,0
2,3,42,16,0,0,-1,0,0
2,3,42,30,0,0,-1,0,0
2,3,42,41,0,0,-1,0,0
2,3,42,42,0,0,-1,0,0
2,3,42,43,0,0,-1,0,0
2,3,42,62,0,0,-1,0,0
2,3,42,63,0,0,-1,0,0
2,3,42,64,0,0,-1,0,0
19,1,43,0,1,0,0
2,3,43,14,0,0,-1,0,0
2,3,43,15,0,0,-1,0,0
2,3,43,16,0,0,-1,0,0
2,3,43,17,0,0,-1,0,0
2,3,43,30,0,0,-1,0,0
2,3,43,42,0,0,-1,0,0
2,3,43,43,0,0,-1,0,0
2,3,43,44,0,0,-1,0,0
2,3,43,63,0,0,-1,0,0
2,3,43,64,0,0,-1,0,0
2,3,43,65,0,0,-1,0,0
19,1,44,0,1,0,0
2,3,44,15,0,0,-1,0,0
2,3,44,16,0,0,-1,0,0
2,3,44,17,0,0,-1,0,0
2,3,44,18,0,0,-1,0,0
2,3,44,19,0,0,-1,0,0
2,3,44,30,0,0,-1,0,0
2,3,44,43,0,0,-1,0,0
2,3,44,44,0,0,-1,0,0
2,3,44,45,0,0,-1,0,0
2,3,44,64,0,0,-1,0,0
2,3,44,65,0,0,-1,0,0
2,3,44,66,0,0,-1,0,0
19,1,45,0,1,0,0
2,3,45,17,0,0,-1,0,0
2,3,45,18,0,0,-1,0,0
2,3,45,19,0,0,-1,0,0
2,3,45,20,0,0,-1,0,0
2,3,45,30,0,0,-1,0,0
2,3,45,31,0,0,-1,0,0
2,3,45,44,0,0,-1,0,0
2,3,45,45,0,0,-1,0,0
2,3,45,46,0,0,-1,0,0
2,3,45,65,0,0,-1,0,0
2,3,45,66,0,0,-1,0,0
2,3,45,67,0,0,-1,0,0
19,1,46,0,1,0,0
2,3,46,18,0,0,-1,0,0
2,3,46,19,0,0,-1,0,0
2,3,46,20,0,0,-1,0,0
2,3,46,21,0,0,-1,0,0
2,3,46,30,0,0,-1,0,0
2,3,46,31,0,0,-1,0,0
2,3,46,45,0,0,-1,0,0
2,3,46,46,0,0,-1,0,0
2,3,46,47,0,0,-1,0,0
2,3,46,66,0,0,-1,0,0
2,3,46,67,0,0,-1,0,0
2,3,46,68,0,0,-1,0,0
19,1,47,0,1,0,0
2,3,47,19,0,0,-1,0,0
2,3,47,20,0,0,-1,0,0
2,3,47,21,0,0,-1,0,0
2,3,47,22,0,0,-1,0,0
2,3,47,23,0,0,-1,0,0
2,3,47,30,0,0,-1,0,0
2,3,47,31,0,0,-1,0,0
2,3,47,46,0,0,-1,0,0
2,3,47,47,0,0,-1,0,0
2,3,47,48,0,0,-1,0,0
2,3,47,67,0,0,-1,0,0
2,3,47,68,0,0,-1,0,0
2,3,47,69,0,0,-1,0,0
19,1,48,0,1,0,0
2,3,48,21,0,0,-1,0,0
2,3,48,22,0,0,-1,0,0
2,3,48,23,0,0,-1,0,0
2,3,48,24,0,0,-1,0,0
2,3,48,31,0,0,-1,0,0
2,3,48,47,0,0,-1,0,0
2,3,48,48,0,0,-1,0,0
2,3,48,49,0,0,-1,0,0
2,3,48,68,0,0,-1,0,0
2,3,48,69,0,0,-1,0,0
2,3,48,70,0,0,-1,0,0
19,1,49,0,1,0,0
2,3,49,22,0,0,-1,0,0
2,3,49,23,0,0,-1,0,0
2,3,49,24,0,0,-1,0,0
2,3,49,25,0,0,-1,0,0
2,3,49,26,0,0,-1,0,0
2,3,49,31,0,0,-1,0,0
2,3,49,48,0,0,-1,0,0
2,3,49,49,0,0,-1,0,0
2,3,49,50,0,0,-1,0,0
2,3,49,69,0,0,-1,0,0
2,3,49,70,0,0,-1,0,0
2,3,49,71,0,0,-1,0,0
19,1,50,0,1,0,0
2,3,50,24,0,0,-1,0,0
2,3,50,25,0,0,-1,0,0
2,3,50,26,0,0,-1,0,0
2,3,50,27,0,0,-1,0,0
2,3,50,31,0,0,-1,0,0
2,3,50,49,0,0,-1,0,0
2,3,50,50,0,0,-1,0,0
2,3,50,51,0,0,-1,0,0
2,3,50,70,0,0,-1,0,0
2,3,50,71,0,0,-1,0,0
2,3,50,72,0,0,-1,0,0
19,1,51,0,1,0,0
2,3,51,25,0,0,-1,0,0
2,3,51,26,0,0,-1,0,0
2,3,51,27,0,0,-1,0,0
2,3,51,31,0,0,-1,0,0
2,3,51,50,0,0,-1,0,0
2,3,51,51,0,0,-1,0,0
2,3,51,52,0,0,-1,0,0
2,3,51,71,0,0,-1,0,0
2,3,51,72,0,0,-1,0,0
2,3,51,73,0,0,-1,0,0
19,1,52,0,1,0,0
2,3,52,51,0,0,-1,0,0
2,3,52,52,0,0,-1,0,0
2,3,52,53,0,0,-1,0,0
2,3,52,72,0,0,-1,0,0
2,3,52,73,0,0,-1,0,0
2,3,52,74,0,0,-1,0,0
19,1,53,0,1,0,0
2,3,53,52,0,0,-1,0,0
2,3,53,53,0,0,-1,0,0
2,3,53,54,0,0,-1,0,0
2,3,53,73,0,0,-1,0,0
2,3,53,74,0,0,-1,0,0
2,3,53,75,0,0,-1,0,0
19,1,54,0,1,0,0
2,3,54,53,0,0,-1,0,0
2,3,54,54,0,0,-1,0,0
2,3,54,55,0,0,-1,0,0
2,3,54,74,0,0,-1,0,0
2,3,54,75,0,0,-1,0,0
2,3,54,76,0,0,-1,0,0
2,3,54,101,0,0,-1,0,0
2,3,54,102,0,0,-1,0,0
2,3,54,103,0,0,-1,0,0
2,3,54,104,0,0,-1,0,0
19,1,55,0,1,0,0
2,3,55,54,0,0,-1,0,0
2,3,55,55,0,0,-1,0,0
2,3,55,56,0,0,-1,0,0
2,3,55,75,0,0,-1,0,0
2,3,55,76,0,0,-1,0,0
2,3,55,77,0,0,-1,0,0
2,3,55,101,0,0,-1,0,0
2,3,55,102,0,0,-1,0,0
2,3,55,103,0,0,-1,0,0
2,3,55,104,0,0,-1,0,0
2,3,55,105,0,0,-1,0,0
2,3,55,106,0,0,-1,0,0
2,3,55,107,0,0,-1,0,0
2,3,55,108,0,0,-1,0,0
19,1,56,0,1,0,0
2,3,56,55,0,0,-1,0,0
2,3,56,56,0,0,-1,0,0
2,3,56,57,0,0,-1,0,0
2,3,56,76,0,0,-1,0,0
2,3,56,77,0,0,-1,0,0
2,3,56,78,0,0,-1,0,0
2,3,56,103,0,0,-1,0,0
2,3,56,104,0,0,-1,0,0
2,3,56,105,0,0,-1,0,0
2,3,56,106,0,0,-1,0,0
2,3,56,107,0,0,-1,0,0
2,3,56,108,0,0,-1,0,0
2,3,56,109,0,0,-1,0,0
2,3,56,110,0,0,-1,0,0
19,1,57,0,1,0,0
2,3,57,36,0,0,-1,0,0
2,3,57,37,0,0,-1,0,0
2,3,57,56,0,0,-1,0,0
2,3,57,57,0,0,-1,0,0
2,3,57,58,0,0,-1,0,0
2,3,57,77,0,0,-1,0,0
2,3,57,78,0,0,-1,0,0
2,3,57,106,0,0,-1,0,0
2,3,57,107,0,0,-1,0,0
2,3,57,108,0,0,-1,0,0
2,3,57,109,0,0,-1,0,0
2,3,57,110,0,0,-1,0,0
2,3,57,111,0,0,-1,0,0
19,1,58,0,1,0,0
2,3,58,36,0,0,-1,0,0
2,3,58,37,0,0,-1,0,0
2,3,58,38,0,0,-1,0,0
2,3,58,57,0,0,-1,0,0
2,3,58,58,0,0,-1,0,0
2,3,58,59,0,0,-1,0,0
2,3,58,110,0,0,-1,0,0
2,3,58,111,0,0,-1,0,0
19,1,59,0,1,0,0
2,3,59,37,0,0,-1,0,0
2,3,59,38,0,0,-1,0,0
2,3,59,39,0,0,-1,0,0
2,3,59,58,0,0,-1,0,0
2,3,59,59,0,0,-1,0,0
2,3,59,60,0,0,-1,0,0
2,3,59,110,0,0,-1,0,0
2,3,59,111,0,0,-1,0,0
2,3,59,112,0,0,-1,0,0
19,1,60,0,1,0,0
2,3,60,38,0,0,-1,0,0
2,3,60,39,0,0,-1,0,0
2,3,60,40,0,0,-1,0,0
2,3,60,59,0,0,-1,0,0
2,3,60,60,0,0,-1,0,0
2,3,60,61,0,0,-1,0,0
2,3,60,111,0,0,-1,0,0
2,3,60,112,0,0,-1,0,0
19,1,61,0,1,0,0
2,3,61,39,0,0,-1,0,0
2,3,61,40,0,0,-1,0,0
2,3,61,41,0,0,-1,0,0
2,3,61,60,0,0,-1,0,0
2,3,61,61,0,0,-1,0,0
2,3,61,62,0,0,-1,0,0
2,3,61,112,0,0,-1,0,0
2,3,61,113,0,0,-1,0,0
19,1,62,0,1,0,0
2,3,62,40,0,0,-1,0,0
2,3,62,41,0,0,-1,0,0
2,3,62,42,0,0,-1,0,0
2,3,62,61,0,0,-1,0,0
2,3,62,62,0,0,-1,0,0
2,3,62,63,0,0,-1,0,0
2,3,62,112,0,0,-1,0,0
2,3,62,113,0,0,-1,0,0
2,3,62,114,0,0,-1,0,0
19,1,63,0,1,0,0
2,3,63,41,0,0,-1,0,0
2,3,63,42,0,0,-1,0,0
2,3,63,43,0,0,-1,0,0
2,3,63,62,0,0,-1,0,0
2,3,63,63,0,0,-1,0,0
2,3,63,64,0,0,-1,0,0
2,3,63,113,0,0,-1,0,0
2,3,63,114,0,0,-1,0,0
19,1,64,0,1,0,0
2,3,64,42,0,0,-1,0,0
2,3,64,43,0,0,-1,0,0
2,3,64,44,0,0,-1,0,0
2,3,64,63,0,0,-1,0,0
2,3,64,64,0,0,-1,0,0
2,3,64,65,0,0,-1,0,0
2,3,64,113,0,0,-1,0,0
2,3,64,114,0,0,-1,0,0
2,3,64,115,0,0,-1,0,0
19,1,65,0,1,0,0
2,3,65,43,0,0,-1,0,0
2,3,65,44,0,0,-1,0,0
2,3,65,45,0,0,-1,0,0
2,3,65,64,0,0,-1,0,0
2,3,65,65,0,0,-1,0,0
2,3,65,66,0,0,-1,0,0
2,3,65,114,0,0,-1,0,0
2,3,65,115,0,0,-1,0,0
19,1,66,0,1,0,0
2,3,66,44,0,0,-1,0,0
2,3,66,45,0,0,-1,0,0
2,3,66,46,0,0,-1,0,0
2,3,66,65,0,0,-1,0,0
2,3,66,66,0,0,-1,0,0
2,3,66,67,0,0,-1,0,0
2,3,66,114,0,0,-1,0,0
2,3,66,115,0,0,-1,0,0
2,3,66,116,0,0,-1,0,0
19,1,67,0,1,0,0
2,3,67,45,0,0,-1,0,0
2,3,67,46,0,0,-1,0,0
2,3,67,47,0,0,-1,0,0
2,3,67,66,0,0,-1,0,0
2,3,67,67,0,0,-1,0,0
2,3,67,68,0,0,-1,0,0
2,3,67,115,0,0,-1,0,0
2,3,67,116,0,0,-1,0,0
2,3,67,117,0,0,-1,0,0
19,1,68,0,1,0,0
2,3,68,46,0,0,-1,0,0
2,3,68,47,0,0,-1,0,0
2,3,68,48,0,0,-1,0,0
2,3,68,67,0,0,-1,0,0
2,3,68,68,0,0,-1,0,0
2,3,68,69,0,0,-1,0,0
2,3,68,116,0,0,-1,0,0
2,3,68,117,0,0,-1,0,0
19,1,69,0,1,0,0
2,3,69,47,0,0,-1,0,0
2,3,69,48,0,0,-1,0,0
2,3,69,49,0,0,-1,0,0
2,3,69,68,0,0,-1,0,0
2,3,69,69,0,0,-1,0,0
2,3,69,70,0,0,-1,0,0
2,3,69,116,0,0,-1,0,0
2,3,69,117,0,0,-1,0,0
2,3,69,118,0,0,-1,0,0
19,1,70,0,1,0,0
2,3,70,48,0,0,-1,0,0
2,3,70,49,0,0,-1,0,0
2,3,70,50,0,0,-1,0,0
2,3,70,69,0,0,-1,0,0
2,3,70,70,0,0,-1,0,0
2,3,70,71,0,0,-1,0,0
2,3,70,117,0,0,-1,0,0
2,3,70,118,0,0,-1,0,0
19,1,71,0,1,0,0
2,3,71,49,0,0,-1,0,0
2,3,71,50,0,0,-1,0,0
2,3,71,51,0,0,-1,0,0
2,3,71,70,0,0,-1,0,0
2,3,71,71,0,0,-1,0,0
2,3,71,72,0,0,-1,0,0
2,3,71,118,0,0,-1,0,0
2,3,71,119,0,0,-1,0,0
19,1,72,0,1,0,0
2,3,72,50,0,0,-1,0,0
2,3,72,51,0,0,-1,0,0
2,3,72,52,0,0,-1,0,0
2,3,72,71,0,0,-1,0,0
2,3,72,72,0,0,-1,0,0
2,3,72,73,0,0,-1,0,0
2,3,72,118,0,0,-1,0,0
2,3,72,119,0,0,-1,0,0
2,3,72,120,0,0,-1,0,0
19,1,73,0,1,0,0
2,3,73,51,0,0,-1,0,0
2,3,73,52,0,0,-1,0,0
2,3,73,53,0,0,-1,0,0
2,3,73,72,0,0,-1,0,0
2,3,73,73,0,0,-1,0,0
2,3,73,74,0,0,-1,0,0
2,3,73,119,0,0,-1,0,0
2,3,73,120,0,0,-1,0,0
19,1,74,0,1,0,0
2,3,74,52,0,0,-1,0,0
2,3,74,53,0,0,-1,0,0
2,3,74,54,0,0,-1,0,0
2,3,74,73,0,0,-1,0,0
2,3,74,74,0,0,-1,0,0
2,3,74,75,0,0,-1,0,0
2,3,74,119,0,0,-1,0,0
2,3,74,120,0,0,-1,0,0
2,3,74,121,0,0,-1,0,0
19,1,75,0,1,0,0
2,3,75,53,0,0,-1,0,0
2,3,75,54,0,0,-1,0,0
2,3,75,55,0,0,-1,0,0
2,3,75,74,0,0,-1,0,0
2,3,75,75,0,0,-1,0,0
2,3,75,76,0,0,-1,0,0
2,3,75,120,0,0,-1,0,0
2,3,75,121,0,0,-1,0,0
19,1,76,0,1,0,0
2,3,76,54,0,0,-1,0,0
2,3,76,55,0,0,-1,0,0
2,3,76,56,0,0,-1,0,0
2,3,76,75,0,0,-1,0,0
2,3,76,76,0,0,-1,0,0
2,3,76,77,0,0,-1,0,0
2,3,76,121,0,0,-1,0,0
2,3,76,122,0,0,-1,0,0
19,1,77,0,1,0,0
2,3,77,55,0,0,-1,0,0
2,3,77,56,0,0,-1,0,0
2,3,77,57,0,0,-1,0,0
2,3,77,76,0,0,-1,0,0
2,3,77,77,0,0,-1,0,0
2,3,77,78,0,0,-1,0,0
2,3,77,121,0,0,-1,0,0
2,3,77,122,0,0,-1,0,0
2,3,77,123,0,0,-1,0,0
19,1,78,0,1,0,0
2,3,78,56,0,0,-1,0,0
2,3,78,57,0,0,-1,0,0
2,3,78,77,0,0,-1,0,0
2,3,78,78,0,0,-1,0,0
2,3,78,79,0,0,-1,0,0
2,3,78,80,0,0,-1,0,0
2,3,78,81,0,0,-1,0,0
2,3,78,122,0,0,-1,0,0
2,3,78,123,0,0,-1,0,0
19,1,79,0,1,0,0
2,3,79,78,0,0,-1,0,0
2,3,79,79,0,0,-1,0,0
2,3,79,80,0,0,-1,0,0
2,3,79,81,0,0,-1,0,0
2,3,79,82,0,0,-1,0,0
19,1,80,0,1,0,0
2,3,80,12,0,0,-1,0,0
2,3,80,13,0,0,-1,0,0
2,3,80,14,0,0,-1,0,0
2,3,80,15,0,0,-1,0,0
2,3,80,16,0,0,-1,0,0
2,3,80,17,0,0,-1,0,0
2,3,80,27,0,0,-1,0,0
2,3,80,28,0,0,-1,0,0
2,3,80,78,0,0,-1,0,0
2,3,80,79,0,0,-1,0,0
2,3,80,80,0,0,-1,0,0
2,3,80,81,0,0,-1,0,0
2,3,80,82,0,0,-1,0,0
2,3,80,88,0,0,-1,0,0
2,3,80,89,0,0,-1,0,0
19,1,81,0,1,0,0
2,3,81,78,0,0,-1,0,0
2,3,81,79,0,0,-1,0,0
2,3,81,80,0,0,-1,0,0
2,3,81,81,0,0,-1,0,0
2,3,81,82,0,0,-1,0,0
2,3,81,88,0,0,-1,0,0
2,3,81,89,0,0,-1,0,0
2,3,81,90,0,0,-1,0,0
2,3,81,91,0,0,-1,0,0
19,1,82,0,1,0,0
2,3,82,14,0,0,-1,0,0
2,3,82,15,0,0,-1,0,0
2,3,82,16,0,0,-1,0,0
2,3,82,17,0,0,-1,0,0
2,3,82,18,0,0,-1,0,0
2,3,82,28,0,0,-1,0,0
2,3,82,79,0,0,-1,0,0
2,3,82,80,0,0,-1,0,0
2,3,82,81,0,0,-1,0,0
2,3,82,82,0,0,-1,0,0
2,3,82,83,0,0,-1,0,0
2,3,82,89,0,0,-1,0,0
2,3,82,90,0,0,-1,0,0
2,3,82,91,0,0,-1,0,0
2,3,82,92,0,0,-1,0,0
19,1,83,0,1,0,0
2,3,83,16,0,0,-1,0,0
2,3,83,17,0,0,-1,0,0
2,3,83,18,0,0,-1,0,0
2,3,83,19,0,0,-1,0,0
2,3,83,20,0,0,-1,0,0
2,3,83,21,0,0,-1,0,0
2,3,83,28,0,0,-1,0,0
2,3,83,29,0,0,-1,0,0
2,3,83,82,0,0,-1,0,0
2,3,83,83,0,0,-1,0,0
2,3,83,84,0,0,-1,0,0
2,3,83,91,0,0,-1,0,0
2,3,83,92,0,0,-1,0,0
2,3,83,93,0,0,-1,0,0
2,3,83,94,0,0,-1,0,0
19,1,84,0,1,0,0
2,3,84,19,0,0,-1,0,0
2,3,84,20,0,0,-1,0,0
2,3,84,21,0,0,-1,0,0
2,3,84,22,0,0,-1,0,0
2,3,84,23,0,0,-1,0,0
2,3,84,28,0,0,-1,0,0
2,3,84,29,0,0,-1,0,0
2,3,84,83,0,0,-1,0,0
2,3,84,84,0,0,-1,0,0
2,3,84,85,0,0,-1,0,0
2,3,84,93,0,0,-1,0,0
2,3,84,94,0,0,-1,0,0
2,3,84,95,0,0,-1,0,0
19,1,85,0,1,0,0
2,3,85,22,0,0,-1,0,0
2,3,85,23,0,0,-1,0,0
2,3,85,24,0,0,-1,0,0
2,3,85,25,0,0,-1,0,0
2,3,85,29,0,0,-1,0,0
2,3,85,31,0,0,-1,0,0
2,3,85,32,0,0,-1,0,0
2,3,85,33,0,0,-1,0,0
2,3,85,84,0,0,-1,0,0
2,3,85,85,0,0,-1,0,0
2,3,85,86,0,0,-1,0,0
2,3,85,94,0,0,-1,0,0
2,3,85,95,0,0,-1,0,0
2,3,85,96,0,0,-1,0,0
2,3,85,97,0,0,-1,0,0
19,1,86,0,1,0,0
2,3,86,32,0,0,-1,0,0
2,3,86,33,0,0,-1,0,0
2,3,86,34,0,0,-1,0,0
2,3,86,85,0,0,-1,0,0
2,3,86,86,0,0,-1,0,0
2,3,86,87,0,0,-1,0,0
2,3,86,96,0,0,-1,0,0
2,3,86,97,0,0,-1,0,0
2,3,86,98,0,0,-1,0,0
19,1,87,0,1,0,0
2,3,87,33,0,0,-1,0,0
2,3,87,34,0,0,-1,0,0
2,3,87,35,0,0,-1,0,0
2,3,87,86,0,0,-1,0,0
2,3,87,87,0,0,-1,0,0
2,3,87,88,0,0,-1,0,0
2,3,87,97,0,0,-1,0,0
2,3,87,98,0,0,-1,0,0
2,3,87,99,0,0,-1,0,0
2,3,87,100,0,0,-1,0,0
19,1,88,0,1,0,0
2,3,88,35,0,0,-1,0,0
2,3,88,36,0,0,-1,0,0
2,3,88,80,0,0,-1,0,0
2,3,88,81,0,0,-1,0,0
2,3,88,87,0,0,-1,0,0
2,3,88,88,0,0,-1,0,0
2,3,88,89,0,0,-1,0,0
2,3,88,99,0,0,-1,0,0
2,3,88,100,0,0,-1,0,0
2,3,88,101,0,0,-1,0,0
19,1,89,0,1,0,0
2,3,89,80,0,0,-1,0,0
2,3,89,81,0,0,-1,0,0
2,3,89,82,0,0,-1,0,0
2,3,89,88,0,0,-1,0,0
2,3,89,89,0,0,-1,0,0
2,3,89,90,0,0,-1,0,0
19,1,90,0,1,0,0
2,3,90,81,0,0,-1,0,0
2,3,90,82,0,0,-1,0,0
2,3,90,89,0,0,-1,0,0
2,3,90,90,0,0,-1,0,0
2,3,90,91,0,0,-1,0,0
19,1,91,0,1,0,0
2,3,91,81,0,0,-1,0,0
2,3,91,82,0,0,-1,0,0
2,3,91,83,0,0,-1,0,0
2,3,91,90,0,0,-1,0,0
2,3,91,91,0,0,-1,0,0
2,3,91,92,0,0,-1,0,0
19,1,92,0,1,0,0
2,3,92,82,0,0,-1,0,0
2,3,92,83,0,0,-1,0,0
2,3,92,91,0,0,-1,0,0
2,3,92,92,0,0,-1,0,0
2,3,92,93,0,0,-1,0,0
19,1,93,0,1,0,0
2,3,93,83,0,0,-1,0,0
2,3,93,84,0,0,-1,0,0
2,3,93,92,0,0,-1,0,0
2,3,93,93,0,0,-1,0,0
2,3,93,94,0,0,-1,0,0
19,1,94,0,1,0,0
2,3,94,83,0,0,-1,0,0
2,3,94,84,0,0,-1,0,0
2,3,94,85,0,0,-1,0,0
2,3,94,93,0,0,-1,0,0
2,3,94,94,0,0,-1,0,0
2,3,94,95,0,0,-1,0,0
19,1,95,0,1,0,0
2,3,95,84,0,0,-1,0,0
2,3,95,85,0,0,-1,0,0
2,3,95,94,0,0,-1,0,0
2,3,95,95,0,0,-1,0,0
2,3,95,96,0,0,-1,0,0
19,1,96,0,1,0,0
2,3,96,85,0,0,-1,0,0
2,3,96,86,0,0,-1,0,0
2,3,96,95,0,0,-1,0,0
2,3,96,96,0,0,-1,0,0
2,3,96,97,0,0,-1,0,0
19,1,97,0,1,0,0
2,3,97,85,0,0,-1,0,0
2,3,97,86,0,0,-1,0,0
2,3,97,87,0,0,-1,0,0
2,3,97,96,0,0,-1,0,0
2,3,97,97,0,0,-1,0,0
2,3,97,98,0,0,-1,0,0
19,1,98,0,1,0,0
2,3,98,86,0,0,-1,0,0
2,3,98,87,0,0,-1,0,0
2,3,98,97,0,0,-1,0,0
2,3,98,98,0,0,-1,0,0
2,3,98,99,0,0,-1,0,0
19,1,99,0,1,0,0
2,3,99,87,0,0,-1,0,0
2,3,99,88,0,0,-1,0,0
2,3,99,98,0,0,-1,0,0
2,3,99,99,0,0,-1,0,0
2,3,99,100,0,0,-1,0,0
19,1,100,0,1,0,0
2,3,100,87,0,0,-1,0,0
2,3,100,88,0,0,-1,0,0
2,3,100,99,0,0,-1,0,0
2,3,100,100,0,0,-1,0,0
2,3,100,101,0,0,-1,0,0
19,1,101,0,1,0,0
2,3,101,34,0,0,-1,0,0
2,3,101,35,0,0,-1,0,0
2,3,101,53,0,0,-1,0,0
2,3,101,54,0,0,-1,0,0
2,3,101,55,0,0,-1,0,0
2,3,101,88,0,0,-1,0,0
2,3,101,100,0,0,-1,0,0
2,3,101,101,0,0,-1,0,0
2,3,101,102,0,0,-1,0,0
2,3,101,103,0,0,-1,0,0
19,1,102,0,1,0,0
2,3,102,34,0,0,-1,0,0
2,3,102,35,0,0,-1,0,0
2,3,102,53,0,0,-1,0,0
2,3,102,54,0,0,-1,0,0
2,3,102,55,0,0,-1,0,0
2,3,102,101,0,0,-1,0,0
2,3,102,102,0,0,-1,0,0
2,3,102,103,0,0,-1,0,0
2,3,102,104,0,0,-1,0,0
19,1,103,0,1,0,0
2,3,103,34,0,0,-1,0,0
2,3,103,35,0,0,-1,0,0
2,3,103,54,0,0,-1,0,0
2,3,103,55,0,0,-1,0,0
2,3,103,56,0,0,-1,0,0
2,3,103,101,0,0,-1,0,0
2,3,103,102,0,0,-1,0,0
2,3,103,103,0,0,-1,0,0
2,3,103,104,0,0,-1,0,0
2,3,103,105,0,0,-1,0,0
2,3,103,106,0,0,-1,0,0
19,1,104,0,1,0,0
2,3,104,34,0,0,-1,0,0
2,3,104,35,0,0,-1,0,0
2,3,104,54,0,0,-1,0,0
2,3,104,55,0,0,-1,0,0
2,3,104,56,0,0,-1,0,0
2,3,104,102,0,0,-1,0,0
2,3,104,103,0,0,-1,0,0
2,3,104,104,0,0,-1,0,0
2,3,104,105,0,0,-1,0,0
2,3,104,106,0,0,-1,0,0
2,3,104,107,0,0,-1,0,0
19,1,105,0,1,0,0
2,3,105,35,0,0,-1,0,0
2,3,105,36,0,0,-1,0,0
2,3,105,55,0,0,-1,0,0
2,3,105,56,0,0,-1,0,0
2,3,105,103,0,0,-1,0,0
2,3,105,104,0,0,-1,0,0
2,3,105,105,0,0,-1,0,0
2,3,105,106,0,0,-1,0,0
2,3,105,107,0,0,-1,0,0
2,3,105,108,0,0,-1,0,0
19,1,106,0,1,0,0
2,3,106,35,0,0,-1,0,0
2,3,106,36,0,0,-1,0,0
2,3,106,55,0,0,-1,0,0
2,3,106,56,0,0,-1,0,0
2,3,106,57,0,0,-1,0,0
2,3,106,103,0,0,-1,0,0
2,3,106,104,0,0,-1,0,0
2,3,106,105,0,0,-1,0,0
2,3,106,106,0,0,-1,0,0
2,3,106,107,0,0,-1,0,0
2,3,106,108,0,0,-1,0,0
19,1,107,0,1,0,0
2,3,107,35,0,0,-1,0,0
2,3,107,36,0,0,-1,0,0
2,3,107,55,0,0,-1,0,0
2,3,107,56,0,0,-1,0,0
2,3,107,57,0,0,-1,0,0
2,3,107,104,0,0,-1,0,0
2,3,107,105,0,0,-1,0,0
2,3,107,106,0,0,-1,0,0
2,3,107,107,0,0,-1,0,0
2,3,107,108,0,0,-1,0,0
2,3,107,109,0,0,-1,0,0
19,1,108,0,1,0,0
2,3,108,35,0,0,-1,0,0
2,3,108,36,0,0,-1,0,0
2,3,108,55,0,0,-1,0,0
2,3,108,56,0,0,-1,0,0
2,3,108,57,0,0,-1,0,0
2,3,108,105,0,0,-1,0,0
2,3,108,106,0,0,-1,0,0
2,3,108,107,0,0,-1,0,0
2,3,108,108,0,0,-1,0,0
2,3,108,109,0,0,-1,0,0
2,3,108,110,0,0,-1,0,0
19,1,109,0,1,0,0
2,3,109,35,0,0,-1,0,0
2,3,109,36,0,0,-1,0,0
2,3,109,56,0,0,-1,0,0
2,3,109,57,0,0,-1,0,0
2,3,109,107,0,0,-1,0,0
2,3,109,108,0,0,-1,0,0
2,3,109,109,0,0,-1,0,0
2,3,109,110,0,0,-1,0,0
19,1,110,0,1,0,0
2,3,110,36,0,0,-1,0,0
2,3,110,56,0,0,-1,0,0
2,3,110,57,0,0,-1,0,0
2,3,110,58,0,0,-1,0,0
2,3,110,59,0,0,-1,0,0
2,3,110,108,0,0,-1,0,0
2,3,110,109,0,0,-1,0,0
2,3,110,110,0,0,-1,0,0
2,3,110,111,0,0,-1,0,0
19,1,111,0,1,0,0
2,3,111,57,0,0,-1,0,0
2,3,111,58,0,0,-1,0,0
2,3,111,59,0,0,-1,0,0
2,3,111,60,0,0,-1,0,0
2,3,111,110,0,0,-1,0,0
2,3,111,111,0,0,-1,0,0
2,3,111,112,0,0,-1,0,0
19,1,112,0,1,0,0
2,3,112,59,0,0,-1,0,0
2,3,112,60,0,0,-1,0,0
2,3,112,61,0,0,-1,0,0
2,3,112,62,0,0,-1,0,0
2,3,112,111,0,0,-1,0,0
2,3,112,112,0,0,-1,0,0
2,3,112,113,0,0,-1,0,0
19,1,113,0,1,0,0
2,3,113,61,0,0,-1,0,0
2,3,113,62,0,0,-1,0,0
2,3,113,63,0,0,-1,0,0
2,3,113,64,0,0,-1,0,0
2,3,113,112,0,0,-1,0,0
2,3,113,113,0,0,-1,0,0
2,3,113,114,0,0,-1,0,0
19,1,114,0,1,0,0
2,3,114,62,0,0,-1,0,0
2,3,114,63,0,0,-1,0,0
2,3,114,64,0,0,-1,0,0
2,3,114,65,0,0,-1,0,0
2,3,114,66,0,0,-1,0,0
2,3,114,113,0,0,-1,0,0
2,3,114,114,0,0,-1,0,0
2,3,114,115,0,0,-1,0,0
19,1,115,0,1,0,0
2,3,115,64,0,0,-1,0,0
2,3,115,65,0,0,-1,0,0
2,3,115,66,0,0,-1,0,0
2,3,115,67,0,0,-1,0,0
2,3,115,114,0,0,-1,0,0
2,3,115,115,0,0,-1,0,0
2,3,115,116,0,0,-1,0,0
19,1,116,0,1,0,0
2,3,116,66,0,0,-1,0,0
2,3,116,67,0,0,-1,0,0
2,3,116,68,0,0,-1,0,0
2,3,116,69,0,0,-1,0,0
2,3,116,115,0,0,-1,0,0
2,3,116,116,0,0,-1,0,0
2,3,116,117,0,0,-1,0,0
19,1,117,0,1,0,0
2,3,117,67,0,0,-1,0,0
2,3,117,68,0,0,-1,0,0
2,3,117,69,0,0,-1,0,0
2,3,117,70,0,0,-1,0,0
2,3,117,116,0,0,-1,0,0
2,3,117,117,0,0,-1,0,0
2,3,117,118,0,0,-1,0,0
19,1,118,0,1,0,0
2,3,118,69,0,0,-1,0,0
2,3,118,70,0,0,-1,0,0
2,3,118,71,0,0,-1,0,0
2,3,118,72,0,0,-1,0,0
2,3,118,117,0,0,-1,0,0
2,3,118,118,0,0,-1,0,0
2,3,118,119,0,0,-1,0,0
19,1,119,0,1,0,0
2,3,119,71,0,0,-1,0,0
2,3,119,72,0,0,-1,0,0
2,3,119,73,0,0,-1,0,0
2,3,119,74,0,0,-1,0,0
2,3,119,118,0,0,-1,0,0
2,3,119,119,0,0,-1,0,0
2,3,119,120,0,0,-1,0,0
19,1,120,0,1,0,0
2,3,120,72,0,0,-1,0,0
2,3,120,73,0,0,-1,0,0
2,3,120,74,0,0,-1,0,0
2,3,120,75,0,0,-1,0,0
2,3,120,119,0,0,-1,0,0
2,3,120,120,0,0,-1,0,0
2,3,120,121,0,0,-1,0,0
19,1,121,0,1,0,0
2,3,121,74,0,0,-1,0,0
2,3,121,75,0,0,-1,0,0
2,3,121,76,0,0,-1,0,0
2,3,121,77,0,0,-1,0,0
2,3,121,120,0,0,-1,0,0
2,3,121,121,0,0,-1,0,0
2,3,121,122,0,0,-1,0,0
19,1,122,0,1,0,0
2,3,122,76,0,0,-1,0,0
2,3,122,77,0,0,-1,0,0
2,3,122,78,0,0,-1,0,0
2,3,122,121,0,0,-1,0,0
2,3,122,122,0,0,-1,0,0
2,3,122,123,0,0,-1,0,0
19,1,123,0,1,0,0
2,3,123,77,0,0,-1,0,0
2,3,123,78,0,0,-1,0,0
2,3,123,122,0,0,-1,0,0
2,3,123,123,0,0,-1,0,0
8,1,0,0,1,0,0
8,1,1,0,1,0,0
8,1,2,0,1,0,0
8,1,3,0,1,0,0
8,1,4,0,1,0,0
8,1,5,0,1,0,0
8,1,6,0,1,0,0
8,1,7,0,1,0,0
8,1,8,0,1,0,0
8,1,9,0,1,0,0
8,1,10,0,1,0,0
8,1,11,0,1,0,0
8,1,12,0,1,0,0
8,1,13,0,1,0,0
8,1,14,0,1,0,0
8,1,15,0,1,0,0
8,1,16,0,1,0,0
8,1,17,0,1,0,0
8,1,18,0,1,0,0
8,1,19,0,1,0,0
8,1,20,0,1,0,0
8,1,21,0,1,0,0
8,1,22,0,1,0,0
8,1,23,0,1,0,0
8,1,24,0,1,0,0
8,1,25,0,1,0,0
8,1,26,0,1,0,0
8,1,27,0,1,0,0
8,1,28,0,1,0,0
8,1,29,0,1,0,0
8,1,30,0,1,0,0
8,1,31,0,1,0,0
8,1,32,0,1,0,0
8,1,33,0,1,0,0
8,1,34,0,1,0,0
8,1,35,0,1,0,0
8,1,36,0,1,0,0
8,1,37,0,1,0,0
8,1,38,0,1,0,0
8,1,39,0,1,0,0
8,1,40,0,1,0,0
8,1,41,0,1,0,0
8,1,42,0,1,0,0
8,1,43,0,1,0,0
8,1,44,0,1,0,0
8,1,45,0,1,0,0
8,1,46,0,1,0,0
8,1,47,0,1,0,0
8,1,48,0,1,0,0
8,1,49,0,1,0,0
8,1,50,0,1,0,0
8,1,51,0,1,0,0
8,1,52,0,1,0,0
8,1,53,0,1,0,0
8,1,54,0,1,0,0
8,1,55,0,1,0,0
8,1,56,0,1,0,0
8,1,57,0,1,0,0
8,1,58,0,1,0,0
8,1,59,0,1,0,0
8,1,60,0,1,0,0
8,1,61,0,1,0,0
8,1,62,0,1,0,0
8,1,63,0,1,0,0
8,1,64,0,1,0,0
8,1,65,0,1,0,0
8,1,66,0,1,0,0
8,1,67,0,1,0,0
8,1,68,0,1,0,0
8,1,69,0,1,0,0
8,1,70,0,1,0,0
8,1,71,0,1,0,0
8,1,72,0,1,0,0
8,1,73,0,1,0,0
8,1,74,0,1,0,0
8,1,75,0,1,0,0
8,1,76,0,1,0,0
8,1,77,0,1,0,0
8,1,78,0,1,0,0
8,1,79,0,1,0,0
8,1,80,0,1,0,0
8,1,81,0,1,0,0
8,1,82,0,1,0,0
8,1,83,0,1,0,0
8,1,84,0,1,0,0
8,1,85,0,1,0,0
8,1,86,0,1,0,0
8,1,87,0,1,0,0
8,1,88,0,1,0,0
8,1,89,0,1,0,0
8,1,90,0,1,0,0
8,1,91,0,1,0,0
8,1,92,0,1,0,0
8,1,93,0,1,0,0
8,1,94,0,1,0,0
8,1,95,0,1,0,0
8,1,96,0,1,0,0
8,1,97,0,1,0,0
8,1,98,0,1,0,0
8,1,99,0,1,0,0
8,1,100,0,1,0,0
8,1,101,0,1,0,0
8,1,102,0,1,0,0
8,1,103,0,1,0,0
8,1,104,0,1,0,0
8,1,105,0,1,0,0
8,1,106,0,1,0,0
8,1,107,0,1,0,0
8,1,108,0,1,0,0
8,1,109,0,1,0,0
8,1,110,0,1,0,0
8,1,111,0,1,0,0
8,1,112,0,1,0,0
8,1,113,0,1,0,0
8,1,114,0,1,0,0
8,1,115,0,1,0,0
8,1,116,0,1,0,0
8,1,117,0,1,0,0
8,1,118,0,1,0,0
8,1,119,0,1,0,0
8,1,120,0,1,0,0
8,1,121,0,1,0,0
8,1,122,0,1,0,0
8,1,123,0,1,0,0
3,2,0,0,0,4,0,0
3,2,1,1,0,4,0,0
3,2,2,2,0,4,0,0
3,2,3,3,0,4,0,0
3,2,4,4,0,4,0,0
3,2,5,5,0,4,0,0
3,2,6,6,0,4,0,0
3,2,7,7,0,4,0,0
3,2,8,8,0,4,0,0
3,2,9,9,0,4,0,0
3,2,10,10,0,4,0,0
3,2,11,11,0,4,0,0
3,2,12,12,0,4,0,0
3,2,13,13,0,4,0,0
3,2,14,14,0,4,0,0
3,2,15,15,0,4,0,0
3,2,16,0,0,4,0,0
3,2,17,1,0,4,0,0
3,2,18,2,0,4,0,0
3,2,19,3,0,4,0,0
3,2,20,4,0,4,0,0
3,2,21,5,0,4,0,0
3,2,22,6,0,4,0,0
3,2,23,7,0,4,0,0
3,2,24,8,0,4,0,0
3,2,25,9,0,4,0,0
3,2,26,10,0,4,0,0
3,2,27,11,0,4,0,0
3,2,28,12,0,4,0,0
3,2,29,13,0,4,0,0
3,2,30,14,0,4,0,0
3,2,31,15,0,4,0,0
3,2,32,0,0,4,0,0
3,2,33,1,0,4,0,0
3,2,34,2,0,4,0,0
3,2,35,3,0,4,0,0
3,2,36,4,0,4,0,0
3,2,37,5,0,4,0,0
3,2,38,6,0,4,0,0
3,2,39,7,0,4,0,0
3,2,40,8,0,4,0,0
3,2,41,9,0,4,0,0
3,2,42,10,0,4,0,0
3,2,43,11,0,4,0,0
3,2,44,12,0,4,0,0
3,2,45,13,0,4,0,0
3,2,46,14,0,4,0,0
3,2,47,15,0,4,0,0
3,2,48,0,0,4,0,0
3,2,49,1,0,4,0,0
3,2,50,2,0,4,0,0
3,2,51,3,0,4,0,0
3,2,52,4,0,4,0,0
3,2,53,5,0,4,0,0
3,2,54,6,0,4,0,0
3,2,55,7,0,4,0,0
3,2,56,8,0,4,0,0
3,2,57,9,0,4,0,0
3,2,58,10,0,4,0,0
3,2,59,11,0,4,0,0
3,2,60,12,0,4,0,0
3,2,61,13,0,4,0,0
3,2,62,14,0,4,0,0
3,2,63,15,0,4,0,0
3,2,64,0,0,4,0,0
3,2,65,1,0,4,0,0
3,2,66,2,0,4,0,0
3,2,67,3,0,4,0,0
3,2,68,4,0,4,0,0
3,2,69,5,0,4,0,0
3,2,70,6,0,4,0,0
3,2,71,7,0,4,0,0
3,2,72,8,0,4,0,0
3,2,73,9,0,4,0,0
3,2,74,10,0,4,0,0
3,2,75,11,0,4,0,0
3,2,76,12,0,4,0,0
3,2,77,13,0,4,0,0
3,2,78,14,0,4,0,0
3,2,79,15,0,4,0,0
3,2,80,0,0,4,0,0
3,2,81,1,0,4,0,0
3,2,82,2,0,4,0,0
3,2,83,3,0,4,0,0
3,2,84,4,0,4,0,0
3,2,85,5,0,4,0,0
3,2,86,6,0,4,0,0
3,2,87,7,0,4,0,0
3,2,88,8,0,4,0,0
3,2,89,9,0,4,0,0
3,2,90,10,0,4,0,0
3,2,91,11,0,4,0,0
3,2,92,12,0,4,0,0
3,2,93,13,0,4,0,0
3,2,94,14,0,4,0,0
3,2,95,15,0,4,0,0
3,2,96,0,0,4,0,0
3,2,97,1,0,4,0,0
3,2,98,2,0,4,0,0
3,2,99,3,0,4,0,0
3,2,100,4,0,4,0,0
3,2,101,5,0,4,0,0
3,2,102,6,0,4,0,0
3,2,103,7,0,4,0,0
3,2,104,8,0,4,0,0
3,2,105,9,0,4,0,0
3,2,106,10,0,4,0,0
3,2,107,11,0,4,0,0
3,2,108,12,0,4,0,0
3,2,109,13,0,4,0,0
3,2,110,14,0,4,0,0
3,2,111,15,0,4,0,0
3,2,112,0,0,4,0,0
3,2,113,1,0,4,0,0
3,2,114,2,0,4,0,0
3,2,115,3,0,4,0,0
3,2,116,4,0,4,0,0
3,2,117,5,0,4,0,0
3,2,118,6,0,4,0,0
3,2,119,7,0,4,0,0
3,2,120,8,0,4,0,0
3,2,121,9,0,4,0,0
3,2,122,10,0,4,0,0
3,2,123,11,0,4,0,0
4,1,0,1,XARBUF,-1,0,0
3,2,0,0,0,5,0,0
3,2,1,1,0,5,0,0
3,2,2,2,0,5,0,0
3,2,3,3,0,5,0,0
3,2,4,4,0,5,0,0
3,2,5,5,0,5,0,0
3,2,6,6,0,5,0,0
3,2,7,7,0,5,0,0
3,2,8,8,0,5,0,0
3,2,9,9,0,5,0,0
3,2,10,10,0,5,0,0
3,2,11,11,0,5,0,0
3,2,12,12,0,5,0,0
3,2,13,13,0,5,0,0
3,2,14,14,0,5,0,0
3,2,15,15,0,5,0,0
3,2,16,0,0,5,0,0
3,2,17,1,0,5,0,0
3,2,18,2,0,5,0,0
3,2,19,3,0,5,0,0
3,2,20,4,0,5,0,0
3,2,21,5,0,5,0,0
3,2,22,6,0,5,0,0
3,2,23,7,0,5,0,0
3,2,24,8,0,5,0,0
3,2,25,9,0,5,0,0
3,2,26,10,0,5,0,0
3,2,27,11,0,5,0,0
3,2,28,12,0,5,0,0
3,2,29,13,0,5,0,0
3,2,30,14,0,5,0,0
3,2,31,15,0,5,0,0
3,2,32,0,0,5,0,0
3,2,33,1,0,5,0,0
3,2,34,2,0,5,0,0
3,2,35,3,0,5,0,0
3,2,36,4,0,5,0,0
3,2,37,5,0,5,0,0
3,2,38,6,0,5,0,0
3,2,39,7,0,5,0,0
3,2,40,8,0,5,0,0
3,2,41,9,0,5,0,0
3,2,42,10,0,5,0,0
3,2,43,11,0,5,0,0
3,2,44,12,0,5,0,0
3,2,45,13,0,5,0,0
3,2,46,14,0,5,0,0
3,2,47,15,0,5,0,0
3,2,48,0,0,5,0,0
3,2,49,1,0,5,0,0
3,2,50,2,0,5,0,0
3,2,51,3,0,5,0,0
3,2,52,4,0,5,0,0
3,2,53,5,0,5,0,0
3,2,54,6,0,5,0,0
3,2,55,7,0,5,0,0
3,2,56,8,0,5,0,0
3,2,57,9,0,5,0,0
3,2,58,10,0,5,0,0
3,2,59,11,0,5,0,0
3,2,60,12,0,5,0,0
3,2,61,13,0,5,0,0
3,2,62,14,0,5,0,0
3,2,63,15,0,5,0,0
3,2,64,0,0,5,0,0
3,2,65,1,0,5,0,0
3,2,66,2,0,5,0,0
3,2,67,3,0,5,0,0
3,2,68,4,0,5,0,0
3,2,69,5,0,5,0,0
3,2,70,6,0,5,0,0
3,2,71,7,0,5,0,0
3,2,72,8,0,5,0,0
3,2,73,9,0,5,0,0
3,2,74,10,0,5,0,0
3,2,75,11,0,5,0,0
3,2,76,12,0,5,0,0
3,2,77,13,0,5,0,0
3,2,78,14,0,5,0,0
3,2,79,15,0,5,0,0
3,2,80,0,0,5,0,0
3,2,81,1,0,5,0,0
3,2,82,2,0,5,0,0
3,2,83,3,0,5,0,0
3,2,84,4,0,5,0,0
3,2,85,5,0,5,0,0
3,2,86,6,0,5,0,0
3,2,87,7,0,5,0,0
3,2,88,8,0,5,0,0
3,2,89,9,0,5,0,0
3,2,90,10,0,5,0,0
3,2,91,11,0,5,0,0
3,2,92,12,0,5,0,0
3,2,93,13,0,5,0,0
3,2,94,14,0,5,0,0
3,2,95,15,0,5,0,0
3,2,96,0,0,5,0,0
3,2,97,1,0,5,0,0
3,2,98,2,0,5,0,0
3,2,99,3,0,5,0,0
3,2,100,4,0,5,0,0
3,2,101,5,0,5,0,0
3,2,102,6,0,5,0,0
3,2,103,7,0,5,0,0
3,2,104,8,0,5,0,0
3,2,105,9,0,5,0,0
3,2,106,10,0,5,0,0
3,2,107,11,0,5,0,0
3,2,108,12,0,5,0,0
3,2,109,13,0,5,0,0
3,2,110,14,0,5,0,0
3,2,111,15,0,5,0,0
3,2,112,0,0,5,0,0
3,2,113,1,0,5,0,0
3,2,114,2,0,5,0,0
3,2,115,3,0,5,0,0
3,2,116,4,0,5,0,0
3,2,117,5,0,5,0,0
3,2,118,6,0,5,0,0
3,2,119,7,0,5,0,0
3,2,120,8,0,5,0,0
3,2,121,9,0,5,0,0
3,2,122,10,0,5,0,0
3,2,123,11,0,5,0,0
4,1,0,1,RARBUF,-1,0,0
15,0,1,RAR,-1,0,0
16,0,1,RAR,-1,0,0
21,0,1,CONSTRUCTGA,-1,0,0
21,0,1,CONSTRUCTGB,-1,0,0
21,0,1,EIGEN,-1,0,0
5,1,0,0,6,0,0
5,1,1,0,6,0,0
5,1,2,0,6,0,0
5,1,3,0,6,0,0
5,1,4,0,6,0,0
5,1,5,0,6,0,0
5,1,6,0,6,0,0
5,1,7,0,6,0,0
5,1,8,0,6,0,0
5,1,9,0,6,0,0
5,1,10,0,6,0,0
5,1,11,0,6,0,0
5,1,12,0,6,0,0
5,1,13,0,6,0,0
5,1,14,0,6,0,0
5,1,15,0,6,0,0
5,1,16,0,6,0,0
5,1,17,0,6,0,0
5,1,18,0,6,0,0
5,1,19,0,6,0,0
5,1,20,0,6,0,0
5,1,21,0,6,0,0
5,1,22,0,6,0,0
5,1,23,0,6,0,0
5,1,24,0,6,0,0
5,1,25,0,6,0,0
5,1,26,0,6,0,0
5,1,27,0,6,0,0
5,1,28,0,6,0,0
5,1,29,0,6,0,0
5,1,30,0,6,0,0
5,1,31,0,6,0,0
5,1,32,0,6,0,0
5,1,33,0,6,0,0
5,1,34,0,6,0,0
5,1,35,0,6,0,0
5,1,36,0,6,0,0
5,1,37,0,6,0,0
5,1,38,0,6,0,0
5,1,39,0,6,0,0
5,1,40,0,6,0,0
5,1,41,0,6,0,0
5,1,42,0,6,0,0
5,1,43,0,6,0,0
5,1,44,0,6,0,0
5,1,45,0,6,0,0
5,1,46,0,6,0,0
5,1,47,0,6,0,0
5,1,48,0,6,0,0
5,1,49,0,6,0,0
5,1,50,0,6,0,0
5,1,51,0,6,0,0
5,1,52,0,6,0,0
5,1,53,0,6,0,0
5,1,54,0,6,0,0
5,1,55,0,6,0,0
5,1,56,0,6,0,0
5,1,57,0,6,0,0
5,1,58,0,6,0,0
5,1,59,0,6,0,0
5,1,60,0,6,0,0
5,1,61,0,6,0,0
5,1,62,0,6,0,0
5,1,63,0,6,0,0
5,1,64,0,6,0,0
5,1,65,0,6,0,0
5,1,66,0,6,0,0
5,1,67,0,6,0,0
5,1,68,0,6,0,0
5,1,69,0,6,0,0
5,1,70,0,6,0,0
5,1,71,0,6,0,0
5,1,72,0,6,0,0
5,1,73,0,6,0,0
5,1,74,0,6,0,0
5,1,75,0,6,0,0
5,1,76,0,6,0,0
5,1,77,0,6,0,0
5,1,78,0,6,0,0
5,1,79,0,6,0,0
5,1,80,0,6,0,0
5,1,81,0,6,0,0
5,1,82,0,6,0,0
5,1,83,0,6,0,0
5,1,84,0,6,0,0
5,1,85,0,6,0,0
5,1,86,0,6,0,0
5,1,87,0,6,0,0
5,1,88,0,6,0,0
5,1,89,0,6,0,0
5,1,90,0,6,0,0
5,1,91,0,6,0,0
5,1,92,0,6,0,0
5,1,93,0,6,0,0
5,1,94,0,6,0,0
5,1,95,0,6,0,0
5,1,96,0,6,0,0
5,1,97,0,6,0,0
5,1,98,0,6,0,0
5,1,99,0,6,0,0
5,1,100,0,6,0,0
5,1,101,0,6,0,0
5,1,102,0,6,0,0
5,1,103,0,6,0,0
5,1,104,0,6,0,0
5,1,105,0,6,0,0
5,1,106,0,6,0,0
5,1,107,0,6,0,0
5,1,108,0,6,0,0
5,1,109,0,6,0,0
5,1,110,0,6,0,0
5,1,111,0,6,0,0
5,1,112,0,6,0,0
5,1,113,0,6,0,0
5,1,114,0,6,0,0
5,1,115,0,6,0,0
5,1,116,0,6,0,0
5,1,117,0,6,0,0
5,1,118,0,6,0,0
5,1,119,0,6,0,0
5,1,120,0,6,0,0
5,1,121,0,6,0,0
5,1,122,0,6,0,0
5,1,123,0,6,0,0
5,1,0,0,8,0,0
5,1,1,0,8,0,0
5,1,2,0,8,0,0
5,1,3,0,8,0,0
5,1,4,0,8,0,0
5,1,5,0,8,0,0
5,1,6,0,8,0,0
5,1,7,0,8,0,0
5,1,8,0,8,0,0
5,1,9,0,8,0,0
5,1,10,0,8,0,0
5,1,11,0,8,0,0
5,1,12,0,8,0,0
5,1,13,0,8,0,0
5,1,14,0,8,0,0
5,1,15,0,8,0,0
5,1,16,0,8,0,0
5,1,17,0,8,0,0
5,1,18,0,8,0,0
5,1,19,0,8,0,0
5,1,20,0,8,0,0
5,1,21,0,8,0,0
5,1,22,0,8,0,0
5,1,23,0,8,0,0
5,1,24,0,8,0,0
5,1,25,0,8,0,0
5,1,26,0,8,0,0
5,1,27,0,8,0,0
5,1,28,0,8,0,0
5,1,29,0,8,0,0
5,1,30,0,8,0,0
5,1,31,0,8,0,0
5,1,32,0,8,0,0
5,1,33,0,8,0,0
5,1,34,0,8,0,0
5,1,35,0,8,0,0
5,1,36,0,8,0,0
5,1,37,0,8,0,0
5,1,38,0,8,0,0
5,1,39,0,8,0,0
5,1,40,0,8,0,0
5,1,41,0,8,0,0
5,1,42,0,8,0,0
5,1,43,0,8,0,0
5,1,44,0,8,0,0
5,1,45,0,8,0,0
5,1,46,0,8,0,0
5,1,47,0,8,0,0
5,1,48,0,8,0,0
5,1,49,0,8,0,0
5,1,50,0,8,0,0
5,1,51,0,8,0,0
5,1,52,0,8,0,0
5,1,53,0,8,0,0
5,1,54,0,8,0,0
5,1,55,0,8,0,0
5,1,56,0,8,0,0
5,1,57,0,8,0,0
5,1,58,0,8,0,0
5,1,59,0,8,0,0
5,1,60,0,8,0,0
5,1,61,0,8,0,0
5,1,62,0,8,0,0
5,1,63,0,8,0,0
5,1,64,0,8,0,0
5,1,65,0,8,0,0
5,1,66,0,8,0,0
5,1,67,0,8,0,0
5,1,68,0,8,0,0
5,1,69,0,8,0,0
5,1,70,0,8,0,0
5,1,71,0,8,0,0
5,1,72,0,8,0,0
5,1,73,0,8,0,0
5,1,74,0,8,0,0
5,1,75,0,8,0,0
5,1,76,0,8,0,0
5,1,77,0,8,0,0
5,1,78,0,8,0,0
5,1,79,0,8,0,0
5,1,80,0,8,0,0
5,1,81,0,8,0,0
5,1,82,0,8,0,0
5,1,83,0,8,0,0
5,1,84,0,8,0,0
5,1,85,0,8,0,0
5,1,86,0,8,0,0
5,1,87,0,8,0,0
5,1,88,0,8,0,0
5,1,89,0,8,0,0
5,1,90,0,8,0,0
5,1,91,0,8,0,0
5,1,92,0,8,0,0
5,1,93,0,8,0,0
5,1,94,0,8,0,0
5,1,95,0,8,0,0
5,1,96,0,8,0,0
5,1,97,0,8,0,0
5,1,98,0,8,0,0
5,1,99,0,8,0,0
5,1,100,0,8,0,0
5,1,101,0,8,0,0
5,1,102,0,8,0,0
5,1,103,0,8,0,0
5,1,104,0,8,0,0
5,1,105,0,8,0,0
5,1,106,0,8,0,0
5,1,107,0,8,0,0
5,1,108,0,8,0,0
5,1,109,0,8,0,0
5,1,110,0,8,0,0
5,1,111,0,8,0,0
5,1,112,0,8,0,0
5,1,113,0,8,0,0
5,1,114,0,8,0,0
5,1,115,0,8,0,0
5,1,116,0,8,0,0
5,1,117,0,8,0,0
5,1,118,0,8,0,0
5,1,119,0,8,0,0
5,1,120,0,8,0,0
5,1,121,0,8,0,0
5,1,122,0,8,0,0
5,1,123,0,8,0,0
5,1,0,0,10,0,0
5,1,1,0,10,0,0
5,1,2,0,10,0,0
5,1,3,0,10,0,0
5,1,4,0,10,0,0
5,1,5,0,10,0,0
5,1,6,0,10,0,0
5,1,7,0,10,0,0
5,1,8,0,10,0,0
5,1,9,0,10,0,0
5,1,10,0,10,0,0
5,1,11,0,10,0,0
5,1,12,0,10,0,0
5,1,13,0,10,0,0
5,1,14,0,10,0,0
5,1,15,0,10,0,0
5,1,16,0,10,0,0
5,1,17,0,10,0,0
5,1,18,0,10,0,0
5,1,19,0,10,0,0
5,1,20,0,10,0,0
5,1,21,0,10,0,0
5,1,22,0,10,0,0
5,1,23,0,10,0,0
5,1,24,0,10,0,0
5,1,25,0,10,0,0
5,1,26,0,10,0,0
5,1,27,0,10,0,0
5,1,28,0,10,0,0
5,1,29,0,10,0,0
5,1,30,0,10,0,0
5,1,31,0,10,0,0
5,1,32,0,10,0,0
5,1,33,0,10,0,0
5,1,34,0,10,0,0
5,1,35,0,10,0,0
5,1,36,0,10,0,0
5,1,37,0,10,0,0
5,1,38,0,10,0,0
5,1,39,0,10,0,0
5,1,40,0,10,0,0
5,1,41,0,10,0,0
5,1,42,0,10,0,0
5,1,43,0,10,0,0
5,1,44,0,10,0,0
5,1,45,0,10,0,0
5,1,46,0,10,0,0
5,1,47,0,10,0,0
5,1,48,0,10,0,0
5,1,49,0,10,0,0
5,1,50,0,10,0,0
5,1,51,0,10,0,0
5,1,52,0,10,0,0
5,1,53,0,10,0,0
5,1,54,0,10,0,0
5,1,55,0,10,0,0
5,1,56,0,10,0,0
5,1,57,0,10,0,0
5,1,58,0,10,0,0
5,1,59,0,10,0,0
5,1,60,0,10,0,0
5,1,61,0,10,0,0
5,1,62,0,10,0,0
5,1,63,0,10,0,0
5,1,64,0,10,0,0
5,1,65,0,10,0,0
5,1,66,0,10,0,0
5,1,67,0,10,0,0
5,1,68,0,10,0,0
5,1,69,0,10,0,0
5,1,70,0,10,0,0
5,1,71,0,10,0,0
5,1,72,0,10,0,0
5,1,73,0,10,0,0
5,1,74,0,10,0,0
5,1,75,0,10,0,0
5,1,76,0,10,0,0
5,1,77,0,10,0,0
5,1,78,0,10,0,0
5,1,79,0,10,0,0
5,1,80,0,10,0,0
5,1,81,0,10,0,0
5,1,82,0,10,0,0
5,1,83,0,10,0,0
5,1,84,0,10,0,0
5,1,85,0,10,0,0
5,1,86,0,10,0,0
5,1,87,0,10,0,0
5,1,88,0,10,0,0
5,1,89,0,10,0,0
5,1,90,0,10,0,0
5,1,91,0,10,0,0
5,1,92,0,10,0,0
5,1,93,0,10,0,0
5,1,94,0,10,0,0
5,1,95,0,10,0,0
5,1,96,0,10,0,0
5,1,97,0,10,0,0
5,1,98,0,10,0,0
5,1,99,0,10,0,0
5,1,100,0,10,0,0
5,1,101,0,10,0,0
5,1,102,0,10,0,0
5,1,103,0,10,0,0
5,1,104,0,10,0,0
5,1,105,0,10,0,0
5,1,106,0,10,0,0
5,1,107,0,10,0,0
5,1,108,0,10,0,0
5,1,109,0,10,0,0
5,1,110,0,10,0,0
5,1,111,0,10,0,0
5,1,112,0,10,0,0
5,1,113,0,10,0,0
5,1,114,0,10,0,0
5,1,115,0,10,0,0
5,1,116,0,10,0,0
5,1,117,0,10,0,0
5,1,118,0,10,0,0
5,1,119,0,10,0,0
5,1,120,0,10,0,0
5,1,121,0,10,0,0
5,1,122,0,10,0,0
5,1,123,0,10,0,0
6,1,0,0,3,0,0
6,1,1,0,3,0,0
6,1,2,0,3,0,0
6,1,3,0,3,0,0
6,1,4,0,3,0,0
6,1,5,0,3,0,0
6,1,6,0,3,0,0
6,1,7,0,3,0,0
6,1,8,0,3,0,0
6,1,9,0,3,0,0
6,1,10,0,3,0,0
6,1,11,0,3,0,0
6,1,12,0,3,0,0
6,1,13,0,3,0,0
6,1,14,0,3,0,0
6,1,15,0,3,0,0
6,1,16,0,3,0,0
6,1,17,0,3,0,0
6,1,18,0,3,0,0
6,1,19,0,3,0,0
6,1,20,0,3,0,0
6,1,21,0,3,0,0
6,1,22,0,3,0,0
6,1,23,0,3,0,0
6,1,24,0,3,0,0
6,1,25,0,3,0,0
6,1,26,0,3,0,0
6,1,27,0,3,0,0
6,1,28,0,3,0,0
6,1,29,0,3,0,0
6,1,30,0,3,0,0
6,1,31,0,3,0,0
6,1,32,0,3,0,0
6,1,33,0,3,0,0
6,1,34,0,3,0,0
6,1,35,0,3,0,0
6,1,36,0,3,0,0
6,1,37,0,3,0,0
6,1,38,0,3,0,0
6,1,39,0,3,0,0
6,1,40,0,3,0,0
6,1,41,0,3,0,0
6,1,42,0,3,0,0
6,1,43,0,3,0,0
6,1,44,0,3,0,0
6,1,45,0,3,0,0
6,1,46,0,3,0,0
6,1,47,0,3,0,0
6,1,48,0,3,0,0
6,1,49,0,3,0,0
6,1,50,0,3,0,0
6,1,51,0,3,0,0
6,1,52,0,3,0,0
6,1,53,0,3,0,0
6,1,54,0,3,0,0
6,1,55,0,3,0,0
6,1,56,0,3,0,0
6,1,57,0,3,0,0
6,1,58,0,3,0,0
6,1,59,0,3,0,0
6,1,60,0,3,0,0
6,1,61,0,3,0,0
6,1,62,0,3,0,0
6,1,63,0,3,0,0
6,1,64,0,3,0,0
6,1,65,0,3,0,0
6,1,66,0,3,0,0
6,1,67,0,3,0,0
6,1,68,0,3,0,0
6,1,69,0,3,0,0
6,1,70,0,3,0,0
6,1,71,0,3,0,0
6,1,72,0,3,0,0
6,1,73,0,3,0,0
6,1,74,0,3,0,0
6,1,75,0,3,0,0
6,1,76,0,3,0,0
6,1,77,0,3,0,0
6,1,78,0,3,0,0
6,1,79,0,3,0,0
6,1,80,0,3,0,0
6,1,81,0,3,0,0
6,1,82,0,3,0,0
6,1,83,0,3,0,0
6,1,84,0,3,0,0
6,1,85,0,3,0,0
6,1,86,0,3,0,0
6,1,87,0,3,0,0
6,1,88,0,3,0,0
6,1,89,0,3,0,0
6,1,90,0,3,0,0
6,1,91,0,3,0,0
6,1,92,0,3,0,0
6,1,93,0,3,0,0
6,1,94,0,3,0,0
6,1,95,0,3,0,0
6,1,96,0,3,0,0
6,1,97,0,3,0,0
6,1,98,0,3,0,0
6,1,99,0,3,0,0
6,1,100,0,3,0,0
6,1,101,0,3,0,0
6,1,102,0,3,0,0
6,1,103,0,3,0,0
6,1,104,0,3,0,0
6,1,105,0,3,0,0
6,1,106,0,3,0,0
6,1,107,0,3,0,0
6,1,108,0,3,0,0
6,1,109,0,3,0,0
6,1,110,0,3,0,0
6,1,111,0,3,0,0
6,1,112,0,3,0,0
6,1,113,0,3,0,0
6,1,114,0,3,0,0
6,1,115,0,3,0,0
6,1,116,0,3,0,0
6,1,117,0,3,0,0
6,1,118,0,3,0,0
6,1,119,0,3,0,0
6,1,120,0,3,0,0
6,1,121,0,3,0,0
6,1,122,0,3,0,0
6,1,123,0,3,0,0
5,1,0,0,11,0,0
5,1,1,0,11,0,0
5,1,2,0,11,0,0
5,1,3,0,11,0,0
5,1,4,0,11,0,0
5,1,5,0,11,0,0
5,1,6,0,11,0,0
5,1,7,0,11,0,0
5,1,8,0,11,0,0
5,1,9,0,11,0,0
5,1,10,0,11,0,0
5,1,11,0,11,0,0
5,1,12,0,11,0,0
5,1,13,0,11,0,0
5,1,14,0,11,0,0
5,1,15,0,11,0,0
5,1,16,0,11,0,0
5,1,17,0,11,0,0
5,1,18,0,11,0,0
5,1,19,0,11,0,0
5,1,20,0,11,0,0
5,1,21,0,11,0,0
5,1,22,0,11,0,0
5,1,23,0,11,0,0
5,1,24,0,11,0,0
5,1,25,0,11,0,0
5,1,26,0,11,0,0
5,1,27,0,11,0,0
5,1,28,0,11,0,0
5,1,29,0,11,0,0
5,1,30,0,11,0,0
5,1,31,0,11,0,0
5,1,32,0,11,0,0
5,1,33,0,11,0,0
5,1,34,0,11,0,0
5,1,35,0,11,0,0
5,1,36,0,11,0,0
5,1,37,0,11,0,0
5,1,38,0,11,0,0
5,1,39,0,11,0,0
5,1,40,0,11,0,0
5,1,41,0,11,0,0
5,1,42,0,11,0,0
5,1,43,0,11,0,0
5,1,44,0,11,0,0
5,1,45,0,11,0,0
5,1,46,0,11,0,0
5,1,47,0,11,0,0
5,1,48,0,11,0,0
5,1,49,0,11,0,0
5,1,50,0,11,0,0
5,1,51,0,11,0,0
5,1,52,0,11,0,0
5,1,53,0,11,0,0
5,1,54,0,11,0,0
5,1,55,0,11,0,0
5,1,56,0,11,0,0
5,1,57,0,11,0,0
5,1,58,0,11,0,0
5,1,59,0,11,0,0
5,1,60,0,11,0,0
5,1,61,0,11,0,0
5,1,62,0,11,0,0
5,1,63,0,11,0,0
5,1,64,0,11,0,0
5,1,65,0,11,0,0
5,1,66,0,11,0,0
5,1,67,0,11,0,0
5,1,68,0,11,0,0
5,1,69,0,11,0,0
5,1,70,0,11,0,0
5,1,71,0,11,0,0
5,1,72,0,11,0,0
5,1,73,0,11,0,0
5,1,74,0,11,0,0
5,1,75,0,11,0,0
5,1,76,0,11,0,0
5,1,77,0,11,0,0
5,1,78,0,11,0,0
5,1,79,0,11,0,0
5,1,80,0,11,0,0
5,1,81,0,11,0,0
5,1,82,0,11,0,0
5,1,83,0,11,0,0
5,1,84,0,11,0,0
5,1,85,0,11,0,0
5,1,86,0,11,0,0
5,1,87,0,11,0,0
5,1,88,0,11,0,0
5,1,89,0,11,0,0
5,1,90,0,11,0,0
5,1,91,0,11,0,0
5,1,92,0,11,0,0
5,1,93,0,11,0,0
5,1,94,0,11,0,0
5,1,95,0,11,0,0
5,1,96,0,11,0,0
5,1,97,0,11,0,0
5,1,98,0,11,0,0
5,1,99,0,11,0,0
5,1,100,0,11,0,0
5,1,101,0,11,0,0
5,1,102,0,11,0,0
5,1,103,0,11,0,0
5,1,104,0,11,0,0
5,1,105,0,11,0,0
5,1,106,0,11,0,0
5,1,107,0,11,0,0
5,1,108,0,11,0,0
5,1,109,0,11,0,0
5,1,110,0,11,0,0
5,1,111,0,11,0,0
5,1,112,0,11,0,0
5,1,113,0,11,0,0
5,1,114,0,11,0,0
5,1,115,0,11,0,0
5,1,116,0,11,0,0
5,1,117,0,11,0,0
5,1,118,0,11,0,0
5,1,119,0,11,0,0
5,1,120,0,11,0,0
5,1,121,0,11,0,0
5,1,122,0,11,0,0
5,1,123,0,11,0,0
6,1,0,0,4,0,0
6,1,1,0,4,0,0
6,1,2,0,4,0,0
6,1,3,0,4,0,0
6,1,4,0,4,0,0
6,1,5,0,4,0,0
6,1,6,0,4,0,0
6,1,7,0,4,0,0
6,1,8,0,4,0,0
6,1,9,0,4,0,0
6,1,10,0,4,0,0
6,1,11,0,4,0,0
6,1,12,0,4,0,0
6,1,13,0,4,0,0
6,1,14,0,4,0,0
6,1,15,0,4,0,0
6,1,16,0,4,0,0
6,1,17,0,4,0,0
6,1,18,0,4,0,0
6,1,19,0,4,0,0
6,1,20,0,4,0,0
6,1,21,0,4,0,0
6,1,22,0,4,0,0
6,1,23,0,4,0,0
6,1,24,0,4,0,0
6,1,25,0,4,0,0
6,1,26,0,4,0,0
6,1,27,0,4,0,0
6,1,28,0,4,0,0
6,1,29,0,4,0,0
6,1,30,0,4,0,0
6,1,31,0,4,0,0
6,1,32,0,4,0,0
6,1,33,0,4,0,0
6,1,34,0,4,0,0
6,1,35,0,4,0,0
6,1,36,0,4,0,0
6,1,37,0,4,0,0
6,1,38,0,4,0,0
6,1,39,0,4,0,0
6,1,40,0,4,0,0
6,1,41,0,4,0,0
6,1,42,0,4,0,0
6,1,43,0,4,0,0
6,1,44,0,4,0,0
6,1,45,0,4,0,0
6,1,46,0,4,0,0
6,1,47,0,4,0,0
6,1,48,0,4,0,0
6,1,49,0,4,0,0
6,1,50,0,4,0,0
6,1,51,0,4,0,0
6,1,52,0,4,0,0
6,1,53,0,4,0,0
6,1,54,0,4,0,0
6,1,55,0,4,0,0
6,1,56,0,4,0,0
6,1,57,0,4,0,0
6,1,58,0,4,0,0
6,1,59,0,4,0,0
6,1,60,0,4,0,0
6,1,61,0,4,0,0
6,1,62,0,4,0,0
6,1,63,0,4,0,0
6,1,64,0,4,0,0
6,1,65,0,4,0,0
6,1,66,0,4,0,0
6,1,67,0,4,0,0
6,1,68,0,4,0,0
6,1,69,0,4,0,0
6,1,70,0,4,0,0
6,1,71,0,4,0,0
6,1,72,0,4,0,0
6,1,73,0,4,0,0
6,1,74,0,4,0,0
6,1,75,0,4,0,0
6,1,76,0,4,0,0
6,1,77,0,4,0,0
6,1,78,0,4,0,0
6,1,79,0,4,0,0
6,1,80,0,4,0,0
6,1,81,0,4,0,0
6,1,82,0,4,0,0
6,1,83,0,4,0,0
6,1,84,0,4,0,0
6,1,85,0,4,0,0
6,1,86,0,4,0,0
6,1,87,0,4,0,0
6,1,88,0,4,0,0
6,1,89,0,4,0,0
6,1,90,0,4,0,0
6,1,91,0,4,0,0
6,1,92,0,4,0,0
6,1,93,0,4,0,0
6,1,94,0,4,0,0
6,1,95,0,4,0,0
6,1,96,0,4,0,0
6,1,97,0,4,0,0
6,1,98,0,4,0,0
6,1,99,0,4,0,0
6,1,100,0,4,0,0
6,1,101,0,4,0,0
6,1,102,0,4,0,0
6,1,103,0,4,0,0
6,1,104,0,4,0,0
6,1,105,0,4,0,0
6,1,106,0,4,0,0
6,1,107,0,4,0,0
6,1,108,0,4,0,0
6,1,109,0,4,0,0
6,1,110,0,4,0,0
6,1,111,0,4,0,0
6,1,112,0,4,0,0
6,1,113,0,4,0,0
6,1,114,0,4,0,0
6,1,115,0,4,0,0
6,1,116,0,4,0,0
6,1,117,0,4,0,0
6,1,118,0,4,0,0
6,1,119,0,4,0,0
6,1,120,0,4,0,0
6,1,121,0,4,0,0
6,1,122,0,4,0,0
6,1,123,0,4,0,0
