SETZERO,87,1 21 2636
SETZERO,86,1 21 2635
SETZERO,85,1 21 2634
SETZERO,84,1 21 2633
SETZERO,79,1 21 2632
SETZERO,78,1 21 2631
SETZERO,77,1 21 2630
SETZERO,76,1 21 2629
_X,91 21 2628
XTY,91,11,20 21 2627
_X,90 21 2626
XTY,90,10,20 21 2625
_X,89 21 2624
XTY,89,9,20 21 2623
_X,88 21 2622
XTY,88,8,20 21 2621
SETZERO,103,1 20 2620
SETZERO,102,1 20 2619
SETZERO,101,1 20 2618
SETZERO,100,1 20 2617
SETZERO,95,1 20 2616
SETZERO,94,1 20 2615
SETZERO,93,1 20 2614
SETZERO,92,1 20 2613
_X,43 20 2612
XTY,43,3,20 20 2611
_X,42 20 2610
XTY,42,2,20 20 2609
_X,41 20 2608
XTY,41,1,20 20 2607
_X,40 20 2606
XTY,40,0,20 20 2605
_X,79 19 2604
XTY,79,19,20 19 2603
_X,78 19 2602
XTY,78,18,20 19 2601
_X,77 19 2600
XTY,77,17,20 19 2599
_X,76 19 2598
XTY,76,16,20 19 2597
_X,31 19 2596
XTY,31,11,20 19 2595
_X,30 19 2594
XTY,30,10,20 19 2593
_X,29 19 2592
XTY,29,9,20 19 2591
_X,28 19 2590
XTY,28,8,20 19 2589
_X,23 18 2588
XTY,23,3,20 18 2587
_X,22 18 2586
XTY,22,2,20 18 2585
_X,21 18 2584
XTY,21,1,20 18 2583
_X,20 18 2582
XTY,20,0,20 18 2581
SETZERO,123,1 17 2580
SETZERO,122,1 17 2579
SETZERO,121,1 17 2578
SETZERO,120,1 17 2577
SETZERO,99,1 17 2576
SETZERO,98,1 17 2575
SETZERO,97,1 17 2574
SETZERO,96,1 17 2573
SETZERO,91,1 17 2572
SETZERO,90,1 17 2571
SETZERO,89,1 17 2570
SETZERO,88,1 17 2569
SETZERO,67,1 17 2568
SETZERO,66,1 17 2567
SETZERO,65,1 17 2566
SETZERO,64,1 17 2565
_X,55 16 2564
XTY,55,15,20 16 2563
_X,54 16 2562
XTY,54,14,20 16 2561
_X,53 16 2560
XTY,53,13,20 16 2559
_X,52 16 2558
XTY,52,12,20 16 2557
_X,51 16 2556
XTY,51,11,20 16 2555
_X,50 16 2554
XTY,50,10,20 16 2553
_X,49 16 2552
XTY,49,9,20 16 2551
_X,48 16 2550
XTY,48,8,20 16 2549
SETZERO,39,1 14 2548
SETZERO,38,1 14 2547
SETZERO,37,1 14 2546
SETZERO,36,1 14 2545
SETZERO,35,1 14 2544
SETZERO,34,1 14 2543
SETZERO,33,1 14 2542
SETZERO,32,1 14 2541
_X,67 14 2540
XTY,67,7,20 14 2539
_X,66 14 2538
XTY,66,6,20 14 2537
_X,65 14 2536
XTY,65,5,20 14 2535
_X,64 14 2534
XTY,64,4,20 14 2533
_X,115 13 2532
_X,114 13 2531
_X,113 13 2530
_X,112 13 2529
_X,111 13 2528
XTY,111,11,20 13 2527
_X,110 13 2526
XTY,110,10,20 13 2525
_X,109 13 2524
XTY,109,9,20 13 2523
_X,108 13 2522
XTY,108,8,20 13 2521
_X,39 13 2520
XTY,39,19,20 13 2519
_X,38 13 2518
XTY,38,18,20 13 2517
_X,37 13 2516
XTY,37,17,20 13 2515
_X,36 13 2514
XTY,36,16,20 13 2513
XTY,112,12,20 15 2512
XTY,113,13,20 15 2511
XTY,114,14,20 15 2510
XTY,115,15,20 15 2509
SETZERO,51,1 15 2508
SETZERO,50,1 15 2507
SETZERO,49,1 15 2506
SETZERO,48,1 15 2505
_X,63 15 2504
XTY,63,3,20 15 2503
_X,62 15 2502
XTY,62,2,20 15 2501
_X,61 15 2500
XTY,61,1,20 15 2499
_X,60 15 2498
XTY,60,0,20 15 2497
SETZERO,119,1 12 2496
SETZERO,118,1 12 2495
SETZERO,117,1 12 2494
SETZERO,116,1 12 2493
SETZERO,63,1 12 2492
SETZERO,62,1 12 2491
SETZERO,61,1 12 2490
SETZERO,60,1 12 2489
_X,15 12 2488
XTY,15,15,20 12 2487
_X,14 12 2486
XTY,14,14,20 12 2485
_X,13 12 2484
XTY,13,13,20 12 2483
_X,12 12 2482
XTY,12,12,20 12 2481
_X,47 11 2480
XTY,47,7,20 11 2479
_X,46 11 2478
XTY,46,6,20 11 2477
_X,45 11 2476
XTY,45,5,20 11 2475
_X,44 11 2474
XTY,44,4,20 11 2473
_X,27 11 2472
XTY,27,7,20 11 2471
_X,26 11 2470
XTY,26,6,20 11 2469
_X,25 11 2468
XTY,25,5,20 11 2467
_X,24 11 2466
XTY,24,4,20 11 2465
SETZERO,47,1 10 2464
SETZERO,46,1 10 2463
SETZERO,45,1 10 2462
SETZERO,44,1 10 2461
_X,59 10 2460
XTY,59,19,20 10 2459
_X,58 10 2458
XTY,58,18,20 10 2457
_X,57 10 2456
XTY,57,17,20 10 2455
_X,56 10 2454
XTY,56,16,20 10 2453
_X,19 10 2452
XTY,19,19,20 10 2451
_X,18 10 2450
XTY,18,18,20 10 2449
_X,17 10 2448
XTY,17,17,20 10 2447
_X,16 10 2446
XTY,16,16,20 10 2445
SETZERO,83,1 9 2444
SETZERO,82,1 9 2443
SETZERO,81,1 9 2442
SETZERO,80,1 9 2441
_X,107 9 2440
XTY,107,7,20 9 2439
_X,106 9 2438
XTY,106,6,20 9 2437
_X,105 9 2436
XTY,105,5,20 9 2435
_X,104 9 2434
XTY,104,4,20 9 2433
_X,75 9 2432
XTY,75,15,20 9 2431
_X,74 9 2430
XTY,74,14,20 9 2429
_X,73 9 2428
XTY,73,13,20 9 2427
_X,72 9 2426
XTY,72,12,20 9 2425
_X,87 8 2424
XTY,87,7,20 8 2423
_X,86 8 2422
XTY,86,6,20 8 2421
_X,85 8 2420
XTY,85,5,20 8 2419
_X,84 8 2418
XTY,84,4,20 8 2417
_X,71 8 2416
XTY,71,11,20 8 2415
_X,70 8 2414
XTY,70,10,20 8 2413
_X,69 8 2412
XTY,69,9,20 8 2411
_X,68 8 2410
XTY,68,8,20 8 2409
_X,35 8 2408
XTY,35,15,20 8 2407
_X,34 8 2406
XTY,34,14,20 8 2405
_X,33 8 2404
XTY,33,13,20 8 2403
_X,32 8 2402
XTY,32,12,20 8 2401
_X,11 8 2400
XTY,11,11,20 8 2399
_X,10 8 2398
XTY,10,10,20 8 2397
_X,9 8 2396
XTY,9,9,20 8 2395
_X,8 8 2394
XTY,8,8,20 8 2393
SETZERO,115,1 7 2392
SETZERO,114,1 7 2391
SETZERO,113,1 7 2390
SETZERO,112,1 7 2389
SETZERO,71,1 7 2388
SETZERO,70,1 7 2387
SETZERO,69,1 7 2386
SETZERO,68,1 7 2385
_X,83 7 2384
XTY,83,3,20 7 2383
_X,82 7 2382
XTY,82,2,20 7 2381
_X,81 7 2380
XTY,81,1,20 7 2379
_X,80 7 2378
XTY,80,0,20 7 2377
SETZERO,107,1 6 2376
SETZERO,106,1 6 2375
SETZERO,105,1 6 2374
SETZERO,104,1 6 2373
SETZERO,55,1 6 2372
SETZERO,54,1 6 2371
SETZERO,53,1 6 2370
SETZERO,52,1 6 2369
SETZERO,19,1 5 2368
SETZERO,18,1 5 2367
SETZERO,17,1 5 2366
SETZERO,16,1 5 2365
SETZERO,15,1 5 2364
SETZERO,14,1 5 2363
SETZERO,13,1 5 2362
SETZERO,12,1 5 2361
_X,103 5 2360
XTY,103,3,20 5 2359
_X,102 5 2358
XTY,102,2,20 5 2357
_X,101 5 2356
XTY,101,1,20 5 2355
_X,100 5 2354
XTY,100,0,20 5 2353
SETZERO,59,1 4 2352
SETZERO,58,1 4 2351
SETZERO,57,1 4 2350
SETZERO,56,1 4 2349
SETZERO,11,1 4 2348
SETZERO,10,1 4 2347
SETZERO,9,1 4 2346
SETZERO,8,1 4 2345
_X,7 4 2344
XTY,7,7,20 4 2343
_X,6 4 2342
XTY,6,6,20 4 2341
_X,5 4 2340
XTY,5,5,20 4 2339
_X,4 4 2338
XTY,4,4,20 4 2337
SETZERO,31,1 3 2336
SETZERO,30,1 3 2335
SETZERO,29,1 3 2334
SETZERO,28,1 3 2333
SETZERO,23,1 3 2332
SETZERO,22,1 3 2331
SETZERO,21,1 3 2330
SETZERO,20,1 3 2329
SETZERO,3,1 3 2328
SETZERO,2,1 3 2327
SETZERO,1,1 3 2326
SETZERO,0,1 3 2325
_X,95 3 2324
XTY,95,15,20 3 2323
_X,94 3 2322
XTY,94,14,20 3 2321
_X,93 3 2320
XTY,93,13,20 3 2319
_X,92 3 2318
XTY,92,12,20 3 2317
_X,119 2 2316
XTY,119,19,20 2 2315
_X,118 2 2314
XTY,118,18,20 2 2313
_X,117 2 2312
XTY,117,17,20 2 2311
_X,116 2 2310
XTY,116,16,20 2 2309
_X,99 2 2308
XTY,99,19,20 2 2307
_X,98 2 2306
XTY,98,18,20 2 2305
_X,97 2 2304
XTY,97,17,20 2 2303
_X,96 2 2302
XTY,96,16,20 2 2301
_X,123 1 2300
XTY,123,3,20 1 2299
_X,122 1 2298
XTY,122,2,20 1 2297
_X,121 1 2296
XTY,121,1,20 1 2295
_X,120 1 2294
XTY,120,0,20 1 2293
_X,3 22 2292
XTY,3,3,20 22 2291
_X,2 22 2290
XTY,2,2,20 22 2289
_X,1 22 2288
XTY,1,1,20 22 2287
_X,0 22 2286
XTY,0,0,20 22 2285
RED,XBXBUF,0 22 2284
CHOL,XBX 22 2283
DLACPY,0,20 23 2282
INV,XBX 23 2281
XY,0,20 23 2280
XY,1,20 23 2279
XY,2,20 23 2278
XY,3,20 23 2277
DLACPY,3,21 214 2276
DLACPY,2,21 214 2275
DLACPY,1,21 214 2274
DLACPY,0,21 214 2273
SPMM,20,1,0 243 2272
SPMM,21,1,0 243 2271
SPMM,22,1,0 243 2270
SPMM,23,1,0 243 2269
SPMM,0,0,0 218 2268
SPMM,1,0,0 218 2267
SPMM,2,0,0 218 2266
SPMM,3,0,0 218 2265
SPMM,0,1,0 218 2264
SPMM,1,1,0 218 2263
SPMM,2,1,0 218 2262
SPMM,3,1,0 218 2261
SPMM,0,2,0 218 2260
SPMM,1,2,0 218 2259
SPMM,2,2,0 218 2258
SPMM,3,2,0 218 2257
SPMM,0,3,0 218 2256
SPMM,1,3,0 218 2255
SPMM,2,3,0 218 2254
SPMM,3,3,0 218 2253
SPMM,8,0,0 225 2252
SPMM,8,1,0 225 2251
SPMM,9,1,0 225 2250
SPMM,10,1,0 225 2249
SPMM,9,2,0 225 2248
SPMM,10,2,0 225 2247
SPMM,10,3,0 225 2246
SPMM,11,3,0 225 2245
SPMM,12,0,0 221 2244
SPMM,13,0,0 221 2243
SPMM,14,0,0 221 2242
SPMM,15,0,0 221 2241
SPMM,12,2,0 221 2240
SPMM,13,2,0 221 2239
SPMM,14,2,0 221 2238
SPMM,15,2,0 221 2237
SPMM,14,3,0 221 2236
SPMM,15,3,0 221 2235
SPMM,16,0,0 238 2234
SPMM,17,0,0 238 2233
SPMM,18,0,0 238 2232
SPMM,19,0,0 238 2231
SPMM,18,1,0 238 2230
SPMM,19,1,0 238 2229
SPMM,16,3,0 238 2228
SPMM,17,3,0 238 2227
SPMM,18,3,0 238 2226
SPMM,19,3,0 238 2225
SPMM,28,0,0 223 2224
SPMM,28,1,0 223 2223
SPMM,29,1,0 223 2222
SPMM,28,2,0 223 2221
SPMM,29,2,0 223 2220
SPMM,30,2,0 223 2219
SPMM,28,3,0 223 2218
XY,4,20 29 2217
XY,5,20 29 2216
XY,6,20 29 2215
XY,7,20 29 2214
XY,12,20 29 2213
XY,13,20 29 2212
XY,14,20 29 2211
XY,15,20 29 2210
DLACPY,15,21 286 2209
SPMM,14,15,0 286 2208
SPMM,15,15,0 286 2207
DLACPY,14,21 286 2206
SPMM,13,14,0 286 2205
SPMM,14,14,0 286 2204
SPMM,15,14,0 286 2203
DLACPY,13,21 286 2202
SPMM,12,13,0 286 2201
SPMM,13,13,0 286 2200
SPMM,14,13,0 286 2199
DLACPY,12,21 286 2198
SPMM,12,12,0 286 2197
SPMM,13,12,0 286 2196
SPMM,16,15,0 287 2195
SPMM,44,15,0 341 2194
SPMM,0,12,0 323 2193
SPMM,2,12,0 323 2192
SPMM,0,13,0 323 2191
SPMM,2,13,0 323 2190
SPMM,0,14,0 323 2189
SPMM,2,14,0 323 2188
SPMM,3,14,0 323 2187
SPMM,0,15,0 323 2186
SPMM,2,15,0 323 2185
SPMM,3,15,0 323 2184
SPMM,9,12,0 325 2183
SPMM,10,12,0 325 2182
SPMM,11,12,0 325 2181
SPMM,10,13,0 325 2180
SPMM,10,14,0 325 2179
SPMM,10,15,0 325 2178
SPMM,23,12,0 335 2177
SPMM,30,12,0 290 2176
SPMM,31,12,0 290 2175
SPMM,28,13,0 290 2174
SPMM,30,13,0 290 2173
SPMM,28,14,0 290 2172
SPMM,30,14,0 290 2171
SPMM,28,15,0 290 2170
SPMM,30,15,0 290 2169
SPMM,80,12,0 288 2168
SPMM,80,13,0 288 2167
SPMM,80,14,0 288 2166
SPMM,82,14,0 288 2165
SPMM,80,15,0 288 2164
SPMM,82,15,0 288 2163
XY,28,20 26 2162
XY,29,20 26 2161
XY,30,20 26 2160
XY,31,20 26 2159
SETZERO,111,1 26 2158
SETZERO,110,1 26 2157
SETZERO,109,1 26 2156
SETZERO,108,1 26 2155
DLACPY,31,21 313 2154
SPMM,20,31,0 313 2153
SPMM,21,31,0 313 2152
SPMM,22,31,0 313 2151
SPMM,23,31,0 313 2150
DLACPY,30,21 313 2149
SPMM,2,30,0 313 2148
SPMM,20,30,0 313 2147
SPMM,21,30,0 313 2146
DLACPY,29,21 313 2145
SPMM,1,29,0 313 2144
SPMM,2,29,0 313 2143
SPMM,20,29,0 313 2142
SPMM,21,29,0 313 2141
SPMM,22,29,0 313 2140
SPMM,23,29,0 313 2139
DLACPY,28,21 313 2138
SPMM,0,28,0 313 2137
SPMM,1,28,0 313 2136
SPMM,2,28,0 313 2135
SPMM,3,28,0 313 2134
SPMM,20,28,0 313 2133
SPMM,21,28,0 313 2132
SPMM,48,31,0 317 2131
SPMM,49,31,0 317 2130
SPMM,50,31,0 317 2129
SPMM,51,31,0 317 2128
SPMM,44,30,0 315 2127
SPMM,45,30,0 315 2126
SPMM,46,30,0 315 2125
SPMM,47,30,0 315 2124
SPMM,45,31,0 315 2123
SPMM,46,31,0 315 2122
SPMM,47,31,0 315 2121
SPMM,32,29,0 319 2120
SPMM,32,30,0 319 2119
SPMM,32,31,0 319 2118
SPMM,13,28,0 329 2117
SPMM,14,28,0 329 2116
SPMM,15,28,0 329 2115
SPMM,12,30,0 329 2114
SPMM,13,30,0 329 2113
SPMM,14,30,0 329 2112
SPMM,15,30,0 329 2111
SPMM,12,31,0 329 2110
SPMM,16,28,0 354 2109
SPMM,17,28,0 354 2108
SPMM,18,28,0 354 2107
SPMM,19,28,0 354 2106
SPMM,19,29,0 354 2105
SPMM,16,30,0 354 2104
SPMM,17,30,0 354 2103
SPMM,18,30,0 354 2102
SPMM,19,30,0 354 2101
SPMM,19,31,0 354 2100
SPMM,80,28,0 316 2099
SPMM,82,28,0 316 2098
SPMM,83,28,0 316 2097
SPMM,83,29,0 316 2096
SPMM,84,28,0 320 2095
SPMM,84,29,0 320 2094
SPMM,85,29,0 320 2093
SPMM,85,31,0 320 2092
XY,36,20 62 2091
XY,37,20 62 2090
XY,38,20 62 2089
XY,39,20 62 2088
DLACPY,39,21 69 2087
DLACPY,38,21 69 2086
DLACPY,37,21 69 2085
DLACPY,36,21 69 2084
SPMM,60,38,0 126 2083
SPMM,60,39,0 126 2082
SPMM,61,39,0 126 2081
SPMM,35,36,0 230 2080
SPMM,36,36,0 73 2079
SPMM,37,36,0 73 2078
SPMM,36,37,0 73 2077
SPMM,37,37,0 73 2076
SPMM,38,37,0 73 2075
SPMM,37,38,0 73 2074
SPMM,38,38,0 73 2073
SPMM,39,38,0 73 2072
SPMM,38,39,0 73 2071
SPMM,39,39,0 73 2070
SPMM,57,36,0 237 2069
SPMM,58,36,0 237 2068
SPMM,57,37,0 237 2067
SPMM,58,37,0 237 2066
SPMM,59,37,0 237 2065
SPMM,58,38,0 237 2064
SPMM,59,38,0 237 2063
SPMM,59,39,0 237 2062
SPMM,88,36,0 96 2061
SPMM,105,36,0 118 2060
SPMM,106,36,0 118 2059
SPMM,107,36,0 118 2058
SPMM,108,36,0 125 2057
SPMM,109,36,0 125 2056
SPMM,110,36,0 125 2055
XY,20,20 28 2054
XY,21,20 28 2053
XY,22,20 28 2052
XY,23,20 28 2051
XY,40,20 28 2050
XY,41,20 28 2049
XY,42,20 28 2048
XY,43,20 28 2047
DLACPY,23,21 251 2046
SPMM,22,23,0 251 2045
SPMM,23,23,0 251 2044
DLACPY,22,21 251 2043
SPMM,21,22,0 251 2042
SPMM,22,22,0 251 2041
SPMM,23,22,0 251 2040
DLACPY,21,21 251 2039
SPMM,20,21,0 251 2038
SPMM,21,21,0 251 2037
SPMM,22,21,0 251 2036
DLACPY,20,21 251 2035
SPMM,19,20,0 251 2034
SPMM,20,20,0 251 2033
SPMM,21,20,0 251 2032
SPMM,12,23,0 350 2031
SPMM,32,23,0 348 2030
SPMM,48,21,0 324 2029
SPMM,48,22,0 324 2028
SPMM,49,22,0 324 2027
SPMM,48,23,0 324 2026
SPMM,49,23,0 324 2025
SPMM,1,20,0 321 2024
SPMM,1,21,0 321 2023
SPMM,1,22,0 321 2022
SPMM,1,23,0 321 2021
SPMM,8,20,0 254 2020
SPMM,11,20,0 254 2019
SPMM,8,21,0 254 2018
SPMM,11,21,0 254 2017
SPMM,8,22,0 254 2016
SPMM,9,22,0 254 2015
SPMM,11,22,0 254 2014
SPMM,8,23,0 254 2013
SPMM,9,23,0 254 2012
SPMM,11,23,0 254 2011
SPMM,28,20,0 252 2010
SPMM,29,20,0 252 2009
SPMM,30,20,0 252 2008
SPMM,31,20,0 252 2007
SPMM,28,21,0 252 2006
SPMM,29,21,0 252 2005
SPMM,30,21,0 252 2004
SPMM,31,21,0 252 2003
SPMM,29,22,0 252 2002
SPMM,31,22,0 252 2001
SPMM,29,23,0 252 2000
SPMM,31,23,0 252 1999
SPMM,45,20,0 256 1998
SPMM,46,20,0 256 1997
SPMM,47,20,0 256 1996
SPMM,46,21,0 256 1995
SPMM,47,21,0 256 1994
SPMM,47,22,0 256 1993
SPMM,47,23,0 256 1992
SPMM,83,20,0 334 1991
SPMM,83,21,0 334 1990
SPMM,84,20,0 253 1989
SPMM,84,21,0 253 1988
SPMM,84,22,0 253 1987
SPMM,85,22,0 253 1986
SPMM,84,23,0 253 1985
SPMM,85,23,0 253 1984
XY,56,20 30 1983
XY,57,20 30 1982
XY,58,20 30 1981
XY,59,20 30 1980
DLACPY,59,21 303 1979
DLACPY,58,21 303 1978
DLACPY,57,21 303 1977
DLACPY,56,21 303 1976
SPMM,36,57,0 343 1975
SPMM,37,57,0 343 1974
SPMM,36,58,0 343 1973
SPMM,37,58,0 343 1972
SPMM,38,58,0 343 1971
SPMM,37,59,0 343 1970
SPMM,38,59,0 343 1969
SPMM,39,59,0 343 1968
SPMM,56,56,0 307 1967
SPMM,57,56,0 307 1966
SPMM,56,57,0 307 1965
SPMM,57,57,0 307 1964
SPMM,58,57,0 307 1963
SPMM,57,58,0 307 1962
SPMM,58,58,0 307 1961
SPMM,59,58,0 307 1960
SPMM,58,59,0 307 1959
SPMM,59,59,0 307 1958
SPMM,76,56,0 309 1957
SPMM,77,56,0 309 1956
SPMM,78,56,0 309 1955
SPMM,77,57,0 309 1954
SPMM,78,57,0 309 1953
SPMM,103,56,0 336 1952
SPMM,104,56,0 308 1951
SPMM,105,56,0 308 1950
SPMM,106,56,0 308 1949
SPMM,107,56,0 308 1948
SPMM,106,57,0 308 1947
SPMM,107,57,0 308 1946
XY,8,20 33 1945
XY,9,20 33 1944
XY,10,20 33 1943
XY,11,20 33 1942
XY,60,20 33 1941
XY,61,20 33 1940
XY,62,20 33 1939
XY,63,20 33 1938
DLACPY,63,21 74 1937
DLACPY,62,21 74 1936
DLACPY,61,21 74 1935
DLACPY,60,21 74 1934
SPMM,64,63,0 94 1933
SPMM,38,60,0 91 1932
SPMM,39,60,0 91 1931
SPMM,39,61,0 91 1930
SPMM,59,60,0 123 1929
SPMM,60,60,0 78 1928
SPMM,61,60,0 78 1927
SPMM,60,61,0 78 1926
SPMM,61,61,0 78 1925
SPMM,62,61,0 78 1924
SPMM,61,62,0 78 1923
SPMM,62,62,0 78 1922
SPMM,63,62,0 78 1921
SPMM,62,63,0 78 1920
SPMM,63,63,0 78 1919
SPMM,111,60,0 127 1918
SPMM,112,60,0 175 1917
SPMM,112,61,0 175 1916
SPMM,113,61,0 175 1915
SPMM,112,62,0 175 1914
SPMM,113,62,0 175 1913
SPMM,114,62,0 175 1912
SPMM,113,63,0 175 1911
SPMM,114,63,0 175 1910
DLACPY,11,21 67 1909
SPMM,8,11,0 67 1908
SPMM,9,11,0 67 1907
SPMM,10,11,0 67 1906
SPMM,11,11,0 67 1905
DLACPY,10,21 67 1904
SPMM,9,10,0 67 1903
SPMM,10,10,0 67 1902
SPMM,11,10,0 67 1901
DLACPY,9,21 67 1900
SPMM,8,9,0 67 1899
SPMM,9,9,0 67 1898
SPMM,10,9,0 67 1897
SPMM,11,9,0 67 1896
DLACPY,8,21 67 1895
SPMM,8,8,0 67 1894
SPMM,9,8,0 67 1893
SPMM,11,8,0 67 1892
SPMM,12,9,0 95 1891
SPMM,12,10,0 95 1890
SPMM,13,10,0 95 1889
SPMM,14,10,0 95 1888
SPMM,15,10,0 95 1887
SPMM,12,11,0 95 1886
SPMM,0,8,0 68 1885
SPMM,1,8,0 68 1884
SPMM,1,9,0 68 1883
SPMM,2,9,0 68 1882
SPMM,1,10,0 68 1881
SPMM,2,10,0 68 1880
SPMM,3,10,0 68 1879
SPMM,3,11,0 68 1878
SPMM,19,8,0 139 1877
SPMM,16,10,0 139 1876
SPMM,17,10,0 139 1875
SPMM,16,11,0 139 1874
SPMM,17,11,0 139 1873
SPMM,18,11,0 139 1872
SPMM,19,11,0 139 1871
SPMM,20,8,0 128 1870
SPMM,21,8,0 128 1869
SPMM,22,8,0 128 1868
SPMM,23,8,0 128 1867
SPMM,22,9,0 128 1866
SPMM,23,9,0 128 1865
SPMM,20,11,0 128 1864
SPMM,21,11,0 128 1863
SPMM,22,11,0 128 1862
SPMM,23,11,0 128 1861
SPMM,30,8,0 163 1860
SPMM,31,8,0 163 1859
SPMM,31,9,0 163 1858
SPMM,30,10,0 163 1857
SPMM,31,10,0 163 1856
SPMM,30,11,0 163 1855
SPMM,31,11,0 163 1854
XY,68,20 44 1853
XY,69,20 44 1852
XY,70,20 44 1851
XY,71,20 44 1850
DLACPY,71,21 82 1849
SPMM,70,71,0 82 1848
SPMM,71,71,0 82 1847
DLACPY,70,21 82 1846
SPMM,69,70,0 82 1845
SPMM,70,70,0 82 1844
SPMM,71,70,0 82 1843
DLACPY,69,21 82 1842
SPMM,68,69,0 82 1841
SPMM,69,69,0 82 1840
SPMM,70,69,0 82 1839
DLACPY,68,21 82 1838
SPMM,68,68,0 82 1837
SPMM,69,68,0 82 1836
SPMM,46,68,0 97 1835
SPMM,47,68,0 97 1834
SPMM,47,69,0 97 1833
SPMM,48,68,0 116 1832
SPMM,48,69,0 116 1831
SPMM,49,69,0 116 1830
SPMM,48,70,0 116 1829
SPMM,49,70,0 116 1828
SPMM,50,70,0 116 1827
SPMM,49,71,0 116 1826
SPMM,50,71,0 116 1825
SPMM,51,71,0 116 1824
SPMM,67,68,0 184 1823
SPMM,116,68,0 209 1822
SPMM,117,68,0 209 1821
SPMM,116,69,0 209 1820
SPMM,117,69,0 209 1819
SPMM,118,69,0 209 1818
SPMM,117,70,0 209 1817
SPMM,118,70,0 209 1816
SPMM,118,71,0 209 1815
SPMM,119,71,0 209 1814
XY,32,20 27 1813
XY,33,20 27 1812
XY,34,20 27 1811
XY,35,20 27 1810
XY,72,20 27 1809
XY,73,20 27 1808
XY,74,20 27 1807
XY,75,20 27 1806
DLACPY,35,21 382 1805
SPMM,36,35,0 382 1804
DLACPY,34,21 382 1803
DLACPY,33,21 382 1802
DLACPY,32,21 382 1801
SPMM,29,32,0 382 1800
SPMM,30,32,0 382 1799
SPMM,31,32,0 382 1798
SPMM,108,35,0 401 1797
SPMM,109,35,0 401 1796
SPMM,23,32,0 383 1795
SPMM,32,32,0 399 1794
SPMM,33,32,0 399 1793
SPMM,32,33,0 399 1792
SPMM,33,33,0 399 1791
SPMM,34,33,0 399 1790
SPMM,33,34,0 399 1789
SPMM,34,34,0 399 1788
SPMM,35,34,0 399 1787
SPMM,34,35,0 399 1786
SPMM,35,35,0 399 1785
XY,24,20 24 1784
XY,25,20 24 1783
XY,26,20 24 1782
XY,27,20 24 1781
XY,76,20 24 1780
XY,77,20 24 1779
XY,78,20 24 1778
XY,79,20 24 1777
DLACPY,79,21 169 1776
DLACPY,78,21 169 1775
DLACPY,77,21 169 1774
DLACPY,76,21 169 1773
SPMM,80,78,0 234 1772
SPMM,81,78,0 234 1771
SPMM,80,79,0 234 1770
SPMM,81,79,0 234 1769
SPMM,82,79,0 234 1768
SPMM,54,76,0 239 1767
SPMM,55,76,0 239 1766
SPMM,55,77,0 239 1765
SPMM,56,76,0 187 1764
SPMM,56,77,0 187 1763
SPMM,57,77,0 187 1762
SPMM,56,78,0 187 1761
SPMM,57,78,0 187 1760
SPMM,76,76,0 173 1759
SPMM,77,76,0 173 1758
SPMM,76,77,0 173 1757
SPMM,77,77,0 173 1756
SPMM,78,77,0 173 1755
SPMM,77,78,0 173 1754
SPMM,78,78,0 173 1753
SPMM,79,78,0 173 1752
SPMM,78,79,0 173 1751
SPMM,79,79,0 173 1750
SPMM,121,76,0 190 1749
SPMM,122,76,0 190 1748
SPMM,121,77,0 190 1747
SPMM,122,77,0 190 1746
SPMM,123,77,0 190 1745
SPMM,122,78,0 190 1744
SPMM,123,78,0 190 1743
XY,48,20 45 1742
XY,49,20 45 1741
XY,50,20 45 1740
XY,51,20 45 1739
XY,80,20 45 1738
XY,81,20 45 1737
XY,82,20 45 1736
XY,83,20 45 1735
DLACPY,83,21 257 1734
DLACPY,82,21 257 1733
DLACPY,81,21 257 1732
DLACPY,80,21 257 1731
SPMM,20,83,0 349 1730
SPMM,21,83,0 349 1729
SPMM,84,83,0 272 1728
SPMM,92,82,0 302 1727
SPMM,92,83,0 302 1726
SPMM,93,83,0 302 1725
SPMM,94,83,0 302 1724
SPMM,16,80,0 298 1723
SPMM,16,82,0 298 1722
SPMM,17,82,0 298 1721
SPMM,18,82,0 298 1720
SPMM,16,83,0 298 1719
SPMM,17,83,0 298 1718
SPMM,18,83,0 298 1717
SPMM,19,83,0 298 1716
SPMM,28,80,0 389 1715
SPMM,28,82,0 389 1714
SPMM,28,83,0 389 1713
SPMM,29,83,0 389 1712
SPMM,78,80,0 300 1711
SPMM,79,80,0 300 1710
SPMM,78,81,0 300 1709
SPMM,79,81,0 300 1708
SPMM,79,82,0 300 1707
SPMM,80,80,0 261 1706
SPMM,81,80,0 261 1705
SPMM,82,80,0 261 1704
SPMM,80,81,0 261 1703
SPMM,81,81,0 261 1702
SPMM,82,81,0 261 1701
SPMM,80,82,0 261 1700
SPMM,81,82,0 261 1699
SPMM,82,82,0 261 1698
SPMM,83,82,0 261 1697
SPMM,82,83,0 261 1696
SPMM,83,83,0 261 1695
SPMM,88,80,0 337 1694
SPMM,89,80,0 337 1693
SPMM,88,81,0 337 1692
SPMM,89,81,0 337 1691
SPMM,90,81,0 337 1690
SPMM,91,81,0 337 1689
SPMM,89,82,0 337 1688
SPMM,90,82,0 337 1687
SPMM,91,82,0 337 1686
SPMM,91,83,0 337 1685
DLACPY,51,21 154 1684
SPMM,50,51,0 154 1683
SPMM,51,51,0 154 1682
DLACPY,50,21 154 1681
SPMM,49,50,0 154 1680
SPMM,50,50,0 154 1679
SPMM,51,50,0 154 1678
DLACPY,49,21 154 1677
SPMM,48,49,0 154 1676
SPMM,49,49,0 154 1675
SPMM,50,49,0 154 1674
DLACPY,48,21 154 1673
SPMM,48,48,0 154 1672
SPMM,49,48,0 154 1671
SPMM,52,51,0 160 1670
SPMM,21,48,0 377 1669
SPMM,22,48,0 377 1668
SPMM,23,48,0 377 1667
SPMM,22,49,0 377 1666
SPMM,23,49,0 377 1665
SPMM,31,48,0 159 1664
SPMM,31,49,0 159 1663
SPMM,31,50,0 159 1662
SPMM,31,51,0 159 1661
SPMM,47,48,0 156 1660
SPMM,68,48,0 155 1659
SPMM,69,48,0 155 1658
SPMM,70,48,0 155 1657
SPMM,69,49,0 155 1656
SPMM,70,49,0 155 1655
SPMM,71,49,0 155 1654
SPMM,70,50,0 155 1653
SPMM,71,50,0 155 1652
SPMM,71,51,0 155 1651
XY,44,20 31 1650
XY,45,20 31 1649
XY,46,20 31 1648
XY,47,20 31 1647
XY,84,20 31 1646
XY,85,20 31 1645
XY,86,20 31 1644
XY,87,20 31 1643
DLACPY,87,21 355 1642
DLACPY,86,21 355 1641
DLACPY,85,21 355 1640
DLACPY,84,21 355 1639
SPMM,88,87,0 362 1638
SPMM,100,87,0 367 1637
SPMM,32,85,0 360 1636
SPMM,33,85,0 360 1635
SPMM,32,86,0 360 1634
SPMM,33,86,0 360 1633
SPMM,34,86,0 360 1632
SPMM,33,87,0 360 1631
SPMM,34,87,0 360 1630
SPMM,35,87,0 360 1629
SPMM,19,84,0 365 1628
SPMM,20,84,0 361 1627
SPMM,21,84,0 361 1626
SPMM,22,84,0 361 1625
SPMM,23,84,0 361 1624
SPMM,22,85,0 361 1623
SPMM,23,85,0 361 1622
SPMM,28,84,0 363 1621
SPMM,29,84,0 363 1620
SPMM,29,85,0 363 1619
SPMM,31,85,0 363 1618
SPMM,84,84,0 359 1617
SPMM,85,84,0 359 1616
SPMM,84,85,0 359 1615
SPMM,85,85,0 359 1614
SPMM,86,85,0 359 1613
SPMM,85,86,0 359 1612
SPMM,86,86,0 359 1611
SPMM,87,86,0 359 1610
SPMM,86,87,0 359 1609
SPMM,87,87,0 359 1608
DLACPY,47,21 369 1607
DLACPY,46,21 369 1606
DLACPY,45,21 369 1605
DLACPY,44,21 369 1604
SPMM,48,47,0 376 1603
SPMM,15,44,0 388 1602
SPMM,30,44,0 375 1601
SPMM,30,45,0 375 1600
SPMM,31,45,0 375 1599
SPMM,30,46,0 375 1598
SPMM,31,46,0 375 1597
SPMM,30,47,0 375 1596
SPMM,31,47,0 375 1595
SPMM,44,44,0 373 1594
SPMM,45,44,0 373 1593
SPMM,44,45,0 373 1592
SPMM,45,45,0 373 1591
SPMM,46,45,0 373 1590
SPMM,45,46,0 373 1589
SPMM,46,46,0 373 1588
SPMM,47,46,0 373 1587
SPMM,46,47,0 373 1586
SPMM,47,47,0 373 1585
XY,92,20 46 1584
DLACPY,92,21 46 1583
XY,93,20 46 1582
DLACPY,93,21 46 1581
XY,94,20 46 1580
DLACPY,94,21 46 1579
XY,95,20 46 1578
DLACPY,95,21 46 1577
SPMM,96,95,0 212 1576
SPMM,84,95,0 52 1575
SPMM,85,95,0 52 1574
SPMM,84,94,0 52 1573
SPMM,85,94,0 52 1572
SPMM,84,93,0 52 1571
SPMM,83,94,0 51 1570
SPMM,83,93,0 51 1569
SPMM,82,92,0 51 1568
SPMM,83,92,0 51 1567
SPMM,91,92,0 186 1566
SPMM,94,95,0 50 1565
SPMM,95,95,0 50 1564
SPMM,93,94,0 50 1563
SPMM,94,94,0 50 1562
SPMM,95,94,0 50 1561
SPMM,92,93,0 50 1560
SPMM,93,93,0 50 1559
SPMM,94,93,0 50 1558
SPMM,92,92,0 50 1557
SPMM,93,92,0 50 1556
XY,96,20 53 1555
XY,97,20 53 1554
XY,98,20 53 1553
XY,99,20 53 1552
DLACPY,99,21 57 1551
SPMM,98,99,0 57 1550
SPMM,99,99,0 57 1549
DLACPY,98,21 57 1548
SPMM,97,98,0 57 1547
SPMM,98,98,0 57 1546
SPMM,99,98,0 57 1545
DLACPY,97,21 57 1544
SPMM,96,97,0 57 1543
SPMM,97,97,0 57 1542
SPMM,98,97,0 57 1541
DLACPY,96,21 57 1540
SPMM,96,96,0 57 1539
SPMM,97,96,0 57 1538
SPMM,88,99,0 61 1537
SPMM,100,99,0 60 1536
SPMM,85,96,0 58 1535
SPMM,86,96,0 58 1534
SPMM,85,97,0 58 1533
SPMM,86,97,0 58 1532
SPMM,87,97,0 58 1531
SPMM,86,98,0 58 1530
SPMM,87,98,0 58 1529
SPMM,87,99,0 58 1528
SPMM,95,96,0 59 1527
XY,88,20 25 1526
XY,89,20 25 1525
XY,90,20 25 1524
XY,91,20 25 1523
XY,100,20 25 1522
XY,101,20 25 1521
XY,102,20 25 1520
XY,103,20 25 1519
DLACPY,103,21 198 1518
DLACPY,102,21 198 1517
DLACPY,101,21 198 1516
DLACPY,100,21 198 1515
SPMM,56,103,0 208 1514
SPMM,104,102,0 222 1513
SPMM,104,103,0 222 1512
SPMM,105,103,0 222 1511
SPMM,106,103,0 222 1510
SPMM,34,101,0 224 1509
SPMM,35,101,0 224 1508
SPMM,34,102,0 224 1507
SPMM,35,102,0 224 1506
SPMM,34,103,0 224 1505
SPMM,35,103,0 224 1504
SPMM,54,101,0 205 1503
SPMM,55,101,0 205 1502
SPMM,54,102,0 205 1501
SPMM,55,102,0 205 1500
SPMM,54,103,0 205 1499
SPMM,55,103,0 205 1498
SPMM,87,100,0 206 1497
SPMM,88,100,0 203 1496
SPMM,88,101,0 203 1495
SPMM,99,100,0 204 1494
SPMM,100,100,0 202 1493
SPMM,101,100,0 202 1492
SPMM,100,101,0 202 1491
SPMM,101,101,0 202 1490
SPMM,102,101,0 202 1489
SPMM,103,101,0 202 1488
SPMM,101,102,0 202 1487
SPMM,102,102,0 202 1486
SPMM,103,102,0 202 1485
SPMM,101,103,0 202 1484
SPMM,102,103,0 202 1483
SPMM,103,103,0 202 1482
DLACPY,91,21 179 1481
SPMM,90,91,0 179 1480
SPMM,91,91,0 179 1479
DLACPY,90,21 179 1478
SPMM,89,90,0 179 1477
SPMM,90,90,0 179 1476
SPMM,91,90,0 179 1475
DLACPY,89,21 179 1474
SPMM,88,89,0 179 1473
SPMM,89,89,0 179 1472
SPMM,90,89,0 179 1471
DLACPY,88,21 179 1470
SPMM,88,88,0 179 1469
SPMM,89,88,0 179 1468
SPMM,92,91,0 188 1467
XTY,92,12,21 368 1466
SPMM,93,84,0 368 1465
XTY,93,13,21 368 1464
SPMM,94,84,0 368 1463
SPMM,95,84,0 368 1462
SPMM,94,85,0 368 1461
XTY,94,14,21 368 1460
SPMM,95,85,0 368 1459
XTY,95,15,21 368 1458
SPMM,35,88,0 182 1457
SPMM,36,88,0 183 1456
SPMM,80,88,0 180 1455
SPMM,81,88,0 180 1454
SPMM,80,89,0 180 1453
SPMM,81,89,0 180 1452
SPMM,82,89,0 180 1451
SPMM,81,90,0 180 1450
SPMM,82,90,0 180 1449
SPMM,81,91,0 180 1448
SPMM,82,91,0 180 1447
SPMM,83,91,0 180 1446
SPMM,87,88,0 185 1445
SPMM,99,88,0 244 1444
SPMM,96,85,0 403 1443
SPMM,97,85,0 403 1442
SPMM,96,86,0 403 1441
XTY,96,16,21 403 1440
SPMM,97,86,0 403 1439
SPMM,98,86,0 403 1438
SPMM,97,87,0 403 1437
XTY,97,17,21 403 1436
SPMM,98,87,0 403 1435
XTY,98,18,21 403 1434
SPMM,99,87,0 403 1433
XTY,99,19,21 403 1432
SPMM,100,88,0 181 1431
SPMM,101,88,0 181 1430
XTY,89,9,21 394 1429
XTY,90,10,21 394 1428
XTY,91,11,21 394 1427
SPMM,88,35,0 394 1426
XTY,88,8,21 394 1425
XY,16,20 34 1424
XY,17,20 34 1423
XY,18,20 34 1422
XY,19,20 34 1421
XY,104,20 34 1420
XY,105,20 34 1419
XY,106,20 34 1418
XY,107,20 34 1417
DLACPY,107,21 110 1416
DLACPY,106,21 110 1415
DLACPY,105,21 110 1414
DLACPY,104,21 110 1413
SPMM,36,105,0 136 1412
SPMM,36,106,0 136 1411
SPMM,36,107,0 136 1410
SPMM,108,105,0 115 1409
SPMM,108,106,0 115 1408
SPMM,108,107,0 115 1407
SPMM,109,107,0 115 1406
SPMM,34,104,0 149 1405
SPMM,35,104,0 149 1404
SPMM,35,105,0 149 1403
SPMM,35,106,0 149 1402
SPMM,35,107,0 149 1401
SPMM,54,104,0 233 1400
SPMM,55,104,0 233 1399
SPMM,55,105,0 233 1398
SPMM,55,106,0 233 1397
SPMM,55,107,0 233 1396
SPMM,56,104,0 246 1395
SPMM,56,105,0 246 1394
SPMM,56,106,0 246 1393
SPMM,57,106,0 246 1392
SPMM,56,107,0 246 1391
SPMM,57,107,0 246 1390
SPMM,102,104,0 137 1389
SPMM,103,104,0 137 1388
SPMM,103,105,0 137 1387
SPMM,103,106,0 137 1386
SPMM,104,104,0 114 1385
SPMM,105,104,0 114 1384
SPMM,106,104,0 114 1383
SPMM,107,104,0 114 1382
SPMM,104,105,0 114 1381
SPMM,105,105,0 114 1380
SPMM,106,105,0 114 1379
SPMM,107,105,0 114 1378
SPMM,104,106,0 114 1377
SPMM,105,106,0 114 1376
SPMM,106,106,0 114 1375
SPMM,107,106,0 114 1374
SPMM,104,107,0 114 1373
SPMM,105,107,0 114 1372
SPMM,106,107,0 114 1371
SPMM,107,107,0 114 1370
DLACPY,19,21 262 1369
DLACPY,18,21 262 1368
DLACPY,17,21 262 1367
DLACPY,16,21 262 1366
SPMM,20,19,0 268 1365
SPMM,84,19,0 345 1364
SPMM,0,16,0 299 1363
SPMM,3,16,0 299 1362
SPMM,0,17,0 299 1361
SPMM,3,17,0 299 1360
SPMM,0,18,0 299 1359
SPMM,1,18,0 299 1358
SPMM,3,18,0 299 1357
SPMM,0,19,0 299 1356
SPMM,1,19,0 299 1355
SPMM,3,19,0 299 1354
SPMM,10,16,0 326 1353
SPMM,11,16,0 326 1352
SPMM,10,17,0 326 1351
SPMM,11,17,0 326 1350
SPMM,11,18,0 326 1349
SPMM,8,19,0 326 1348
SPMM,11,19,0 326 1347
SPMM,15,16,0 267 1346
SPMM,16,16,0 266 1345
SPMM,17,16,0 266 1344
SPMM,16,17,0 266 1343
SPMM,17,17,0 266 1342
SPMM,18,17,0 266 1341
SPMM,17,18,0 266 1340
SPMM,18,18,0 266 1339
SPMM,19,18,0 266 1338
SPMM,18,19,0 266 1337
SPMM,19,19,0 266 1336
SPMM,28,16,0 301 1335
SPMM,30,16,0 301 1334
SPMM,28,17,0 301 1333
SPMM,30,17,0 301 1332
SPMM,28,18,0 301 1331
SPMM,30,18,0 301 1330
SPMM,28,19,0 301 1329
SPMM,29,19,0 301 1328
SPMM,30,19,0 301 1327
SPMM,31,19,0 301 1326
SPMM,44,16,0 269 1325
SPMM,44,17,0 269 1324
SPMM,45,17,0 269 1323
SPMM,44,18,0 269 1322
SPMM,45,18,0 269 1321
SPMM,46,18,0 269 1320
SPMM,44,19,0 269 1319
SPMM,45,19,0 269 1318
SPMM,46,19,0 269 1317
SPMM,47,19,0 269 1316
SPMM,80,16,0 270 1315
SPMM,82,16,0 270 1314
SPMM,83,16,0 270 1313
SPMM,80,17,0 270 1312
SPMM,82,17,0 270 1311
SPMM,83,17,0 270 1310
SPMM,82,18,0 270 1309
SPMM,83,18,0 270 1308
SPMM,83,19,0 270 1307
XY,52,20 43 1306
XY,53,20 43 1305
XY,54,20 43 1304
XY,55,20 43 1303
XY,108,20 43 1302
XY,109,20 43 1301
XY,110,20 43 1300
XY,111,20 43 1299
DLACPY,111,21 194 1298
SPMM,110,111,0 194 1297
SPMM,111,111,0 194 1296
DLACPY,110,21 194 1295
SPMM,108,110,0 194 1294
SPMM,109,110,0 194 1293
SPMM,110,110,0 194 1292
SPMM,111,110,0 194 1291
DLACPY,109,21 194 1290
SPMM,108,109,0 194 1289
SPMM,109,109,0 194 1288
SPMM,110,109,0 194 1287
DLACPY,108,21 194 1286
SPMM,108,108,0 194 1285
SPMM,109,108,0 194 1284
SPMM,110,108,0 194 1283
SPMM,60,111,0 232 1282
SPMM,112,111,0 197 1281
SPMM,35,108,0 242 1280
SPMM,35,109,0 242 1279
SPMM,36,108,0 240 1278
SPMM,36,109,0 240 1277
SPMM,36,110,0 240 1276
SPMM,55,108,0 196 1275
SPMM,56,108,0 245 1274
SPMM,57,108,0 245 1273
SPMM,56,109,0 245 1272
SPMM,57,109,0 245 1271
SPMM,56,110,0 245 1270
SPMM,57,110,0 245 1269
SPMM,58,110,0 245 1268
SPMM,59,110,0 245 1267
SPMM,57,111,0 245 1266
SPMM,58,111,0 245 1265
SPMM,59,111,0 245 1264
SPMM,105,108,0 195 1263
SPMM,106,108,0 195 1262
SPMM,107,108,0 195 1261
SPMM,107,109,0 195 1260
DLACPY,55,21 280 1259
DLACPY,54,21 280 1258
DLACPY,53,21 280 1257
DLACPY,52,21 280 1256
SPMM,56,55,0 344 1255
SPMM,108,55,0 402 1254
SPMM,104,54,0 352 1253
SPMM,104,55,0 352 1252
SPMM,105,55,0 352 1251
SPMM,106,55,0 352 1250
SPMM,107,55,0 352 1249
SPMM,104,34,0 385 1248
SPMM,104,35,0 385 1247
XTY,104,4,21 385 1246
SPMM,105,35,0 385 1245
XTY,105,5,21 385 1244
SPMM,106,35,0 385 1243
XTY,106,6,21 385 1242
SPMM,107,35,0 385 1241
XTY,107,7,21 385 1240
SPMM,101,53,0 340 1239
SPMM,102,53,0 340 1238
SPMM,101,54,0 340 1237
SPMM,102,54,0 340 1236
SPMM,103,54,0 340 1235
SPMM,101,55,0 340 1234
SPMM,102,55,0 340 1233
SPMM,103,55,0 340 1232
XTY,100,0,21 384 1231
SPMM,101,34,0 384 1230
SPMM,102,34,0 384 1229
SPMM,103,34,0 384 1228
SPMM,101,35,0 384 1227
XTY,101,1,21 384 1226
SPMM,102,35,0 384 1225
XTY,102,2,21 384 1224
SPMM,103,35,0 384 1223
XTY,103,3,21 384 1222
SPMM,31,52,0 338 1221
SPMM,28,28,0 338 1220
SPMM,29,28,0 338 1219
SPMM,28,29,0 338 1218
SPMM,29,29,0 338 1217
SPMM,30,29,0 338 1216
SPMM,31,29,0 338 1215
SPMM,29,30,0 338 1214
SPMM,30,30,0 338 1213
SPMM,31,30,0 338 1212
SPMM,29,31,0 338 1211
SPMM,30,31,0 338 1210
SPMM,31,31,0 338 1209
SPMM,51,52,0 296 1208
SPMM,52,52,0 294 1207
SPMM,53,52,0 294 1206
SPMM,52,53,0 294 1205
SPMM,53,53,0 294 1204
SPMM,54,53,0 294 1203
SPMM,53,54,0 294 1202
SPMM,54,54,0 294 1201
SPMM,55,54,0 294 1200
SPMM,54,55,0 294 1199
SPMM,55,55,0 294 1198
XY,64,20 32 1197
XY,65,20 32 1196
XY,66,20 32 1195
XY,67,20 32 1194
XY,112,20 32 1193
XY,113,20 32 1192
XY,114,20 32 1191
XY,115,20 32 1190
DLACPY,115,21 129 1189
DLACPY,114,21 129 1188
DLACPY,113,21 129 1187
DLACPY,112,21 129 1186
SPMM,64,113,0 135 1185
SPMM,64,114,0 135 1184
SPMM,65,114,0 135 1183
SPMM,66,114,0 135 1182
SPMM,64,115,0 135 1181
SPMM,65,115,0 135 1180
SPMM,66,115,0 135 1179
SPMM,67,115,0 135 1178
SPMM,59,112,0 189 1177
XTY,59,19,21 351 1176
XTY,56,16,21 351 1175
XTY,58,18,21 351 1174
XTY,57,17,21 351 1173
SPMM,60,112,0 134 1172
SPMM,61,112,0 134 1171
SPMM,62,112,0 134 1170
SPMM,61,113,0 134 1169
SPMM,62,113,0 134 1168
SPMM,63,113,0 134 1167
SPMM,62,114,0 134 1166
SPMM,63,114,0 134 1165
SPMM,111,112,0 138 1164
SPMM,112,112,0 133 1163
SPMM,113,112,0 133 1162
SPMM,112,113,0 133 1161
SPMM,113,113,0 133 1160
SPMM,114,113,0 133 1159
SPMM,113,114,0 133 1158
SPMM,114,114,0 133 1157
SPMM,115,114,0 133 1156
SPMM,114,115,0 133 1155
SPMM,115,115,0 133 1154
DLACPY,67,21 102 1153
SPMM,45,67,0 102 1152
SPMM,46,67,0 102 1151
SPMM,47,67,0 102 1150
SPMM,115,67,0 102 1149
DLACPY,66,21 102 1148
SPMM,44,66,0 102 1147
SPMM,45,66,0 102 1146
SPMM,46,66,0 102 1145
SPMM,114,66,0 102 1144
SPMM,115,66,0 102 1143
DLACPY,65,21 102 1142
SPMM,44,65,0 102 1141
SPMM,45,65,0 102 1140
SPMM,114,65,0 102 1139
SPMM,115,65,0 102 1138
DLACPY,64,21 102 1137
SPMM,44,64,0 102 1136
SPMM,113,64,0 102 1135
SPMM,114,64,0 102 1134
SPMM,115,64,0 102 1133
SPMM,68,67,0 105 1132
SPMM,116,66,0 213 1131
SPMM,116,67,0 213 1130
SPMM,117,67,0 213 1129
SPMM,63,64,0 103 1128
SPMM,64,64,0 229 1127
SPMM,65,64,0 229 1126
SPMM,64,65,0 229 1125
SPMM,65,65,0 229 1124
SPMM,66,65,0 229 1123
SPMM,65,66,0 229 1122
SPMM,66,66,0 229 1121
SPMM,67,66,0 229 1120
SPMM,66,67,0 229 1119
SPMM,67,67,0 229 1118
XY,116,20 35 1117
XY,117,20 35 1116
XY,118,20 35 1115
XY,119,20 35 1114
XY,120,20 35 1113
XY,121,20 35 1112
XY,122,20 35 1111
XY,123,20 35 1110
DLACPY,123,21 36 1109
DLACPY,122,21 36 1108
DLACPY,121,21 36 1107
DLACPY,120,21 36 1106
SPMM,76,121,0 42 1105
SPMM,77,121,0 42 1104
SPMM,76,122,0 42 1103
SPMM,77,122,0 42 1102
SPMM,78,122,0 42 1101
SPMM,77,123,0 42 1100
SPMM,78,123,0 42 1099
SPMM,119,120,0 41 1098
SPMM,120,120,0 40 1097
SPMM,121,120,0 40 1096
SPMM,120,121,0 40 1095
SPMM,121,121,0 40 1094
SPMM,122,121,0 40 1093
SPMM,121,122,0 40 1092
SPMM,122,122,0 40 1091
SPMM,123,122,0 40 1090
SPMM,122,123,0 40 1089
SPMM,123,123,0 40 1088
DLACPY,119,21 106 1087
DLACPY,118,21 106 1086
DLACPY,117,21 106 1085
DLACPY,116,21 106 1084
SPMM,66,116,0 158 1083
SPMM,67,116,0 158 1082
SPMM,67,117,0 158 1081
SPMM,68,116,0 162 1080
SPMM,69,116,0 162 1079
SPMM,68,117,0 162 1078
SPMM,69,117,0 162 1077
SPMM,70,117,0 162 1076
SPMM,69,118,0 162 1075
SPMM,70,118,0 162 1074
SPMM,71,118,0 162 1073
SPMM,71,119,0 162 1072
SPMM,115,116,0 108 1071
XTY,115,15,21 405 1070
XTY,114,14,21 405 1069
XTY,113,13,21 405 1068
SPMM,112,59,0 405 1067
XTY,112,12,21 405 1066
SPMM,116,116,0 122 1065
SPMM,117,116,0 122 1064
SPMM,116,117,0 122 1063
SPMM,117,117,0 122 1062
SPMM,118,117,0 122 1061
SPMM,117,118,0 122 1060
SPMM,118,118,0 122 1059
SPMM,119,118,0 122 1058
SPMM,118,119,0 122 1057
SPMM,119,119,0 122 1056
SETZERO,75,1 0 1055
SETZERO,74,1 0 1054
SETZERO,73,1 0 1053
SETZERO,72,1 0 1052
SETZERO,43,1 0 1051
SETZERO,42,1 0 1050
SETZERO,41,1 0 1049
SETZERO,40,1 0 1048
SETZERO,27,1 0 1047
SETZERO,26,1 0 1046
SETZERO,25,1 0 1045
SETZERO,24,1 0 1044
SETZERO,7,1 0 1043
SETZERO,6,1 0 1042
SETZERO,5,1 0 1041
SETZERO,4,1 0 1040
SPMM,75,76,0 174 1039
SPMM,72,50,0 161 1038
SPMM,72,51,0 161 1037
SPMM,73,51,0 161 1036
SPMM,72,71,0 83 1035
DLACPY,75,21 166 1034
SPMM,74,75,0 166 1033
SPMM,75,75,0 166 1032
DLACPY,74,21 166 1031
SPMM,73,74,0 166 1030
SPMM,74,74,0 166 1029
SPMM,75,74,0 166 1028
DLACPY,73,21 166 1027
SPMM,72,73,0 166 1026
SPMM,73,73,0 166 1025
SPMM,74,73,0 166 1024
DLACPY,72,21 166 1023
SPMM,72,72,0 166 1022
SPMM,73,72,0 166 1021
SPMM,76,75,0 168 1020
XTY,78,18,21 328 1019
SPMM,76,54,0 328 1018
SPMM,76,55,0 328 1017
XTY,76,16,21 328 1016
SPMM,77,55,0 328 1015
XTY,77,17,21 328 1014
XTY,79,19,21 328 1013
SPMM,50,72,0 241 1012
SPMM,51,72,0 241 1011
SPMM,51,73,0 241 1010
SPMM,52,72,0 167 1009
SPMM,52,73,0 167 1008
SPMM,53,73,0 167 1007
SPMM,52,74,0 167 1006
SPMM,53,74,0 167 1005
SPMM,54,74,0 167 1004
SPMM,53,75,0 167 1003
SPMM,54,75,0 167 1002
SPMM,55,75,0 167 1001
XTY,54,14,21 333 1000
XTY,53,13,21 333 999
XTY,52,12,21 333 998
SPMM,55,56,0 333 997
XTY,55,15,21 333 996
SPMM,71,72,0 207 995
XTY,71,11,21 407 994
XTY,70,10,21 407 993
SPMM,68,46,0 407 992
SPMM,68,47,0 407 991
XTY,68,8,21 407 990
SPMM,69,47,0 407 989
XTY,69,9,21 407 988
SPMM,118,72,0 210 987
SPMM,119,72,0 210 986
SPMM,119,73,0 210 985
SPMM,119,74,0 210 984
XTY,119,19,21 231 983
XTY,118,18,21 231 982
XTY,117,17,21 231 981
SPMM,116,115,0 231 980
XTY,116,16,21 231 979
SPMM,120,72,0 235 978
SPMM,120,73,0 235 977
SPMM,120,74,0 235 976
SPMM,121,74,0 235 975
SPMM,120,75,0 235 974
SPMM,121,75,0 235 973
XTY,121,1,21 236 972
SPMM,120,119,0 236 971
XTY,120,0,21 236 970
XTY,123,3,21 236 969
XTY,122,2,21 236 968
SPMM,72,118,0 107 967
SPMM,72,119,0 107 966
SPMM,73,119,0 107 965
SPMM,74,119,0 107 964
SPMM,72,120,0 63 963
SPMM,73,120,0 63 962
SPMM,74,120,0 63 961
SPMM,74,121,0 63 960
SPMM,75,120,0 63 959
SPMM,75,121,0 63 958
SPMM,72,52,0 408 957
XTY,72,12,21 408 956
SPMM,73,52,0 408 955
SPMM,73,53,0 408 954
XTY,73,13,21 408 953
SPMM,74,52,0 408 952
SPMM,74,53,0 408 951
SPMM,74,54,0 408 950
XTY,74,14,21 408 949
SPMM,75,53,0 408 948
SPMM,75,54,0 408 947
SPMM,75,55,0 408 946
XTY,75,15,21 408 945
SPMM,43,44,0 387 944
SPMM,42,16,0 271 943
SPMM,43,16,0 271 942
SPMM,43,17,0 271 941
SPMM,42,64,0 104 940
SPMM,43,64,0 104 939
SPMM,43,65,0 104 938
SPMM,40,12,0 289 937
SPMM,41,12,0 289 936
SPMM,41,13,0 289 935
SPMM,41,14,0 289 934
SPMM,42,12,0 289 933
SPMM,42,13,0 289 932
SPMM,42,14,0 289 931
SPMM,42,15,0 289 930
SPMM,43,14,0 289 929
SPMM,43,15,0 289 928
SPMM,40,30,0 318 927
SPMM,41,30,0 318 926
SPMM,42,30,0 318 925
SPMM,43,30,0 318 924
SPMM,40,39,0 247 923
DLACPY,43,21 87 922
SPMM,42,43,0 87 921
SPMM,43,43,0 87 920
DLACPY,42,21 87 919
SPMM,41,42,0 87 918
SPMM,42,42,0 87 917
SPMM,43,42,0 87 916
DLACPY,41,21 87 915
SPMM,40,41,0 87 914
SPMM,41,41,0 87 913
SPMM,42,41,0 87 912
DLACPY,40,21 87 911
SPMM,40,40,0 87 910
SPMM,41,40,0 87 909
SPMM,44,43,0 124 908
XTY,44,4,21 374 907
XTY,45,5,21 374 906
XTY,46,6,21 374 905
XTY,47,7,21 374 904
SPMM,16,42,0 211 903
SPMM,16,43,0 211 902
SPMM,17,43,0 211 901
SPMM,64,42,0 92 900
SPMM,64,43,0 92 899
SPMM,65,43,0 92 898
SPMM,64,44,0 404 897
XTY,64,4,21 404 896
SPMM,65,44,0 404 895
SPMM,66,44,0 404 894
SPMM,65,45,0 404 893
XTY,65,5,21 404 892
SPMM,66,45,0 404 891
SPMM,67,45,0 404 890
SPMM,66,46,0 404 889
XTY,66,6,21 404 888
SPMM,67,46,0 404 887
SPMM,67,47,0 404 886
XTY,67,7,21 404 885
SPMM,12,40,0 88 884
SPMM,13,40,0 88 883
SPMM,12,41,0 88 882
SPMM,13,41,0 88 881
SPMM,14,41,0 88 880
SPMM,12,42,0 88 879
SPMM,13,42,0 88 878
SPMM,14,42,0 88 877
SPMM,15,42,0 88 876
SPMM,14,43,0 88 875
SPMM,15,43,0 88 874
SPMM,30,40,0 89 873
SPMM,30,41,0 89 872
SPMM,30,42,0 89 871
SPMM,30,43,0 89 870
SPMM,39,40,0 90 869
SPMM,60,40,0 109 868
SPMM,61,40,0 109 867
SPMM,62,40,0 109 866
SPMM,61,41,0 109 865
SPMM,62,41,0 109 864
SPMM,63,41,0 109 863
SPMM,62,42,0 109 862
SPMM,63,42,0 109 861
SPMM,63,43,0 109 860
XTY,63,3,21 406 859
XTY,62,2,21 406 858
XTY,61,1,21 406 857
SPMM,60,59,0 406 856
XTY,60,0,21 406 855
SPMM,40,60,0 93 854
SPMM,40,61,0 93 853
SPMM,40,62,0 93 852
SPMM,41,61,0 93 851
SPMM,41,62,0 93 850
SPMM,41,63,0 93 849
SPMM,42,62,0 93 848
SPMM,42,63,0 93 847
SPMM,43,63,0 93 846
SPMM,27,80,0 330 845
SPMM,26,52,0 347 844
SPMM,27,52,0 347 843
SPMM,24,1,0 219 842
SPMM,25,1,0 219 841
SPMM,25,2,0 219 840
SPMM,26,1,0 219 839
SPMM,26,2,0 219 838
SPMM,27,0,0 219 837
SPMM,27,2,0 219 836
SPMM,27,3,0 219 835
SPMM,24,9,0 117 834
SPMM,24,11,0 117 833
SPMM,25,9,0 117 832
SPMM,26,9,0 117 831
SPMM,26,10,0 117 830
SPMM,27,9,0 117 829
SPMM,27,10,0 117 828
SPMM,24,12,0 295 827
SPMM,25,12,0 295 826
SPMM,26,12,0 295 825
SPMM,27,12,0 295 824
SPMM,27,13,0 295 823
SPMM,27,14,0 295 822
SPMM,27,15,0 295 821
SPMM,24,23,0 342 820
DLACPY,27,21 276 819
SPMM,26,27,0 276 818
SPMM,27,27,0 276 817
DLACPY,26,21 276 816
SPMM,25,26,0 276 815
SPMM,26,26,0 276 814
SPMM,27,26,0 276 813
DLACPY,25,21 276 812
SPMM,24,25,0 276 811
SPMM,25,25,0 276 810
SPMM,26,25,0 276 809
DLACPY,24,21 276 808
SPMM,24,24,0 276 807
SPMM,25,24,0 276 806
SPMM,80,27,0 353 805
XTY,80,0,21 364 804
XTY,82,2,21 364 803
XTY,81,1,21 364 802
SPMM,83,84,0 364 801
XTY,83,3,21 364 800
SPMM,5,24,0 282 799
SPMM,5,25,0 282 798
SPMM,6,25,0 282 797
SPMM,5,26,0 282 796
SPMM,6,26,0 282 795
SPMM,6,27,0 282 794
SPMM,9,24,0 327 793
SPMM,11,24,0 327 792
SPMM,9,25,0 327 791
SPMM,9,26,0 327 790
SPMM,10,26,0 327 789
SPMM,9,27,0 327 788
SPMM,10,27,0 327 787
SPMM,12,24,0 283 786
SPMM,12,25,0 283 785
SPMM,12,26,0 283 784
SPMM,12,27,0 283 783
SPMM,13,27,0 283 782
SPMM,14,27,0 283 781
SPMM,15,27,0 283 780
SPMM,23,24,0 277 779
SPMM,29,24,0 278 778
SPMM,31,24,0 278 777
SPMM,29,25,0 278 776
SPMM,31,25,0 278 775
SPMM,29,26,0 278 774
SPMM,30,26,0 278 773
SPMM,31,26,0 278 772
SPMM,28,27,0 278 771
SPMM,29,27,0 278 770
SPMM,30,27,0 278 769
SPMM,31,27,0 278 768
SPMM,32,24,0 279 767
SPMM,32,25,0 279 766
SPMM,32,26,0 279 765
SPMM,32,27,0 279 764
XTY,32,12,21 400 763
XTY,35,15,21 400 762
XTY,34,14,21 400 761
XTY,33,13,21 400 760
SPMM,48,24,0 281 759
SPMM,49,24,0 281 758
SPMM,50,24,0 281 757
SPMM,49,25,0 281 756
SPMM,50,25,0 281 755
SPMM,51,25,0 281 754
SPMM,49,26,0 281 753
SPMM,50,26,0 281 752
SPMM,51,26,0 281 751
SPMM,50,27,0 281 750
SPMM,51,27,0 281 749
XTY,51,11,21 391 748
XTY,50,10,21 391 747
XTY,49,9,21 391 746
XTY,48,8,21 391 745
XTY,39,19,21 391 744
XTY,36,16,21 391 743
XTY,38,18,21 391 742
XTY,37,17,21 391 741
SPMM,85,24,0 339 740
SPMM,85,25,0 339 739
XTY,84,4,21 386 738
SPMM,85,32,0 386 737
SPMM,86,32,0 386 736
SPMM,85,33,0 386 735
XTY,85,5,21 386 734
SPMM,86,33,0 386 733
SPMM,87,33,0 386 732
SPMM,86,34,0 386 731
XTY,86,6,21 386 730
SPMM,87,34,0 386 729
SPMM,87,35,0 386 728
XTY,87,7,21 386 727
SPMM,24,29,0 314 726
SPMM,24,31,0 314 725
SPMM,25,29,0 314 724
SPMM,25,31,0 314 723
SPMM,26,29,0 314 722
SPMM,26,30,0 314 721
SPMM,26,31,0 314 720
SPMM,27,28,0 314 719
SPMM,27,29,0 314 718
SPMM,27,30,0 314 717
SPMM,27,31,0 314 716
SPMM,24,48,0 157 715
SPMM,24,49,0 157 714
SPMM,24,50,0 157 713
SPMM,25,49,0 157 712
SPMM,25,50,0 157 711
SPMM,25,51,0 157 710
SPMM,26,49,0 157 709
SPMM,26,50,0 157 708
SPMM,26,51,0 157 707
SPMM,27,50,0 157 706
SPMM,27,51,0 157 705
SPMM,24,85,0 366 704
SPMM,5,12,0 297 703
SPMM,6,12,0 297 702
SPMM,6,13,0 297 701
SPMM,6,14,0 297 700
SPMM,6,15,0 297 699
SPMM,7,14,0 297 698
SPMM,7,15,0 297 697
SPMM,4,0,0 220 696
SPMM,4,1,0 220 695
SPMM,4,3,0 220 694
SPMM,5,1,0 220 693
SPMM,5,2,0 220 692
SPMM,6,0,0 220 691
SPMM,6,1,0 220 690
SPMM,6,2,0 220 689
SPMM,7,0,0 220 688
SPMM,7,1,0 220 687
DLACPY,7,21 142 686
SPMM,6,7,0 142 685
SPMM,7,7,0 142 684
DLACPY,6,21 142 683
SPMM,5,6,0 142 682
SPMM,6,6,0 142 681
SPMM,7,6,0 142 680
DLACPY,5,21 142 679
SPMM,4,5,0 142 678
SPMM,5,5,0 142 677
SPMM,6,5,0 142 676
DLACPY,4,21 142 675
SPMM,4,4,0 142 674
SPMM,5,4,0 142 673
SPMM,12,5,0 145 672
SPMM,12,6,0 145 671
SPMM,13,6,0 145 670
SPMM,14,6,0 145 669
SPMM,15,6,0 145 668
SPMM,14,7,0 145 667
SPMM,15,7,0 145 666
SPMM,12,80,0 392 665
XTY,12,12,21 392 664
SPMM,13,80,0 392 663
XTY,13,13,21 392 662
SPMM,14,80,0 392 661
XTY,14,14,21 392 660
SPMM,15,80,0 392 659
SPMM,15,82,0 392 658
XTY,15,15,21 392 657
SPMM,24,5,0 150 656
SPMM,25,5,0 150 655
SPMM,26,5,0 150 654
SPMM,25,6,0 150 653
SPMM,26,6,0 150 652
SPMM,27,6,0 150 651
SPMM,24,32,0 390 650
XTY,24,4,21 390 649
SPMM,25,32,0 390 648
XTY,25,5,21 390 647
SPMM,26,32,0 390 646
XTY,26,6,21 390 645
SPMM,27,32,0 390 644
XTY,27,7,21 390 643
SPMM,0,4,0 143 642
SPMM,1,4,0 143 641
SPMM,3,4,0 143 640
SPMM,1,5,0 143 639
SPMM,2,5,0 143 638
SPMM,0,6,0 143 637
SPMM,1,6,0 143 636
SPMM,2,6,0 143 635
SPMM,0,7,0 143 634
SPMM,1,7,0 143 633
SPMM,1,24,0 332 632
SPMM,1,25,0 332 631
SPMM,2,25,0 332 630
SPMM,1,26,0 332 629
XTY,1,1,21 332 628
SPMM,2,26,0 332 627
SPMM,0,27,0 332 626
XTY,0,0,21 332 625
SPMM,2,27,0 332 624
XTY,2,2,21 332 623
SPMM,3,27,0 332 622
XTY,3,3,21 332 621
SPMM,11,4,0 146 620
SPMM,11,5,0 146 619
SPMM,10,6,0 146 618
SPMM,8,7,0 146 617
SPMM,10,7,0 146 616
SPMM,11,7,0 146 615
SPMM,8,30,0 331 614
SPMM,10,30,0 331 613
SPMM,11,30,0 331 612
SPMM,8,31,0 331 611
XTY,8,8,21 331 610
SPMM,9,31,0 331 609
XTY,9,9,21 331 608
SPMM,10,31,0 331 607
XTY,10,10,21 331 606
SPMM,11,31,0 331 605
XTY,11,11,21 331 604
SPMM,18,4,0 147 603
SPMM,19,4,0 147 602
SPMM,16,6,0 147 601
SPMM,16,7,0 147 600
SPMM,17,7,0 147 599
SPMM,18,7,0 147 598
SPMM,19,7,0 147 597
SPMM,16,44,0 378 596
XTY,16,16,21 378 595
SPMM,17,44,0 378 594
SPMM,18,44,0 378 593
SPMM,19,44,0 378 592
SPMM,17,45,0 378 591
XTY,17,17,21 378 590
SPMM,18,45,0 378 589
SPMM,19,45,0 378 588
SPMM,18,46,0 378 587
XTY,18,18,21 378 586
SPMM,19,46,0 378 585
SPMM,19,47,0 378 584
XTY,19,19,21 378 583
SPMM,20,4,0 148 582
SPMM,21,4,0 148 581
SPMM,22,4,0 148 580
SPMM,23,4,0 148 579
SPMM,21,5,0 148 578
SPMM,22,5,0 148 577
SPMM,23,5,0 148 576
SPMM,20,7,0 148 575
SPMM,20,45,0 395 574
SPMM,20,46,0 395 573
SPMM,21,46,0 395 572
SPMM,20,47,0 395 571
XTY,20,0,21 395 570
SPMM,21,47,0 395 569
XTY,21,1,21 395 568
SPMM,22,47,0 395 567
XTY,22,2,21 395 566
SPMM,23,47,0 395 565
XTY,23,3,21 395 564
SPMM,28,4,0 144 563
SPMM,29,4,0 144 562
SPMM,29,5,0 144 561
SPMM,30,5,0 144 560
SPMM,29,6,0 144 559
SPMM,30,6,0 144 558
SPMM,30,7,0 144 557
SPMM,31,7,0 144 556
XTY,31,11,21 393 555
XTY,30,10,21 393 554
XTY,29,9,21 393 553
XTY,28,8,21 393 552
XTY,43,3,21 393 551
XTY,42,2,21 393 550
XTY,41,1,21 393 549
XTY,40,0,21 393 548
SPMM,4,11,0 98 547
SPMM,5,11,0 98 546
SPMM,6,10,0 98 545
SPMM,7,8,0 98 544
SPMM,7,10,0 98 543
SPMM,7,11,0 98 542
SPMM,4,20,0 255 541
SPMM,4,21,0 255 540
SPMM,4,22,0 255 539
SPMM,4,23,0 255 538
SPMM,5,21,0 255 537
SPMM,5,22,0 255 536
SPMM,5,23,0 255 535
SPMM,7,20,0 255 534
SPMM,4,28,0 322 533
SPMM,4,29,0 322 532
SPMM,5,29,0 322 531
SPMM,5,30,0 322 530
SPMM,6,29,0 322 529
SPMM,6,30,0 322 528
SPMM,7,30,0 322 527
SPMM,7,31,0 322 526
XTY,5,5,21 346 525
SPMM,4,18,0 346 524
SPMM,4,19,0 346 523
XTY,4,4,21 346 522
SPMM,6,16,0 346 521
XTY,6,6,21 346 520
SPMM,7,16,0 346 519
SPMM,7,17,0 346 518
SPMM,7,18,0 346 517
SPMM,7,19,0 346 516
XTY,7,7,21 346 515
SPMM,108,56,0 409 514
SPMM,109,56,0 409 513
SPMM,110,56,0 409 512
SPMM,108,57,0 409 511
XTY,108,8,21 409 510
SPMM,109,57,0 409 509
XTY,109,9,21 409 508
SPMM,110,57,0 409 507
SPMM,111,57,0 409 506
SPMM,110,58,0 409 505
SPMM,111,58,0 409 504
SPMM,110,59,0 409 503
XTY,110,10,21 409 502
SPMM,111,59,0 409 501
XTY,111,11,21 409 500
RED,XAXBUF,0 409 499
SPEUPDATE,XAX 410 498
EIGEN 410 497
XY,60,22 410 496
DLACPY,60,23 410 495
XY,61,22 410 494
DLACPY,61,23 410 493
XY,62,22 410 492
DLACPY,62,23 410 491
XY,63,22 410 490
DLACPY,63,23 410 489
XY,96,22 410 488
DLACPY,96,23 410 487
XY,97,22 410 486
DLACPY,97,23 410 485
XY,98,22 410 484
DLACPY,98,23 410 483
XY,99,22 410 482
DLACPY,99,23 410 481
XY,8,21 434 480
DLACPY,8,22 434 479
XY,9,21 434 478
DLACPY,9,22 434 477
XY,10,21 434 476
DLACPY,10,22 434 475
XY,11,21 434 474
DLACPY,11,22 434 473
XY,28,21 447 472
DLACPY,28,22 447 471
XY,29,21 447 470
DLACPY,29,22 447 469
XY,30,21 447 468
DLACPY,30,22 447 467
XY,31,21 447 466
DLACPY,31,22 447 465
XY,32,21 431 464
DLACPY,32,22 431 463
XY,33,21 431 462
DLACPY,33,22 431 461
XY,34,21 431 460
DLACPY,34,22 431 459
XY,35,21 431 458
DLACPY,35,22 431 457
XY,16,21 418 456
DLACPY,16,22 418 455
XY,17,21 418 454
DLACPY,17,22 418 453
XY,18,21 418 452
DLACPY,18,22 418 451
XY,19,21 418 450
DLACPY,19,22 418 449
XY,40,21 418 448
DLACPY,40,22 418 447
XY,41,21 418 446
DLACPY,41,22 418 445
XY,42,21 418 444
DLACPY,42,22 418 443
XY,43,21 418 442
DLACPY,43,22 418 441
XY,4,21 429 440
DLACPY,4,22 429 439
XY,5,21 429 438
DLACPY,5,22 429 437
XY,6,21 429 436
DLACPY,6,22 429 435
XY,7,21 429 434
DLACPY,7,22 429 433
XY,44,21 429 432
DLACPY,44,22 429 431
XY,45,21 429 430
DLACPY,45,22 429 429
XY,46,21 429 428
DLACPY,46,22 429 427
XY,47,21 429 426
DLACPY,47,22 429 425
XY,48,21 428 424
DLACPY,48,22 428 423
XY,49,21 428 422
DLACPY,49,22 428 421
XY,50,21 428 420
DLACPY,50,22 428 419
XY,51,21 428 418
DLACPY,51,22 428 417
XY,56,21 433 416
DLACPY,56,22 433 415
XY,57,21 433 414
DLACPY,57,22 433 413
XY,58,21 433 412
DLACPY,58,22 433 411
XY,59,21 433 410
DLACPY,59,22 433 409
XY,88,21 433 408
DLACPY,88,22 433 407
XY,89,21 433 406
DLACPY,89,22 433 405
XY,90,21 433 404
DLACPY,90,22 433 403
XY,91,21 433 402
DLACPY,91,22 433 401
XY,92,21 439 400
XY,93,21 439 399
XY,94,21 439 398
XY,95,21 439 397
XY,104,21 427 396
XY,105,21 427 395
XY,106,21 427 394
XY,107,21 427 393
XY,112,21 442 392
DLACPY,112,22 442 391
XY,113,21 442 390
DLACPY,113,22 442 389
XY,114,21 442 388
DLACPY,114,22 442 387
XY,115,21 442 386
DLACPY,115,22 442 385
XY,64,21 426 384
DLACPY,64,22 426 383
XY,65,21 426 382
DLACPY,65,22 426 381
XY,66,21 426 380
DLACPY,66,22 426 379
XY,67,21 426 378
DLACPY,67,22 426 377
XY,116,21 426 376
XY,117,21 426 375
XY,118,21 426 374
XY,119,21 426 373
DLACPY,119,22 441 372
DLACPY,118,22 441 371
DLACPY,117,22 441 370
DLACPY,116,22 441 369
XY,108,21 441 368
DLACPY,108,22 441 367
XY,109,21 441 366
DLACPY,109,22 441 365
XY,110,21 441 364
DLACPY,110,22 441 363
XY,111,21 441 362
DLACPY,111,22 441 361
XY,12,21 432 360
DLACPY,12,22 432 359
XY,13,21 432 358
DLACPY,13,22 432 357
XY,14,21 432 356
DLACPY,14,22 432 355
XY,15,21 432 354
DLACPY,15,22 432 353
XY,120,21 432 352
DLACPY,120,22 432 351
XY,121,21 432 350
DLACPY,121,22 432 349
XY,122,21 432 348
DLACPY,122,22 432 347
XY,123,21 432 346
DLACPY,123,22 432 345
XY,4,22 440 344
DLACPY,4,23 440 343
XY,5,22 440 342
DLACPY,5,23 440 341
XY,6,22 440 340
DLACPY,6,23 440 339
XY,7,22 440 338
DLACPY,7,23 440 337
XY,20,21 438 336
XY,21,21 438 335
XY,22,21 438 334
XY,23,21 438 333
XY,8,22 438 332
XY,9,22 438 331
XY,10,22 438 330
XY,11,22 438 329
DLACPY,11,23 444 328
DLACPY,10,23 444 327
DLACPY,9,23 444 326
DLACPY,8,23 444 325
XY,52,21 444 324
XY,53,21 444 323
XY,54,21 444 322
XY,55,21 444 321
DLACPY,55,22 446 320
DLACPY,54,22 446 319
DLACPY,53,22 446 318
DLACPY,52,22 446 317
XY,96,21 446 316
DLACPY,96,22 446 315
XY,97,21 446 314
DLACPY,97,22 446 313
XY,98,21 446 312
DLACPY,98,22 446 311
XY,99,21 446 310
DLACPY,99,22 446 309
DLACPY,23,22 443 308
DLACPY,22,22 443 307
DLACPY,21,22 443 306
DLACPY,20,22 443 305
DLACPY,107,22 443 304
DLACPY,106,22 443 303
DLACPY,105,22 443 302
DLACPY,104,22 443 301
XY,0,21 449 300
DLACPY,0,22 449 299
XY,1,21 449 298
DLACPY,1,22 449 297
XY,2,21 449 296
DLACPY,2,22 449 295
XY,3,21 449 294
DLACPY,3,22 449 293
XY,12,22 449 292
DLACPY,12,23 449 291
XY,13,22 449 290
DLACPY,13,23 449 289
XY,14,22 449 288
DLACPY,14,23 449 287
XY,15,22 449 286
DLACPY,15,23 449 285
XY,20,22 415 284
DLACPY,20,23 415 283
XY,21,22 415 282
DLACPY,21,23 415 281
XY,22,22 415 280
DLACPY,22,23 415 279
XY,23,22 415 278
DLACPY,23,23 415 277
XY,28,22 417 276
DLACPY,28,23 417 275
XY,29,22 417 274
DLACPY,29,23 417 273
XY,30,22 417 272
DLACPY,30,23 417 271
XY,31,22 417 270
DLACPY,31,23 417 269
XY,36,22 416 268
XY,37,22 416 267
XY,38,22 416 266
XY,39,22 416 265
XY,40,22 416 264
XY,41,22 416 263
XY,42,22 416 262
XY,43,22 416 261
DLACPY,43,23 419 260
DLACPY,42,23 419 259
DLACPY,41,23 419 258
DLACPY,40,23 419 257
XY,32,22 419 256
DLACPY,32,23 419 255
XY,33,22 419 254
DLACPY,33,23 419 253
XY,34,22 419 252
DLACPY,34,23 419 251
XY,35,22 419 250
DLACPY,35,23 419 249
DLACPY,39,23 421 248
DLACPY,38,23 421 247
DLACPY,37,23 421 246
DLACPY,36,23 421 245
XY,44,22 421 244
DLACPY,44,23 421 243
XY,45,22 421 242
DLACPY,45,23 421 241
XY,46,22 421 240
DLACPY,46,23 421 239
XY,47,22 421 238
DLACPY,47,23 421 237
XY,72,21 423 236
DLACPY,72,22 423 235
XY,73,21 423 234
DLACPY,73,22 423 233
XY,74,21 423 232
DLACPY,74,22 423 231
XY,75,21 423 230
DLACPY,75,22 423 229
XY,48,22 423 228
DLACPY,48,23 423 227
XY,49,22 423 226
DLACPY,49,23 423 225
XY,50,22 423 224
DLACPY,50,23 423 223
XY,51,22 423 222
DLACPY,51,23 423 221
XY,36,21 430 220
DLACPY,36,22 430 219
XY,37,21 430 218
DLACPY,37,22 430 217
XY,38,21 430 216
DLACPY,38,22 430 215
XY,39,21 430 214
DLACPY,39,22 430 213
XY,52,22 430 212
XY,53,22 430 211
XY,54,22 430 210
XY,55,22 430 209
DLACPY,55,23 448 208
DLACPY,54,23 448 207
DLACPY,53,23 448 206
DLACPY,52,23 448 205
DLACPY,95,22 448 204
DLACPY,94,22 448 203
DLACPY,93,22 448 202
DLACPY,92,22 448 201
XY,68,21 448 200
DLACPY,68,22 448 199
XY,69,21 448 198
DLACPY,69,22 448 197
XY,70,21 448 196
DLACPY,70,22 448 195
XY,71,21 448 194
DLACPY,71,22 448 193
XY,60,21 437 192
DLACPY,60,22 437 191
XY,61,21 437 190
DLACPY,61,22 437 189
XY,62,21 437 188
DLACPY,62,22 437 187
XY,63,21 437 186
DLACPY,63,22 437 185
XY,56,22 437 184
DLACPY,56,23 437 183
XY,57,22 437 182
DLACPY,57,23 437 181
XY,58,22 437 180
DLACPY,58,23 437 179
XY,59,22 437 178
DLACPY,59,23 437 177
XY,24,21 412 176
DLACPY,24,22 412 175
XY,25,21 412 174
DLACPY,25,22 412 173
XY,26,21 412 172
DLACPY,26,22 412 171
XY,27,21 412 170
DLACPY,27,22 412 169
XY,68,22 412 168
DLACPY,68,23 412 167
XY,69,22 412 166
DLACPY,69,23 412 165
XY,70,22 412 164
DLACPY,70,23 412 163
XY,71,22 412 162
DLACPY,71,23 412 161
XY,0,22 414 160
DLACPY,0,23 414 159
XY,1,22 414 158
DLACPY,1,23 414 157
XY,2,22 414 156
DLACPY,2,23 414 155
XY,3,22 414 154
DLACPY,3,23 414 153
XY,76,22 414 152
DLACPY,76,23 414 151
XY,77,22 414 150
DLACPY,77,23 414 149
XY,78,22 414 148
DLACPY,78,23 414 147
XY,79,22 414 146
DLACPY,79,23 414 145
XY,24,22 424 144
DLACPY,24,23 424 143
XY,25,22 424 142
DLACPY,25,23 424 141
XY,26,22 424 140
DLACPY,26,23 424 139
XY,27,22 424 138
DLACPY,27,23 424 137
XY,80,22 424 136
DLACPY,80,23 424 135
XY,81,22 424 134
DLACPY,81,23 424 133
XY,82,22 424 132
DLACPY,82,23 424 131
XY,83,22 424 130
DLACPY,83,23 424 129
XY,16,22 425 128
DLACPY,16,23 425 127
XY,17,22 425 126
DLACPY,17,23 425 125
XY,18,22 425 124
DLACPY,18,23 425 123
XY,19,22 425 122
DLACPY,19,23 425 121
XY,84,22 425 120
DLACPY,84,23 425 119
XY,85,22 425 118
DLACPY,85,23 425 117
XY,86,22 425 116
DLACPY,86,23 425 115
XY,87,22 425 114
DLACPY,87,23 425 113
XY,88,22 422 112
DLACPY,88,23 422 111
XY,89,22 422 110
DLACPY,89,23 422 109
XY,90,22 422 108
DLACPY,90,23 422 107
XY,91,22 422 106
DLACPY,91,23 422 105
XY,80,21 436 104
DLACPY,80,22 436 103
XY,81,21 436 102
DLACPY,81,22 436 101
XY,82,21 436 100
DLACPY,82,22 436 99
XY,83,21 436 98
DLACPY,83,22 436 97
XY,92,22 436 96
DLACPY,92,23 436 95
XY,93,22 436 94
DLACPY,93,23 436 93
XY,94,22 436 92
DLACPY,94,23 436 91
XY,95,22 436 90
DLACPY,95,23 436 89
XY,100,22 420 88
DLACPY,100,23 420 87
XY,101,22 420 86
DLACPY,101,23 420 85
XY,102,22 420 84
DLACPY,102,23 420 83
XY,103,22 420 82
DLACPY,103,23 420 81
XY,100,21 445 80
DLACPY,100,22 445 79
XY,101,21 445 78
DLACPY,101,22 445 77
XY,102,21 445 76
DLACPY,102,22 445 75
XY,103,21 445 74
DLACPY,103,22 445 73
XY,104,22 445 72
DLACPY,104,23 445 71
XY,105,22 445 70
DLACPY,105,23 445 69
XY,106,22 445 68
DLACPY,106,23 445 67
XY,107,22 445 66
DLACPY,107,23 445 65
XY,64,22 413 64
DLACPY,64,23 413 63
XY,65,22 413 62
DLACPY,65,23 413 61
XY,66,22 413 60
DLACPY,66,23 413 59
XY,67,22 413 58
DLACPY,67,23 413 57
XY,108,22 413 56
DLACPY,108,23 413 55
XY,109,22 413 54
DLACPY,109,23 413 53
XY,110,22 413 52
DLACPY,110,23 413 51
XY,111,22 413 50
DLACPY,111,23 413 49
XY,72,22 411 48
DLACPY,72,23 411 47
XY,73,22 411 46
DLACPY,73,23 411 45
XY,74,22 411 44
DLACPY,74,23 411 43
XY,75,22 411 42
DLACPY,75,23 411 41
XY,112,22 411 40
DLACPY,112,23 411 39
XY,113,22 411 38
DLACPY,113,23 411 37
XY,114,22 411 36
DLACPY,114,23 411 35
XY,115,22 411 34
DLACPY,115,23 411 33
XY,84,21 435 32
DLACPY,84,22 435 31
XY,85,21 435 30
DLACPY,85,22 435 29
XY,86,21 435 28
DLACPY,86,22 435 27
XY,87,21 435 26
DLACPY,87,22 435 25
XY,116,22 435 24
DLACPY,116,23 435 23
XY,117,22 435 22
DLACPY,117,23 435 21
XY,118,22 435 20
DLACPY,118,23 435 19
XY,119,22 435 18
DLACPY,119,23 435 17
XY,76,21 450 16
DLACPY,76,22 450 15
XY,77,21 450 14
DLACPY,77,22 450 13
XY,78,21 450 12
DLACPY,78,22 450 11
XY,79,21 450 10
DLACPY,79,22 450 9
XY,120,22 450 8
DLACPY,120,23 450 7
XY,121,22 450 6
DLACPY,121,23 450 5
XY,122,22 450 4
DLACPY,122,23 450 3
XY,123,22 450 2
DLACPY,123,23 450 1
