SETZERO,15,1 122 703
SETZERO,14,1 122 702
SETZERO,13,1 122 701
SETZERO,12,1 122 700
SETZERO,11,1 122 699
SETZERO,10,1 122 698
SETZERO,9,1 122 697
SETZERO,8,1 122 696
SETZERO,25,1 2 695
SETZERO,24,1 2 694
SETZERO,23,1 2 693
SETZERO,22,1 2 692
SETZERO,21,1 2 691
SETZERO,20,1 2 690
SETZERO,19,1 2 689
SETZERO,18,1 2 688
SETZERO,17,1 2 687
SETZERO,16,1 2 686
_X,15 1 685
XTY,15,15,20 1 684
_X,14 1 683
XTY,14,14,20 1 682
_X,13 1 681
XTY,13,13,20 1 680
_X,12 1 679
XTY,12,12,20 1 678
_X,11 1 677
XTY,11,11,20 1 676
_X,10 1 675
XTY,10,10,20 1 674
_X,9 1 673
XTY,9,9,20 1 672
_X,8 1 671
XTY,8,8,20 1 670
_X,23 0 669
XTY,23,3,20 0 668
_X,22 0 667
XTY,22,2,20 0 666
_X,21 0 665
XTY,21,1,20 0 664
_X,20 0 663
XTY,20,0,20 0 662
_X,19 0 661
XTY,19,19,20 0 660
_X,18 0 659
XTY,18,18,20 0 658
_X,17 0 657
XTY,17,17,20 0 656
_X,16 0 655
XTY,16,16,20 0 654
_X,7 0 653
XTY,7,7,20 0 652
_X,6 0 651
XTY,6,6,20 0 650
_X,5 0 649
XTY,5,5,20 0 648
_X,4 0 647
XTY,4,4,20 0 646
_X,3 0 645
XTY,3,3,20 0 644
_X,2 0 643
XTY,2,2,20 0 642
_X,1 0 641
XTY,1,1,20 0 640
_X,0 0 639
XTY,0,0,20 0 638
_X,25 3 637
XTY,25,5,20 3 636
_X,24 3 635
XTY,24,4,20 3 634
RED,XBXBUF,0 3 633
CHOL,XBX 4 632
DLACPY,0,20 5 631
INV,XBX 5 630
XY,0,20 47 629
XY,1,20 47 628
XY,2,20 47 627
XY,3,20 47 626
XY,4,20 47 625
XY,5,20 47 624
XY,6,20 47 623
XY,7,20 47 622
DLACPY,7,21 54 621
SPMM,16,7,0 54 620
SPMM,17,7,0 54 619
SPMM,18,7,0 54 618
SPMM,19,7,0 54 617
SPMM,20,7,0 54 616
SPMM,21,7,0 54 615
SPMM,22,7,0 54 614
SPMM,23,7,0 54 613
DLACPY,6,21 54 612
DLACPY,5,21 54 611
DLACPY,4,21 54 610
DLACPY,3,21 54 609
DLACPY,2,21 54 608
DLACPY,1,21 54 607
DLACPY,0,21 54 606
SPMM,24,7,0 61 605
SPMM,25,7,0 61 604
SPMM,9,0,0 145 603
SPMM,10,0,0 145 602
SPMM,12,0,0 145 601
SPMM,13,0,0 145 600
SPMM,9,1,0 145 599
SPMM,10,1,0 145 598
SPMM,12,1,0 145 597
SPMM,13,1,0 145 596
SPMM,9,2,0 145 595
SPMM,10,2,0 145 594
SPMM,12,2,0 145 593
SPMM,13,2,0 145 592
SPMM,8,7,0 145 591
SPMM,9,7,0 145 590
SPMM,10,7,0 145 589
SPMM,11,7,0 145 588
SPMM,12,7,0 145 587
SPMM,13,7,0 145 586
SPMM,14,7,0 145 585
SPMM,15,7,0 145 584
XY,8,20 20 583
XY,9,20 20 582
XY,10,20 20 581
XY,11,20 20 580
XY,12,20 20 579
XY,13,20 20 578
XY,14,20 20 577
XY,15,20 20 576
DLACPY,15,21 26 575
DLACPY,14,21 26 574
DLACPY,13,21 26 573
DLACPY,12,21 26 572
DLACPY,11,21 26 571
DLACPY,10,21 26 570
DLACPY,9,21 26 569
DLACPY,8,21 26 568
SPMM,8,8,0 152 567
SPMM,9,8,0 152 566
SPMM,11,8,0 152 565
SPMM,12,8,0 152 564
SPMM,13,8,0 152 563
SPMM,14,8,0 152 562
SPMM,15,8,0 152 561
SPMM,8,9,0 152 560
SPMM,9,9,0 152 559
SPMM,10,9,0 152 558
SPMM,11,9,0 152 557
SPMM,12,9,0 152 556
SPMM,13,9,0 152 555
SPMM,14,9,0 152 554
SPMM,15,9,0 152 553
SPMM,9,10,0 152 552
SPMM,10,10,0 152 551
SPMM,11,10,0 152 550
SPMM,12,10,0 152 549
SPMM,13,10,0 152 548
SPMM,14,10,0 152 547
SPMM,15,10,0 152 546
SPMM,8,11,0 152 545
SPMM,9,11,0 152 544
SPMM,10,11,0 152 543
SPMM,11,11,0 152 542
SPMM,12,11,0 152 541
SPMM,13,11,0 152 540
SPMM,14,11,0 152 539
SPMM,15,11,0 152 538
SPMM,8,12,0 152 537
SPMM,9,12,0 152 536
SPMM,10,12,0 152 535
SPMM,11,12,0 152 534
SPMM,12,12,0 152 533
SPMM,13,12,0 152 532
SPMM,14,12,0 152 531
SPMM,15,12,0 152 530
SPMM,8,13,0 152 529
SPMM,9,13,0 152 528
SPMM,10,13,0 152 527
SPMM,11,13,0 152 526
SPMM,12,13,0 152 525
SPMM,13,13,0 152 524
SPMM,14,13,0 152 523
SPMM,15,13,0 152 522
SPMM,8,14,0 152 521
SPMM,9,14,0 152 520
SPMM,10,14,0 152 519
SPMM,11,14,0 152 518
SPMM,12,14,0 152 517
SPMM,13,14,0 152 516
SPMM,14,14,0 152 515
SPMM,15,14,0 152 514
SPMM,8,15,0 152 513
SPMM,9,15,0 152 512
SPMM,10,15,0 152 511
SPMM,11,15,0 152 510
SPMM,12,15,0 152 509
SPMM,13,15,0 152 508
SPMM,14,15,0 152 507
SPMM,15,15,0 152 506
SPMM,16,8,0 32 505
SPMM,17,8,0 32 504
SPMM,18,8,0 32 503
SPMM,19,8,0 32 502
SPMM,20,8,0 32 501
SPMM,21,8,0 32 500
SPMM,22,8,0 32 499
SPMM,23,8,0 32 498
SPMM,16,9,0 32 497
SPMM,17,9,0 32 496
SPMM,18,9,0 32 495
SPMM,19,9,0 32 494
SPMM,20,9,0 32 493
SPMM,21,9,0 32 492
SPMM,22,9,0 32 491
SPMM,23,9,0 32 490
SPMM,16,10,0 32 489
SPMM,17,10,0 32 488
SPMM,18,10,0 32 487
SPMM,19,10,0 32 486
SPMM,20,10,0 32 485
SPMM,21,10,0 32 484
SPMM,22,10,0 32 483
SPMM,23,10,0 32 482
SPMM,16,11,0 32 481
SPMM,17,11,0 32 480
SPMM,18,11,0 32 479
SPMM,19,11,0 32 478
SPMM,20,11,0 32 477
SPMM,21,11,0 32 476
SPMM,22,11,0 32 475
SPMM,23,11,0 32 474
SPMM,16,12,0 32 473
SPMM,17,12,0 32 472
SPMM,18,12,0 32 471
SPMM,19,12,0 32 470
SPMM,20,12,0 32 469
SPMM,21,12,0 32 468
SPMM,22,12,0 32 467
SPMM,23,12,0 32 466
SPMM,16,13,0 32 465
SPMM,17,13,0 32 464
SPMM,18,13,0 32 463
SPMM,19,13,0 32 462
SPMM,20,13,0 32 461
SPMM,21,13,0 32 460
SPMM,22,13,0 32 459
SPMM,23,13,0 32 458
SPMM,16,14,0 32 457
SPMM,17,14,0 32 456
SPMM,18,14,0 32 455
SPMM,19,14,0 32 454
SPMM,20,14,0 32 453
SPMM,21,14,0 32 452
SPMM,22,14,0 32 451
SPMM,23,14,0 32 450
SPMM,16,15,0 32 449
SPMM,17,15,0 32 448
SPMM,18,15,0 32 447
SPMM,19,15,0 32 446
SPMM,20,15,0 32 445
SPMM,21,15,0 32 444
SPMM,22,15,0 32 443
SPMM,23,15,0 32 442
SPMM,24,8,0 39 441
SPMM,25,8,0 39 440
SPMM,24,9,0 39 439
SPMM,25,9,0 39 438
SPMM,24,10,0 39 437
SPMM,25,10,0 39 436
SPMM,24,11,0 39 435
SPMM,25,11,0 39 434
SPMM,24,12,0 39 433
SPMM,25,12,0 39 432
SPMM,24,13,0 39 431
SPMM,25,13,0 39 430
SPMM,24,14,0 39 429
SPMM,25,14,0 39 428
SPMM,24,15,0 39 427
SPMM,25,15,0 39 426
XY,16,20 69 425
XY,17,20 69 424
XY,18,20 69 423
XY,19,20 69 422
XY,20,20 69 421
XY,21,20 69 420
XY,22,20 69 419
XY,23,20 69 418
DLACPY,23,21 90 417
SPMM,16,23,0 90 416
SPMM,17,23,0 90 415
SPMM,18,23,0 90 414
SPMM,19,23,0 90 413
SPMM,20,23,0 90 412
SPMM,21,23,0 90 411
SPMM,22,23,0 90 410
SPMM,23,23,0 90 409
DLACPY,22,21 90 408
SPMM,16,22,0 90 407
SPMM,17,22,0 90 406
SPMM,18,22,0 90 405
SPMM,19,22,0 90 404
SPMM,20,22,0 90 403
SPMM,21,22,0 90 402
SPMM,22,22,0 90 401
SPMM,23,22,0 90 400
DLACPY,21,21 90 399
SPMM,16,21,0 90 398
SPMM,17,21,0 90 397
SPMM,18,21,0 90 396
SPMM,19,21,0 90 395
SPMM,20,21,0 90 394
SPMM,21,21,0 90 393
SPMM,22,21,0 90 392
SPMM,23,21,0 90 391
DLACPY,20,21 90 390
SPMM,16,20,0 90 389
SPMM,17,20,0 90 388
SPMM,18,20,0 90 387
SPMM,19,20,0 90 386
SPMM,20,20,0 90 385
SPMM,21,20,0 90 384
SPMM,22,20,0 90 383
SPMM,23,20,0 90 382
DLACPY,19,21 90 381
SPMM,16,19,0 90 380
SPMM,17,19,0 90 379
SPMM,18,19,0 90 378
SPMM,19,19,0 90 377
SPMM,20,19,0 90 376
SPMM,21,19,0 90 375
SPMM,22,19,0 90 374
SPMM,23,19,0 90 373
DLACPY,18,21 90 372
SPMM,16,18,0 90 371
SPMM,17,18,0 90 370
SPMM,18,18,0 90 369
SPMM,19,18,0 90 368
SPMM,20,18,0 90 367
SPMM,21,18,0 90 366
SPMM,22,18,0 90 365
SPMM,23,18,0 90 364
DLACPY,17,21 90 363
SPMM,16,17,0 90 362
SPMM,17,17,0 90 361
SPMM,18,17,0 90 360
SPMM,19,17,0 90 359
SPMM,20,17,0 90 358
SPMM,21,17,0 90 357
SPMM,22,17,0 90 356
SPMM,23,17,0 90 355
DLACPY,16,21 90 354
SPMM,16,16,0 90 353
SPMM,17,16,0 90 352
SPMM,18,16,0 90 351
SPMM,19,16,0 90 350
SPMM,20,16,0 90 349
SPMM,21,16,0 90 348
SPMM,22,16,0 90 347
SPMM,23,16,0 90 346
SPMM,8,16,0 138 345
SPMM,9,16,0 138 344
SPMM,10,16,0 138 343
SPMM,11,16,0 138 342
SPMM,12,16,0 138 341
SPMM,13,16,0 138 340
SPMM,14,16,0 138 339
SPMM,15,16,0 138 338
SPMM,8,17,0 138 337
SPMM,9,17,0 138 336
SPMM,10,17,0 138 335
SPMM,11,17,0 138 334
SPMM,12,17,0 138 333
SPMM,13,17,0 138 332
SPMM,14,17,0 138 331
SPMM,15,17,0 138 330
SPMM,8,18,0 138 329
SPMM,9,18,0 138 328
SPMM,10,18,0 138 327
SPMM,11,18,0 138 326
SPMM,12,18,0 138 325
SPMM,13,18,0 138 324
SPMM,14,18,0 138 323
SPMM,15,18,0 138 322
SPMM,8,19,0 138 321
SPMM,9,19,0 138 320
SPMM,10,19,0 138 319
SPMM,11,19,0 138 318
SPMM,12,19,0 138 317
SPMM,13,19,0 138 316
SPMM,14,19,0 138 315
SPMM,15,19,0 138 314
SPMM,8,20,0 138 313
SPMM,9,20,0 138 312
SPMM,10,20,0 138 311
SPMM,11,20,0 138 310
SPMM,12,20,0 138 309
SPMM,13,20,0 138 308
SPMM,14,20,0 138 307
SPMM,15,20,0 138 306
SPMM,8,21,0 138 305
SPMM,9,21,0 138 304
SPMM,10,21,0 138 303
SPMM,11,21,0 138 302
SPMM,12,21,0 138 301
SPMM,13,21,0 138 300
SPMM,14,21,0 138 299
SPMM,15,21,0 138 298
SPMM,8,22,0 138 297
SPMM,9,22,0 138 296
SPMM,10,22,0 138 295
SPMM,11,22,0 138 294
SPMM,12,22,0 138 293
SPMM,13,22,0 138 292
SPMM,14,22,0 138 291
SPMM,15,22,0 138 290
SPMM,8,23,0 138 289
SPMM,9,23,0 138 288
SPMM,10,23,0 138 287
SPMM,11,23,0 138 286
SPMM,12,23,0 138 285
SPMM,13,23,0 138 284
SPMM,14,23,0 138 283
SPMM,15,23,0 138 282
SPMM,24,16,0 98 281
SPMM,25,16,0 98 280
SPMM,24,17,0 98 279
SPMM,25,17,0 98 278
SPMM,24,18,0 98 277
SPMM,25,18,0 98 276
SPMM,24,19,0 98 275
SPMM,25,19,0 98 274
SPMM,24,20,0 98 273
SPMM,25,20,0 98 272
SPMM,24,21,0 98 271
SPMM,25,21,0 98 270
SPMM,24,22,0 98 269
SPMM,25,22,0 98 268
SPMM,24,23,0 98 267
SPMM,25,23,0 98 266
XY,24,20 12 265
XY,25,20 12 264
DLACPY,25,21 76 263
SPMM,24,25,0 76 262
SPMM,25,25,0 76 261
DLACPY,24,21 76 260
SPMM,24,24,0 76 259
SPMM,25,24,0 76 258
SETZERO,7,1 106 257
SPMM,7,24,0 106 256
SPMM,7,25,0 106 255
SETZERO,6,1 106 254
SETZERO,5,1 106 253
SETZERO,4,1 106 252
SETZERO,3,1 106 251
SETZERO,2,1 106 250
SETZERO,1,1 106 249
SETZERO,0,1 106 248
SPMM,7,16,0 113 247
SPMM,7,17,0 113 246
SPMM,7,18,0 113 245
SPMM,7,19,0 113 244
SPMM,7,20,0 113 243
SPMM,7,21,0 113 242
SPMM,7,22,0 113 241
SPMM,7,23,0 113 240
SPMM,0,9,0 121 239
SPMM,0,10,0 121 238
SPMM,0,12,0 121 237
SPMM,0,13,0 121 236
SPMM,1,9,0 121 235
SPMM,1,10,0 121 234
SPMM,1,12,0 121 233
SPMM,1,13,0 121 232
SPMM,2,9,0 121 231
SPMM,2,10,0 121 230
SPMM,2,12,0 121 229
SPMM,2,13,0 121 228
SPMM,7,8,0 121 227
SPMM,7,9,0 121 226
SPMM,7,10,0 121 225
SPMM,7,11,0 121 224
SPMM,7,12,0 121 223
SPMM,7,13,0 121 222
SPMM,7,14,0 121 221
SPMM,7,15,0 121 220
SPMM,0,0,0 130 219
SPMM,0,1,0 130 218
SPMM,0,5,0 130 217
XTY,0,0,21 130 216
SPMM,1,0,0 130 215
SPMM,1,1,0 130 214
SPMM,1,2,0 130 213
SPMM,1,3,0 130 212
SPMM,1,4,0 130 211
SPMM,1,5,0 130 210
SPMM,1,6,0 130 209
SPMM,1,7,0 130 208
XTY,1,1,21 130 207
SPMM,2,1,0 130 206
SPMM,2,2,0 130 205
SPMM,2,3,0 130 204
SPMM,2,4,0 130 203
SPMM,2,5,0 130 202
SPMM,2,6,0 130 201
SPMM,2,7,0 130 200
XTY,2,2,21 130 199
SPMM,3,1,0 130 198
SPMM,3,2,0 130 197
SPMM,3,3,0 130 196
SPMM,3,4,0 130 195
SPMM,3,5,0 130 194
SPMM,3,6,0 130 193
SPMM,3,7,0 130 192
XTY,3,3,21 130 191
SPMM,4,1,0 130 190
SPMM,4,2,0 130 189
SPMM,4,3,0 130 188
SPMM,4,4,0 130 187
SPMM,4,5,0 130 186
SPMM,4,6,0 130 185
SPMM,4,7,0 130 184
XTY,4,4,21 130 183
SPMM,5,0,0 130 182
SPMM,5,1,0 130 181
SPMM,5,2,0 130 180
SPMM,5,3,0 130 179
SPMM,5,4,0 130 178
SPMM,5,5,0 130 177
SPMM,5,6,0 130 176
SPMM,5,7,0 130 175
XTY,5,5,21 130 174
SPMM,6,1,0 130 173
SPMM,6,2,0 130 172
SPMM,6,3,0 130 171
SPMM,6,4,0 130 170
SPMM,6,5,0 130 169
SPMM,6,6,0 130 168
SPMM,6,7,0 130 167
XTY,6,6,21 130 166
SPMM,7,1,0 130 165
SPMM,7,2,0 130 164
SPMM,7,3,0 130 163
SPMM,7,4,0 130 162
SPMM,7,5,0 130 161
SPMM,7,6,0 130 160
SPMM,7,7,0 130 159
XTY,7,7,21 130 158
SPMM,8,24,0 159 157
SPMM,9,24,0 159 156
SPMM,10,24,0 159 155
SPMM,11,24,0 159 154
SPMM,12,24,0 159 153
SPMM,13,24,0 159 152
SPMM,14,24,0 159 151
SPMM,15,24,0 159 150
SPMM,8,25,0 159 149
XTY,8,8,21 159 148
SPMM,9,25,0 159 147
XTY,9,9,21 159 146
SPMM,10,25,0 159 145
XTY,10,10,21 159 144
SPMM,11,25,0 159 143
XTY,11,11,21 159 142
SPMM,12,25,0 159 141
XTY,12,12,21 159 140
SPMM,13,25,0 159 139
XTY,13,13,21 159 138
SPMM,14,25,0 159 137
XTY,14,14,21 159 136
SPMM,15,25,0 159 135
XTY,15,15,21 159 134
SPMM,16,24,0 83 133
SPMM,17,24,0 83 132
SPMM,18,24,0 83 131
SPMM,19,24,0 83 130
SPMM,20,24,0 83 129
SPMM,21,24,0 83 128
SPMM,22,24,0 83 127
SPMM,23,24,0 83 126
SPMM,16,25,0 83 125
SPMM,17,25,0 83 124
SPMM,18,25,0 83 123
SPMM,19,25,0 83 122
SPMM,20,25,0 83 121
SPMM,21,25,0 83 120
SPMM,22,25,0 83 119
SPMM,23,25,0 83 118
XTY,23,3,21 91 117
XTY,22,2,21 91 116
XTY,21,1,21 91 115
XTY,20,0,21 91 114
XTY,19,19,21 91 113
XTY,18,18,21 91 112
XTY,17,17,21 91 111
XTY,16,16,21 91 110
XTY,25,5,21 99 109
XTY,24,4,21 99 108
RED,XAXBUF,0 160 107
SPEUPDATE,XAX 161 106
EIGEN 161 105
XY,0,21 167 104
DLACPY,0,22 167 103
XY,1,21 167 102
DLACPY,1,22 167 101
XY,2,21 167 100
DLACPY,2,22 167 99
XY,3,21 167 98
DLACPY,3,22 167 97
XY,4,21 167 96
DLACPY,4,22 167 95
XY,5,21 167 94
DLACPY,5,22 167 93
XY,6,21 167 92
DLACPY,6,22 167 91
XY,7,21 167 90
DLACPY,7,22 167 89
XY,8,21 164 88
DLACPY,8,22 164 87
XY,9,21 164 86
DLACPY,9,22 164 85
XY,10,21 164 84
DLACPY,10,22 164 83
XY,11,21 164 82
DLACPY,11,22 164 81
XY,12,21 164 80
DLACPY,12,22 164 79
XY,13,21 164 78
DLACPY,13,22 164 77
XY,14,21 164 76
DLACPY,14,22 164 75
XY,15,21 164 74
DLACPY,15,22 164 73
XY,16,21 168 72
DLACPY,16,22 168 71
XY,17,21 168 70
DLACPY,17,22 168 69
XY,18,21 168 68
DLACPY,18,22 168 67
XY,19,21 168 66
DLACPY,19,22 168 65
XY,20,21 168 64
DLACPY,20,22 168 63
XY,21,21 168 62
DLACPY,21,22 168 61
XY,22,21 168 60
DLACPY,22,22 168 59
XY,23,21 168 58
DLACPY,23,22 168 57
XY,24,21 165 56
DLACPY,24,22 165 55
XY,25,21 165 54
DLACPY,25,22 165 53
XY,0,22 169 52
DLACPY,0,23 169 51
XY,1,22 169 50
DLACPY,1,23 169 49
XY,2,22 169 48
DLACPY,2,23 169 47
XY,3,22 169 46
DLACPY,3,23 169 45
XY,4,22 169 44
DLACPY,4,23 169 43
XY,5,22 169 42
DLACPY,5,23 169 41
XY,6,22 169 40
DLACPY,6,23 169 39
XY,7,22 169 38
DLACPY,7,23 169 37
XY,8,22 163 36
DLACPY,8,23 163 35
XY,9,22 163 34
DLACPY,9,23 163 33
XY,10,22 163 32
DLACPY,10,23 163 31
XY,11,22 163 30
DLACPY,11,23 163 29
XY,12,22 163 28
DLACPY,12,23 163 27
XY,13,22 163 26
DLACPY,13,23 163 25
XY,14,22 163 24
DLACPY,14,23 163 23
XY,15,22 163 22
DLACPY,15,23 163 21
XY,16,22 166 20
DLACPY,16,23 166 19
XY,17,22 166 18
DLACPY,17,23 166 17
XY,18,22 166 16
DLACPY,18,23 166 15
XY,19,22 166 14
DLACPY,19,23 166 13
XY,20,22 166 12
DLACPY,20,23 166 11
XY,21,22 166 10
DLACPY,21,23 166 9
XY,22,22 166 8
DLACPY,22,23 166 7
XY,23,22 166 6
DLACPY,23,23 166 5
XY,24,22 162 4
DLACPY,24,23 162 3
XY,25,22 162 2
DLACPY,25,23 162 1
