SETZERO,25,1 33 1051
SETZERO,24,1 33 1050
RESET,RN 33 1049
SETZERO,23,1 16 1048
SETZERO,22,1 16 1047
SETZERO,21,1 16 1046
SETZERO,20,1 16 1045
SETZERO,19,1 16 1044
SETZERO,18,1 16 1043
SETZERO,17,1 16 1042
SETZERO,16,1 16 1041
_X,23 3 1040
_X,22 3 1039
_X,21 3 1038
_X,20 3 1037
_X,19 3 1036
_X,18 3 1035
_X,17 3 1034
_X,16 3 1033
_lambda 9 1032
XY,16,1 9 1031
XY,17,1 9 1030
XY,18,1 9 1029
XY,19,1 9 1028
XY,20,1 9 1027
XY,21,1 9 1026
XY,22,1 9 1025
XY,23,1 9 1024
_AX,23 24 1023
SUB,23,1 24 1022
_AX,22 24 1021
SUB,22,1 24 1020
_AX,21 24 1019
SUB,21,1 24 1018
_AX,20 24 1017
SUB,20,1 24 1016
_AX,19 24 1015
SUB,19,1 24 1014
_AX,18 24 1013
SUB,18,1 24 1012
_AX,17 24 1011
SUB,17,1 24 1010
_AX,16 24 1009
SUB,16,1 24 1008
MULT,16 32 1007
MULT,17 32 1006
MULT,18 32 1005
MULT,19 32 1004
MULT,20 32 1003
MULT,21 32 1002
MULT,22 32 1001
MULT,23 32 1000
COL,23,3 37 999
COL,22,2 37 998
COL,21,1 37 997
COL,20,0 37 996
COL,19,19 37 995
COL,18,18 37 994
COL,17,17 37 993
COL,16,16 37 992
_X,15 31 991
XY,15,1 31 990
_X,14 31 989
XY,14,1 31 988
_X,13 31 987
XY,13,1 31 986
_X,12 31 985
XY,12,1 31 984
_X,11 31 983
XY,11,1 31 982
_X,10 31 981
XY,10,1 31 980
_X,9 31 979
XY,9,1 31 978
_X,8 31 977
XY,8,1 31 976
_AX,15 39 975
SUB,15,1 39 974
_AX,14 39 973
SUB,14,1 39 972
_AX,13 39 971
SUB,13,1 39 970
_AX,12 39 969
SUB,12,1 39 968
_AX,11 39 967
SUB,11,1 39 966
_AX,10 39 965
SUB,10,1 39 964
_AX,9 39 963
SUB,9,1 39 962
_AX,8 39 961
SUB,8,1 39 960
MULT,8 40 959
MULT,9 40 958
MULT,10 40 957
MULT,11 40 956
MULT,12 40 955
MULT,13 40 954
MULT,14 40 953
MULT,15 40 952
SETZERO,7,1 2 951
SETZERO,6,1 2 950
SETZERO,5,1 2 949
SETZERO,4,1 2 948
SETZERO,3,1 2 947
SETZERO,2,1 2 946
SETZERO,1,1 2 945
SETZERO,0,1 2 944
_X,25 2 943
_X,24 2 942
XY,24,1 22 941
XY,25,1 22 940
_X,7 1 939
_X,6 1 938
_X,5 1 937
_X,4 1 936
_X,3 1 935
_X,2 1 934
_X,1 1 933
_X,0 1 932
XY,0,1 15 931
XY,1,1 15 930
XY,2,1 15 929
XY,3,1 15 928
XY,4,1 15 927
XY,5,1 15 926
XY,6,1 15 925
XY,7,1 15 924
_AX,7 34 923
SUB,7,1 34 922
_AX,6 34 921
SUB,6,1 34 920
_AX,5 34 919
SUB,5,1 34 918
_AX,4 34 917
SUB,4,1 34 916
_AX,3 34 915
SUB,3,1 34 914
_AX,2 34 913
SUB,2,1 34 912
_AX,1 34 911
SUB,1,1 34 910
_AX,0 34 909
SUB,0,1 34 908
MULT,0 35 907
MULT,1 35 906
MULT,2 35 905
MULT,3 35 904
MULT,4 35 903
MULT,5 35 902
MULT,6 35 901
MULT,7 35 900
COL,7,7 36 899
COL,6,6 36 898
COL,5,5 36 897
COL,4,4 36 896
COL,3,3 36 895
COL,2,2 36 894
COL,1,1 36 893
COL,0,0 36 892
SETZERO,15,1 0 891
SETZERO,14,1 0 890
SETZERO,13,1 0 889
SETZERO,12,1 0 888
SETZERO,11,1 0 887
SETZERO,10,1 0 886
SETZERO,9,1 0 885
SETZERO,8,1 0 884
_AX,25 0 883
_AX,24 0 882
SUB,24,1 23 881
SUB,25,1 23 880
MULT,25 38 879
COL,25,5 38 878
MULT,24 38 877
COL,24,4 38 876
COL,15,15 41 875
COL,14,14 41 874
COL,13,13 41 873
COL,12,12 41 872
COL,11,11 41 871
COL,10,10 41 870
COL,9,9 41 869
COL,8,8 41 868
RNRED,RNBUF 41 867
SQRT,RN 42 866
RESET,actMask 42 865
CONV,actMask 42 864
GET,0,1 63 863
XTY,0,0,1 63 862
GET,1,1 63 861
XTY,1,1,1 63 860
GET,2,1 63 859
XTY,2,2,1 63 858
GET,3,1 63 857
XTY,3,3,1 63 856
GET,4,1 63 855
XTY,4,4,1 63 854
GET,5,1 63 853
XTY,5,5,1 63 852
GET,6,1 63 851
XTY,6,6,1 63 850
GET,7,1 63 849
XTY,7,7,1 63 848
GET,8,1 68 847
GET,9,1 68 846
GET,10,1 68 845
GET,11,1 68 844
GET,12,1 68 843
GET,13,1 68 842
GET,14,1 68 841
GET,15,1 68 840
XTY,15,15,1 69 839
XTY,14,14,1 69 838
XTY,13,13,1 69 837
XTY,12,12,1 69 836
XTY,11,11,1 69 835
XTY,10,10,1 69 834
XTY,9,9,1 69 833
XTY,8,8,1 69 832
GET,16,1 56 831
XTY,16,16,1 56 830
GET,17,1 56 829
XTY,17,17,1 56 828
GET,18,1 56 827
XTY,18,18,1 56 826
GET,19,1 56 825
XTY,19,19,1 56 824
GET,20,1 56 823
XTY,20,0,1 56 822
GET,21,1 56 821
XTY,21,1,1 56 820
GET,22,1 56 819
XTY,22,2,1 56 818
GET,23,1 56 817
XTY,23,3,1 56 816
GET,24,1 49 815
XTY,24,4,1 49 814
GET,25,1 49 813
XTY,25,5,1 49 812
RED,temp2BUF,0 70 811
XY,0,2 88 810
SUB,0,2 88 809
XY,1,2 88 808
SUB,1,2 88 807
XY,2,2 88 806
SUB,2,2 88 805
XY,3,2 88 804
SUB,3,2 88 803
XY,4,2 88 802
SUB,4,2 88 801
XY,5,2 88 800
SUB,5,2 88 799
XY,6,2 88 798
SUB,6,2 88 797
XY,7,2 88 796
SUB,7,2 88 795
XTY,7,7,2 89 794
XTY,6,6,2 89 793
XTY,5,5,2 89 792
XTY,4,4,2 89 791
XTY,3,3,2 89 790
XTY,2,2,2 89 789
XTY,1,1,2 89 788
XTY,0,0,2 89 787
XY,8,2 77 786
SUB,8,2 77 785
XY,9,2 77 784
SUB,9,2 77 783
XY,10,2 77 782
SUB,10,2 77 781
XY,11,2 77 780
SUB,11,2 77 779
XY,12,2 77 778
SUB,12,2 77 777
XY,13,2 77 776
SUB,13,2 77 775
XY,14,2 77 774
SUB,14,2 77 773
XY,15,2 77 772
SUB,15,2 77 771
XTY,15,15,2 78 770
XTY,14,14,2 78 769
XTY,13,13,2 78 768
XTY,12,12,2 78 767
XTY,11,11,2 78 766
XTY,10,10,2 78 765
XTY,9,9,2 78 764
XTY,8,8,2 78 763
XY,16,2 71 762
XY,17,2 71 761
XY,18,2 71 760
XY,19,2 71 759
XY,20,2 71 758
XY,21,2 71 757
XY,22,2 71 756
XY,23,2 71 755
SUB,23,2 80 754
SUB,22,2 80 753
SUB,21,2 80 752
SUB,20,2 80 751
SUB,19,2 80 750
SUB,18,2 80 749
SUB,17,2 80 748
SUB,16,2 80 747
XTY,16,16,2 82 746
XTY,17,17,2 82 745
XTY,18,18,2 82 744
XTY,19,19,2 82 743
XTY,20,0,2 82 742
XTY,21,1,2 82 741
XTY,22,2,2 82 740
XTY,23,3,2 82 739
XY,24,2 81 738
XY,25,2 81 737
SUB,25,2 90 736
XTY,25,5,2 90 735
SUB,24,2 90 734
XTY,24,4,2 90 733
RED,RBRBUF,0 90 732
CHOL,RBR 91 731
INV,RBR 91 730
XY,16,3 91 729
XY,17,3 91 728
XY,18,3 91 727
XY,19,3 91 726
XY,20,3 91 725
XY,21,3 91 724
XY,22,3 91 723
XY,23,3 91 722
DLACPY,23,1 125 721
DLACPY,22,1 125 720
DLACPY,21,1 125 719
DLACPY,20,1 125 718
DLACPY,19,1 125 717
DLACPY,18,1 125 716
DLACPY,17,1 125 715
DLACPY,16,1 125 714
SPMM,7,16,0 128 713
SPMM,7,17,0 128 712
SPMM,7,18,0 128 711
SPMM,7,19,0 128 710
SPMM,7,20,0 128 709
SPMM,7,21,0 128 708
SPMM,7,22,0 128 707
SPMM,7,23,0 128 706
SPMM,24,16,0 129 705
SPMM,25,16,0 129 704
SPMM,24,17,0 129 703
SPMM,25,17,0 129 702
SPMM,24,18,0 129 701
SPMM,25,18,0 129 700
SPMM,24,19,0 129 699
SPMM,25,19,0 129 698
SPMM,24,20,0 129 697
SPMM,25,20,0 129 696
SPMM,24,21,0 129 695
SPMM,25,21,0 129 694
SPMM,24,22,0 129 693
SPMM,25,22,0 129 692
SPMM,24,23,0 129 691
SPMM,25,23,0 129 690
UPDATE,16,1 132 689
UPDATE,17,1 132 688
UPDATE,18,1 132 687
UPDATE,19,1 132 686
UPDATE,20,1 132 685
UPDATE,21,1 132 684
UPDATE,22,1 132 683
UPDATE,23,1 132 682
XTY,16,16,4 131 681
XTY,17,17,4 131 680
XTY,18,18,4 131 679
XTY,19,19,4 131 678
XTY,20,0,4 131 677
XTY,21,1,4 131 676
XTY,22,2,4 131 675
XTY,23,3,4 131 674
XY,0,3 92 673
XY,1,3 92 672
XY,2,3 92 671
XY,3,3 92 670
XY,4,3 92 669
XY,5,3 92 668
XY,6,3 92 667
XY,7,3 92 666
DLACPY,7,1 111 665
SPMM,1,7,0 111 664
SPMM,2,7,0 111 663
SPMM,3,7,0 111 662
SPMM,4,7,0 111 661
SPMM,5,7,0 111 660
SPMM,6,7,0 111 659
SPMM,7,7,0 111 658
DLACPY,6,1 111 657
SPMM,1,6,0 111 656
SPMM,2,6,0 111 655
SPMM,3,6,0 111 654
SPMM,4,6,0 111 653
SPMM,5,6,0 111 652
SPMM,6,6,0 111 651
SPMM,7,6,0 111 650
DLACPY,5,1 111 649
SPMM,0,5,0 111 648
SPMM,1,5,0 111 647
SPMM,2,5,0 111 646
SPMM,3,5,0 111 645
SPMM,4,5,0 111 644
SPMM,5,5,0 111 643
SPMM,6,5,0 111 642
SPMM,7,5,0 111 641
DLACPY,4,1 111 640
SPMM,1,4,0 111 639
SPMM,2,4,0 111 638
SPMM,3,4,0 111 637
SPMM,4,4,0 111 636
SPMM,5,4,0 111 635
SPMM,6,4,0 111 634
SPMM,7,4,0 111 633
DLACPY,3,1 111 632
SPMM,1,3,0 111 631
SPMM,2,3,0 111 630
SPMM,3,3,0 111 629
SPMM,4,3,0 111 628
SPMM,5,3,0 111 627
SPMM,6,3,0 111 626
SPMM,7,3,0 111 625
DLACPY,2,1 111 624
SPMM,1,2,0 111 623
SPMM,2,2,0 111 622
SPMM,3,2,0 111 621
SPMM,4,2,0 111 620
SPMM,5,2,0 111 619
SPMM,6,2,0 111 618
SPMM,7,2,0 111 617
DLACPY,1,1 111 616
SPMM,0,1,0 111 615
SPMM,1,1,0 111 614
SPMM,2,1,0 111 613
SPMM,3,1,0 111 612
SPMM,4,1,0 111 611
SPMM,5,1,0 111 610
SPMM,6,1,0 111 609
SPMM,7,1,0 111 608
DLACPY,0,1 111 607
SPMM,0,0,0 111 606
SPMM,1,0,0 111 605
SPMM,5,0,0 111 604
SPMM,16,7,0 121 603
SPMM,17,7,0 121 602
SPMM,18,7,0 121 601
SPMM,19,7,0 121 600
SPMM,20,7,0 121 599
SPMM,21,7,0 121 598
SPMM,22,7,0 121 597
SPMM,23,7,0 121 596
SPMM,24,7,0 151 595
SPMM,25,7,0 151 594
SPMM,9,0,0 133 593
SPMM,10,0,0 133 592
SPMM,12,0,0 133 591
SPMM,13,0,0 133 590
SPMM,9,1,0 133 589
SPMM,10,1,0 133 588
SPMM,12,1,0 133 587
SPMM,13,1,0 133 586
SPMM,9,2,0 133 585
SPMM,10,2,0 133 584
SPMM,12,2,0 133 583
SPMM,13,2,0 133 582
SPMM,8,7,0 133 581
SPMM,9,7,0 133 580
SPMM,10,7,0 133 579
SPMM,11,7,0 133 578
SPMM,12,7,0 133 577
SPMM,13,7,0 133 576
SPMM,14,7,0 133 575
SPMM,15,7,0 133 574
UPDATE,0,1 130 573
UPDATE,1,1 130 572
UPDATE,2,1 130 571
UPDATE,3,1 130 570
UPDATE,4,1 130 569
UPDATE,5,1 130 568
UPDATE,6,1 130 567
UPDATE,7,1 130 566
XTY,0,0,4 112 565
XTY,1,1,4 112 564
XTY,2,2,4 112 563
XTY,3,3,4 112 562
XTY,4,4,4 112 561
XTY,5,5,4 112 560
XTY,6,6,4 112 559
XTY,7,7,4 112 558
XY,8,3 94 557
XY,9,3 94 556
XY,10,3 94 555
XY,11,3 94 554
XY,12,3 94 553
XY,13,3 94 552
XY,14,3 94 551
XY,15,3 94 550
DLACPY,15,1 99 549
DLACPY,14,1 99 548
DLACPY,13,1 99 547
DLACPY,12,1 99 546
DLACPY,11,1 99 545
DLACPY,10,1 99 544
DLACPY,9,1 99 543
DLACPY,8,1 99 542
SPMM,7,8,0 103 541
SPMM,0,9,0 103 540
SPMM,1,9,0 103 539
SPMM,2,9,0 103 538
SPMM,7,9,0 103 537
SPMM,0,10,0 103 536
SPMM,1,10,0 103 535
SPMM,2,10,0 103 534
SPMM,7,10,0 103 533
SPMM,7,11,0 103 532
SPMM,0,12,0 103 531
SPMM,1,12,0 103 530
SPMM,2,12,0 103 529
SPMM,7,12,0 103 528
SPMM,0,13,0 103 527
SPMM,1,13,0 103 526
SPMM,2,13,0 103 525
SPMM,7,13,0 103 524
SPMM,7,14,0 103 523
SPMM,7,15,0 103 522
SPMM,8,8,0 100 521
SPMM,9,8,0 100 520
SPMM,11,8,0 100 519
SPMM,12,8,0 100 518
SPMM,13,8,0 100 517
SPMM,14,8,0 100 516
SPMM,15,8,0 100 515
SPMM,8,9,0 100 514
SPMM,9,9,0 100 513
SPMM,10,9,0 100 512
SPMM,11,9,0 100 511
SPMM,12,9,0 100 510
SPMM,13,9,0 100 509
SPMM,14,9,0 100 508
SPMM,15,9,0 100 507
SPMM,9,10,0 100 506
SPMM,10,10,0 100 505
SPMM,11,10,0 100 504
SPMM,12,10,0 100 503
SPMM,13,10,0 100 502
SPMM,14,10,0 100 501
SPMM,15,10,0 100 500
SPMM,8,11,0 100 499
SPMM,9,11,0 100 498
SPMM,10,11,0 100 497
SPMM,11,11,0 100 496
SPMM,12,11,0 100 495
SPMM,13,11,0 100 494
SPMM,14,11,0 100 493
SPMM,15,11,0 100 492
SPMM,8,12,0 100 491
SPMM,9,12,0 100 490
SPMM,10,12,0 100 489
SPMM,11,12,0 100 488
SPMM,12,12,0 100 487
SPMM,13,12,0 100 486
SPMM,14,12,0 100 485
SPMM,15,12,0 100 484
SPMM,8,13,0 100 483
SPMM,9,13,0 100 482
SPMM,10,13,0 100 481
SPMM,11,13,0 100 480
SPMM,12,13,0 100 479
SPMM,13,13,0 100 478
SPMM,14,13,0 100 477
SPMM,15,13,0 100 476
SPMM,8,14,0 100 475
SPMM,9,14,0 100 474
SPMM,10,14,0 100 473
SPMM,11,14,0 100 472
SPMM,12,14,0 100 471
SPMM,13,14,0 100 470
SPMM,14,14,0 100 469
SPMM,15,14,0 100 468
SPMM,8,15,0 100 467
SPMM,9,15,0 100 466
SPMM,10,15,0 100 465
SPMM,11,15,0 100 464
SPMM,12,15,0 100 463
SPMM,13,15,0 100 462
SPMM,14,15,0 100 461
SPMM,15,15,0 100 460
SPMM,16,8,0 101 459
SPMM,17,8,0 101 458
SPMM,18,8,0 101 457
SPMM,19,8,0 101 456
SPMM,20,8,0 101 455
SPMM,21,8,0 101 454
SPMM,22,8,0 101 453
SPMM,23,8,0 101 452
SPMM,16,9,0 101 451
SPMM,17,9,0 101 450
SPMM,18,9,0 101 449
SPMM,19,9,0 101 448
SPMM,20,9,0 101 447
SPMM,21,9,0 101 446
SPMM,22,9,0 101 445
SPMM,23,9,0 101 444
SPMM,16,10,0 101 443
SPMM,17,10,0 101 442
SPMM,18,10,0 101 441
SPMM,19,10,0 101 440
SPMM,20,10,0 101 439
SPMM,21,10,0 101 438
SPMM,22,10,0 101 437
SPMM,23,10,0 101 436
SPMM,16,11,0 101 435
SPMM,17,11,0 101 434
SPMM,18,11,0 101 433
SPMM,19,11,0 101 432
SPMM,20,11,0 101 431
SPMM,21,11,0 101 430
SPMM,22,11,0 101 429
SPMM,23,11,0 101 428
SPMM,16,12,0 101 427
SPMM,17,12,0 101 426
SPMM,18,12,0 101 425
SPMM,19,12,0 101 424
SPMM,20,12,0 101 423
SPMM,21,12,0 101 422
SPMM,22,12,0 101 421
SPMM,23,12,0 101 420
SPMM,16,13,0 101 419
SPMM,17,13,0 101 418
SPMM,18,13,0 101 417
SPMM,19,13,0 101 416
SPMM,20,13,0 101 415
SPMM,21,13,0 101 414
SPMM,22,13,0 101 413
SPMM,23,13,0 101 412
SPMM,16,14,0 101 411
SPMM,17,14,0 101 410
SPMM,18,14,0 101 409
SPMM,19,14,0 101 408
SPMM,20,14,0 101 407
SPMM,21,14,0 101 406
SPMM,22,14,0 101 405
SPMM,23,14,0 101 404
SPMM,16,15,0 101 403
SPMM,17,15,0 101 402
SPMM,18,15,0 101 401
SPMM,19,15,0 101 400
SPMM,20,15,0 101 399
SPMM,21,15,0 101 398
SPMM,22,15,0 101 397
SPMM,23,15,0 101 396
SPMM,24,8,0 104 395
SPMM,25,8,0 104 394
SPMM,24,9,0 104 393
SPMM,25,9,0 104 392
SPMM,24,10,0 104 391
SPMM,25,10,0 104 390
SPMM,24,11,0 104 389
SPMM,25,11,0 104 388
SPMM,24,12,0 104 387
SPMM,25,12,0 104 386
SPMM,24,13,0 104 385
SPMM,25,13,0 104 384
SPMM,24,14,0 104 383
SPMM,25,14,0 104 382
SPMM,24,15,0 104 381
SPMM,25,15,0 104 380
UPDATE,8,1 134 379
UPDATE,9,1 134 378
UPDATE,10,1 134 377
UPDATE,11,1 134 376
UPDATE,12,1 134 375
UPDATE,13,1 134 374
UPDATE,14,1 134 373
UPDATE,15,1 134 372
XTY,8,8,4 102 371
XTY,9,9,4 102 370
XTY,10,10,4 102 369
XTY,11,11,4 102 368
XTY,12,12,4 102 367
XTY,13,13,4 102 366
XTY,14,14,4 102 365
XTY,15,15,4 102 364
XY,24,3 93 363
XY,25,3 93 362
DLACPY,25,1 118 361
SPMM,24,25,0 118 360
SPMM,25,25,0 118 359
DLACPY,24,1 118 358
SPMM,24,24,0 118 357
SPMM,25,24,0 118 356
SPMM,7,24,0 141 355
SPMM,7,25,0 141 354
XTY,7,7,5 141 353
XTY,2,2,5 141 352
XTY,1,1,5 141 351
XTY,0,0,5 141 350
XTY,5,5,5 141 349
XTY,6,6,5 141 348
XTY,4,4,5 141 347
XTY,3,3,5 141 346
SPMM,16,24,0 119 345
SPMM,17,24,0 119 344
SPMM,18,24,0 119 343
SPMM,19,24,0 119 342
SPMM,20,24,0 119 341
SPMM,21,24,0 119 340
SPMM,22,24,0 119 339
SPMM,23,24,0 119 338
SPMM,16,25,0 119 337
SPMM,17,25,0 119 336
SPMM,18,25,0 119 335
SPMM,19,25,0 119 334
SPMM,20,25,0 119 333
SPMM,21,25,0 119 332
SPMM,22,25,0 119 331
SPMM,23,25,0 119 330
SPMM,16,16,0 127 329
SPMM,17,16,0 127 328
SPMM,18,16,0 127 327
SPMM,19,16,0 127 326
SPMM,20,16,0 127 325
SPMM,21,16,0 127 324
SPMM,22,16,0 127 323
SPMM,23,16,0 127 322
SPMM,16,17,0 127 321
SPMM,17,17,0 127 320
SPMM,18,17,0 127 319
SPMM,19,17,0 127 318
SPMM,20,17,0 127 317
SPMM,21,17,0 127 316
SPMM,22,17,0 127 315
SPMM,23,17,0 127 314
SPMM,16,18,0 127 313
SPMM,17,18,0 127 312
SPMM,18,18,0 127 311
SPMM,19,18,0 127 310
SPMM,20,18,0 127 309
SPMM,21,18,0 127 308
SPMM,22,18,0 127 307
SPMM,23,18,0 127 306
SPMM,16,19,0 127 305
SPMM,17,19,0 127 304
SPMM,18,19,0 127 303
SPMM,19,19,0 127 302
SPMM,20,19,0 127 301
SPMM,21,19,0 127 300
SPMM,22,19,0 127 299
SPMM,23,19,0 127 298
SPMM,16,20,0 127 297
SPMM,17,20,0 127 296
SPMM,18,20,0 127 295
SPMM,19,20,0 127 294
SPMM,20,20,0 127 293
SPMM,21,20,0 127 292
SPMM,22,20,0 127 291
SPMM,23,20,0 127 290
SPMM,16,21,0 127 289
SPMM,17,21,0 127 288
SPMM,18,21,0 127 287
SPMM,19,21,0 127 286
SPMM,20,21,0 127 285
SPMM,21,21,0 127 284
SPMM,22,21,0 127 283
SPMM,23,21,0 127 282
SPMM,16,22,0 127 281
SPMM,17,22,0 127 280
SPMM,18,22,0 127 279
SPMM,19,22,0 127 278
SPMM,20,22,0 127 277
SPMM,21,22,0 127 276
SPMM,22,22,0 127 275
SPMM,23,22,0 127 274
SPMM,16,23,0 127 273
XTY,16,16,5 127 272
SPMM,17,23,0 127 271
XTY,17,17,5 127 270
SPMM,18,23,0 127 269
XTY,18,18,5 127 268
SPMM,19,23,0 127 267
XTY,19,19,5 127 266
SPMM,20,23,0 127 265
XTY,20,0,5 127 264
SPMM,21,23,0 127 263
XTY,21,1,5 127 262
SPMM,22,23,0 127 261
XTY,22,2,5 127 260
SPMM,23,23,0 127 259
XTY,23,3,5 127 258
SPMM,8,24,0 120 257
SPMM,9,24,0 120 256
SPMM,10,24,0 120 255
SPMM,11,24,0 120 254
SPMM,12,24,0 120 253
SPMM,13,24,0 120 252
SPMM,14,24,0 120 251
SPMM,15,24,0 120 250
UPDATE,24,1 120 249
SPMM,8,25,0 120 248
SPMM,9,25,0 120 247
SPMM,10,25,0 120 246
SPMM,11,25,0 120 245
SPMM,12,25,0 120 244
SPMM,13,25,0 120 243
SPMM,14,25,0 120 242
SPMM,15,25,0 120 241
UPDATE,25,1 120 240
SPMM,8,16,0 148 239
SPMM,9,16,0 148 238
SPMM,10,16,0 148 237
SPMM,11,16,0 148 236
SPMM,12,16,0 148 235
SPMM,13,16,0 148 234
SPMM,14,16,0 148 233
SPMM,15,16,0 148 232
SPMM,8,17,0 148 231
SPMM,9,17,0 148 230
SPMM,10,17,0 148 229
SPMM,11,17,0 148 228
SPMM,12,17,0 148 227
SPMM,13,17,0 148 226
SPMM,14,17,0 148 225
SPMM,15,17,0 148 224
SPMM,8,18,0 148 223
SPMM,9,18,0 148 222
SPMM,10,18,0 148 221
SPMM,11,18,0 148 220
SPMM,12,18,0 148 219
SPMM,13,18,0 148 218
SPMM,14,18,0 148 217
SPMM,15,18,0 148 216
SPMM,8,19,0 148 215
SPMM,9,19,0 148 214
SPMM,10,19,0 148 213
SPMM,11,19,0 148 212
SPMM,12,19,0 148 211
SPMM,13,19,0 148 210
SPMM,14,19,0 148 209
SPMM,15,19,0 148 208
SPMM,8,20,0 148 207
SPMM,9,20,0 148 206
SPMM,10,20,0 148 205
SPMM,11,20,0 148 204
SPMM,12,20,0 148 203
SPMM,13,20,0 148 202
SPMM,14,20,0 148 201
SPMM,15,20,0 148 200
SPMM,8,21,0 148 199
SPMM,9,21,0 148 198
SPMM,10,21,0 148 197
SPMM,11,21,0 148 196
SPMM,12,21,0 148 195
SPMM,13,21,0 148 194
SPMM,14,21,0 148 193
SPMM,15,21,0 148 192
SPMM,8,22,0 148 191
SPMM,9,22,0 148 190
SPMM,10,22,0 148 189
SPMM,11,22,0 148 188
SPMM,12,22,0 148 187
SPMM,13,22,0 148 186
SPMM,14,22,0 148 185
SPMM,15,22,0 148 184
SPMM,8,23,0 148 183
XTY,8,8,5 148 182
SPMM,9,23,0 148 181
XTY,9,9,5 148 180
SPMM,10,23,0 148 179
XTY,10,10,5 148 178
SPMM,11,23,0 148 177
XTY,11,11,5 148 176
SPMM,12,23,0 148 175
XTY,12,12,5 148 174
SPMM,13,23,0 148 173
XTY,13,13,5 148 172
SPMM,14,23,0 148 171
XTY,14,14,5 148 170
SPMM,15,23,0 148 169
XTY,15,15,5 148 168
XTY,24,4,4 149 167
XTY,25,5,4 149 166
RED,XARBUF,0 149 165
XTY,25,5,5 152 164
XTY,24,4,5 152 163
RED,RARBUF,0 153 162
TRANS,RAR 154 161
CONSTRUCTGB 79 160
SPEUPDATE,RAR 155 159
CONSTRUCTGA 155 158
EIGEN 155 157
XY,0,6 167 156
XY,1,6 167 155
XY,2,6 167 154
XY,3,6 167 153
XY,4,6 167 152
XY,5,6 167 151
XY,6,6 167 150
XY,7,6 167 149
XY,0,10 253 148
ADD,0,3 253 147
XY,1,10 253 146
ADD,1,3 253 145
XY,2,10 253 144
ADD,2,3 253 143
XY,3,10 253 142
ADD,3,3 253 141
XY,4,10 253 140
ADD,4,3 253 139
XY,5,10 253 138
ADD,5,3 253 137
XY,6,10 253 136
ADD,6,3 253 135
XY,7,10 253 134
ADD,7,3 253 133
XY,8,6 198 132
XY,9,6 198 131
XY,10,6 198 130
XY,11,6 198 129
XY,12,6 198 128
XY,13,6 198 127
XY,14,6 198 126
XY,15,6 198 125
XY,16,6 180 124
XY,17,6 180 123
XY,18,6 180 122
XY,19,6 180 121
XY,20,6 180 120
XY,21,6 180 119
XY,22,6 180 118
XY,23,6 180 117
XY,16,10 217 116
ADD,16,3 217 115
XY,17,10 217 114
ADD,17,3 217 113
XY,18,10 217 112
ADD,18,3 217 111
XY,19,10 217 110
ADD,19,3 217 109
XY,20,10 217 108
ADD,20,3 217 107
XY,21,10 217 106
ADD,21,3 217 105
XY,22,10 217 104
ADD,22,3 217 103
XY,23,10 217 102
ADD,23,3 217 101
XY,24,6 192 100
XY,25,6 192 99
XY,8,8 232 98
XY,9,8 232 97
XY,10,8 232 96
XY,11,8 232 95
XY,12,8 232 94
XY,13,8 232 93
XY,14,8 232 92
XY,15,8 232 91
XY,8,11 239 90
ADD,8,4 239 89
XY,9,11 239 88
ADD,9,4 239 87
XY,10,11 239 86
ADD,10,4 239 85
XY,11,11 239 84
ADD,11,4 239 83
XY,12,11 239 82
ADD,12,4 239 81
XY,13,11 239 80
ADD,13,4 239 79
XY,14,11 239 78
ADD,14,4 239 77
XY,15,11 239 76
ADD,15,4 239 75
XY,8,10 223 74
XY,9,10 223 73
XY,10,10 223 72
XY,11,10 223 71
XY,12,10 223 70
XY,13,10 223 69
XY,14,10 223 68
XY,15,10 223 67
ADD,15,3 224 66
ADD,14,3 224 65
ADD,13,3 224 64
ADD,12,3 224 63
ADD,11,3 224 62
ADD,10,3 224 61
ADD,9,3 224 60
ADD,8,3 224 59
XY,24,10 186 58
XY,25,10 186 57
ADD,25,3 211 56
ADD,24,3 211 55
XY,0,11 210 54
XY,1,11 210 53
XY,2,11 210 52
XY,3,11 210 51
XY,4,11 210 50
XY,5,11 210 49
XY,6,11 210 48
XY,7,11 210 47
XY,0,8 231 46
ADD,0,4 231 45
XY,1,8 231 44
ADD,1,4 231 43
XY,2,8 231 42
ADD,2,4 231 41
XY,3,8 231 40
ADD,3,4 231 39
XY,4,8 231 38
ADD,4,4 231 37
XY,5,8 231 36
ADD,5,4 231 35
XY,6,8 231 34
ADD,6,4 231 33
XY,7,8 231 32
ADD,7,4 231 31
XY,16,11 204 30
XY,17,11 204 29
XY,18,11 204 28
XY,19,11 204 27
XY,20,11 204 26
XY,21,11 204 25
XY,22,11 204 24
XY,23,11 204 23
XY,16,8 246 22
ADD,16,4 246 21
XY,17,8 246 20
ADD,17,4 246 19
XY,18,8 246 18
ADD,18,4 246 17
XY,19,8 246 16
ADD,19,4 246 15
XY,20,8 246 14
ADD,20,4 246 13
XY,21,8 246 12
ADD,21,4 246 11
XY,22,8 246 10
ADD,22,4 246 9
XY,23,8 246 8
ADD,23,4 246 7
XY,24,11 161 6
XY,25,11 161 5
XY,24,8 174 4
ADD,24,4 174 3
XY,25,8 174 2
ADD,25,4 174 1
