SETZERO,7,1 6 1051
SETZERO,6,1 6 1050
SETZERO,5,1 6 1049
SETZERO,4,1 6 1048
SETZERO,3,1 6 1047
SETZERO,2,1 6 1046
SETZERO,1,1 6 1045
SETZERO,0,1 6 1044
RESET,RN 6 1043
SETZERO,25,1 1 1042
SETZERO,24,1 1 1041
_AX,23 1 1040
_AX,22 1 1039
_AX,21 1 1038
_AX,20 1 1037
_AX,25 0 1036
_AX,24 0 1035
_X,15 0 1034
_X,14 0 1033
_X,13 0 1032
_X,12 0 1031
_lambda 0 1030
XY,12,1 0 1029
XY,13,1 0 1028
XY,14,1 0 1027
XY,15,1 0 1026
_AX,15 5 1025
SUB,15,1 5 1024
MULT,15 5 1023
_AX,14 5 1022
SUB,14,1 5 1021
MULT,14 5 1020
_AX,13 5 1019
SUB,13,1 5 1018
MULT,13 5 1017
_AX,12 5 1016
SUB,12,1 5 1015
MULT,12 5 1014
_AX,11 5 1013
_AX,10 5 1012
_AX,9 5 1011
_AX,8 5 1010
COL,12,12 7 1009
COL,13,13 7 1008
COL,14,14 7 1007
COL,15,15 7 1006
_X,11 11 1005
XY,11,1 11 1004
SUB,11,1 11 1003
_X,10 11 1002
XY,10,1 11 1001
SUB,10,1 11 1000
_X,9 11 999
XY,9,1 11 998
SUB,9,1 11 997
_X,8 11 996
XY,8,1 11 995
SUB,8,1 11 994
MULT,8 12 993
COL,8,8 12 992
MULT,9 12 991
COL,9,9 12 990
MULT,10 12 989
COL,10,10 12 988
MULT,11 12 987
COL,11,11 12 986
_AX,7 12 985
_AX,6 12 984
_AX,5 12 983
_AX,4 12 982
_X,7 13 981
XY,7,1 13 980
SUB,7,1 13 979
MULT,7 13 978
_X,6 13 977
XY,6,1 13 976
SUB,6,1 13 975
MULT,6 13 974
_X,5 13 973
XY,5,1 13 972
SUB,5,1 13 971
MULT,5 13 970
_X,4 13 969
XY,4,1 13 968
SUB,4,1 13 967
MULT,4 13 966
COL,4,4 14 965
COL,5,5 14 964
COL,6,6 14 963
COL,7,7 14 962
_X,3 14 961
XY,3,1 14 960
_X,2 14 959
XY,2,1 14 958
_X,1 14 957
XY,1,1 14 956
_X,0 14 955
XY,0,1 14 954
_AX,3 15 953
SUB,3,1 15 952
MULT,3 15 951
_AX,2 15 950
SUB,2,1 15 949
MULT,2 15 948
_AX,1 15 947
SUB,1,1 15 946
MULT,1 15 945
_AX,0 15 944
SUB,0,1 15 943
MULT,0 15 942
_X,23 2 941
XY,23,1 2 940
_X,22 2 939
XY,22,1 2 938
_X,21 2 937
XY,21,1 2 936
_X,20 2 935
XY,20,1 2 934
_X,19 2 933
_X,18 2 932
_X,17 2 931
_X,16 2 930
SUB,20,1 4 929
MULT,20 4 928
COL,20,0 4 927
SUB,21,1 4 926
MULT,21 4 925
COL,21,1 4 924
SUB,22,1 4 923
MULT,22 4 922
COL,22,2 4 921
SUB,23,1 4 920
MULT,23 4 919
COL,23,3 4 918
XY,16,1 8 917
XY,17,1 8 916
XY,18,1 8 915
XY,19,1 8 914
_AX,19 8 913
_AX,18 8 912
_AX,17 8 911
_AX,16 8 910
SUB,16,1 9 909
MULT,16 9 908
COL,16,16 9 907
SUB,17,1 9 906
MULT,17 9 905
COL,17,17 9 904
SUB,18,1 9 903
MULT,18 9 902
COL,18,18 9 901
SUB,19,1 9 900
MULT,19 9 899
COL,19,19 9 898
SETZERO,23,1 3 897
SETZERO,22,1 3 896
SETZERO,21,1 3 895
SETZERO,20,1 3 894
_X,25 3 893
XY,25,1 3 892
_X,24 3 891
XY,24,1 3 890
SUB,24,1 10 889
MULT,24 10 888
COL,24,4 10 887
SUB,25,1 10 886
MULT,25 10 885
COL,25,5 10 884
SETZERO,15,1 10 883
SETZERO,14,1 10 882
SETZERO,13,1 10 881
SETZERO,12,1 10 880
COL,0,0 16 879
COL,1,1 16 878
COL,2,2 16 877
COL,3,3 16 876
RNRED,RNBUF 16 875
SQRT,RN 16 874
RESET,actMask 16 873
CONV,actMask 16 872
GET,0,1 16 871
GET,1,1 16 870
GET,2,1 16 869
GET,3,1 16 868
CONSTRUCTGB 16 867
XTY,3,3,1 18 866
XTY,2,2,1 18 865
XTY,1,1,1 18 864
XTY,0,0,1 18 863
SETZERO,19,1 18 862
SETZERO,18,1 18 861
SETZERO,17,1 18 860
SETZERO,16,1 18 859
GET,4,1 17 858
XTY,4,4,1 17 857
GET,5,1 17 856
XTY,5,5,1 17 855
GET,6,1 17 854
XTY,6,6,1 17 853
GET,7,1 17 852
XTY,7,7,1 17 851
GET,8,1 21 850
XTY,8,8,1 21 849
GET,9,1 21 848
XTY,9,9,1 21 847
GET,10,1 21 846
XTY,10,10,1 21 845
GET,11,1 21 844
XTY,11,11,1 21 843
GET,12,1 23 842
XTY,12,12,1 23 841
GET,13,1 23 840
XTY,13,13,1 23 839
GET,14,1 23 838
XTY,14,14,1 23 837
GET,15,1 23 836
XTY,15,15,1 23 835
GET,16,1 19 834
XTY,16,16,1 19 833
GET,17,1 19 832
XTY,17,17,1 19 831
GET,18,1 19 830
XTY,18,18,1 19 829
GET,19,1 19 828
XTY,19,19,1 19 827
SETZERO,11,1 19 826
SETZERO,10,1 19 825
SETZERO,9,1 19 824
SETZERO,8,1 19 823
GET,24,1 20 822
GET,25,1 20 821
XTY,25,5,1 22 820
XTY,24,4,1 22 819
GET,20,1 24 818
XTY,20,0,1 24 817
GET,21,1 24 816
XTY,21,1,1 24 815
GET,22,1 24 814
XTY,22,2,1 24 813
GET,23,1 24 812
XTY,23,3,1 24 811
RED,temp2BUF,0 24 810
XY,0,2 27 809
XY,1,2 27 808
XY,2,2 27 807
XY,3,2 27 806
XY,4,2 25 805
XY,5,2 25 804
XY,6,2 25 803
XY,7,2 25 802
XY,8,2 28 801
SUB,8,2 28 800
XTY,8,8,2 28 799
XY,9,2 28 798
SUB,9,2 28 797
XTY,9,9,2 28 796
XY,10,2 28 795
SUB,10,2 28 794
XTY,10,10,2 28 793
XY,11,2 28 792
SUB,11,2 28 791
XTY,11,11,2 28 790
XY,16,2 30 789
SUB,16,2 30 788
XTY,16,16,2 30 787
XY,17,2 30 786
SUB,17,2 30 785
XTY,17,17,2 30 784
XY,18,2 30 783
SUB,18,2 30 782
XTY,18,18,2 30 781
XY,19,2 30 780
SUB,19,2 30 779
XTY,19,19,2 30 778
XY,20,2 29 777
XY,21,2 29 776
XY,22,2 29 775
XY,23,2 29 774
XY,12,2 26 773
XY,13,2 26 772
XY,14,2 26 771
XY,15,2 26 770
XY,24,2 26 769
XY,25,2 26 768
SUB,15,2 31 767
XTY,15,15,2 31 766
SUB,14,2 31 765
XTY,14,14,2 31 764
SUB,13,2 31 763
XTY,13,13,2 31 762
SUB,12,2 31 761
XTY,12,12,2 31 760
SUB,23,2 31 759
SUB,22,2 31 758
SUB,21,2 31 757
SUB,20,2 31 756
XTY,20,0,2 32 755
XTY,21,1,2 32 754
XTY,22,2,2 32 753
XTY,23,3,2 32 752
SUB,7,2 32 751
XTY,7,7,2 32 750
SUB,6,2 32 749
XTY,6,6,2 32 748
SUB,5,2 32 747
XTY,5,5,2 32 746
SUB,4,2 32 745
XTY,4,4,2 32 744
SUB,25,2 33 743
XTY,25,5,2 33 742
SUB,24,2 33 741
XTY,24,4,2 33 740
SUB,3,2 33 739
XTY,3,3,2 33 738
SUB,2,2 33 737
XTY,2,2,2 33 736
SUB,1,2 33 735
XTY,1,1,2 33 734
SUB,0,2 33 733
XTY,0,0,2 33 732
RED,RBRBUF,0 33 731
CHOL,RBR 33 730
INV,RBR 33 729
XY,4,3 37 728
XY,5,3 37 727
XY,6,3 37 726
XY,7,3 37 725
XY,8,3 37 724
XY,9,3 37 723
XY,10,3 37 722
XY,11,3 37 721
DLACPY,11,1 60 720
SPMM,8,11,0 60 719
SPMM,9,11,0 60 718
SPMM,10,11,0 60 717
SPMM,11,11,0 60 716
SPMM,12,11,0 60 715
SPMM,13,11,0 60 714
SPMM,14,11,0 60 713
SPMM,15,11,0 60 712
DLACPY,10,1 60 711
SPMM,9,10,0 60 710
SPMM,10,10,0 60 709
SPMM,11,10,0 60 708
SPMM,12,10,0 60 707
SPMM,13,10,0 60 706
SPMM,14,10,0 60 705
SPMM,15,10,0 60 704
DLACPY,9,1 60 703
SPMM,8,9,0 60 702
SPMM,9,9,0 60 701
SPMM,10,9,0 60 700
SPMM,11,9,0 60 699
SPMM,12,9,0 60 698
SPMM,13,9,0 60 697
SPMM,14,9,0 60 696
SPMM,15,9,0 60 695
DLACPY,8,1 60 694
SPMM,8,8,0 60 693
SPMM,9,8,0 60 692
SPMM,11,8,0 60 691
SPMM,12,8,0 60 690
SPMM,13,8,0 60 689
SPMM,14,8,0 60 688
SPMM,15,8,0 60 687
SPMM,20,8,0 61 686
SPMM,21,8,0 61 685
SPMM,22,8,0 61 684
SPMM,23,8,0 61 683
SPMM,20,9,0 61 682
SPMM,21,9,0 61 681
SPMM,22,9,0 61 680
SPMM,23,9,0 61 679
SPMM,20,10,0 61 678
SPMM,21,10,0 61 677
SPMM,22,10,0 61 676
SPMM,23,10,0 61 675
SPMM,20,11,0 61 674
SPMM,21,11,0 61 673
SPMM,22,11,0 61 672
SPMM,23,11,0 61 671
SPMM,24,8,0 62 670
SPMM,25,8,0 62 669
SPMM,24,9,0 62 668
SPMM,25,9,0 62 667
SPMM,24,10,0 62 666
SPMM,25,10,0 62 665
SPMM,24,11,0 62 664
SPMM,25,11,0 62 663
XTY,8,8,4 63 662
XTY,9,9,4 63 661
XTY,10,10,4 63 660
XTY,11,11,4 63 659
DLACPY,7,1 45 658
SPMM,1,7,0 45 657
SPMM,2,7,0 45 656
SPMM,3,7,0 45 655
SPMM,4,7,0 45 654
SPMM,5,7,0 45 653
SPMM,6,7,0 45 652
SPMM,7,7,0 45 651
DLACPY,6,1 45 650
SPMM,1,6,0 45 649
SPMM,2,6,0 45 648
SPMM,3,6,0 45 647
SPMM,4,6,0 45 646
SPMM,5,6,0 45 645
SPMM,6,6,0 45 644
SPMM,7,6,0 45 643
DLACPY,5,1 45 642
SPMM,0,5,0 45 641
SPMM,1,5,0 45 640
SPMM,2,5,0 45 639
SPMM,3,5,0 45 638
SPMM,4,5,0 45 637
SPMM,5,5,0 45 636
SPMM,6,5,0 45 635
SPMM,7,5,0 45 634
DLACPY,4,1 45 633
SPMM,1,4,0 45 632
SPMM,2,4,0 45 631
SPMM,3,4,0 45 630
SPMM,4,4,0 45 629
SPMM,5,4,0 45 628
SPMM,6,4,0 45 627
SPMM,7,4,0 45 626
SPMM,8,7,0 46 625
SPMM,9,7,0 46 624
SPMM,10,7,0 46 623
SPMM,11,7,0 46 622
SPMM,20,7,0 47 621
SPMM,21,7,0 47 620
SPMM,22,7,0 47 619
SPMM,23,7,0 47 618
UPDATE,4,1 48 617
UPDATE,5,1 48 616
UPDATE,6,1 48 615
SPMM,16,7,0 48 614
SPMM,17,7,0 48 613
SPMM,18,7,0 48 612
SPMM,19,7,0 48 611
SPMM,24,7,0 48 610
SPMM,25,7,0 48 609
UPDATE,7,1 48 608
XTY,4,4,4 53 607
XTY,5,5,4 53 606
XTY,6,6,4 53 605
SPMM,12,7,0 53 604
SPMM,13,7,0 53 603
SPMM,14,7,0 53 602
SPMM,15,7,0 53 601
XTY,7,7,4 53 600
XY,16,3 34 599
XY,17,3 34 598
XY,18,3 34 597
XY,19,3 34 596
DLACPY,19,1 42 595
SPMM,16,19,0 42 594
SPMM,17,19,0 42 593
SPMM,18,19,0 42 592
SPMM,19,19,0 42 591
SPMM,20,19,0 42 590
SPMM,21,19,0 42 589
SPMM,22,19,0 42 588
SPMM,23,19,0 42 587
DLACPY,18,1 42 586
SPMM,16,18,0 42 585
SPMM,17,18,0 42 584
SPMM,18,18,0 42 583
SPMM,19,18,0 42 582
SPMM,20,18,0 42 581
SPMM,21,18,0 42 580
SPMM,22,18,0 42 579
SPMM,23,18,0 42 578
DLACPY,17,1 42 577
SPMM,16,17,0 42 576
SPMM,17,17,0 42 575
SPMM,18,17,0 42 574
SPMM,19,17,0 42 573
SPMM,20,17,0 42 572
SPMM,21,17,0 42 571
SPMM,22,17,0 42 570
SPMM,23,17,0 42 569
DLACPY,16,1 42 568
SPMM,16,16,0 42 567
SPMM,17,16,0 42 566
SPMM,18,16,0 42 565
SPMM,19,16,0 42 564
SPMM,20,16,0 42 563
SPMM,21,16,0 42 562
SPMM,22,16,0 42 561
SPMM,23,16,0 42 560
SPMM,8,16,0 43 559
SPMM,9,16,0 43 558
SPMM,10,16,0 43 557
SPMM,11,16,0 43 556
SPMM,12,16,0 43 555
SPMM,13,16,0 43 554
SPMM,14,16,0 43 553
SPMM,15,16,0 43 552
UPDATE,16,1 43 551
SPMM,8,17,0 43 550
SPMM,9,17,0 43 549
SPMM,10,17,0 43 548
SPMM,11,17,0 43 547
SPMM,12,17,0 43 546
SPMM,13,17,0 43 545
SPMM,14,17,0 43 544
SPMM,15,17,0 43 543
UPDATE,17,1 43 542
SPMM,8,18,0 43 541
SPMM,9,18,0 43 540
SPMM,10,18,0 43 539
SPMM,11,18,0 43 538
SPMM,12,18,0 43 537
SPMM,13,18,0 43 536
SPMM,14,18,0 43 535
SPMM,15,18,0 43 534
UPDATE,18,1 43 533
SPMM,8,19,0 43 532
SPMM,9,19,0 43 531
SPMM,10,19,0 43 530
SPMM,11,19,0 43 529
SPMM,12,19,0 43 528
SPMM,13,19,0 43 527
SPMM,14,19,0 43 526
SPMM,15,19,0 43 525
UPDATE,19,1 43 524
XY,20,3 36 523
XY,21,3 36 522
XY,22,3 36 521
XY,23,3 36 520
XY,24,3 38 519
DLACPY,24,1 38 518
SPMM,20,24,0 38 517
SPMM,21,24,0 38 516
SPMM,22,24,0 38 515
SPMM,23,24,0 38 514
SPMM,24,24,0 38 513
SPMM,25,24,0 38 512
XY,25,3 38 511
DLACPY,25,1 38 510
SPMM,20,25,0 38 509
SPMM,21,25,0 38 508
SPMM,22,25,0 38 507
SPMM,23,25,0 38 506
SPMM,24,25,0 38 505
SPMM,25,25,0 38 504
SPMM,12,25,0 40 503
SPMM,13,25,0 40 502
SPMM,14,25,0 40 501
SPMM,15,25,0 40 500
SPMM,12,24,0 40 499
SPMM,13,24,0 40 498
SPMM,14,24,0 40 497
SPMM,15,24,0 40 496
SPMM,16,25,0 39 495
SPMM,17,25,0 39 494
SPMM,18,25,0 39 493
SPMM,19,25,0 39 492
SPMM,16,24,0 39 491
SPMM,17,24,0 39 490
SPMM,18,24,0 39 489
SPMM,19,24,0 39 488
SPMM,8,25,0 41 487
SPMM,9,25,0 41 486
SPMM,10,25,0 41 485
SPMM,11,25,0 41 484
UPDATE,25,1 41 483
XTY,25,5,4 41 482
SPMM,8,24,0 41 481
SPMM,9,24,0 41 480
SPMM,10,24,0 41 479
SPMM,11,24,0 41 478
UPDATE,24,1 41 477
XTY,24,4,4 41 476
XY,0,3 35 475
XY,1,3 35 474
XY,2,3 35 473
XY,3,3 35 472
XY,12,3 35 471
XY,13,3 35 470
XY,14,3 35 469
XY,15,3 35 468
DLACPY,15,1 49 467
SPMM,8,15,0 49 466
SPMM,9,15,0 49 465
SPMM,10,15,0 49 464
SPMM,11,15,0 49 463
SPMM,12,15,0 49 462
SPMM,13,15,0 49 461
SPMM,14,15,0 49 460
SPMM,15,15,0 49 459
DLACPY,14,1 49 458
SPMM,8,14,0 49 457
SPMM,9,14,0 49 456
SPMM,10,14,0 49 455
SPMM,11,14,0 49 454
SPMM,12,14,0 49 453
SPMM,13,14,0 49 452
SPMM,14,14,0 49 451
SPMM,15,14,0 49 450
DLACPY,13,1 49 449
SPMM,8,13,0 49 448
SPMM,9,13,0 49 447
SPMM,10,13,0 49 446
SPMM,11,13,0 49 445
SPMM,12,13,0 49 444
SPMM,13,13,0 49 443
SPMM,14,13,0 49 442
SPMM,15,13,0 49 441
DLACPY,12,1 49 440
SPMM,8,12,0 49 439
SPMM,9,12,0 49 438
SPMM,10,12,0 49 437
SPMM,11,12,0 49 436
SPMM,12,12,0 49 435
SPMM,13,12,0 49 434
SPMM,14,12,0 49 433
SPMM,15,12,0 49 432
SPMM,16,12,0 50 431
SPMM,17,12,0 50 430
SPMM,18,12,0 50 429
SPMM,19,12,0 50 428
SPMM,16,13,0 50 427
SPMM,17,13,0 50 426
SPMM,18,13,0 50 425
SPMM,19,13,0 50 424
SPMM,16,14,0 50 423
SPMM,17,14,0 50 422
SPMM,18,14,0 50 421
SPMM,19,14,0 50 420
SPMM,16,15,0 50 419
SPMM,17,15,0 50 418
SPMM,18,15,0 50 417
SPMM,19,15,0 50 416
SPMM,0,12,0 51 415
SPMM,1,12,0 51 414
SPMM,2,12,0 51 413
SPMM,20,12,0 51 412
SPMM,21,12,0 51 411
SPMM,22,12,0 51 410
SPMM,23,12,0 51 409
SPMM,24,12,0 51 408
SPMM,25,12,0 51 407
SPMM,0,13,0 51 406
SPMM,1,13,0 51 405
SPMM,2,13,0 51 404
SPMM,20,13,0 51 403
SPMM,21,13,0 51 402
SPMM,22,13,0 51 401
SPMM,23,13,0 51 400
SPMM,24,13,0 51 399
SPMM,25,13,0 51 398
SPMM,20,14,0 51 397
SPMM,21,14,0 51 396
SPMM,22,14,0 51 395
SPMM,23,14,0 51 394
SPMM,24,14,0 51 393
SPMM,25,14,0 51 392
SPMM,20,15,0 51 391
SPMM,21,15,0 51 390
SPMM,22,15,0 51 389
SPMM,23,15,0 51 388
SPMM,24,15,0 51 387
SPMM,25,15,0 51 386
DLACPY,23,1 65 385
SPMM,16,23,0 65 384
SPMM,17,23,0 65 383
SPMM,18,23,0 65 382
SPMM,19,23,0 65 381
SPMM,20,23,0 65 380
SPMM,21,23,0 65 379
SPMM,22,23,0 65 378
SPMM,23,23,0 65 377
DLACPY,22,1 65 376
SPMM,16,22,0 65 375
SPMM,17,22,0 65 374
SPMM,18,22,0 65 373
SPMM,19,22,0 65 372
SPMM,20,22,0 65 371
SPMM,21,22,0 65 370
SPMM,22,22,0 65 369
SPMM,23,22,0 65 368
DLACPY,21,1 65 367
SPMM,16,21,0 65 366
SPMM,17,21,0 65 365
SPMM,18,21,0 65 364
SPMM,19,21,0 65 363
SPMM,20,21,0 65 362
SPMM,21,21,0 65 361
SPMM,22,21,0 65 360
SPMM,23,21,0 65 359
DLACPY,20,1 65 358
SPMM,16,20,0 65 357
SPMM,17,20,0 65 356
SPMM,18,20,0 65 355
SPMM,19,20,0 65 354
SPMM,20,20,0 65 353
XTY,20,0,5 65 352
SPMM,21,20,0 65 351
XTY,21,1,5 65 350
SPMM,22,20,0 65 349
XTY,22,2,5 65 348
SPMM,23,20,0 65 347
XTY,23,3,5 65 346
SPMM,16,8,0 70 345
SPMM,17,8,0 70 344
SPMM,18,8,0 70 343
SPMM,19,8,0 70 342
SPMM,16,9,0 70 341
SPMM,17,9,0 70 340
SPMM,18,9,0 70 339
SPMM,19,9,0 70 338
SPMM,16,10,0 70 337
SPMM,17,10,0 70 336
SPMM,18,10,0 70 335
SPMM,19,10,0 70 334
SPMM,16,11,0 70 333
XTY,16,16,5 70 332
SPMM,17,11,0 70 331
XTY,17,17,5 70 330
SPMM,18,11,0 70 329
XTY,18,18,5 70 328
SPMM,19,11,0 70 327
XTY,19,19,5 70 326
SPMM,12,20,0 66 325
SPMM,13,20,0 66 324
SPMM,14,20,0 66 323
SPMM,15,20,0 66 322
UPDATE,20,1 66 321
XTY,20,0,4 66 320
SPMM,12,21,0 66 319
SPMM,13,21,0 66 318
SPMM,14,21,0 66 317
SPMM,15,21,0 66 316
UPDATE,21,1 66 315
XTY,21,1,4 66 314
SPMM,12,22,0 66 313
SPMM,13,22,0 66 312
SPMM,14,22,0 66 311
SPMM,15,22,0 66 310
UPDATE,22,1 66 309
XTY,22,2,4 66 308
SPMM,12,23,0 66 307
SPMM,13,23,0 66 306
SPMM,14,23,0 66 305
SPMM,15,23,0 66 304
UPDATE,23,1 66 303
XTY,23,3,4 66 302
UPDATE,12,1 54 301
UPDATE,13,1 54 300
UPDATE,14,1 54 299
UPDATE,15,1 54 298
SPMM,24,16,0 54 297
SPMM,25,16,0 54 296
XTY,16,16,4 54 295
SPMM,24,17,0 54 294
SPMM,25,17,0 54 293
XTY,17,17,4 54 292
SPMM,24,18,0 54 291
SPMM,25,18,0 54 290
XTY,18,18,4 54 289
SPMM,24,19,0 54 288
SPMM,25,19,0 54 287
XTY,19,19,4 54 286
SPMM,24,20,0 68 285
SPMM,25,20,0 68 284
SPMM,24,21,0 68 283
SPMM,25,21,0 68 282
SPMM,24,22,0 68 281
SPMM,25,22,0 68 280
SPMM,24,23,0 68 279
XTY,24,4,5 68 278
SPMM,25,23,0 68 277
XTY,25,5,5 68 276
XTY,12,12,4 52 275
XTY,13,13,4 52 274
XTY,14,14,4 52 273
XTY,15,15,4 52 272
DLACPY,3,1 55 271
SPMM,1,3,0 55 270
SPMM,2,3,0 55 269
SPMM,3,3,0 55 268
DLACPY,2,1 55 267
SPMM,1,2,0 55 266
SPMM,2,2,0 55 265
SPMM,3,2,0 55 264
SPMM,9,2,0 55 263
SPMM,10,2,0 55 262
DLACPY,1,1 55 261
SPMM,0,1,0 55 260
SPMM,1,1,0 55 259
SPMM,2,1,0 55 258
SPMM,3,1,0 55 257
SPMM,9,1,0 55 256
SPMM,10,1,0 55 255
DLACPY,0,1 55 254
SPMM,0,0,0 55 253
SPMM,1,0,0 55 252
SPMM,9,0,0 55 251
SPMM,10,0,0 55 250
SPMM,8,20,0 69 249
SPMM,9,20,0 69 248
SPMM,10,20,0 69 247
SPMM,11,20,0 69 246
SPMM,8,21,0 69 245
SPMM,9,21,0 69 244
SPMM,10,21,0 69 243
SPMM,11,21,0 69 242
SPMM,8,22,0 69 241
SPMM,9,22,0 69 240
SPMM,10,22,0 69 239
SPMM,11,22,0 69 238
SPMM,8,23,0 69 237
XTY,8,8,5 69 236
SPMM,9,23,0 69 235
XTY,9,9,5 69 234
SPMM,10,23,0 69 233
XTY,10,10,5 69 232
SPMM,11,23,0 69 231
XTY,11,11,5 69 230
SPMM,5,0,0 71 229
SPMM,4,1,0 71 228
SPMM,5,1,0 71 227
SPMM,6,1,0 71 226
SPMM,7,1,0 71 225
SPMM,4,2,0 71 224
SPMM,5,2,0 71 223
SPMM,6,2,0 71 222
SPMM,7,2,0 71 221
SPMM,4,3,0 71 220
SPMM,5,3,0 71 219
SPMM,6,3,0 71 218
SPMM,7,3,0 71 217
SPMM,7,12,0 71 216
SPMM,7,13,0 71 215
SPMM,7,14,0 71 214
SPMM,7,15,0 71 213
SPMM,7,8,0 71 212
SPMM,7,9,0 71 211
SPMM,7,10,0 71 210
SPMM,7,11,0 71 209
SPMM,12,0,0 56 208
SPMM,13,0,0 56 207
UPDATE,0,1 56 206
XTY,0,0,4 56 205
SPMM,12,1,0 56 204
SPMM,13,1,0 56 203
UPDATE,1,1 56 202
XTY,1,1,4 56 201
SPMM,12,2,0 56 200
SPMM,13,2,0 56 199
UPDATE,2,1 56 198
XTY,2,2,4 56 197
UPDATE,3,1 56 196
XTY,3,3,4 56 195
RED,XARBUF,0 72 194
SPMM,7,20,0 72 193
SPMM,7,21,0 72 192
SPMM,7,22,0 72 191
SPMM,7,23,0 72 190
SPMM,7,25,0 72 189
SPMM,7,24,0 72 188
XTY,13,13,5 67 187
XTY,12,12,5 67 186
XTY,15,15,5 67 185
XTY,14,14,5 67 184
XTY,3,3,5 64 183
UPDATE,8,1 64 182
SPMM,0,9,0 64 181
SPMM,1,9,0 64 180
SPMM,2,9,0 64 179
UPDATE,9,1 64 178
SPMM,0,10,0 64 177
XTY,0,0,5 64 176
SPMM,1,10,0 64 175
XTY,1,1,5 64 174
SPMM,2,10,0 64 173
XTY,2,2,5 64 172
UPDATE,10,1 64 171
UPDATE,11,1 64 170
XTY,6,6,5 73 169
XTY,5,5,5 73 168
XTY,4,4,5 73 167
SPMM,7,16,0 73 166
SPMM,7,17,0 73 165
SPMM,7,18,0 73 164
SPMM,7,19,0 73 163
XTY,7,7,5 73 162
RED,RARBUF,0 73 161
TRANS,RAR 73 160
SPEUPDATE,RAR 73 159
CONSTRUCTGA 73 158
EIGEN 73 157
XY,0,6 76 156
XY,1,6 76 155
XY,2,6 76 154
XY,3,6 76 153
XY,0,10 98 152
ADD,0,3 98 151
XY,1,10 98 150
ADD,1,3 98 149
XY,2,10 98 148
ADD,2,3 98 147
XY,3,10 98 146
ADD,3,3 98 145
XY,4,6 80 144
XY,5,6 80 143
XY,6,6 80 142
XY,7,6 80 141
XY,4,10 82 140
ADD,4,3 82 139
XY,5,10 82 138
ADD,5,3 82 137
XY,6,10 82 136
ADD,6,3 82 135
XY,7,10 82 134
ADD,7,3 82 133
XY,12,6 78 132
XY,13,6 78 131
XY,14,6 78 130
XY,15,6 78 129
XY,8,6 75 128
XY,9,6 75 127
XY,10,6 75 126
XY,11,6 75 125
XY,20,6 75 124
XY,21,6 75 123
XY,22,6 75 122
XY,23,6 75 121
XY,20,10 94 120
ADD,20,3 94 119
XY,21,10 94 118
ADD,21,3 94 117
XY,22,10 94 116
ADD,22,3 94 115
XY,23,10 94 114
ADD,23,3 94 113
XY,8,8 87 112
XY,9,8 87 111
XY,10,8 87 110
XY,11,8 87 109
XY,12,8 87 108
XY,13,8 87 107
XY,14,8 87 106
XY,15,8 87 105
XY,8,11 88 104
ADD,8,4 88 103
XY,9,11 88 102
ADD,9,4 88 101
XY,10,11 88 100
ADD,10,4 88 99
XY,11,11 88 98
ADD,11,4 88 97
XY,20,8 84 96
XY,21,8 84 95
XY,22,8 84 94
XY,23,8 84 93
XY,24,8 84 92
XY,25,8 84 91
XY,20,11 90 90
ADD,20,4 90 89
XY,21,11 90 88
ADD,21,4 90 87
XY,22,11 90 86
ADD,22,4 90 85
XY,23,11 90 84
ADD,23,4 90 83
XY,8,10 83 82
XY,9,10 83 81
XY,10,10 83 80
XY,11,10 83 79
ADD,11,3 91 78
ADD,10,3 91 77
ADD,9,3 91 76
ADD,8,3 91 75
XY,12,10 95 74
XY,13,10 95 73
XY,14,10 95 72
XY,15,10 95 71
ADD,15,3 97 70
ADD,14,3 97 69
ADD,13,3 97 68
ADD,12,3 97 67
XY,16,6 74 66
XY,17,6 74 65
XY,18,6 74 64
XY,19,6 74 63
XY,16,10 74 62
ADD,16,3 74 61
XY,17,10 74 60
ADD,17,3 74 59
XY,18,10 74 58
ADD,18,3 74 57
XY,19,10 74 56
ADD,19,3 74 55
XY,16,11 85 54
XY,17,11 85 53
XY,18,11 85 52
XY,19,11 85 51
XY,16,8 93 50
ADD,16,4 93 49
XY,17,8 93 48
ADD,17,4 93 47
XY,18,8 93 46
ADD,18,4 93 45
XY,19,8 93 44
ADD,19,4 93 43
XY,12,11 79 42
XY,13,11 79 41
XY,14,11 79 40
XY,15,11 79 39
XY,24,11 79 38
XY,25,11 79 37
ADD,25,4 92 36
ADD,24,4 92 35
XY,0,8 92 34
XY,1,8 92 33
XY,2,8 92 32
XY,3,8 92 31
XY,0,11 96 30
ADD,0,4 96 29
XY,1,11 96 28
ADD,1,4 96 27
XY,2,11 96 26
ADD,2,4 96 25
XY,3,11 96 24
ADD,3,4 96 23
ADD,15,4 89 22
ADD,14,4 89 21
ADD,13,4 89 20
ADD,12,4 89 19
XY,4,8 77 18
XY,5,8 77 17
XY,6,8 77 16
XY,7,8 77 15
XY,24,10 77 14
XY,25,10 77 13
XY,24,6 81 12
ADD,24,3 81 11
XY,25,6 81 10
ADD,25,3 81 9
XY,4,11 86 8
ADD,4,4 86 7
XY,5,11 86 6
ADD,5,4 86 5
XY,6,11 86 4
ADD,6,4 86 3
XY,7,11 86 2
ADD,7,4 86 1
