_X,15 0 1581
_X,14 0 1580
_X,11 0 1579
_X,10 0 1578
_P,9 0 1577
_P,8 0 1576
_P,7 0 1575
_P,6 0 1574
_lambda 0 1573
XY,10,1 0 1572
XY,11,1 0 1571
XY,14,1 0 1570
XY,15,1 0 1569
_P,23 2 1568
_P,22 2 1567
_X,23 2 1566
_X,22 2 1565
_AX,11 2 1564
SUB,11,1 2 1563
MULT,11 2 1562
_AX,10 2 1561
SUB,10,1 2 1560
MULT,10 2 1559
_P,25 7 1558
_P,24 7 1557
_P,17 7 1556
_P,16 7 1555
_P,13 7 1554
_P,12 7 1553
_X,13 7 1552
XY,13,1 7 1551
_X,12 7 1550
XY,12,1 7 1549
_X,7 7 1548
_X,6 7 1547
_AX,13 11 1546
SUB,13,1 11 1545
MULT,13 11 1544
COL,13,13 11 1543
_AX,12 11 1542
SUB,12,1 11 1541
MULT,12 11 1540
COL,12,12 11 1539
_X,3 11 1538
XY,3,1 11 1537
_X,2 11 1536
XY,2,1 11 1535
_AX,21 9 1534
_AX,20 9 1533
_X,21 9 1532
XY,21,1 9 1531
SUB,21,1 9 1530
MULT,21 9 1529
COL,21,1 9 1528
_X,20 9 1527
XY,20,1 9 1526
SUB,20,1 9 1525
MULT,20 9 1524
COL,20,0 9 1523
_P,19 9 1522
_P,18 9 1521
_AX,15 9 1520
SUB,15,1 9 1519
MULT,15 9 1518
COL,15,15 9 1517
_AX,14 9 1516
SUB,14,1 9 1515
MULT,14 9 1514
COL,14,14 9 1513
_X,25 1 1512
XY,25,1 1 1511
_X,24 1 1510
XY,24,1 1 1509
_AX,23 1 1508
_AX,22 1 1507
_P,15 1 1506
_P,14 1 1505
_P,11 1 1504
_P,10 1 1503
_AX,25 4 1502
SUB,25,1 4 1501
_AX,24 4 1500
SUB,24,1 4 1499
_X,19 4 1498
XY,19,1 4 1497
_X,18 4 1496
XY,18,1 4 1495
_X,9 4 1494
_X,8 4 1493
_P,5 4 1492
_P,4 4 1491
XY,8,1 5 1490
XY,9,1 5 1489
_X,17 5 1488
XY,17,1 5 1487
_X,16 5 1486
XY,16,1 5 1485
_X,5 5 1484
XY,5,1 5 1483
_X,4 5 1482
XY,4,1 5 1481
XY,6,1 10 1480
XY,7,1 10 1479
_AX,17 10 1478
SUB,17,1 10 1477
MULT,17 10 1476
COL,17,17 10 1475
_AX,16 10 1474
SUB,16,1 10 1473
MULT,16 10 1472
COL,16,16 10 1471
XY,22,1 3 1470
SUB,22,1 3 1469
MULT,22 3 1468
XY,23,1 3 1467
SUB,23,1 3 1466
MULT,23 3 1465
_P,21 3 1464
_P,20 3 1463
_X,1 3 1462
XY,1,1 3 1461
_X,0 3 1460
XY,0,1 3 1459
COL,23,3 6 1458
COL,22,2 6 1457
COL,10,10 6 1456
COL,11,11 6 1455
RESET,RN 6 1454
_AX,9 6 1453
SUB,9,1 6 1452
MULT,9 6 1451
COL,9,9 6 1450
_AX,8 6 1449
SUB,8,1 6 1448
MULT,8 6 1447
COL,8,8 6 1446
_AX,5 6 1445
SUB,5,1 6 1444
_AX,4 6 1443
SUB,4,1 6 1442
_P,3 6 1441
_P,2 6 1440
_P,1 6 1439
_P,0 6 1438
_AX,7 8 1437
_AX,6 8 1436
_AX,1 8 1435
SUB,1,1 8 1434
MULT,1 8 1433
COL,1,1 8 1432
_AX,0 8 1431
SUB,0,1 8 1430
MULT,0 8 1429
COL,0,0 8 1428
SUB,6,1 12 1427
MULT,6 12 1426
SUB,7,1 12 1425
MULT,7 12 1424
MULT,4 12 1423
COL,4,4 12 1422
MULT,5 12 1421
COL,5,5 12 1420
MULT,24 12 1419
COL,24,4 12 1418
MULT,25 12 1417
COL,25,5 12 1416
COL,7,7 13 1415
COL,6,6 13 1414
_AX,3 13 1413
SUB,3,1 13 1412
MULT,3 13 1411
COL,3,3 13 1410
_AX,2 13 1409
SUB,2,1 13 1408
MULT,2 13 1407
COL,2,2 13 1406
_AX,19 14 1405
SUB,19,1 14 1404
MULT,19 14 1403
COL,19,19 14 1402
_AX,18 14 1401
SUB,18,1 14 1400
MULT,18 14 1399
COL,18,18 14 1398
RNRED,RNBUF 14 1397
SQRT,RN 14 1396
RESET,actMask 14 1395
_AP,13 14 1394
_AP,12 14 1393
_AP,9 14 1392
_AP,8 14 1391
_AP,7 14 1390
_AP,6 14 1389
_AP,3 14 1388
_AP,2 14 1387
CONV,actMask 15 1386
_AP,25 15 1385
GET,25,3 15 1384
_AP,24 15 1383
GET,24,3 15 1382
_AP,15 15 1381
_AP,14 15 1380
_AP,11 15 1379
_AP,10 15 1378
_AP,1 15 1377
_AP,0 15 1376
GET,6,1 23 1375
XTY,6,6,1 23 1374
GET,7,1 23 1373
XTY,7,7,1 23 1372
GET,8,1 23 1371
XTY,8,8,1 23 1370
GET,9,1 23 1369
XTY,9,9,1 23 1368
GET,16,1 23 1367
XTY,16,16,1 23 1366
GET,17,1 23 1365
XTY,17,17,1 23 1364
GET,12,1 25 1363
XTY,12,12,1 25 1362
GET,13,1 25 1361
XTY,13,13,1 25 1360
GET,14,1 25 1359
GET,15,1 25 1358
GET,24,1 25 1357
XTY,24,4,1 25 1356
GET,25,1 25 1355
XTY,25,5,1 25 1354
GET,8,2 33 1353
XTY,8,8,3 33 1352
GET,9,2 33 1351
XTY,9,9,3 33 1350
GET,14,2 33 1349
XTY,14,14,3 33 1348
GET,15,2 33 1347
XTY,15,15,3 33 1346
GET,20,2 33 1345
GET,21,2 33 1344
GET,22,1 21 1343
XTY,22,2,1 21 1342
GET,23,1 21 1341
XTY,23,3,1 21 1340
GET,2,3 21 1339
GET,3,3 21 1338
SETZERO,5,1 16 1337
SETZERO,4,1 16 1336
_AP,23 16 1335
GET,23,3 16 1334
_AP,22 16 1333
GET,22,3 16 1332
_AP,19 16 1331
_AP,18 16 1330
_AP,17 16 1329
_AP,16 16 1328
GET,18,3 18 1327
GET,19,3 18 1326
GET,18,1 18 1325
XTY,18,18,1 18 1324
GET,19,1 18 1323
XTY,19,19,1 18 1322
GET,16,3 22 1321
GET,17,3 22 1320
_AP,21 22 1319
GET,21,3 22 1318
_AP,20 22 1317
GET,20,3 22 1316
_AP,5 22 1315
GET,5,3 22 1314
_AP,4 22 1313
GET,4,3 22 1312
GET,14,3 19 1311
GET,15,3 19 1310
GET,10,1 19 1309
XTY,10,10,1 19 1308
GET,11,1 19 1307
XTY,11,11,1 19 1306
GET,20,1 19 1305
GET,21,1 19 1304
GET,8,3 19 1303
GET,9,3 19 1302
XTY,21,1,1 24 1301
XTY,20,0,1 24 1300
GET,2,1 24 1299
XTY,2,2,1 24 1298
GET,3,1 24 1297
XTY,3,3,1 24 1296
GET,4,1 24 1295
XTY,4,4,1 24 1294
GET,5,1 24 1293
XTY,5,5,1 24 1292
GET,10,3 17 1291
GET,11,3 17 1290
GET,6,3 17 1289
GET,7,3 17 1288
GET,12,3 17 1287
GET,13,3 17 1286
GET,0,3 20 1285
GET,1,3 20 1284
GET,0,1 20 1283
XTY,0,0,1 20 1282
GET,1,1 20 1281
XTY,1,1,1 20 1280
XTY,15,15,1 26 1279
XTY,14,14,1 26 1278
RED,temp2BUF,0 26 1277
XY,18,2 26 1276
XY,19,2 26 1275
XY,22,2 26 1274
XY,23,2 26 1273
SUB,23,2 34 1272
XTY,23,3,2 34 1271
SUB,22,2 34 1270
XTY,22,2,2 34 1269
XTY,21,1,3 34 1268
XTY,20,0,3 34 1267
GET,6,2 34 1266
XTY,6,6,3 34 1265
GET,7,2 34 1264
XTY,7,7,3 34 1263
XY,2,2 28 1262
SUB,2,2 28 1261
XTY,2,2,2 28 1260
XY,3,2 28 1259
SUB,3,2 28 1258
XTY,3,3,2 28 1257
XY,8,2 28 1256
SUB,8,2 28 1255
XTY,8,8,2 28 1254
XY,9,2 28 1253
SUB,9,2 28 1252
XTY,9,9,2 28 1251
XY,12,2 29 1250
SUB,12,2 29 1249
XTY,12,12,2 29 1248
XY,13,2 29 1247
SUB,13,2 29 1246
XTY,13,13,2 29 1245
XY,14,2 29 1244
SUB,14,2 29 1243
XTY,14,14,2 29 1242
XY,15,2 29 1241
SUB,15,2 29 1240
XTY,15,15,2 29 1239
XY,0,2 30 1238
XY,1,2 30 1237
XY,6,2 30 1236
SUB,6,2 30 1235
XTY,6,6,2 30 1234
XY,7,2 30 1233
SUB,7,2 30 1232
XTY,7,7,2 30 1231
XY,16,2 30 1230
XY,17,2 30 1229
XY,20,2 30 1228
XY,21,2 30 1227
SUB,17,2 31 1226
XTY,17,17,2 31 1225
SUB,16,2 31 1224
XTY,16,16,2 31 1223
XY,4,2 31 1222
SUB,4,2 31 1221
XTY,4,4,2 31 1220
XY,5,2 31 1219
SUB,5,2 31 1218
XTY,5,5,2 31 1217
SUB,1,2 32 1216
XTY,1,1,2 32 1215
SUB,0,2 32 1214
XTY,0,0,2 32 1213
GET,10,2 32 1212
XTY,10,10,3 32 1211
GET,11,2 32 1210
XTY,11,11,3 32 1209
GET,16,2 32 1208
XTY,16,16,3 32 1207
GET,17,2 32 1206
XTY,17,17,3 32 1205
GET,24,2 32 1204
GET,25,2 32 1203
XTY,25,5,3 36 1202
XTY,24,4,3 36 1201
GET,0,2 36 1200
XTY,0,0,3 36 1199
GET,1,2 36 1198
XTY,1,1,3 36 1197
GET,22,2 36 1196
XTY,22,2,3 36 1195
GET,23,2 36 1194
XTY,23,3,3 36 1193
XY,10,2 27 1192
XY,11,2 27 1191
XY,24,2 27 1190
XY,25,2 27 1189
SUB,25,2 35 1188
XTY,25,5,2 35 1187
SUB,24,2 35 1186
XTY,24,4,2 35 1185
GET,2,2 35 1184
XTY,2,2,3 35 1183
GET,3,2 35 1182
XTY,3,3,3 35 1181
GET,4,2 35 1180
XTY,4,4,3 35 1179
GET,5,2 35 1178
XTY,5,5,3 35 1177
SUB,11,2 37 1176
XTY,11,11,2 37 1175
SUB,10,2 37 1174
XTY,10,10,2 37 1173
SUB,21,2 37 1172
XTY,21,1,2 37 1171
SUB,20,2 37 1170
XTY,20,0,2 37 1169
GET,12,2 37 1168
XTY,12,12,3 37 1167
GET,13,2 37 1166
XTY,13,13,3 37 1165
GET,18,2 41 1164
XTY,18,18,3 41 1163
GET,19,2 41 1162
XTY,19,19,3 41 1161
RED,PBPBUF,0 41 1160
CHOL,PBP 41 1159
INV,PBP 41 1158
XY,18,4 41 1157
XY,19,4 41 1156
XY,0,4 48 1155
XY,1,4 48 1154
XY,6,5 48 1153
XY,7,5 48 1152
XY,4,5 45 1151
DLACPY,4,3 45 1150
UPDATE,4,3 45 1149
XY,5,5 45 1148
DLACPY,5,3 45 1147
UPDATE,5,3 45 1146
XY,10,5 45 1145
DLACPY,10,3 45 1144
UPDATE,10,3 45 1143
XY,11,5 45 1142
DLACPY,11,3 45 1141
UPDATE,11,3 45 1140
XY,14,4 50 1139
XY,15,4 50 1138
XY,22,4 50 1137
XY,23,4 50 1136
XY,14,5 50 1135
XY,15,5 50 1134
XY,4,4 43 1133
XY,5,4 43 1132
XY,24,4 43 1131
XY,25,4 43 1130
XY,18,5 43 1129
XY,19,5 43 1128
XY,8,4 42 1127
XY,9,4 42 1126
XY,22,5 42 1125
XY,23,5 42 1124
XY,6,4 44 1123
XY,7,4 44 1122
XY,20,5 44 1121
XY,21,5 44 1120
XY,24,5 44 1119
DLACPY,24,3 44 1118
UPDATE,24,3 44 1117
XY,25,5 44 1116
DLACPY,25,3 44 1115
UPDATE,25,3 44 1114
SUB,19,2 38 1113
XTY,19,19,2 38 1112
SUB,18,2 38 1111
XTY,18,18,2 38 1110
RED,RBRBUF,0 38 1109
CHOL,RBR 38 1108
INV,RBR 38 1107
XY,2,3 51 1106
XY,3,3 51 1105
XY,20,4 51 1104
XY,21,4 51 1103
XY,12,5 51 1102
XY,13,5 51 1101
DLACPY,3,1 69 1100
DLACPY,2,1 69 1099
SETZERO,21,1 69 1098
SETZERO,20,1 69 1097
SETZERO,9,1 69 1096
SETZERO,8,1 69 1095
SETZERO,7,1 69 1094
SPMM,7,2,0 69 1093
SPMM,7,3,0 69 1092
SETZERO,6,1 69 1091
SPMM,6,2,0 69 1090
SPMM,6,3,0 69 1089
SETZERO,3,1 69 1088
SPMM,3,2,0 69 1087
SPMM,3,3,0 69 1086
SETZERO,2,1 69 1085
SPMM,2,2,0 69 1084
SPMM,2,3,0 69 1083
XY,4,3 49 1082
XY,5,3 49 1081
XY,2,5 49 1080
XY,3,5 49 1079
XY,8,5 49 1078
XY,9,5 49 1077
DLACPY,9,3 61 1076
UPDATE,9,3 61 1075
DLACPY,8,3 61 1074
UPDATE,8,3 61 1073
DLACPY,9,2 61 1072
UPDATE,9,2 61 1071
XTY,9,9,8 61 1070
XTY,9,9,9 61 1069
DLACPY,8,2 61 1068
UPDATE,8,2 61 1067
XTY,8,8,8 61 1066
XTY,8,8,9 61 1065
XY,6,3 52 1064
XY,7,3 52 1063
XY,10,4 52 1062
XY,11,4 52 1061
XY,8,3 53 1060
XY,9,3 53 1059
XY,2,4 53 1058
XY,3,4 53 1057
XY,16,5 53 1056
XY,17,5 53 1055
DLACPY,3,2 57 1054
UPDATE,3,2 57 1053
XTY,3,3,6 57 1052
XTY,3,3,9 57 1051
DLACPY,2,2 57 1050
UPDATE,2,2 57 1049
XTY,2,2,6 57 1048
XTY,2,2,9 57 1047
DLACPY,3,3 57 1046
XTY,3,3,8 57 1045
DLACPY,2,3 57 1044
XTY,2,2,8 57 1043
XY,12,3 47 1042
XY,13,3 47 1041
XY,14,3 47 1040
XY,15,3 47 1039
XY,16,4 47 1038
XY,17,4 47 1037
XY,16,3 46 1036
XY,17,3 46 1035
XY,12,4 46 1034
XY,13,4 46 1033
XY,0,5 46 1032
XY,1,5 46 1031
DLACPY,1,3 54 1030
UPDATE,1,3 54 1029
DLACPY,0,3 54 1028
UPDATE,0,3 54 1027
DLACPY,17,3 54 1026
UPDATE,17,3 54 1025
DLACPY,16,3 54 1024
UPDATE,16,3 54 1023
DLACPY,21,3 54 1022
DLACPY,20,3 54 1021
DLACPY,25,2 54 1020
UPDATE,25,2 54 1019
DLACPY,24,2 54 1018
UPDATE,24,2 54 1017
UPDATE,20,3 62 1016
UPDATE,21,3 62 1015
DLACPY,23,3 62 1014
DLACPY,22,3 62 1013
DLACPY,23,2 62 1012
XTY,23,3,6 62 1011
XTY,23,3,8 62 1010
DLACPY,22,2 62 1009
XTY,22,2,6 62 1008
XTY,22,2,8 62 1007
XTY,24,4,6 67 1006
XTY,25,5,6 67 1005
DLACPY,17,2 67 1004
UPDATE,17,2 67 1003
XTY,17,17,6 67 1002
XTY,17,17,8 67 1001
XTY,17,17,9 67 1000
DLACPY,16,2 67 999
UPDATE,16,2 67 998
XTY,16,16,6 67 997
XTY,16,16,8 67 996
XTY,16,16,9 67 995
XTY,24,4,8 59 994
XTY,25,5,8 59 993
DLACPY,11,2 59 992
UPDATE,11,2 59 991
XTY,11,11,8 59 990
XTY,11,11,9 59 989
DLACPY,10,2 59 988
UPDATE,10,2 59 987
XTY,10,10,8 59 986
XTY,10,10,9 59 985
XTY,24,4,9 55 984
XTY,25,5,9 55 983
DLACPY,13,3 55 982
UPDATE,13,3 55 981
DLACPY,12,3 55 980
UPDATE,12,3 55 979
DLACPY,19,2 55 978
XTY,19,19,6 55 977
DLACPY,18,2 55 976
XTY,18,18,6 55 975
DLACPY,13,2 60 974
UPDATE,13,2 60 973
XTY,13,13,8 60 972
XTY,13,13,9 60 971
DLACPY,12,2 60 970
UPDATE,12,2 60 969
XTY,12,12,8 60 968
XTY,12,12,9 60 967
UPDATE,2,3 60 966
UPDATE,3,3 60 965
XTY,12,12,6 64 964
XTY,13,13,6 64 963
DLACPY,1,2 64 962
UPDATE,1,2 64 961
XTY,1,1,6 64 960
XTY,1,1,8 64 959
DLACPY,0,2 64 958
UPDATE,0,2 64 957
XTY,0,0,6 64 956
XTY,0,0,8 64 955
UPDATE,22,2 63 954
UPDATE,23,2 63 953
DLACPY,19,3 63 952
UPDATE,19,3 63 951
XTY,19,19,8 63 950
DLACPY,18,3 63 949
UPDATE,18,3 63 948
XTY,18,18,8 63 947
DLACPY,15,3 63 946
UPDATE,15,3 63 945
DLACPY,14,3 63 944
UPDATE,14,3 63 943
UPDATE,22,3 65 942
UPDATE,23,3 65 941
DLACPY,15,2 65 940
UPDATE,15,2 65 939
XTY,15,15,6 65 938
XTY,15,15,8 65 937
XTY,15,15,9 65 936
DLACPY,14,2 65 935
UPDATE,14,2 65 934
XTY,14,14,6 65 933
XTY,14,14,8 65 932
XTY,14,14,9 65 931
XTY,18,18,9 56 930
XTY,19,19,9 56 929
DLACPY,21,2 56 928
UPDATE,21,2 56 927
XTY,21,1,6 56 926
XTY,21,1,8 56 925
DLACPY,20,2 56 924
UPDATE,20,2 56 923
XTY,20,0,6 56 922
XTY,20,0,8 56 921
XTY,20,0,9 58 920
XTY,21,1,9 58 919
DLACPY,7,2 58 918
UPDATE,7,2 58 917
XTY,7,7,9 58 916
DLACPY,6,2 58 915
UPDATE,6,2 58 914
XTY,6,6,9 58 913
DLACPY,7,3 58 912
UPDATE,7,3 58 911
DLACPY,6,3 58 910
UPDATE,6,3 58 909
XTY,6,6,8 66 908
XTY,7,7,8 66 907
UPDATE,18,2 66 906
UPDATE,19,2 66 905
XTY,10,10,6 66 904
XTY,11,11,6 66 903
XTY,22,2,9 66 902
XTY,23,3,9 66 901
XTY,8,8,6 66 900
XTY,9,9,6 66 899
XTY,6,6,6 68 898
XTY,7,7,6 68 897
XTY,0,0,9 68 896
XTY,1,1,9 68 895
DLACPY,5,2 68 894
UPDATE,5,2 68 893
XTY,5,5,6 68 892
XTY,5,5,8 68 891
XTY,5,5,9 68 890
DLACPY,4,2 68 889
UPDATE,4,2 68 888
XTY,4,4,6 68 887
RED,XAPBUF,0 68 886
XTY,4,4,8 68 885
RED,PAPBUF,0 68 884
SPEUPDATE,PAP 68 883
XTY,4,4,9 68 882
RED,XBPBUF,0 68 881
DLACPY,5,1 70 880
SPMM,2,5,0 70 879
SPMM,3,5,0 70 878
SPMM,4,5,0 70 877
SPMM,5,5,0 70 876
UPDATE,5,1 70 875
XTY,5,5,10 70 874
DLACPY,4,1 70 873
SPMM,2,4,0 70 872
SPMM,3,4,0 70 871
SPMM,4,4,0 70 870
SPMM,5,4,0 70 869
UPDATE,4,1 70 868
XTY,4,4,10 70 867
XY,0,3 39 866
XY,1,3 39 865
XY,10,3 39 864
XY,11,3 39 863
XY,20,3 39 862
XY,21,3 39 861
DLACPY,11,1 71 860
SPMM,7,11,0 71 859
SPMM,8,11,0 71 858
SPMM,9,11,0 71 857
SPMM,20,11,0 71 856
SPMM,21,11,0 71 855
UPDATE,11,1 71 854
DLACPY,10,1 71 853
SPMM,2,10,0 71 852
SPMM,7,10,0 71 851
SPMM,9,10,0 71 850
SPMM,20,10,0 71 849
SPMM,21,10,0 71 848
UPDATE,10,1 71 847
SPMM,6,4,0 71 846
SPMM,7,4,0 71 845
SPMM,6,5,0 71 844
SPMM,7,5,0 71 843
SETZERO,15,1 71 842
SPMM,15,10,0 71 841
SPMM,15,11,0 71 840
SETZERO,14,1 71 839
SPMM,14,10,0 71 838
SPMM,14,11,0 71 837
SETZERO,11,1 71 836
SPMM,11,10,0 71 835
SPMM,11,11,0 71 834
SETZERO,10,1 71 833
SPMM,10,10,0 71 832
SPMM,10,11,0 71 831
DLACPY,1,1 72 830
SPMM,9,1,0 72 829
SPMM,10,1,0 72 828
XTY,1,1,10 72 827
DLACPY,0,1 72 826
SPMM,9,0,0 72 825
SPMM,10,0,0 72 824
XTY,0,0,10 72 823
SETZERO,13,1 72 822
SPMM,13,0,0 72 821
SPMM,13,1,0 72 820
SETZERO,12,1 72 819
SPMM,12,0,0 72 818
SPMM,12,1,0 72 817
DLACPY,9,1 86 816
SPMM,10,9,0 86 815
SPMM,11,9,0 86 814
SPMM,12,9,0 86 813
SPMM,13,9,0 86 812
SPMM,14,9,0 86 811
SPMM,15,9,0 86 810
SPMM,20,9,0 86 809
SPMM,21,9,0 86 808
UPDATE,9,1 86 807
DLACPY,8,1 86 806
SPMM,11,8,0 86 805
SPMM,12,8,0 86 804
SPMM,13,8,0 86 803
SPMM,14,8,0 86 802
SPMM,15,8,0 86 801
SPMM,20,8,0 86 800
SPMM,21,8,0 86 799
UPDATE,8,1 86 798
UPDATE,0,1 73 797
SPMM,6,1,0 73 796
SPMM,7,1,0 73 795
UPDATE,1,1 73 794
XTY,10,10,10 73 793
XTY,11,11,10 73 792
SETZERO,17,1 73 791
SPMM,17,10,0 73 790
SPMM,17,11,0 73 789
SETZERO,16,1 73 788
SPMM,16,10,0 73 787
SPMM,16,11,0 73 786
DLACPY,7,1 78 785
SPMM,2,7,0 78 784
SPMM,3,7,0 78 783
SPMM,6,7,0 78 782
SPMM,7,7,0 78 781
SPMM,10,7,0 78 780
SPMM,11,7,0 78 779
SPMM,14,7,0 78 778
SPMM,15,7,0 78 777
SPMM,16,7,0 78 776
SPMM,17,7,0 78 775
DLACPY,6,1 78 774
SPMM,2,6,0 78 773
SPMM,3,6,0 78 772
SPMM,6,6,0 78 771
SPMM,7,6,0 78 770
SPMM,10,2,0 88 769
DLACPY,13,1 88 768
SPMM,8,13,0 88 767
SPMM,9,13,0 88 766
SPMM,12,13,0 88 765
SPMM,13,13,0 88 764
SPMM,16,13,0 88 763
SPMM,17,13,0 88 762
SPMM,20,13,0 88 761
SPMM,21,13,0 88 760
DLACPY,12,1 88 759
SPMM,8,12,0 88 758
SPMM,9,12,0 88 757
SPMM,12,12,0 88 756
SPMM,13,12,0 88 755
SPMM,16,12,0 88 754
SPMM,17,12,0 88 753
SPMM,20,12,0 88 752
SPMM,21,12,0 88 751
DLACPY,15,1 76 750
SPMM,7,15,0 76 749
SPMM,8,15,0 76 748
SPMM,9,15,0 76 747
SPMM,10,15,0 76 746
SPMM,11,15,0 76 745
SPMM,16,15,0 76 744
SPMM,17,15,0 76 743
DLACPY,14,1 76 742
SPMM,7,14,0 76 741
SPMM,8,14,0 76 740
SPMM,9,14,0 76 739
SPMM,10,14,0 76 738
SPMM,11,14,0 76 737
SPMM,16,14,0 76 736
SPMM,17,14,0 76 735
DLACPY,17,1 74 734
SPMM,10,17,0 74 733
SPMM,11,17,0 74 732
SPMM,12,17,0 74 731
SPMM,13,17,0 74 730
SPMM,14,17,0 74 729
SPMM,15,17,0 74 728
SPMM,16,17,0 74 727
SPMM,17,17,0 74 726
SPMM,20,17,0 74 725
SPMM,21,17,0 74 724
DLACPY,16,1 74 723
SPMM,10,16,0 74 722
SPMM,11,16,0 74 721
SPMM,12,16,0 74 720
SPMM,13,16,0 74 719
SPMM,14,16,0 74 718
SPMM,15,16,0 74 717
SPMM,16,16,0 74 716
SPMM,17,16,0 74 715
SPMM,20,16,0 74 714
SPMM,21,16,0 74 713
SPMM,7,16,0 75 712
SPMM,8,16,0 75 711
SPMM,9,16,0 75 710
UPDATE,16,1 75 709
XTY,16,16,4 75 708
XTY,16,16,10 75 707
SPMM,7,17,0 75 706
SPMM,8,17,0 75 705
SPMM,9,17,0 75 704
UPDATE,17,1 75 703
XTY,17,17,4 75 702
XTY,17,17,10 75 701
DLACPY,21,1 77 700
SPMM,8,21,0 77 699
SPMM,9,21,0 77 698
SPMM,10,21,0 77 697
SPMM,11,21,0 77 696
SPMM,12,21,0 77 695
SPMM,13,21,0 77 694
SPMM,14,21,0 77 693
SPMM,15,21,0 77 692
SPMM,16,21,0 77 691
SPMM,17,21,0 77 690
XTY,21,1,10 77 689
DLACPY,20,1 77 688
SPMM,8,20,0 77 687
SPMM,9,20,0 77 686
SPMM,10,20,0 77 685
SPMM,11,20,0 77 684
SPMM,12,20,0 77 683
SPMM,13,20,0 77 682
SPMM,14,20,0 77 681
SPMM,15,20,0 77 680
SPMM,16,20,0 77 679
SPMM,17,20,0 77 678
XTY,20,0,10 77 677
SPMM,20,20,0 89 676
SPMM,21,20,0 89 675
SPMM,20,21,0 89 674
SPMM,21,21,0 89 673
XTY,12,12,10 89 672
XTY,13,13,10 89 671
XTY,20,0,4 79 670
XTY,21,1,4 79 669
XTY,14,14,4 79 668
XTY,15,15,4 79 667
SPMM,8,7,0 79 666
SPMM,9,7,0 79 665
SPMM,12,7,0 79 664
SPMM,13,7,0 79 663
SPMM,20,7,0 79 662
SPMM,21,7,0 79 661
XY,18,3 40 660
XY,19,3 40 659
XY,22,3 40 658
XY,23,3 40 657
XY,24,3 40 656
XY,25,3 40 655
DLACPY,25,1 80 654
SPMM,7,25,0 80 653
SPMM,8,25,0 80 652
SPMM,9,25,0 80 651
SPMM,12,25,0 80 650
SPMM,13,25,0 80 649
SPMM,14,25,0 80 648
SPMM,15,25,0 80 647
SPMM,20,25,0 80 646
SPMM,21,25,0 80 645
DLACPY,24,1 80 644
SPMM,7,24,0 80 643
SPMM,8,24,0 80 642
SPMM,9,24,0 80 641
SPMM,12,24,0 80 640
SPMM,13,24,0 80 639
SPMM,14,24,0 80 638
SPMM,15,24,0 80 637
SPMM,20,24,0 80 636
SPMM,21,24,0 80 635
UPDATE,24,1 81 634
XTY,24,4,4 81 633
UPDATE,25,1 81 632
XTY,25,5,4 81 631
SPMM,7,20,0 81 630
UPDATE,20,1 81 629
SPMM,7,21,0 81 628
UPDATE,21,1 81 627
UPDATE,6,1 81 626
UPDATE,7,1 81 625
DLACPY,23,1 82 624
SPMM,10,23,0 82 623
SPMM,11,23,0 82 622
SPMM,12,23,0 82 621
SPMM,13,23,0 82 620
SPMM,14,23,0 82 619
SPMM,15,23,0 82 618
SPMM,16,23,0 82 617
SPMM,17,23,0 82 616
SPMM,20,23,0 82 615
SPMM,21,23,0 82 614
DLACPY,22,1 82 613
SPMM,10,22,0 82 612
SPMM,11,22,0 82 611
SPMM,12,22,0 82 610
SPMM,13,22,0 82 609
SPMM,14,22,0 82 608
SPMM,15,22,0 82 607
SPMM,16,22,0 82 606
SPMM,17,22,0 82 605
SPMM,20,22,0 82 604
SPMM,21,22,0 82 603
SPMM,8,22,0 95 602
SPMM,9,22,0 95 601
SPMM,8,23,0 95 600
SPMM,9,23,0 95 599
SETZERO,1,1 95 598
SPMM,1,0,0 95 597
SPMM,1,1,0 95 596
SPMM,1,2,0 95 595
SPMM,1,3,0 95 594
SPMM,1,6,0 95 593
SPMM,1,7,0 95 592
SPMM,1,12,0 95 591
SPMM,1,13,0 95 590
SETZERO,0,1 95 589
SPMM,0,0,0 95 588
SPMM,0,1,0 95 587
SPMM,0,12,0 95 586
SPMM,0,13,0 95 585
SPMM,0,5,0 96 584
SPMM,0,9,0 96 583
SPMM,0,10,0 96 582
XTY,0,0,5 96 581
XTY,0,0,7 96 580
SPMM,1,4,0 96 579
SPMM,1,5,0 96 578
SPMM,1,9,0 96 577
SPMM,1,10,0 96 576
XTY,1,1,5 96 575
XTY,1,1,7 96 574
SPMM,7,22,0 83 573
UPDATE,22,1 83 572
XTY,22,2,4 83 571
SPMM,7,23,0 83 570
UPDATE,23,1 83 569
XTY,23,3,4 83 568
SPMM,12,14,0 83 567
SPMM,13,14,0 83 566
SPMM,12,15,0 83 565
SPMM,13,15,0 83 564
SPMM,2,1,0 83 563
SPMM,3,1,0 83 562
XTY,22,2,10 104 561
XTY,23,3,10 104 560
XTY,24,4,10 104 559
XTY,25,5,10 104 558
XTY,8,8,4 104 557
XTY,9,9,4 104 556
DLACPY,19,1 84 555
SPMM,8,19,0 84 554
SPMM,9,19,0 84 553
SPMM,10,19,0 84 552
SPMM,11,19,0 84 551
SPMM,12,19,0 84 550
SPMM,13,19,0 84 549
SPMM,14,19,0 84 548
SPMM,15,19,0 84 547
SPMM,16,19,0 84 546
SPMM,17,19,0 84 545
SPMM,20,19,0 84 544
SPMM,21,19,0 84 543
DLACPY,18,1 84 542
SPMM,8,18,0 84 541
SPMM,9,18,0 84 540
SPMM,10,18,0 84 539
SPMM,11,18,0 84 538
SPMM,12,18,0 84 537
SPMM,13,18,0 84 536
SPMM,14,18,0 84 535
SPMM,15,18,0 84 534
SPMM,16,18,0 84 533
SPMM,17,18,0 84 532
SPMM,20,18,0 84 531
SPMM,21,18,0 84 530
SPMM,20,14,0 91 529
SPMM,21,14,0 91 528
SPMM,20,15,0 91 527
XTY,20,0,5 91 526
XTY,20,0,7 91 525
SPMM,21,15,0 91 524
XTY,21,1,5 91 523
XTY,21,1,7 91 522
UPDATE,12,1 91 521
UPDATE,13,1 91 520
SPMM,12,10,0 91 519
SPMM,12,11,0 91 518
SPMM,13,10,0 91 517
SPMM,13,11,0 91 516
SETZERO,19,1 106 515
SPMM,19,7,0 106 514
SPMM,19,8,0 106 513
SPMM,19,9,0 106 512
SPMM,19,10,0 106 511
SPMM,19,11,0 106 510
SPMM,19,14,0 106 509
SPMM,19,15,0 106 508
SPMM,19,18,0 106 507
SPMM,19,19,0 106 506
SETZERO,18,1 106 505
SPMM,18,7,0 106 504
SPMM,18,8,0 106 503
SPMM,18,9,0 106 502
SPMM,18,10,0 106 501
SPMM,18,11,0 106 500
SPMM,18,14,0 106 499
SPMM,18,15,0 106 498
SPMM,18,18,0 106 497
SPMM,18,19,0 106 496
SPMM,18,12,0 107 495
SPMM,18,13,0 107 494
SPMM,18,24,0 107 493
SPMM,18,25,0 107 492
SPMM,19,12,0 107 491
SPMM,19,13,0 107 490
SPMM,19,24,0 107 489
SPMM,19,25,0 107 488
XTY,12,12,4 107 487
XTY,13,13,4 107 486
XTY,0,0,4 107 485
XTY,1,1,4 107 484
XTY,4,4,4 107 483
XTY,5,5,4 107 482
SETZERO,23,1 101 481
SPMM,23,8,0 101 480
SPMM,23,9,0 101 479
SPMM,23,10,0 101 478
SPMM,23,11,0 101 477
SPMM,23,14,0 101 476
SPMM,23,15,0 101 475
SPMM,23,18,0 101 474
SPMM,23,19,0 101 473
SPMM,23,20,0 101 472
SPMM,23,21,0 101 471
SPMM,23,24,0 101 470
SPMM,23,25,0 101 469
SETZERO,22,1 101 468
SPMM,22,8,0 101 467
SPMM,22,9,0 101 466
SPMM,22,10,0 101 465
SPMM,22,11,0 101 464
SPMM,22,14,0 101 463
SPMM,22,15,0 101 462
SPMM,22,18,0 101 461
SPMM,22,19,0 101 460
SPMM,22,20,0 101 459
SPMM,22,21,0 101 458
SPMM,22,24,0 101 457
SPMM,22,25,0 101 456
SPMM,22,7,0 102 455
SPMM,22,12,0 102 454
SPMM,22,13,0 102 453
SPMM,22,16,0 102 452
SPMM,22,17,0 102 451
SPMM,22,22,0 102 450
SPMM,22,23,0 102 449
XTY,22,2,7 102 448
SPMM,23,7,0 102 447
SPMM,23,12,0 102 446
SPMM,23,13,0 102 445
SPMM,23,16,0 102 444
SPMM,23,17,0 102 443
SPMM,23,22,0 102 442
SPMM,23,23,0 102 441
XTY,23,3,7 102 440
XTY,23,3,5 103 439
XTY,22,2,5 103 438
XTY,6,6,4 103 437
XTY,7,7,4 103 436
XTY,2,2,4 103 435
XTY,3,3,4 103 434
SETZERO,25,1 98 433
SPMM,25,12,0 98 432
SPMM,25,13,0 98 431
SPMM,25,16,0 98 430
SPMM,25,17,0 98 429
SPMM,25,18,0 98 428
SPMM,25,19,0 98 427
SPMM,25,22,0 98 426
SPMM,25,23,0 98 425
SPMM,25,24,0 98 424
SPMM,25,25,0 98 423
SETZERO,24,1 98 422
SPMM,24,12,0 98 421
SPMM,24,13,0 98 420
SPMM,24,16,0 98 419
SPMM,24,17,0 98 418
SPMM,24,18,0 98 417
SPMM,24,19,0 98 416
SPMM,24,22,0 98 415
SPMM,24,23,0 98 414
SPMM,24,24,0 98 413
SPMM,24,25,0 98 412
SPMM,24,7,0 99 411
SPMM,24,14,0 99 410
SPMM,24,15,0 99 409
SPMM,25,7,0 99 408
SPMM,25,14,0 99 407
SPMM,25,15,0 99 406
SPMM,8,8,0 99 405
SPMM,9,8,0 99 404
SPMM,8,9,0 99 403
XTY,8,8,5 99 402
XTY,8,8,7 99 401
SPMM,9,9,0 99 400
SPMM,9,2,0 99 399
XTY,9,9,5 99 398
XTY,9,9,7 99 397
SPMM,24,8,0 100 396
SPMM,24,9,0 100 395
SPMM,24,10,0 100 394
SPMM,24,11,0 100 393
SPMM,24,20,0 100 392
SPMM,24,21,0 100 391
XTY,24,4,5 100 390
XTY,24,4,7 100 389
SPMM,25,8,0 100 388
SPMM,25,9,0 100 387
SPMM,25,10,0 100 386
SPMM,25,11,0 100 385
SPMM,25,20,0 100 384
SPMM,25,21,0 100 383
XTY,25,5,5 100 382
XTY,25,5,7 100 381
UPDATE,18,1 85 380
XTY,18,18,10 85 379
UPDATE,19,1 85 378
XTY,19,19,10 85 377
SPMM,10,24,0 85 376
SPMM,11,24,0 85 375
SPMM,10,25,0 85 374
SPMM,11,25,0 85 373
UPDATE,14,1 85 372
UPDATE,15,1 85 371
SPMM,4,2,0 85 370
SPMM,5,2,0 85 369
SPMM,4,3,0 85 368
SPMM,5,3,0 85 367
SPMM,14,14,0 90 366
SPMM,15,14,0 90 365
SPMM,14,15,0 90 364
SPMM,15,15,0 90 363
SPMM,10,12,0 90 362
SPMM,11,12,0 90 361
SPMM,10,13,0 90 360
XTY,10,10,5 90 359
SPMM,11,13,0 90 358
XTY,11,11,5 90 357
SPMM,14,12,0 92 356
SPMM,15,12,0 92 355
SPMM,14,13,0 92 354
XTY,14,14,5 92 353
XTY,14,14,7 92 352
SPMM,15,13,0 92 351
XTY,15,15,5 92 350
XTY,15,15,7 92 349
SPMM,12,2,0 92 348
XTY,12,12,5 92 347
XTY,12,12,7 92 346
SPMM,13,2,0 92 345
XTY,13,13,5 92 344
XTY,13,13,7 92 343
XTY,11,11,7 93 342
XTY,10,10,7 93 341
SPMM,16,24,0 93 340
SPMM,17,24,0 93 339
SPMM,16,25,0 93 338
SPMM,17,25,0 93 337
SPMM,7,12,0 93 336
SPMM,7,13,0 93 335
SPMM,16,8,0 93 334
SPMM,16,9,0 93 333
XTY,16,16,5 93 332
XTY,16,16,7 93 331
SPMM,17,8,0 93 330
SPMM,17,9,0 93 329
XTY,17,17,5 93 328
XTY,17,17,7 93 327
SPMM,4,6,0 87 326
SPMM,5,6,0 87 325
SPMM,4,7,0 87 324
SPMM,5,7,0 87 323
XTY,8,8,10 87 322
XTY,9,9,10 87 321
SPMM,5,0,0 87 320
SPMM,4,1,0 87 319
XTY,4,4,5 87 318
SPMM,5,1,0 87 317
XTY,5,5,5 87 316
UPDATE,2,1 87 315
UPDATE,3,1 87 314
XTY,14,14,10 105 313
XTY,15,15,10 105 312
XTY,6,6,10 105 311
XTY,7,7,10 105 310
XTY,10,10,4 105 309
XTY,11,11,4 105 308
XTY,2,2,10 105 307
XTY,3,3,10 105 306
RED,RBPBUF,0 105 305
XTY,5,5,7 94 304
XTY,4,4,7 94 303
SPMM,7,18,0 94 302
XTY,18,18,4 94 301
SPMM,7,19,0 94 300
XTY,19,19,4 94 299
XTY,6,6,5 94 298
SPMM,7,8,0 94 297
SPMM,7,9,0 94 296
XTY,7,7,5 94 295
XTY,7,7,7 97 294
XTY,3,3,5 97 293
XTY,3,3,7 97 292
SPMM,2,12,0 97 291
SPMM,2,13,0 97 290
XTY,6,6,7 97 289
SPMM,2,9,0 97 288
XTY,2,2,5 97 287
XTY,2,2,7 97 286
RED,XARBUF,0 108 285
CONSTRUCTGA1 108 284
SPMM,18,16,0 108 283
SPMM,18,17,0 108 282
SPMM,18,20,0 108 281
SPMM,18,21,0 108 280
SPMM,18,22,0 108 279
SPMM,18,23,0 108 278
XTY,18,18,5 108 277
XTY,18,18,7 108 276
SPMM,19,16,0 108 275
SPMM,19,17,0 108 274
SPMM,19,20,0 108 273
SPMM,19,21,0 108 272
SPMM,19,22,0 108 271
SPMM,19,23,0 108 270
XTY,19,19,5 108 269
RED,RARBUF,0 108 268
TRANS,RAR 108 267
SPEUPDATE,RAR 108 266
XTY,19,19,7 108 265
RED,RAPBUF,0 108 264
CONSTRUCTGA2 109 263
CONSTRUCTGB 109 262
EIGEN 109 261
XY,4,6 109 260
XY,5,6 109 259
XY,12,11 109 258
XY,13,11 109 257
XY,8,6 110 256
XY,9,6 110 255
XY,14,6 110 254
XY,15,6 110 253
XY,18,6 110 252
XY,19,6 110 251
XY,10,7 125 250
XY,11,7 125 249
XY,14,7 125 248
ADD,14,1 125 247
XY,15,7 125 246
ADD,15,1 125 245
XY,14,10 125 244
ADD,14,3 125 243
XY,15,10 125 242
ADD,15,3 125 241
XY,10,6 111 240
XY,11,6 111 239
XY,20,6 111 238
XY,21,6 111 237
XY,22,6 111 236
XY,23,6 111 235
XY,0,6 119 234
XY,1,6 119 233
XY,22,7 119 232
ADD,22,1 119 231
XY,23,7 119 230
ADD,23,1 119 229
XY,12,7 114 228
XY,13,7 114 227
XY,16,9 114 226
XY,17,9 114 225
XY,16,8 133 224
ADD,16,2 133 223
XY,17,8 133 222
ADD,17,2 133 221
XY,0,9 133 220
XY,1,9 133 219
XY,24,6 112 218
XY,25,6 112 217
XY,2,7 112 216
XY,3,7 112 215
XY,24,9 112 214
XY,25,9 112 213
XY,4,8 130 212
XY,5,8 130 211
XY,12,8 130 210
XY,13,8 130 209
XY,24,8 130 208
ADD,24,2 130 207
XY,25,8 130 206
ADD,25,2 130 205
XY,4,9 130 204
ADD,4,2 130 203
XY,5,9 130 202
ADD,5,2 130 201
XY,20,11 132 200
XY,21,11 132 199
XY,24,11 132 198
ADD,24,4 132 197
XY,25,11 132 196
ADD,25,4 132 195
XY,2,6 116 194
XY,3,6 116 193
XY,6,6 116 192
XY,7,6 116 191
XY,0,10 116 190
XY,1,10 116 189
XY,12,6 121 188
ADD,12,1 121 187
XY,13,6 121 186
ADD,13,1 121 185
XY,0,7 121 184
ADD,0,1 121 183
ADD,0,3 121 182
XY,1,7 121 181
ADD,1,1 121 180
ADD,1,3 121 179
XY,10,8 122 178
XY,11,8 122 177
XY,18,10 122 176
XY,19,10 122 175
XY,0,11 122 174
XY,1,11 122 173
XY,20,9 113 172
XY,21,9 113 171
XY,20,10 113 170
XY,21,10 113 169
XY,2,11 113 168
XY,3,11 113 167
ADD,11,1 126 166
ADD,10,1 126 165
XY,20,7 126 164
ADD,20,1 126 163
ADD,20,3 126 162
XY,21,7 126 161
ADD,21,1 126 160
ADD,21,3 126 159
XY,24,7 126 158
ADD,24,1 126 157
XY,25,7 126 156
ADD,25,1 126 155
XY,6,9 137 154
XY,7,9 137 153
XY,12,9 137 152
ADD,12,2 137 151
ADD,12,4 137 150
XY,13,9 137 149
ADD,13,2 137 148
ADD,13,4 137 147
XY,24,10 137 146
ADD,24,3 137 145
XY,25,10 137 144
ADD,25,3 137 143
XY,18,7 138 142
XY,19,7 138 141
XY,6,8 138 140
ADD,6,2 138 139
XY,7,8 138 138
ADD,7,2 138 137
XY,6,11 138 136
ADD,6,4 138 135
XY,7,11 138 134
ADD,7,4 138 133
XY,0,8 134 132
ADD,0,2 134 131
ADD,0,4 134 130
XY,1,8 134 129
ADD,1,2 134 128
ADD,1,4 134 127
XY,20,8 134 126
ADD,20,2 134 125
XY,21,8 134 124
ADD,21,2 134 123
XY,4,10 127 122
XY,5,10 127 121
XY,4,11 127 120
XY,5,11 127 119
ADD,5,4 131 118
ADD,4,4 131 117
XY,2,8 131 116
XY,3,8 131 115
XY,2,9 131 114
ADD,2,2 131 113
ADD,2,4 131 112
XY,3,9 131 111
ADD,3,2 131 110
ADD,3,4 131 109
XY,6,7 115 108
XY,7,7 115 107
XY,14,9 115 106
XY,15,9 115 105
XY,10,11 115 104
XY,11,11 115 103
XY,8,7 124 102
ADD,8,1 124 101
XY,9,7 124 100
ADD,9,1 124 99
XY,14,8 124 98
ADD,14,2 124 97
XY,15,8 124 96
ADD,15,2 124 95
XY,22,10 124 94
ADD,22,3 124 93
XY,23,10 124 92
ADD,23,3 124 91
XY,8,10 128 90
ADD,8,3 128 89
XY,9,10 128 88
ADD,9,3 128 87
XY,12,10 128 86
ADD,12,3 128 85
XY,13,10 128 84
ADD,13,3 128 83
ADD,7,1 117 82
ADD,6,1 117 81
XY,16,7 117 80
XY,17,7 117 79
XY,22,8 117 78
XY,23,8 117 77
XY,18,8 118 76
XY,19,8 118 75
XY,18,9 118 74
ADD,18,2 118 73
XY,19,9 118 72
ADD,19,2 118 71
XY,22,9 118 70
ADD,22,2 118 69
XY,23,9 118 68
ADD,23,2 118 67
ADD,21,4 135 66
ADD,20,4 135 65
XY,14,11 135 64
ADD,14,4 135 63
XY,15,11 135 62
ADD,15,4 135 61
XY,18,11 135 60
ADD,18,4 135 59
XY,19,11 135 58
ADD,19,4 135 57
XY,8,8 123 56
XY,9,8 123 55
XY,6,10 123 54
ADD,6,3 123 53
XY,7,10 123 52
ADD,7,3 123 51
XY,4,7 129 50
ADD,4,1 129 49
ADD,4,3 129 48
XY,5,7 129 47
ADD,5,1 129 46
ADD,5,3 129 45
XY,8,9 129 44
ADD,8,2 129 43
XY,9,9 129 42
ADD,9,2 129 41
ADD,19,1 139 40
ADD,19,3 139 39
ADD,18,1 139 38
ADD,18,3 139 37
XY,10,9 139 36
ADD,10,2 139 35
XY,11,9 139 34
ADD,11,2 139 33
XY,8,11 139 32
ADD,8,4 139 31
XY,9,11 139 30
ADD,9,4 139 29
ADD,3,1 120 28
ADD,2,1 120 27
XY,16,6 120 26
ADD,16,1 120 25
XY,17,6 120 24
ADD,17,1 120 23
XY,10,10 136 22
ADD,10,3 136 21
XY,11,10 136 20
ADD,11,3 136 19
XY,16,10 136 18
ADD,16,3 136 17
XY,17,10 136 16
ADD,17,3 136 15
XY,16,11 136 14
ADD,16,4 136 13
XY,17,11 136 12
ADD,17,4 136 11
ADD,11,4 140 10
ADD,10,4 140 9
XY,2,10 140 8
ADD,2,3 140 7
XY,3,10 140 6
ADD,3,3 140 5
XY,22,11 140 4
ADD,22,4 140 3
XY,23,11 140 2
ADD,23,4 140 1
