158
0
27
50
76
100
124
148
168
191
215
241
265
289
315
339
362
385
407
419
431
443
455
467
477
501
525
552
576
600
616
628
648
672
684
709
733
757
769
788
815
839
863
887
914
935
959
983
1009
1033
1057
1081
1105
1115
1127
1139
1159
1184
1208
1231
1267
1298
1324
1354
1383
1407
1442
1466
1490
1511
1542
1581
1611
1648
1682
1723
1754
1786
1834
1857
1894
1935
1966
1991
2022
2053
2075
2111
2149
2189
2237
2275
2313
2353
2390
2428
2473
2509
2550
2569
2610
2641
2678
2724
2764
2803
2838
2873
2912
2937
2969
2995
3034
3066
3102
3133
3153
3165
3177
3189
3201
3212
3224
3236
3250
3262
3277
3289
3301
3313
3325
3336
3347
3359
3371
3383
3395
3407
3423
3435
3447
3457
3469
3483
3495
3507
3519
3531
3543
3555
3567
3579
3589
3601
3613
3625
3637
3651
3663
