3663
22,0,1,_AP,-1,21,3663
22,0,1,_AP,-1,21,3662
22,0,1,_AP,-1,21,3661
22,0,1,_AP,-1,21,3660
22,0,1,_AP,-1,21,3659
22,0,1,_AP,-1,21,3658
22,0,1,_AP,-1,21,3657
22,0,1,_AP,-1,21,3656
22,0,1,_AP,-1,21,3655
22,0,1,_AP,-1,21,3654
22,0,1,_AP,-1,21,3653
22,0,1,_AP,-1,21,3652
22,0,1,_AP,-1,21,3651
22,0,1,_AP,-1,21,3650
22,0,1,_AP,-1,21,3649
22,0,1,_AP,-1,21,3648
22,0,1,_X,-1,7,3647
22,0,1,_X,-1,7,3646
22,0,1,_X,-1,7,3645
22,0,1,_X,-1,7,3644
22,0,1,_X,-1,7,3643
22,0,1,_X,-1,7,3642
22,0,1,_X,-1,7,3641
22,0,1,_X,-1,7,3640
22,0,1,_P,-1,4,3639
22,0,1,_P,-1,4,3638
22,0,1,_P,-1,4,3637
22,0,1,_AX,-1,4,3636
22,0,1,_AX,-1,4,3635
22,0,1,_AX,-1,4,3634
22,0,1,_AX,-1,4,3633
22,0,1,_AX,-1,4,3632
22,0,1,_AX,-1,4,3631
22,0,1,_AX,-1,4,3630
22,0,1,_AX,-1,4,3629
1,0,1,RN,-1,1,3628
22,0,1,_P,-1,1,3627
22,0,1,_P,-1,1,3626
22,0,1,_P,-1,1,3625
22,0,1,_P,-1,1,3624
22,0,1,_P,-1,1,3623
22,0,1,_P,-1,1,3622
22,0,1,_P,-1,1,3621
22,0,1,_P,-1,1,3620
22,0,1,_P,-1,1,3619
22,0,1,_P,-1,1,3618
22,0,1,_P,-1,1,3617
22,0,1,_P,-1,1,3616
22,0,1,_P,-1,1,3615
22,0,1,_P,-1,1,3614
22,0,1,_P,-1,1,3613
22,0,1,_P,-1,1,3612
22,0,1,_AX,-1,0,3611
22,0,1,_AX,-1,0,3610
22,0,1,_AX,-1,0,3609
22,0,1,_AX,-1,0,3608
22,0,1,_AX,-1,0,3607
22,0,1,_AX,-1,0,3606
22,0,1,_AX,-1,0,3605
22,0,1,_AX,-1,0,3604
22,0,1,_X,-1,0,3603
22,0,1,_X,-1,0,3602
22,0,1,_X,-1,0,3601
22,0,1,_X,-1,0,3600
22,0,1,_X,-1,0,3599
22,0,1,_X,-1,0,3598
22,0,1,_X,-1,0,3597
22,0,1,_X,-1,0,3596
22,0,1,_P,-1,0,3595
22,0,1,_P,-1,0,3594
22,0,1,_P,-1,0,3593
22,0,1,_P,-1,0,3592
22,0,1,_P,-1,0,3591
22,0,1,_P,-1,0,3590
22,0,1,_P,-1,0,3589
22,0,1,_P,-1,0,3588
22,0,1,_AX,-1,0,3587
22,0,1,_AX,-1,0,3586
22,0,1,_AX,-1,0,3585
22,0,1,_AX,-1,0,3584
22,0,1,_AX,-1,0,3583
22,0,1,_AX,-1,0,3582
22,0,1,_AX,-1,0,3581
22,0,1,_AX,-1,0,3580
22,0,1,_lambda,-1,2,3579
5,1,40,0,1,2,3578
5,1,41,0,1,2,3577
5,1,42,0,1,2,3576
5,1,43,0,1,2,3575
5,1,44,0,1,2,3574
5,1,45,0,1,2,3573
5,1,46,0,1,2,3572
5,1,47,0,1,2,3571
9,1,47,0,1,14,3570
10,1,47,0,-1,14,3569
11,2,47,15,0,-1,14,3568
9,1,46,0,1,14,3567
10,1,46,0,-1,14,3566
11,2,46,14,0,-1,14,3565
9,1,45,0,1,14,3564
10,1,45,0,-1,14,3563
11,2,45,13,0,-1,14,3562
9,1,44,0,1,14,3561
10,1,44,0,-1,14,3560
11,2,44,12,0,-1,14,3559
9,1,43,0,1,14,3558
10,1,43,0,-1,14,3557
11,2,43,11,0,-1,14,3556
9,1,42,0,1,14,3555
10,1,42,0,-1,14,3554
11,2,42,10,0,-1,14,3553
9,1,41,0,1,14,3552
10,1,41,0,-1,14,3551
11,2,41,9,0,-1,14,3550
9,1,40,0,1,14,3549
10,1,40,0,-1,14,3548
11,2,40,8,0,-1,14,3547
22,0,1,_AX,-1,14,3546
22,0,1,_AX,-1,14,3545
22,0,1,_AX,-1,14,3544
22,0,1,_AX,-1,14,3543
22,0,1,_AX,-1,14,3542
22,0,1,_AX,-1,14,3541
22,0,1,_AX,-1,14,3540
22,0,1,_AX,-1,14,3539
5,1,0,0,1,12,3538
9,1,0,0,1,12,3537
10,1,0,0,-1,12,3536
5,1,1,0,1,12,3535
9,1,1,0,1,12,3534
10,1,1,0,-1,12,3533
5,1,2,0,1,12,3532
9,1,2,0,1,12,3531
10,1,2,0,-1,12,3530
5,1,3,0,1,12,3529
9,1,3,0,1,12,3528
10,1,3,0,-1,12,3527
5,1,4,0,1,12,3526
9,1,4,0,1,12,3525
10,1,4,0,-1,12,3524
5,1,5,0,1,12,3523
9,1,5,0,1,12,3522
10,1,5,0,-1,12,3521
5,1,6,0,1,12,3520
9,1,6,0,1,12,3519
10,1,6,0,-1,12,3518
5,1,7,0,1,12,3517
9,1,7,0,1,12,3516
10,1,7,0,-1,12,3515
11,2,7,7,0,-1,13,3514
11,2,6,6,0,-1,13,3513
11,2,5,5,0,-1,13,3512
11,2,4,4,0,-1,13,3511
11,2,3,3,0,-1,13,3510
11,2,2,2,0,-1,13,3509
11,2,1,1,0,-1,13,3508
11,2,0,0,0,-1,13,3507
22,0,1,_AX,-1,13,3506
22,0,1,_AX,-1,13,3505
22,0,1,_AX,-1,13,3504
22,0,1,_P,-1,13,3503
22,0,1,_P,-1,13,3502
22,0,1,_P,-1,13,3501
22,0,1,_P,-1,13,3500
22,0,1,_P,-1,13,3499
22,0,1,_P,-1,13,3498
22,0,1,_P,-1,13,3497
22,0,1,_P,-1,13,3496
22,0,1,_P,-1,5,3495
22,0,1,_P,-1,5,3494
22,0,1,_P,-1,5,3493
22,0,1,_P,-1,5,3492
22,0,1,_P,-1,5,3491
22,0,1,_P,-1,5,3490
22,0,1,_P,-1,5,3489
22,0,1,_P,-1,5,3488
22,0,1,_X,-1,5,3487
5,1,15,0,1,5,3486
22,0,1,_X,-1,5,3485
5,1,14,0,1,5,3484
22,0,1,_X,-1,5,3483
5,1,13,0,1,5,3482
22,0,1,_X,-1,5,3481
5,1,12,0,1,5,3480
22,0,1,_X,-1,5,3479
5,1,11,0,1,5,3478
22,0,1,_X,-1,5,3477
5,1,10,0,1,5,3476
22,0,1,_X,-1,5,3475
5,1,9,0,1,5,3474
22,0,1,_X,-1,5,3473
5,1,8,0,1,5,3472
22,0,1,_X,-1,6,3471
5,1,23,0,1,6,3470
22,0,1,_X,-1,6,3469
5,1,22,0,1,6,3468
22,0,1,_X,-1,6,3467
5,1,21,0,1,6,3466
22,0,1,_X,-1,6,3465
5,1,20,0,1,6,3464
22,0,1,_X,-1,6,3463
5,1,19,0,1,6,3462
22,0,1,_X,-1,6,3461
5,1,18,0,1,6,3460
22,0,1,_X,-1,6,3459
5,1,17,0,1,6,3458
22,0,1,_X,-1,6,3457
5,1,16,0,1,6,3456
22,0,1,_AP,-1,22,3455
22,0,1,_AP,-1,22,3454
22,0,1,_AP,-1,22,3453
22,0,1,_AP,-1,22,3452
22,0,1,_AP,-1,22,3451
22,0,1,_AP,-1,22,3450
22,0,1,_AP,-1,22,3449
22,0,1,_AP,-1,22,3448
22,0,1,_AX,-1,22,3447
9,1,23,0,1,22,3446
10,1,23,0,-1,22,3445
11,2,23,7,0,-1,22,3444
22,0,1,_AX,-1,22,3443
9,1,22,0,1,22,3442
10,1,22,0,-1,22,3441
11,2,22,6,0,-1,22,3440
22,0,1,_AX,-1,22,3439
9,1,21,0,1,22,3438
10,1,21,0,-1,22,3437
11,2,21,5,0,-1,22,3436
22,0,1,_AX,-1,22,3435
9,1,20,0,1,22,3434
10,1,20,0,-1,22,3433
11,2,20,4,0,-1,22,3432
22,0,1,_AX,-1,22,3431
9,1,19,0,1,22,3430
10,1,19,0,-1,22,3429
11,2,19,3,0,-1,22,3428
22,0,1,_AX,-1,22,3427
9,1,18,0,1,22,3426
10,1,18,0,-1,22,3425
11,2,18,2,0,-1,22,3424
22,0,1,_AX,-1,22,3423
9,1,17,0,1,22,3422
10,1,17,0,-1,22,3421
11,2,17,1,0,-1,22,3420
22,0,1,_AX,-1,22,3419
9,1,16,0,1,22,3418
10,1,16,0,-1,22,3417
11,2,16,0,0,-1,22,3416
22,0,1,_X,-1,15,3415
5,1,31,0,1,15,3414
22,0,1,_X,-1,15,3413
5,1,30,0,1,15,3412
22,0,1,_X,-1,15,3411
5,1,29,0,1,15,3410
22,0,1,_X,-1,15,3409
5,1,28,0,1,15,3408
22,0,1,_X,-1,15,3407
5,1,27,0,1,15,3406
22,0,1,_X,-1,15,3405
5,1,26,0,1,15,3404
22,0,1,_X,-1,15,3403
5,1,25,0,1,15,3402
22,0,1,_X,-1,15,3401
5,1,24,0,1,15,3400
9,1,24,0,1,16,3399
10,1,24,0,-1,16,3398
11,2,24,8,0,-1,16,3397
9,1,25,0,1,16,3396
10,1,25,0,-1,16,3395
11,2,25,9,0,-1,16,3394
9,1,26,0,1,16,3393
10,1,26,0,-1,16,3392
11,2,26,10,0,-1,16,3391
9,1,27,0,1,16,3390
10,1,27,0,-1,16,3389
11,2,27,11,0,-1,16,3388
9,1,28,0,1,16,3387
10,1,28,0,-1,16,3386
11,2,28,12,0,-1,16,3385
9,1,29,0,1,16,3384
10,1,29,0,-1,16,3383
11,2,29,13,0,-1,16,3382
9,1,30,0,1,16,3381
10,1,30,0,-1,16,3380
11,2,30,14,0,-1,16,3379
9,1,31,0,1,16,3378
10,1,31,0,-1,16,3377
11,2,31,15,0,-1,16,3376
22,0,1,_X,-1,19,3375
5,1,39,0,1,19,3374
22,0,1,_X,-1,19,3373
5,1,38,0,1,19,3372
22,0,1,_X,-1,19,3371
5,1,37,0,1,19,3370
22,0,1,_X,-1,19,3369
5,1,36,0,1,19,3368
22,0,1,_X,-1,19,3367
5,1,35,0,1,19,3366
22,0,1,_X,-1,19,3365
5,1,34,0,1,19,3364
22,0,1,_X,-1,19,3363
5,1,33,0,1,19,3362
22,0,1,_X,-1,19,3361
5,1,32,0,1,19,3360
9,1,32,0,1,20,3359
10,1,32,0,-1,20,3358
11,2,32,0,0,-1,20,3357
9,1,33,0,1,20,3356
10,1,33,0,-1,20,3355
11,2,33,1,0,-1,20,3354
9,1,34,0,1,20,3353
10,1,34,0,-1,20,3352
11,2,34,2,0,-1,20,3351
9,1,35,0,1,20,3350
10,1,35,0,-1,20,3349
11,2,35,3,0,-1,20,3348
9,1,36,0,1,20,3347
10,1,36,0,-1,20,3346
11,2,36,4,0,-1,20,3345
9,1,37,0,1,20,3344
10,1,37,0,-1,20,3343
11,2,37,5,0,-1,20,3342
9,1,38,0,1,20,3341
10,1,38,0,-1,20,3340
11,2,38,6,0,-1,20,3339
9,1,39,0,1,20,3338
10,1,39,0,-1,20,3337
11,2,39,7,0,-1,20,3336
22,0,1,_X,-1,3,3335
5,1,50,0,1,3,3334
22,0,1,_X,-1,3,3333
5,1,49,0,1,3,3332
22,0,1,_X,-1,3,3331
5,1,48,0,1,3,3330
22,0,1,_P,-1,3,3329
22,0,1,_P,-1,3,3328
22,0,1,_P,-1,3,3327
22,0,1,_P,-1,3,3326
22,0,1,_P,-1,3,3325
22,0,1,_P,-1,3,3324
22,0,1,_P,-1,3,3323
22,0,1,_P,-1,3,3322
9,1,48,0,1,17,3321
10,1,48,0,-1,17,3320
9,1,49,0,1,17,3319
10,1,49,0,-1,17,3318
9,1,50,0,1,17,3317
10,1,50,0,-1,17,3316
22,0,1,_AX,-1,17,3315
22,0,1,_AX,-1,17,3314
22,0,1,_AX,-1,17,3313
22,0,1,_AX,-1,17,3312
22,0,1,_AX,-1,17,3311
22,0,1,_AX,-1,17,3310
22,0,1,_AX,-1,17,3309
22,0,1,_AX,-1,17,3308
9,1,8,0,1,18,3307
10,1,8,0,-1,18,3306
11,2,8,8,0,-1,18,3305
9,1,9,0,1,18,3304
10,1,9,0,-1,18,3303
11,2,9,9,0,-1,18,3302
9,1,10,0,1,18,3301
10,1,10,0,-1,18,3300
11,2,10,10,0,-1,18,3299
9,1,11,0,1,18,3298
10,1,11,0,-1,18,3297
11,2,11,11,0,-1,18,3296
9,1,12,0,1,18,3295
10,1,12,0,-1,18,3294
11,2,12,12,0,-1,18,3293
9,1,13,0,1,18,3292
10,1,13,0,-1,18,3291
11,2,13,13,0,-1,18,3290
9,1,14,0,1,18,3289
10,1,14,0,-1,18,3288
11,2,14,14,0,-1,18,3287
9,1,15,0,1,18,3286
10,1,15,0,-1,18,3285
11,2,15,15,0,-1,18,3284
11,2,50,2,0,-1,23,3283
11,2,49,1,0,-1,23,3282
11,2,48,0,0,-1,23,3281
12,0,1,RNBUF,-1,23,3280
13,0,1,RN,-1,23,3279
1,0,1,actMask,-1,23,3278
22,0,1,_AP,-1,23,3277
22,0,1,_AP,-1,23,3276
22,0,1,_AP,-1,23,3275
20,0,1,actMask,-1,24,3274
14,1,16,0,3,24,3273
14,1,17,0,3,24,3272
14,1,18,0,3,24,3271
14,1,19,0,3,24,3270
14,1,20,0,3,24,3269
14,1,21,0,3,24,3268
14,1,22,0,3,24,3267
14,1,23,0,3,24,3266
14,1,40,0,3,24,3265
14,1,41,0,3,24,3264
14,1,42,0,3,24,3263
14,1,43,0,3,24,3262
14,1,44,0,3,24,3261
14,1,45,0,3,24,3260
14,1,46,0,3,24,3259
14,1,47,0,3,24,3258
14,1,16,0,1,28,3257
3,2,16,0,0,1,28,3256
14,1,17,0,1,28,3255
3,2,17,1,0,1,28,3254
14,1,18,0,1,28,3253
3,2,18,2,0,1,28,3252
14,1,19,0,1,28,3251
3,2,19,3,0,1,28,3250
14,1,20,0,1,28,3249
3,2,20,4,0,1,28,3248
14,1,21,0,1,28,3247
3,2,21,5,0,1,28,3246
14,1,22,0,1,28,3245
3,2,22,6,0,1,28,3244
14,1,23,0,1,28,3243
3,2,23,7,0,1,28,3242
14,1,24,0,1,32,3241
3,2,24,8,0,1,32,3240
14,1,25,0,1,32,3239
3,2,25,9,0,1,32,3238
14,1,26,0,1,32,3237
3,2,26,10,0,1,32,3236
14,1,27,0,1,32,3235
3,2,27,11,0,1,32,3234
14,1,28,0,1,32,3233
3,2,28,12,0,1,32,3232
14,1,29,0,1,32,3231
3,2,29,13,0,1,32,3230
14,1,30,0,1,32,3229
3,2,30,14,0,1,32,3228
14,1,31,0,1,32,3227
3,2,31,15,0,1,32,3226
14,1,32,0,1,35,3225
3,2,32,0,0,1,35,3224
14,1,33,0,1,35,3223
3,2,33,1,0,1,35,3222
14,1,34,0,1,35,3221
3,2,34,2,0,1,35,3220
14,1,35,0,1,35,3219
3,2,35,3,0,1,35,3218
14,1,36,0,1,35,3217
3,2,36,4,0,1,35,3216
14,1,37,0,1,35,3215
3,2,37,5,0,1,35,3214
14,1,38,0,1,35,3213
3,2,38,6,0,1,35,3212
14,1,39,0,1,35,3211
3,2,39,7,0,1,35,3210
14,1,40,0,1,30,3209
3,2,40,8,0,1,30,3208
14,1,41,0,1,30,3207
3,2,41,9,0,1,30,3206
14,1,42,0,1,30,3205
3,2,42,10,0,1,30,3204
14,1,43,0,1,30,3203
3,2,43,11,0,1,30,3202
14,1,44,0,1,30,3201
3,2,44,12,0,1,30,3200
14,1,45,0,1,30,3199
3,2,45,13,0,1,30,3198
14,1,46,0,1,30,3197
3,2,46,14,0,1,30,3196
14,1,47,0,1,30,3195
3,2,47,15,0,1,30,3194
14,1,8,0,1,29,3193
14,1,9,0,1,29,3192
14,1,10,0,1,29,3191
14,1,11,0,1,29,3190
14,1,12,0,1,29,3189
14,1,13,0,1,29,3188
14,1,14,0,1,29,3187
14,1,15,0,1,29,3186
14,1,48,0,1,29,3185
14,1,49,0,1,29,3184
14,1,50,0,1,29,3183
3,2,50,2,0,1,31,3182
3,2,49,1,0,1,31,3181
3,2,48,0,0,1,31,3180
3,2,15,15,0,1,34,3179
3,2,14,14,0,1,34,3178
3,2,13,13,0,1,34,3177
3,2,12,12,0,1,34,3176
3,2,11,11,0,1,34,3175
3,2,10,10,0,1,34,3174
3,2,9,9,0,1,34,3173
3,2,8,8,0,1,34,3172
14,1,0,0,1,36,3171
3,2,0,0,0,1,36,3170
14,1,1,0,1,36,3169
3,2,1,1,0,1,36,3168
14,1,2,0,1,36,3167
3,2,2,2,0,1,36,3166
14,1,3,0,1,36,3165
3,2,3,3,0,1,36,3164
14,1,4,0,1,36,3163
3,2,4,4,0,1,36,3162
14,1,5,0,1,36,3161
3,2,5,5,0,1,36,3160
14,1,6,0,1,36,3159
3,2,6,6,0,1,36,3158
14,1,7,0,1,36,3157
3,2,7,7,0,1,36,3156
4,1,0,1,temp2BUF,-1,36,3155
5,1,8,0,2,41,3154
9,1,8,0,2,41,3153
5,1,9,0,2,41,3152
9,1,9,0,2,41,3151
5,1,10,0,2,41,3150
9,1,10,0,2,41,3149
5,1,11,0,2,41,3148
9,1,11,0,2,41,3147
5,1,12,0,2,41,3146
9,1,12,0,2,41,3145
5,1,13,0,2,41,3144
9,1,13,0,2,41,3143
5,1,14,0,2,41,3142
9,1,14,0,2,41,3141
5,1,15,0,2,41,3140
9,1,15,0,2,41,3139
5,1,16,0,2,37,3138
5,1,17,0,2,37,3137
5,1,18,0,2,37,3136
5,1,19,0,2,37,3135
5,1,20,0,2,37,3134
5,1,21,0,2,37,3133
5,1,22,0,2,37,3132
5,1,23,0,2,37,3131
9,1,23,0,2,47,3130
3,2,23,7,0,2,47,3129
9,1,22,0,2,47,3128
3,2,22,6,0,2,47,3127
9,1,21,0,2,47,3126
3,2,21,5,0,2,47,3125
9,1,20,0,2,47,3124
3,2,20,4,0,2,47,3123
9,1,19,0,2,47,3122
3,2,19,3,0,2,47,3121
9,1,18,0,2,47,3120
3,2,18,2,0,2,47,3119
9,1,17,0,2,47,3118
3,2,17,1,0,2,47,3117
9,1,16,0,2,47,3116
3,2,16,0,0,2,47,3115
14,1,48,0,2,47,3114
3,2,48,0,0,3,47,3113
14,1,49,0,2,47,3112
3,2,49,1,0,3,47,3111
14,1,50,0,2,47,3110
3,2,50,2,0,3,47,3109
5,1,32,0,2,40,3108
5,1,33,0,2,40,3107
5,1,34,0,2,40,3106
5,1,35,0,2,40,3105
5,1,36,0,2,40,3104
5,1,37,0,2,40,3103
5,1,38,0,2,40,3102
5,1,39,0,2,40,3101
9,1,39,0,2,49,3100
3,2,39,7,0,2,49,3099
9,1,38,0,2,49,3098
3,2,38,6,0,2,49,3097
9,1,37,0,2,49,3096
3,2,37,5,0,2,49,3095
9,1,36,0,2,49,3094
3,2,36,4,0,2,49,3093
9,1,35,0,2,49,3092
3,2,35,3,0,2,49,3091
9,1,34,0,2,49,3090
3,2,34,2,0,2,49,3089
9,1,33,0,2,49,3088
3,2,33,1,0,2,49,3087
9,1,32,0,2,49,3086
3,2,32,0,0,2,49,3085
3,2,15,15,0,2,49,3084
3,2,14,14,0,2,49,3083
3,2,13,13,0,2,49,3082
3,2,12,12,0,2,49,3081
3,2,11,11,0,2,49,3080
3,2,10,10,0,2,49,3079
3,2,9,9,0,2,49,3078
3,2,8,8,0,2,49,3077
5,1,24,0,2,39,3076
5,1,25,0,2,39,3075
5,1,26,0,2,39,3074
5,1,27,0,2,39,3073
5,1,28,0,2,39,3072
5,1,29,0,2,39,3071
5,1,30,0,2,39,3070
5,1,31,0,2,39,3069
5,1,40,0,2,39,3068
5,1,41,0,2,39,3067
5,1,42,0,2,39,3066
5,1,43,0,2,39,3065
5,1,44,0,2,39,3064
5,1,45,0,2,39,3063
5,1,46,0,2,39,3062
5,1,47,0,2,39,3061
9,1,31,0,2,46,3060
3,2,31,15,0,2,46,3059
9,1,30,0,2,46,3058
3,2,30,14,0,2,46,3057
9,1,29,0,2,46,3056
3,2,29,13,0,2,46,3055
9,1,28,0,2,46,3054
3,2,28,12,0,2,46,3053
9,1,27,0,2,46,3052
3,2,27,11,0,2,46,3051
9,1,26,0,2,46,3050
3,2,26,10,0,2,46,3049
9,1,25,0,2,46,3048
3,2,25,9,0,2,46,3047
9,1,24,0,2,46,3046
3,2,24,8,0,2,46,3045
5,1,0,0,2,38,3044
5,1,1,0,2,38,3043
5,1,2,0,2,38,3042
5,1,3,0,2,38,3041
5,1,4,0,2,38,3040
5,1,5,0,2,38,3039
5,1,6,0,2,38,3038
5,1,7,0,2,38,3037
5,1,48,0,2,38,3036
5,1,49,0,2,38,3035
5,1,50,0,2,38,3034
9,1,7,0,2,42,3033
3,2,7,7,0,2,42,3032
9,1,6,0,2,42,3031
3,2,6,6,0,2,42,3030
9,1,5,0,2,42,3029
3,2,5,5,0,2,42,3028
9,1,4,0,2,42,3027
3,2,4,4,0,2,42,3026
9,1,3,0,2,42,3025
3,2,3,3,0,2,42,3024
9,1,2,0,2,42,3023
3,2,2,2,0,2,42,3022
9,1,1,0,2,42,3021
3,2,1,1,0,2,42,3020
9,1,0,0,2,42,3019
3,2,0,0,0,2,42,3018
14,1,16,0,2,42,3017
3,2,16,0,0,3,42,3016
14,1,17,0,2,42,3015
3,2,17,1,0,3,42,3014
14,1,18,0,2,42,3013
3,2,18,2,0,3,42,3012
14,1,19,0,2,42,3011
3,2,19,3,0,3,42,3010
14,1,20,0,2,42,3009
3,2,20,4,0,3,42,3008
14,1,21,0,2,42,3007
3,2,21,5,0,3,42,3006
14,1,22,0,2,42,3005
3,2,22,6,0,3,42,3004
14,1,23,0,2,42,3003
3,2,23,7,0,3,42,3002
14,1,8,0,2,48,3001
3,2,8,8,0,3,48,3000
14,1,9,0,2,48,2999
3,2,9,9,0,3,48,2998
14,1,10,0,2,48,2997
3,2,10,10,0,3,48,2996
14,1,11,0,2,48,2995
3,2,11,11,0,3,48,2994
14,1,12,0,2,48,2993
3,2,12,12,0,3,48,2992
14,1,13,0,2,48,2991
3,2,13,13,0,3,48,2990
14,1,14,0,2,48,2989
3,2,14,14,0,3,48,2988
14,1,15,0,2,48,2987
3,2,15,15,0,3,48,2986
14,1,24,0,2,44,2985
3,2,24,8,0,3,44,2984
14,1,25,0,2,44,2983
3,2,25,9,0,3,44,2982
14,1,26,0,2,44,2981
3,2,26,10,0,3,44,2980
14,1,27,0,2,44,2979
3,2,27,11,0,3,44,2978
14,1,28,0,2,44,2977
3,2,28,12,0,3,44,2976
14,1,29,0,2,44,2975
3,2,29,13,0,3,44,2974
14,1,30,0,2,44,2973
3,2,30,14,0,3,44,2972
14,1,31,0,2,44,2971
3,2,31,15,0,3,44,2970
14,1,32,0,2,43,2969
14,1,33,0,2,43,2968
14,1,34,0,2,43,2967
14,1,35,0,2,43,2966
14,1,36,0,2,43,2965
14,1,37,0,2,43,2964
14,1,38,0,2,43,2963
14,1,39,0,2,43,2962
14,1,40,0,2,43,2961
3,2,40,8,0,3,43,2960
14,1,41,0,2,43,2959
3,2,41,9,0,3,43,2958
14,1,42,0,2,43,2957
3,2,42,10,0,3,43,2956
14,1,43,0,2,43,2955
3,2,43,11,0,3,43,2954
14,1,44,0,2,43,2953
3,2,44,12,0,3,43,2952
14,1,45,0,2,43,2951
3,2,45,13,0,3,43,2950
14,1,46,0,2,43,2949
3,2,46,14,0,3,43,2948
14,1,47,0,2,43,2947
3,2,47,15,0,3,43,2946
3,2,39,7,0,3,45,2945
3,2,38,6,0,3,45,2944
3,2,37,5,0,3,45,2943
3,2,36,4,0,3,45,2942
3,2,35,3,0,3,45,2941
3,2,34,2,0,3,45,2940
3,2,33,1,0,3,45,2939
3,2,32,0,0,3,45,2938
9,1,50,0,2,45,2937
3,2,50,2,0,2,45,2936
9,1,49,0,2,45,2935
3,2,49,1,0,2,45,2934
9,1,48,0,2,45,2933
3,2,48,0,0,2,45,2932
14,1,0,0,2,50,2931
3,2,0,0,0,3,50,2930
14,1,1,0,2,50,2929
3,2,1,1,0,3,50,2928
14,1,2,0,2,50,2927
3,2,2,2,0,3,50,2926
14,1,3,0,2,50,2925
3,2,3,3,0,3,50,2924
14,1,4,0,2,50,2923
3,2,4,4,0,3,50,2922
14,1,5,0,2,50,2921
3,2,5,5,0,3,50,2920
14,1,6,0,2,50,2919
3,2,6,6,0,3,50,2918
14,1,7,0,2,50,2917
3,2,7,7,0,3,50,2916
4,1,0,1,PBPBUF,-1,50,2915
17,0,1,PBP,-1,50,2914
18,0,1,PBP,-1,51,2913
5,1,0,0,4,51,2912
5,1,1,0,4,51,2911
5,1,2,0,4,51,2910
5,1,3,0,4,51,2909
5,1,4,0,4,51,2908
5,1,5,0,4,51,2907
5,1,6,0,4,51,2906
5,1,7,0,4,51,2905
5,1,40,0,4,51,2904
5,1,41,0,4,51,2903
5,1,42,0,4,51,2902
5,1,43,0,4,51,2901
5,1,44,0,4,51,2900
5,1,45,0,4,51,2899
5,1,46,0,4,51,2898
5,1,47,0,4,51,2897
7,1,47,0,2,61,2896
7,1,46,0,2,61,2895
7,1,45,0,2,61,2894
7,1,44,0,2,61,2893
7,1,43,0,2,61,2892
7,1,42,0,2,61,2891
7,1,41,0,2,61,2890
7,1,40,0,2,61,2889
5,1,8,0,4,58,2888
5,1,9,0,4,58,2887
5,1,10,0,4,58,2886
5,1,11,0,4,58,2885
5,1,12,0,4,58,2884
5,1,13,0,4,58,2883
5,1,14,0,4,58,2882
5,1,15,0,4,58,2881
5,1,24,0,4,58,2880
5,1,25,0,4,58,2879
5,1,26,0,4,58,2878
5,1,27,0,4,58,2877
5,1,28,0,4,58,2876
5,1,29,0,4,58,2875
5,1,30,0,4,58,2874
5,1,31,0,4,58,2873
7,1,31,0,2,63,2872
8,1,31,0,2,63,2871
3,2,31,15,0,6,63,2870
7,1,30,0,2,63,2869
8,1,30,0,2,63,2868
3,2,30,14,0,6,63,2867
7,1,29,0,2,63,2866
8,1,29,0,2,63,2865
3,2,29,13,0,6,63,2864
7,1,28,0,2,63,2863
8,1,28,0,2,63,2862
3,2,28,12,0,6,63,2861
7,1,27,0,2,63,2860
8,1,27,0,2,63,2859
3,2,27,11,0,6,63,2858
7,1,26,0,2,63,2857
8,1,26,0,2,63,2856
3,2,26,10,0,6,63,2855
7,1,25,0,2,63,2854
8,1,25,0,2,63,2853
3,2,25,9,0,6,63,2852
7,1,24,0,2,63,2851
8,1,24,0,2,63,2850
3,2,24,8,0,6,63,2849
3,2,24,8,0,9,64,2848
3,2,25,9,0,9,64,2847
3,2,26,10,0,9,64,2846
3,2,27,11,0,9,64,2845
3,2,28,12,0,9,64,2844
3,2,29,13,0,9,64,2843
3,2,30,14,0,9,64,2842
3,2,31,15,0,9,64,2841
8,1,40,0,2,64,2840
8,1,41,0,2,64,2839
8,1,42,0,2,64,2838
8,1,43,0,2,64,2837
8,1,44,0,2,64,2836
8,1,45,0,2,64,2835
8,1,46,0,2,64,2834
8,1,47,0,2,64,2833
7,1,15,0,2,60,2832
8,1,15,0,2,60,2831
3,2,15,15,0,6,60,2830
3,2,15,15,0,9,60,2829
7,1,14,0,2,60,2828
8,1,14,0,2,60,2827
3,2,14,14,0,6,60,2826
3,2,14,14,0,9,60,2825
7,1,13,0,2,60,2824
8,1,13,0,2,60,2823
3,2,13,13,0,6,60,2822
3,2,13,13,0,9,60,2821
7,1,12,0,2,60,2820
8,1,12,0,2,60,2819
3,2,12,12,0,6,60,2818
3,2,12,12,0,9,60,2817
7,1,11,0,2,60,2816
8,1,11,0,2,60,2815
3,2,11,11,0,6,60,2814
3,2,11,11,0,9,60,2813
7,1,10,0,2,60,2812
8,1,10,0,2,60,2811
3,2,10,10,0,6,60,2810
3,2,10,10,0,9,60,2809
7,1,9,0,2,60,2808
8,1,9,0,2,60,2807
3,2,9,9,0,6,60,2806
3,2,9,9,0,9,60,2805
7,1,8,0,2,60,2804
8,1,8,0,2,60,2803
3,2,8,8,0,6,60,2802
3,2,8,8,0,9,60,2801
5,1,16,0,5,57,2800
5,1,17,0,5,57,2799
5,1,18,0,5,57,2798
5,1,19,0,5,57,2797
5,1,20,0,5,57,2796
5,1,21,0,5,57,2795
5,1,22,0,5,57,2794
5,1,23,0,5,57,2793
7,1,23,0,3,70,2792
8,1,23,0,3,70,2791
7,1,22,0,3,70,2790
8,1,22,0,3,70,2789
7,1,21,0,3,70,2788
8,1,21,0,3,70,2787
7,1,20,0,3,70,2786
8,1,20,0,3,70,2785
7,1,19,0,3,70,2784
8,1,19,0,3,70,2783
7,1,18,0,3,70,2782
8,1,18,0,3,70,2781
7,1,17,0,3,70,2780
8,1,17,0,3,70,2779
7,1,16,0,3,70,2778
8,1,16,0,3,70,2777
5,1,48,0,4,54,2776
5,1,49,0,4,54,2775
5,1,50,0,4,54,2774
5,1,40,0,5,54,2773
5,1,41,0,5,54,2772
5,1,42,0,5,54,2771
5,1,43,0,5,54,2770
5,1,44,0,5,54,2769
5,1,45,0,5,54,2768
5,1,46,0,5,54,2767
5,1,47,0,5,54,2766
7,1,47,0,3,71,2765
8,1,47,0,3,71,2764
3,2,47,15,0,8,71,2763
7,1,46,0,3,71,2762
8,1,46,0,3,71,2761
3,2,46,14,0,8,71,2760
7,1,45,0,3,71,2759
8,1,45,0,3,71,2758
3,2,45,13,0,8,71,2757
7,1,44,0,3,71,2756
8,1,44,0,3,71,2755
3,2,44,12,0,8,71,2754
7,1,43,0,3,71,2753
8,1,43,0,3,71,2752
3,2,43,11,0,8,71,2751
7,1,42,0,3,71,2750
8,1,42,0,3,71,2749
3,2,42,10,0,8,71,2748
7,1,41,0,3,71,2747
8,1,41,0,3,71,2746
3,2,41,9,0,8,71,2745
7,1,40,0,3,71,2744
8,1,40,0,3,71,2743
3,2,40,8,0,8,71,2742
7,1,50,0,2,65,2741
8,1,50,0,2,65,2740
3,2,50,2,0,9,65,2739
7,1,49,0,2,65,2738
8,1,49,0,2,65,2737
3,2,49,1,0,9,65,2736
7,1,48,0,2,65,2735
8,1,48,0,2,65,2734
3,2,48,0,0,9,65,2733
3,2,48,0,0,6,69,2732
3,2,49,1,0,6,69,2731
3,2,50,2,0,6,69,2730
3,2,40,8,0,9,69,2729
3,2,41,9,0,9,69,2728
3,2,42,10,0,9,69,2727
3,2,43,11,0,9,69,2726
3,2,44,12,0,9,69,2725
3,2,45,13,0,9,69,2724
3,2,46,14,0,9,69,2723
3,2,47,15,0,9,69,2722
9,1,47,0,2,78,2721
3,2,47,15,0,2,78,2720
9,1,46,0,2,78,2719
3,2,46,14,0,2,78,2718
9,1,45,0,2,78,2717
3,2,45,13,0,2,78,2716
9,1,44,0,2,78,2715
3,2,44,12,0,2,78,2714
9,1,43,0,2,78,2713
3,2,43,11,0,2,78,2712
9,1,42,0,2,78,2711
3,2,42,10,0,2,78,2710
9,1,41,0,2,78,2709
3,2,41,9,0,2,78,2708
9,1,40,0,2,78,2707
3,2,40,8,0,2,78,2706
4,1,0,1,RBRBUF,-1,78,2705
19,1,31,0,1,78,2704
19,1,30,0,1,78,2703
19,1,29,0,1,78,2702
19,1,28,0,1,78,2701
19,1,27,0,1,78,2700
19,1,26,0,1,78,2699
19,1,25,0,1,78,2698
19,1,24,0,1,78,2697
19,1,23,0,1,78,2696
19,1,22,0,1,78,2695
19,1,21,0,1,78,2694
19,1,20,0,1,78,2693
19,1,19,0,1,78,2692
19,1,18,0,1,78,2691
19,1,17,0,1,78,2690
19,1,16,0,1,78,2689
17,0,1,RBR,-1,79,2688
18,0,1,RBR,-1,79,2687
5,1,0,0,3,80,2686
5,1,1,0,3,80,2685
5,1,2,0,3,80,2684
5,1,3,0,3,80,2683
5,1,4,0,3,80,2682
5,1,5,0,3,80,2681
5,1,6,0,3,80,2680
5,1,7,0,3,80,2679
5,1,16,0,3,86,2678
5,1,17,0,3,86,2677
5,1,18,0,3,86,2676
5,1,19,0,3,86,2675
5,1,20,0,3,86,2674
5,1,21,0,3,86,2673
5,1,22,0,3,86,2672
5,1,23,0,3,86,2671
19,1,7,0,1,86,2670
19,1,6,0,1,86,2669
19,1,5,0,1,86,2668
19,1,4,0,1,86,2667
19,1,3,0,1,86,2666
19,1,2,0,1,86,2665
19,1,1,0,1,86,2664
19,1,0,0,1,86,2663
5,1,48,0,3,111,2662
7,1,48,0,1,111,2661
8,1,48,0,1,111,2660
5,1,49,0,3,111,2659
7,1,49,0,1,111,2658
8,1,49,0,1,111,2657
5,1,50,0,3,111,2656
7,1,50,0,1,111,2655
8,1,50,0,1,111,2654
22,0,1,_AP,-1,26,2653
14,1,7,0,3,26,2652
22,0,1,_AP,-1,26,2651
14,1,6,0,3,26,2650
22,0,1,_AP,-1,26,2649
14,1,5,0,3,26,2648
22,0,1,_AP,-1,26,2647
14,1,4,0,3,26,2646
22,0,1,_AP,-1,26,2645
14,1,3,0,3,26,2644
22,0,1,_AP,-1,26,2643
14,1,2,0,3,26,2642
22,0,1,_AP,-1,26,2641
14,1,1,0,3,26,2640
22,0,1,_AP,-1,26,2639
14,1,0,0,3,26,2638
5,1,0,0,5,52,2637
5,1,1,0,5,52,2636
5,1,2,0,5,52,2635
5,1,3,0,5,52,2634
5,1,4,0,5,52,2633
5,1,5,0,5,52,2632
5,1,6,0,5,52,2631
5,1,7,0,5,52,2630
5,1,32,0,4,52,2629
5,1,33,0,4,52,2628
5,1,34,0,4,52,2627
5,1,35,0,4,52,2626
5,1,36,0,4,52,2625
5,1,37,0,4,52,2624
5,1,38,0,4,52,2623
5,1,39,0,4,52,2622
7,1,7,0,3,67,2621
8,1,7,0,3,67,2620
7,1,6,0,3,67,2619
8,1,6,0,3,67,2618
7,1,5,0,3,67,2617
8,1,5,0,3,67,2616
7,1,4,0,3,67,2615
8,1,4,0,3,67,2614
7,1,3,0,3,67,2613
8,1,3,0,3,67,2612
7,1,2,0,3,67,2611
8,1,2,0,3,67,2610
7,1,1,0,3,67,2609
8,1,1,0,3,67,2608
7,1,0,0,3,67,2607
8,1,0,0,3,67,2606
7,1,7,0,2,74,2605
8,1,7,0,2,74,2604
3,2,7,7,0,8,74,2603
3,2,7,7,0,9,74,2602
7,1,6,0,2,74,2601
8,1,6,0,2,74,2600
3,2,6,6,0,8,74,2599
3,2,6,6,0,9,74,2598
7,1,5,0,2,74,2597
8,1,5,0,2,74,2596
3,2,5,5,0,8,74,2595
3,2,5,5,0,9,74,2594
7,1,4,0,2,74,2593
8,1,4,0,2,74,2592
3,2,4,4,0,8,74,2591
3,2,4,4,0,9,74,2590
7,1,3,0,2,74,2589
8,1,3,0,2,74,2588
3,2,3,3,0,8,74,2587
3,2,3,3,0,9,74,2586
7,1,2,0,2,74,2585
8,1,2,0,2,74,2584
3,2,2,2,0,8,74,2583
3,2,2,2,0,9,74,2582
7,1,1,0,2,74,2581
8,1,1,0,2,74,2580
3,2,1,1,0,8,74,2579
3,2,1,1,0,9,74,2578
7,1,0,0,2,74,2577
8,1,0,0,2,74,2576
3,2,0,0,0,8,74,2575
3,2,0,0,0,9,74,2574
3,2,0,0,0,6,76,2573
3,2,1,1,0,6,76,2572
3,2,2,2,0,6,76,2571
3,2,3,3,0,6,76,2570
3,2,4,4,0,6,76,2569
3,2,5,5,0,6,76,2568
3,2,6,6,0,6,76,2567
3,2,7,7,0,6,76,2566
3,2,40,8,0,6,76,2565
3,2,41,9,0,6,76,2564
3,2,42,10,0,6,76,2563
3,2,43,11,0,6,76,2562
3,2,44,12,0,6,76,2561
3,2,45,13,0,6,76,2560
3,2,46,14,0,6,76,2559
3,2,47,15,0,6,76,2558
7,1,7,0,1,85,2557
3,2,7,7,0,4,85,2556
3,2,7,7,0,10,85,2555
7,1,6,0,1,85,2554
3,2,6,6,0,4,85,2553
3,2,6,6,0,10,85,2552
7,1,5,0,1,85,2551
2,3,18,5,0,0,-1,85,2550
2,3,19,5,0,0,-1,85,2549
2,3,20,5,0,0,-1,85,2548
2,3,21,5,0,0,-1,85,2547
3,2,5,5,0,4,85,2546
3,2,5,5,0,10,85,2545
7,1,4,0,1,85,2544
2,3,18,4,0,0,-1,85,2543
2,3,19,4,0,0,-1,85,2542
2,3,20,4,0,0,-1,85,2541
2,3,21,4,0,0,-1,85,2540
3,2,4,4,0,4,85,2539
3,2,4,4,0,10,85,2538
7,1,3,0,1,85,2537
2,3,18,3,0,0,-1,85,2536
2,3,19,3,0,0,-1,85,2535
2,3,20,3,0,0,-1,85,2534
2,3,21,3,0,0,-1,85,2533
3,2,3,3,0,4,85,2532
3,2,3,3,0,10,85,2531
7,1,2,0,1,85,2530
2,3,18,2,0,0,-1,85,2529
2,3,19,2,0,0,-1,85,2528
2,3,20,2,0,0,-1,85,2527
2,3,21,2,0,0,-1,85,2526
3,2,2,2,0,4,85,2525
3,2,2,2,0,10,85,2524
7,1,1,0,1,85,2523
2,3,18,1,0,0,-1,85,2522
2,3,19,1,0,0,-1,85,2521
2,3,20,1,0,0,-1,85,2520
2,3,21,1,0,0,-1,85,2519
3,2,1,1,0,4,85,2518
3,2,1,1,0,10,85,2517
7,1,0,0,1,85,2516
2,3,18,0,0,0,-1,85,2515
2,3,19,0,0,0,-1,85,2514
2,3,20,0,0,0,-1,85,2513
3,2,0,0,0,4,85,2512
3,2,0,0,0,10,85,2511
2,3,0,0,0,0,-1,93,2510
2,3,1,0,0,0,-1,93,2509
2,3,0,1,0,0,-1,93,2508
2,3,1,1,0,0,-1,93,2507
2,3,2,1,0,0,-1,93,2506
2,3,1,2,0,0,-1,93,2505
2,3,2,2,0,0,-1,93,2504
2,3,3,2,0,0,-1,93,2503
2,3,2,3,0,0,-1,93,2502
2,3,3,3,0,0,-1,93,2501
2,3,4,3,0,0,-1,93,2500
2,3,7,3,0,0,-1,93,2499
2,3,3,4,0,0,-1,93,2498
2,3,4,4,0,0,-1,93,2497
2,3,5,4,0,0,-1,93,2496
2,3,6,4,0,0,-1,93,2495
2,3,7,4,0,0,-1,93,2494
2,3,4,5,0,0,-1,93,2493
2,3,5,5,0,0,-1,93,2492
2,3,6,5,0,0,-1,93,2491
2,3,7,5,0,0,-1,93,2490
2,3,4,6,0,0,-1,93,2489
2,3,5,6,0,0,-1,93,2488
2,3,6,6,0,0,-1,93,2487
2,3,7,6,0,0,-1,93,2486
2,3,3,7,0,0,-1,93,2485
2,3,4,7,0,0,-1,93,2484
2,3,5,7,0,0,-1,93,2483
2,3,6,7,0,0,-1,93,2482
2,3,7,7,0,0,-1,93,2481
2,3,24,0,0,0,-1,99,2480
2,3,25,0,0,0,-1,99,2479
2,3,26,0,0,0,-1,99,2478
2,3,24,1,0,0,-1,99,2477
2,3,25,1,0,0,-1,99,2476
2,3,26,1,0,0,-1,99,2475
2,3,24,2,0,0,-1,99,2474
2,3,25,2,0,0,-1,99,2473
2,3,26,2,0,0,-1,99,2472
2,3,24,3,0,0,-1,99,2471
2,3,25,3,0,0,-1,99,2470
2,3,26,3,0,0,-1,99,2469
2,3,24,4,0,0,-1,99,2468
2,3,25,4,0,0,-1,99,2467
2,3,26,4,0,0,-1,99,2466
2,3,24,5,0,0,-1,99,2465
2,3,25,5,0,0,-1,99,2464
2,3,26,5,0,0,-1,99,2463
7,1,39,0,2,62,2462
8,1,39,0,2,62,2461
3,2,39,7,0,6,62,2460
3,2,39,7,0,9,62,2459
7,1,38,0,2,62,2458
8,1,38,0,2,62,2457
3,2,38,6,0,6,62,2456
3,2,38,6,0,9,62,2455
7,1,37,0,2,62,2454
8,1,37,0,2,62,2453
3,2,37,5,0,6,62,2452
3,2,37,5,0,9,62,2451
7,1,36,0,2,62,2450
8,1,36,0,2,62,2449
3,2,36,4,0,6,62,2448
3,2,36,4,0,9,62,2447
7,1,35,0,2,62,2446
8,1,35,0,2,62,2445
3,2,35,3,0,6,62,2444
3,2,35,3,0,9,62,2443
7,1,34,0,2,62,2442
8,1,34,0,2,62,2441
3,2,34,2,0,6,62,2440
3,2,34,2,0,9,62,2439
7,1,33,0,2,62,2438
8,1,33,0,2,62,2437
3,2,33,1,0,6,62,2436
3,2,33,1,0,9,62,2435
7,1,32,0,2,62,2434
8,1,32,0,2,62,2433
3,2,32,0,0,6,62,2432
3,2,32,0,0,9,62,2431
22,0,1,_AP,-1,27,2430
14,1,31,0,3,27,2429
22,0,1,_AP,-1,27,2428
14,1,30,0,3,27,2427
22,0,1,_AP,-1,27,2426
14,1,29,0,3,27,2425
22,0,1,_AP,-1,27,2424
14,1,28,0,3,27,2423
22,0,1,_AP,-1,27,2422
14,1,27,0,3,27,2421
22,0,1,_AP,-1,27,2420
14,1,26,0,3,27,2419
22,0,1,_AP,-1,27,2418
14,1,25,0,3,27,2417
22,0,1,_AP,-1,27,2416
14,1,24,0,3,27,2415
5,1,24,0,5,55,2414
5,1,25,0,5,55,2413
5,1,26,0,5,55,2412
5,1,27,0,5,55,2411
5,1,28,0,5,55,2410
5,1,29,0,5,55,2409
5,1,30,0,5,55,2408
5,1,31,0,5,55,2407
5,1,16,0,4,55,2406
5,1,17,0,4,55,2405
5,1,18,0,4,55,2404
5,1,19,0,4,55,2403
5,1,20,0,4,55,2402
5,1,21,0,4,55,2401
5,1,22,0,4,55,2400
5,1,23,0,4,55,2399
7,1,31,0,3,68,2398
8,1,31,0,3,68,2397
3,2,31,15,0,8,68,2396
7,1,30,0,3,68,2395
8,1,30,0,3,68,2394
3,2,30,14,0,8,68,2393
7,1,29,0,3,68,2392
8,1,29,0,3,68,2391
3,2,29,13,0,8,68,2390
7,1,28,0,3,68,2389
8,1,28,0,3,68,2388
3,2,28,12,0,8,68,2387
7,1,27,0,3,68,2386
8,1,27,0,3,68,2385
3,2,27,11,0,8,68,2384
7,1,26,0,3,68,2383
8,1,26,0,3,68,2382
3,2,26,10,0,8,68,2381
7,1,25,0,3,68,2380
8,1,25,0,3,68,2379
3,2,25,9,0,8,68,2378
7,1,24,0,3,68,2377
8,1,24,0,3,68,2376
3,2,24,8,0,8,68,2375
7,1,23,0,2,72,2374
3,2,23,7,0,6,72,2373
3,2,23,7,0,8,72,2372
7,1,22,0,2,72,2371
3,2,22,6,0,6,72,2370
3,2,22,6,0,8,72,2369
7,1,21,0,2,72,2368
3,2,21,5,0,6,72,2367
3,2,21,5,0,8,72,2366
7,1,20,0,2,72,2365
3,2,20,4,0,6,72,2364
3,2,20,4,0,8,72,2363
7,1,19,0,2,72,2362
3,2,19,3,0,6,72,2361
3,2,19,3,0,8,72,2360
7,1,18,0,2,72,2359
3,2,18,2,0,6,72,2358
3,2,18,2,0,8,72,2357
7,1,17,0,2,72,2356
3,2,17,1,0,6,72,2355
3,2,17,1,0,8,72,2354
7,1,16,0,2,72,2353
3,2,16,0,0,6,72,2352
3,2,16,0,0,8,72,2351
8,1,16,0,2,73,2350
3,2,16,0,0,9,73,2349
8,1,17,0,2,73,2348
3,2,17,1,0,9,73,2347
8,1,18,0,2,73,2346
3,2,18,2,0,9,73,2345
8,1,19,0,2,73,2344
3,2,19,3,0,9,73,2343
8,1,20,0,2,73,2342
3,2,20,4,0,9,73,2341
8,1,21,0,2,73,2340
3,2,21,5,0,9,73,2339
8,1,22,0,2,73,2338
3,2,22,6,0,9,73,2337
8,1,23,0,2,73,2336
3,2,23,7,0,9,73,2335
7,1,23,0,1,87,2334
2,3,16,23,0,0,-1,87,2333
2,3,17,23,0,0,-1,87,2332
2,3,18,23,0,0,-1,87,2331
2,3,21,23,0,0,-1,87,2330
2,3,22,23,0,0,-1,87,2329
2,3,23,23,0,0,-1,87,2328
3,2,23,7,0,10,87,2327
7,1,22,0,1,87,2326
2,3,16,22,0,0,-1,87,2325
2,3,18,22,0,0,-1,87,2324
2,3,21,22,0,0,-1,87,2323
2,3,22,22,0,0,-1,87,2322
2,3,23,22,0,0,-1,87,2321
3,2,22,6,0,10,87,2320
7,1,21,0,1,87,2319
2,3,18,21,0,0,-1,87,2318
2,3,19,21,0,0,-1,87,2317
2,3,20,21,0,0,-1,87,2316
2,3,21,21,0,0,-1,87,2315
2,3,22,21,0,0,-1,87,2314
2,3,23,21,0,0,-1,87,2313
3,2,21,5,0,10,87,2312
7,1,20,0,1,87,2311
2,3,18,20,0,0,-1,87,2310
2,3,19,20,0,0,-1,87,2309
2,3,20,20,0,0,-1,87,2308
2,3,21,20,0,0,-1,87,2307
3,2,20,4,0,10,87,2306
7,1,19,0,1,87,2305
2,3,18,19,0,0,-1,87,2304
2,3,19,19,0,0,-1,87,2303
2,3,20,19,0,0,-1,87,2302
2,3,21,19,0,0,-1,87,2301
3,2,19,3,0,10,87,2300
7,1,18,0,1,87,2299
2,3,16,18,0,0,-1,87,2298
2,3,17,18,0,0,-1,87,2297
2,3,18,18,0,0,-1,87,2296
2,3,19,18,0,0,-1,87,2295
2,3,20,18,0,0,-1,87,2294
2,3,21,18,0,0,-1,87,2293
2,3,22,18,0,0,-1,87,2292
2,3,23,18,0,0,-1,87,2291
3,2,18,2,0,10,87,2290
7,1,17,0,1,87,2289
2,3,16,17,0,0,-1,87,2288
2,3,17,17,0,0,-1,87,2287
2,3,18,17,0,0,-1,87,2286
2,3,23,17,0,0,-1,87,2285
3,2,17,1,0,10,87,2284
7,1,16,0,1,87,2283
2,3,16,16,0,0,-1,87,2282
2,3,17,16,0,0,-1,87,2281
2,3,18,16,0,0,-1,87,2280
2,3,22,16,0,0,-1,87,2279
2,3,23,16,0,0,-1,87,2278
3,2,16,0,0,10,87,2277
2,3,24,16,0,0,-1,94,2276
2,3,26,16,0,0,-1,94,2275
2,3,27,16,0,0,-1,94,2274
2,3,28,16,0,0,-1,94,2273
2,3,29,16,0,0,-1,94,2272
2,3,30,16,0,0,-1,94,2271
2,3,31,16,0,0,-1,94,2270
2,3,24,17,0,0,-1,94,2269
2,3,26,17,0,0,-1,94,2268
2,3,27,17,0,0,-1,94,2267
2,3,28,17,0,0,-1,94,2266
2,3,29,17,0,0,-1,94,2265
2,3,30,17,0,0,-1,94,2264
2,3,31,17,0,0,-1,94,2263
2,3,24,18,0,0,-1,94,2262
2,3,25,18,0,0,-1,94,2261
2,3,26,18,0,0,-1,94,2260
2,3,28,18,0,0,-1,94,2259
2,3,29,18,0,0,-1,94,2258
2,3,30,18,0,0,-1,94,2257
2,3,31,18,0,0,-1,94,2256
2,3,24,19,0,0,-1,94,2255
2,3,25,19,0,0,-1,94,2254
2,3,26,19,0,0,-1,94,2253
2,3,31,19,0,0,-1,94,2252
2,3,24,20,0,0,-1,94,2251
2,3,25,20,0,0,-1,94,2250
2,3,26,20,0,0,-1,94,2249
2,3,31,20,0,0,-1,94,2248
2,3,24,21,0,0,-1,94,2247
2,3,25,21,0,0,-1,94,2246
2,3,26,21,0,0,-1,94,2245
2,3,27,21,0,0,-1,94,2244
2,3,28,21,0,0,-1,94,2243
2,3,29,21,0,0,-1,94,2242
2,3,30,21,0,0,-1,94,2241
2,3,31,21,0,0,-1,94,2240
2,3,24,22,0,0,-1,94,2239
2,3,26,22,0,0,-1,94,2238
2,3,27,22,0,0,-1,94,2237
2,3,28,22,0,0,-1,94,2236
2,3,29,22,0,0,-1,94,2235
2,3,30,22,0,0,-1,94,2234
2,3,31,22,0,0,-1,94,2233
2,3,24,23,0,0,-1,94,2232
2,3,26,23,0,0,-1,94,2231
2,3,27,23,0,0,-1,94,2230
2,3,28,23,0,0,-1,94,2229
2,3,29,23,0,0,-1,94,2228
2,3,30,23,0,0,-1,94,2227
2,3,31,23,0,0,-1,94,2226
2,3,0,18,0,0,-1,95,2225
2,3,1,18,0,0,-1,95,2224
2,3,2,18,0,0,-1,95,2223
2,3,3,18,0,0,-1,95,2222
2,3,4,18,0,0,-1,95,2221
2,3,5,18,0,0,-1,95,2220
2,3,0,19,0,0,-1,95,2219
2,3,1,19,0,0,-1,95,2218
2,3,2,19,0,0,-1,95,2217
2,3,3,19,0,0,-1,95,2216
2,3,4,19,0,0,-1,95,2215
2,3,5,19,0,0,-1,95,2214
2,3,0,20,0,0,-1,95,2213
2,3,1,20,0,0,-1,95,2212
2,3,2,20,0,0,-1,95,2211
2,3,3,20,0,0,-1,95,2210
2,3,4,20,0,0,-1,95,2209
2,3,5,20,0,0,-1,95,2208
2,3,1,21,0,0,-1,95,2207
2,3,2,21,0,0,-1,95,2206
2,3,3,21,0,0,-1,95,2205
2,3,4,21,0,0,-1,95,2204
2,3,5,21,0,0,-1,95,2203
19,1,47,0,1,95,2202
2,3,47,16,0,0,-1,95,2201
2,3,47,17,0,0,-1,95,2200
2,3,47,18,0,0,-1,95,2199
2,3,47,19,0,0,-1,95,2198
2,3,47,20,0,0,-1,95,2197
2,3,47,21,0,0,-1,95,2196
2,3,47,22,0,0,-1,95,2195
2,3,47,23,0,0,-1,95,2194
19,1,46,0,1,95,2193
2,3,46,16,0,0,-1,95,2192
2,3,46,17,0,0,-1,95,2191
2,3,46,18,0,0,-1,95,2190
2,3,46,19,0,0,-1,95,2189
2,3,46,21,0,0,-1,95,2188
2,3,46,22,0,0,-1,95,2187
2,3,46,23,0,0,-1,95,2186
19,1,45,0,1,95,2185
2,3,45,16,0,0,-1,95,2184
2,3,45,17,0,0,-1,95,2183
2,3,45,18,0,0,-1,95,2182
2,3,45,19,0,0,-1,95,2181
2,3,45,20,0,0,-1,95,2180
2,3,45,21,0,0,-1,95,2179
2,3,45,22,0,0,-1,95,2178
2,3,45,23,0,0,-1,95,2177
19,1,44,0,1,95,2176
2,3,44,16,0,0,-1,95,2175
2,3,44,17,0,0,-1,95,2174
2,3,44,18,0,0,-1,95,2173
2,3,44,19,0,0,-1,95,2172
2,3,44,20,0,0,-1,95,2171
2,3,44,21,0,0,-1,95,2170
2,3,44,22,0,0,-1,95,2169
2,3,44,23,0,0,-1,95,2168
19,1,43,0,1,95,2167
2,3,43,16,0,0,-1,95,2166
2,3,43,17,0,0,-1,95,2165
2,3,43,18,0,0,-1,95,2164
2,3,43,19,0,0,-1,95,2163
2,3,43,21,0,0,-1,95,2162
2,3,43,22,0,0,-1,95,2161
2,3,43,23,0,0,-1,95,2160
19,1,42,0,1,95,2159
2,3,42,16,0,0,-1,95,2158
2,3,42,17,0,0,-1,95,2157
2,3,42,18,0,0,-1,95,2156
2,3,42,19,0,0,-1,95,2155
2,3,42,20,0,0,-1,95,2154
2,3,42,21,0,0,-1,95,2153
2,3,42,22,0,0,-1,95,2152
2,3,42,23,0,0,-1,95,2151
19,1,41,0,1,95,2150
2,3,41,16,0,0,-1,95,2149
2,3,41,17,0,0,-1,95,2148
2,3,41,18,0,0,-1,95,2147
2,3,41,19,0,0,-1,95,2146
2,3,41,20,0,0,-1,95,2145
2,3,41,21,0,0,-1,95,2144
2,3,41,22,0,0,-1,95,2143
2,3,41,23,0,0,-1,95,2142
19,1,40,0,1,95,2141
2,3,40,16,0,0,-1,95,2140
2,3,40,17,0,0,-1,95,2139
2,3,40,18,0,0,-1,95,2138
2,3,40,20,0,0,-1,95,2137
2,3,40,21,0,0,-1,95,2136
2,3,40,22,0,0,-1,95,2135
2,3,40,23,0,0,-1,95,2134
5,1,32,0,3,96,2133
7,1,32,0,1,96,2132
2,3,24,32,0,0,-1,96,2131
2,3,25,32,0,0,-1,96,2130
2,3,26,32,0,0,-1,96,2129
2,3,27,32,0,0,-1,96,2128
2,3,28,32,0,0,-1,96,2127
2,3,29,32,0,0,-1,96,2126
2,3,30,32,0,0,-1,96,2125
2,3,31,32,0,0,-1,96,2124
2,3,40,32,0,0,-1,96,2123
2,3,41,32,0,0,-1,96,2122
2,3,42,32,0,0,-1,96,2121
2,3,43,32,0,0,-1,96,2120
2,3,44,32,0,0,-1,96,2119
2,3,45,32,0,0,-1,96,2118
2,3,46,32,0,0,-1,96,2117
2,3,47,32,0,0,-1,96,2116
5,1,33,0,3,96,2115
7,1,33,0,1,96,2114
2,3,24,33,0,0,-1,96,2113
2,3,25,33,0,0,-1,96,2112
2,3,26,33,0,0,-1,96,2111
2,3,27,33,0,0,-1,96,2110
2,3,28,33,0,0,-1,96,2109
2,3,29,33,0,0,-1,96,2108
2,3,30,33,0,0,-1,96,2107
2,3,31,33,0,0,-1,96,2106
2,3,40,33,0,0,-1,96,2105
2,3,41,33,0,0,-1,96,2104
2,3,42,33,0,0,-1,96,2103
2,3,43,33,0,0,-1,96,2102
2,3,44,33,0,0,-1,96,2101
2,3,45,33,0,0,-1,96,2100
2,3,46,33,0,0,-1,96,2099
2,3,47,33,0,0,-1,96,2098
5,1,34,0,3,96,2097
7,1,34,0,1,96,2096
2,3,24,34,0,0,-1,96,2095
2,3,26,34,0,0,-1,96,2094
2,3,27,34,0,0,-1,96,2093
2,3,28,34,0,0,-1,96,2092
2,3,29,34,0,0,-1,96,2091
2,3,30,34,0,0,-1,96,2090
2,3,31,34,0,0,-1,96,2089
2,3,40,34,0,0,-1,96,2088
2,3,41,34,0,0,-1,96,2087
2,3,42,34,0,0,-1,96,2086
2,3,43,34,0,0,-1,96,2085
2,3,44,34,0,0,-1,96,2084
2,3,45,34,0,0,-1,96,2083
2,3,46,34,0,0,-1,96,2082
2,3,47,34,0,0,-1,96,2081
5,1,35,0,3,96,2080
7,1,35,0,1,96,2079
2,3,24,35,0,0,-1,96,2078
2,3,26,35,0,0,-1,96,2077
2,3,27,35,0,0,-1,96,2076
2,3,28,35,0,0,-1,96,2075
2,3,29,35,0,0,-1,96,2074
2,3,30,35,0,0,-1,96,2073
2,3,31,35,0,0,-1,96,2072
2,3,40,35,0,0,-1,96,2071
2,3,41,35,0,0,-1,96,2070
2,3,42,35,0,0,-1,96,2069
2,3,43,35,0,0,-1,96,2068
2,3,44,35,0,0,-1,96,2067
2,3,45,35,0,0,-1,96,2066
2,3,46,35,0,0,-1,96,2065
2,3,47,35,0,0,-1,96,2064
5,1,36,0,3,96,2063
7,1,36,0,1,96,2062
2,3,24,36,0,0,-1,96,2061
2,3,25,36,0,0,-1,96,2060
2,3,26,36,0,0,-1,96,2059
2,3,27,36,0,0,-1,96,2058
2,3,28,36,0,0,-1,96,2057
2,3,29,36,0,0,-1,96,2056
2,3,30,36,0,0,-1,96,2055
2,3,31,36,0,0,-1,96,2054
2,3,40,36,0,0,-1,96,2053
2,3,41,36,0,0,-1,96,2052
2,3,42,36,0,0,-1,96,2051
2,3,43,36,0,0,-1,96,2050
2,3,44,36,0,0,-1,96,2049
2,3,45,36,0,0,-1,96,2048
2,3,46,36,0,0,-1,96,2047
2,3,47,36,0,0,-1,96,2046
5,1,37,0,3,96,2045
7,1,37,0,1,96,2044
2,3,24,37,0,0,-1,96,2043
2,3,26,37,0,0,-1,96,2042
2,3,27,37,0,0,-1,96,2041
2,3,28,37,0,0,-1,96,2040
2,3,29,37,0,0,-1,96,2039
2,3,30,37,0,0,-1,96,2038
2,3,31,37,0,0,-1,96,2037
2,3,40,37,0,0,-1,96,2036
2,3,41,37,0,0,-1,96,2035
2,3,42,37,0,0,-1,96,2034
2,3,43,37,0,0,-1,96,2033
2,3,44,37,0,0,-1,96,2032
2,3,45,37,0,0,-1,96,2031
2,3,46,37,0,0,-1,96,2030
2,3,47,37,0,0,-1,96,2029
5,1,38,0,3,96,2028
7,1,38,0,1,96,2027
2,3,24,38,0,0,-1,96,2026
2,3,26,38,0,0,-1,96,2025
2,3,27,38,0,0,-1,96,2024
2,3,28,38,0,0,-1,96,2023
2,3,29,38,0,0,-1,96,2022
2,3,30,38,0,0,-1,96,2021
2,3,31,38,0,0,-1,96,2020
2,3,40,38,0,0,-1,96,2019
2,3,41,38,0,0,-1,96,2018
2,3,42,38,0,0,-1,96,2017
2,3,43,38,0,0,-1,96,2016
2,3,44,38,0,0,-1,96,2015
2,3,45,38,0,0,-1,96,2014
2,3,46,38,0,0,-1,96,2013
2,3,47,38,0,0,-1,96,2012
5,1,39,0,3,96,2011
7,1,39,0,1,96,2010
2,3,24,39,0,0,-1,96,2009
2,3,26,39,0,0,-1,96,2008
2,3,27,39,0,0,-1,96,2007
2,3,28,39,0,0,-1,96,2006
2,3,29,39,0,0,-1,96,2005
2,3,30,39,0,0,-1,96,2004
2,3,31,39,0,0,-1,96,2003
2,3,40,39,0,0,-1,96,2002
2,3,41,39,0,0,-1,96,2001
2,3,42,39,0,0,-1,96,2000
2,3,43,39,0,0,-1,96,1999
2,3,44,39,0,0,-1,96,1998
2,3,45,39,0,0,-1,96,1997
2,3,46,39,0,0,-1,96,1996
2,3,47,39,0,0,-1,96,1995
2,3,16,39,0,0,-1,97,1994
2,3,17,39,0,0,-1,97,1993
2,3,18,39,0,0,-1,97,1992
2,3,19,39,0,0,-1,97,1991
2,3,21,39,0,0,-1,97,1990
2,3,22,39,0,0,-1,97,1989
2,3,23,39,0,0,-1,97,1988
8,1,39,0,1,97,1987
2,3,16,38,0,0,-1,97,1986
2,3,17,38,0,0,-1,97,1985
2,3,18,38,0,0,-1,97,1984
2,3,19,38,0,0,-1,97,1983
2,3,21,38,0,0,-1,97,1982
2,3,22,38,0,0,-1,97,1981
2,3,23,38,0,0,-1,97,1980
8,1,38,0,1,97,1979
2,3,16,37,0,0,-1,97,1978
2,3,17,37,0,0,-1,97,1977
2,3,18,37,0,0,-1,97,1976
2,3,21,37,0,0,-1,97,1975
2,3,22,37,0,0,-1,97,1974
2,3,23,37,0,0,-1,97,1973
8,1,37,0,1,97,1972
2,3,16,36,0,0,-1,97,1971
2,3,17,36,0,0,-1,97,1970
2,3,18,36,0,0,-1,97,1969
2,3,20,36,0,0,-1,97,1968
2,3,21,36,0,0,-1,97,1967
2,3,22,36,0,0,-1,97,1966
2,3,23,36,0,0,-1,97,1965
8,1,36,0,1,97,1964
2,3,16,35,0,0,-1,97,1963
2,3,17,35,0,0,-1,97,1962
2,3,18,35,0,0,-1,97,1961
2,3,21,35,0,0,-1,97,1960
2,3,22,35,0,0,-1,97,1959
2,3,23,35,0,0,-1,97,1958
8,1,35,0,1,97,1957
2,3,16,34,0,0,-1,97,1956
2,3,17,34,0,0,-1,97,1955
2,3,18,34,0,0,-1,97,1954
2,3,21,34,0,0,-1,97,1953
2,3,22,34,0,0,-1,97,1952
2,3,23,34,0,0,-1,97,1951
8,1,34,0,1,97,1950
2,3,16,33,0,0,-1,97,1949
2,3,17,33,0,0,-1,97,1948
2,3,18,33,0,0,-1,97,1947
2,3,20,33,0,0,-1,97,1946
2,3,21,33,0,0,-1,97,1945
2,3,22,33,0,0,-1,97,1944
2,3,23,33,0,0,-1,97,1943
8,1,33,0,1,97,1942
2,3,16,32,0,0,-1,97,1941
2,3,17,32,0,0,-1,97,1940
2,3,18,32,0,0,-1,97,1939
2,3,20,32,0,0,-1,97,1938
2,3,21,32,0,0,-1,97,1937
2,3,22,32,0,0,-1,97,1936
2,3,23,32,0,0,-1,97,1935
8,1,32,0,1,97,1934
3,2,39,7,0,4,98,1933
3,2,38,6,0,4,98,1932
3,2,37,5,0,4,98,1931
3,2,36,4,0,4,98,1930
3,2,35,3,0,4,98,1929
3,2,34,2,0,4,98,1928
3,2,33,1,0,4,98,1927
3,2,32,0,0,4,98,1926
8,1,16,0,1,98,1925
8,1,17,0,1,98,1924
8,1,18,0,1,98,1923
8,1,19,0,1,98,1922
8,1,20,0,1,98,1921
8,1,21,0,1,98,1920
8,1,22,0,1,98,1919
8,1,23,0,1,98,1918
3,2,39,7,0,10,100,1917
3,2,38,6,0,10,100,1916
3,2,37,5,0,10,100,1915
3,2,36,4,0,10,100,1914
3,2,35,3,0,10,100,1913
3,2,34,2,0,10,100,1912
3,2,33,1,0,10,100,1911
3,2,32,0,0,10,100,1910
5,1,24,0,3,100,1909
5,1,25,0,3,100,1908
5,1,26,0,3,100,1907
5,1,27,0,3,100,1906
5,1,28,0,3,100,1905
5,1,29,0,3,100,1904
5,1,30,0,3,100,1903
5,1,31,0,3,100,1902
7,1,31,0,1,101,1901
2,3,16,31,0,0,-1,101,1900
2,3,17,31,0,0,-1,101,1899
2,3,18,31,0,0,-1,101,1898
2,3,19,31,0,0,-1,101,1897
2,3,20,31,0,0,-1,101,1896
2,3,21,31,0,0,-1,101,1895
2,3,22,31,0,0,-1,101,1894
2,3,23,31,0,0,-1,101,1893
2,3,40,31,0,0,-1,101,1892
2,3,41,31,0,0,-1,101,1891
2,3,42,31,0,0,-1,101,1890
2,3,43,31,0,0,-1,101,1889
2,3,44,31,0,0,-1,101,1888
2,3,45,31,0,0,-1,101,1887
2,3,46,31,0,0,-1,101,1886
2,3,47,31,0,0,-1,101,1885
8,1,31,0,1,101,1884
7,1,30,0,1,101,1883
2,3,16,30,0,0,-1,101,1882
2,3,17,30,0,0,-1,101,1881
2,3,18,30,0,0,-1,101,1880
2,3,21,30,0,0,-1,101,1879
2,3,22,30,0,0,-1,101,1878
2,3,23,30,0,0,-1,101,1877
2,3,40,30,0,0,-1,101,1876
2,3,41,30,0,0,-1,101,1875
2,3,42,30,0,0,-1,101,1874
2,3,43,30,0,0,-1,101,1873
2,3,44,30,0,0,-1,101,1872
2,3,45,30,0,0,-1,101,1871
2,3,46,30,0,0,-1,101,1870
2,3,47,30,0,0,-1,101,1869
8,1,30,0,1,101,1868
7,1,29,0,1,101,1867
2,3,16,29,0,0,-1,101,1866
2,3,17,29,0,0,-1,101,1865
2,3,18,29,0,0,-1,101,1864
2,3,21,29,0,0,-1,101,1863
2,3,22,29,0,0,-1,101,1862
2,3,23,29,0,0,-1,101,1861
2,3,40,29,0,0,-1,101,1860
2,3,41,29,0,0,-1,101,1859
2,3,42,29,0,0,-1,101,1858
2,3,43,29,0,0,-1,101,1857
2,3,44,29,0,0,-1,101,1856
2,3,45,29,0,0,-1,101,1855
2,3,46,29,0,0,-1,101,1854
2,3,47,29,0,0,-1,101,1853
8,1,29,0,1,101,1852
7,1,28,0,1,101,1851
2,3,16,28,0,0,-1,101,1850
2,3,17,28,0,0,-1,101,1849
2,3,18,28,0,0,-1,101,1848
2,3,21,28,0,0,-1,101,1847
2,3,22,28,0,0,-1,101,1846
2,3,23,28,0,0,-1,101,1845
2,3,40,28,0,0,-1,101,1844
2,3,41,28,0,0,-1,101,1843
2,3,42,28,0,0,-1,101,1842
2,3,43,28,0,0,-1,101,1841
2,3,44,28,0,0,-1,101,1840
2,3,45,28,0,0,-1,101,1839
2,3,46,28,0,0,-1,101,1838
2,3,47,28,0,0,-1,101,1837
8,1,28,0,1,101,1836
7,1,27,0,1,101,1835
2,3,16,27,0,0,-1,101,1834
2,3,17,27,0,0,-1,101,1833
2,3,21,27,0,0,-1,101,1832
2,3,22,27,0,0,-1,101,1831
2,3,23,27,0,0,-1,101,1830
2,3,40,27,0,0,-1,101,1829
2,3,41,27,0,0,-1,101,1828
2,3,42,27,0,0,-1,101,1827
2,3,43,27,0,0,-1,101,1826
2,3,44,27,0,0,-1,101,1825
2,3,45,27,0,0,-1,101,1824
2,3,46,27,0,0,-1,101,1823
2,3,47,27,0,0,-1,101,1822
8,1,27,0,1,101,1821
7,1,26,0,1,101,1820
2,3,16,26,0,0,-1,101,1819
2,3,17,26,0,0,-1,101,1818
2,3,18,26,0,0,-1,101,1817
2,3,19,26,0,0,-1,101,1816
2,3,20,26,0,0,-1,101,1815
2,3,21,26,0,0,-1,101,1814
2,3,22,26,0,0,-1,101,1813
2,3,23,26,0,0,-1,101,1812
2,3,40,26,0,0,-1,101,1811
2,3,41,26,0,0,-1,101,1810
2,3,42,26,0,0,-1,101,1809
2,3,43,26,0,0,-1,101,1808
2,3,44,26,0,0,-1,101,1807
2,3,45,26,0,0,-1,101,1806
2,3,46,26,0,0,-1,101,1805
2,3,47,26,0,0,-1,101,1804
8,1,26,0,1,101,1803
7,1,25,0,1,101,1802
2,3,18,25,0,0,-1,101,1801
2,3,19,25,0,0,-1,101,1800
2,3,20,25,0,0,-1,101,1799
2,3,21,25,0,0,-1,101,1798
2,3,40,25,0,0,-1,101,1797
2,3,41,25,0,0,-1,101,1796
2,3,42,25,0,0,-1,101,1795
2,3,43,25,0,0,-1,101,1794
2,3,44,25,0,0,-1,101,1793
2,3,45,25,0,0,-1,101,1792
2,3,47,25,0,0,-1,101,1791
8,1,25,0,1,101,1790
7,1,24,0,1,101,1789
2,3,16,24,0,0,-1,101,1788
2,3,17,24,0,0,-1,101,1787
2,3,18,24,0,0,-1,101,1786
2,3,19,24,0,0,-1,101,1785
2,3,20,24,0,0,-1,101,1784
2,3,21,24,0,0,-1,101,1783
2,3,22,24,0,0,-1,101,1782
2,3,23,24,0,0,-1,101,1781
2,3,40,24,0,0,-1,101,1780
2,3,41,24,0,0,-1,101,1779
2,3,42,24,0,0,-1,101,1778
2,3,43,24,0,0,-1,101,1777
2,3,44,24,0,0,-1,101,1776
2,3,45,24,0,0,-1,101,1775
2,3,46,24,0,0,-1,101,1774
2,3,47,24,0,0,-1,101,1773
8,1,24,0,1,101,1772
19,1,50,0,1,107,1771
2,3,50,24,0,0,-1,107,1770
2,3,50,25,0,0,-1,107,1769
2,3,50,26,0,0,-1,107,1768
2,3,50,27,0,0,-1,107,1767
2,3,50,28,0,0,-1,107,1766
2,3,50,29,0,0,-1,107,1765
2,3,50,30,0,0,-1,107,1764
2,3,50,31,0,0,-1,107,1763
2,3,50,32,0,0,-1,107,1762
2,3,50,33,0,0,-1,107,1761
2,3,50,34,0,0,-1,107,1760
2,3,50,35,0,0,-1,107,1759
2,3,50,36,0,0,-1,107,1758
2,3,50,37,0,0,-1,107,1757
2,3,50,38,0,0,-1,107,1756
2,3,50,39,0,0,-1,107,1755
19,1,49,0,1,107,1754
2,3,49,24,0,0,-1,107,1753
2,3,49,25,0,0,-1,107,1752
2,3,49,26,0,0,-1,107,1751
2,3,49,27,0,0,-1,107,1750
2,3,49,28,0,0,-1,107,1749
2,3,49,29,0,0,-1,107,1748
2,3,49,30,0,0,-1,107,1747
2,3,49,31,0,0,-1,107,1746
2,3,49,32,0,0,-1,107,1745
2,3,49,33,0,0,-1,107,1744
2,3,49,34,0,0,-1,107,1743
2,3,49,35,0,0,-1,107,1742
2,3,49,36,0,0,-1,107,1741
2,3,49,37,0,0,-1,107,1740
2,3,49,38,0,0,-1,107,1739
2,3,49,39,0,0,-1,107,1738
19,1,48,0,1,107,1737
2,3,48,24,0,0,-1,107,1736
2,3,48,26,0,0,-1,107,1735
2,3,48,27,0,0,-1,107,1734
2,3,48,28,0,0,-1,107,1733
2,3,48,29,0,0,-1,107,1732
2,3,48,30,0,0,-1,107,1731
2,3,48,31,0,0,-1,107,1730
2,3,48,32,0,0,-1,107,1729
2,3,48,33,0,0,-1,107,1728
2,3,48,34,0,0,-1,107,1727
2,3,48,35,0,0,-1,107,1726
2,3,48,36,0,0,-1,107,1725
2,3,48,37,0,0,-1,107,1724
2,3,48,38,0,0,-1,107,1723
2,3,48,39,0,0,-1,107,1722
3,2,24,8,0,4,102,1721
3,2,24,8,0,10,102,1720
3,2,25,9,0,4,102,1719
3,2,25,9,0,10,102,1718
3,2,26,10,0,4,102,1717
3,2,26,10,0,10,102,1716
3,2,27,11,0,4,102,1715
3,2,27,11,0,10,102,1714
3,2,28,12,0,4,102,1713
3,2,28,12,0,10,102,1712
3,2,29,13,0,4,102,1711
3,2,29,13,0,10,102,1710
3,2,30,14,0,4,102,1709
3,2,30,14,0,10,102,1708
3,2,31,15,0,4,102,1707
3,2,31,15,0,10,102,1706
5,1,40,0,3,103,1705
7,1,40,0,1,103,1704
2,3,24,40,0,0,-1,103,1703
2,3,25,40,0,0,-1,103,1702
2,3,26,40,0,0,-1,103,1701
2,3,27,40,0,0,-1,103,1700
2,3,28,40,0,0,-1,103,1699
2,3,29,40,0,0,-1,103,1698
2,3,30,40,0,0,-1,103,1697
2,3,31,40,0,0,-1,103,1696
2,3,40,40,0,0,-1,103,1695
2,3,41,40,0,0,-1,103,1694
2,3,42,40,0,0,-1,103,1693
2,3,43,40,0,0,-1,103,1692
2,3,44,40,0,0,-1,103,1691
2,3,45,40,0,0,-1,103,1690
2,3,46,40,0,0,-1,103,1689
2,3,47,40,0,0,-1,103,1688
5,1,41,0,3,103,1687
7,1,41,0,1,103,1686
2,3,24,41,0,0,-1,103,1685
2,3,25,41,0,0,-1,103,1684
2,3,26,41,0,0,-1,103,1683
2,3,27,41,0,0,-1,103,1682
2,3,28,41,0,0,-1,103,1681
2,3,29,41,0,0,-1,103,1680
2,3,30,41,0,0,-1,103,1679
2,3,31,41,0,0,-1,103,1678
2,3,40,41,0,0,-1,103,1677
2,3,41,41,0,0,-1,103,1676
2,3,42,41,0,0,-1,103,1675
2,3,43,41,0,0,-1,103,1674
2,3,44,41,0,0,-1,103,1673
2,3,45,41,0,0,-1,103,1672
2,3,46,41,0,0,-1,103,1671
2,3,47,41,0,0,-1,103,1670
5,1,42,0,3,103,1669
7,1,42,0,1,103,1668
2,3,24,42,0,0,-1,103,1667
2,3,25,42,0,0,-1,103,1666
2,3,26,42,0,0,-1,103,1665
2,3,27,42,0,0,-1,103,1664
2,3,28,42,0,0,-1,103,1663
2,3,29,42,0,0,-1,103,1662
2,3,30,42,0,0,-1,103,1661
2,3,31,42,0,0,-1,103,1660
2,3,40,42,0,0,-1,103,1659
2,3,41,42,0,0,-1,103,1658
2,3,42,42,0,0,-1,103,1657
2,3,43,42,0,0,-1,103,1656
2,3,44,42,0,0,-1,103,1655
2,3,45,42,0,0,-1,103,1654
2,3,46,42,0,0,-1,103,1653
2,3,47,42,0,0,-1,103,1652
5,1,43,0,3,103,1651
7,1,43,0,1,103,1650
2,3,24,43,0,0,-1,103,1649
2,3,25,43,0,0,-1,103,1648
2,3,26,43,0,0,-1,103,1647
2,3,27,43,0,0,-1,103,1646
2,3,28,43,0,0,-1,103,1645
2,3,29,43,0,0,-1,103,1644
2,3,30,43,0,0,-1,103,1643
2,3,31,43,0,0,-1,103,1642
2,3,40,43,0,0,-1,103,1641
2,3,41,43,0,0,-1,103,1640
2,3,42,43,0,0,-1,103,1639
2,3,43,43,0,0,-1,103,1638
2,3,44,43,0,0,-1,103,1637
2,3,45,43,0,0,-1,103,1636
2,3,46,43,0,0,-1,103,1635
2,3,47,43,0,0,-1,103,1634
5,1,44,0,3,103,1633
7,1,44,0,1,103,1632
2,3,24,44,0,0,-1,103,1631
2,3,25,44,0,0,-1,103,1630
2,3,26,44,0,0,-1,103,1629
2,3,27,44,0,0,-1,103,1628
2,3,28,44,0,0,-1,103,1627
2,3,29,44,0,0,-1,103,1626
2,3,30,44,0,0,-1,103,1625
2,3,31,44,0,0,-1,103,1624
2,3,40,44,0,0,-1,103,1623
2,3,41,44,0,0,-1,103,1622
2,3,42,44,0,0,-1,103,1621
2,3,43,44,0,0,-1,103,1620
2,3,44,44,0,0,-1,103,1619
2,3,45,44,0,0,-1,103,1618
2,3,46,44,0,0,-1,103,1617
2,3,47,44,0,0,-1,103,1616
5,1,45,0,3,103,1615
7,1,45,0,1,103,1614
2,3,24,45,0,0,-1,103,1613
2,3,25,45,0,0,-1,103,1612
2,3,26,45,0,0,-1,103,1611
2,3,27,45,0,0,-1,103,1610
2,3,28,45,0,0,-1,103,1609
2,3,29,45,0,0,-1,103,1608
2,3,30,45,0,0,-1,103,1607
2,3,31,45,0,0,-1,103,1606
2,3,40,45,0,0,-1,103,1605
2,3,41,45,0,0,-1,103,1604
2,3,42,45,0,0,-1,103,1603
2,3,43,45,0,0,-1,103,1602
2,3,44,45,0,0,-1,103,1601
2,3,45,45,0,0,-1,103,1600
2,3,46,45,0,0,-1,103,1599
2,3,47,45,0,0,-1,103,1598
5,1,46,0,3,103,1597
7,1,46,0,1,103,1596
2,3,24,46,0,0,-1,103,1595
2,3,26,46,0,0,-1,103,1594
2,3,27,46,0,0,-1,103,1593
2,3,28,46,0,0,-1,103,1592
2,3,29,46,0,0,-1,103,1591
2,3,30,46,0,0,-1,103,1590
2,3,31,46,0,0,-1,103,1589
2,3,40,46,0,0,-1,103,1588
2,3,41,46,0,0,-1,103,1587
2,3,42,46,0,0,-1,103,1586
2,3,43,46,0,0,-1,103,1585
2,3,44,46,0,0,-1,103,1584
2,3,45,46,0,0,-1,103,1583
2,3,46,46,0,0,-1,103,1582
2,3,47,46,0,0,-1,103,1581
5,1,47,0,3,103,1580
7,1,47,0,1,103,1579
2,3,24,47,0,0,-1,103,1578
2,3,25,47,0,0,-1,103,1577
2,3,26,47,0,0,-1,103,1576
2,3,27,47,0,0,-1,103,1575
2,3,28,47,0,0,-1,103,1574
2,3,29,47,0,0,-1,103,1573
2,3,30,47,0,0,-1,103,1572
2,3,31,47,0,0,-1,103,1571
2,3,40,47,0,0,-1,103,1570
2,3,41,47,0,0,-1,103,1569
2,3,42,47,0,0,-1,103,1568
2,3,43,47,0,0,-1,103,1567
2,3,44,47,0,0,-1,103,1566
2,3,45,47,0,0,-1,103,1565
2,3,46,47,0,0,-1,103,1564
2,3,47,47,0,0,-1,103,1563
19,1,15,0,1,128,1562
2,3,15,16,0,0,-1,128,1561
2,3,15,18,0,0,-1,128,1560
2,3,15,21,0,0,-1,128,1559
2,3,15,22,0,0,-1,128,1558
2,3,15,23,0,0,-1,128,1557
2,3,15,24,0,0,-1,128,1556
2,3,15,26,0,0,-1,128,1555
2,3,15,27,0,0,-1,128,1554
2,3,15,28,0,0,-1,128,1553
2,3,15,29,0,0,-1,128,1552
2,3,15,30,0,0,-1,128,1551
2,3,15,31,0,0,-1,128,1550
2,3,15,40,0,0,-1,128,1549
2,3,15,41,0,0,-1,128,1548
2,3,15,42,0,0,-1,128,1547
2,3,15,43,0,0,-1,128,1546
2,3,15,44,0,0,-1,128,1545
2,3,15,45,0,0,-1,128,1544
2,3,15,46,0,0,-1,128,1543
2,3,15,47,0,0,-1,128,1542
19,1,14,0,1,128,1541
2,3,14,18,0,0,-1,128,1540
2,3,14,19,0,0,-1,128,1539
2,3,14,20,0,0,-1,128,1538
2,3,14,21,0,0,-1,128,1537
2,3,14,23,0,0,-1,128,1536
2,3,14,24,0,0,-1,128,1535
2,3,14,25,0,0,-1,128,1534
2,3,14,26,0,0,-1,128,1533
19,1,13,0,1,128,1532
19,1,12,0,1,128,1531
19,1,11,0,1,128,1530
19,1,10,0,1,128,1529
19,1,9,0,1,128,1528
19,1,8,0,1,128,1527
2,3,15,48,0,0,-1,130,1526
2,3,15,49,0,0,-1,130,1525
2,3,15,50,0,0,-1,130,1524
2,3,8,2,0,0,-1,131,1523
2,3,8,3,0,0,-1,131,1522
2,3,8,4,0,0,-1,131,1521
2,3,8,5,0,0,-1,131,1520
2,3,8,6,0,0,-1,131,1519
2,3,8,7,0,0,-1,131,1518
2,3,9,2,0,0,-1,131,1517
2,3,9,3,0,0,-1,131,1516
2,3,9,4,0,0,-1,131,1515
2,3,9,5,0,0,-1,131,1514
2,3,9,6,0,0,-1,131,1513
2,3,9,7,0,0,-1,131,1512
2,3,10,2,0,0,-1,131,1511
2,3,10,3,0,0,-1,131,1510
2,3,10,4,0,0,-1,131,1509
2,3,10,5,0,0,-1,131,1508
2,3,10,6,0,0,-1,131,1507
2,3,10,7,0,0,-1,131,1506
2,3,11,1,0,0,-1,131,1505
2,3,11,2,0,0,-1,131,1504
2,3,11,3,0,0,-1,131,1503
2,3,11,4,0,0,-1,131,1502
2,3,11,5,0,0,-1,131,1501
2,3,11,6,0,0,-1,131,1500
2,3,11,7,0,0,-1,131,1499
2,3,12,2,0,0,-1,131,1498
2,3,12,3,0,0,-1,131,1497
2,3,12,4,0,0,-1,131,1496
2,3,12,5,0,0,-1,131,1495
2,3,12,6,0,0,-1,131,1494
2,3,12,7,0,0,-1,131,1493
2,3,13,3,0,0,-1,131,1492
2,3,13,4,0,0,-1,131,1491
2,3,13,5,0,0,-1,131,1490
2,3,13,6,0,0,-1,131,1489
2,3,13,7,0,0,-1,131,1488
2,3,14,2,0,0,-1,131,1487
2,3,14,3,0,0,-1,131,1486
2,3,14,4,0,0,-1,131,1485
2,3,14,5,0,0,-1,131,1484
2,3,14,6,0,0,-1,131,1483
2,3,14,7,0,0,-1,131,1482
2,3,15,32,0,0,-1,131,1481
2,3,15,33,0,0,-1,131,1480
2,3,15,34,0,0,-1,131,1479
2,3,15,35,0,0,-1,131,1478
2,3,15,36,0,0,-1,131,1477
2,3,15,37,0,0,-1,131,1476
2,3,15,38,0,0,-1,131,1475
2,3,15,39,0,0,-1,131,1474
2,3,16,47,0,0,-1,104,1473
2,3,17,47,0,0,-1,104,1472
2,3,18,47,0,0,-1,104,1471
2,3,19,47,0,0,-1,104,1470
2,3,20,47,0,0,-1,104,1469
2,3,21,47,0,0,-1,104,1468
2,3,22,47,0,0,-1,104,1467
2,3,23,47,0,0,-1,104,1466
2,3,16,46,0,0,-1,104,1465
2,3,17,46,0,0,-1,104,1464
2,3,18,46,0,0,-1,104,1463
2,3,19,46,0,0,-1,104,1462
2,3,21,46,0,0,-1,104,1461
2,3,22,46,0,0,-1,104,1460
2,3,23,46,0,0,-1,104,1459
2,3,16,45,0,0,-1,104,1458
2,3,17,45,0,0,-1,104,1457
2,3,18,45,0,0,-1,104,1456
2,3,19,45,0,0,-1,104,1455
2,3,20,45,0,0,-1,104,1454
2,3,21,45,0,0,-1,104,1453
2,3,22,45,0,0,-1,104,1452
2,3,23,45,0,0,-1,104,1451
2,3,16,44,0,0,-1,104,1450
2,3,17,44,0,0,-1,104,1449
2,3,18,44,0,0,-1,104,1448
2,3,19,44,0,0,-1,104,1447
2,3,20,44,0,0,-1,104,1446
2,3,21,44,0,0,-1,104,1445
2,3,22,44,0,0,-1,104,1444
2,3,23,44,0,0,-1,104,1443
2,3,16,43,0,0,-1,104,1442
2,3,17,43,0,0,-1,104,1441
2,3,18,43,0,0,-1,104,1440
2,3,19,43,0,0,-1,104,1439
2,3,21,43,0,0,-1,104,1438
2,3,22,43,0,0,-1,104,1437
2,3,23,43,0,0,-1,104,1436
2,3,16,42,0,0,-1,104,1435
2,3,17,42,0,0,-1,104,1434
2,3,18,42,0,0,-1,104,1433
2,3,19,42,0,0,-1,104,1432
2,3,20,42,0,0,-1,104,1431
2,3,21,42,0,0,-1,104,1430
2,3,22,42,0,0,-1,104,1429
2,3,23,42,0,0,-1,104,1428
2,3,16,41,0,0,-1,104,1427
2,3,17,41,0,0,-1,104,1426
2,3,18,41,0,0,-1,104,1425
2,3,19,41,0,0,-1,104,1424
2,3,20,41,0,0,-1,104,1423
2,3,21,41,0,0,-1,104,1422
2,3,22,41,0,0,-1,104,1421
2,3,23,41,0,0,-1,104,1420
2,3,16,40,0,0,-1,104,1419
2,3,17,40,0,0,-1,104,1418
2,3,18,40,0,0,-1,104,1417
2,3,20,40,0,0,-1,104,1416
2,3,21,40,0,0,-1,104,1415
2,3,22,40,0,0,-1,104,1414
2,3,23,40,0,0,-1,104,1413
19,1,39,0,1,121,1412
2,3,39,16,0,0,-1,121,1411
2,3,39,17,0,0,-1,121,1410
2,3,39,18,0,0,-1,121,1409
2,3,39,19,0,0,-1,121,1408
2,3,39,21,0,0,-1,121,1407
2,3,39,22,0,0,-1,121,1406
2,3,39,23,0,0,-1,121,1405
2,3,39,40,0,0,-1,121,1404
2,3,39,41,0,0,-1,121,1403
2,3,39,42,0,0,-1,121,1402
2,3,39,43,0,0,-1,121,1401
2,3,39,44,0,0,-1,121,1400
2,3,39,45,0,0,-1,121,1399
2,3,39,46,0,0,-1,121,1398
2,3,39,47,0,0,-1,121,1397
19,1,38,0,1,121,1396
2,3,38,16,0,0,-1,121,1395
2,3,38,17,0,0,-1,121,1394
2,3,38,18,0,0,-1,121,1393
2,3,38,19,0,0,-1,121,1392
2,3,38,21,0,0,-1,121,1391
2,3,38,22,0,0,-1,121,1390
2,3,38,23,0,0,-1,121,1389
2,3,38,40,0,0,-1,121,1388
2,3,38,41,0,0,-1,121,1387
2,3,38,42,0,0,-1,121,1386
2,3,38,43,0,0,-1,121,1385
2,3,38,44,0,0,-1,121,1384
2,3,38,45,0,0,-1,121,1383
2,3,38,46,0,0,-1,121,1382
2,3,38,47,0,0,-1,121,1381
19,1,37,0,1,121,1380
2,3,37,16,0,0,-1,121,1379
2,3,37,17,0,0,-1,121,1378
2,3,37,18,0,0,-1,121,1377
2,3,37,21,0,0,-1,121,1376
2,3,37,22,0,0,-1,121,1375
2,3,37,23,0,0,-1,121,1374
2,3,37,40,0,0,-1,121,1373
2,3,37,41,0,0,-1,121,1372
2,3,37,42,0,0,-1,121,1371
2,3,37,43,0,0,-1,121,1370
2,3,37,44,0,0,-1,121,1369
2,3,37,45,0,0,-1,121,1368
2,3,37,46,0,0,-1,121,1367
2,3,37,47,0,0,-1,121,1366
19,1,36,0,1,121,1365
2,3,36,16,0,0,-1,121,1364
2,3,36,17,0,0,-1,121,1363
2,3,36,18,0,0,-1,121,1362
2,3,36,20,0,0,-1,121,1361
2,3,36,21,0,0,-1,121,1360
2,3,36,22,0,0,-1,121,1359
2,3,36,23,0,0,-1,121,1358
2,3,36,40,0,0,-1,121,1357
2,3,36,41,0,0,-1,121,1356
2,3,36,42,0,0,-1,121,1355
2,3,36,43,0,0,-1,121,1354
2,3,36,44,0,0,-1,121,1353
2,3,36,45,0,0,-1,121,1352
2,3,36,46,0,0,-1,121,1351
2,3,36,47,0,0,-1,121,1350
19,1,35,0,1,121,1349
2,3,35,16,0,0,-1,121,1348
2,3,35,17,0,0,-1,121,1347
2,3,35,18,0,0,-1,121,1346
2,3,35,21,0,0,-1,121,1345
2,3,35,22,0,0,-1,121,1344
2,3,35,23,0,0,-1,121,1343
2,3,35,40,0,0,-1,121,1342
2,3,35,41,0,0,-1,121,1341
2,3,35,42,0,0,-1,121,1340
2,3,35,43,0,0,-1,121,1339
2,3,35,44,0,0,-1,121,1338
2,3,35,45,0,0,-1,121,1337
2,3,35,46,0,0,-1,121,1336
2,3,35,47,0,0,-1,121,1335
19,1,34,0,1,121,1334
2,3,34,16,0,0,-1,121,1333
2,3,34,17,0,0,-1,121,1332
2,3,34,18,0,0,-1,121,1331
2,3,34,21,0,0,-1,121,1330
2,3,34,22,0,0,-1,121,1329
2,3,34,23,0,0,-1,121,1328
2,3,34,40,0,0,-1,121,1327
2,3,34,41,0,0,-1,121,1326
2,3,34,42,0,0,-1,121,1325
2,3,34,43,0,0,-1,121,1324
2,3,34,44,0,0,-1,121,1323
2,3,34,45,0,0,-1,121,1322
2,3,34,46,0,0,-1,121,1321
2,3,34,47,0,0,-1,121,1320
19,1,33,0,1,121,1319
2,3,33,16,0,0,-1,121,1318
2,3,33,17,0,0,-1,121,1317
2,3,33,18,0,0,-1,121,1316
2,3,33,20,0,0,-1,121,1315
2,3,33,21,0,0,-1,121,1314
2,3,33,22,0,0,-1,121,1313
2,3,33,23,0,0,-1,121,1312
2,3,33,40,0,0,-1,121,1311
2,3,33,41,0,0,-1,121,1310
2,3,33,42,0,0,-1,121,1309
2,3,33,43,0,0,-1,121,1308
2,3,33,44,0,0,-1,121,1307
2,3,33,45,0,0,-1,121,1306
2,3,33,46,0,0,-1,121,1305
2,3,33,47,0,0,-1,121,1304
19,1,32,0,1,121,1303
2,3,32,16,0,0,-1,121,1302
2,3,32,17,0,0,-1,121,1301
2,3,32,18,0,0,-1,121,1300
2,3,32,20,0,0,-1,121,1299
2,3,32,21,0,0,-1,121,1298
2,3,32,22,0,0,-1,121,1297
2,3,32,23,0,0,-1,121,1296
2,3,32,40,0,0,-1,121,1295
2,3,32,41,0,0,-1,121,1294
2,3,32,42,0,0,-1,121,1293
2,3,32,43,0,0,-1,121,1292
2,3,32,44,0,0,-1,121,1291
2,3,32,45,0,0,-1,121,1290
2,3,32,46,0,0,-1,121,1289
2,3,32,47,0,0,-1,121,1288
2,3,32,32,0,0,-1,123,1287
2,3,32,33,0,0,-1,123,1286
2,3,32,34,0,0,-1,123,1285
2,3,32,35,0,0,-1,123,1284
2,3,32,36,0,0,-1,123,1283
2,3,32,37,0,0,-1,123,1282
2,3,32,38,0,0,-1,123,1281
2,3,32,39,0,0,-1,123,1280
2,3,33,32,0,0,-1,123,1279
2,3,33,33,0,0,-1,123,1278
2,3,33,34,0,0,-1,123,1277
2,3,33,35,0,0,-1,123,1276
2,3,33,36,0,0,-1,123,1275
2,3,33,37,0,0,-1,123,1274
2,3,33,38,0,0,-1,123,1273
2,3,33,39,0,0,-1,123,1272
2,3,34,32,0,0,-1,123,1271
2,3,34,33,0,0,-1,123,1270
2,3,34,34,0,0,-1,123,1269
2,3,34,35,0,0,-1,123,1268
2,3,34,36,0,0,-1,123,1267
2,3,34,37,0,0,-1,123,1266
2,3,34,38,0,0,-1,123,1265
2,3,34,39,0,0,-1,123,1264
2,3,35,32,0,0,-1,123,1263
2,3,35,33,0,0,-1,123,1262
2,3,35,34,0,0,-1,123,1261
2,3,35,35,0,0,-1,123,1260
2,3,35,36,0,0,-1,123,1259
2,3,35,37,0,0,-1,123,1258
2,3,35,38,0,0,-1,123,1257
2,3,35,39,0,0,-1,123,1256
2,3,36,32,0,0,-1,123,1255
2,3,36,33,0,0,-1,123,1254
2,3,36,34,0,0,-1,123,1253
2,3,36,35,0,0,-1,123,1252
2,3,36,36,0,0,-1,123,1251
2,3,36,37,0,0,-1,123,1250
2,3,36,38,0,0,-1,123,1249
2,3,36,39,0,0,-1,123,1248
2,3,37,32,0,0,-1,123,1247
2,3,37,33,0,0,-1,123,1246
2,3,37,34,0,0,-1,123,1245
2,3,37,35,0,0,-1,123,1244
2,3,37,36,0,0,-1,123,1243
2,3,37,37,0,0,-1,123,1242
2,3,37,38,0,0,-1,123,1241
2,3,37,39,0,0,-1,123,1240
2,3,38,32,0,0,-1,123,1239
2,3,38,33,0,0,-1,123,1238
2,3,38,34,0,0,-1,123,1237
2,3,38,35,0,0,-1,123,1236
2,3,38,36,0,0,-1,123,1235
2,3,38,37,0,0,-1,123,1234
2,3,38,38,0,0,-1,123,1233
2,3,38,39,0,0,-1,123,1232
2,3,39,32,0,0,-1,123,1231
2,3,39,33,0,0,-1,123,1230
2,3,39,34,0,0,-1,123,1229
2,3,39,35,0,0,-1,123,1228
2,3,39,36,0,0,-1,123,1227
2,3,39,37,0,0,-1,123,1226
2,3,39,38,0,0,-1,123,1225
2,3,39,39,0,0,-1,123,1224
2,3,32,48,0,0,-1,124,1223
2,3,32,49,0,0,-1,124,1222
2,3,32,50,0,0,-1,124,1221
2,3,33,48,0,0,-1,124,1220
2,3,33,49,0,0,-1,124,1219
2,3,33,50,0,0,-1,124,1218
2,3,34,48,0,0,-1,124,1217
2,3,34,49,0,0,-1,124,1216
2,3,34,50,0,0,-1,124,1215
2,3,35,48,0,0,-1,124,1214
2,3,35,49,0,0,-1,124,1213
2,3,35,50,0,0,-1,124,1212
2,3,36,48,0,0,-1,124,1211
2,3,36,49,0,0,-1,124,1210
2,3,36,50,0,0,-1,124,1209
2,3,37,48,0,0,-1,124,1208
2,3,37,49,0,0,-1,124,1207
2,3,37,50,0,0,-1,124,1206
2,3,38,48,0,0,-1,124,1205
2,3,38,49,0,0,-1,124,1204
2,3,38,50,0,0,-1,124,1203
2,3,39,48,0,0,-1,124,1202
2,3,39,49,0,0,-1,124,1201
2,3,39,50,0,0,-1,124,1200
3,2,47,15,0,4,106,1199
3,2,46,14,0,4,106,1198
3,2,45,13,0,4,106,1197
3,2,44,12,0,4,106,1196
3,2,43,11,0,4,106,1195
3,2,42,10,0,4,106,1194
3,2,41,9,0,4,106,1193
3,2,40,8,0,4,106,1192
5,1,8,0,3,106,1191
5,1,9,0,3,106,1190
5,1,10,0,3,106,1189
5,1,11,0,3,106,1188
5,1,12,0,3,106,1187
5,1,13,0,3,106,1186
5,1,14,0,3,106,1185
5,1,15,0,3,106,1184
7,1,15,0,1,108,1183
2,3,16,15,0,0,-1,108,1182
2,3,18,15,0,0,-1,108,1181
2,3,21,15,0,0,-1,108,1180
2,3,22,15,0,0,-1,108,1179
2,3,23,15,0,0,-1,108,1178
7,1,14,0,1,108,1177
2,3,2,14,0,0,-1,108,1176
2,3,3,14,0,0,-1,108,1175
2,3,4,14,0,0,-1,108,1174
2,3,5,14,0,0,-1,108,1173
2,3,6,14,0,0,-1,108,1172
2,3,7,14,0,0,-1,108,1171
2,3,18,14,0,0,-1,108,1170
2,3,19,14,0,0,-1,108,1169
2,3,20,14,0,0,-1,108,1168
2,3,21,14,0,0,-1,108,1167
2,3,23,14,0,0,-1,108,1166
7,1,13,0,1,108,1165
2,3,3,13,0,0,-1,108,1164
2,3,4,13,0,0,-1,108,1163
2,3,5,13,0,0,-1,108,1162
2,3,6,13,0,0,-1,108,1161
2,3,7,13,0,0,-1,108,1160
7,1,12,0,1,108,1159
2,3,2,12,0,0,-1,108,1158
2,3,3,12,0,0,-1,108,1157
2,3,4,12,0,0,-1,108,1156
2,3,5,12,0,0,-1,108,1155
2,3,6,12,0,0,-1,108,1154
2,3,7,12,0,0,-1,108,1153
7,1,11,0,1,108,1152
2,3,1,11,0,0,-1,108,1151
2,3,2,11,0,0,-1,108,1150
2,3,3,11,0,0,-1,108,1149
2,3,4,11,0,0,-1,108,1148
2,3,5,11,0,0,-1,108,1147
2,3,6,11,0,0,-1,108,1146
2,3,7,11,0,0,-1,108,1145
7,1,10,0,1,108,1144
2,3,2,10,0,0,-1,108,1143
2,3,3,10,0,0,-1,108,1142
2,3,4,10,0,0,-1,108,1141
2,3,5,10,0,0,-1,108,1140
2,3,6,10,0,0,-1,108,1139
2,3,7,10,0,0,-1,108,1138
7,1,9,0,1,108,1137
2,3,2,9,0,0,-1,108,1136
2,3,3,9,0,0,-1,108,1135
2,3,4,9,0,0,-1,108,1134
2,3,5,9,0,0,-1,108,1133
2,3,6,9,0,0,-1,108,1132
2,3,7,9,0,0,-1,108,1131
7,1,8,0,1,108,1130
2,3,2,8,0,0,-1,108,1129
2,3,3,8,0,0,-1,108,1128
2,3,4,8,0,0,-1,108,1127
2,3,5,8,0,0,-1,108,1126
2,3,6,8,0,0,-1,108,1125
2,3,7,8,0,0,-1,108,1124
2,3,16,50,0,0,-1,113,1123
2,3,17,50,0,0,-1,113,1122
2,3,18,50,0,0,-1,113,1121
2,3,19,50,0,0,-1,113,1120
3,2,19,3,0,7,113,1119
2,3,21,50,0,0,-1,113,1118
2,3,22,50,0,0,-1,113,1117
2,3,23,50,0,0,-1,113,1116
2,3,16,49,0,0,-1,113,1115
2,3,17,49,0,0,-1,113,1114
2,3,18,49,0,0,-1,113,1113
2,3,20,49,0,0,-1,113,1112
3,2,20,4,0,7,113,1111
2,3,21,49,0,0,-1,113,1110
2,3,22,49,0,0,-1,113,1109
2,3,23,49,0,0,-1,113,1108
2,3,16,48,0,0,-1,113,1107
3,2,16,0,0,7,113,1106
2,3,17,48,0,0,-1,113,1105
3,2,17,1,0,7,113,1104
2,3,18,48,0,0,-1,113,1103
3,2,18,2,0,7,113,1102
2,3,21,48,0,0,-1,113,1101
3,2,21,5,0,7,113,1100
2,3,22,48,0,0,-1,113,1099
3,2,22,6,0,7,113,1098
2,3,23,48,0,0,-1,113,1097
3,2,23,7,0,7,113,1096
3,2,23,7,0,5,116,1095
3,2,22,6,0,5,116,1094
3,2,21,5,0,5,116,1093
3,2,18,2,0,5,116,1092
3,2,17,1,0,5,116,1091
3,2,16,0,0,5,116,1090
3,2,20,4,0,5,116,1089
3,2,19,3,0,5,116,1088
3,2,50,2,0,10,116,1087
3,2,49,1,0,10,116,1086
3,2,48,0,0,10,116,1085
2,3,32,15,0,0,-1,122,1084
2,3,33,15,0,0,-1,122,1083
2,3,34,15,0,0,-1,122,1082
2,3,35,15,0,0,-1,122,1081
2,3,36,15,0,0,-1,122,1080
2,3,37,15,0,0,-1,122,1079
2,3,38,15,0,0,-1,122,1078
2,3,39,15,0,0,-1,122,1077
2,3,32,24,0,0,-1,125,1076
2,3,32,25,0,0,-1,125,1075
2,3,32,26,0,0,-1,125,1074
2,3,32,27,0,0,-1,125,1073
2,3,32,28,0,0,-1,125,1072
2,3,32,29,0,0,-1,125,1071
2,3,32,30,0,0,-1,125,1070
2,3,32,31,0,0,-1,125,1069
3,2,32,0,0,7,125,1068
2,3,33,24,0,0,-1,125,1067
2,3,33,25,0,0,-1,125,1066
2,3,33,26,0,0,-1,125,1065
2,3,33,27,0,0,-1,125,1064
2,3,33,28,0,0,-1,125,1063
2,3,33,29,0,0,-1,125,1062
2,3,33,30,0,0,-1,125,1061
2,3,33,31,0,0,-1,125,1060
3,2,33,1,0,7,125,1059
2,3,34,24,0,0,-1,125,1058
2,3,34,26,0,0,-1,125,1057
2,3,34,27,0,0,-1,125,1056
2,3,34,28,0,0,-1,125,1055
2,3,34,29,0,0,-1,125,1054
2,3,34,30,0,0,-1,125,1053
2,3,34,31,0,0,-1,125,1052
3,2,34,2,0,7,125,1051
2,3,35,24,0,0,-1,125,1050
2,3,35,26,0,0,-1,125,1049
2,3,35,27,0,0,-1,125,1048
2,3,35,28,0,0,-1,125,1047
2,3,35,29,0,0,-1,125,1046
2,3,35,30,0,0,-1,125,1045
2,3,35,31,0,0,-1,125,1044
3,2,35,3,0,7,125,1043
2,3,36,24,0,0,-1,125,1042
2,3,36,25,0,0,-1,125,1041
2,3,36,26,0,0,-1,125,1040
2,3,36,27,0,0,-1,125,1039
2,3,36,28,0,0,-1,125,1038
2,3,36,29,0,0,-1,125,1037
2,3,36,30,0,0,-1,125,1036
2,3,36,31,0,0,-1,125,1035
3,2,36,4,0,7,125,1034
2,3,37,24,0,0,-1,125,1033
2,3,37,26,0,0,-1,125,1032
2,3,37,27,0,0,-1,125,1031
2,3,37,28,0,0,-1,125,1030
2,3,37,29,0,0,-1,125,1029
2,3,37,30,0,0,-1,125,1028
2,3,37,31,0,0,-1,125,1027
3,2,37,5,0,7,125,1026
2,3,38,24,0,0,-1,125,1025
2,3,38,26,0,0,-1,125,1024
2,3,38,27,0,0,-1,125,1023
2,3,38,28,0,0,-1,125,1022
2,3,38,29,0,0,-1,125,1021
2,3,38,30,0,0,-1,125,1020
2,3,38,31,0,0,-1,125,1019
3,2,38,6,0,7,125,1018
2,3,39,24,0,0,-1,125,1017
2,3,39,26,0,0,-1,125,1016
2,3,39,27,0,0,-1,125,1015
2,3,39,28,0,0,-1,125,1014
2,3,39,29,0,0,-1,125,1013
2,3,39,30,0,0,-1,125,1012
2,3,39,31,0,0,-1,125,1011
3,2,39,7,0,7,125,1010
3,2,39,7,0,5,126,1009
3,2,38,6,0,5,126,1008
3,2,37,5,0,5,126,1007
3,2,36,4,0,5,126,1006
3,2,35,3,0,5,126,1005
3,2,34,2,0,5,126,1004
3,2,33,1,0,5,126,1003
3,2,32,0,0,5,126,1002
2,3,24,14,0,0,-1,109,1001
2,3,25,14,0,0,-1,109,1000
2,3,26,14,0,0,-1,109,999
2,3,24,15,0,0,-1,109,998
2,3,26,15,0,0,-1,109,997
2,3,27,15,0,0,-1,109,996
2,3,28,15,0,0,-1,109,995
2,3,29,15,0,0,-1,109,994
2,3,30,15,0,0,-1,109,993
2,3,31,15,0,0,-1,109,992
2,3,24,24,0,0,-1,112,991
2,3,25,24,0,0,-1,112,990
2,3,26,24,0,0,-1,112,989
2,3,28,24,0,0,-1,112,988
2,3,29,24,0,0,-1,112,987
2,3,30,24,0,0,-1,112,986
2,3,31,24,0,0,-1,112,985
2,3,24,25,0,0,-1,112,984
2,3,25,25,0,0,-1,112,983
2,3,26,25,0,0,-1,112,982
2,3,31,25,0,0,-1,112,981
2,3,24,26,0,0,-1,112,980
2,3,25,26,0,0,-1,112,979
2,3,26,26,0,0,-1,112,978
2,3,27,26,0,0,-1,112,977
2,3,28,26,0,0,-1,112,976
2,3,29,26,0,0,-1,112,975
2,3,30,26,0,0,-1,112,974
2,3,31,26,0,0,-1,112,973
2,3,26,27,0,0,-1,112,972
2,3,27,27,0,0,-1,112,971
2,3,28,27,0,0,-1,112,970
2,3,29,27,0,0,-1,112,969
2,3,30,27,0,0,-1,112,968
2,3,31,27,0,0,-1,112,967
2,3,24,28,0,0,-1,112,966
2,3,26,28,0,0,-1,112,965
2,3,27,28,0,0,-1,112,964
2,3,28,28,0,0,-1,112,963
2,3,29,28,0,0,-1,112,962
2,3,30,28,0,0,-1,112,961
2,3,31,28,0,0,-1,112,960
2,3,24,29,0,0,-1,112,959
2,3,26,29,0,0,-1,112,958
2,3,27,29,0,0,-1,112,957
2,3,28,29,0,0,-1,112,956
2,3,29,29,0,0,-1,112,955
2,3,30,29,0,0,-1,112,954
2,3,31,29,0,0,-1,112,953
2,3,24,30,0,0,-1,112,952
2,3,26,30,0,0,-1,112,951
2,3,27,30,0,0,-1,112,950
2,3,28,30,0,0,-1,112,949
2,3,29,30,0,0,-1,112,948
2,3,30,30,0,0,-1,112,947
2,3,31,30,0,0,-1,112,946
2,3,24,31,0,0,-1,112,945
2,3,25,31,0,0,-1,112,944
2,3,26,31,0,0,-1,112,943
2,3,27,31,0,0,-1,112,942
2,3,28,31,0,0,-1,112,941
2,3,29,31,0,0,-1,112,940
2,3,30,31,0,0,-1,112,939
2,3,31,31,0,0,-1,112,938
2,3,24,50,0,0,-1,112,937
2,3,25,50,0,0,-1,112,936
2,3,26,50,0,0,-1,112,935
2,3,27,50,0,0,-1,112,934
2,3,28,50,0,0,-1,112,933
2,3,29,50,0,0,-1,112,932
2,3,30,50,0,0,-1,112,931
2,3,31,50,0,0,-1,112,930
2,3,24,49,0,0,-1,112,929
2,3,25,49,0,0,-1,112,928
3,2,25,9,0,5,112,927
2,3,26,49,0,0,-1,112,926
2,3,27,49,0,0,-1,112,925
2,3,28,49,0,0,-1,112,924
2,3,29,49,0,0,-1,112,923
2,3,30,49,0,0,-1,112,922
2,3,31,49,0,0,-1,112,921
2,3,24,48,0,0,-1,112,920
3,2,24,8,0,5,112,919
2,3,26,48,0,0,-1,112,918
3,2,26,10,0,5,112,917
2,3,27,48,0,0,-1,112,916
3,2,27,11,0,5,112,915
2,3,28,48,0,0,-1,112,914
3,2,28,12,0,5,112,913
2,3,29,48,0,0,-1,112,912
3,2,29,13,0,5,112,911
2,3,30,48,0,0,-1,112,910
3,2,30,14,0,5,112,909
2,3,31,48,0,0,-1,112,908
3,2,31,15,0,5,112,907
3,2,31,15,0,7,120,906
3,2,30,14,0,7,120,905
3,2,29,13,0,7,120,904
3,2,28,12,0,7,120,903
3,2,27,11,0,7,120,902
3,2,26,10,0,7,120,901
3,2,24,8,0,7,120,900
3,2,25,9,0,7,120,899
8,1,0,0,1,120,898
8,1,1,0,1,120,897
8,1,2,0,1,120,896
8,1,3,0,1,120,895
8,1,4,0,1,120,894
8,1,5,0,1,120,893
8,1,6,0,1,120,892
8,1,7,0,1,120,891
2,3,8,8,0,0,-1,129,890
2,3,9,8,0,0,-1,129,889
2,3,10,8,0,0,-1,129,888
2,3,11,8,0,0,-1,129,887
2,3,12,8,0,0,-1,129,886
2,3,13,8,0,0,-1,129,885
2,3,14,8,0,0,-1,129,884
2,3,8,9,0,0,-1,129,883
2,3,9,9,0,0,-1,129,882
2,3,10,9,0,0,-1,129,881
2,3,11,9,0,0,-1,129,880
2,3,12,9,0,0,-1,129,879
2,3,13,9,0,0,-1,129,878
2,3,14,9,0,0,-1,129,877
2,3,8,10,0,0,-1,129,876
2,3,9,10,0,0,-1,129,875
2,3,10,10,0,0,-1,129,874
2,3,11,10,0,0,-1,129,873
2,3,12,10,0,0,-1,129,872
2,3,13,10,0,0,-1,129,871
2,3,14,10,0,0,-1,129,870
2,3,8,11,0,0,-1,129,869
2,3,9,11,0,0,-1,129,868
2,3,10,11,0,0,-1,129,867
2,3,11,11,0,0,-1,129,866
2,3,12,11,0,0,-1,129,865
2,3,13,11,0,0,-1,129,864
2,3,14,11,0,0,-1,129,863
2,3,8,12,0,0,-1,129,862
2,3,9,12,0,0,-1,129,861
2,3,10,12,0,0,-1,129,860
2,3,11,12,0,0,-1,129,859
2,3,12,12,0,0,-1,129,858
2,3,13,12,0,0,-1,129,857
2,3,14,12,0,0,-1,129,856
2,3,8,13,0,0,-1,129,855
2,3,9,13,0,0,-1,129,854
2,3,10,13,0,0,-1,129,853
2,3,11,13,0,0,-1,129,852
2,3,12,13,0,0,-1,129,851
2,3,13,13,0,0,-1,129,850
2,3,14,13,0,0,-1,129,849
2,3,8,14,0,0,-1,129,848
2,3,9,14,0,0,-1,129,847
2,3,10,14,0,0,-1,129,846
2,3,11,14,0,0,-1,129,845
2,3,12,14,0,0,-1,129,844
2,3,13,14,0,0,-1,129,843
2,3,14,14,0,0,-1,129,842
2,3,15,14,0,0,-1,129,841
2,3,14,15,0,0,-1,129,840
2,3,15,15,0,0,-1,129,839
3,2,7,7,0,5,117,838
3,2,6,6,0,5,117,837
8,1,8,0,1,117,836
8,1,9,0,1,117,835
8,1,10,0,1,117,834
8,1,11,0,1,117,833
8,1,12,0,1,117,832
8,1,13,0,1,117,831
8,1,14,0,1,117,830
8,1,15,0,1,117,829
2,3,0,24,0,0,-1,117,828
2,3,1,24,0,0,-1,117,827
2,3,2,24,0,0,-1,117,826
2,3,3,24,0,0,-1,117,825
2,3,4,24,0,0,-1,117,824
2,3,5,24,0,0,-1,117,823
2,3,0,25,0,0,-1,117,822
2,3,1,25,0,0,-1,117,821
2,3,2,25,0,0,-1,117,820
2,3,3,25,0,0,-1,117,819
2,3,4,25,0,0,-1,117,818
2,3,5,25,0,0,-1,117,817
2,3,0,26,0,0,-1,117,816
3,2,0,0,0,5,117,815
2,3,1,26,0,0,-1,117,814
3,2,1,1,0,5,117,813
2,3,2,26,0,0,-1,117,812
3,2,2,2,0,5,117,811
2,3,3,26,0,0,-1,117,810
3,2,3,3,0,5,117,809
2,3,4,26,0,0,-1,117,808
3,2,4,4,0,5,117,807
2,3,5,26,0,0,-1,117,806
3,2,5,5,0,5,117,805
3,2,5,5,0,7,118,804
3,2,4,4,0,7,118,803
3,2,3,3,0,7,118,802
3,2,2,2,0,7,118,801
3,2,1,1,0,7,118,800
3,2,0,0,0,7,118,799
3,2,7,7,0,7,118,798
3,2,6,6,0,7,118,797
2,3,48,47,0,0,-1,118,796
2,3,49,47,0,0,-1,118,795
2,3,50,47,0,0,-1,118,794
2,3,48,46,0,0,-1,118,793
2,3,49,46,0,0,-1,118,792
2,3,50,46,0,0,-1,118,791
2,3,48,45,0,0,-1,118,790
2,3,49,45,0,0,-1,118,789
2,3,50,45,0,0,-1,118,788
2,3,48,44,0,0,-1,118,787
2,3,49,44,0,0,-1,118,786
2,3,50,44,0,0,-1,118,785
2,3,48,43,0,0,-1,118,784
2,3,49,43,0,0,-1,118,783
2,3,50,43,0,0,-1,118,782
2,3,48,42,0,0,-1,118,781
2,3,49,42,0,0,-1,118,780
2,3,50,42,0,0,-1,118,779
2,3,48,41,0,0,-1,118,778
2,3,49,41,0,0,-1,118,777
2,3,50,41,0,0,-1,118,776
2,3,48,40,0,0,-1,118,775
2,3,49,40,0,0,-1,118,774
2,3,50,40,0,0,-1,118,773
3,2,8,8,0,4,110,772
3,2,9,9,0,4,110,771
3,2,10,10,0,4,110,770
3,2,11,11,0,4,110,769
3,2,12,12,0,4,110,768
3,2,13,13,0,4,110,767
3,2,14,14,0,4,110,766
2,3,40,15,0,0,-1,110,765
2,3,41,15,0,0,-1,110,764
2,3,42,15,0,0,-1,110,763
2,3,43,15,0,0,-1,110,762
2,3,44,15,0,0,-1,110,761
2,3,45,15,0,0,-1,110,760
2,3,46,15,0,0,-1,110,759
2,3,47,15,0,0,-1,110,758
2,3,48,15,0,0,-1,110,757
2,3,49,15,0,0,-1,110,756
2,3,50,15,0,0,-1,110,755
3,2,15,15,0,4,110,754
2,3,40,48,0,0,-1,114,753
2,3,40,49,0,0,-1,114,752
2,3,40,50,0,0,-1,114,751
3,2,40,8,0,5,114,750
3,2,40,8,0,7,114,749
2,3,41,48,0,0,-1,114,748
2,3,41,49,0,0,-1,114,747
2,3,41,50,0,0,-1,114,746
3,2,41,9,0,5,114,745
3,2,41,9,0,7,114,744
2,3,42,48,0,0,-1,114,743
2,3,42,49,0,0,-1,114,742
2,3,42,50,0,0,-1,114,741
3,2,42,10,0,5,114,740
3,2,42,10,0,7,114,739
2,3,43,48,0,0,-1,114,738
2,3,43,49,0,0,-1,114,737
2,3,43,50,0,0,-1,114,736
3,2,43,11,0,5,114,735
3,2,43,11,0,7,114,734
2,3,44,48,0,0,-1,114,733
2,3,44,49,0,0,-1,114,732
2,3,44,50,0,0,-1,114,731
3,2,44,12,0,5,114,730
3,2,44,12,0,7,114,729
2,3,45,48,0,0,-1,114,728
2,3,45,49,0,0,-1,114,727
2,3,45,50,0,0,-1,114,726
3,2,45,13,0,5,114,725
3,2,45,13,0,7,114,724
2,3,46,48,0,0,-1,114,723
2,3,46,49,0,0,-1,114,722
2,3,46,50,0,0,-1,114,721
3,2,46,14,0,5,114,720
3,2,46,14,0,7,114,719
2,3,47,48,0,0,-1,114,718
2,3,47,49,0,0,-1,114,717
2,3,47,50,0,0,-1,114,716
3,2,47,15,0,5,114,715
3,2,47,15,0,7,114,714
3,2,8,8,0,10,115,713
3,2,9,9,0,10,115,712
3,2,10,10,0,10,115,711
3,2,11,11,0,10,115,710
3,2,12,12,0,10,115,709
3,2,13,13,0,10,115,708
3,2,14,14,0,10,115,707
3,2,15,15,0,10,115,706
2,3,48,16,0,0,-1,115,705
2,3,48,17,0,0,-1,115,704
2,3,48,18,0,0,-1,115,703
2,3,48,21,0,0,-1,115,702
2,3,48,22,0,0,-1,115,701
2,3,48,23,0,0,-1,115,700
2,3,49,16,0,0,-1,115,699
2,3,49,17,0,0,-1,115,698
2,3,49,18,0,0,-1,115,697
2,3,49,20,0,0,-1,115,696
2,3,49,21,0,0,-1,115,695
2,3,49,22,0,0,-1,115,694
2,3,49,23,0,0,-1,115,693
2,3,50,16,0,0,-1,115,692
2,3,50,17,0,0,-1,115,691
2,3,50,18,0,0,-1,115,690
2,3,50,19,0,0,-1,115,689
2,3,50,21,0,0,-1,115,688
2,3,50,22,0,0,-1,115,687
2,3,50,23,0,0,-1,115,686
2,3,48,48,0,0,-1,119,685
2,3,48,49,0,0,-1,119,684
2,3,48,50,0,0,-1,119,683
3,2,48,0,0,5,119,682
3,2,48,0,0,7,119,681
2,3,49,48,0,0,-1,119,680
2,3,49,49,0,0,-1,119,679
2,3,49,50,0,0,-1,119,678
3,2,49,1,0,5,119,677
3,2,49,1,0,7,119,676
2,3,50,48,0,0,-1,119,675
2,3,50,49,0,0,-1,119,674
2,3,50,50,0,0,-1,119,673
3,2,50,2,0,5,119,672
3,2,50,2,0,7,119,671
3,2,15,15,0,5,132,670
3,2,15,15,0,7,132,669
3,2,14,14,0,5,132,668
3,2,14,14,0,7,132,667
3,2,13,13,0,5,132,666
3,2,13,13,0,7,132,665
3,2,12,12,0,5,132,664
3,2,12,12,0,7,132,663
3,2,11,11,0,5,132,662
3,2,11,11,0,7,132,661
3,2,10,10,0,5,132,660
3,2,10,10,0,7,132,659
3,2,9,9,0,5,132,658
3,2,9,9,0,7,132,657
3,2,8,8,0,5,132,656
3,2,8,8,0,7,132,655
4,1,0,1,RAPBUF,-1,132,654
8,1,47,0,1,105,653
3,2,47,15,0,10,105,652
8,1,46,0,1,105,651
3,2,46,14,0,10,105,650
8,1,45,0,1,105,649
3,2,45,13,0,10,105,648
8,1,44,0,1,105,647
3,2,44,12,0,10,105,646
8,1,43,0,1,105,645
3,2,43,11,0,10,105,644
8,1,42,0,1,105,643
3,2,42,10,0,10,105,642
8,1,41,0,1,105,641
3,2,41,9,0,10,105,640
8,1,40,0,1,105,639
3,2,40,8,0,10,105,638
3,2,16,0,0,4,88,637
3,2,17,1,0,4,88,636
3,2,18,2,0,4,88,635
3,2,19,3,0,4,88,634
3,2,20,4,0,4,88,633
3,2,21,5,0,4,88,632
3,2,22,6,0,4,88,631
3,2,23,7,0,4,88,630
22,0,1,_AP,-1,33,629
14,1,39,0,3,33,628
22,0,1,_AP,-1,33,627
14,1,38,0,3,33,626
22,0,1,_AP,-1,33,625
14,1,37,0,3,33,624
22,0,1,_AP,-1,33,623
14,1,36,0,3,33,622
22,0,1,_AP,-1,33,621
14,1,35,0,3,33,620
22,0,1,_AP,-1,33,619
14,1,34,0,3,33,618
22,0,1,_AP,-1,33,617
14,1,33,0,3,33,616
22,0,1,_AP,-1,33,615
14,1,32,0,3,33,614
5,1,32,0,5,53,613
5,1,33,0,5,53,612
5,1,34,0,5,53,611
5,1,35,0,5,53,610
5,1,36,0,5,53,609
5,1,37,0,5,53,608
5,1,38,0,5,53,607
5,1,39,0,5,53,606
7,1,39,0,3,66,605
8,1,39,0,3,66,604
3,2,39,7,0,8,66,603
7,1,38,0,3,66,602
8,1,38,0,3,66,601
3,2,38,6,0,8,66,600
7,1,37,0,3,66,599
8,1,37,0,3,66,598
3,2,37,5,0,8,66,597
7,1,36,0,3,66,596
8,1,36,0,3,66,595
3,2,36,4,0,8,66,594
7,1,35,0,3,66,593
8,1,35,0,3,66,592
3,2,35,3,0,8,66,591
7,1,34,0,3,66,590
8,1,34,0,3,66,589
3,2,34,2,0,8,66,588
7,1,33,0,3,66,587
8,1,33,0,3,66,586
3,2,33,1,0,8,66,585
7,1,32,0,3,66,584
8,1,32,0,3,66,583
3,2,32,0,0,8,66,582
14,1,8,0,3,25,581
14,1,9,0,3,25,580
14,1,10,0,3,25,579
14,1,11,0,3,25,578
14,1,12,0,3,25,577
14,1,13,0,3,25,576
14,1,14,0,3,25,575
14,1,15,0,3,25,574
14,1,48,0,3,25,573
14,1,49,0,3,25,572
14,1,50,0,3,25,571
5,1,50,0,5,56,570
7,1,50,0,3,56,569
8,1,50,0,3,56,568
5,1,49,0,5,56,567
7,1,49,0,3,56,566
8,1,49,0,3,56,565
5,1,48,0,5,56,564
7,1,48,0,3,56,563
8,1,48,0,3,56,562
5,1,15,0,5,59,561
7,1,15,0,3,59,560
8,1,15,0,3,59,559
5,1,14,0,5,59,558
7,1,14,0,3,59,557
8,1,14,0,3,59,556
5,1,13,0,5,59,555
7,1,13,0,3,59,554
8,1,13,0,3,59,553
5,1,12,0,5,59,552
7,1,12,0,3,59,551
8,1,12,0,3,59,550
5,1,11,0,5,59,549
7,1,11,0,3,59,548
8,1,11,0,3,59,547
5,1,10,0,5,59,546
7,1,10,0,3,59,545
8,1,10,0,3,59,544
5,1,9,0,5,59,543
7,1,9,0,3,59,542
8,1,9,0,3,59,541
5,1,8,0,5,59,540
7,1,8,0,3,59,539
8,1,8,0,3,59,538
3,2,8,8,0,8,75,537
3,2,9,9,0,8,75,536
3,2,10,10,0,8,75,535
3,2,11,11,0,8,75,534
3,2,12,12,0,8,75,533
3,2,13,13,0,8,75,532
3,2,14,14,0,8,75,531
3,2,15,15,0,8,75,530
4,1,0,1,XBPBUF,-1,75,529
3,2,48,0,0,8,77,528
3,2,49,1,0,8,77,527
3,2,50,2,0,8,77,526
4,1,0,1,PAPBUF,-1,77,525
4,1,0,1,XAPBUF,-1,77,524
16,0,1,PAP,-1,127,523
4,1,0,1,RBPBUF,-1,127,522
21,0,1,CONSTRUCTGB,-1,127,521
3,2,50,2,0,4,127,520
3,2,49,1,0,4,127,519
3,2,48,0,0,4,127,518
4,1,0,1,XARBUF,-1,127,517
21,0,1,CONSTRUCTGA1,-1,127,516
4,1,0,1,RARBUF,-1,133,515
15,0,1,RAR,-1,133,514
16,0,1,RAR,-1,133,513
21,0,1,CONSTRUCTGA2,-1,133,512
21,0,1,EIGEN,-1,133,511
5,1,8,0,8,133,510
5,1,9,0,8,133,509
5,1,10,0,8,133,508
5,1,11,0,8,133,507
5,1,12,0,8,133,506
5,1,13,0,8,133,505
5,1,14,0,8,133,504
5,1,15,0,8,133,503
5,1,0,0,6,134,502
5,1,1,0,6,134,501
5,1,2,0,6,134,500
5,1,3,0,6,134,499
5,1,4,0,6,134,498
5,1,5,0,6,134,497
5,1,6,0,6,134,496
5,1,7,0,6,134,495
5,1,0,0,7,135,494
6,1,0,0,1,135,493
5,1,1,0,7,135,492
6,1,1,0,1,135,491
5,1,2,0,7,135,490
6,1,2,0,1,135,489
5,1,3,0,7,135,488
6,1,3,0,1,135,487
5,1,4,0,7,135,486
6,1,4,0,1,135,485
5,1,5,0,7,135,484
6,1,5,0,1,135,483
5,1,6,0,7,135,482
6,1,6,0,1,135,481
5,1,7,0,7,135,480
6,1,7,0,1,135,479
5,1,0,0,10,138,478
6,1,0,0,3,138,477
5,1,1,0,10,138,476
6,1,1,0,3,138,475
5,1,2,0,10,138,474
6,1,2,0,3,138,473
5,1,3,0,10,138,472
6,1,3,0,3,138,471
5,1,4,0,10,138,470
6,1,4,0,3,138,469
5,1,5,0,10,138,468
6,1,5,0,3,138,467
5,1,6,0,10,138,466
6,1,6,0,3,138,465
5,1,7,0,10,138,464
6,1,7,0,3,138,463
5,1,8,0,6,146,462
5,1,9,0,6,146,461
5,1,10,0,6,146,460
5,1,11,0,6,146,459
5,1,12,0,6,146,458
5,1,13,0,6,146,457
5,1,14,0,6,146,456
5,1,15,0,6,146,455
5,1,8,0,7,147,454
6,1,8,0,1,147,453
5,1,9,0,7,147,452
6,1,9,0,1,147,451
5,1,10,0,7,147,450
6,1,10,0,1,147,449
5,1,11,0,7,147,448
6,1,11,0,1,147,447
5,1,12,0,7,147,446
6,1,12,0,1,147,445
5,1,13,0,7,147,444
6,1,13,0,1,147,443
5,1,14,0,7,147,442
6,1,14,0,1,147,441
5,1,15,0,7,147,440
6,1,15,0,1,147,439
5,1,8,0,10,159,438
6,1,8,0,3,159,437
5,1,9,0,10,159,436
6,1,9,0,3,159,435
5,1,10,0,10,159,434
6,1,10,0,3,159,433
5,1,11,0,10,159,432
6,1,11,0,3,159,431
5,1,12,0,10,159,430
6,1,12,0,3,159,429
5,1,13,0,10,159,428
6,1,13,0,3,159,427
5,1,14,0,10,159,426
6,1,14,0,3,159,425
5,1,15,0,10,159,424
6,1,15,0,3,159,423
5,1,16,0,6,143,422
5,1,17,0,6,143,421
5,1,18,0,6,143,420
5,1,19,0,6,143,419
5,1,20,0,6,143,418
5,1,21,0,6,143,417
5,1,22,0,6,143,416
5,1,23,0,6,143,415
5,1,24,0,6,139,414
5,1,25,0,6,139,413
5,1,26,0,6,139,412
5,1,27,0,6,139,411
5,1,28,0,6,139,410
5,1,29,0,6,139,409
5,1,30,0,6,139,408
5,1,31,0,6,139,407
5,1,24,0,7,176,406
6,1,24,0,1,176,405
5,1,25,0,7,176,404
6,1,25,0,1,176,403
5,1,26,0,7,176,402
6,1,26,0,1,176,401
5,1,27,0,7,176,400
6,1,27,0,1,176,399
5,1,28,0,7,176,398
6,1,28,0,1,176,397
5,1,29,0,7,176,396
6,1,29,0,1,176,395
5,1,30,0,7,176,394
6,1,30,0,1,176,393
5,1,31,0,7,176,392
6,1,31,0,1,176,391
5,1,32,0,6,150,390
5,1,33,0,6,150,389
5,1,34,0,6,150,388
5,1,35,0,6,150,387
5,1,36,0,6,150,386
5,1,37,0,6,150,385
5,1,38,0,6,150,384
5,1,39,0,6,150,383
5,1,32,0,7,151,382
6,1,32,0,1,151,381
5,1,33,0,7,151,380
6,1,33,0,1,151,379
5,1,34,0,7,151,378
6,1,34,0,1,151,377
5,1,35,0,7,151,376
6,1,35,0,1,151,375
5,1,36,0,7,151,374
6,1,36,0,1,151,373
5,1,37,0,7,151,372
6,1,37,0,1,151,371
5,1,38,0,7,151,370
6,1,38,0,1,151,369
5,1,39,0,7,151,368
6,1,39,0,1,151,367
5,1,32,0,10,152,366
6,1,32,0,3,152,365
5,1,33,0,10,152,364
6,1,33,0,3,152,363
5,1,34,0,10,152,362
6,1,34,0,3,152,361
5,1,35,0,10,152,360
6,1,35,0,3,152,359
5,1,36,0,10,152,358
6,1,36,0,3,152,357
5,1,37,0,10,152,356
6,1,37,0,3,152,355
5,1,38,0,10,152,354
6,1,38,0,3,152,353
5,1,39,0,10,152,352
6,1,39,0,3,152,351
5,1,40,0,6,136,350
5,1,41,0,6,136,349
5,1,42,0,6,136,348
5,1,43,0,6,136,347
5,1,44,0,6,136,346
5,1,45,0,6,136,345
5,1,46,0,6,136,344
5,1,47,0,6,136,343
5,1,40,0,7,179,342
6,1,40,0,1,179,341
5,1,41,0,7,179,340
6,1,41,0,1,179,339
5,1,42,0,7,179,338
6,1,42,0,1,179,337
5,1,43,0,7,179,336
6,1,43,0,1,179,335
5,1,44,0,7,179,334
6,1,44,0,1,179,333
5,1,45,0,7,179,332
6,1,45,0,1,179,331
5,1,46,0,7,179,330
6,1,46,0,1,179,329
5,1,47,0,7,179,328
6,1,47,0,1,179,327
5,1,48,0,6,137,326
5,1,49,0,6,137,325
5,1,50,0,6,137,324
5,1,48,0,7,142,323
6,1,48,0,1,142,322
5,1,49,0,7,142,321
6,1,49,0,1,142,320
5,1,50,0,7,142,319
6,1,50,0,1,142,318
5,1,16,0,7,141,317
5,1,17,0,7,141,316
5,1,18,0,7,141,315
5,1,19,0,7,141,314
5,1,20,0,7,141,313
5,1,21,0,7,141,312
5,1,22,0,7,141,311
5,1,23,0,7,141,310
6,1,23,0,1,148,309
6,1,22,0,1,148,308
6,1,21,0,1,148,307
6,1,20,0,1,148,306
6,1,19,0,1,148,305
6,1,18,0,1,148,304
6,1,17,0,1,148,303
6,1,16,0,1,148,302
5,1,16,0,10,153,301
6,1,16,0,3,153,300
5,1,17,0,10,153,299
6,1,17,0,3,153,298
5,1,18,0,10,153,297
6,1,18,0,3,153,296
5,1,19,0,10,153,295
6,1,19,0,3,153,294
5,1,20,0,10,153,293
6,1,20,0,3,153,292
5,1,21,0,10,153,291
6,1,21,0,3,153,290
5,1,22,0,10,153,289
6,1,22,0,3,153,288
5,1,23,0,10,153,287
6,1,23,0,3,153,286
5,1,24,0,8,160,285
5,1,25,0,8,160,284
5,1,26,0,8,160,283
5,1,27,0,8,160,282
5,1,28,0,8,160,281
5,1,29,0,8,160,280
5,1,30,0,8,160,279
5,1,31,0,8,160,278
5,1,24,0,9,163,277
6,1,24,0,2,163,276
5,1,25,0,9,163,275
6,1,25,0,2,163,274
5,1,26,0,9,163,273
6,1,26,0,2,163,272
5,1,27,0,9,163,271
6,1,27,0,2,163,270
5,1,28,0,9,163,269
6,1,28,0,2,163,268
5,1,29,0,9,163,267
6,1,29,0,2,163,266
5,1,30,0,9,163,265
6,1,30,0,2,163,264
5,1,31,0,9,163,263
6,1,31,0,2,163,262
5,1,24,0,11,166,261
6,1,24,0,4,166,260
5,1,25,0,11,166,259
6,1,25,0,4,166,258
5,1,26,0,11,166,257
6,1,26,0,4,166,256
5,1,27,0,11,166,255
6,1,27,0,4,166,254
5,1,28,0,11,166,253
6,1,28,0,4,166,252
5,1,29,0,11,166,251
6,1,29,0,4,166,250
5,1,30,0,11,166,249
6,1,30,0,4,166,248
5,1,31,0,11,166,247
6,1,31,0,4,166,246
5,1,48,0,8,167,245
5,1,49,0,8,167,244
5,1,50,0,8,167,243
5,1,0,0,9,158,242
5,1,1,0,9,158,241
5,1,2,0,9,158,240
5,1,3,0,9,158,239
5,1,4,0,9,158,238
5,1,5,0,9,158,237
5,1,6,0,9,158,236
5,1,7,0,9,158,235
5,1,8,0,9,161,234
6,1,8,0,2,161,233
5,1,9,0,9,161,232
6,1,9,0,2,161,231
5,1,10,0,9,161,230
6,1,10,0,2,161,229
5,1,11,0,9,161,228
6,1,11,0,2,161,227
5,1,12,0,9,161,226
6,1,12,0,2,161,225
5,1,13,0,9,161,224
6,1,13,0,2,161,223
5,1,14,0,9,161,222
6,1,14,0,2,161,221
5,1,15,0,9,161,220
6,1,15,0,2,161,219
5,1,16,0,9,170,218
5,1,17,0,9,170,217
5,1,18,0,9,170,216
5,1,19,0,9,170,215
5,1,20,0,9,170,214
5,1,21,0,9,170,213
5,1,22,0,9,170,212
5,1,23,0,9,170,211
5,1,16,0,8,171,210
6,1,16,0,2,171,209
5,1,17,0,8,171,208
6,1,17,0,2,171,207
5,1,18,0,8,171,206
6,1,18,0,2,171,205
5,1,19,0,8,171,204
6,1,19,0,2,171,203
5,1,20,0,8,171,202
6,1,20,0,2,171,201
5,1,21,0,8,171,200
6,1,21,0,2,171,199
5,1,22,0,8,171,198
6,1,22,0,2,171,197
5,1,23,0,8,171,196
6,1,23,0,2,171,195
5,1,16,0,11,172,194
6,1,16,0,4,172,193
5,1,17,0,11,172,192
6,1,17,0,4,172,191
5,1,18,0,11,172,190
6,1,18,0,4,172,189
5,1,19,0,11,172,188
6,1,19,0,4,172,187
5,1,20,0,11,172,186
6,1,20,0,4,172,185
5,1,21,0,11,172,184
6,1,21,0,4,172,183
5,1,22,0,11,172,182
6,1,22,0,4,172,181
5,1,23,0,11,172,180
6,1,23,0,4,172,179
5,1,32,0,9,144,178
5,1,33,0,9,144,177
5,1,34,0,9,144,176
5,1,35,0,9,144,175
5,1,36,0,9,144,174
5,1,37,0,9,144,173
5,1,38,0,9,144,172
5,1,39,0,9,144,171
5,1,40,0,9,145,170
5,1,41,0,9,145,169
5,1,42,0,9,145,168
5,1,43,0,9,145,167
5,1,44,0,9,145,166
5,1,45,0,9,145,165
5,1,46,0,9,145,164
5,1,47,0,9,145,163
5,1,40,0,8,155,162
6,1,40,0,2,155,161
5,1,41,0,8,155,160
6,1,41,0,2,155,159
5,1,42,0,8,155,158
6,1,42,0,2,155,157
5,1,43,0,8,155,156
6,1,43,0,2,155,155
5,1,44,0,8,155,154
6,1,44,0,2,155,153
5,1,45,0,8,155,152
6,1,45,0,2,155,151
5,1,46,0,8,155,150
6,1,46,0,2,155,149
5,1,47,0,8,155,148
6,1,47,0,2,155,147
5,1,40,0,11,164,146
6,1,40,0,4,164,145
5,1,41,0,11,164,144
6,1,41,0,4,164,143
5,1,42,0,11,164,142
6,1,42,0,4,164,141
5,1,43,0,11,164,140
6,1,43,0,4,164,139
5,1,44,0,11,164,138
6,1,44,0,4,164,137
5,1,45,0,11,164,136
6,1,45,0,4,164,135
5,1,46,0,11,164,134
6,1,46,0,4,164,133
5,1,47,0,11,164,132
6,1,47,0,4,164,131
5,1,48,0,9,149,130
5,1,49,0,9,149,129
5,1,50,0,9,149,128
5,1,24,0,10,154,127
5,1,25,0,10,154,126
5,1,26,0,10,154,125
5,1,27,0,10,154,124
5,1,28,0,10,154,123
5,1,29,0,10,154,122
5,1,30,0,10,154,121
5,1,31,0,10,154,120
6,1,31,0,3,177,119
6,1,30,0,3,177,118
6,1,29,0,3,177,117
6,1,28,0,3,177,116
6,1,27,0,3,177,115
6,1,26,0,3,177,114
6,1,25,0,3,177,113
6,1,24,0,3,177,112
5,1,40,0,10,156,111
5,1,41,0,10,156,110
5,1,42,0,10,156,109
5,1,43,0,10,156,108
5,1,44,0,10,156,107
5,1,45,0,10,156,106
5,1,46,0,10,156,105
5,1,47,0,10,156,104
6,1,47,0,3,180,103
6,1,46,0,3,180,102
6,1,45,0,3,180,101
6,1,44,0,3,180,100
6,1,43,0,3,180,99
6,1,42,0,3,180,98
6,1,41,0,3,180,97
6,1,40,0,3,180,96
5,1,48,0,10,157,95
5,1,49,0,10,157,94
5,1,50,0,10,157,93
6,1,50,0,3,165,92
6,1,49,0,3,165,91
6,1,48,0,3,165,90
5,1,0,0,11,168,89
5,1,1,0,11,168,88
5,1,2,0,11,168,87
5,1,3,0,11,168,86
5,1,4,0,11,168,85
5,1,5,0,11,168,84
5,1,6,0,11,168,83
5,1,7,0,11,168,82
5,1,0,0,8,175,81
6,1,0,0,2,175,80
6,1,0,0,4,175,79
5,1,1,0,8,175,78
6,1,1,0,2,175,77
6,1,1,0,4,175,76
5,1,2,0,8,175,75
6,1,2,0,2,175,74
6,1,2,0,4,175,73
5,1,3,0,8,175,72
6,1,3,0,2,175,71
6,1,3,0,4,175,70
5,1,4,0,8,175,69
6,1,4,0,2,175,68
6,1,4,0,4,175,67
5,1,5,0,8,175,66
6,1,5,0,2,175,65
6,1,5,0,4,175,64
5,1,6,0,8,175,63
6,1,6,0,2,175,62
6,1,6,0,4,175,61
5,1,7,0,8,175,60
6,1,7,0,2,175,59
6,1,7,0,4,175,58
5,1,8,0,11,140,57
5,1,9,0,11,140,56
5,1,10,0,11,140,55
5,1,11,0,11,140,54
5,1,12,0,11,140,53
5,1,13,0,11,140,52
5,1,14,0,11,140,51
5,1,15,0,11,140,50
6,1,15,0,4,169,49
6,1,14,0,4,169,48
6,1,13,0,4,169,47
6,1,12,0,4,169,46
6,1,11,0,4,169,45
6,1,10,0,4,169,44
6,1,9,0,4,169,43
6,1,8,0,4,169,42
5,1,32,0,11,162,41
5,1,33,0,11,162,40
5,1,34,0,11,162,39
5,1,35,0,11,162,38
5,1,36,0,11,162,37
5,1,37,0,11,162,36
5,1,38,0,11,162,35
5,1,39,0,11,162,34
5,1,32,0,8,178,33
6,1,32,0,2,178,32
6,1,32,0,4,178,31
5,1,33,0,8,178,30
6,1,33,0,2,178,29
6,1,33,0,4,178,28
5,1,34,0,8,178,27
6,1,34,0,2,178,26
6,1,34,0,4,178,25
5,1,35,0,8,178,24
6,1,35,0,2,178,23
6,1,35,0,4,178,22
5,1,36,0,8,178,21
6,1,36,0,2,178,20
6,1,36,0,4,178,19
5,1,37,0,8,178,18
6,1,37,0,2,178,17
6,1,37,0,4,178,16
5,1,38,0,8,178,15
6,1,38,0,2,178,14
6,1,38,0,4,178,13
5,1,39,0,8,178,12
6,1,39,0,2,178,11
6,1,39,0,4,178,10
5,1,48,0,11,173,9
5,1,49,0,11,173,8
5,1,50,0,11,173,7
6,1,50,0,2,174,6
6,1,50,0,4,174,5
6,1,49,0,2,174,4
6,1,49,0,4,174,3
6,1,48,0,2,174,2
6,1,48,0,4,174,1
