3663
19,1,11,0,1,16,3663
19,1,10,0,1,16,3662
19,1,9,0,1,16,3661
19,1,8,0,1,16,3660
22,0,1,_AP,-1,16,3659
22,0,1,_AP,-1,16,3658
22,0,1,_AP,-1,16,3657
22,0,1,_AP,-1,16,3656
22,0,1,_AP,-1,16,3655
22,0,1,_AP,-1,16,3654
22,0,1,_AP,-1,16,3653
22,0,1,_AP,-1,16,3652
22,0,1,_AP,-1,16,3651
22,0,1,_AP,-1,16,3650
22,0,1,_AP,-1,16,3649
22,0,1,_AP,-1,16,3648
22,0,1,_AP,-1,16,3647
22,0,1,_AP,-1,16,3646
22,0,1,_AP,-1,16,3645
22,0,1,_AP,-1,16,3644
22,0,1,_AP,-1,16,3643
22,0,1,_AP,-1,16,3642
22,0,1,_AP,-1,16,3641
22,0,1,_X,-1,0,3640
22,0,1,_X,-1,0,3639
22,0,1,_X,-1,0,3638
22,0,1,_X,-1,0,3637
22,0,1,_X,-1,0,3636
22,0,1,_X,-1,0,3635
22,0,1,_X,-1,0,3634
22,0,1,_X,-1,0,3633
22,0,1,_P,-1,0,3632
22,0,1,_P,-1,0,3631
22,0,1,_P,-1,0,3630
22,0,1,_P,-1,0,3629
22,0,1,_P,-1,0,3628
22,0,1,_P,-1,0,3627
22,0,1,_P,-1,0,3626
22,0,1,_P,-1,0,3625
22,0,1,_lambda,-1,0,3624
5,1,20,0,1,0,3623
5,1,21,0,1,0,3622
5,1,22,0,1,0,3621
5,1,23,0,1,0,3620
5,1,28,0,1,0,3619
5,1,29,0,1,0,3618
5,1,30,0,1,0,3617
5,1,31,0,1,0,3616
22,0,1,_P,-1,8,3615
22,0,1,_P,-1,8,3614
22,0,1,_P,-1,8,3613
22,0,1,_P,-1,8,3612
22,0,1,_AX,-1,8,3611
22,0,1,_AX,-1,8,3610
22,0,1,_AX,-1,8,3609
22,0,1,_AX,-1,8,3608
22,0,1,_AX,-1,8,3607
9,1,31,0,1,8,3606
10,1,31,0,-1,8,3605
22,0,1,_AX,-1,8,3604
9,1,30,0,1,8,3603
10,1,30,0,-1,8,3602
22,0,1,_AX,-1,8,3601
9,1,29,0,1,8,3600
10,1,29,0,-1,8,3599
22,0,1,_AX,-1,8,3598
9,1,28,0,1,8,3597
10,1,28,0,-1,8,3596
22,0,1,_AX,-1,8,3595
22,0,1,_AX,-1,8,3594
22,0,1,_AX,-1,8,3593
22,0,1,_AX,-1,8,3592
11,2,28,12,0,-1,11,3591
11,2,29,13,0,-1,11,3590
11,2,30,14,0,-1,11,3589
11,2,31,15,0,-1,11,3588
22,0,1,_X,-1,11,3587
5,1,27,0,1,11,3586
9,1,27,0,1,11,3585
10,1,27,0,-1,11,3584
11,2,27,11,0,-1,11,3583
22,0,1,_X,-1,11,3582
5,1,26,0,1,11,3581
9,1,26,0,1,11,3580
10,1,26,0,-1,11,3579
11,2,26,10,0,-1,11,3578
22,0,1,_X,-1,11,3577
5,1,25,0,1,11,3576
9,1,25,0,1,11,3575
10,1,25,0,-1,11,3574
11,2,25,9,0,-1,11,3573
22,0,1,_X,-1,11,3572
5,1,24,0,1,11,3571
9,1,24,0,1,11,3570
10,1,24,0,-1,11,3569
11,2,24,8,0,-1,11,3568
22,0,1,_P,-1,2,3567
22,0,1,_P,-1,2,3566
22,0,1,_P,-1,2,3565
22,0,1,_P,-1,2,3564
22,0,1,_X,-1,2,3563
22,0,1,_X,-1,2,3562
22,0,1,_X,-1,2,3561
22,0,1,_X,-1,2,3560
22,0,1,_AX,-1,2,3559
9,1,23,0,1,2,3558
10,1,23,0,-1,2,3557
22,0,1,_AX,-1,2,3556
9,1,22,0,1,2,3555
10,1,22,0,-1,2,3554
22,0,1,_AX,-1,2,3553
9,1,21,0,1,2,3552
10,1,21,0,-1,2,3551
22,0,1,_AX,-1,2,3550
9,1,20,0,1,2,3549
10,1,20,0,-1,2,3548
22,0,1,_X,-1,1,3547
5,1,50,0,1,1,3546
22,0,1,_X,-1,1,3545
5,1,49,0,1,1,3544
22,0,1,_X,-1,1,3543
5,1,48,0,1,1,3542
22,0,1,_AX,-1,1,3541
22,0,1,_AX,-1,1,3540
22,0,1,_AX,-1,1,3539
22,0,1,_AX,-1,1,3538
22,0,1,_P,-1,1,3537
22,0,1,_P,-1,1,3536
22,0,1,_P,-1,1,3535
22,0,1,_P,-1,1,3534
22,0,1,_P,-1,1,3533
22,0,1,_P,-1,1,3532
22,0,1,_P,-1,1,3531
22,0,1,_P,-1,1,3530
22,0,1,_AX,-1,4,3529
9,1,50,0,1,4,3528
22,0,1,_AX,-1,4,3527
9,1,49,0,1,4,3526
22,0,1,_AX,-1,4,3525
9,1,48,0,1,4,3524
22,0,1,_X,-1,4,3523
5,1,39,0,1,4,3522
22,0,1,_X,-1,4,3521
5,1,38,0,1,4,3520
22,0,1,_X,-1,4,3519
5,1,37,0,1,4,3518
22,0,1,_X,-1,4,3517
5,1,36,0,1,4,3516
22,0,1,_X,-1,4,3515
22,0,1,_X,-1,4,3514
22,0,1,_X,-1,4,3513
22,0,1,_X,-1,4,3512
22,0,1,_P,-1,4,3511
22,0,1,_P,-1,4,3510
22,0,1,_P,-1,4,3509
22,0,1,_P,-1,4,3508
10,1,48,0,-1,10,3507
11,2,48,0,0,-1,10,3506
10,1,49,0,-1,10,3505
11,2,49,1,0,-1,10,3504
10,1,50,0,-1,10,3503
11,2,50,2,0,-1,10,3502
22,0,1,_P,-1,10,3501
22,0,1,_P,-1,10,3500
22,0,1,_P,-1,10,3499
22,0,1,_P,-1,10,3498
22,0,1,_X,-1,10,3497
5,1,15,0,1,10,3496
22,0,1,_X,-1,10,3495
5,1,14,0,1,10,3494
22,0,1,_X,-1,10,3493
5,1,13,0,1,10,3492
22,0,1,_X,-1,10,3491
5,1,12,0,1,10,3490
22,0,1,_AX,-1,12,3489
9,1,15,0,1,12,3488
10,1,15,0,-1,12,3487
22,0,1,_AX,-1,12,3486
9,1,14,0,1,12,3485
10,1,14,0,-1,12,3484
22,0,1,_AX,-1,12,3483
9,1,13,0,1,12,3482
10,1,13,0,-1,12,3481
22,0,1,_AX,-1,12,3480
9,1,12,0,1,12,3479
10,1,12,0,-1,12,3478
22,0,1,_AX,-1,12,3477
22,0,1,_AX,-1,12,3476
22,0,1,_AX,-1,12,3475
22,0,1,_AX,-1,12,3474
22,0,1,_X,-1,12,3473
22,0,1,_X,-1,12,3472
22,0,1,_X,-1,12,3471
22,0,1,_X,-1,12,3470
22,0,1,_AX,-1,12,3469
22,0,1,_AX,-1,12,3468
22,0,1,_AX,-1,12,3467
22,0,1,_AX,-1,12,3466
5,1,4,0,1,13,3465
9,1,4,0,1,13,3464
10,1,4,0,-1,13,3463
11,2,4,4,0,-1,13,3462
5,1,5,0,1,13,3461
9,1,5,0,1,13,3460
10,1,5,0,-1,13,3459
11,2,5,5,0,-1,13,3458
5,1,6,0,1,13,3457
9,1,6,0,1,13,3456
10,1,6,0,-1,13,3455
11,2,6,6,0,-1,13,3454
5,1,7,0,1,13,3453
9,1,7,0,1,13,3452
10,1,7,0,-1,13,3451
11,2,7,7,0,-1,13,3450
22,0,1,_AX,-1,13,3449
22,0,1,_AX,-1,13,3448
22,0,1,_AX,-1,13,3447
22,0,1,_AX,-1,13,3446
11,2,12,12,0,-1,14,3445
11,2,13,13,0,-1,14,3444
11,2,14,14,0,-1,14,3443
11,2,15,15,0,-1,14,3442
22,0,1,_X,-1,14,3441
5,1,43,0,1,14,3440
9,1,43,0,1,14,3439
10,1,43,0,-1,14,3438
11,2,43,11,0,-1,14,3437
22,0,1,_X,-1,14,3436
5,1,42,0,1,14,3435
9,1,42,0,1,14,3434
10,1,42,0,-1,14,3433
11,2,42,10,0,-1,14,3432
22,0,1,_X,-1,14,3431
5,1,41,0,1,14,3430
9,1,41,0,1,14,3429
10,1,41,0,-1,14,3428
11,2,41,9,0,-1,14,3427
22,0,1,_X,-1,14,3426
5,1,40,0,1,14,3425
9,1,40,0,1,14,3424
10,1,40,0,-1,14,3423
11,2,40,8,0,-1,14,3422
22,0,1,_AX,-1,17,3421
9,1,39,0,1,17,3420
10,1,39,0,-1,17,3419
11,2,39,7,0,-1,17,3418
22,0,1,_AX,-1,17,3417
9,1,38,0,1,17,3416
10,1,38,0,-1,17,3415
11,2,38,6,0,-1,17,3414
22,0,1,_AX,-1,17,3413
9,1,37,0,1,17,3412
10,1,37,0,-1,17,3411
11,2,37,5,0,-1,17,3410
22,0,1,_AX,-1,17,3409
9,1,36,0,1,17,3408
10,1,36,0,-1,17,3407
11,2,36,4,0,-1,17,3406
22,0,1,_AP,-1,17,3405
22,0,1,_AP,-1,17,3404
22,0,1,_AP,-1,17,3403
22,0,1,_AP,-1,17,3402
5,1,16,0,1,5,3401
5,1,17,0,1,5,3400
5,1,18,0,1,5,3399
5,1,19,0,1,5,3398
22,0,1,_X,-1,5,3397
5,1,35,0,1,5,3396
22,0,1,_X,-1,5,3395
5,1,34,0,1,5,3394
22,0,1,_X,-1,5,3393
5,1,33,0,1,5,3392
22,0,1,_X,-1,5,3391
5,1,32,0,1,5,3390
22,0,1,_X,-1,5,3389
5,1,11,0,1,5,3388
22,0,1,_X,-1,5,3387
5,1,10,0,1,5,3386
22,0,1,_X,-1,5,3385
5,1,9,0,1,5,3384
22,0,1,_X,-1,5,3383
5,1,8,0,1,5,3382
11,2,20,4,0,-1,6,3381
11,2,21,5,0,-1,6,3380
11,2,22,6,0,-1,6,3379
11,2,23,7,0,-1,6,3378
22,0,1,_AX,-1,6,3377
9,1,11,0,1,6,3376
22,0,1,_AX,-1,6,3375
9,1,10,0,1,6,3374
22,0,1,_AX,-1,6,3373
9,1,9,0,1,6,3372
22,0,1,_AX,-1,6,3371
9,1,8,0,1,6,3370
22,0,1,_P,-1,6,3369
22,0,1,_P,-1,6,3368
22,0,1,_P,-1,6,3367
22,0,1,_P,-1,6,3366
22,0,1,_P,-1,6,3365
22,0,1,_P,-1,6,3364
22,0,1,_P,-1,6,3363
22,0,1,_P,-1,6,3362
10,1,8,0,-1,9,3361
11,2,8,8,0,-1,9,3360
10,1,9,0,-1,9,3359
11,2,9,9,0,-1,9,3358
10,1,10,0,-1,9,3357
11,2,10,10,0,-1,9,3356
10,1,11,0,-1,9,3355
11,2,11,11,0,-1,9,3354
9,1,32,0,1,9,3353
10,1,32,0,-1,9,3352
11,2,32,0,0,-1,9,3351
9,1,33,0,1,9,3350
10,1,33,0,-1,9,3349
11,2,33,1,0,-1,9,3348
9,1,34,0,1,9,3347
10,1,34,0,-1,9,3346
11,2,34,2,0,-1,9,3345
9,1,35,0,1,9,3344
10,1,35,0,-1,9,3343
11,2,35,3,0,-1,9,3342
5,1,44,0,1,3,3341
9,1,44,0,1,3,3340
10,1,44,0,-1,3,3339
5,1,45,0,1,3,3338
9,1,45,0,1,3,3337
10,1,45,0,-1,3,3336
5,1,46,0,1,3,3335
9,1,46,0,1,3,3334
10,1,46,0,-1,3,3333
5,1,47,0,1,3,3332
9,1,47,0,1,3,3331
10,1,47,0,-1,3,3330
22,0,1,_P,-1,3,3329
22,0,1,_P,-1,3,3328
22,0,1,_P,-1,3,3327
22,0,1,_P,-1,3,3326
22,0,1,_X,-1,3,3325
5,1,3,0,1,3,3324
22,0,1,_X,-1,3,3323
5,1,2,0,1,3,3322
22,0,1,_X,-1,3,3321
5,1,1,0,1,3,3320
22,0,1,_X,-1,3,3319
5,1,0,0,1,3,3318
11,2,47,15,0,-1,7,3317
11,2,46,14,0,-1,7,3316
11,2,45,13,0,-1,7,3315
11,2,44,12,0,-1,7,3314
1,0,1,RN,-1,7,3313
22,0,1,_AX,-1,7,3312
9,1,19,0,1,7,3311
10,1,19,0,-1,7,3310
11,2,19,3,0,-1,7,3309
22,0,1,_AX,-1,7,3308
9,1,18,0,1,7,3307
10,1,18,0,-1,7,3306
11,2,18,2,0,-1,7,3305
22,0,1,_AX,-1,7,3304
9,1,17,0,1,7,3303
10,1,17,0,-1,7,3302
11,2,17,1,0,-1,7,3301
22,0,1,_AX,-1,7,3300
9,1,16,0,1,7,3299
10,1,16,0,-1,7,3298
11,2,16,0,0,-1,7,3297
9,1,0,0,1,15,3296
10,1,0,0,-1,15,3295
11,2,0,0,0,-1,15,3294
9,1,1,0,1,15,3293
10,1,1,0,-1,15,3292
11,2,1,1,0,-1,15,3291
9,1,2,0,1,15,3290
10,1,2,0,-1,15,3289
11,2,2,2,0,-1,15,3288
9,1,3,0,1,15,3287
10,1,3,0,-1,15,3286
11,2,3,3,0,-1,15,3285
22,0,1,_P,-1,15,3284
22,0,1,_P,-1,15,3283
22,0,1,_P,-1,15,3282
22,0,1,_P,-1,15,3281
22,0,1,_P,-1,15,3280
22,0,1,_P,-1,15,3279
22,0,1,_P,-1,15,3278
12,0,1,RNBUF,-1,18,3277
13,0,1,RN,-1,18,3276
1,0,1,actMask,-1,18,3275
20,0,1,actMask,-1,18,3274
14,1,48,0,3,18,3273
14,1,49,0,3,18,3272
14,1,50,0,3,18,3271
22,0,1,_AP,-1,18,3270
22,0,1,_AP,-1,18,3269
22,0,1,_AP,-1,18,3268
22,0,1,_AP,-1,18,3267
14,1,12,0,1,30,3266
3,2,12,12,0,1,30,3265
14,1,13,0,1,30,3264
3,2,13,13,0,1,30,3263
14,1,14,0,1,30,3262
3,2,14,14,0,1,30,3261
14,1,15,0,1,30,3260
3,2,15,15,0,1,30,3259
14,1,24,0,1,30,3258
3,2,24,8,0,1,30,3257
14,1,25,0,1,30,3256
3,2,25,9,0,1,30,3255
14,1,26,0,1,30,3254
3,2,26,10,0,1,30,3253
14,1,27,0,1,30,3252
3,2,27,11,0,1,30,3251
14,1,4,0,1,26,3250
14,1,5,0,1,26,3249
14,1,6,0,1,26,3248
14,1,7,0,1,26,3247
14,1,8,0,1,26,3246
3,2,8,8,0,1,26,3245
14,1,9,0,1,26,3244
3,2,9,9,0,1,26,3243
14,1,10,0,1,26,3242
3,2,10,10,0,1,26,3241
14,1,11,0,1,26,3240
3,2,11,11,0,1,26,3239
14,1,28,0,1,26,3238
3,2,28,12,0,1,26,3237
14,1,29,0,1,26,3236
3,2,29,13,0,1,26,3235
14,1,30,0,1,26,3234
3,2,30,14,0,1,26,3233
14,1,31,0,1,26,3232
3,2,31,15,0,1,26,3231
14,1,32,0,1,27,3230
3,2,32,0,0,1,27,3229
14,1,33,0,1,27,3228
3,2,33,1,0,1,27,3227
14,1,34,0,1,27,3226
3,2,34,2,0,1,27,3225
14,1,35,0,1,27,3224
3,2,35,3,0,1,27,3223
14,1,48,0,1,29,3222
3,2,48,0,0,1,29,3221
14,1,49,0,1,29,3220
3,2,49,1,0,1,29,3219
14,1,50,0,1,29,3218
3,2,50,2,0,1,29,3217
14,1,32,0,2,37,3216
3,2,32,0,0,3,37,3215
14,1,33,0,2,37,3214
3,2,33,1,0,3,37,3213
14,1,34,0,2,37,3212
3,2,34,2,0,3,37,3211
14,1,35,0,2,37,3210
3,2,35,3,0,3,37,3209
14,1,36,0,2,37,3208
14,1,37,0,2,37,3207
14,1,38,0,2,37,3206
14,1,39,0,2,37,3205
14,1,48,0,2,37,3204
3,2,48,0,0,3,37,3203
14,1,49,0,2,37,3202
3,2,49,1,0,3,37,3201
14,1,50,0,2,37,3200
3,2,50,2,0,3,37,3199
3,2,39,7,0,3,38,3198
3,2,38,6,0,3,38,3197
3,2,37,5,0,3,38,3196
3,2,36,4,0,3,38,3195
14,1,16,0,2,38,3194
3,2,16,0,0,3,38,3193
14,1,17,0,2,38,3192
3,2,17,1,0,3,38,3191
14,1,18,0,2,38,3190
3,2,18,2,0,3,38,3189
14,1,19,0,2,38,3188
3,2,19,3,0,3,38,3187
14,1,20,0,2,38,3186
3,2,20,4,0,3,38,3185
14,1,21,0,2,38,3184
3,2,21,5,0,3,38,3183
14,1,22,0,2,38,3182
3,2,22,6,0,3,38,3181
14,1,23,0,2,38,3180
3,2,23,7,0,3,38,3179
14,1,8,0,3,21,3178
14,1,9,0,3,21,3177
14,1,10,0,3,21,3176
14,1,11,0,3,21,3175
22,0,1,_AP,-1,21,3174
14,1,19,0,3,21,3173
22,0,1,_AP,-1,21,3172
14,1,18,0,3,21,3171
22,0,1,_AP,-1,21,3170
14,1,17,0,3,21,3169
22,0,1,_AP,-1,21,3168
14,1,16,0,3,21,3167
14,1,20,0,1,22,3166
3,2,20,4,0,1,22,3165
14,1,21,0,1,22,3164
3,2,21,5,0,1,22,3163
14,1,22,0,1,22,3162
3,2,22,6,0,1,22,3161
14,1,23,0,1,22,3160
3,2,23,7,0,1,22,3159
14,1,44,0,1,22,3158
3,2,44,12,0,1,22,3157
14,1,45,0,1,22,3156
3,2,45,13,0,1,22,3155
14,1,46,0,1,22,3154
3,2,46,14,0,1,22,3153
14,1,47,0,1,22,3152
3,2,47,15,0,1,22,3151
14,1,20,0,3,22,3150
14,1,21,0,3,22,3149
14,1,22,0,3,22,3148
14,1,23,0,3,22,3147
14,1,36,0,3,19,3146
14,1,37,0,3,19,3145
14,1,38,0,3,19,3144
14,1,39,0,3,19,3143
22,0,1,_AP,-1,19,3142
14,1,35,0,3,19,3141
22,0,1,_AP,-1,19,3140
14,1,34,0,3,19,3139
22,0,1,_AP,-1,19,3138
14,1,33,0,3,19,3137
22,0,1,_AP,-1,19,3136
14,1,32,0,3,19,3135
22,0,1,_AP,-1,19,3134
14,1,31,0,3,19,3133
22,0,1,_AP,-1,19,3132
14,1,30,0,3,19,3131
22,0,1,_AP,-1,19,3130
14,1,29,0,3,19,3129
22,0,1,_AP,-1,19,3128
14,1,28,0,3,19,3127
14,1,40,0,3,23,3126
14,1,41,0,3,23,3125
14,1,42,0,3,23,3124
14,1,43,0,3,23,3123
22,0,1,_AP,-1,23,3122
14,1,7,0,3,23,3121
22,0,1,_AP,-1,23,3120
14,1,6,0,3,23,3119
22,0,1,_AP,-1,23,3118
14,1,5,0,3,23,3117
22,0,1,_AP,-1,23,3116
14,1,4,0,3,23,3115
14,1,36,0,1,20,3114
14,1,37,0,1,20,3113
14,1,38,0,1,20,3112
14,1,39,0,1,20,3111
14,1,40,0,1,20,3110
14,1,41,0,1,20,3109
14,1,42,0,1,20,3108
14,1,43,0,1,20,3107
14,1,44,0,3,20,3106
14,1,45,0,3,20,3105
14,1,46,0,3,20,3104
14,1,47,0,3,20,3103
3,2,43,11,0,1,28,3102
3,2,42,10,0,1,28,3101
3,2,41,9,0,1,28,3100
3,2,40,8,0,1,28,3099
3,2,7,7,0,1,28,3098
3,2,6,6,0,1,28,3097
3,2,5,5,0,1,28,3096
3,2,4,4,0,1,28,3095
14,1,16,0,1,28,3094
3,2,16,0,0,1,28,3093
14,1,17,0,1,28,3092
3,2,17,1,0,1,28,3091
14,1,18,0,1,28,3090
3,2,18,2,0,1,28,3089
14,1,19,0,1,28,3088
3,2,19,3,0,1,28,3087
3,2,39,7,0,1,25,3086
3,2,38,6,0,1,25,3085
3,2,37,5,0,1,25,3084
3,2,36,4,0,1,25,3083
22,0,1,_AP,-1,25,3082
14,1,27,0,3,25,3081
22,0,1,_AP,-1,25,3080
14,1,26,0,3,25,3079
22,0,1,_AP,-1,25,3078
14,1,25,0,3,25,3077
22,0,1,_AP,-1,25,3076
14,1,24,0,3,25,3075
22,0,1,_AP,-1,25,3074
14,1,15,0,3,25,3073
22,0,1,_AP,-1,25,3072
14,1,14,0,3,25,3071
22,0,1,_AP,-1,25,3070
14,1,13,0,3,25,3069
22,0,1,_AP,-1,25,3068
14,1,12,0,3,25,3067
14,1,0,0,3,24,3066
14,1,1,0,3,24,3065
14,1,2,0,3,24,3064
14,1,3,0,3,24,3063
14,1,0,0,1,24,3062
3,2,0,0,0,1,24,3061
14,1,1,0,1,24,3060
3,2,1,1,0,1,24,3059
14,1,2,0,1,24,3058
3,2,2,2,0,1,24,3057
14,1,3,0,1,24,3056
3,2,3,3,0,1,24,3055
4,1,0,1,temp2BUF,-1,31,3054
5,1,20,0,2,31,3053
5,1,21,0,2,31,3052
5,1,22,0,2,31,3051
5,1,23,0,2,31,3050
5,1,40,0,2,31,3049
5,1,41,0,2,31,3048
5,1,42,0,2,31,3047
5,1,43,0,2,31,3046
5,1,44,0,2,31,3045
5,1,45,0,2,31,3044
5,1,46,0,2,31,3043
5,1,47,0,2,31,3042
5,1,48,0,2,31,3041
5,1,49,0,2,31,3040
5,1,50,0,2,31,3039
5,1,4,0,2,32,3038
9,1,4,0,2,32,3037
3,2,4,4,0,2,32,3036
5,1,5,0,2,32,3035
9,1,5,0,2,32,3034
3,2,5,5,0,2,32,3033
5,1,6,0,2,32,3032
9,1,6,0,2,32,3031
3,2,6,6,0,2,32,3030
5,1,7,0,2,32,3029
9,1,7,0,2,32,3028
3,2,7,7,0,2,32,3027
5,1,12,0,2,32,3026
9,1,12,0,2,32,3025
3,2,12,12,0,2,32,3024
5,1,13,0,2,32,3023
9,1,13,0,2,32,3022
3,2,13,13,0,2,32,3021
5,1,14,0,2,32,3020
9,1,14,0,2,32,3019
3,2,14,14,0,2,32,3018
5,1,15,0,2,32,3017
9,1,15,0,2,32,3016
3,2,15,15,0,2,32,3015
5,1,24,0,2,32,3014
5,1,25,0,2,32,3013
5,1,26,0,2,32,3012
5,1,27,0,2,32,3011
9,1,27,0,2,33,3010
3,2,27,11,0,2,33,3009
9,1,26,0,2,33,3008
3,2,26,10,0,2,33,3007
9,1,25,0,2,33,3006
3,2,25,9,0,2,33,3005
9,1,24,0,2,33,3004
3,2,24,8,0,2,33,3003
5,1,8,0,2,33,3002
9,1,8,0,2,33,3001
3,2,8,8,0,2,33,3000
5,1,9,0,2,33,2999
9,1,9,0,2,33,2998
3,2,9,9,0,2,33,2997
5,1,10,0,2,33,2996
9,1,10,0,2,33,2995
3,2,10,10,0,2,33,2994
5,1,11,0,2,33,2993
9,1,11,0,2,33,2992
3,2,11,11,0,2,33,2991
5,1,28,0,2,35,2990
9,1,28,0,2,35,2989
3,2,28,12,0,2,35,2988
5,1,29,0,2,35,2987
9,1,29,0,2,35,2986
3,2,29,13,0,2,35,2985
5,1,30,0,2,35,2984
9,1,30,0,2,35,2983
3,2,30,14,0,2,35,2982
5,1,31,0,2,35,2981
9,1,31,0,2,35,2980
3,2,31,15,0,2,35,2979
5,1,32,0,2,35,2978
9,1,32,0,2,35,2977
3,2,32,0,0,2,35,2976
5,1,33,0,2,35,2975
9,1,33,0,2,35,2974
3,2,33,1,0,2,35,2973
5,1,34,0,2,35,2972
9,1,34,0,2,35,2971
3,2,34,2,0,2,35,2970
5,1,35,0,2,35,2969
9,1,35,0,2,35,2968
3,2,35,3,0,2,35,2967
5,1,0,0,2,34,2966
5,1,1,0,2,34,2965
5,1,2,0,2,34,2964
5,1,3,0,2,34,2963
5,1,16,0,2,34,2962
9,1,16,0,2,34,2961
3,2,16,0,0,2,34,2960
5,1,17,0,2,34,2959
9,1,17,0,2,34,2958
3,2,17,1,0,2,34,2957
5,1,18,0,2,34,2956
9,1,18,0,2,34,2955
3,2,18,2,0,2,34,2954
5,1,19,0,2,34,2953
9,1,19,0,2,34,2952
3,2,19,3,0,2,34,2951
5,1,36,0,2,34,2950
5,1,37,0,2,34,2949
5,1,38,0,2,34,2948
5,1,39,0,2,34,2947
9,1,39,0,2,39,2946
3,2,39,7,0,2,39,2945
9,1,38,0,2,39,2944
3,2,38,6,0,2,39,2943
9,1,37,0,2,39,2942
3,2,37,5,0,2,39,2941
9,1,36,0,2,39,2940
3,2,36,4,0,2,39,2939
14,1,4,0,2,39,2938
3,2,4,4,0,3,39,2937
14,1,5,0,2,39,2936
3,2,5,5,0,3,39,2935
14,1,6,0,2,39,2934
3,2,6,6,0,3,39,2933
14,1,7,0,2,39,2932
3,2,7,7,0,3,39,2931
14,1,44,0,2,39,2930
3,2,44,12,0,3,39,2929
14,1,45,0,2,39,2928
3,2,45,13,0,3,39,2927
14,1,46,0,2,39,2926
3,2,46,14,0,3,39,2925
14,1,47,0,2,39,2924
3,2,47,15,0,3,39,2923
9,1,3,0,2,36,2922
9,1,2,0,2,36,2921
9,1,1,0,2,36,2920
9,1,0,0,2,36,2919
9,1,43,0,2,36,2918
3,2,43,11,0,2,36,2917
9,1,42,0,2,36,2916
3,2,42,10,0,2,36,2915
9,1,41,0,2,36,2914
3,2,41,9,0,2,36,2913
9,1,40,0,2,36,2912
3,2,40,8,0,2,36,2911
14,1,0,0,2,36,2910
3,2,0,0,0,3,36,2909
14,1,1,0,2,36,2908
3,2,1,1,0,3,36,2907
14,1,2,0,2,36,2906
3,2,2,2,0,3,36,2905
14,1,3,0,2,36,2904
3,2,3,3,0,3,36,2903
14,1,8,0,2,36,2902
3,2,8,8,0,3,36,2901
14,1,9,0,2,36,2900
3,2,9,9,0,3,36,2899
14,1,10,0,2,36,2898
3,2,10,10,0,3,36,2897
14,1,11,0,2,36,2896
3,2,11,11,0,3,36,2895
3,2,0,0,0,2,40,2894
3,2,1,1,0,2,40,2893
3,2,2,2,0,2,40,2892
3,2,3,3,0,2,40,2891
9,1,50,0,2,40,2890
3,2,50,2,0,2,40,2889
9,1,49,0,2,40,2888
3,2,49,1,0,2,40,2887
9,1,48,0,2,40,2886
3,2,48,0,0,2,40,2885
9,1,47,0,2,40,2884
3,2,47,15,0,2,40,2883
9,1,46,0,2,40,2882
3,2,46,14,0,2,40,2881
9,1,45,0,2,40,2880
3,2,45,13,0,2,40,2879
9,1,44,0,2,40,2878
3,2,44,12,0,2,40,2877
14,1,24,0,2,40,2876
14,1,25,0,2,40,2875
14,1,26,0,2,40,2874
14,1,27,0,2,40,2873
3,2,27,11,0,3,41,2872
3,2,26,10,0,3,41,2871
3,2,25,9,0,3,41,2870
3,2,24,8,0,3,41,2869
9,1,23,0,2,41,2868
3,2,23,7,0,2,41,2867
9,1,22,0,2,41,2866
3,2,22,6,0,2,41,2865
9,1,21,0,2,41,2864
3,2,21,5,0,2,41,2863
9,1,20,0,2,41,2862
3,2,20,4,0,2,41,2861
14,1,12,0,2,41,2860
3,2,12,12,0,3,41,2859
14,1,13,0,2,41,2858
3,2,13,13,0,3,41,2857
14,1,14,0,2,41,2856
3,2,14,14,0,3,41,2855
14,1,15,0,2,41,2854
3,2,15,15,0,3,41,2853
4,1,0,1,RBRBUF,-1,42,2852
17,0,1,RBR,-1,42,2851
18,0,1,RBR,-1,42,2850
5,1,8,0,3,42,2849
5,1,9,0,3,42,2848
5,1,10,0,3,42,2847
5,1,11,0,3,42,2846
5,1,20,0,3,42,2845
5,1,21,0,3,42,2844
5,1,22,0,3,42,2843
5,1,23,0,3,42,2842
5,1,24,0,3,42,2841
5,1,25,0,3,42,2840
5,1,26,0,3,42,2839
5,1,27,0,3,42,2838
5,1,4,0,3,45,2837
5,1,5,0,3,45,2836
5,1,6,0,3,45,2835
5,1,7,0,3,45,2834
5,1,16,0,3,45,2833
5,1,17,0,3,45,2832
5,1,18,0,3,45,2831
5,1,19,0,3,45,2830
5,1,28,0,3,45,2829
5,1,29,0,3,45,2828
5,1,30,0,3,45,2827
5,1,31,0,3,45,2826
7,1,7,0,1,73,2825
7,1,6,0,1,73,2824
7,1,5,0,1,73,2823
7,1,4,0,1,73,2822
19,1,50,0,1,73,2821
19,1,49,0,1,73,2820
19,1,48,0,1,73,2819
19,1,43,0,1,73,2818
19,1,42,0,1,73,2817
19,1,41,0,1,73,2816
19,1,40,0,1,73,2815
19,1,35,0,1,73,2814
19,1,34,0,1,73,2813
19,1,33,0,1,73,2812
19,1,32,0,1,73,2811
19,1,27,0,1,73,2810
19,1,26,0,1,73,2809
19,1,25,0,1,73,2808
19,1,24,0,1,73,2807
19,1,15,0,1,73,2806
19,1,14,0,1,73,2805
2,3,14,4,0,0,-1,73,2804
2,3,14,5,0,0,-1,73,2803
2,3,14,6,0,0,-1,73,2802
2,3,14,7,0,0,-1,73,2801
19,1,13,0,1,73,2800
2,3,13,4,0,0,-1,73,2799
2,3,13,5,0,0,-1,73,2798
2,3,13,6,0,0,-1,73,2797
2,3,13,7,0,0,-1,73,2796
19,1,12,0,1,73,2795
2,3,12,4,0,0,-1,73,2794
2,3,12,5,0,0,-1,73,2793
2,3,12,6,0,0,-1,73,2792
2,3,12,7,0,0,-1,73,2791
5,1,12,0,3,46,2790
5,1,13,0,3,46,2789
5,1,14,0,3,46,2788
5,1,15,0,3,46,2787
5,1,32,0,3,46,2786
5,1,33,0,3,46,2785
5,1,34,0,3,46,2784
5,1,35,0,3,46,2783
14,1,40,0,2,46,2782
14,1,41,0,2,46,2781
14,1,42,0,2,46,2780
14,1,43,0,2,46,2779
3,2,43,11,0,3,47,2778
3,2,42,10,0,3,47,2777
3,2,41,9,0,3,47,2776
3,2,40,8,0,3,47,2775
14,1,28,0,2,47,2774
3,2,28,12,0,3,47,2773
14,1,29,0,2,47,2772
3,2,29,13,0,3,47,2771
14,1,30,0,2,47,2770
3,2,30,14,0,3,47,2769
14,1,31,0,2,47,2768
3,2,31,15,0,3,47,2767
4,1,0,1,PBPBUF,-1,47,2766
17,0,1,PBP,-1,47,2765
18,0,1,PBP,-1,48,2764
5,1,8,0,4,48,2763
5,1,9,0,4,48,2762
5,1,10,0,4,48,2761
5,1,11,0,4,48,2760
5,1,12,0,4,48,2759
5,1,13,0,4,48,2758
5,1,14,0,4,48,2757
5,1,15,0,4,48,2756
5,1,16,0,4,48,2755
5,1,17,0,4,48,2754
5,1,18,0,4,48,2753
5,1,19,0,4,48,2752
5,1,4,0,4,49,2751
5,1,5,0,4,49,2750
5,1,6,0,4,49,2749
5,1,7,0,4,49,2748
5,1,20,0,4,49,2747
5,1,21,0,4,49,2746
5,1,22,0,4,49,2745
5,1,23,0,4,49,2744
5,1,0,0,4,50,2743
5,1,1,0,4,50,2742
5,1,2,0,4,50,2741
5,1,3,0,4,50,2740
5,1,24,0,4,50,2739
5,1,25,0,4,50,2738
5,1,26,0,4,50,2737
5,1,27,0,4,50,2736
5,1,28,0,4,51,2735
5,1,29,0,4,51,2734
5,1,30,0,4,51,2733
5,1,31,0,4,51,2732
5,1,32,0,4,51,2731
5,1,33,0,4,51,2730
5,1,34,0,4,51,2729
5,1,35,0,4,51,2728
5,1,40,0,4,51,2727
5,1,41,0,4,51,2726
5,1,42,0,4,51,2725
5,1,43,0,4,51,2724
5,1,44,0,4,53,2723
5,1,45,0,4,53,2722
5,1,46,0,4,53,2721
5,1,47,0,4,53,2720
5,1,48,0,4,53,2719
5,1,49,0,4,53,2718
5,1,50,0,4,53,2717
5,1,12,0,5,53,2716
5,1,13,0,5,53,2715
5,1,14,0,5,53,2714
5,1,15,0,5,53,2713
7,1,15,0,3,58,2712
7,1,14,0,3,58,2711
7,1,13,0,3,58,2710
7,1,12,0,3,58,2709
7,1,27,0,2,58,2708
8,1,27,0,2,58,2707
3,2,27,11,0,9,58,2706
7,1,26,0,2,58,2705
8,1,26,0,2,58,2704
3,2,26,10,0,9,58,2703
7,1,25,0,2,58,2702
8,1,25,0,2,58,2701
3,2,25,9,0,9,58,2700
7,1,24,0,2,58,2699
8,1,24,0,2,58,2698
3,2,24,8,0,9,58,2697
7,1,7,0,2,58,2696
8,1,7,0,2,58,2695
3,2,7,7,0,6,58,2694
7,1,6,0,2,58,2693
8,1,6,0,2,58,2692
3,2,6,6,0,6,58,2691
7,1,5,0,2,58,2690
8,1,5,0,2,58,2689
3,2,5,5,0,6,58,2688
7,1,4,0,2,58,2687
8,1,4,0,2,58,2686
3,2,4,4,0,6,58,2685
5,1,0,0,5,54,2684
5,1,1,0,5,54,2683
5,1,2,0,5,54,2682
5,1,3,0,5,54,2681
5,1,28,0,5,54,2680
5,1,29,0,5,54,2679
5,1,30,0,5,54,2678
5,1,31,0,5,54,2677
7,1,31,0,3,70,2676
8,1,31,0,3,70,2675
7,1,30,0,3,70,2674
8,1,30,0,3,70,2673
7,1,29,0,3,70,2672
8,1,29,0,3,70,2671
7,1,28,0,3,70,2670
8,1,28,0,3,70,2669
7,1,31,0,2,70,2668
8,1,31,0,2,70,2667
3,2,31,15,0,8,70,2666
3,2,31,15,0,9,70,2665
7,1,30,0,2,70,2664
8,1,30,0,2,70,2663
3,2,30,14,0,8,70,2662
3,2,30,14,0,9,70,2661
7,1,29,0,2,70,2660
8,1,29,0,2,70,2659
3,2,29,13,0,8,70,2658
3,2,29,13,0,9,70,2657
7,1,28,0,2,70,2656
8,1,28,0,2,70,2655
3,2,28,12,0,8,70,2654
3,2,28,12,0,9,70,2653
5,1,4,0,5,52,2652
5,1,5,0,5,52,2651
5,1,6,0,5,52,2650
5,1,7,0,5,52,2649
5,1,16,0,5,52,2648
5,1,17,0,5,52,2647
5,1,18,0,5,52,2646
5,1,19,0,5,52,2645
5,1,36,0,5,52,2644
5,1,37,0,5,52,2643
5,1,38,0,5,52,2642
5,1,39,0,5,52,2641
5,1,8,0,5,55,2640
5,1,9,0,5,55,2639
5,1,10,0,5,55,2638
5,1,11,0,5,55,2637
5,1,32,0,5,55,2636
5,1,33,0,5,55,2635
5,1,34,0,5,55,2634
5,1,35,0,5,55,2633
5,1,40,0,5,55,2632
5,1,41,0,5,55,2631
5,1,42,0,5,55,2630
5,1,43,0,5,55,2629
7,1,43,0,3,59,2628
7,1,42,0,3,59,2627
7,1,41,0,3,59,2626
7,1,40,0,3,59,2625
3,2,24,8,0,6,59,2624
3,2,25,9,0,6,59,2623
3,2,26,10,0,6,59,2622
3,2,27,11,0,6,59,2621
7,1,43,0,2,59,2620
3,2,43,11,0,8,59,2619
3,2,43,11,0,9,59,2618
7,1,42,0,2,59,2617
3,2,42,10,0,8,59,2616
3,2,42,10,0,9,59,2615
7,1,41,0,2,59,2614
3,2,41,9,0,8,59,2613
3,2,41,9,0,9,59,2612
7,1,40,0,2,59,2611
3,2,40,8,0,8,59,2610
3,2,40,8,0,9,59,2609
8,1,40,0,2,62,2608
8,1,41,0,2,62,2607
8,1,42,0,2,62,2606
8,1,43,0,2,62,2605
7,1,11,0,3,62,2604
8,1,11,0,3,62,2603
7,1,10,0,3,62,2602
8,1,10,0,3,62,2601
7,1,9,0,3,62,2600
8,1,9,0,3,62,2599
7,1,8,0,3,62,2598
8,1,8,0,3,62,2597
7,1,15,0,2,62,2596
3,2,15,15,0,9,62,2595
7,1,14,0,2,62,2594
3,2,14,14,0,9,62,2593
7,1,13,0,2,62,2592
3,2,13,13,0,9,62,2591
7,1,12,0,2,62,2590
3,2,12,12,0,9,62,2589
5,1,24,0,5,57,2588
7,1,24,0,3,57,2587
8,1,24,0,3,57,2586
5,1,25,0,5,57,2585
7,1,25,0,3,57,2584
8,1,25,0,3,57,2583
5,1,26,0,5,57,2582
7,1,26,0,3,57,2581
8,1,26,0,3,57,2580
5,1,27,0,5,57,2579
7,1,27,0,3,57,2578
8,1,27,0,3,57,2577
5,1,44,0,5,57,2576
7,1,44,0,3,57,2575
8,1,44,0,3,57,2574
5,1,45,0,5,57,2573
7,1,45,0,3,57,2572
8,1,45,0,3,57,2571
5,1,46,0,5,57,2570
7,1,46,0,3,57,2569
8,1,46,0,3,57,2568
5,1,47,0,5,57,2567
7,1,47,0,3,57,2566
8,1,47,0,3,57,2565
8,1,40,0,3,66,2564
8,1,41,0,3,66,2563
8,1,42,0,3,66,2562
8,1,43,0,3,66,2561
7,1,47,0,2,66,2560
3,2,47,15,0,6,66,2559
3,2,47,15,0,8,66,2558
3,2,47,15,0,9,66,2557
7,1,46,0,2,66,2556
3,2,46,14,0,6,66,2555
3,2,46,14,0,8,66,2554
3,2,46,14,0,9,66,2553
7,1,45,0,2,66,2552
3,2,45,13,0,6,66,2551
3,2,45,13,0,8,66,2550
3,2,45,13,0,9,66,2549
7,1,44,0,2,66,2548
3,2,44,12,0,6,66,2547
3,2,44,12,0,8,66,2546
3,2,44,12,0,9,66,2545
3,2,27,11,0,8,60,2544
3,2,26,10,0,8,60,2543
3,2,25,9,0,8,60,2542
3,2,24,8,0,8,60,2541
3,2,40,8,0,6,60,2540
3,2,41,9,0,6,60,2539
3,2,42,10,0,6,60,2538
3,2,43,11,0,6,60,2537
7,1,7,0,3,60,2536
8,1,7,0,3,60,2535
3,2,7,7,0,8,60,2534
7,1,6,0,3,60,2533
8,1,6,0,3,60,2532
3,2,6,6,0,8,60,2531
7,1,5,0,3,60,2530
8,1,5,0,3,60,2529
3,2,5,5,0,8,60,2528
7,1,4,0,3,60,2527
8,1,4,0,3,60,2526
3,2,4,4,0,8,60,2525
3,2,4,4,0,9,60,2524
3,2,5,5,0,9,60,2523
3,2,6,6,0,9,60,2522
3,2,7,7,0,9,60,2521
5,1,36,0,4,56,2520
5,1,37,0,4,56,2519
5,1,38,0,4,56,2518
5,1,39,0,4,56,2517
5,1,20,0,5,56,2516
7,1,20,0,3,56,2515
8,1,20,0,3,56,2514
5,1,21,0,5,56,2513
7,1,21,0,3,56,2512
8,1,21,0,3,56,2511
5,1,22,0,5,56,2510
7,1,22,0,3,56,2509
8,1,22,0,3,56,2508
5,1,23,0,5,56,2507
7,1,23,0,3,56,2506
8,1,23,0,3,56,2505
5,1,48,0,5,56,2504
5,1,49,0,5,56,2503
5,1,50,0,5,56,2502
7,1,50,0,3,61,2501
7,1,49,0,3,61,2500
7,1,48,0,3,61,2499
7,1,50,0,2,61,2498
8,1,50,0,2,61,2497
3,2,50,2,0,8,61,2496
3,2,50,2,0,9,61,2495
7,1,49,0,2,61,2494
8,1,49,0,2,61,2493
3,2,49,1,0,8,61,2492
3,2,49,1,0,9,61,2491
7,1,48,0,2,61,2490
8,1,48,0,2,61,2489
3,2,48,0,0,8,61,2488
3,2,48,0,0,9,61,2487
7,1,39,0,2,63,2486
3,2,39,7,0,6,63,2485
3,2,39,7,0,9,63,2484
7,1,38,0,2,63,2483
3,2,38,6,0,6,63,2482
3,2,38,6,0,9,63,2481
7,1,37,0,2,63,2480
3,2,37,5,0,6,63,2479
3,2,37,5,0,9,63,2478
7,1,36,0,2,63,2477
3,2,36,4,0,6,63,2476
3,2,36,4,0,9,63,2475
7,1,23,0,2,63,2474
3,2,23,7,0,8,63,2473
3,2,23,7,0,9,63,2472
7,1,22,0,2,63,2471
3,2,22,6,0,8,63,2470
3,2,22,6,0,9,63,2469
7,1,21,0,2,63,2468
3,2,21,5,0,8,63,2467
3,2,21,5,0,9,63,2466
7,1,20,0,2,63,2465
3,2,20,4,0,8,63,2464
3,2,20,4,0,9,63,2463
8,1,48,0,3,68,2462
8,1,49,0,3,68,2461
8,1,50,0,3,68,2460
7,1,39,0,3,68,2459
8,1,39,0,3,68,2458
3,2,39,7,0,8,68,2457
7,1,38,0,3,68,2456
8,1,38,0,3,68,2455
3,2,38,6,0,8,68,2454
7,1,37,0,3,68,2453
8,1,37,0,3,68,2452
3,2,37,5,0,8,68,2451
7,1,36,0,3,68,2450
8,1,36,0,3,68,2449
3,2,36,4,0,8,68,2448
7,1,3,0,3,68,2447
7,1,2,0,3,68,2446
7,1,1,0,3,68,2445
7,1,0,0,3,68,2444
8,1,0,0,3,71,2443
8,1,1,0,3,71,2442
8,1,2,0,3,71,2441
8,1,3,0,3,71,2440
3,2,20,4,0,6,71,2439
3,2,21,5,0,6,71,2438
3,2,22,6,0,6,71,2437
3,2,23,7,0,6,71,2436
3,2,12,12,0,6,71,2435
3,2,12,12,0,8,71,2434
3,2,13,13,0,6,71,2433
3,2,13,13,0,8,71,2432
3,2,14,14,0,6,71,2431
3,2,14,14,0,8,71,2430
3,2,15,15,0,6,71,2429
3,2,15,15,0,8,71,2428
3,2,28,12,0,6,71,2427
3,2,29,13,0,6,71,2426
3,2,30,14,0,6,71,2425
3,2,31,15,0,6,71,2424
8,1,20,0,2,64,2423
8,1,21,0,2,64,2422
8,1,22,0,2,64,2421
8,1,23,0,2,64,2420
8,1,12,0,2,64,2419
8,1,13,0,2,64,2418
8,1,14,0,2,64,2417
8,1,15,0,2,64,2416
7,1,19,0,2,64,2415
8,1,19,0,2,64,2414
3,2,19,3,0,9,64,2413
7,1,18,0,2,64,2412
8,1,18,0,2,64,2411
3,2,18,2,0,9,64,2410
7,1,17,0,2,64,2409
8,1,17,0,2,64,2408
3,2,17,1,0,9,64,2407
7,1,16,0,2,64,2406
8,1,16,0,2,64,2405
3,2,16,0,0,9,64,2404
3,2,16,0,0,6,67,2403
3,2,17,1,0,6,67,2402
3,2,18,2,0,6,67,2401
3,2,19,3,0,6,67,2400
8,1,36,0,2,67,2399
8,1,37,0,2,67,2398
8,1,38,0,2,67,2397
8,1,39,0,2,67,2396
7,1,3,0,2,67,2395
8,1,3,0,2,67,2394
3,2,3,3,0,6,67,2393
3,2,3,3,0,9,67,2392
7,1,2,0,2,67,2391
8,1,2,0,2,67,2390
3,2,2,2,0,6,67,2389
3,2,2,2,0,9,67,2388
7,1,1,0,2,67,2387
8,1,1,0,2,67,2386
3,2,1,1,0,6,67,2385
3,2,1,1,0,9,67,2384
7,1,0,0,2,67,2383
8,1,0,0,2,67,2382
3,2,0,0,0,6,67,2381
3,2,0,0,0,9,67,2380
3,2,0,0,0,8,69,2379
3,2,1,1,0,8,69,2378
3,2,2,2,0,8,69,2377
3,2,3,3,0,8,69,2376
7,1,11,0,2,69,2375
8,1,11,0,2,69,2374
3,2,11,11,0,6,69,2373
3,2,11,11,0,8,69,2372
3,2,11,11,0,9,69,2371
7,1,10,0,2,69,2370
8,1,10,0,2,69,2369
3,2,10,10,0,6,69,2368
3,2,10,10,0,8,69,2367
3,2,10,10,0,9,69,2366
7,1,9,0,2,69,2365
8,1,9,0,2,69,2364
3,2,9,9,0,6,69,2363
3,2,9,9,0,8,69,2362
3,2,9,9,0,9,69,2361
7,1,8,0,2,69,2360
8,1,8,0,2,69,2359
3,2,8,8,0,6,69,2358
3,2,8,8,0,8,69,2357
3,2,8,8,0,9,69,2356
7,1,11,0,1,91,2355
2,3,8,11,0,0,-1,91,2354
2,3,9,11,0,0,-1,91,2353
2,3,10,11,0,0,-1,91,2352
2,3,11,11,0,0,-1,91,2351
8,1,11,0,1,91,2350
3,2,11,11,0,4,91,2349
3,2,11,11,0,10,91,2348
7,1,10,0,1,91,2347
2,3,8,10,0,0,-1,91,2346
2,3,9,10,0,0,-1,91,2345
2,3,10,10,0,0,-1,91,2344
2,3,11,10,0,0,-1,91,2343
8,1,10,0,1,91,2342
3,2,10,10,0,4,91,2341
3,2,10,10,0,10,91,2340
7,1,9,0,1,91,2339
2,3,8,9,0,0,-1,91,2338
2,3,9,9,0,0,-1,91,2337
2,3,10,9,0,0,-1,91,2336
2,3,11,9,0,0,-1,91,2335
8,1,9,0,1,91,2334
3,2,9,9,0,4,91,2333
3,2,9,9,0,10,91,2332
7,1,8,0,1,91,2331
2,3,8,8,0,0,-1,91,2330
2,3,9,8,0,0,-1,91,2329
2,3,10,8,0,0,-1,91,2328
2,3,11,8,0,0,-1,91,2327
8,1,8,0,1,91,2326
3,2,8,8,0,4,91,2325
3,2,8,8,0,10,91,2324
7,1,35,0,3,65,2323
8,1,35,0,3,65,2322
7,1,34,0,3,65,2321
8,1,34,0,3,65,2320
7,1,33,0,3,65,2319
8,1,33,0,3,65,2318
7,1,32,0,3,65,2317
8,1,32,0,3,65,2316
7,1,19,0,3,65,2315
8,1,19,0,3,65,2314
3,2,19,3,0,8,65,2313
7,1,18,0,3,65,2312
8,1,18,0,3,65,2311
3,2,18,2,0,8,65,2310
7,1,17,0,3,65,2309
8,1,17,0,3,65,2308
3,2,17,1,0,8,65,2307
7,1,16,0,3,65,2306
8,1,16,0,3,65,2305
3,2,16,0,0,8,65,2304
8,1,12,0,3,65,2303
8,1,13,0,3,65,2302
8,1,14,0,3,65,2301
8,1,15,0,3,65,2300
3,2,48,0,0,6,72,2299
3,2,49,1,0,6,72,2298
3,2,50,2,0,6,72,2297
8,1,44,0,2,72,2296
8,1,45,0,2,72,2295
8,1,46,0,2,72,2294
8,1,47,0,2,72,2293
7,1,35,0,2,72,2292
8,1,35,0,2,72,2291
3,2,35,3,0,6,72,2290
3,2,35,3,0,8,72,2289
3,2,35,3,0,9,72,2288
7,1,34,0,2,72,2287
8,1,34,0,2,72,2286
3,2,34,2,0,6,72,2285
3,2,34,2,0,8,72,2284
3,2,34,2,0,9,72,2283
7,1,33,0,2,72,2282
8,1,33,0,2,72,2281
3,2,33,1,0,6,72,2280
3,2,33,1,0,8,72,2279
3,2,33,1,0,9,72,2278
7,1,32,0,2,72,2277
8,1,32,0,2,72,2276
3,2,32,0,0,6,72,2275
4,1,0,1,XAPBUF,-1,72,2274
3,2,32,0,0,8,72,2273
4,1,0,1,PAPBUF,-1,72,2272
16,0,1,PAP,-1,72,2271
3,2,32,0,0,9,72,2270
4,1,0,1,XBPBUF,-1,72,2269
7,1,35,0,1,75,2268
2,3,15,35,0,0,-1,75,2267
2,3,40,35,0,0,-1,75,2266
2,3,41,35,0,0,-1,75,2265
2,3,42,35,0,0,-1,75,2264
2,3,43,35,0,0,-1,75,2263
2,3,48,35,0,0,-1,75,2262
2,3,49,35,0,0,-1,75,2261
2,3,50,35,0,0,-1,75,2260
7,1,34,0,1,75,2259
2,3,15,34,0,0,-1,75,2258
2,3,40,34,0,0,-1,75,2257
2,3,41,34,0,0,-1,75,2256
2,3,42,34,0,0,-1,75,2255
2,3,43,34,0,0,-1,75,2254
2,3,48,34,0,0,-1,75,2253
2,3,49,34,0,0,-1,75,2252
2,3,50,34,0,0,-1,75,2251
7,1,33,0,1,75,2250
2,3,15,33,0,0,-1,75,2249
2,3,40,33,0,0,-1,75,2248
2,3,41,33,0,0,-1,75,2247
2,3,42,33,0,0,-1,75,2246
2,3,43,33,0,0,-1,75,2245
2,3,48,33,0,0,-1,75,2244
2,3,49,33,0,0,-1,75,2243
2,3,50,33,0,0,-1,75,2242
7,1,32,0,1,75,2241
2,3,15,32,0,0,-1,75,2240
2,3,40,32,0,0,-1,75,2239
2,3,41,32,0,0,-1,75,2238
2,3,42,32,0,0,-1,75,2237
2,3,43,32,0,0,-1,75,2236
2,3,48,32,0,0,-1,75,2235
2,3,49,32,0,0,-1,75,2234
2,3,50,32,0,0,-1,75,2233
19,1,47,0,1,75,2232
2,3,47,32,0,0,-1,75,2231
2,3,47,33,0,0,-1,75,2230
2,3,47,34,0,0,-1,75,2229
2,3,47,35,0,0,-1,75,2228
19,1,46,0,1,75,2227
2,3,46,32,0,0,-1,75,2226
2,3,46,33,0,0,-1,75,2225
2,3,46,34,0,0,-1,75,2224
2,3,46,35,0,0,-1,75,2223
19,1,45,0,1,75,2222
2,3,45,32,0,0,-1,75,2221
2,3,45,33,0,0,-1,75,2220
2,3,45,34,0,0,-1,75,2219
2,3,45,35,0,0,-1,75,2218
19,1,44,0,1,75,2217
2,3,44,32,0,0,-1,75,2216
2,3,44,33,0,0,-1,75,2215
2,3,44,34,0,0,-1,75,2214
2,3,44,35,0,0,-1,75,2213
5,1,40,0,3,43,2212
5,1,41,0,3,43,2211
5,1,42,0,3,43,2210
5,1,43,0,3,43,2209
5,1,44,0,3,43,2208
5,1,45,0,3,43,2207
5,1,46,0,3,43,2206
5,1,47,0,3,43,2205
7,1,47,0,1,74,2204
2,3,15,47,0,0,-1,74,2203
2,3,24,47,0,0,-1,74,2202
2,3,25,47,0,0,-1,74,2201
2,3,26,47,0,0,-1,74,2200
2,3,27,47,0,0,-1,74,2199
2,3,32,47,0,0,-1,74,2198
2,3,33,47,0,0,-1,74,2197
2,3,34,47,0,0,-1,74,2196
2,3,35,47,0,0,-1,74,2195
2,3,48,47,0,0,-1,74,2194
2,3,49,47,0,0,-1,74,2193
2,3,50,47,0,0,-1,74,2192
3,2,47,15,0,10,74,2191
7,1,46,0,1,74,2190
2,3,15,46,0,0,-1,74,2189
2,3,24,46,0,0,-1,74,2188
2,3,26,46,0,0,-1,74,2187
2,3,27,46,0,0,-1,74,2186
2,3,32,46,0,0,-1,74,2185
2,3,33,46,0,0,-1,74,2184
2,3,34,46,0,0,-1,74,2183
2,3,35,46,0,0,-1,74,2182
2,3,48,46,0,0,-1,74,2181
2,3,49,46,0,0,-1,74,2180
2,3,50,46,0,0,-1,74,2179
3,2,46,14,0,10,74,2178
7,1,45,0,1,74,2177
2,3,15,45,0,0,-1,74,2176
2,3,24,45,0,0,-1,74,2175
2,3,25,45,0,0,-1,74,2174
2,3,26,45,0,0,-1,74,2173
2,3,27,45,0,0,-1,74,2172
2,3,32,45,0,0,-1,74,2171
2,3,33,45,0,0,-1,74,2170
2,3,34,45,0,0,-1,74,2169
2,3,35,45,0,0,-1,74,2168
2,3,48,45,0,0,-1,74,2167
2,3,49,45,0,0,-1,74,2166
2,3,50,45,0,0,-1,74,2165
3,2,45,13,0,10,74,2164
7,1,44,0,1,74,2163
2,3,15,44,0,0,-1,74,2162
2,3,24,44,0,0,-1,74,2161
2,3,25,44,0,0,-1,74,2160
2,3,26,44,0,0,-1,74,2159
2,3,27,44,0,0,-1,74,2158
2,3,32,44,0,0,-1,74,2157
2,3,33,44,0,0,-1,74,2156
2,3,34,44,0,0,-1,74,2155
2,3,35,44,0,0,-1,74,2154
2,3,48,44,0,0,-1,74,2153
2,3,49,44,0,0,-1,74,2152
2,3,50,44,0,0,-1,74,2151
3,2,44,12,0,10,74,2150
2,3,24,32,0,0,-1,76,2149
2,3,25,32,0,0,-1,76,2148
2,3,26,32,0,0,-1,76,2147
2,3,27,32,0,0,-1,76,2146
2,3,32,32,0,0,-1,76,2145
2,3,33,32,0,0,-1,76,2144
2,3,34,32,0,0,-1,76,2143
2,3,35,32,0,0,-1,76,2142
2,3,24,33,0,0,-1,76,2141
2,3,25,33,0,0,-1,76,2140
2,3,26,33,0,0,-1,76,2139
2,3,27,33,0,0,-1,76,2138
2,3,32,33,0,0,-1,76,2137
2,3,33,33,0,0,-1,76,2136
2,3,34,33,0,0,-1,76,2135
2,3,35,33,0,0,-1,76,2134
2,3,24,34,0,0,-1,76,2133
2,3,26,34,0,0,-1,76,2132
2,3,27,34,0,0,-1,76,2131
2,3,32,34,0,0,-1,76,2130
2,3,33,34,0,0,-1,76,2129
2,3,34,34,0,0,-1,76,2128
2,3,35,34,0,0,-1,76,2127
2,3,24,35,0,0,-1,76,2126
2,3,26,35,0,0,-1,76,2125
2,3,27,35,0,0,-1,76,2124
2,3,32,35,0,0,-1,76,2123
2,3,33,35,0,0,-1,76,2122
2,3,34,35,0,0,-1,76,2121
2,3,35,35,0,0,-1,76,2120
19,1,19,0,1,76,2119
2,3,19,44,0,0,-1,76,2118
2,3,19,45,0,0,-1,76,2117
2,3,19,46,0,0,-1,76,2116
2,3,19,47,0,0,-1,76,2115
19,1,18,0,1,76,2114
2,3,18,32,0,0,-1,76,2113
2,3,18,33,0,0,-1,76,2112
2,3,18,34,0,0,-1,76,2111
2,3,18,35,0,0,-1,76,2110
2,3,18,44,0,0,-1,76,2109
2,3,18,45,0,0,-1,76,2108
2,3,18,46,0,0,-1,76,2107
2,3,18,47,0,0,-1,76,2106
19,1,17,0,1,76,2105
2,3,17,32,0,0,-1,76,2104
2,3,17,33,0,0,-1,76,2103
2,3,17,34,0,0,-1,76,2102
2,3,17,35,0,0,-1,76,2101
2,3,17,44,0,0,-1,76,2100
2,3,17,45,0,0,-1,76,2099
2,3,17,46,0,0,-1,76,2098
2,3,17,47,0,0,-1,76,2097
19,1,16,0,1,76,2096
2,3,16,32,0,0,-1,76,2095
2,3,16,33,0,0,-1,76,2094
2,3,16,34,0,0,-1,76,2093
2,3,16,35,0,0,-1,76,2092
2,3,16,44,0,0,-1,76,2091
2,3,16,45,0,0,-1,76,2090
2,3,16,46,0,0,-1,76,2089
2,3,16,47,0,0,-1,76,2088
5,1,0,0,3,44,2087
5,1,1,0,3,44,2086
5,1,2,0,3,44,2085
5,1,3,0,3,44,2084
5,1,36,0,3,44,2083
5,1,37,0,3,44,2082
5,1,38,0,3,44,2081
5,1,39,0,3,44,2080
5,1,48,0,3,44,2079
5,1,49,0,3,44,2078
5,1,50,0,3,44,2077
7,1,39,0,1,78,2076
2,3,16,39,0,0,-1,78,2075
2,3,17,39,0,0,-1,78,2074
2,3,18,39,0,0,-1,78,2073
2,3,19,39,0,0,-1,78,2072
2,3,32,39,0,0,-1,78,2071
2,3,33,39,0,0,-1,78,2070
2,3,34,39,0,0,-1,78,2069
2,3,35,39,0,0,-1,78,2068
2,3,40,39,0,0,-1,78,2067
2,3,41,39,0,0,-1,78,2066
2,3,42,39,0,0,-1,78,2065
2,3,43,39,0,0,-1,78,2064
2,3,44,39,0,0,-1,78,2063
2,3,45,39,0,0,-1,78,2062
2,3,46,39,0,0,-1,78,2061
2,3,47,39,0,0,-1,78,2060
2,3,48,39,0,0,-1,78,2059
2,3,49,39,0,0,-1,78,2058
2,3,50,39,0,0,-1,78,2057
7,1,38,0,1,78,2056
2,3,16,38,0,0,-1,78,2055
2,3,17,38,0,0,-1,78,2054
2,3,18,38,0,0,-1,78,2053
2,3,19,38,0,0,-1,78,2052
2,3,32,38,0,0,-1,78,2051
2,3,33,38,0,0,-1,78,2050
2,3,34,38,0,0,-1,78,2049
2,3,35,38,0,0,-1,78,2048
2,3,40,38,0,0,-1,78,2047
2,3,41,38,0,0,-1,78,2046
2,3,42,38,0,0,-1,78,2045
2,3,43,38,0,0,-1,78,2044
2,3,44,38,0,0,-1,78,2043
2,3,45,38,0,0,-1,78,2042
2,3,46,38,0,0,-1,78,2041
2,3,47,38,0,0,-1,78,2040
2,3,48,38,0,0,-1,78,2039
2,3,49,38,0,0,-1,78,2038
2,3,50,38,0,0,-1,78,2037
7,1,37,0,1,78,2036
2,3,16,37,0,0,-1,78,2035
2,3,17,37,0,0,-1,78,2034
2,3,18,37,0,0,-1,78,2033
2,3,32,37,0,0,-1,78,2032
2,3,33,37,0,0,-1,78,2031
2,3,34,37,0,0,-1,78,2030
2,3,35,37,0,0,-1,78,2029
2,3,40,37,0,0,-1,78,2028
2,3,41,37,0,0,-1,78,2027
2,3,42,37,0,0,-1,78,2026
2,3,43,37,0,0,-1,78,2025
2,3,44,37,0,0,-1,78,2024
2,3,45,37,0,0,-1,78,2023
2,3,46,37,0,0,-1,78,2022
2,3,47,37,0,0,-1,78,2021
2,3,48,37,0,0,-1,78,2020
2,3,49,37,0,0,-1,78,2019
2,3,50,37,0,0,-1,78,2018
7,1,36,0,1,78,2017
2,3,16,36,0,0,-1,78,2016
2,3,17,36,0,0,-1,78,2015
2,3,18,36,0,0,-1,78,2014
2,3,32,36,0,0,-1,78,2013
2,3,33,36,0,0,-1,78,2012
2,3,34,36,0,0,-1,78,2011
2,3,35,36,0,0,-1,78,2010
2,3,40,36,0,0,-1,78,2009
2,3,41,36,0,0,-1,78,2008
2,3,42,36,0,0,-1,78,2007
2,3,43,36,0,0,-1,78,2006
2,3,44,36,0,0,-1,78,2005
2,3,45,36,0,0,-1,78,2004
2,3,46,36,0,0,-1,78,2003
2,3,47,36,0,0,-1,78,2002
2,3,48,36,0,0,-1,78,2001
2,3,49,36,0,0,-1,78,2000
2,3,50,36,0,0,-1,78,1999
7,1,3,0,1,77,1998
3,2,3,3,0,10,77,1997
7,1,2,0,1,77,1996
3,2,2,2,0,10,77,1995
7,1,1,0,1,77,1994
3,2,1,1,0,10,77,1993
7,1,0,0,1,77,1992
3,2,0,0,0,10,77,1991
3,2,32,0,0,10,77,1990
3,2,33,1,0,10,77,1989
3,2,34,2,0,10,77,1988
3,2,35,3,0,10,77,1987
19,1,31,0,1,77,1986
2,3,31,44,0,0,-1,77,1985
2,3,31,45,0,0,-1,77,1984
2,3,31,46,0,0,-1,77,1983
2,3,31,47,0,0,-1,77,1982
19,1,30,0,1,77,1981
2,3,30,44,0,0,-1,77,1980
2,3,30,45,0,0,-1,77,1979
2,3,30,46,0,0,-1,77,1978
2,3,30,47,0,0,-1,77,1977
19,1,29,0,1,77,1976
2,3,29,44,0,0,-1,77,1975
2,3,29,45,0,0,-1,77,1974
2,3,29,46,0,0,-1,77,1973
2,3,29,47,0,0,-1,77,1972
19,1,28,0,1,77,1971
2,3,28,44,0,0,-1,77,1970
2,3,28,45,0,0,-1,77,1969
2,3,28,46,0,0,-1,77,1968
2,3,28,47,0,0,-1,77,1967
7,1,15,0,1,85,1966
2,3,24,15,0,0,-1,85,1965
2,3,26,15,0,0,-1,85,1964
2,3,27,15,0,0,-1,85,1963
2,3,28,15,0,0,-1,85,1962
2,3,29,15,0,0,-1,85,1961
2,3,30,15,0,0,-1,85,1960
2,3,31,15,0,0,-1,85,1959
2,3,32,15,0,0,-1,85,1958
2,3,33,15,0,0,-1,85,1957
2,3,34,15,0,0,-1,85,1956
2,3,35,15,0,0,-1,85,1955
2,3,40,15,0,0,-1,85,1954
2,3,41,15,0,0,-1,85,1953
2,3,42,15,0,0,-1,85,1952
2,3,43,15,0,0,-1,85,1951
2,3,44,15,0,0,-1,85,1950
2,3,45,15,0,0,-1,85,1949
2,3,46,15,0,0,-1,85,1948
2,3,47,15,0,0,-1,85,1947
7,1,14,0,1,85,1946
2,3,24,14,0,0,-1,85,1945
2,3,25,14,0,0,-1,85,1944
2,3,26,14,0,0,-1,85,1943
7,1,13,0,1,85,1942
7,1,12,0,1,85,1941
8,1,12,0,1,86,1940
3,2,12,12,0,4,86,1939
3,2,12,12,0,10,86,1938
8,1,13,0,1,86,1937
3,2,13,13,0,4,86,1936
3,2,13,13,0,10,86,1935
8,1,14,0,1,86,1934
3,2,14,14,0,4,86,1933
3,2,14,14,0,10,86,1932
2,3,48,15,0,0,-1,86,1931
2,3,49,15,0,0,-1,86,1930
2,3,50,15,0,0,-1,86,1929
8,1,15,0,1,86,1928
3,2,15,15,0,4,86,1927
3,2,15,15,0,10,86,1926
8,1,44,0,1,86,1925
8,1,45,0,1,86,1924
8,1,46,0,1,86,1923
8,1,47,0,1,86,1922
7,1,23,0,1,87,1921
2,3,14,23,0,0,-1,87,1920
2,3,15,23,0,0,-1,87,1919
2,3,16,23,0,0,-1,87,1918
2,3,17,23,0,0,-1,87,1917
2,3,18,23,0,0,-1,87,1916
2,3,24,23,0,0,-1,87,1915
2,3,26,23,0,0,-1,87,1914
2,3,27,23,0,0,-1,87,1913
2,3,28,23,0,0,-1,87,1912
2,3,29,23,0,0,-1,87,1911
2,3,30,23,0,0,-1,87,1910
2,3,31,23,0,0,-1,87,1909
2,3,44,23,0,0,-1,87,1908
2,3,45,23,0,0,-1,87,1907
2,3,46,23,0,0,-1,87,1906
2,3,47,23,0,0,-1,87,1905
7,1,22,0,1,87,1904
2,3,15,22,0,0,-1,87,1903
2,3,16,22,0,0,-1,87,1902
2,3,18,22,0,0,-1,87,1901
2,3,24,22,0,0,-1,87,1900
2,3,26,22,0,0,-1,87,1899
2,3,27,22,0,0,-1,87,1898
2,3,28,22,0,0,-1,87,1897
2,3,29,22,0,0,-1,87,1896
2,3,30,22,0,0,-1,87,1895
2,3,31,22,0,0,-1,87,1894
2,3,44,22,0,0,-1,87,1893
2,3,45,22,0,0,-1,87,1892
2,3,46,22,0,0,-1,87,1891
2,3,47,22,0,0,-1,87,1890
7,1,21,0,1,87,1889
2,3,14,21,0,0,-1,87,1888
2,3,15,21,0,0,-1,87,1887
2,3,18,21,0,0,-1,87,1886
2,3,19,21,0,0,-1,87,1885
2,3,24,21,0,0,-1,87,1884
2,3,25,21,0,0,-1,87,1883
2,3,26,21,0,0,-1,87,1882
2,3,27,21,0,0,-1,87,1881
2,3,28,21,0,0,-1,87,1880
2,3,29,21,0,0,-1,87,1879
2,3,30,21,0,0,-1,87,1878
2,3,31,21,0,0,-1,87,1877
2,3,44,21,0,0,-1,87,1876
2,3,45,21,0,0,-1,87,1875
2,3,46,21,0,0,-1,87,1874
2,3,47,21,0,0,-1,87,1873
7,1,20,0,1,87,1872
2,3,14,20,0,0,-1,87,1871
2,3,18,20,0,0,-1,87,1870
2,3,19,20,0,0,-1,87,1869
2,3,24,20,0,0,-1,87,1868
2,3,25,20,0,0,-1,87,1867
2,3,26,20,0,0,-1,87,1866
2,3,31,20,0,0,-1,87,1865
2,3,44,20,0,0,-1,87,1864
2,3,45,20,0,0,-1,87,1863
2,3,47,20,0,0,-1,87,1862
2,3,32,20,0,0,-1,88,1861
2,3,33,20,0,0,-1,88,1860
2,3,40,20,0,0,-1,88,1859
2,3,41,20,0,0,-1,88,1858
2,3,42,20,0,0,-1,88,1857
2,3,49,20,0,0,-1,88,1856
8,1,20,0,1,88,1855
3,2,20,4,0,10,88,1854
2,3,32,21,0,0,-1,88,1853
2,3,33,21,0,0,-1,88,1852
2,3,34,21,0,0,-1,88,1851
2,3,35,21,0,0,-1,88,1850
2,3,40,21,0,0,-1,88,1849
2,3,41,21,0,0,-1,88,1848
2,3,42,21,0,0,-1,88,1847
2,3,43,21,0,0,-1,88,1846
2,3,48,21,0,0,-1,88,1845
2,3,49,21,0,0,-1,88,1844
2,3,50,21,0,0,-1,88,1843
8,1,21,0,1,88,1842
3,2,21,5,0,10,88,1841
2,3,32,22,0,0,-1,88,1840
2,3,33,22,0,0,-1,88,1839
2,3,34,22,0,0,-1,88,1838
2,3,35,22,0,0,-1,88,1837
2,3,40,22,0,0,-1,88,1836
2,3,41,22,0,0,-1,88,1835
2,3,42,22,0,0,-1,88,1834
2,3,43,22,0,0,-1,88,1833
2,3,48,22,0,0,-1,88,1832
2,3,49,22,0,0,-1,88,1831
2,3,50,22,0,0,-1,88,1830
8,1,22,0,1,88,1829
3,2,22,6,0,10,88,1828
2,3,32,23,0,0,-1,88,1827
2,3,33,23,0,0,-1,88,1826
2,3,34,23,0,0,-1,88,1825
2,3,35,23,0,0,-1,88,1824
2,3,40,23,0,0,-1,88,1823
2,3,41,23,0,0,-1,88,1822
2,3,42,23,0,0,-1,88,1821
2,3,43,23,0,0,-1,88,1820
2,3,48,23,0,0,-1,88,1819
2,3,49,23,0,0,-1,88,1818
2,3,50,23,0,0,-1,88,1817
8,1,23,0,1,88,1816
3,2,23,7,0,10,88,1815
7,1,31,0,1,79,1814
2,3,16,31,0,0,-1,79,1813
2,3,17,31,0,0,-1,79,1812
2,3,18,31,0,0,-1,79,1811
2,3,19,31,0,0,-1,79,1810
2,3,24,31,0,0,-1,79,1809
2,3,25,31,0,0,-1,79,1808
2,3,26,31,0,0,-1,79,1807
2,3,27,31,0,0,-1,79,1806
2,3,28,31,0,0,-1,79,1805
2,3,29,31,0,0,-1,79,1804
2,3,30,31,0,0,-1,79,1803
2,3,31,31,0,0,-1,79,1802
2,3,32,31,0,0,-1,79,1801
2,3,33,31,0,0,-1,79,1800
2,3,34,31,0,0,-1,79,1799
2,3,35,31,0,0,-1,79,1798
2,3,40,31,0,0,-1,79,1797
2,3,41,31,0,0,-1,79,1796
2,3,42,31,0,0,-1,79,1795
2,3,43,31,0,0,-1,79,1794
7,1,30,0,1,79,1793
2,3,16,30,0,0,-1,79,1792
2,3,17,30,0,0,-1,79,1791
2,3,18,30,0,0,-1,79,1790
2,3,24,30,0,0,-1,79,1789
2,3,26,30,0,0,-1,79,1788
2,3,27,30,0,0,-1,79,1787
2,3,28,30,0,0,-1,79,1786
2,3,29,30,0,0,-1,79,1785
2,3,30,30,0,0,-1,79,1784
2,3,31,30,0,0,-1,79,1783
2,3,32,30,0,0,-1,79,1782
2,3,33,30,0,0,-1,79,1781
2,3,34,30,0,0,-1,79,1780
2,3,35,30,0,0,-1,79,1779
2,3,40,30,0,0,-1,79,1778
2,3,41,30,0,0,-1,79,1777
2,3,42,30,0,0,-1,79,1776
2,3,43,30,0,0,-1,79,1775
7,1,29,0,1,79,1774
2,3,16,29,0,0,-1,79,1773
2,3,17,29,0,0,-1,79,1772
2,3,18,29,0,0,-1,79,1771
2,3,24,29,0,0,-1,79,1770
2,3,26,29,0,0,-1,79,1769
2,3,27,29,0,0,-1,79,1768
2,3,28,29,0,0,-1,79,1767
2,3,29,29,0,0,-1,79,1766
2,3,30,29,0,0,-1,79,1765
2,3,31,29,0,0,-1,79,1764
2,3,32,29,0,0,-1,79,1763
2,3,33,29,0,0,-1,79,1762
2,3,34,29,0,0,-1,79,1761
2,3,35,29,0,0,-1,79,1760
2,3,40,29,0,0,-1,79,1759
2,3,41,29,0,0,-1,79,1758
2,3,42,29,0,0,-1,79,1757
2,3,43,29,0,0,-1,79,1756
7,1,28,0,1,79,1755
2,3,16,28,0,0,-1,79,1754
2,3,17,28,0,0,-1,79,1753
2,3,18,28,0,0,-1,79,1752
2,3,24,28,0,0,-1,79,1751
2,3,26,28,0,0,-1,79,1750
2,3,27,28,0,0,-1,79,1749
2,3,28,28,0,0,-1,79,1748
2,3,29,28,0,0,-1,79,1747
2,3,30,28,0,0,-1,79,1746
2,3,31,28,0,0,-1,79,1745
2,3,32,28,0,0,-1,79,1744
2,3,33,28,0,0,-1,79,1743
2,3,34,28,0,0,-1,79,1742
2,3,35,28,0,0,-1,79,1741
2,3,40,28,0,0,-1,79,1740
2,3,41,28,0,0,-1,79,1739
2,3,42,28,0,0,-1,79,1738
2,3,43,28,0,0,-1,79,1737
2,3,44,28,0,0,-1,82,1736
2,3,45,28,0,0,-1,82,1735
2,3,46,28,0,0,-1,82,1734
2,3,47,28,0,0,-1,82,1733
2,3,44,29,0,0,-1,82,1732
2,3,45,29,0,0,-1,82,1731
2,3,46,29,0,0,-1,82,1730
2,3,47,29,0,0,-1,82,1729
2,3,44,30,0,0,-1,82,1728
2,3,45,30,0,0,-1,82,1727
2,3,46,30,0,0,-1,82,1726
2,3,47,30,0,0,-1,82,1725
2,3,44,31,0,0,-1,82,1724
2,3,45,31,0,0,-1,82,1723
2,3,46,31,0,0,-1,82,1722
2,3,47,31,0,0,-1,82,1721
7,1,50,0,1,82,1720
2,3,24,50,0,0,-1,82,1719
2,3,25,50,0,0,-1,82,1718
2,3,26,50,0,0,-1,82,1717
2,3,27,50,0,0,-1,82,1716
2,3,32,50,0,0,-1,82,1715
2,3,33,50,0,0,-1,82,1714
2,3,34,50,0,0,-1,82,1713
2,3,35,50,0,0,-1,82,1712
2,3,40,50,0,0,-1,82,1711
2,3,41,50,0,0,-1,82,1710
2,3,42,50,0,0,-1,82,1709
2,3,43,50,0,0,-1,82,1708
8,1,50,0,1,82,1707
7,1,49,0,1,82,1706
2,3,24,49,0,0,-1,82,1705
2,3,25,49,0,0,-1,82,1704
2,3,26,49,0,0,-1,82,1703
2,3,27,49,0,0,-1,82,1702
2,3,32,49,0,0,-1,82,1701
2,3,33,49,0,0,-1,82,1700
2,3,34,49,0,0,-1,82,1699
2,3,35,49,0,0,-1,82,1698
2,3,40,49,0,0,-1,82,1697
2,3,41,49,0,0,-1,82,1696
2,3,42,49,0,0,-1,82,1695
2,3,43,49,0,0,-1,82,1694
8,1,49,0,1,82,1693
7,1,48,0,1,82,1692
2,3,24,48,0,0,-1,82,1691
2,3,26,48,0,0,-1,82,1690
2,3,27,48,0,0,-1,82,1689
2,3,32,48,0,0,-1,82,1688
2,3,33,48,0,0,-1,82,1687
2,3,34,48,0,0,-1,82,1686
2,3,35,48,0,0,-1,82,1685
2,3,40,48,0,0,-1,82,1684
2,3,41,48,0,0,-1,82,1683
2,3,42,48,0,0,-1,82,1682
2,3,43,48,0,0,-1,82,1681
8,1,48,0,1,82,1680
2,3,44,48,0,0,-1,90,1679
2,3,45,48,0,0,-1,90,1678
2,3,46,48,0,0,-1,90,1677
2,3,47,48,0,0,-1,90,1676
2,3,44,49,0,0,-1,90,1675
2,3,45,49,0,0,-1,90,1674
2,3,46,49,0,0,-1,90,1673
2,3,47,49,0,0,-1,90,1672
2,3,44,50,0,0,-1,90,1671
2,3,45,50,0,0,-1,90,1670
2,3,46,50,0,0,-1,90,1669
2,3,47,50,0,0,-1,90,1668
2,3,11,1,0,0,-1,90,1667
2,3,8,2,0,0,-1,90,1666
2,3,9,2,0,0,-1,90,1665
2,3,10,2,0,0,-1,90,1664
2,3,11,2,0,0,-1,90,1663
2,3,8,3,0,0,-1,90,1662
2,3,9,3,0,0,-1,90,1661
2,3,10,3,0,0,-1,90,1660
2,3,11,3,0,0,-1,90,1659
2,3,18,4,0,0,-1,90,1658
2,3,18,5,0,0,-1,90,1657
2,3,19,4,0,0,-1,90,1656
2,3,19,5,0,0,-1,90,1655
3,2,48,0,0,10,116,1654
3,2,49,1,0,10,116,1653
3,2,50,2,0,10,116,1652
3,2,28,12,0,4,116,1651
3,2,29,13,0,4,116,1650
3,2,30,14,0,4,116,1649
3,2,31,15,0,4,116,1648
8,1,28,0,1,81,1647
8,1,29,0,1,81,1646
8,1,30,0,1,81,1645
8,1,31,0,1,81,1644
8,1,0,0,1,81,1643
8,1,1,0,1,81,1642
8,1,2,0,1,81,1641
8,1,3,0,1,81,1640
3,2,36,4,0,10,81,1639
3,2,37,5,0,10,81,1638
3,2,38,6,0,10,81,1637
3,2,39,7,0,10,81,1636
3,2,4,4,0,10,81,1635
3,2,5,5,0,10,81,1634
3,2,6,6,0,10,81,1633
3,2,7,7,0,10,81,1632
8,1,4,0,1,81,1631
8,1,5,0,1,81,1630
8,1,6,0,1,81,1629
8,1,7,0,1,81,1628
2,3,15,28,0,0,-1,80,1627
3,2,28,12,0,10,80,1626
2,3,15,29,0,0,-1,80,1625
3,2,29,13,0,10,80,1624
2,3,15,30,0,0,-1,80,1623
3,2,30,14,0,10,80,1622
2,3,15,31,0,0,-1,80,1621
3,2,31,15,0,10,80,1620
2,3,28,32,0,0,-1,80,1619
2,3,28,33,0,0,-1,80,1618
2,3,28,34,0,0,-1,80,1617
2,3,28,35,0,0,-1,80,1616
2,3,29,32,0,0,-1,80,1615
2,3,29,33,0,0,-1,80,1614
2,3,29,34,0,0,-1,80,1613
2,3,29,35,0,0,-1,80,1612
2,3,30,32,0,0,-1,80,1611
2,3,30,33,0,0,-1,80,1610
2,3,30,34,0,0,-1,80,1609
2,3,30,35,0,0,-1,80,1608
2,3,31,32,0,0,-1,80,1607
2,3,31,33,0,0,-1,80,1606
2,3,31,34,0,0,-1,80,1605
2,3,31,35,0,0,-1,80,1604
2,3,15,36,0,0,-1,80,1603
2,3,24,36,0,0,-1,80,1602
2,3,25,36,0,0,-1,80,1601
2,3,26,36,0,0,-1,80,1600
2,3,27,36,0,0,-1,80,1599
2,3,15,37,0,0,-1,80,1598
2,3,24,37,0,0,-1,80,1597
2,3,26,37,0,0,-1,80,1596
2,3,27,37,0,0,-1,80,1595
2,3,15,38,0,0,-1,80,1594
2,3,24,38,0,0,-1,80,1593
2,3,26,38,0,0,-1,80,1592
2,3,27,38,0,0,-1,80,1591
2,3,15,39,0,0,-1,80,1590
2,3,24,39,0,0,-1,80,1589
2,3,26,39,0,0,-1,80,1588
2,3,27,39,0,0,-1,80,1587
2,3,28,36,0,0,-1,94,1586
2,3,28,37,0,0,-1,94,1585
2,3,28,38,0,0,-1,94,1584
2,3,28,39,0,0,-1,94,1583
2,3,29,36,0,0,-1,94,1582
2,3,29,37,0,0,-1,94,1581
2,3,29,38,0,0,-1,94,1580
2,3,29,39,0,0,-1,94,1579
2,3,30,36,0,0,-1,94,1578
2,3,30,37,0,0,-1,94,1577
2,3,30,38,0,0,-1,94,1576
2,3,30,39,0,0,-1,94,1575
2,3,31,36,0,0,-1,94,1574
2,3,31,37,0,0,-1,94,1573
2,3,31,38,0,0,-1,94,1572
2,3,31,39,0,0,-1,94,1571
7,1,19,0,1,94,1570
2,3,18,19,0,0,-1,94,1569
2,3,19,19,0,0,-1,94,1568
2,3,31,19,0,0,-1,94,1567
3,2,19,3,0,4,94,1566
7,1,18,0,1,94,1565
2,3,16,18,0,0,-1,94,1564
2,3,17,18,0,0,-1,94,1563
2,3,18,18,0,0,-1,94,1562
2,3,19,18,0,0,-1,94,1561
2,3,28,18,0,0,-1,94,1560
2,3,29,18,0,0,-1,94,1559
2,3,30,18,0,0,-1,94,1558
2,3,31,18,0,0,-1,94,1557
2,3,32,18,0,0,-1,94,1556
2,3,33,18,0,0,-1,94,1555
2,3,34,18,0,0,-1,94,1554
2,3,35,18,0,0,-1,94,1553
3,2,18,2,0,4,94,1552
7,1,17,0,1,94,1551
2,3,16,17,0,0,-1,94,1550
2,3,17,17,0,0,-1,94,1549
2,3,18,17,0,0,-1,94,1548
2,3,28,17,0,0,-1,94,1547
2,3,29,17,0,0,-1,94,1546
2,3,30,17,0,0,-1,94,1545
2,3,31,17,0,0,-1,94,1544
2,3,32,17,0,0,-1,94,1543
2,3,33,17,0,0,-1,94,1542
2,3,34,17,0,0,-1,94,1541
2,3,35,17,0,0,-1,94,1540
3,2,17,1,0,4,94,1539
7,1,16,0,1,94,1538
2,3,16,16,0,0,-1,94,1537
2,3,17,16,0,0,-1,94,1536
2,3,18,16,0,0,-1,94,1535
2,3,28,16,0,0,-1,94,1534
2,3,29,16,0,0,-1,94,1533
2,3,30,16,0,0,-1,94,1532
2,3,31,16,0,0,-1,94,1531
2,3,32,16,0,0,-1,94,1530
2,3,33,16,0,0,-1,94,1529
2,3,34,16,0,0,-1,94,1528
2,3,35,16,0,0,-1,94,1527
3,2,16,0,0,4,94,1526
19,1,3,0,1,114,1525
2,3,3,8,0,0,-1,114,1524
2,3,3,9,0,0,-1,114,1523
2,3,3,10,0,0,-1,114,1522
2,3,3,11,0,0,-1,114,1521
2,3,3,18,0,0,-1,114,1520
2,3,3,19,0,0,-1,114,1519
2,3,3,20,0,0,-1,114,1518
2,3,3,21,0,0,-1,114,1517
19,1,2,0,1,114,1516
2,3,2,8,0,0,-1,114,1515
2,3,2,9,0,0,-1,114,1514
2,3,2,10,0,0,-1,114,1513
2,3,2,11,0,0,-1,114,1512
2,3,2,18,0,0,-1,114,1511
2,3,2,19,0,0,-1,114,1510
2,3,2,20,0,0,-1,114,1509
2,3,2,21,0,0,-1,114,1508
19,1,1,0,1,114,1507
2,3,1,11,0,0,-1,114,1506
2,3,1,18,0,0,-1,114,1505
2,3,1,19,0,0,-1,114,1504
2,3,1,20,0,0,-1,114,1503
2,3,1,21,0,0,-1,114,1502
19,1,0,0,1,114,1501
2,3,0,18,0,0,-1,114,1500
2,3,0,19,0,0,-1,114,1499
2,3,0,20,0,0,-1,114,1498
19,1,7,0,1,109,1497
2,3,7,4,0,0,-1,109,1496
2,3,7,5,0,0,-1,109,1495
2,3,7,6,0,0,-1,109,1494
2,3,7,7,0,0,-1,109,1493
2,3,7,8,0,0,-1,109,1492
2,3,7,9,0,0,-1,109,1491
2,3,7,10,0,0,-1,109,1490
2,3,7,11,0,0,-1,109,1489
19,1,6,0,1,109,1488
2,3,6,4,0,0,-1,109,1487
2,3,6,5,0,0,-1,109,1486
2,3,6,6,0,0,-1,109,1485
2,3,6,7,0,0,-1,109,1484
2,3,6,8,0,0,-1,109,1483
2,3,6,9,0,0,-1,109,1482
2,3,6,10,0,0,-1,109,1481
2,3,6,11,0,0,-1,109,1480
19,1,5,0,1,109,1479
2,3,5,4,0,0,-1,109,1478
2,3,5,5,0,0,-1,109,1477
2,3,5,6,0,0,-1,109,1476
2,3,5,7,0,0,-1,109,1475
2,3,5,8,0,0,-1,109,1474
2,3,5,9,0,0,-1,109,1473
2,3,5,10,0,0,-1,109,1472
2,3,5,11,0,0,-1,109,1471
2,3,5,18,0,0,-1,109,1470
2,3,5,19,0,0,-1,109,1469
19,1,4,0,1,109,1468
2,3,4,4,0,0,-1,109,1467
2,3,4,5,0,0,-1,109,1466
2,3,4,6,0,0,-1,109,1465
2,3,4,7,0,0,-1,109,1464
2,3,4,8,0,0,-1,109,1463
2,3,4,9,0,0,-1,109,1462
2,3,4,10,0,0,-1,109,1461
2,3,4,11,0,0,-1,109,1460
2,3,4,18,0,0,-1,109,1459
2,3,4,19,0,0,-1,109,1458
8,1,16,0,1,104,1457
8,1,17,0,1,104,1456
8,1,18,0,1,104,1455
8,1,19,0,1,104,1454
2,3,12,2,0,0,-1,104,1453
2,3,14,2,0,0,-1,104,1452
2,3,12,3,0,0,-1,104,1451
2,3,13,3,0,0,-1,104,1450
2,3,14,3,0,0,-1,104,1449
7,1,43,0,1,83,1448
2,3,24,43,0,0,-1,83,1447
2,3,25,43,0,0,-1,83,1446
2,3,26,43,0,0,-1,83,1445
2,3,27,43,0,0,-1,83,1444
2,3,28,43,0,0,-1,83,1443
2,3,29,43,0,0,-1,83,1442
2,3,30,43,0,0,-1,83,1441
2,3,31,43,0,0,-1,83,1440
2,3,32,43,0,0,-1,83,1439
2,3,33,43,0,0,-1,83,1438
2,3,34,43,0,0,-1,83,1437
2,3,35,43,0,0,-1,83,1436
2,3,40,43,0,0,-1,83,1435
2,3,41,43,0,0,-1,83,1434
2,3,42,43,0,0,-1,83,1433
2,3,43,43,0,0,-1,83,1432
2,3,48,43,0,0,-1,83,1431
2,3,49,43,0,0,-1,83,1430
2,3,50,43,0,0,-1,83,1429
7,1,42,0,1,83,1428
2,3,24,42,0,0,-1,83,1427
2,3,25,42,0,0,-1,83,1426
2,3,26,42,0,0,-1,83,1425
2,3,27,42,0,0,-1,83,1424
2,3,28,42,0,0,-1,83,1423
2,3,29,42,0,0,-1,83,1422
2,3,30,42,0,0,-1,83,1421
2,3,31,42,0,0,-1,83,1420
2,3,32,42,0,0,-1,83,1419
2,3,33,42,0,0,-1,83,1418
2,3,34,42,0,0,-1,83,1417
2,3,35,42,0,0,-1,83,1416
2,3,40,42,0,0,-1,83,1415
2,3,41,42,0,0,-1,83,1414
2,3,42,42,0,0,-1,83,1413
2,3,43,42,0,0,-1,83,1412
2,3,48,42,0,0,-1,83,1411
2,3,49,42,0,0,-1,83,1410
2,3,50,42,0,0,-1,83,1409
7,1,41,0,1,83,1408
2,3,24,41,0,0,-1,83,1407
2,3,25,41,0,0,-1,83,1406
2,3,26,41,0,0,-1,83,1405
2,3,27,41,0,0,-1,83,1404
2,3,28,41,0,0,-1,83,1403
2,3,29,41,0,0,-1,83,1402
2,3,30,41,0,0,-1,83,1401
2,3,31,41,0,0,-1,83,1400
2,3,32,41,0,0,-1,83,1399
2,3,33,41,0,0,-1,83,1398
2,3,34,41,0,0,-1,83,1397
2,3,35,41,0,0,-1,83,1396
2,3,40,41,0,0,-1,83,1395
2,3,41,41,0,0,-1,83,1394
2,3,42,41,0,0,-1,83,1393
2,3,43,41,0,0,-1,83,1392
2,3,48,41,0,0,-1,83,1391
2,3,49,41,0,0,-1,83,1390
2,3,50,41,0,0,-1,83,1389
7,1,40,0,1,83,1388
2,3,24,40,0,0,-1,83,1387
2,3,25,40,0,0,-1,83,1386
2,3,26,40,0,0,-1,83,1385
2,3,27,40,0,0,-1,83,1384
2,3,28,40,0,0,-1,83,1383
2,3,29,40,0,0,-1,83,1382
2,3,30,40,0,0,-1,83,1381
2,3,31,40,0,0,-1,83,1380
2,3,32,40,0,0,-1,83,1379
2,3,33,40,0,0,-1,83,1378
2,3,34,40,0,0,-1,83,1377
2,3,35,40,0,0,-1,83,1376
2,3,40,40,0,0,-1,83,1375
2,3,41,40,0,0,-1,83,1374
2,3,42,40,0,0,-1,83,1373
2,3,43,40,0,0,-1,83,1372
2,3,48,40,0,0,-1,83,1371
2,3,49,40,0,0,-1,83,1370
2,3,50,40,0,0,-1,83,1369
2,3,44,40,0,0,-1,89,1368
2,3,45,40,0,0,-1,89,1367
2,3,46,40,0,0,-1,89,1366
2,3,47,40,0,0,-1,89,1365
2,3,44,41,0,0,-1,89,1364
2,3,45,41,0,0,-1,89,1363
2,3,46,41,0,0,-1,89,1362
2,3,47,41,0,0,-1,89,1361
2,3,44,42,0,0,-1,89,1360
2,3,45,42,0,0,-1,89,1359
2,3,46,42,0,0,-1,89,1358
2,3,47,42,0,0,-1,89,1357
2,3,44,43,0,0,-1,89,1356
2,3,45,43,0,0,-1,89,1355
2,3,46,43,0,0,-1,89,1354
2,3,47,43,0,0,-1,89,1353
2,3,15,48,0,0,-1,89,1352
2,3,15,49,0,0,-1,89,1351
2,3,15,50,0,0,-1,89,1350
2,3,8,12,0,0,-1,89,1349
2,3,9,12,0,0,-1,89,1348
2,3,10,12,0,0,-1,89,1347
2,3,11,12,0,0,-1,89,1346
2,3,8,13,0,0,-1,89,1345
2,3,9,13,0,0,-1,89,1344
2,3,10,13,0,0,-1,89,1343
2,3,11,13,0,0,-1,89,1342
2,3,8,14,0,0,-1,89,1341
2,3,9,14,0,0,-1,89,1340
2,3,10,14,0,0,-1,89,1339
2,3,11,14,0,0,-1,89,1338
2,3,15,40,0,0,-1,84,1337
2,3,16,40,0,0,-1,84,1336
2,3,17,40,0,0,-1,84,1335
2,3,18,40,0,0,-1,84,1334
8,1,40,0,1,84,1333
2,3,15,41,0,0,-1,84,1332
2,3,16,41,0,0,-1,84,1331
2,3,17,41,0,0,-1,84,1330
2,3,18,41,0,0,-1,84,1329
2,3,19,41,0,0,-1,84,1328
8,1,41,0,1,84,1327
2,3,15,42,0,0,-1,84,1326
2,3,16,42,0,0,-1,84,1325
2,3,17,42,0,0,-1,84,1324
2,3,18,42,0,0,-1,84,1323
2,3,19,42,0,0,-1,84,1322
8,1,42,0,1,84,1321
2,3,15,43,0,0,-1,84,1320
2,3,16,43,0,0,-1,84,1319
2,3,17,43,0,0,-1,84,1318
2,3,18,43,0,0,-1,84,1317
2,3,19,43,0,0,-1,84,1316
8,1,43,0,1,84,1315
8,1,36,0,1,84,1314
8,1,37,0,1,84,1313
8,1,38,0,1,84,1312
8,1,39,0,1,84,1311
8,1,32,0,1,84,1310
8,1,33,0,1,84,1309
8,1,34,0,1,84,1308
8,1,35,0,1,84,1307
3,2,40,8,0,4,117,1306
3,2,41,9,0,4,117,1305
3,2,42,10,0,4,117,1304
3,2,43,11,0,4,117,1303
3,2,48,0,0,4,117,1302
3,2,49,1,0,4,117,1301
3,2,50,2,0,4,117,1300
3,2,20,4,0,4,117,1299
3,2,21,5,0,4,117,1298
3,2,22,6,0,4,117,1297
3,2,23,7,0,4,117,1296
2,3,24,0,0,0,-1,92,1295
2,3,25,0,0,0,-1,92,1294
2,3,26,0,0,0,-1,92,1293
2,3,24,1,0,0,-1,92,1292
2,3,25,1,0,0,-1,92,1291
2,3,26,1,0,0,-1,92,1290
2,3,24,2,0,0,-1,92,1289
2,3,25,2,0,0,-1,92,1288
2,3,26,2,0,0,-1,92,1287
2,3,24,3,0,0,-1,92,1286
2,3,25,3,0,0,-1,92,1285
2,3,26,3,0,0,-1,92,1284
7,1,27,0,1,92,1283
2,3,15,27,0,0,-1,92,1282
2,3,16,27,0,0,-1,92,1281
2,3,17,27,0,0,-1,92,1280
2,3,26,27,0,0,-1,92,1279
2,3,27,27,0,0,-1,92,1278
2,3,32,27,0,0,-1,92,1277
2,3,33,27,0,0,-1,92,1276
2,3,34,27,0,0,-1,92,1275
2,3,35,27,0,0,-1,92,1274
2,3,40,27,0,0,-1,92,1273
2,3,41,27,0,0,-1,92,1272
2,3,42,27,0,0,-1,92,1271
2,3,43,27,0,0,-1,92,1270
7,1,26,0,1,92,1269
2,3,14,26,0,0,-1,92,1268
2,3,15,26,0,0,-1,92,1267
2,3,16,26,0,0,-1,92,1266
2,3,17,26,0,0,-1,92,1265
2,3,18,26,0,0,-1,92,1264
2,3,19,26,0,0,-1,92,1263
2,3,24,26,0,0,-1,92,1262
2,3,25,26,0,0,-1,92,1261
2,3,26,26,0,0,-1,92,1260
2,3,27,26,0,0,-1,92,1259
2,3,32,26,0,0,-1,92,1258
2,3,33,26,0,0,-1,92,1257
2,3,34,26,0,0,-1,92,1256
2,3,35,26,0,0,-1,92,1255
2,3,40,26,0,0,-1,92,1254
2,3,41,26,0,0,-1,92,1253
2,3,42,26,0,0,-1,92,1252
2,3,43,26,0,0,-1,92,1251
7,1,25,0,1,92,1250
2,3,14,25,0,0,-1,92,1249
2,3,18,25,0,0,-1,92,1248
2,3,19,25,0,0,-1,92,1247
2,3,24,25,0,0,-1,92,1246
2,3,25,25,0,0,-1,92,1245
2,3,26,25,0,0,-1,92,1244
2,3,32,25,0,0,-1,92,1243
2,3,33,25,0,0,-1,92,1242
2,3,40,25,0,0,-1,92,1241
2,3,41,25,0,0,-1,92,1240
2,3,42,25,0,0,-1,92,1239
2,3,43,25,0,0,-1,92,1238
7,1,24,0,1,92,1237
2,3,14,24,0,0,-1,92,1236
2,3,15,24,0,0,-1,92,1235
2,3,16,24,0,0,-1,92,1234
2,3,17,24,0,0,-1,92,1233
2,3,18,24,0,0,-1,92,1232
2,3,19,24,0,0,-1,92,1231
2,3,24,24,0,0,-1,92,1230
2,3,25,24,0,0,-1,92,1229
2,3,26,24,0,0,-1,92,1228
2,3,32,24,0,0,-1,92,1227
2,3,33,24,0,0,-1,92,1226
2,3,34,24,0,0,-1,92,1225
2,3,35,24,0,0,-1,92,1224
2,3,40,24,0,0,-1,92,1223
2,3,41,24,0,0,-1,92,1222
2,3,42,24,0,0,-1,92,1221
2,3,43,24,0,0,-1,92,1220
3,2,35,3,0,5,99,1219
3,2,34,2,0,5,99,1218
3,2,33,1,0,5,99,1217
3,2,32,0,0,5,99,1216
2,3,40,16,0,0,-1,99,1215
2,3,41,16,0,0,-1,99,1214
2,3,42,16,0,0,-1,99,1213
2,3,43,16,0,0,-1,99,1212
2,3,40,17,0,0,-1,99,1211
2,3,41,17,0,0,-1,99,1210
2,3,42,17,0,0,-1,99,1209
2,3,43,17,0,0,-1,99,1208
2,3,40,18,0,0,-1,99,1207
2,3,41,18,0,0,-1,99,1206
2,3,42,18,0,0,-1,99,1205
2,3,43,18,0,0,-1,99,1204
2,3,41,19,0,0,-1,99,1203
2,3,42,19,0,0,-1,99,1202
2,3,43,19,0,0,-1,99,1201
2,3,18,0,0,0,-1,99,1200
2,3,19,0,0,0,-1,99,1199
2,3,18,1,0,0,-1,99,1198
2,3,19,1,0,0,-1,99,1197
2,3,18,2,0,0,-1,99,1196
2,3,19,2,0,0,-1,99,1195
2,3,18,3,0,0,-1,99,1194
2,3,19,3,0,0,-1,99,1193
8,1,24,0,1,101,1192
8,1,25,0,1,101,1191
8,1,26,0,1,101,1190
8,1,27,0,1,101,1189
2,3,15,16,0,0,-1,101,1188
2,3,14,18,0,0,-1,101,1187
2,3,15,18,0,0,-1,101,1186
2,3,14,19,0,0,-1,101,1185
2,3,16,48,0,0,-1,101,1184
2,3,17,48,0,0,-1,101,1183
2,3,18,48,0,0,-1,101,1182
2,3,16,49,0,0,-1,101,1181
2,3,17,49,0,0,-1,101,1180
2,3,18,49,0,0,-1,101,1179
2,3,16,50,0,0,-1,101,1178
2,3,17,50,0,0,-1,101,1177
3,2,17,1,0,7,101,1176
2,3,18,50,0,0,-1,101,1175
2,3,19,50,0,0,-1,101,1174
2,3,18,14,0,0,-1,101,1173
2,3,19,14,0,0,-1,101,1172
3,2,19,3,0,7,101,1171
2,3,16,15,0,0,-1,101,1170
3,2,16,0,0,7,101,1169
2,3,18,15,0,0,-1,101,1168
3,2,18,2,0,7,101,1167
3,2,18,2,0,5,106,1166
3,2,16,0,0,5,106,1165
3,2,19,3,0,5,106,1164
3,2,17,1,0,5,106,1163
3,2,35,3,0,7,106,1162
3,2,34,2,0,7,106,1161
3,2,33,1,0,7,106,1160
3,2,32,0,0,7,106,1159
2,3,48,24,0,0,-1,106,1158
2,3,49,24,0,0,-1,106,1157
2,3,50,24,0,0,-1,106,1156
2,3,49,25,0,0,-1,106,1155
2,3,50,25,0,0,-1,106,1154
2,3,48,26,0,0,-1,106,1153
2,3,49,26,0,0,-1,106,1152
2,3,50,26,0,0,-1,106,1151
2,3,48,27,0,0,-1,106,1150
2,3,49,27,0,0,-1,106,1149
2,3,50,27,0,0,-1,106,1148
2,3,0,24,0,0,-1,115,1147
2,3,1,24,0,0,-1,115,1146
2,3,2,24,0,0,-1,115,1145
2,3,3,24,0,0,-1,115,1144
2,3,0,25,0,0,-1,115,1143
2,3,1,25,0,0,-1,115,1142
2,3,2,25,0,0,-1,115,1141
2,3,3,25,0,0,-1,115,1140
2,3,0,26,0,0,-1,115,1139
2,3,1,26,0,0,-1,115,1138
2,3,2,26,0,0,-1,115,1137
2,3,3,26,0,0,-1,115,1136
2,3,0,0,0,0,-1,115,1135
2,3,0,1,0,0,-1,115,1134
2,3,1,0,0,0,-1,115,1133
2,3,1,1,0,0,-1,115,1132
2,3,1,2,0,0,-1,115,1131
2,3,2,1,0,0,-1,115,1130
2,3,2,2,0,0,-1,115,1129
2,3,2,3,0,0,-1,115,1128
2,3,3,2,0,0,-1,115,1127
2,3,3,3,0,0,-1,115,1126
2,3,4,24,0,0,-1,110,1125
2,3,5,24,0,0,-1,110,1124
2,3,4,25,0,0,-1,110,1123
2,3,5,25,0,0,-1,110,1122
2,3,4,26,0,0,-1,110,1121
2,3,5,26,0,0,-1,110,1120
2,3,4,3,0,0,-1,110,1119
2,3,7,3,0,0,-1,110,1118
19,1,23,0,1,119,1117
2,3,23,24,0,0,-1,119,1116
2,3,23,26,0,0,-1,119,1115
2,3,23,27,0,0,-1,119,1114
2,3,23,32,0,0,-1,119,1113
2,3,23,33,0,0,-1,119,1112
2,3,23,34,0,0,-1,119,1111
2,3,23,35,0,0,-1,119,1110
2,3,23,36,0,0,-1,119,1109
2,3,23,37,0,0,-1,119,1108
2,3,23,38,0,0,-1,119,1107
2,3,23,39,0,0,-1,119,1106
2,3,23,40,0,0,-1,119,1105
2,3,23,41,0,0,-1,119,1104
2,3,23,42,0,0,-1,119,1103
2,3,23,43,0,0,-1,119,1102
19,1,22,0,1,119,1101
2,3,22,24,0,0,-1,119,1100
2,3,22,26,0,0,-1,119,1099
2,3,22,27,0,0,-1,119,1098
2,3,22,32,0,0,-1,119,1097
2,3,22,33,0,0,-1,119,1096
2,3,22,34,0,0,-1,119,1095
2,3,22,35,0,0,-1,119,1094
2,3,22,36,0,0,-1,119,1093
2,3,22,37,0,0,-1,119,1092
2,3,22,38,0,0,-1,119,1091
2,3,22,39,0,0,-1,119,1090
2,3,22,40,0,0,-1,119,1089
2,3,22,41,0,0,-1,119,1088
2,3,22,42,0,0,-1,119,1087
2,3,22,43,0,0,-1,119,1086
19,1,21,0,1,119,1085
2,3,21,1,0,0,-1,119,1084
2,3,21,2,0,0,-1,119,1083
2,3,21,3,0,0,-1,119,1082
2,3,21,4,0,0,-1,119,1081
2,3,21,5,0,0,-1,119,1080
2,3,21,24,0,0,-1,119,1079
2,3,21,25,0,0,-1,119,1078
2,3,21,26,0,0,-1,119,1077
2,3,21,27,0,0,-1,119,1076
2,3,21,32,0,0,-1,119,1075
2,3,21,33,0,0,-1,119,1074
2,3,21,34,0,0,-1,119,1073
2,3,21,35,0,0,-1,119,1072
2,3,21,36,0,0,-1,119,1071
2,3,21,37,0,0,-1,119,1070
2,3,21,38,0,0,-1,119,1069
2,3,21,39,0,0,-1,119,1068
2,3,21,40,0,0,-1,119,1067
2,3,21,41,0,0,-1,119,1066
2,3,21,42,0,0,-1,119,1065
2,3,21,43,0,0,-1,119,1064
19,1,20,0,1,119,1063
2,3,20,0,0,0,-1,119,1062
2,3,20,1,0,0,-1,119,1061
2,3,20,2,0,0,-1,119,1060
2,3,20,3,0,0,-1,119,1059
2,3,20,4,0,0,-1,119,1058
2,3,20,5,0,0,-1,119,1057
2,3,20,24,0,0,-1,119,1056
2,3,20,25,0,0,-1,119,1055
2,3,20,26,0,0,-1,119,1054
2,3,20,32,0,0,-1,119,1053
2,3,20,33,0,0,-1,119,1052
2,3,20,36,0,0,-1,119,1051
2,3,20,40,0,0,-1,119,1050
2,3,20,41,0,0,-1,119,1049
2,3,20,42,0,0,-1,119,1048
2,3,20,14,0,0,-1,120,1047
2,3,20,44,0,0,-1,120,1046
2,3,20,45,0,0,-1,120,1045
2,3,20,47,0,0,-1,120,1044
2,3,21,14,0,0,-1,120,1043
2,3,21,15,0,0,-1,120,1042
2,3,21,44,0,0,-1,120,1041
2,3,21,45,0,0,-1,120,1040
2,3,21,46,0,0,-1,120,1039
2,3,21,47,0,0,-1,120,1038
2,3,22,15,0,0,-1,120,1037
2,3,22,44,0,0,-1,120,1036
2,3,22,45,0,0,-1,120,1035
2,3,22,46,0,0,-1,120,1034
2,3,22,47,0,0,-1,120,1033
2,3,23,14,0,0,-1,120,1032
2,3,23,15,0,0,-1,120,1031
2,3,23,44,0,0,-1,120,1030
2,3,23,45,0,0,-1,120,1029
2,3,23,46,0,0,-1,120,1028
2,3,23,47,0,0,-1,120,1027
3,2,1,1,0,5,120,1026
3,2,0,0,0,5,120,1025
2,3,2,12,0,0,-1,120,1024
2,3,2,14,0,0,-1,120,1023
3,2,2,2,0,5,120,1022
2,3,3,4,0,0,-1,120,1021
2,3,3,7,0,0,-1,120,1020
2,3,3,12,0,0,-1,120,1019
2,3,3,13,0,0,-1,120,1018
2,3,3,14,0,0,-1,120,1017
3,2,3,3,0,5,120,1016
3,2,3,3,0,7,122,1015
3,2,2,2,0,7,122,1014
2,3,20,18,0,0,-1,122,1013
2,3,20,19,0,0,-1,122,1012
2,3,20,31,0,0,-1,122,1011
2,3,21,18,0,0,-1,122,1010
2,3,21,19,0,0,-1,122,1009
2,3,21,28,0,0,-1,122,1008
2,3,21,29,0,0,-1,122,1007
2,3,21,30,0,0,-1,122,1006
2,3,21,31,0,0,-1,122,1005
2,3,22,16,0,0,-1,122,1004
2,3,22,18,0,0,-1,122,1003
2,3,22,28,0,0,-1,122,1002
2,3,22,29,0,0,-1,122,1001
2,3,22,30,0,0,-1,122,1000
2,3,22,31,0,0,-1,122,999
2,3,23,16,0,0,-1,122,998
2,3,23,17,0,0,-1,122,997
2,3,23,18,0,0,-1,122,996
2,3,23,28,0,0,-1,122,995
2,3,23,29,0,0,-1,122,994
2,3,23,30,0,0,-1,122,993
2,3,23,31,0,0,-1,122,992
3,2,1,1,0,7,122,991
3,2,0,0,0,7,122,990
2,3,20,20,0,0,-1,121,989
2,3,20,21,0,0,-1,121,988
2,3,20,49,0,0,-1,121,987
2,3,21,20,0,0,-1,121,986
2,3,21,21,0,0,-1,121,985
2,3,21,22,0,0,-1,121,984
2,3,21,23,0,0,-1,121,983
2,3,21,48,0,0,-1,121,982
2,3,21,49,0,0,-1,121,981
2,3,21,50,0,0,-1,121,980
2,3,22,21,0,0,-1,121,979
2,3,22,22,0,0,-1,121,978
2,3,22,23,0,0,-1,121,977
2,3,22,48,0,0,-1,121,976
2,3,22,49,0,0,-1,121,975
2,3,22,50,0,0,-1,121,974
2,3,23,21,0,0,-1,121,973
2,3,23,22,0,0,-1,121,972
2,3,23,23,0,0,-1,121,971
2,3,23,48,0,0,-1,121,970
2,3,23,49,0,0,-1,121,969
2,3,23,50,0,0,-1,121,968
19,1,39,0,1,96,967
2,3,39,15,0,0,-1,96,966
2,3,39,16,0,0,-1,96,965
2,3,39,17,0,0,-1,96,964
2,3,39,18,0,0,-1,96,963
2,3,39,19,0,0,-1,96,962
2,3,39,21,0,0,-1,96,961
2,3,39,22,0,0,-1,96,960
2,3,39,23,0,0,-1,96,959
2,3,39,24,0,0,-1,96,958
2,3,39,26,0,0,-1,96,957
2,3,39,27,0,0,-1,96,956
2,3,39,32,0,0,-1,96,955
2,3,39,33,0,0,-1,96,954
2,3,39,34,0,0,-1,96,953
2,3,39,35,0,0,-1,96,952
19,1,38,0,1,96,951
2,3,38,15,0,0,-1,96,950
2,3,38,16,0,0,-1,96,949
2,3,38,17,0,0,-1,96,948
2,3,38,18,0,0,-1,96,947
2,3,38,19,0,0,-1,96,946
2,3,38,21,0,0,-1,96,945
2,3,38,22,0,0,-1,96,944
2,3,38,23,0,0,-1,96,943
2,3,38,24,0,0,-1,96,942
2,3,38,26,0,0,-1,96,941
2,3,38,27,0,0,-1,96,940
2,3,38,32,0,0,-1,96,939
2,3,38,33,0,0,-1,96,938
2,3,38,34,0,0,-1,96,937
2,3,38,35,0,0,-1,96,936
19,1,37,0,1,96,935
2,3,37,15,0,0,-1,96,934
2,3,37,16,0,0,-1,96,933
2,3,37,17,0,0,-1,96,932
2,3,37,18,0,0,-1,96,931
2,3,37,21,0,0,-1,96,930
2,3,37,22,0,0,-1,96,929
2,3,37,23,0,0,-1,96,928
2,3,37,24,0,0,-1,96,927
2,3,37,26,0,0,-1,96,926
2,3,37,27,0,0,-1,96,925
2,3,37,32,0,0,-1,96,924
2,3,37,33,0,0,-1,96,923
2,3,37,34,0,0,-1,96,922
2,3,37,35,0,0,-1,96,921
19,1,36,0,1,96,920
2,3,36,15,0,0,-1,96,919
2,3,36,16,0,0,-1,96,918
2,3,36,17,0,0,-1,96,917
2,3,36,18,0,0,-1,96,916
2,3,36,20,0,0,-1,96,915
2,3,36,21,0,0,-1,96,914
2,3,36,22,0,0,-1,96,913
2,3,36,23,0,0,-1,96,912
2,3,36,24,0,0,-1,96,911
2,3,36,25,0,0,-1,96,910
2,3,36,26,0,0,-1,96,909
2,3,36,27,0,0,-1,96,908
2,3,36,32,0,0,-1,96,907
2,3,36,33,0,0,-1,96,906
2,3,36,34,0,0,-1,96,905
2,3,36,35,0,0,-1,96,904
2,3,36,28,0,0,-1,97,903
2,3,36,29,0,0,-1,97,902
2,3,36,30,0,0,-1,97,901
2,3,36,31,0,0,-1,97,900
2,3,37,28,0,0,-1,97,899
2,3,37,29,0,0,-1,97,898
2,3,37,30,0,0,-1,97,897
2,3,37,31,0,0,-1,97,896
2,3,38,28,0,0,-1,97,895
2,3,38,29,0,0,-1,97,894
2,3,38,30,0,0,-1,97,893
2,3,38,31,0,0,-1,97,892
2,3,39,28,0,0,-1,97,891
2,3,39,29,0,0,-1,97,890
2,3,39,30,0,0,-1,97,889
2,3,39,31,0,0,-1,97,888
2,3,44,44,0,0,-1,97,887
2,3,45,44,0,0,-1,97,886
2,3,46,44,0,0,-1,97,885
2,3,47,44,0,0,-1,97,884
2,3,44,45,0,0,-1,97,883
2,3,45,45,0,0,-1,97,882
2,3,46,45,0,0,-1,97,881
2,3,47,45,0,0,-1,97,880
2,3,44,46,0,0,-1,97,879
2,3,45,46,0,0,-1,97,878
2,3,46,46,0,0,-1,97,877
2,3,47,46,0,0,-1,97,876
2,3,44,47,0,0,-1,97,875
2,3,45,47,0,0,-1,97,874
2,3,46,47,0,0,-1,97,873
2,3,47,47,0,0,-1,97,872
2,3,36,36,0,0,-1,98,871
2,3,36,37,0,0,-1,98,870
2,3,36,38,0,0,-1,98,869
2,3,36,39,0,0,-1,98,868
2,3,36,40,0,0,-1,98,867
2,3,36,41,0,0,-1,98,866
2,3,36,42,0,0,-1,98,865
2,3,36,43,0,0,-1,98,864
2,3,36,48,0,0,-1,98,863
2,3,36,49,0,0,-1,98,862
2,3,36,50,0,0,-1,98,861
2,3,37,36,0,0,-1,98,860
2,3,37,37,0,0,-1,98,859
2,3,37,38,0,0,-1,98,858
2,3,37,39,0,0,-1,98,857
2,3,37,40,0,0,-1,98,856
2,3,37,41,0,0,-1,98,855
2,3,37,42,0,0,-1,98,854
2,3,37,43,0,0,-1,98,853
2,3,37,48,0,0,-1,98,852
2,3,37,49,0,0,-1,98,851
2,3,37,50,0,0,-1,98,850
2,3,38,36,0,0,-1,98,849
2,3,38,37,0,0,-1,98,848
2,3,38,38,0,0,-1,98,847
2,3,38,39,0,0,-1,98,846
2,3,38,40,0,0,-1,98,845
2,3,38,41,0,0,-1,98,844
2,3,38,42,0,0,-1,98,843
2,3,38,43,0,0,-1,98,842
2,3,38,48,0,0,-1,98,841
2,3,38,49,0,0,-1,98,840
2,3,38,50,0,0,-1,98,839
2,3,39,36,0,0,-1,98,838
2,3,39,37,0,0,-1,98,837
2,3,39,38,0,0,-1,98,836
2,3,39,39,0,0,-1,98,835
2,3,39,40,0,0,-1,98,834
2,3,39,41,0,0,-1,98,833
2,3,39,42,0,0,-1,98,832
2,3,39,43,0,0,-1,98,831
2,3,39,48,0,0,-1,98,830
2,3,39,49,0,0,-1,98,829
2,3,39,50,0,0,-1,98,828
2,3,28,24,0,0,-1,93,827
2,3,29,24,0,0,-1,93,826
2,3,30,24,0,0,-1,93,825
2,3,31,24,0,0,-1,93,824
2,3,44,24,0,0,-1,93,823
2,3,45,24,0,0,-1,93,822
2,3,46,24,0,0,-1,93,821
2,3,47,24,0,0,-1,93,820
2,3,31,25,0,0,-1,93,819
2,3,44,25,0,0,-1,93,818
2,3,45,25,0,0,-1,93,817
2,3,47,25,0,0,-1,93,816
2,3,28,26,0,0,-1,93,815
2,3,29,26,0,0,-1,93,814
2,3,30,26,0,0,-1,93,813
2,3,31,26,0,0,-1,93,812
2,3,44,26,0,0,-1,93,811
2,3,45,26,0,0,-1,93,810
2,3,46,26,0,0,-1,93,809
2,3,47,26,0,0,-1,93,808
2,3,28,27,0,0,-1,93,807
2,3,29,27,0,0,-1,93,806
2,3,30,27,0,0,-1,93,805
2,3,31,27,0,0,-1,93,804
2,3,44,27,0,0,-1,93,803
2,3,45,27,0,0,-1,93,802
2,3,46,27,0,0,-1,93,801
2,3,47,27,0,0,-1,93,800
2,3,8,4,0,0,-1,93,799
2,3,9,4,0,0,-1,93,798
2,3,10,4,0,0,-1,93,797
2,3,11,4,0,0,-1,93,796
2,3,8,5,0,0,-1,93,795
2,3,9,5,0,0,-1,93,794
2,3,10,5,0,0,-1,93,793
2,3,11,5,0,0,-1,93,792
2,3,8,6,0,0,-1,93,791
2,3,9,6,0,0,-1,93,790
2,3,10,6,0,0,-1,93,789
2,3,11,6,0,0,-1,93,788
2,3,8,7,0,0,-1,93,787
3,2,8,8,0,5,93,786
3,2,8,8,0,7,93,785
2,3,9,7,0,0,-1,93,784
3,2,9,9,0,5,93,783
3,2,9,9,0,7,93,782
2,3,10,7,0,0,-1,93,781
3,2,10,10,0,5,93,780
3,2,10,10,0,7,93,779
2,3,11,7,0,0,-1,93,778
3,2,11,11,0,5,93,777
3,2,11,11,0,7,93,776
2,3,44,16,0,0,-1,100,775
2,3,45,16,0,0,-1,100,774
2,3,46,16,0,0,-1,100,773
2,3,47,16,0,0,-1,100,772
2,3,44,17,0,0,-1,100,771
2,3,45,17,0,0,-1,100,770
2,3,46,17,0,0,-1,100,769
2,3,47,17,0,0,-1,100,768
2,3,44,18,0,0,-1,100,767
2,3,45,18,0,0,-1,100,766
2,3,46,18,0,0,-1,100,765
2,3,47,18,0,0,-1,100,764
2,3,44,19,0,0,-1,100,763
3,2,44,12,0,5,100,762
3,2,44,12,0,7,100,761
2,3,45,19,0,0,-1,100,760
3,2,45,13,0,5,100,759
3,2,45,13,0,7,100,758
2,3,46,19,0,0,-1,100,757
3,2,46,14,0,5,100,756
3,2,46,14,0,7,100,755
2,3,47,19,0,0,-1,100,754
3,2,47,15,0,5,100,753
3,2,47,15,0,7,100,752
2,3,24,16,0,0,-1,95,751
2,3,26,16,0,0,-1,95,750
2,3,27,16,0,0,-1,95,749
2,3,48,16,0,0,-1,95,748
2,3,49,16,0,0,-1,95,747
2,3,50,16,0,0,-1,95,746
3,2,16,0,0,10,95,745
2,3,24,17,0,0,-1,95,744
2,3,26,17,0,0,-1,95,743
2,3,27,17,0,0,-1,95,742
2,3,48,17,0,0,-1,95,741
2,3,49,17,0,0,-1,95,740
2,3,50,17,0,0,-1,95,739
3,2,17,1,0,10,95,738
2,3,24,18,0,0,-1,95,737
2,3,25,18,0,0,-1,95,736
2,3,26,18,0,0,-1,95,735
2,3,48,18,0,0,-1,95,734
2,3,49,18,0,0,-1,95,733
2,3,50,18,0,0,-1,95,732
3,2,18,2,0,10,95,731
2,3,24,19,0,0,-1,95,730
2,3,25,19,0,0,-1,95,729
2,3,26,19,0,0,-1,95,728
2,3,50,19,0,0,-1,95,727
3,2,19,3,0,10,95,726
2,3,28,48,0,0,-1,95,725
2,3,29,48,0,0,-1,95,724
2,3,30,48,0,0,-1,95,723
2,3,31,48,0,0,-1,95,722
2,3,28,49,0,0,-1,95,721
2,3,29,49,0,0,-1,95,720
2,3,30,49,0,0,-1,95,719
2,3,31,49,0,0,-1,95,718
2,3,28,50,0,0,-1,95,717
3,2,28,12,0,7,95,716
2,3,29,50,0,0,-1,95,715
3,2,29,13,0,7,95,714
2,3,30,50,0,0,-1,95,713
3,2,30,14,0,7,95,712
2,3,31,50,0,0,-1,95,711
3,2,31,15,0,7,95,710
2,3,48,48,0,0,-1,107,709
2,3,49,48,0,0,-1,107,708
2,3,50,48,0,0,-1,107,707
2,3,48,49,0,0,-1,107,706
2,3,49,49,0,0,-1,107,705
2,3,50,49,0,0,-1,107,704
2,3,48,50,0,0,-1,107,703
2,3,49,50,0,0,-1,107,702
2,3,50,50,0,0,-1,107,701
2,3,48,28,0,0,-1,107,700
2,3,49,28,0,0,-1,107,699
2,3,50,28,0,0,-1,107,698
2,3,48,29,0,0,-1,107,697
2,3,49,29,0,0,-1,107,696
2,3,50,29,0,0,-1,107,695
2,3,48,30,0,0,-1,107,694
2,3,49,30,0,0,-1,107,693
2,3,50,30,0,0,-1,107,692
2,3,48,31,0,0,-1,107,691
3,2,48,0,0,7,107,690
2,3,49,31,0,0,-1,107,689
3,2,49,1,0,7,107,688
2,3,50,31,0,0,-1,107,687
3,2,50,2,0,7,107,686
3,2,31,15,0,5,102,685
3,2,30,14,0,5,102,684
3,2,29,13,0,5,102,683
3,2,28,12,0,5,102,682
2,3,40,44,0,0,-1,102,681
2,3,41,44,0,0,-1,102,680
2,3,42,44,0,0,-1,102,679
2,3,43,44,0,0,-1,102,678
2,3,40,45,0,0,-1,102,677
2,3,41,45,0,0,-1,102,676
2,3,42,45,0,0,-1,102,675
2,3,43,45,0,0,-1,102,674
2,3,40,46,0,0,-1,102,673
2,3,41,46,0,0,-1,102,672
2,3,42,46,0,0,-1,102,671
2,3,43,46,0,0,-1,102,670
2,3,40,47,0,0,-1,102,669
3,2,40,8,0,7,102,668
2,3,41,47,0,0,-1,102,667
3,2,41,9,0,7,102,666
2,3,42,47,0,0,-1,102,665
3,2,42,10,0,7,102,664
2,3,43,47,0,0,-1,102,663
3,2,43,11,0,7,102,662
3,2,43,11,0,5,111,661
3,2,42,10,0,5,111,660
3,2,41,9,0,5,111,659
3,2,40,8,0,5,111,658
2,3,4,12,0,0,-1,111,657
2,3,4,13,0,0,-1,111,656
2,3,4,14,0,0,-1,111,655
2,3,4,20,0,0,-1,111,654
2,3,4,21,0,0,-1,111,653
3,2,4,4,0,5,111,652
3,2,4,4,0,7,111,651
2,3,5,12,0,0,-1,111,650
2,3,5,13,0,0,-1,111,649
2,3,5,14,0,0,-1,111,648
2,3,5,20,0,0,-1,111,647
2,3,5,21,0,0,-1,111,646
3,2,5,5,0,5,111,645
3,2,5,5,0,7,111,644
2,3,6,12,0,0,-1,111,643
2,3,6,13,0,0,-1,111,642
2,3,6,14,0,0,-1,111,641
3,2,6,6,0,5,111,640
3,2,6,6,0,7,111,639
2,3,7,12,0,0,-1,111,638
2,3,7,13,0,0,-1,111,637
2,3,7,14,0,0,-1,111,636
3,2,7,7,0,5,111,635
3,2,7,7,0,7,111,634
3,2,27,11,0,7,103,633
2,3,12,8,0,0,-1,103,632
2,3,13,8,0,0,-1,103,631
2,3,14,8,0,0,-1,103,630
2,3,12,9,0,0,-1,103,629
2,3,13,9,0,0,-1,103,628
2,3,14,9,0,0,-1,103,627
2,3,12,10,0,0,-1,103,626
2,3,13,10,0,0,-1,103,625
2,3,14,10,0,0,-1,103,624
2,3,12,11,0,0,-1,103,623
2,3,13,11,0,0,-1,103,622
2,3,14,11,0,0,-1,103,621
2,3,24,4,0,0,-1,103,620
2,3,24,5,0,0,-1,103,619
3,2,24,8,0,7,103,618
2,3,25,4,0,0,-1,103,617
2,3,25,5,0,0,-1,103,616
3,2,25,9,0,7,103,615
2,3,26,4,0,0,-1,103,614
2,3,26,5,0,0,-1,103,613
3,2,26,10,0,7,103,612
3,2,26,10,0,5,105,611
3,2,25,9,0,5,105,610
3,2,24,8,0,5,105,609
3,2,27,11,0,5,105,608
2,3,12,12,0,0,-1,105,607
2,3,13,12,0,0,-1,105,606
2,3,14,12,0,0,-1,105,605
2,3,12,13,0,0,-1,105,604
2,3,13,13,0,0,-1,105,603
2,3,14,13,0,0,-1,105,602
2,3,12,14,0,0,-1,105,601
3,2,12,12,0,7,105,600
2,3,13,14,0,0,-1,105,599
3,2,13,13,0,7,105,598
2,3,14,14,0,0,-1,105,597
2,3,15,14,0,0,-1,105,596
2,3,14,15,0,0,-1,105,595
3,2,14,14,0,7,105,594
2,3,15,15,0,0,-1,105,593
3,2,15,15,0,7,105,592
3,2,15,15,0,5,108,591
3,2,14,14,0,5,108,590
3,2,13,13,0,5,108,589
3,2,12,12,0,5,108,588
3,2,50,2,0,5,108,587
3,2,49,1,0,5,108,586
3,2,48,0,0,5,108,585
2,3,36,44,0,0,-1,108,584
2,3,36,45,0,0,-1,108,583
2,3,36,46,0,0,-1,108,582
2,3,36,47,0,0,-1,108,581
3,2,36,4,0,5,108,580
3,2,36,4,0,7,108,579
2,3,37,44,0,0,-1,108,578
2,3,37,45,0,0,-1,108,577
2,3,37,46,0,0,-1,108,576
2,3,37,47,0,0,-1,108,575
3,2,37,5,0,5,108,574
3,2,37,5,0,7,108,573
2,3,38,44,0,0,-1,108,572
2,3,38,45,0,0,-1,108,571
2,3,38,46,0,0,-1,108,570
2,3,38,47,0,0,-1,108,569
3,2,38,6,0,5,108,568
3,2,38,6,0,7,108,567
2,3,39,44,0,0,-1,108,566
2,3,39,45,0,0,-1,108,565
2,3,39,46,0,0,-1,108,564
2,3,39,47,0,0,-1,108,563
3,2,39,7,0,5,108,562
3,2,39,7,0,7,108,561
3,2,23,7,0,5,123,560
3,2,23,7,0,7,123,559
3,2,22,6,0,5,123,558
3,2,22,6,0,7,123,557
3,2,21,5,0,5,123,556
3,2,21,5,0,7,123,555
3,2,20,4,0,5,123,554
4,1,0,1,RARBUF,-1,123,553
15,0,1,RAR,-1,123,552
16,0,1,RAR,-1,123,551
3,2,20,4,0,7,123,550
4,1,0,1,RAPBUF,-1,123,549
3,2,24,8,0,4,112,548
3,2,25,9,0,4,112,547
3,2,26,10,0,4,112,546
3,2,27,11,0,4,112,545
3,2,4,4,0,4,112,544
3,2,5,5,0,4,112,543
3,2,6,6,0,4,112,542
3,2,7,7,0,4,112,541
3,2,0,0,0,4,113,540
3,2,1,1,0,4,113,539
3,2,2,2,0,4,113,538
3,2,3,3,0,4,113,537
3,2,44,12,0,4,113,536
3,2,45,13,0,4,113,535
3,2,46,14,0,4,113,534
3,2,47,15,0,4,113,533
3,2,32,0,0,4,113,532
3,2,33,1,0,4,113,531
3,2,34,2,0,4,113,530
3,2,35,3,0,4,113,529
3,2,24,8,0,10,118,528
3,2,25,9,0,10,118,527
3,2,26,10,0,10,118,526
3,2,27,11,0,10,118,525
3,2,40,8,0,10,118,524
3,2,41,9,0,10,118,523
3,2,42,10,0,10,118,522
3,2,43,11,0,10,118,521
4,1,0,1,RBPBUF,-1,118,520
21,0,1,CONSTRUCTGB,-1,118,519
3,2,36,4,0,4,118,518
3,2,37,5,0,4,118,517
3,2,38,6,0,4,118,516
3,2,39,7,0,4,118,515
4,1,0,1,XARBUF,-1,118,514
21,0,1,CONSTRUCTGA1,-1,124,513
21,0,1,CONSTRUCTGA2,-1,124,512
21,0,1,EIGEN,-1,124,511
5,1,16,0,6,124,510
5,1,17,0,6,124,509
5,1,18,0,6,124,508
5,1,19,0,6,124,507
5,1,24,0,6,124,506
5,1,25,0,6,124,505
5,1,26,0,6,124,504
5,1,27,0,6,124,503
5,1,40,0,6,124,502
5,1,41,0,6,124,501
5,1,42,0,6,124,500
5,1,43,0,6,124,499
5,1,32,0,6,125,498
5,1,33,0,6,125,497
5,1,34,0,6,125,496
5,1,35,0,6,125,495
5,1,0,0,7,125,494
5,1,1,0,7,125,493
5,1,2,0,7,125,492
5,1,3,0,7,125,491
5,1,4,0,7,132,490
5,1,5,0,7,132,489
5,1,6,0,7,132,488
5,1,7,0,7,132,487
5,1,28,0,7,132,486
5,1,29,0,7,132,485
5,1,30,0,7,132,484
5,1,31,0,7,132,483
5,1,36,0,7,132,482
5,1,37,0,7,132,481
5,1,38,0,7,132,480
5,1,39,0,7,132,479
5,1,28,0,6,136,478
6,1,28,0,1,136,477
5,1,29,0,6,136,476
6,1,29,0,1,136,475
5,1,30,0,6,136,474
6,1,30,0,1,136,473
5,1,31,0,6,136,472
6,1,31,0,1,136,471
5,1,36,0,6,136,470
6,1,36,0,1,136,469
5,1,37,0,6,136,468
6,1,37,0,1,136,467
5,1,38,0,6,136,466
6,1,38,0,1,136,465
5,1,39,0,6,136,464
6,1,39,0,1,136,463
5,1,4,0,6,133,462
6,1,4,0,1,133,461
5,1,5,0,6,133,460
6,1,5,0,1,133,459
5,1,6,0,6,133,458
6,1,6,0,1,133,457
5,1,7,0,6,133,456
6,1,7,0,1,133,455
5,1,44,0,6,133,454
5,1,45,0,6,133,453
5,1,46,0,6,133,452
5,1,47,0,6,133,451
5,1,44,0,7,133,450
6,1,44,0,1,133,449
5,1,45,0,7,133,448
6,1,45,0,1,133,447
5,1,46,0,7,133,446
6,1,46,0,1,133,445
5,1,47,0,7,133,444
6,1,47,0,1,133,443
5,1,20,0,6,131,442
5,1,21,0,6,131,441
5,1,22,0,6,131,440
5,1,23,0,6,131,439
5,1,12,0,7,131,438
5,1,13,0,7,131,437
5,1,14,0,7,131,436
5,1,15,0,7,131,435
5,1,0,0,8,131,434
5,1,1,0,8,131,433
5,1,2,0,8,131,432
5,1,3,0,8,131,431
5,1,12,0,6,134,430
6,1,12,0,1,134,429
5,1,13,0,6,134,428
6,1,13,0,1,134,427
5,1,14,0,6,134,426
6,1,14,0,1,134,425
5,1,15,0,6,134,424
6,1,15,0,1,134,423
5,1,20,0,7,134,422
6,1,20,0,1,134,421
5,1,21,0,7,134,420
6,1,21,0,1,134,419
5,1,22,0,7,134,418
6,1,22,0,1,134,417
5,1,23,0,7,134,416
6,1,23,0,1,134,415
5,1,20,0,8,134,414
5,1,21,0,8,134,413
5,1,22,0,8,134,412
5,1,23,0,8,134,411
5,1,12,0,10,135,410
6,1,12,0,3,135,409
5,1,13,0,10,135,408
6,1,13,0,3,135,407
5,1,14,0,10,135,406
6,1,14,0,3,135,405
5,1,15,0,10,135,404
6,1,15,0,3,135,403
5,1,16,0,8,145,402
5,1,17,0,8,145,401
5,1,18,0,8,145,400
5,1,19,0,8,145,399
5,1,32,0,8,145,398
5,1,33,0,8,145,397
5,1,34,0,8,145,396
5,1,35,0,8,145,395
5,1,16,0,9,146,394
6,1,16,0,2,146,393
5,1,17,0,9,146,392
6,1,17,0,2,146,391
5,1,18,0,9,146,390
6,1,18,0,2,146,389
5,1,19,0,9,146,388
6,1,19,0,2,146,387
5,1,16,0,10,146,386
5,1,17,0,10,146,385
5,1,18,0,10,146,384
5,1,19,0,10,146,383
5,1,44,0,10,146,382
5,1,45,0,10,146,381
5,1,46,0,10,146,380
5,1,47,0,10,146,379
5,1,24,0,7,138,378
6,1,24,0,1,138,377
5,1,25,0,7,138,376
6,1,25,0,1,138,375
5,1,26,0,7,138,374
6,1,26,0,1,138,373
5,1,27,0,7,138,372
6,1,27,0,1,138,371
5,1,4,0,9,138,370
5,1,5,0,9,138,369
5,1,6,0,9,138,368
5,1,7,0,9,138,367
5,1,36,0,9,127,366
5,1,37,0,9,127,365
5,1,38,0,9,127,364
5,1,39,0,9,127,363
5,1,48,0,9,127,362
5,1,49,0,9,127,361
5,1,50,0,9,127,360
5,1,0,0,10,127,359
5,1,1,0,10,127,358
5,1,2,0,10,127,357
5,1,3,0,10,127,356
5,1,12,0,9,139,355
5,1,13,0,9,139,354
5,1,14,0,9,139,353
5,1,15,0,9,139,352
5,1,4,0,10,139,351
5,1,5,0,10,139,350
5,1,6,0,10,139,349
5,1,7,0,10,139,348
6,1,7,0,3,143,347
6,1,6,0,3,143,346
6,1,5,0,3,143,345
6,1,4,0,3,143,344
5,1,20,0,10,143,343
5,1,21,0,10,143,342
5,1,22,0,10,143,341
5,1,23,0,10,143,340
6,1,23,0,3,151,339
6,1,22,0,3,151,338
6,1,21,0,3,151,337
6,1,20,0,3,151,336
5,1,28,0,9,151,335
5,1,29,0,9,151,334
5,1,30,0,9,151,333
5,1,31,0,9,151,332
5,1,28,0,10,151,331
5,1,29,0,10,151,330
5,1,30,0,10,151,329
5,1,31,0,10,151,328
6,1,47,0,3,155,327
6,1,46,0,3,155,326
6,1,45,0,3,155,325
6,1,44,0,3,155,324
5,1,28,0,8,155,323
6,1,28,0,2,155,322
5,1,29,0,8,155,321
6,1,29,0,2,155,320
5,1,30,0,8,155,319
6,1,30,0,2,155,318
5,1,31,0,8,155,317
6,1,31,0,2,155,316
5,1,28,0,11,156,315
6,1,28,0,4,156,314
5,1,29,0,11,156,313
6,1,29,0,4,156,312
5,1,30,0,11,156,311
6,1,30,0,4,156,310
5,1,31,0,11,156,309
6,1,31,0,4,156,308
5,1,12,0,8,144,307
6,1,12,0,2,144,306
5,1,13,0,8,144,305
6,1,13,0,2,144,304
5,1,14,0,8,144,303
6,1,14,0,2,144,302
5,1,15,0,8,144,301
6,1,15,0,2,144,300
5,1,24,0,9,144,299
5,1,25,0,9,144,298
5,1,26,0,9,144,297
5,1,27,0,9,144,296
5,1,20,0,9,148,295
5,1,21,0,9,148,294
5,1,22,0,9,148,293
5,1,23,0,9,148,292
5,1,32,0,10,148,291
5,1,33,0,10,148,290
5,1,34,0,10,148,289
5,1,35,0,10,148,288
5,1,40,0,9,130,287
5,1,41,0,9,130,286
5,1,42,0,9,130,285
5,1,43,0,9,130,284
5,1,40,0,10,130,283
5,1,41,0,10,130,282
5,1,42,0,10,130,281
5,1,43,0,10,130,280
5,1,0,0,11,130,279
5,1,1,0,11,130,278
5,1,2,0,11,130,277
5,1,3,0,11,130,276
5,1,0,0,9,149,275
6,1,0,0,2,149,274
6,1,0,0,4,149,273
5,1,1,0,9,149,272
6,1,1,0,2,149,271
6,1,1,0,4,149,270
5,1,2,0,9,149,269
6,1,2,0,2,149,268
6,1,2,0,4,149,267
5,1,3,0,9,149,266
6,1,3,0,2,149,265
6,1,3,0,4,149,264
5,1,40,0,8,142,263
6,1,40,0,2,142,262
5,1,41,0,8,142,261
6,1,41,0,2,142,260
5,1,42,0,8,142,259
6,1,42,0,2,142,258
5,1,43,0,8,142,257
6,1,43,0,2,142,256
5,1,36,0,10,142,255
6,1,36,0,3,142,254
5,1,37,0,10,142,253
6,1,37,0,3,142,252
5,1,38,0,10,142,251
6,1,38,0,3,142,250
5,1,39,0,10,142,249
6,1,39,0,3,142,248
5,1,40,0,11,161,247
6,1,40,0,4,161,246
5,1,41,0,11,161,245
6,1,41,0,4,161,244
5,1,42,0,11,161,243
6,1,42,0,4,161,242
5,1,43,0,11,161,241
6,1,43,0,4,161,240
5,1,44,0,9,128,239
5,1,45,0,9,128,238
5,1,46,0,9,128,237
5,1,47,0,9,128,236
5,1,8,0,11,128,235
5,1,9,0,11,128,234
5,1,10,0,11,128,233
5,1,11,0,11,128,232
5,1,20,0,11,128,231
5,1,21,0,11,128,230
5,1,22,0,11,128,229
5,1,23,0,11,128,228
6,1,23,0,2,154,227
6,1,23,0,4,154,226
6,1,22,0,2,154,225
6,1,22,0,4,154,224
6,1,21,0,2,154,223
6,1,21,0,4,154,222
6,1,20,0,2,154,221
6,1,20,0,4,154,220
6,1,31,0,3,154,219
6,1,30,0,3,154,218
6,1,29,0,3,154,217
6,1,28,0,3,154,216
5,1,32,0,9,129,215
5,1,33,0,9,129,214
5,1,34,0,9,129,213
5,1,35,0,9,129,212
5,1,36,0,11,129,211
5,1,37,0,11,129,210
5,1,38,0,11,129,209
5,1,39,0,11,129,208
5,1,32,0,7,150,207
6,1,32,0,1,150,206
6,1,32,0,3,150,205
5,1,33,0,7,150,204
6,1,33,0,1,150,203
6,1,33,0,3,150,202
5,1,34,0,7,150,201
6,1,34,0,1,150,200
6,1,34,0,3,150,199
5,1,35,0,7,150,198
6,1,35,0,1,150,197
6,1,35,0,3,150,196
5,1,36,0,8,150,195
6,1,36,0,2,150,194
6,1,36,0,4,150,193
5,1,37,0,8,150,192
6,1,37,0,2,150,191
6,1,37,0,4,150,190
5,1,38,0,8,150,189
6,1,38,0,2,150,188
6,1,38,0,4,150,187
5,1,39,0,8,150,186
6,1,39,0,2,150,185
6,1,39,0,4,150,184
6,1,35,0,2,152,183
6,1,34,0,2,152,182
6,1,33,0,2,152,181
6,1,32,0,2,152,180
5,1,4,0,11,152,179
5,1,5,0,11,152,178
5,1,6,0,11,152,177
5,1,7,0,11,152,176
5,1,12,0,11,152,175
5,1,13,0,11,152,174
5,1,14,0,11,152,173
5,1,15,0,11,152,172
6,1,15,0,4,157,171
6,1,14,0,4,157,170
6,1,13,0,4,157,169
6,1,12,0,4,157,168
5,1,40,0,7,157,167
6,1,40,0,1,157,166
5,1,41,0,7,157,165
6,1,41,0,1,157,164
5,1,42,0,7,157,163
6,1,42,0,1,157,162
5,1,43,0,7,157,161
6,1,43,0,1,157,160
6,1,43,0,3,158,159
6,1,42,0,3,158,158
6,1,41,0,3,158,157
6,1,40,0,3,158,156
5,1,16,0,11,158,155
5,1,17,0,11,158,154
5,1,18,0,11,158,153
5,1,19,0,11,158,152
5,1,44,0,11,158,151
5,1,45,0,11,158,150
5,1,46,0,11,158,149
5,1,47,0,11,158,148
6,1,19,0,4,160,147
6,1,18,0,4,160,146
6,1,17,0,4,160,145
6,1,16,0,4,160,144
5,1,8,0,8,160,143
5,1,9,0,8,160,142
5,1,10,0,8,160,141
5,1,11,0,8,160,140
5,1,8,0,9,160,139
6,1,8,0,2,160,138
6,1,8,0,4,160,137
5,1,9,0,9,160,136
6,1,9,0,2,160,135
6,1,9,0,4,160,134
5,1,10,0,9,160,133
6,1,10,0,2,160,132
6,1,10,0,4,160,131
5,1,11,0,9,160,130
6,1,11,0,2,160,129
6,1,11,0,4,160,128
5,1,4,0,8,153,127
6,1,4,0,2,153,126
6,1,4,0,4,153,125
5,1,5,0,8,153,124
6,1,5,0,2,153,123
6,1,5,0,4,153,122
5,1,6,0,8,153,121
6,1,6,0,2,153,120
6,1,6,0,4,153,119
5,1,7,0,8,153,118
6,1,7,0,2,153,117
6,1,7,0,4,153,116
5,1,32,0,11,153,115
6,1,32,0,4,153,114
5,1,33,0,11,153,113
6,1,33,0,4,153,112
5,1,34,0,11,153,111
6,1,34,0,4,153,110
5,1,35,0,11,153,109
6,1,35,0,4,153,108
5,1,8,0,6,126,107
5,1,9,0,6,126,106
5,1,10,0,6,126,105
5,1,11,0,6,126,104
5,1,48,0,6,126,103
5,1,49,0,6,126,102
5,1,50,0,6,126,101
5,1,48,0,11,126,100
5,1,49,0,11,126,99
5,1,50,0,11,126,98
5,1,48,0,8,140,97
6,1,48,0,2,140,96
6,1,48,0,4,140,95
5,1,49,0,8,140,94
6,1,49,0,2,140,93
6,1,49,0,4,140,92
5,1,50,0,8,140,91
6,1,50,0,2,140,90
6,1,50,0,4,140,89
5,1,48,0,7,141,88
6,1,48,0,1,141,87
5,1,49,0,7,141,86
6,1,49,0,1,141,85
5,1,50,0,7,141,84
6,1,50,0,1,141,83
5,1,8,0,7,137,82
6,1,8,0,1,137,81
5,1,9,0,7,137,80
6,1,9,0,1,137,79
5,1,10,0,7,137,78
6,1,10,0,1,137,77
5,1,11,0,7,137,76
6,1,11,0,1,137,75
5,1,24,0,8,137,74
5,1,25,0,8,137,73
5,1,26,0,8,137,72
5,1,27,0,8,137,71
5,1,24,0,10,137,70
5,1,25,0,10,137,69
5,1,26,0,10,137,68
5,1,27,0,10,137,67
6,1,27,0,3,159,66
6,1,26,0,3,159,65
6,1,25,0,3,159,64
6,1,24,0,3,159,63
5,1,44,0,8,159,62
6,1,44,0,2,159,61
5,1,45,0,8,159,60
6,1,45,0,2,159,59
5,1,46,0,8,159,58
6,1,46,0,2,159,57
5,1,47,0,8,159,56
6,1,47,0,2,159,55
6,1,47,0,4,162,54
6,1,46,0,4,162,53
6,1,45,0,4,162,52
6,1,44,0,4,162,51
5,1,16,0,7,162,50
6,1,16,0,1,162,49
6,1,16,0,3,162,48
5,1,17,0,7,162,47
6,1,17,0,1,162,46
6,1,17,0,3,162,45
5,1,18,0,7,162,44
6,1,18,0,1,162,43
6,1,18,0,3,162,42
5,1,19,0,7,162,41
6,1,19,0,1,162,40
6,1,19,0,3,162,39
6,1,27,0,2,147,38
6,1,26,0,2,147,37
6,1,25,0,2,147,36
6,1,24,0,2,147,35
5,1,48,0,10,147,34
6,1,48,0,3,147,33
5,1,49,0,10,147,32
6,1,49,0,3,147,31
5,1,50,0,10,147,30
6,1,50,0,3,147,29
5,1,24,0,11,147,28
6,1,24,0,4,147,27
5,1,25,0,11,147,26
6,1,25,0,4,147,25
5,1,26,0,11,147,24
6,1,26,0,4,147,23
5,1,27,0,11,147,22
6,1,27,0,4,147,21
5,1,0,0,6,163,20
6,1,0,0,1,163,19
6,1,0,0,3,163,18
5,1,1,0,6,163,17
6,1,1,0,1,163,16
6,1,1,0,3,163,15
5,1,2,0,6,163,14
6,1,2,0,1,163,13
6,1,2,0,3,163,12
5,1,3,0,6,163,11
6,1,3,0,1,163,10
6,1,3,0,3,163,9
5,1,8,0,10,163,8
6,1,8,0,3,163,7
5,1,9,0,10,163,6
6,1,9,0,3,163,5
5,1,10,0,10,163,4
6,1,10,0,3,163,3
5,1,11,0,10,163,2
6,1,11,0,3,163,1
