_AP,47 21 3663
_AP,46 21 3662
_AP,45 21 3661
_AP,44 21 3660
_AP,43 21 3659
_AP,42 21 3658
_AP,41 21 3657
_AP,40 21 3656
_AP,15 21 3655
_AP,14 21 3654
_AP,13 21 3653
_AP,12 21 3652
_AP,11 21 3651
_AP,10 21 3650
_AP,9 21 3649
_AP,8 21 3648
_X,7 7 3647
_X,6 7 3646
_X,5 7 3645
_X,4 7 3644
_X,3 7 3643
_X,2 7 3642
_X,1 7 3641
_X,0 7 3640
_P,50 4 3639
_P,49 4 3638
_P,48 4 3637
_AX,31 4 3636
_AX,30 4 3635
_AX,29 4 3634
_AX,28 4 3633
_AX,27 4 3632
_AX,26 4 3631
_AX,25 4 3630
_AX,24 4 3629
RESET,RN 1 3628
_P,23 1 3627
_P,22 1 3626
_P,21 1 3625
_P,20 1 3624
_P,19 1 3623
_P,18 1 3622
_P,17 1 3621
_P,16 1 3620
_P,7 1 3619
_P,6 1 3618
_P,5 1 3617
_P,4 1 3616
_P,3 1 3615
_P,2 1 3614
_P,1 1 3613
_P,0 1 3612
_AX,47 0 3611
_AX,46 0 3610
_AX,45 0 3609
_AX,44 0 3608
_AX,43 0 3607
_AX,42 0 3606
_AX,41 0 3605
_AX,40 0 3604
_X,47 0 3603
_X,46 0 3602
_X,45 0 3601
_X,44 0 3600
_X,43 0 3599
_X,42 0 3598
_X,41 0 3597
_X,40 0 3596
_P,31 0 3595
_P,30 0 3594
_P,29 0 3593
_P,28 0 3592
_P,27 0 3591
_P,26 0 3590
_P,25 0 3589
_P,24 0 3588
_AX,7 0 3587
_AX,6 0 3586
_AX,5 0 3585
_AX,4 0 3584
_AX,3 0 3583
_AX,2 0 3582
_AX,1 0 3581
_AX,0 0 3580
_lambda 2 3579
XY,40,1 2 3578
XY,41,1 2 3577
XY,42,1 2 3576
XY,43,1 2 3575
XY,44,1 2 3574
XY,45,1 2 3573
XY,46,1 2 3572
XY,47,1 2 3571
SUB,47,1 14 3570
MULT,47 14 3569
COL,47,15 14 3568
SUB,46,1 14 3567
MULT,46 14 3566
COL,46,14 14 3565
SUB,45,1 14 3564
MULT,45 14 3563
COL,45,13 14 3562
SUB,44,1 14 3561
MULT,44 14 3560
COL,44,12 14 3559
SUB,43,1 14 3558
MULT,43 14 3557
COL,43,11 14 3556
SUB,42,1 14 3555
MULT,42 14 3554
COL,42,10 14 3553
SUB,41,1 14 3552
MULT,41 14 3551
COL,41,9 14 3550
SUB,40,1 14 3549
MULT,40 14 3548
COL,40,8 14 3547
_AX,39 14 3546
_AX,38 14 3545
_AX,37 14 3544
_AX,36 14 3543
_AX,35 14 3542
_AX,34 14 3541
_AX,33 14 3540
_AX,32 14 3539
XY,0,1 12 3538
SUB,0,1 12 3537
MULT,0 12 3536
XY,1,1 12 3535
SUB,1,1 12 3534
MULT,1 12 3533
XY,2,1 12 3532
SUB,2,1 12 3531
MULT,2 12 3530
XY,3,1 12 3529
SUB,3,1 12 3528
MULT,3 12 3527
XY,4,1 12 3526
SUB,4,1 12 3525
MULT,4 12 3524
XY,5,1 12 3523
SUB,5,1 12 3522
MULT,5 12 3521
XY,6,1 12 3520
SUB,6,1 12 3519
MULT,6 12 3518
XY,7,1 12 3517
SUB,7,1 12 3516
MULT,7 12 3515
COL,7,7 13 3514
COL,6,6 13 3513
COL,5,5 13 3512
COL,4,4 13 3511
COL,3,3 13 3510
COL,2,2 13 3509
COL,1,1 13 3508
COL,0,0 13 3507
_AX,50 13 3506
_AX,49 13 3505
_AX,48 13 3504
_P,47 13 3503
_P,46 13 3502
_P,45 13 3501
_P,44 13 3500
_P,43 13 3499
_P,42 13 3498
_P,41 13 3497
_P,40 13 3496
_P,39 5 3495
_P,38 5 3494
_P,37 5 3493
_P,36 5 3492
_P,35 5 3491
_P,34 5 3490
_P,33 5 3489
_P,32 5 3488
_X,15 5 3487
XY,15,1 5 3486
_X,14 5 3485
XY,14,1 5 3484
_X,13 5 3483
XY,13,1 5 3482
_X,12 5 3481
XY,12,1 5 3480
_X,11 5 3479
XY,11,1 5 3478
_X,10 5 3477
XY,10,1 5 3476
_X,9 5 3475
XY,9,1 5 3474
_X,8 5 3473
XY,8,1 5 3472
_X,23 6 3471
XY,23,1 6 3470
_X,22 6 3469
XY,22,1 6 3468
_X,21 6 3467
XY,21,1 6 3466
_X,20 6 3465
XY,20,1 6 3464
_X,19 6 3463
XY,19,1 6 3462
_X,18 6 3461
XY,18,1 6 3460
_X,17 6 3459
XY,17,1 6 3458
_X,16 6 3457
XY,16,1 6 3456
_AP,23 22 3455
_AP,22 22 3454
_AP,21 22 3453
_AP,20 22 3452
_AP,19 22 3451
_AP,18 22 3450
_AP,17 22 3449
_AP,16 22 3448
_AX,23 22 3447
SUB,23,1 22 3446
MULT,23 22 3445
COL,23,7 22 3444
_AX,22 22 3443
SUB,22,1 22 3442
MULT,22 22 3441
COL,22,6 22 3440
_AX,21 22 3439
SUB,21,1 22 3438
MULT,21 22 3437
COL,21,5 22 3436
_AX,20 22 3435
SUB,20,1 22 3434
MULT,20 22 3433
COL,20,4 22 3432
_AX,19 22 3431
SUB,19,1 22 3430
MULT,19 22 3429
COL,19,3 22 3428
_AX,18 22 3427
SUB,18,1 22 3426
MULT,18 22 3425
COL,18,2 22 3424
_AX,17 22 3423
SUB,17,1 22 3422
MULT,17 22 3421
COL,17,1 22 3420
_AX,16 22 3419
SUB,16,1 22 3418
MULT,16 22 3417
COL,16,0 22 3416
_X,31 15 3415
XY,31,1 15 3414
_X,30 15 3413
XY,30,1 15 3412
_X,29 15 3411
XY,29,1 15 3410
_X,28 15 3409
XY,28,1 15 3408
_X,27 15 3407
XY,27,1 15 3406
_X,26 15 3405
XY,26,1 15 3404
_X,25 15 3403
XY,25,1 15 3402
_X,24 15 3401
XY,24,1 15 3400
SUB,24,1 16 3399
MULT,24 16 3398
COL,24,8 16 3397
SUB,25,1 16 3396
MULT,25 16 3395
COL,25,9 16 3394
SUB,26,1 16 3393
MULT,26 16 3392
COL,26,10 16 3391
SUB,27,1 16 3390
MULT,27 16 3389
COL,27,11 16 3388
SUB,28,1 16 3387
MULT,28 16 3386
COL,28,12 16 3385
SUB,29,1 16 3384
MULT,29 16 3383
COL,29,13 16 3382
SUB,30,1 16 3381
MULT,30 16 3380
COL,30,14 16 3379
SUB,31,1 16 3378
MULT,31 16 3377
COL,31,15 16 3376
_X,39 19 3375
XY,39,1 19 3374
_X,38 19 3373
XY,38,1 19 3372
_X,37 19 3371
XY,37,1 19 3370
_X,36 19 3369
XY,36,1 19 3368
_X,35 19 3367
XY,35,1 19 3366
_X,34 19 3365
XY,34,1 19 3364
_X,33 19 3363
XY,33,1 19 3362
_X,32 19 3361
XY,32,1 19 3360
SUB,32,1 20 3359
MULT,32 20 3358
COL,32,0 20 3357
SUB,33,1 20 3356
MULT,33 20 3355
COL,33,1 20 3354
SUB,34,1 20 3353
MULT,34 20 3352
COL,34,2 20 3351
SUB,35,1 20 3350
MULT,35 20 3349
COL,35,3 20 3348
SUB,36,1 20 3347
MULT,36 20 3346
COL,36,4 20 3345
SUB,37,1 20 3344
MULT,37 20 3343
COL,37,5 20 3342
SUB,38,1 20 3341
MULT,38 20 3340
COL,38,6 20 3339
SUB,39,1 20 3338
MULT,39 20 3337
COL,39,7 20 3336
_X,50 3 3335
XY,50,1 3 3334
_X,49 3 3333
XY,49,1 3 3332
_X,48 3 3331
XY,48,1 3 3330
_P,15 3 3329
_P,14 3 3328
_P,13 3 3327
_P,12 3 3326
_P,11 3 3325
_P,10 3 3324
_P,9 3 3323
_P,8 3 3322
SUB,48,1 17 3321
MULT,48 17 3320
SUB,49,1 17 3319
MULT,49 17 3318
SUB,50,1 17 3317
MULT,50 17 3316
_AX,15 17 3315
_AX,14 17 3314
_AX,13 17 3313
_AX,12 17 3312
_AX,11 17 3311
_AX,10 17 3310
_AX,9 17 3309
_AX,8 17 3308
SUB,8,1 18 3307
MULT,8 18 3306
COL,8,8 18 3305
SUB,9,1 18 3304
MULT,9 18 3303
COL,9,9 18 3302
SUB,10,1 18 3301
MULT,10 18 3300
COL,10,10 18 3299
SUB,11,1 18 3298
MULT,11 18 3297
COL,11,11 18 3296
SUB,12,1 18 3295
MULT,12 18 3294
COL,12,12 18 3293
SUB,13,1 18 3292
MULT,13 18 3291
COL,13,13 18 3290
SUB,14,1 18 3289
MULT,14 18 3288
COL,14,14 18 3287
SUB,15,1 18 3286
MULT,15 18 3285
COL,15,15 18 3284
COL,50,2 23 3283
COL,49,1 23 3282
COL,48,0 23 3281
RNRED,RNBUF 23 3280
SQRT,RN 23 3279
RESET,actMask 23 3278
_AP,50 23 3277
_AP,49 23 3276
_AP,48 23 3275
CONV,actMask 24 3274
GET,16,3 24 3273
GET,17,3 24 3272
GET,18,3 24 3271
GET,19,3 24 3270
GET,20,3 24 3269
GET,21,3 24 3268
GET,22,3 24 3267
GET,23,3 24 3266
GET,40,3 24 3265
GET,41,3 24 3264
GET,42,3 24 3263
GET,43,3 24 3262
GET,44,3 24 3261
GET,45,3 24 3260
GET,46,3 24 3259
GET,47,3 24 3258
GET,16,1 28 3257
XTY,16,0,1 28 3256
GET,17,1 28 3255
XTY,17,1,1 28 3254
GET,18,1 28 3253
XTY,18,2,1 28 3252
GET,19,1 28 3251
XTY,19,3,1 28 3250
GET,20,1 28 3249
XTY,20,4,1 28 3248
GET,21,1 28 3247
XTY,21,5,1 28 3246
GET,22,1 28 3245
XTY,22,6,1 28 3244
GET,23,1 28 3243
XTY,23,7,1 28 3242
GET,24,1 32 3241
XTY,24,8,1 32 3240
GET,25,1 32 3239
XTY,25,9,1 32 3238
GET,26,1 32 3237
XTY,26,10,1 32 3236
GET,27,1 32 3235
XTY,27,11,1 32 3234
GET,28,1 32 3233
XTY,28,12,1 32 3232
GET,29,1 32 3231
XTY,29,13,1 32 3230
GET,30,1 32 3229
XTY,30,14,1 32 3228
GET,31,1 32 3227
XTY,31,15,1 32 3226
GET,32,1 35 3225
XTY,32,0,1 35 3224
GET,33,1 35 3223
XTY,33,1,1 35 3222
GET,34,1 35 3221
XTY,34,2,1 35 3220
GET,35,1 35 3219
XTY,35,3,1 35 3218
GET,36,1 35 3217
XTY,36,4,1 35 3216
GET,37,1 35 3215
XTY,37,5,1 35 3214
GET,38,1 35 3213
XTY,38,6,1 35 3212
GET,39,1 35 3211
XTY,39,7,1 35 3210
GET,40,1 30 3209
XTY,40,8,1 30 3208
GET,41,1 30 3207
XTY,41,9,1 30 3206
GET,42,1 30 3205
XTY,42,10,1 30 3204
GET,43,1 30 3203
XTY,43,11,1 30 3202
GET,44,1 30 3201
XTY,44,12,1 30 3200
GET,45,1 30 3199
XTY,45,13,1 30 3198
GET,46,1 30 3197
XTY,46,14,1 30 3196
GET,47,1 30 3195
XTY,47,15,1 30 3194
GET,8,1 29 3193
GET,9,1 29 3192
GET,10,1 29 3191
GET,11,1 29 3190
GET,12,1 29 3189
GET,13,1 29 3188
GET,14,1 29 3187
GET,15,1 29 3186
GET,48,1 29 3185
GET,49,1 29 3184
GET,50,1 29 3183
XTY,50,2,1 31 3182
XTY,49,1,1 31 3181
XTY,48,0,1 31 3180
XTY,15,15,1 34 3179
XTY,14,14,1 34 3178
XTY,13,13,1 34 3177
XTY,12,12,1 34 3176
XTY,11,11,1 34 3175
XTY,10,10,1 34 3174
XTY,9,9,1 34 3173
XTY,8,8,1 34 3172
GET,0,1 36 3171
XTY,0,0,1 36 3170
GET,1,1 36 3169
XTY,1,1,1 36 3168
GET,2,1 36 3167
XTY,2,2,1 36 3166
GET,3,1 36 3165
XTY,3,3,1 36 3164
GET,4,1 36 3163
XTY,4,4,1 36 3162
GET,5,1 36 3161
XTY,5,5,1 36 3160
GET,6,1 36 3159
XTY,6,6,1 36 3158
GET,7,1 36 3157
XTY,7,7,1 36 3156
RED,temp2BUF,0 36 3155
XY,8,2 41 3154
SUB,8,2 41 3153
XY,9,2 41 3152
SUB,9,2 41 3151
XY,10,2 41 3150
SUB,10,2 41 3149
XY,11,2 41 3148
SUB,11,2 41 3147
XY,12,2 41 3146
SUB,12,2 41 3145
XY,13,2 41 3144
SUB,13,2 41 3143
XY,14,2 41 3142
SUB,14,2 41 3141
XY,15,2 41 3140
SUB,15,2 41 3139
XY,16,2 37 3138
XY,17,2 37 3137
XY,18,2 37 3136
XY,19,2 37 3135
XY,20,2 37 3134
XY,21,2 37 3133
XY,22,2 37 3132
XY,23,2 37 3131
SUB,23,2 47 3130
XTY,23,7,2 47 3129
SUB,22,2 47 3128
XTY,22,6,2 47 3127
SUB,21,2 47 3126
XTY,21,5,2 47 3125
SUB,20,2 47 3124
XTY,20,4,2 47 3123
SUB,19,2 47 3122
XTY,19,3,2 47 3121
SUB,18,2 47 3120
XTY,18,2,2 47 3119
SUB,17,2 47 3118
XTY,17,1,2 47 3117
SUB,16,2 47 3116
XTY,16,0,2 47 3115
GET,48,2 47 3114
XTY,48,0,3 47 3113
GET,49,2 47 3112
XTY,49,1,3 47 3111
GET,50,2 47 3110
XTY,50,2,3 47 3109
XY,32,2 40 3108
XY,33,2 40 3107
XY,34,2 40 3106
XY,35,2 40 3105
XY,36,2 40 3104
XY,37,2 40 3103
XY,38,2 40 3102
XY,39,2 40 3101
SUB,39,2 49 3100
XTY,39,7,2 49 3099
SUB,38,2 49 3098
XTY,38,6,2 49 3097
SUB,37,2 49 3096
XTY,37,5,2 49 3095
SUB,36,2 49 3094
XTY,36,4,2 49 3093
SUB,35,2 49 3092
XTY,35,3,2 49 3091
SUB,34,2 49 3090
XTY,34,2,2 49 3089
SUB,33,2 49 3088
XTY,33,1,2 49 3087
SUB,32,2 49 3086
XTY,32,0,2 49 3085
XTY,15,15,2 49 3084
XTY,14,14,2 49 3083
XTY,13,13,2 49 3082
XTY,12,12,2 49 3081
XTY,11,11,2 49 3080
XTY,10,10,2 49 3079
XTY,9,9,2 49 3078
XTY,8,8,2 49 3077
XY,24,2 39 3076
XY,25,2 39 3075
XY,26,2 39 3074
XY,27,2 39 3073
XY,28,2 39 3072
XY,29,2 39 3071
XY,30,2 39 3070
XY,31,2 39 3069
XY,40,2 39 3068
XY,41,2 39 3067
XY,42,2 39 3066
XY,43,2 39 3065
XY,44,2 39 3064
XY,45,2 39 3063
XY,46,2 39 3062
XY,47,2 39 3061
SUB,31,2 46 3060
XTY,31,15,2 46 3059
SUB,30,2 46 3058
XTY,30,14,2 46 3057
SUB,29,2 46 3056
XTY,29,13,2 46 3055
SUB,28,2 46 3054
XTY,28,12,2 46 3053
SUB,27,2 46 3052
XTY,27,11,2 46 3051
SUB,26,2 46 3050
XTY,26,10,2 46 3049
SUB,25,2 46 3048
XTY,25,9,2 46 3047
SUB,24,2 46 3046
XTY,24,8,2 46 3045
XY,0,2 38 3044
XY,1,2 38 3043
XY,2,2 38 3042
XY,3,2 38 3041
XY,4,2 38 3040
XY,5,2 38 3039
XY,6,2 38 3038
XY,7,2 38 3037
XY,48,2 38 3036
XY,49,2 38 3035
XY,50,2 38 3034
SUB,7,2 42 3033
XTY,7,7,2 42 3032
SUB,6,2 42 3031
XTY,6,6,2 42 3030
SUB,5,2 42 3029
XTY,5,5,2 42 3028
SUB,4,2 42 3027
XTY,4,4,2 42 3026
SUB,3,2 42 3025
XTY,3,3,2 42 3024
SUB,2,2 42 3023
XTY,2,2,2 42 3022
SUB,1,2 42 3021
XTY,1,1,2 42 3020
SUB,0,2 42 3019
XTY,0,0,2 42 3018
GET,16,2 42 3017
XTY,16,0,3 42 3016
GET,17,2 42 3015
XTY,17,1,3 42 3014
GET,18,2 42 3013
XTY,18,2,3 42 3012
GET,19,2 42 3011
XTY,19,3,3 42 3010
GET,20,2 42 3009
XTY,20,4,3 42 3008
GET,21,2 42 3007
XTY,21,5,3 42 3006
GET,22,2 42 3005
XTY,22,6,3 42 3004
GET,23,2 42 3003
XTY,23,7,3 42 3002
GET,8,2 48 3001
XTY,8,8,3 48 3000
GET,9,2 48 2999
XTY,9,9,3 48 2998
GET,10,2 48 2997
XTY,10,10,3 48 2996
GET,11,2 48 2995
XTY,11,11,3 48 2994
GET,12,2 48 2993
XTY,12,12,3 48 2992
GET,13,2 48 2991
XTY,13,13,3 48 2990
GET,14,2 48 2989
XTY,14,14,3 48 2988
GET,15,2 48 2987
XTY,15,15,3 48 2986
GET,24,2 44 2985
XTY,24,8,3 44 2984
GET,25,2 44 2983
XTY,25,9,3 44 2982
GET,26,2 44 2981
XTY,26,10,3 44 2980
GET,27,2 44 2979
XTY,27,11,3 44 2978
GET,28,2 44 2977
XTY,28,12,3 44 2976
GET,29,2 44 2975
XTY,29,13,3 44 2974
GET,30,2 44 2973
XTY,30,14,3 44 2972
GET,31,2 44 2971
XTY,31,15,3 44 2970
GET,32,2 43 2969
GET,33,2 43 2968
GET,34,2 43 2967
GET,35,2 43 2966
GET,36,2 43 2965
GET,37,2 43 2964
GET,38,2 43 2963
GET,39,2 43 2962
GET,40,2 43 2961
XTY,40,8,3 43 2960
GET,41,2 43 2959
XTY,41,9,3 43 2958
GET,42,2 43 2957
XTY,42,10,3 43 2956
GET,43,2 43 2955
XTY,43,11,3 43 2954
GET,44,2 43 2953
XTY,44,12,3 43 2952
GET,45,2 43 2951
XTY,45,13,3 43 2950
GET,46,2 43 2949
XTY,46,14,3 43 2948
GET,47,2 43 2947
XTY,47,15,3 43 2946
XTY,39,7,3 45 2945
XTY,38,6,3 45 2944
XTY,37,5,3 45 2943
XTY,36,4,3 45 2942
XTY,35,3,3 45 2941
XTY,34,2,3 45 2940
XTY,33,1,3 45 2939
XTY,32,0,3 45 2938
SUB,50,2 45 2937
XTY,50,2,2 45 2936
SUB,49,2 45 2935
XTY,49,1,2 45 2934
SUB,48,2 45 2933
XTY,48,0,2 45 2932
GET,0,2 50 2931
XTY,0,0,3 50 2930
GET,1,2 50 2929
XTY,1,1,3 50 2928
GET,2,2 50 2927
XTY,2,2,3 50 2926
GET,3,2 50 2925
XTY,3,3,3 50 2924
GET,4,2 50 2923
XTY,4,4,3 50 2922
GET,5,2 50 2921
XTY,5,5,3 50 2920
GET,6,2 50 2919
XTY,6,6,3 50 2918
GET,7,2 50 2917
XTY,7,7,3 50 2916
RED,PBPBUF,0 50 2915
CHOL,PBP 50 2914
INV,PBP 51 2913
XY,0,4 51 2912
XY,1,4 51 2911
XY,2,4 51 2910
XY,3,4 51 2909
XY,4,4 51 2908
XY,5,4 51 2907
XY,6,4 51 2906
XY,7,4 51 2905
XY,40,4 51 2904
XY,41,4 51 2903
XY,42,4 51 2902
XY,43,4 51 2901
XY,44,4 51 2900
XY,45,4 51 2899
XY,46,4 51 2898
XY,47,4 51 2897
DLACPY,47,2 61 2896
DLACPY,46,2 61 2895
DLACPY,45,2 61 2894
DLACPY,44,2 61 2893
DLACPY,43,2 61 2892
DLACPY,42,2 61 2891
DLACPY,41,2 61 2890
DLACPY,40,2 61 2889
XY,8,4 58 2888
XY,9,4 58 2887
XY,10,4 58 2886
XY,11,4 58 2885
XY,12,4 58 2884
XY,13,4 58 2883
XY,14,4 58 2882
XY,15,4 58 2881
XY,24,4 58 2880
XY,25,4 58 2879
XY,26,4 58 2878
XY,27,4 58 2877
XY,28,4 58 2876
XY,29,4 58 2875
XY,30,4 58 2874
XY,31,4 58 2873
DLACPY,31,2 63 2872
UPDATE,31,2 63 2871
XTY,31,15,6 63 2870
DLACPY,30,2 63 2869
UPDATE,30,2 63 2868
XTY,30,14,6 63 2867
DLACPY,29,2 63 2866
UPDATE,29,2 63 2865
XTY,29,13,6 63 2864
DLACPY,28,2 63 2863
UPDATE,28,2 63 2862
XTY,28,12,6 63 2861
DLACPY,27,2 63 2860
UPDATE,27,2 63 2859
XTY,27,11,6 63 2858
DLACPY,26,2 63 2857
UPDATE,26,2 63 2856
XTY,26,10,6 63 2855
DLACPY,25,2 63 2854
UPDATE,25,2 63 2853
XTY,25,9,6 63 2852
DLACPY,24,2 63 2851
UPDATE,24,2 63 2850
XTY,24,8,6 63 2849
XTY,24,8,9 64 2848
XTY,25,9,9 64 2847
XTY,26,10,9 64 2846
XTY,27,11,9 64 2845
XTY,28,12,9 64 2844
XTY,29,13,9 64 2843
XTY,30,14,9 64 2842
XTY,31,15,9 64 2841
UPDATE,40,2 64 2840
UPDATE,41,2 64 2839
UPDATE,42,2 64 2838
UPDATE,43,2 64 2837
UPDATE,44,2 64 2836
UPDATE,45,2 64 2835
UPDATE,46,2 64 2834
UPDATE,47,2 64 2833
DLACPY,15,2 60 2832
UPDATE,15,2 60 2831
XTY,15,15,6 60 2830
XTY,15,15,9 60 2829
DLACPY,14,2 60 2828
UPDATE,14,2 60 2827
XTY,14,14,6 60 2826
XTY,14,14,9 60 2825
DLACPY,13,2 60 2824
UPDATE,13,2 60 2823
XTY,13,13,6 60 2822
XTY,13,13,9 60 2821
DLACPY,12,2 60 2820
UPDATE,12,2 60 2819
XTY,12,12,6 60 2818
XTY,12,12,9 60 2817
DLACPY,11,2 60 2816
UPDATE,11,2 60 2815
XTY,11,11,6 60 2814
XTY,11,11,9 60 2813
DLACPY,10,2 60 2812
UPDATE,10,2 60 2811
XTY,10,10,6 60 2810
XTY,10,10,9 60 2809
DLACPY,9,2 60 2808
UPDATE,9,2 60 2807
XTY,9,9,6 60 2806
XTY,9,9,9 60 2805
DLACPY,8,2 60 2804
UPDATE,8,2 60 2803
XTY,8,8,6 60 2802
XTY,8,8,9 60 2801
XY,16,5 57 2800
XY,17,5 57 2799
XY,18,5 57 2798
XY,19,5 57 2797
XY,20,5 57 2796
XY,21,5 57 2795
XY,22,5 57 2794
XY,23,5 57 2793
DLACPY,23,3 70 2792
UPDATE,23,3 70 2791
DLACPY,22,3 70 2790
UPDATE,22,3 70 2789
DLACPY,21,3 70 2788
UPDATE,21,3 70 2787
DLACPY,20,3 70 2786
UPDATE,20,3 70 2785
DLACPY,19,3 70 2784
UPDATE,19,3 70 2783
DLACPY,18,3 70 2782
UPDATE,18,3 70 2781
DLACPY,17,3 70 2780
UPDATE,17,3 70 2779
DLACPY,16,3 70 2778
UPDATE,16,3 70 2777
XY,48,4 54 2776
XY,49,4 54 2775
XY,50,4 54 2774
XY,40,5 54 2773
XY,41,5 54 2772
XY,42,5 54 2771
XY,43,5 54 2770
XY,44,5 54 2769
XY,45,5 54 2768
XY,46,5 54 2767
XY,47,5 54 2766
DLACPY,47,3 71 2765
UPDATE,47,3 71 2764
XTY,47,15,8 71 2763
DLACPY,46,3 71 2762
UPDATE,46,3 71 2761
XTY,46,14,8 71 2760
DLACPY,45,3 71 2759
UPDATE,45,3 71 2758
XTY,45,13,8 71 2757
DLACPY,44,3 71 2756
UPDATE,44,3 71 2755
XTY,44,12,8 71 2754
DLACPY,43,3 71 2753
UPDATE,43,3 71 2752
XTY,43,11,8 71 2751
DLACPY,42,3 71 2750
UPDATE,42,3 71 2749
XTY,42,10,8 71 2748
DLACPY,41,3 71 2747
UPDATE,41,3 71 2746
XTY,41,9,8 71 2745
DLACPY,40,3 71 2744
UPDATE,40,3 71 2743
XTY,40,8,8 71 2742
DLACPY,50,2 65 2741
UPDATE,50,2 65 2740
XTY,50,2,9 65 2739
DLACPY,49,2 65 2738
UPDATE,49,2 65 2737
XTY,49,1,9 65 2736
DLACPY,48,2 65 2735
UPDATE,48,2 65 2734
XTY,48,0,9 65 2733
XTY,48,0,6 69 2732
XTY,49,1,6 69 2731
XTY,50,2,6 69 2730
XTY,40,8,9 69 2729
XTY,41,9,9 69 2728
XTY,42,10,9 69 2727
XTY,43,11,9 69 2726
XTY,44,12,9 69 2725
XTY,45,13,9 69 2724
XTY,46,14,9 69 2723
XTY,47,15,9 69 2722
SUB,47,2 78 2721
XTY,47,15,2 78 2720
SUB,46,2 78 2719
XTY,46,14,2 78 2718
SUB,45,2 78 2717
XTY,45,13,2 78 2716
SUB,44,2 78 2715
XTY,44,12,2 78 2714
SUB,43,2 78 2713
XTY,43,11,2 78 2712
SUB,42,2 78 2711
XTY,42,10,2 78 2710
SUB,41,2 78 2709
XTY,41,9,2 78 2708
SUB,40,2 78 2707
XTY,40,8,2 78 2706
RED,RBRBUF,0 78 2705
SETZERO,31,1 78 2704
SETZERO,30,1 78 2703
SETZERO,29,1 78 2702
SETZERO,28,1 78 2701
SETZERO,27,1 78 2700
SETZERO,26,1 78 2699
SETZERO,25,1 78 2698
SETZERO,24,1 78 2697
SETZERO,23,1 78 2696
SETZERO,22,1 78 2695
SETZERO,21,1 78 2694
SETZERO,20,1 78 2693
SETZERO,19,1 78 2692
SETZERO,18,1 78 2691
SETZERO,17,1 78 2690
SETZERO,16,1 78 2689
CHOL,RBR 79 2688
INV,RBR 79 2687
XY,0,3 80 2686
XY,1,3 80 2685
XY,2,3 80 2684
XY,3,3 80 2683
XY,4,3 80 2682
XY,5,3 80 2681
XY,6,3 80 2680
XY,7,3 80 2679
XY,16,3 86 2678
XY,17,3 86 2677
XY,18,3 86 2676
XY,19,3 86 2675
XY,20,3 86 2674
XY,21,3 86 2673
XY,22,3 86 2672
XY,23,3 86 2671
SETZERO,7,1 86 2670
SETZERO,6,1 86 2669
SETZERO,5,1 86 2668
SETZERO,4,1 86 2667
SETZERO,3,1 86 2666
SETZERO,2,1 86 2665
SETZERO,1,1 86 2664
SETZERO,0,1 86 2663
XY,48,3 111 2662
DLACPY,48,1 111 2661
UPDATE,48,1 111 2660
XY,49,3 111 2659
DLACPY,49,1 111 2658
UPDATE,49,1 111 2657
XY,50,3 111 2656
DLACPY,50,1 111 2655
UPDATE,50,1 111 2654
_AP,7 26 2653
GET,7,3 26 2652
_AP,6 26 2651
GET,6,3 26 2650
_AP,5 26 2649
GET,5,3 26 2648
_AP,4 26 2647
GET,4,3 26 2646
_AP,3 26 2645
GET,3,3 26 2644
_AP,2 26 2643
GET,2,3 26 2642
_AP,1 26 2641
GET,1,3 26 2640
_AP,0 26 2639
GET,0,3 26 2638
XY,0,5 52 2637
XY,1,5 52 2636
XY,2,5 52 2635
XY,3,5 52 2634
XY,4,5 52 2633
XY,5,5 52 2632
XY,6,5 52 2631
XY,7,5 52 2630
XY,32,4 52 2629
XY,33,4 52 2628
XY,34,4 52 2627
XY,35,4 52 2626
XY,36,4 52 2625
XY,37,4 52 2624
XY,38,4 52 2623
XY,39,4 52 2622
DLACPY,7,3 67 2621
UPDATE,7,3 67 2620
DLACPY,6,3 67 2619
UPDATE,6,3 67 2618
DLACPY,5,3 67 2617
UPDATE,5,3 67 2616
DLACPY,4,3 67 2615
UPDATE,4,3 67 2614
DLACPY,3,3 67 2613
UPDATE,3,3 67 2612
DLACPY,2,3 67 2611
UPDATE,2,3 67 2610
DLACPY,1,3 67 2609
UPDATE,1,3 67 2608
DLACPY,0,3 67 2607
UPDATE,0,3 67 2606
DLACPY,7,2 74 2605
UPDATE,7,2 74 2604
XTY,7,7,8 74 2603
XTY,7,7,9 74 2602
DLACPY,6,2 74 2601
UPDATE,6,2 74 2600
XTY,6,6,8 74 2599
XTY,6,6,9 74 2598
DLACPY,5,2 74 2597
UPDATE,5,2 74 2596
XTY,5,5,8 74 2595
XTY,5,5,9 74 2594
DLACPY,4,2 74 2593
UPDATE,4,2 74 2592
XTY,4,4,8 74 2591
XTY,4,4,9 74 2590
DLACPY,3,2 74 2589
UPDATE,3,2 74 2588
XTY,3,3,8 74 2587
XTY,3,3,9 74 2586
DLACPY,2,2 74 2585
UPDATE,2,2 74 2584
XTY,2,2,8 74 2583
XTY,2,2,9 74 2582
DLACPY,1,2 74 2581
UPDATE,1,2 74 2580
XTY,1,1,8 74 2579
XTY,1,1,9 74 2578
DLACPY,0,2 74 2577
UPDATE,0,2 74 2576
XTY,0,0,8 74 2575
XTY,0,0,9 74 2574
XTY,0,0,6 76 2573
XTY,1,1,6 76 2572
XTY,2,2,6 76 2571
XTY,3,3,6 76 2570
XTY,4,4,6 76 2569
XTY,5,5,6 76 2568
XTY,6,6,6 76 2567
XTY,7,7,6 76 2566
XTY,40,8,6 76 2565
XTY,41,9,6 76 2564
XTY,42,10,6 76 2563
XTY,43,11,6 76 2562
XTY,44,12,6 76 2561
XTY,45,13,6 76 2560
XTY,46,14,6 76 2559
XTY,47,15,6 76 2558
DLACPY,7,1 85 2557
XTY,7,7,4 85 2556
XTY,7,7,10 85 2555
DLACPY,6,1 85 2554
XTY,6,6,4 85 2553
XTY,6,6,10 85 2552
DLACPY,5,1 85 2551
SPMM,18,5,0 85 2550
SPMM,19,5,0 85 2549
SPMM,20,5,0 85 2548
SPMM,21,5,0 85 2547
XTY,5,5,4 85 2546
XTY,5,5,10 85 2545
DLACPY,4,1 85 2544
SPMM,18,4,0 85 2543
SPMM,19,4,0 85 2542
SPMM,20,4,0 85 2541
SPMM,21,4,0 85 2540
XTY,4,4,4 85 2539
XTY,4,4,10 85 2538
DLACPY,3,1 85 2537
SPMM,18,3,0 85 2536
SPMM,19,3,0 85 2535
SPMM,20,3,0 85 2534
SPMM,21,3,0 85 2533
XTY,3,3,4 85 2532
XTY,3,3,10 85 2531
DLACPY,2,1 85 2530
SPMM,18,2,0 85 2529
SPMM,19,2,0 85 2528
SPMM,20,2,0 85 2527
SPMM,21,2,0 85 2526
XTY,2,2,4 85 2525
XTY,2,2,10 85 2524
DLACPY,1,1 85 2523
SPMM,18,1,0 85 2522
SPMM,19,1,0 85 2521
SPMM,20,1,0 85 2520
SPMM,21,1,0 85 2519
XTY,1,1,4 85 2518
XTY,1,1,10 85 2517
DLACPY,0,1 85 2516
SPMM,18,0,0 85 2515
SPMM,19,0,0 85 2514
SPMM,20,0,0 85 2513
XTY,0,0,4 85 2512
XTY,0,0,10 85 2511
SPMM,0,0,0 93 2510
SPMM,1,0,0 93 2509
SPMM,0,1,0 93 2508
SPMM,1,1,0 93 2507
SPMM,2,1,0 93 2506
SPMM,1,2,0 93 2505
SPMM,2,2,0 93 2504
SPMM,3,2,0 93 2503
SPMM,2,3,0 93 2502
SPMM,3,3,0 93 2501
SPMM,4,3,0 93 2500
SPMM,7,3,0 93 2499
SPMM,3,4,0 93 2498
SPMM,4,4,0 93 2497
SPMM,5,4,0 93 2496
SPMM,6,4,0 93 2495
SPMM,7,4,0 93 2494
SPMM,4,5,0 93 2493
SPMM,5,5,0 93 2492
SPMM,6,5,0 93 2491
SPMM,7,5,0 93 2490
SPMM,4,6,0 93 2489
SPMM,5,6,0 93 2488
SPMM,6,6,0 93 2487
SPMM,7,6,0 93 2486
SPMM,3,7,0 93 2485
SPMM,4,7,0 93 2484
SPMM,5,7,0 93 2483
SPMM,6,7,0 93 2482
SPMM,7,7,0 93 2481
SPMM,24,0,0 99 2480
SPMM,25,0,0 99 2479
SPMM,26,0,0 99 2478
SPMM,24,1,0 99 2477
SPMM,25,1,0 99 2476
SPMM,26,1,0 99 2475
SPMM,24,2,0 99 2474
SPMM,25,2,0 99 2473
SPMM,26,2,0 99 2472
SPMM,24,3,0 99 2471
SPMM,25,3,0 99 2470
SPMM,26,3,0 99 2469
SPMM,24,4,0 99 2468
SPMM,25,4,0 99 2467
SPMM,26,4,0 99 2466
SPMM,24,5,0 99 2465
SPMM,25,5,0 99 2464
SPMM,26,5,0 99 2463
DLACPY,39,2 62 2462
UPDATE,39,2 62 2461
XTY,39,7,6 62 2460
XTY,39,7,9 62 2459
DLACPY,38,2 62 2458
UPDATE,38,2 62 2457
XTY,38,6,6 62 2456
XTY,38,6,9 62 2455
DLACPY,37,2 62 2454
UPDATE,37,2 62 2453
XTY,37,5,6 62 2452
XTY,37,5,9 62 2451
DLACPY,36,2 62 2450
UPDATE,36,2 62 2449
XTY,36,4,6 62 2448
XTY,36,4,9 62 2447
DLACPY,35,2 62 2446
UPDATE,35,2 62 2445
XTY,35,3,6 62 2444
XTY,35,3,9 62 2443
DLACPY,34,2 62 2442
UPDATE,34,2 62 2441
XTY,34,2,6 62 2440
XTY,34,2,9 62 2439
DLACPY,33,2 62 2438
UPDATE,33,2 62 2437
XTY,33,1,6 62 2436
XTY,33,1,9 62 2435
DLACPY,32,2 62 2434
UPDATE,32,2 62 2433
XTY,32,0,6 62 2432
XTY,32,0,9 62 2431
_AP,31 27 2430
GET,31,3 27 2429
_AP,30 27 2428
GET,30,3 27 2427
_AP,29 27 2426
GET,29,3 27 2425
_AP,28 27 2424
GET,28,3 27 2423
_AP,27 27 2422
GET,27,3 27 2421
_AP,26 27 2420
GET,26,3 27 2419
_AP,25 27 2418
GET,25,3 27 2417
_AP,24 27 2416
GET,24,3 27 2415
XY,24,5 55 2414
XY,25,5 55 2413
XY,26,5 55 2412
XY,27,5 55 2411
XY,28,5 55 2410
XY,29,5 55 2409
XY,30,5 55 2408
XY,31,5 55 2407
XY,16,4 55 2406
XY,17,4 55 2405
XY,18,4 55 2404
XY,19,4 55 2403
XY,20,4 55 2402
XY,21,4 55 2401
XY,22,4 55 2400
XY,23,4 55 2399
DLACPY,31,3 68 2398
UPDATE,31,3 68 2397
XTY,31,15,8 68 2396
DLACPY,30,3 68 2395
UPDATE,30,3 68 2394
XTY,30,14,8 68 2393
DLACPY,29,3 68 2392
UPDATE,29,3 68 2391
XTY,29,13,8 68 2390
DLACPY,28,3 68 2389
UPDATE,28,3 68 2388
XTY,28,12,8 68 2387
DLACPY,27,3 68 2386
UPDATE,27,3 68 2385
XTY,27,11,8 68 2384
DLACPY,26,3 68 2383
UPDATE,26,3 68 2382
XTY,26,10,8 68 2381
DLACPY,25,3 68 2380
UPDATE,25,3 68 2379
XTY,25,9,8 68 2378
DLACPY,24,3 68 2377
UPDATE,24,3 68 2376
XTY,24,8,8 68 2375
DLACPY,23,2 72 2374
XTY,23,7,6 72 2373
XTY,23,7,8 72 2372
DLACPY,22,2 72 2371
XTY,22,6,6 72 2370
XTY,22,6,8 72 2369
DLACPY,21,2 72 2368
XTY,21,5,6 72 2367
XTY,21,5,8 72 2366
DLACPY,20,2 72 2365
XTY,20,4,6 72 2364
XTY,20,4,8 72 2363
DLACPY,19,2 72 2362
XTY,19,3,6 72 2361
XTY,19,3,8 72 2360
DLACPY,18,2 72 2359
XTY,18,2,6 72 2358
XTY,18,2,8 72 2357
DLACPY,17,2 72 2356
XTY,17,1,6 72 2355
XTY,17,1,8 72 2354
DLACPY,16,2 72 2353
XTY,16,0,6 72 2352
XTY,16,0,8 72 2351
UPDATE,16,2 73 2350
XTY,16,0,9 73 2349
UPDATE,17,2 73 2348
XTY,17,1,9 73 2347
UPDATE,18,2 73 2346
XTY,18,2,9 73 2345
UPDATE,19,2 73 2344
XTY,19,3,9 73 2343
UPDATE,20,2 73 2342
XTY,20,4,9 73 2341
UPDATE,21,2 73 2340
XTY,21,5,9 73 2339
UPDATE,22,2 73 2338
XTY,22,6,9 73 2337
UPDATE,23,2 73 2336
XTY,23,7,9 73 2335
DLACPY,23,1 87 2334
SPMM,16,23,0 87 2333
SPMM,17,23,0 87 2332
SPMM,18,23,0 87 2331
SPMM,21,23,0 87 2330
SPMM,22,23,0 87 2329
SPMM,23,23,0 87 2328
XTY,23,7,10 87 2327
DLACPY,22,1 87 2326
SPMM,16,22,0 87 2325
SPMM,18,22,0 87 2324
SPMM,21,22,0 87 2323
SPMM,22,22,0 87 2322
SPMM,23,22,0 87 2321
XTY,22,6,10 87 2320
DLACPY,21,1 87 2319
SPMM,18,21,0 87 2318
SPMM,19,21,0 87 2317
SPMM,20,21,0 87 2316
SPMM,21,21,0 87 2315
SPMM,22,21,0 87 2314
SPMM,23,21,0 87 2313
XTY,21,5,10 87 2312
DLACPY,20,1 87 2311
SPMM,18,20,0 87 2310
SPMM,19,20,0 87 2309
SPMM,20,20,0 87 2308
SPMM,21,20,0 87 2307
XTY,20,4,10 87 2306
DLACPY,19,1 87 2305
SPMM,18,19,0 87 2304
SPMM,19,19,0 87 2303
SPMM,20,19,0 87 2302
SPMM,21,19,0 87 2301
XTY,19,3,10 87 2300
DLACPY,18,1 87 2299
SPMM,16,18,0 87 2298
SPMM,17,18,0 87 2297
SPMM,18,18,0 87 2296
SPMM,19,18,0 87 2295
SPMM,20,18,0 87 2294
SPMM,21,18,0 87 2293
SPMM,22,18,0 87 2292
SPMM,23,18,0 87 2291
XTY,18,2,10 87 2290
DLACPY,17,1 87 2289
SPMM,16,17,0 87 2288
SPMM,17,17,0 87 2287
SPMM,18,17,0 87 2286
SPMM,23,17,0 87 2285
XTY,17,1,10 87 2284
DLACPY,16,1 87 2283
SPMM,16,16,0 87 2282
SPMM,17,16,0 87 2281
SPMM,18,16,0 87 2280
SPMM,22,16,0 87 2279
SPMM,23,16,0 87 2278
XTY,16,0,10 87 2277
SPMM,24,16,0 94 2276
SPMM,26,16,0 94 2275
SPMM,27,16,0 94 2274
SPMM,28,16,0 94 2273
SPMM,29,16,0 94 2272
SPMM,30,16,0 94 2271
SPMM,31,16,0 94 2270
SPMM,24,17,0 94 2269
SPMM,26,17,0 94 2268
SPMM,27,17,0 94 2267
SPMM,28,17,0 94 2266
SPMM,29,17,0 94 2265
SPMM,30,17,0 94 2264
SPMM,31,17,0 94 2263
SPMM,24,18,0 94 2262
SPMM,25,18,0 94 2261
SPMM,26,18,0 94 2260
SPMM,28,18,0 94 2259
SPMM,29,18,0 94 2258
SPMM,30,18,0 94 2257
SPMM,31,18,0 94 2256
SPMM,24,19,0 94 2255
SPMM,25,19,0 94 2254
SPMM,26,19,0 94 2253
SPMM,31,19,0 94 2252
SPMM,24,20,0 94 2251
SPMM,25,20,0 94 2250
SPMM,26,20,0 94 2249
SPMM,31,20,0 94 2248
SPMM,24,21,0 94 2247
SPMM,25,21,0 94 2246
SPMM,26,21,0 94 2245
SPMM,27,21,0 94 2244
SPMM,28,21,0 94 2243
SPMM,29,21,0 94 2242
SPMM,30,21,0 94 2241
SPMM,31,21,0 94 2240
SPMM,24,22,0 94 2239
SPMM,26,22,0 94 2238
SPMM,27,22,0 94 2237
SPMM,28,22,0 94 2236
SPMM,29,22,0 94 2235
SPMM,30,22,0 94 2234
SPMM,31,22,0 94 2233
SPMM,24,23,0 94 2232
SPMM,26,23,0 94 2231
SPMM,27,23,0 94 2230
SPMM,28,23,0 94 2229
SPMM,29,23,0 94 2228
SPMM,30,23,0 94 2227
SPMM,31,23,0 94 2226
SPMM,0,18,0 95 2225
SPMM,1,18,0 95 2224
SPMM,2,18,0 95 2223
SPMM,3,18,0 95 2222
SPMM,4,18,0 95 2221
SPMM,5,18,0 95 2220
SPMM,0,19,0 95 2219
SPMM,1,19,0 95 2218
SPMM,2,19,0 95 2217
SPMM,3,19,0 95 2216
SPMM,4,19,0 95 2215
SPMM,5,19,0 95 2214
SPMM,0,20,0 95 2213
SPMM,1,20,0 95 2212
SPMM,2,20,0 95 2211
SPMM,3,20,0 95 2210
SPMM,4,20,0 95 2209
SPMM,5,20,0 95 2208
SPMM,1,21,0 95 2207
SPMM,2,21,0 95 2206
SPMM,3,21,0 95 2205
SPMM,4,21,0 95 2204
SPMM,5,21,0 95 2203
SETZERO,47,1 95 2202
SPMM,47,16,0 95 2201
SPMM,47,17,0 95 2200
SPMM,47,18,0 95 2199
SPMM,47,19,0 95 2198
SPMM,47,20,0 95 2197
SPMM,47,21,0 95 2196
SPMM,47,22,0 95 2195
SPMM,47,23,0 95 2194
SETZERO,46,1 95 2193
SPMM,46,16,0 95 2192
SPMM,46,17,0 95 2191
SPMM,46,18,0 95 2190
SPMM,46,19,0 95 2189
SPMM,46,21,0 95 2188
SPMM,46,22,0 95 2187
SPMM,46,23,0 95 2186
SETZERO,45,1 95 2185
SPMM,45,16,0 95 2184
SPMM,45,17,0 95 2183
SPMM,45,18,0 95 2182
SPMM,45,19,0 95 2181
SPMM,45,20,0 95 2180
SPMM,45,21,0 95 2179
SPMM,45,22,0 95 2178
SPMM,45,23,0 95 2177
SETZERO,44,1 95 2176
SPMM,44,16,0 95 2175
SPMM,44,17,0 95 2174
SPMM,44,18,0 95 2173
SPMM,44,19,0 95 2172
SPMM,44,20,0 95 2171
SPMM,44,21,0 95 2170
SPMM,44,22,0 95 2169
SPMM,44,23,0 95 2168
SETZERO,43,1 95 2167
SPMM,43,16,0 95 2166
SPMM,43,17,0 95 2165
SPMM,43,18,0 95 2164
SPMM,43,19,0 95 2163
SPMM,43,21,0 95 2162
SPMM,43,22,0 95 2161
SPMM,43,23,0 95 2160
SETZERO,42,1 95 2159
SPMM,42,16,0 95 2158
SPMM,42,17,0 95 2157
SPMM,42,18,0 95 2156
SPMM,42,19,0 95 2155
SPMM,42,20,0 95 2154
SPMM,42,21,0 95 2153
SPMM,42,22,0 95 2152
SPMM,42,23,0 95 2151
SETZERO,41,1 95 2150
SPMM,41,16,0 95 2149
SPMM,41,17,0 95 2148
SPMM,41,18,0 95 2147
SPMM,41,19,0 95 2146
SPMM,41,20,0 95 2145
SPMM,41,21,0 95 2144
SPMM,41,22,0 95 2143
SPMM,41,23,0 95 2142
SETZERO,40,1 95 2141
SPMM,40,16,0 95 2140
SPMM,40,17,0 95 2139
SPMM,40,18,0 95 2138
SPMM,40,20,0 95 2137
SPMM,40,21,0 95 2136
SPMM,40,22,0 95 2135
SPMM,40,23,0 95 2134
XY,32,3 96 2133
DLACPY,32,1 96 2132
SPMM,24,32,0 96 2131
SPMM,25,32,0 96 2130
SPMM,26,32,0 96 2129
SPMM,27,32,0 96 2128
SPMM,28,32,0 96 2127
SPMM,29,32,0 96 2126
SPMM,30,32,0 96 2125
SPMM,31,32,0 96 2124
SPMM,40,32,0 96 2123
SPMM,41,32,0 96 2122
SPMM,42,32,0 96 2121
SPMM,43,32,0 96 2120
SPMM,44,32,0 96 2119
SPMM,45,32,0 96 2118
SPMM,46,32,0 96 2117
SPMM,47,32,0 96 2116
XY,33,3 96 2115
DLACPY,33,1 96 2114
SPMM,24,33,0 96 2113
SPMM,25,33,0 96 2112
SPMM,26,33,0 96 2111
SPMM,27,33,0 96 2110
SPMM,28,33,0 96 2109
SPMM,29,33,0 96 2108
SPMM,30,33,0 96 2107
SPMM,31,33,0 96 2106
SPMM,40,33,0 96 2105
SPMM,41,33,0 96 2104
SPMM,42,33,0 96 2103
SPMM,43,33,0 96 2102
SPMM,44,33,0 96 2101
SPMM,45,33,0 96 2100
SPMM,46,33,0 96 2099
SPMM,47,33,0 96 2098
XY,34,3 96 2097
DLACPY,34,1 96 2096
SPMM,24,34,0 96 2095
SPMM,26,34,0 96 2094
SPMM,27,34,0 96 2093
SPMM,28,34,0 96 2092
SPMM,29,34,0 96 2091
SPMM,30,34,0 96 2090
SPMM,31,34,0 96 2089
SPMM,40,34,0 96 2088
SPMM,41,34,0 96 2087
SPMM,42,34,0 96 2086
SPMM,43,34,0 96 2085
SPMM,44,34,0 96 2084
SPMM,45,34,0 96 2083
SPMM,46,34,0 96 2082
SPMM,47,34,0 96 2081
XY,35,3 96 2080
DLACPY,35,1 96 2079
SPMM,24,35,0 96 2078
SPMM,26,35,0 96 2077
SPMM,27,35,0 96 2076
SPMM,28,35,0 96 2075
SPMM,29,35,0 96 2074
SPMM,30,35,0 96 2073
SPMM,31,35,0 96 2072
SPMM,40,35,0 96 2071
SPMM,41,35,0 96 2070
SPMM,42,35,0 96 2069
SPMM,43,35,0 96 2068
SPMM,44,35,0 96 2067
SPMM,45,35,0 96 2066
SPMM,46,35,0 96 2065
SPMM,47,35,0 96 2064
XY,36,3 96 2063
DLACPY,36,1 96 2062
SPMM,24,36,0 96 2061
SPMM,25,36,0 96 2060
SPMM,26,36,0 96 2059
SPMM,27,36,0 96 2058
SPMM,28,36,0 96 2057
SPMM,29,36,0 96 2056
SPMM,30,36,0 96 2055
SPMM,31,36,0 96 2054
SPMM,40,36,0 96 2053
SPMM,41,36,0 96 2052
SPMM,42,36,0 96 2051
SPMM,43,36,0 96 2050
SPMM,44,36,0 96 2049
SPMM,45,36,0 96 2048
SPMM,46,36,0 96 2047
SPMM,47,36,0 96 2046
XY,37,3 96 2045
DLACPY,37,1 96 2044
SPMM,24,37,0 96 2043
SPMM,26,37,0 96 2042
SPMM,27,37,0 96 2041
SPMM,28,37,0 96 2040
SPMM,29,37,0 96 2039
SPMM,30,37,0 96 2038
SPMM,31,37,0 96 2037
SPMM,40,37,0 96 2036
SPMM,41,37,0 96 2035
SPMM,42,37,0 96 2034
SPMM,43,37,0 96 2033
SPMM,44,37,0 96 2032
SPMM,45,37,0 96 2031
SPMM,46,37,0 96 2030
SPMM,47,37,0 96 2029
XY,38,3 96 2028
DLACPY,38,1 96 2027
SPMM,24,38,0 96 2026
SPMM,26,38,0 96 2025
SPMM,27,38,0 96 2024
SPMM,28,38,0 96 2023
SPMM,29,38,0 96 2022
SPMM,30,38,0 96 2021
SPMM,31,38,0 96 2020
SPMM,40,38,0 96 2019
SPMM,41,38,0 96 2018
SPMM,42,38,0 96 2017
SPMM,43,38,0 96 2016
SPMM,44,38,0 96 2015
SPMM,45,38,0 96 2014
SPMM,46,38,0 96 2013
SPMM,47,38,0 96 2012
XY,39,3 96 2011
DLACPY,39,1 96 2010
SPMM,24,39,0 96 2009
SPMM,26,39,0 96 2008
SPMM,27,39,0 96 2007
SPMM,28,39,0 96 2006
SPMM,29,39,0 96 2005
SPMM,30,39,0 96 2004
SPMM,31,39,0 96 2003
SPMM,40,39,0 96 2002
SPMM,41,39,0 96 2001
SPMM,42,39,0 96 2000
SPMM,43,39,0 96 1999
SPMM,44,39,0 96 1998
SPMM,45,39,0 96 1997
SPMM,46,39,0 96 1996
SPMM,47,39,0 96 1995
SPMM,16,39,0 97 1994
SPMM,17,39,0 97 1993
SPMM,18,39,0 97 1992
SPMM,19,39,0 97 1991
SPMM,21,39,0 97 1990
SPMM,22,39,0 97 1989
SPMM,23,39,0 97 1988
UPDATE,39,1 97 1987
SPMM,16,38,0 97 1986
SPMM,17,38,0 97 1985
SPMM,18,38,0 97 1984
SPMM,19,38,0 97 1983
SPMM,21,38,0 97 1982
SPMM,22,38,0 97 1981
SPMM,23,38,0 97 1980
UPDATE,38,1 97 1979
SPMM,16,37,0 97 1978
SPMM,17,37,0 97 1977
SPMM,18,37,0 97 1976
SPMM,21,37,0 97 1975
SPMM,22,37,0 97 1974
SPMM,23,37,0 97 1973
UPDATE,37,1 97 1972
SPMM,16,36,0 97 1971
SPMM,17,36,0 97 1970
SPMM,18,36,0 97 1969
SPMM,20,36,0 97 1968
SPMM,21,36,0 97 1967
SPMM,22,36,0 97 1966
SPMM,23,36,0 97 1965
UPDATE,36,1 97 1964
SPMM,16,35,0 97 1963
SPMM,17,35,0 97 1962
SPMM,18,35,0 97 1961
SPMM,21,35,0 97 1960
SPMM,22,35,0 97 1959
SPMM,23,35,0 97 1958
UPDATE,35,1 97 1957
SPMM,16,34,0 97 1956
SPMM,17,34,0 97 1955
SPMM,18,34,0 97 1954
SPMM,21,34,0 97 1953
SPMM,22,34,0 97 1952
SPMM,23,34,0 97 1951
UPDATE,34,1 97 1950
SPMM,16,33,0 97 1949
SPMM,17,33,0 97 1948
SPMM,18,33,0 97 1947
SPMM,20,33,0 97 1946
SPMM,21,33,0 97 1945
SPMM,22,33,0 97 1944
SPMM,23,33,0 97 1943
UPDATE,33,1 97 1942
SPMM,16,32,0 97 1941
SPMM,17,32,0 97 1940
SPMM,18,32,0 97 1939
SPMM,20,32,0 97 1938
SPMM,21,32,0 97 1937
SPMM,22,32,0 97 1936
SPMM,23,32,0 97 1935
UPDATE,32,1 97 1934
XTY,39,7,4 98 1933
XTY,38,6,4 98 1932
XTY,37,5,4 98 1931
XTY,36,4,4 98 1930
XTY,35,3,4 98 1929
XTY,34,2,4 98 1928
XTY,33,1,4 98 1927
XTY,32,0,4 98 1926
UPDATE,16,1 98 1925
UPDATE,17,1 98 1924
UPDATE,18,1 98 1923
UPDATE,19,1 98 1922
UPDATE,20,1 98 1921
UPDATE,21,1 98 1920
UPDATE,22,1 98 1919
UPDATE,23,1 98 1918
XTY,39,7,10 100 1917
XTY,38,6,10 100 1916
XTY,37,5,10 100 1915
XTY,36,4,10 100 1914
XTY,35,3,10 100 1913
XTY,34,2,10 100 1912
XTY,33,1,10 100 1911
XTY,32,0,10 100 1910
XY,24,3 100 1909
XY,25,3 100 1908
XY,26,3 100 1907
XY,27,3 100 1906
XY,28,3 100 1905
XY,29,3 100 1904
XY,30,3 100 1903
XY,31,3 100 1902
DLACPY,31,1 101 1901
SPMM,16,31,0 101 1900
SPMM,17,31,0 101 1899
SPMM,18,31,0 101 1898
SPMM,19,31,0 101 1897
SPMM,20,31,0 101 1896
SPMM,21,31,0 101 1895
SPMM,22,31,0 101 1894
SPMM,23,31,0 101 1893
SPMM,40,31,0 101 1892
SPMM,41,31,0 101 1891
SPMM,42,31,0 101 1890
SPMM,43,31,0 101 1889
SPMM,44,31,0 101 1888
SPMM,45,31,0 101 1887
SPMM,46,31,0 101 1886
SPMM,47,31,0 101 1885
UPDATE,31,1 101 1884
DLACPY,30,1 101 1883
SPMM,16,30,0 101 1882
SPMM,17,30,0 101 1881
SPMM,18,30,0 101 1880
SPMM,21,30,0 101 1879
SPMM,22,30,0 101 1878
SPMM,23,30,0 101 1877
SPMM,40,30,0 101 1876
SPMM,41,30,0 101 1875
SPMM,42,30,0 101 1874
SPMM,43,30,0 101 1873
SPMM,44,30,0 101 1872
SPMM,45,30,0 101 1871
SPMM,46,30,0 101 1870
SPMM,47,30,0 101 1869
UPDATE,30,1 101 1868
DLACPY,29,1 101 1867
SPMM,16,29,0 101 1866
SPMM,17,29,0 101 1865
SPMM,18,29,0 101 1864
SPMM,21,29,0 101 1863
SPMM,22,29,0 101 1862
SPMM,23,29,0 101 1861
SPMM,40,29,0 101 1860
SPMM,41,29,0 101 1859
SPMM,42,29,0 101 1858
SPMM,43,29,0 101 1857
SPMM,44,29,0 101 1856
SPMM,45,29,0 101 1855
SPMM,46,29,0 101 1854
SPMM,47,29,0 101 1853
UPDATE,29,1 101 1852
DLACPY,28,1 101 1851
SPMM,16,28,0 101 1850
SPMM,17,28,0 101 1849
SPMM,18,28,0 101 1848
SPMM,21,28,0 101 1847
SPMM,22,28,0 101 1846
SPMM,23,28,0 101 1845
SPMM,40,28,0 101 1844
SPMM,41,28,0 101 1843
SPMM,42,28,0 101 1842
SPMM,43,28,0 101 1841
SPMM,44,28,0 101 1840
SPMM,45,28,0 101 1839
SPMM,46,28,0 101 1838
SPMM,47,28,0 101 1837
UPDATE,28,1 101 1836
DLACPY,27,1 101 1835
SPMM,16,27,0 101 1834
SPMM,17,27,0 101 1833
SPMM,21,27,0 101 1832
SPMM,22,27,0 101 1831
SPMM,23,27,0 101 1830
SPMM,40,27,0 101 1829
SPMM,41,27,0 101 1828
SPMM,42,27,0 101 1827
SPMM,43,27,0 101 1826
SPMM,44,27,0 101 1825
SPMM,45,27,0 101 1824
SPMM,46,27,0 101 1823
SPMM,47,27,0 101 1822
UPDATE,27,1 101 1821
DLACPY,26,1 101 1820
SPMM,16,26,0 101 1819
SPMM,17,26,0 101 1818
SPMM,18,26,0 101 1817
SPMM,19,26,0 101 1816
SPMM,20,26,0 101 1815
SPMM,21,26,0 101 1814
SPMM,22,26,0 101 1813
SPMM,23,26,0 101 1812
SPMM,40,26,0 101 1811
SPMM,41,26,0 101 1810
SPMM,42,26,0 101 1809
SPMM,43,26,0 101 1808
SPMM,44,26,0 101 1807
SPMM,45,26,0 101 1806
SPMM,46,26,0 101 1805
SPMM,47,26,0 101 1804
UPDATE,26,1 101 1803
DLACPY,25,1 101 1802
SPMM,18,25,0 101 1801
SPMM,19,25,0 101 1800
SPMM,20,25,0 101 1799
SPMM,21,25,0 101 1798
SPMM,40,25,0 101 1797
SPMM,41,25,0 101 1796
SPMM,42,25,0 101 1795
SPMM,43,25,0 101 1794
SPMM,44,25,0 101 1793
SPMM,45,25,0 101 1792
SPMM,47,25,0 101 1791
UPDATE,25,1 101 1790
DLACPY,24,1 101 1789
SPMM,16,24,0 101 1788
SPMM,17,24,0 101 1787
SPMM,18,24,0 101 1786
SPMM,19,24,0 101 1785
SPMM,20,24,0 101 1784
SPMM,21,24,0 101 1783
SPMM,22,24,0 101 1782
SPMM,23,24,0 101 1781
SPMM,40,24,0 101 1780
SPMM,41,24,0 101 1779
SPMM,42,24,0 101 1778
SPMM,43,24,0 101 1777
SPMM,44,24,0 101 1776
SPMM,45,24,0 101 1775
SPMM,46,24,0 101 1774
SPMM,47,24,0 101 1773
UPDATE,24,1 101 1772
SETZERO,50,1 107 1771
SPMM,50,24,0 107 1770
SPMM,50,25,0 107 1769
SPMM,50,26,0 107 1768
SPMM,50,27,0 107 1767
SPMM,50,28,0 107 1766
SPMM,50,29,0 107 1765
SPMM,50,30,0 107 1764
SPMM,50,31,0 107 1763
SPMM,50,32,0 107 1762
SPMM,50,33,0 107 1761
SPMM,50,34,0 107 1760
SPMM,50,35,0 107 1759
SPMM,50,36,0 107 1758
SPMM,50,37,0 107 1757
SPMM,50,38,0 107 1756
SPMM,50,39,0 107 1755
SETZERO,49,1 107 1754
SPMM,49,24,0 107 1753
SPMM,49,25,0 107 1752
SPMM,49,26,0 107 1751
SPMM,49,27,0 107 1750
SPMM,49,28,0 107 1749
SPMM,49,29,0 107 1748
SPMM,49,30,0 107 1747
SPMM,49,31,0 107 1746
SPMM,49,32,0 107 1745
SPMM,49,33,0 107 1744
SPMM,49,34,0 107 1743
SPMM,49,35,0 107 1742
SPMM,49,36,0 107 1741
SPMM,49,37,0 107 1740
SPMM,49,38,0 107 1739
SPMM,49,39,0 107 1738
SETZERO,48,1 107 1737
SPMM,48,24,0 107 1736
SPMM,48,26,0 107 1735
SPMM,48,27,0 107 1734
SPMM,48,28,0 107 1733
SPMM,48,29,0 107 1732
SPMM,48,30,0 107 1731
SPMM,48,31,0 107 1730
SPMM,48,32,0 107 1729
SPMM,48,33,0 107 1728
SPMM,48,34,0 107 1727
SPMM,48,35,0 107 1726
SPMM,48,36,0 107 1725
SPMM,48,37,0 107 1724
SPMM,48,38,0 107 1723
SPMM,48,39,0 107 1722
XTY,24,8,4 102 1721
XTY,24,8,10 102 1720
XTY,25,9,4 102 1719
XTY,25,9,10 102 1718
XTY,26,10,4 102 1717
XTY,26,10,10 102 1716
XTY,27,11,4 102 1715
XTY,27,11,10 102 1714
XTY,28,12,4 102 1713
XTY,28,12,10 102 1712
XTY,29,13,4 102 1711
XTY,29,13,10 102 1710
XTY,30,14,4 102 1709
XTY,30,14,10 102 1708
XTY,31,15,4 102 1707
XTY,31,15,10 102 1706
XY,40,3 103 1705
DLACPY,40,1 103 1704
SPMM,24,40,0 103 1703
SPMM,25,40,0 103 1702
SPMM,26,40,0 103 1701
SPMM,27,40,0 103 1700
SPMM,28,40,0 103 1699
SPMM,29,40,0 103 1698
SPMM,30,40,0 103 1697
SPMM,31,40,0 103 1696
SPMM,40,40,0 103 1695
SPMM,41,40,0 103 1694
SPMM,42,40,0 103 1693
SPMM,43,40,0 103 1692
SPMM,44,40,0 103 1691
SPMM,45,40,0 103 1690
SPMM,46,40,0 103 1689
SPMM,47,40,0 103 1688
XY,41,3 103 1687
DLACPY,41,1 103 1686
SPMM,24,41,0 103 1685
SPMM,25,41,0 103 1684
SPMM,26,41,0 103 1683
SPMM,27,41,0 103 1682
SPMM,28,41,0 103 1681
SPMM,29,41,0 103 1680
SPMM,30,41,0 103 1679
SPMM,31,41,0 103 1678
SPMM,40,41,0 103 1677
SPMM,41,41,0 103 1676
SPMM,42,41,0 103 1675
SPMM,43,41,0 103 1674
SPMM,44,41,0 103 1673
SPMM,45,41,0 103 1672
SPMM,46,41,0 103 1671
SPMM,47,41,0 103 1670
XY,42,3 103 1669
DLACPY,42,1 103 1668
SPMM,24,42,0 103 1667
SPMM,25,42,0 103 1666
SPMM,26,42,0 103 1665
SPMM,27,42,0 103 1664
SPMM,28,42,0 103 1663
SPMM,29,42,0 103 1662
SPMM,30,42,0 103 1661
SPMM,31,42,0 103 1660
SPMM,40,42,0 103 1659
SPMM,41,42,0 103 1658
SPMM,42,42,0 103 1657
SPMM,43,42,0 103 1656
SPMM,44,42,0 103 1655
SPMM,45,42,0 103 1654
SPMM,46,42,0 103 1653
SPMM,47,42,0 103 1652
XY,43,3 103 1651
DLACPY,43,1 103 1650
SPMM,24,43,0 103 1649
SPMM,25,43,0 103 1648
SPMM,26,43,0 103 1647
SPMM,27,43,0 103 1646
SPMM,28,43,0 103 1645
SPMM,29,43,0 103 1644
SPMM,30,43,0 103 1643
SPMM,31,43,0 103 1642
SPMM,40,43,0 103 1641
SPMM,41,43,0 103 1640
SPMM,42,43,0 103 1639
SPMM,43,43,0 103 1638
SPMM,44,43,0 103 1637
SPMM,45,43,0 103 1636
SPMM,46,43,0 103 1635
SPMM,47,43,0 103 1634
XY,44,3 103 1633
DLACPY,44,1 103 1632
SPMM,24,44,0 103 1631
SPMM,25,44,0 103 1630
SPMM,26,44,0 103 1629
SPMM,27,44,0 103 1628
SPMM,28,44,0 103 1627
SPMM,29,44,0 103 1626
SPMM,30,44,0 103 1625
SPMM,31,44,0 103 1624
SPMM,40,44,0 103 1623
SPMM,41,44,0 103 1622
SPMM,42,44,0 103 1621
SPMM,43,44,0 103 1620
SPMM,44,44,0 103 1619
SPMM,45,44,0 103 1618
SPMM,46,44,0 103 1617
SPMM,47,44,0 103 1616
XY,45,3 103 1615
DLACPY,45,1 103 1614
SPMM,24,45,0 103 1613
SPMM,25,45,0 103 1612
SPMM,26,45,0 103 1611
SPMM,27,45,0 103 1610
SPMM,28,45,0 103 1609
SPMM,29,45,0 103 1608
SPMM,30,45,0 103 1607
SPMM,31,45,0 103 1606
SPMM,40,45,0 103 1605
SPMM,41,45,0 103 1604
SPMM,42,45,0 103 1603
SPMM,43,45,0 103 1602
SPMM,44,45,0 103 1601
SPMM,45,45,0 103 1600
SPMM,46,45,0 103 1599
SPMM,47,45,0 103 1598
XY,46,3 103 1597
DLACPY,46,1 103 1596
SPMM,24,46,0 103 1595
SPMM,26,46,0 103 1594
SPMM,27,46,0 103 1593
SPMM,28,46,0 103 1592
SPMM,29,46,0 103 1591
SPMM,30,46,0 103 1590
SPMM,31,46,0 103 1589
SPMM,40,46,0 103 1588
SPMM,41,46,0 103 1587
SPMM,42,46,0 103 1586
SPMM,43,46,0 103 1585
SPMM,44,46,0 103 1584
SPMM,45,46,0 103 1583
SPMM,46,46,0 103 1582
SPMM,47,46,0 103 1581
XY,47,3 103 1580
DLACPY,47,1 103 1579
SPMM,24,47,0 103 1578
SPMM,25,47,0 103 1577
SPMM,26,47,0 103 1576
SPMM,27,47,0 103 1575
SPMM,28,47,0 103 1574
SPMM,29,47,0 103 1573
SPMM,30,47,0 103 1572
SPMM,31,47,0 103 1571
SPMM,40,47,0 103 1570
SPMM,41,47,0 103 1569
SPMM,42,47,0 103 1568
SPMM,43,47,0 103 1567
SPMM,44,47,0 103 1566
SPMM,45,47,0 103 1565
SPMM,46,47,0 103 1564
SPMM,47,47,0 103 1563
SETZERO,15,1 128 1562
SPMM,15,16,0 128 1561
SPMM,15,18,0 128 1560
SPMM,15,21,0 128 1559
SPMM,15,22,0 128 1558
SPMM,15,23,0 128 1557
SPMM,15,24,0 128 1556
SPMM,15,26,0 128 1555
SPMM,15,27,0 128 1554
SPMM,15,28,0 128 1553
SPMM,15,29,0 128 1552
SPMM,15,30,0 128 1551
SPMM,15,31,0 128 1550
SPMM,15,40,0 128 1549
SPMM,15,41,0 128 1548
SPMM,15,42,0 128 1547
SPMM,15,43,0 128 1546
SPMM,15,44,0 128 1545
SPMM,15,45,0 128 1544
SPMM,15,46,0 128 1543
SPMM,15,47,0 128 1542
SETZERO,14,1 128 1541
SPMM,14,18,0 128 1540
SPMM,14,19,0 128 1539
SPMM,14,20,0 128 1538
SPMM,14,21,0 128 1537
SPMM,14,23,0 128 1536
SPMM,14,24,0 128 1535
SPMM,14,25,0 128 1534
SPMM,14,26,0 128 1533
SETZERO,13,1 128 1532
SETZERO,12,1 128 1531
SETZERO,11,1 128 1530
SETZERO,10,1 128 1529
SETZERO,9,1 128 1528
SETZERO,8,1 128 1527
SPMM,15,48,0 130 1526
SPMM,15,49,0 130 1525
SPMM,15,50,0 130 1524
SPMM,8,2,0 131 1523
SPMM,8,3,0 131 1522
SPMM,8,4,0 131 1521
SPMM,8,5,0 131 1520
SPMM,8,6,0 131 1519
SPMM,8,7,0 131 1518
SPMM,9,2,0 131 1517
SPMM,9,3,0 131 1516
SPMM,9,4,0 131 1515
SPMM,9,5,0 131 1514
SPMM,9,6,0 131 1513
SPMM,9,7,0 131 1512
SPMM,10,2,0 131 1511
SPMM,10,3,0 131 1510
SPMM,10,4,0 131 1509
SPMM,10,5,0 131 1508
SPMM,10,6,0 131 1507
SPMM,10,7,0 131 1506
SPMM,11,1,0 131 1505
SPMM,11,2,0 131 1504
SPMM,11,3,0 131 1503
SPMM,11,4,0 131 1502
SPMM,11,5,0 131 1501
SPMM,11,6,0 131 1500
SPMM,11,7,0 131 1499
SPMM,12,2,0 131 1498
SPMM,12,3,0 131 1497
SPMM,12,4,0 131 1496
SPMM,12,5,0 131 1495
SPMM,12,6,0 131 1494
SPMM,12,7,0 131 1493
SPMM,13,3,0 131 1492
SPMM,13,4,0 131 1491
SPMM,13,5,0 131 1490
SPMM,13,6,0 131 1489
SPMM,13,7,0 131 1488
SPMM,14,2,0 131 1487
SPMM,14,3,0 131 1486
SPMM,14,4,0 131 1485
SPMM,14,5,0 131 1484
SPMM,14,6,0 131 1483
SPMM,14,7,0 131 1482
SPMM,15,32,0 131 1481
SPMM,15,33,0 131 1480
SPMM,15,34,0 131 1479
SPMM,15,35,0 131 1478
SPMM,15,36,0 131 1477
SPMM,15,37,0 131 1476
SPMM,15,38,0 131 1475
SPMM,15,39,0 131 1474
SPMM,16,47,0 104 1473
SPMM,17,47,0 104 1472
SPMM,18,47,0 104 1471
SPMM,19,47,0 104 1470
SPMM,20,47,0 104 1469
SPMM,21,47,0 104 1468
SPMM,22,47,0 104 1467
SPMM,23,47,0 104 1466
SPMM,16,46,0 104 1465
SPMM,17,46,0 104 1464
SPMM,18,46,0 104 1463
SPMM,19,46,0 104 1462
SPMM,21,46,0 104 1461
SPMM,22,46,0 104 1460
SPMM,23,46,0 104 1459
SPMM,16,45,0 104 1458
SPMM,17,45,0 104 1457
SPMM,18,45,0 104 1456
SPMM,19,45,0 104 1455
SPMM,20,45,0 104 1454
SPMM,21,45,0 104 1453
SPMM,22,45,0 104 1452
SPMM,23,45,0 104 1451
SPMM,16,44,0 104 1450
SPMM,17,44,0 104 1449
SPMM,18,44,0 104 1448
SPMM,19,44,0 104 1447
SPMM,20,44,0 104 1446
SPMM,21,44,0 104 1445
SPMM,22,44,0 104 1444
SPMM,23,44,0 104 1443
SPMM,16,43,0 104 1442
SPMM,17,43,0 104 1441
SPMM,18,43,0 104 1440
SPMM,19,43,0 104 1439
SPMM,21,43,0 104 1438
SPMM,22,43,0 104 1437
SPMM,23,43,0 104 1436
SPMM,16,42,0 104 1435
SPMM,17,42,0 104 1434
SPMM,18,42,0 104 1433
SPMM,19,42,0 104 1432
SPMM,20,42,0 104 1431
SPMM,21,42,0 104 1430
SPMM,22,42,0 104 1429
SPMM,23,42,0 104 1428
SPMM,16,41,0 104 1427
SPMM,17,41,0 104 1426
SPMM,18,41,0 104 1425
SPMM,19,41,0 104 1424
SPMM,20,41,0 104 1423
SPMM,21,41,0 104 1422
SPMM,22,41,0 104 1421
SPMM,23,41,0 104 1420
SPMM,16,40,0 104 1419
SPMM,17,40,0 104 1418
SPMM,18,40,0 104 1417
SPMM,20,40,0 104 1416
SPMM,21,40,0 104 1415
SPMM,22,40,0 104 1414
SPMM,23,40,0 104 1413
SETZERO,39,1 121 1412
SPMM,39,16,0 121 1411
SPMM,39,17,0 121 1410
SPMM,39,18,0 121 1409
SPMM,39,19,0 121 1408
SPMM,39,21,0 121 1407
SPMM,39,22,0 121 1406
SPMM,39,23,0 121 1405
SPMM,39,40,0 121 1404
SPMM,39,41,0 121 1403
SPMM,39,42,0 121 1402
SPMM,39,43,0 121 1401
SPMM,39,44,0 121 1400
SPMM,39,45,0 121 1399
SPMM,39,46,0 121 1398
SPMM,39,47,0 121 1397
SETZERO,38,1 121 1396
SPMM,38,16,0 121 1395
SPMM,38,17,0 121 1394
SPMM,38,18,0 121 1393
SPMM,38,19,0 121 1392
SPMM,38,21,0 121 1391
SPMM,38,22,0 121 1390
SPMM,38,23,0 121 1389
SPMM,38,40,0 121 1388
SPMM,38,41,0 121 1387
SPMM,38,42,0 121 1386
SPMM,38,43,0 121 1385
SPMM,38,44,0 121 1384
SPMM,38,45,0 121 1383
SPMM,38,46,0 121 1382
SPMM,38,47,0 121 1381
SETZERO,37,1 121 1380
SPMM,37,16,0 121 1379
SPMM,37,17,0 121 1378
SPMM,37,18,0 121 1377
SPMM,37,21,0 121 1376
SPMM,37,22,0 121 1375
SPMM,37,23,0 121 1374
SPMM,37,40,0 121 1373
SPMM,37,41,0 121 1372
SPMM,37,42,0 121 1371
SPMM,37,43,0 121 1370
SPMM,37,44,0 121 1369
SPMM,37,45,0 121 1368
SPMM,37,46,0 121 1367
SPMM,37,47,0 121 1366
SETZERO,36,1 121 1365
SPMM,36,16,0 121 1364
SPMM,36,17,0 121 1363
SPMM,36,18,0 121 1362
SPMM,36,20,0 121 1361
SPMM,36,21,0 121 1360
SPMM,36,22,0 121 1359
SPMM,36,23,0 121 1358
SPMM,36,40,0 121 1357
SPMM,36,41,0 121 1356
SPMM,36,42,0 121 1355
SPMM,36,43,0 121 1354
SPMM,36,44,0 121 1353
SPMM,36,45,0 121 1352
SPMM,36,46,0 121 1351
SPMM,36,47,0 121 1350
SETZERO,35,1 121 1349
SPMM,35,16,0 121 1348
SPMM,35,17,0 121 1347
SPMM,35,18,0 121 1346
SPMM,35,21,0 121 1345
SPMM,35,22,0 121 1344
SPMM,35,23,0 121 1343
SPMM,35,40,0 121 1342
SPMM,35,41,0 121 1341
SPMM,35,42,0 121 1340
SPMM,35,43,0 121 1339
SPMM,35,44,0 121 1338
SPMM,35,45,0 121 1337
SPMM,35,46,0 121 1336
SPMM,35,47,0 121 1335
SETZERO,34,1 121 1334
SPMM,34,16,0 121 1333
SPMM,34,17,0 121 1332
SPMM,34,18,0 121 1331
SPMM,34,21,0 121 1330
SPMM,34,22,0 121 1329
SPMM,34,23,0 121 1328
SPMM,34,40,0 121 1327
SPMM,34,41,0 121 1326
SPMM,34,42,0 121 1325
SPMM,34,43,0 121 1324
SPMM,34,44,0 121 1323
SPMM,34,45,0 121 1322
SPMM,34,46,0 121 1321
SPMM,34,47,0 121 1320
SETZERO,33,1 121 1319
SPMM,33,16,0 121 1318
SPMM,33,17,0 121 1317
SPMM,33,18,0 121 1316
SPMM,33,20,0 121 1315
SPMM,33,21,0 121 1314
SPMM,33,22,0 121 1313
SPMM,33,23,0 121 1312
SPMM,33,40,0 121 1311
SPMM,33,41,0 121 1310
SPMM,33,42,0 121 1309
SPMM,33,43,0 121 1308
SPMM,33,44,0 121 1307
SPMM,33,45,0 121 1306
SPMM,33,46,0 121 1305
SPMM,33,47,0 121 1304
SETZERO,32,1 121 1303
SPMM,32,16,0 121 1302
SPMM,32,17,0 121 1301
SPMM,32,18,0 121 1300
SPMM,32,20,0 121 1299
SPMM,32,21,0 121 1298
SPMM,32,22,0 121 1297
SPMM,32,23,0 121 1296
SPMM,32,40,0 121 1295
SPMM,32,41,0 121 1294
SPMM,32,42,0 121 1293
SPMM,32,43,0 121 1292
SPMM,32,44,0 121 1291
SPMM,32,45,0 121 1290
SPMM,32,46,0 121 1289
SPMM,32,47,0 121 1288
SPMM,32,32,0 123 1287
SPMM,32,33,0 123 1286
SPMM,32,34,0 123 1285
SPMM,32,35,0 123 1284
SPMM,32,36,0 123 1283
SPMM,32,37,0 123 1282
SPMM,32,38,0 123 1281
SPMM,32,39,0 123 1280
SPMM,33,32,0 123 1279
SPMM,33,33,0 123 1278
SPMM,33,34,0 123 1277
SPMM,33,35,0 123 1276
SPMM,33,36,0 123 1275
SPMM,33,37,0 123 1274
SPMM,33,38,0 123 1273
SPMM,33,39,0 123 1272
SPMM,34,32,0 123 1271
SPMM,34,33,0 123 1270
SPMM,34,34,0 123 1269
SPMM,34,35,0 123 1268
SPMM,34,36,0 123 1267
SPMM,34,37,0 123 1266
SPMM,34,38,0 123 1265
SPMM,34,39,0 123 1264
SPMM,35,32,0 123 1263
SPMM,35,33,0 123 1262
SPMM,35,34,0 123 1261
SPMM,35,35,0 123 1260
SPMM,35,36,0 123 1259
SPMM,35,37,0 123 1258
SPMM,35,38,0 123 1257
SPMM,35,39,0 123 1256
SPMM,36,32,0 123 1255
SPMM,36,33,0 123 1254
SPMM,36,34,0 123 1253
SPMM,36,35,0 123 1252
SPMM,36,36,0 123 1251
SPMM,36,37,0 123 1250
SPMM,36,38,0 123 1249
SPMM,36,39,0 123 1248
SPMM,37,32,0 123 1247
SPMM,37,33,0 123 1246
SPMM,37,34,0 123 1245
SPMM,37,35,0 123 1244
SPMM,37,36,0 123 1243
SPMM,37,37,0 123 1242
SPMM,37,38,0 123 1241
SPMM,37,39,0 123 1240
SPMM,38,32,0 123 1239
SPMM,38,33,0 123 1238
SPMM,38,34,0 123 1237
SPMM,38,35,0 123 1236
SPMM,38,36,0 123 1235
SPMM,38,37,0 123 1234
SPMM,38,38,0 123 1233
SPMM,38,39,0 123 1232
SPMM,39,32,0 123 1231
SPMM,39,33,0 123 1230
SPMM,39,34,0 123 1229
SPMM,39,35,0 123 1228
SPMM,39,36,0 123 1227
SPMM,39,37,0 123 1226
SPMM,39,38,0 123 1225
SPMM,39,39,0 123 1224
SPMM,32,48,0 124 1223
SPMM,32,49,0 124 1222
SPMM,32,50,0 124 1221
SPMM,33,48,0 124 1220
SPMM,33,49,0 124 1219
SPMM,33,50,0 124 1218
SPMM,34,48,0 124 1217
SPMM,34,49,0 124 1216
SPMM,34,50,0 124 1215
SPMM,35,48,0 124 1214
SPMM,35,49,0 124 1213
SPMM,35,50,0 124 1212
SPMM,36,48,0 124 1211
SPMM,36,49,0 124 1210
SPMM,36,50,0 124 1209
SPMM,37,48,0 124 1208
SPMM,37,49,0 124 1207
SPMM,37,50,0 124 1206
SPMM,38,48,0 124 1205
SPMM,38,49,0 124 1204
SPMM,38,50,0 124 1203
SPMM,39,48,0 124 1202
SPMM,39,49,0 124 1201
SPMM,39,50,0 124 1200
XTY,47,15,4 106 1199
XTY,46,14,4 106 1198
XTY,45,13,4 106 1197
XTY,44,12,4 106 1196
XTY,43,11,4 106 1195
XTY,42,10,4 106 1194
XTY,41,9,4 106 1193
XTY,40,8,4 106 1192
XY,8,3 106 1191
XY,9,3 106 1190
XY,10,3 106 1189
XY,11,3 106 1188
XY,12,3 106 1187
XY,13,3 106 1186
XY,14,3 106 1185
XY,15,3 106 1184
DLACPY,15,1 108 1183
SPMM,16,15,0 108 1182
SPMM,18,15,0 108 1181
SPMM,21,15,0 108 1180
SPMM,22,15,0 108 1179
SPMM,23,15,0 108 1178
DLACPY,14,1 108 1177
SPMM,2,14,0 108 1176
SPMM,3,14,0 108 1175
SPMM,4,14,0 108 1174
SPMM,5,14,0 108 1173
SPMM,6,14,0 108 1172
SPMM,7,14,0 108 1171
SPMM,18,14,0 108 1170
SPMM,19,14,0 108 1169
SPMM,20,14,0 108 1168
SPMM,21,14,0 108 1167
SPMM,23,14,0 108 1166
DLACPY,13,1 108 1165
SPMM,3,13,0 108 1164
SPMM,4,13,0 108 1163
SPMM,5,13,0 108 1162
SPMM,6,13,0 108 1161
SPMM,7,13,0 108 1160
DLACPY,12,1 108 1159
SPMM,2,12,0 108 1158
SPMM,3,12,0 108 1157
SPMM,4,12,0 108 1156
SPMM,5,12,0 108 1155
SPMM,6,12,0 108 1154
SPMM,7,12,0 108 1153
DLACPY,11,1 108 1152
SPMM,1,11,0 108 1151
SPMM,2,11,0 108 1150
SPMM,3,11,0 108 1149
SPMM,4,11,0 108 1148
SPMM,5,11,0 108 1147
SPMM,6,11,0 108 1146
SPMM,7,11,0 108 1145
DLACPY,10,1 108 1144
SPMM,2,10,0 108 1143
SPMM,3,10,0 108 1142
SPMM,4,10,0 108 1141
SPMM,5,10,0 108 1140
SPMM,6,10,0 108 1139
SPMM,7,10,0 108 1138
DLACPY,9,1 108 1137
SPMM,2,9,0 108 1136
SPMM,3,9,0 108 1135
SPMM,4,9,0 108 1134
SPMM,5,9,0 108 1133
SPMM,6,9,0 108 1132
SPMM,7,9,0 108 1131
DLACPY,8,1 108 1130
SPMM,2,8,0 108 1129
SPMM,3,8,0 108 1128
SPMM,4,8,0 108 1127
SPMM,5,8,0 108 1126
SPMM,6,8,0 108 1125
SPMM,7,8,0 108 1124
SPMM,16,50,0 113 1123
SPMM,17,50,0 113 1122
SPMM,18,50,0 113 1121
SPMM,19,50,0 113 1120
XTY,19,3,7 113 1119
SPMM,21,50,0 113 1118
SPMM,22,50,0 113 1117
SPMM,23,50,0 113 1116
SPMM,16,49,0 113 1115
SPMM,17,49,0 113 1114
SPMM,18,49,0 113 1113
SPMM,20,49,0 113 1112
XTY,20,4,7 113 1111
SPMM,21,49,0 113 1110
SPMM,22,49,0 113 1109
SPMM,23,49,0 113 1108
SPMM,16,48,0 113 1107
XTY,16,0,7 113 1106
SPMM,17,48,0 113 1105
XTY,17,1,7 113 1104
SPMM,18,48,0 113 1103
XTY,18,2,7 113 1102
SPMM,21,48,0 113 1101
XTY,21,5,7 113 1100
SPMM,22,48,0 113 1099
XTY,22,6,7 113 1098
SPMM,23,48,0 113 1097
XTY,23,7,7 113 1096
XTY,23,7,5 116 1095
XTY,22,6,5 116 1094
XTY,21,5,5 116 1093
XTY,18,2,5 116 1092
XTY,17,1,5 116 1091
XTY,16,0,5 116 1090
XTY,20,4,5 116 1089
XTY,19,3,5 116 1088
XTY,50,2,10 116 1087
XTY,49,1,10 116 1086
XTY,48,0,10 116 1085
SPMM,32,15,0 122 1084
SPMM,33,15,0 122 1083
SPMM,34,15,0 122 1082
SPMM,35,15,0 122 1081
SPMM,36,15,0 122 1080
SPMM,37,15,0 122 1079
SPMM,38,15,0 122 1078
SPMM,39,15,0 122 1077
SPMM,32,24,0 125 1076
SPMM,32,25,0 125 1075
SPMM,32,26,0 125 1074
SPMM,32,27,0 125 1073
SPMM,32,28,0 125 1072
SPMM,32,29,0 125 1071
SPMM,32,30,0 125 1070
SPMM,32,31,0 125 1069
XTY,32,0,7 125 1068
SPMM,33,24,0 125 1067
SPMM,33,25,0 125 1066
SPMM,33,26,0 125 1065
SPMM,33,27,0 125 1064
SPMM,33,28,0 125 1063
SPMM,33,29,0 125 1062
SPMM,33,30,0 125 1061
SPMM,33,31,0 125 1060
XTY,33,1,7 125 1059
SPMM,34,24,0 125 1058
SPMM,34,26,0 125 1057
SPMM,34,27,0 125 1056
SPMM,34,28,0 125 1055
SPMM,34,29,0 125 1054
SPMM,34,30,0 125 1053
SPMM,34,31,0 125 1052
XTY,34,2,7 125 1051
SPMM,35,24,0 125 1050
SPMM,35,26,0 125 1049
SPMM,35,27,0 125 1048
SPMM,35,28,0 125 1047
SPMM,35,29,0 125 1046
SPMM,35,30,0 125 1045
SPMM,35,31,0 125 1044
XTY,35,3,7 125 1043
SPMM,36,24,0 125 1042
SPMM,36,25,0 125 1041
SPMM,36,26,0 125 1040
SPMM,36,27,0 125 1039
SPMM,36,28,0 125 1038
SPMM,36,29,0 125 1037
SPMM,36,30,0 125 1036
SPMM,36,31,0 125 1035
XTY,36,4,7 125 1034
SPMM,37,24,0 125 1033
SPMM,37,26,0 125 1032
SPMM,37,27,0 125 1031
SPMM,37,28,0 125 1030
SPMM,37,29,0 125 1029
SPMM,37,30,0 125 1028
SPMM,37,31,0 125 1027
XTY,37,5,7 125 1026
SPMM,38,24,0 125 1025
SPMM,38,26,0 125 1024
SPMM,38,27,0 125 1023
SPMM,38,28,0 125 1022
SPMM,38,29,0 125 1021
SPMM,38,30,0 125 1020
SPMM,38,31,0 125 1019
XTY,38,6,7 125 1018
SPMM,39,24,0 125 1017
SPMM,39,26,0 125 1016
SPMM,39,27,0 125 1015
SPMM,39,28,0 125 1014
SPMM,39,29,0 125 1013
SPMM,39,30,0 125 1012
SPMM,39,31,0 125 1011
XTY,39,7,7 125 1010
XTY,39,7,5 126 1009
XTY,38,6,5 126 1008
XTY,37,5,5 126 1007
XTY,36,4,5 126 1006
XTY,35,3,5 126 1005
XTY,34,2,5 126 1004
XTY,33,1,5 126 1003
XTY,32,0,5 126 1002
SPMM,24,14,0 109 1001
SPMM,25,14,0 109 1000
SPMM,26,14,0 109 999
SPMM,24,15,0 109 998
SPMM,26,15,0 109 997
SPMM,27,15,0 109 996
SPMM,28,15,0 109 995
SPMM,29,15,0 109 994
SPMM,30,15,0 109 993
SPMM,31,15,0 109 992
SPMM,24,24,0 112 991
SPMM,25,24,0 112 990
SPMM,26,24,0 112 989
SPMM,28,24,0 112 988
SPMM,29,24,0 112 987
SPMM,30,24,0 112 986
SPMM,31,24,0 112 985
SPMM,24,25,0 112 984
SPMM,25,25,0 112 983
SPMM,26,25,0 112 982
SPMM,31,25,0 112 981
SPMM,24,26,0 112 980
SPMM,25,26,0 112 979
SPMM,26,26,0 112 978
SPMM,27,26,0 112 977
SPMM,28,26,0 112 976
SPMM,29,26,0 112 975
SPMM,30,26,0 112 974
SPMM,31,26,0 112 973
SPMM,26,27,0 112 972
SPMM,27,27,0 112 971
SPMM,28,27,0 112 970
SPMM,29,27,0 112 969
SPMM,30,27,0 112 968
SPMM,31,27,0 112 967
SPMM,24,28,0 112 966
SPMM,26,28,0 112 965
SPMM,27,28,0 112 964
SPMM,28,28,0 112 963
SPMM,29,28,0 112 962
SPMM,30,28,0 112 961
SPMM,31,28,0 112 960
SPMM,24,29,0 112 959
SPMM,26,29,0 112 958
SPMM,27,29,0 112 957
SPMM,28,29,0 112 956
SPMM,29,29,0 112 955
SPMM,30,29,0 112 954
SPMM,31,29,0 112 953
SPMM,24,30,0 112 952
SPMM,26,30,0 112 951
SPMM,27,30,0 112 950
SPMM,28,30,0 112 949
SPMM,29,30,0 112 948
SPMM,30,30,0 112 947
SPMM,31,30,0 112 946
SPMM,24,31,0 112 945
SPMM,25,31,0 112 944
SPMM,26,31,0 112 943
SPMM,27,31,0 112 942
SPMM,28,31,0 112 941
SPMM,29,31,0 112 940
SPMM,30,31,0 112 939
SPMM,31,31,0 112 938
SPMM,24,50,0 112 937
SPMM,25,50,0 112 936
SPMM,26,50,0 112 935
SPMM,27,50,0 112 934
SPMM,28,50,0 112 933
SPMM,29,50,0 112 932
SPMM,30,50,0 112 931
SPMM,31,50,0 112 930
SPMM,24,49,0 112 929
SPMM,25,49,0 112 928
XTY,25,9,5 112 927
SPMM,26,49,0 112 926
SPMM,27,49,0 112 925
SPMM,28,49,0 112 924
SPMM,29,49,0 112 923
SPMM,30,49,0 112 922
SPMM,31,49,0 112 921
SPMM,24,48,0 112 920
XTY,24,8,5 112 919
SPMM,26,48,0 112 918
XTY,26,10,5 112 917
SPMM,27,48,0 112 916
XTY,27,11,5 112 915
SPMM,28,48,0 112 914
XTY,28,12,5 112 913
SPMM,29,48,0 112 912
XTY,29,13,5 112 911
SPMM,30,48,0 112 910
XTY,30,14,5 112 909
SPMM,31,48,0 112 908
XTY,31,15,5 112 907
XTY,31,15,7 120 906
XTY,30,14,7 120 905
XTY,29,13,7 120 904
XTY,28,12,7 120 903
XTY,27,11,7 120 902
XTY,26,10,7 120 901
XTY,24,8,7 120 900
XTY,25,9,7 120 899
UPDATE,0,1 120 898
UPDATE,1,1 120 897
UPDATE,2,1 120 896
UPDATE,3,1 120 895
UPDATE,4,1 120 894
UPDATE,5,1 120 893
UPDATE,6,1 120 892
UPDATE,7,1 120 891
SPMM,8,8,0 129 890
SPMM,9,8,0 129 889
SPMM,10,8,0 129 888
SPMM,11,8,0 129 887
SPMM,12,8,0 129 886
SPMM,13,8,0 129 885
SPMM,14,8,0 129 884
SPMM,8,9,0 129 883
SPMM,9,9,0 129 882
SPMM,10,9,0 129 881
SPMM,11,9,0 129 880
SPMM,12,9,0 129 879
SPMM,13,9,0 129 878
SPMM,14,9,0 129 877
SPMM,8,10,0 129 876
SPMM,9,10,0 129 875
SPMM,10,10,0 129 874
SPMM,11,10,0 129 873
SPMM,12,10,0 129 872
SPMM,13,10,0 129 871
SPMM,14,10,0 129 870
SPMM,8,11,0 129 869
SPMM,9,11,0 129 868
SPMM,10,11,0 129 867
SPMM,11,11,0 129 866
SPMM,12,11,0 129 865
SPMM,13,11,0 129 864
SPMM,14,11,0 129 863
SPMM,8,12,0 129 862
SPMM,9,12,0 129 861
SPMM,10,12,0 129 860
SPMM,11,12,0 129 859
SPMM,12,12,0 129 858
SPMM,13,12,0 129 857
SPMM,14,12,0 129 856
SPMM,8,13,0 129 855
SPMM,9,13,0 129 854
SPMM,10,13,0 129 853
SPMM,11,13,0 129 852
SPMM,12,13,0 129 851
SPMM,13,13,0 129 850
SPMM,14,13,0 129 849
SPMM,8,14,0 129 848
SPMM,9,14,0 129 847
SPMM,10,14,0 129 846
SPMM,11,14,0 129 845
SPMM,12,14,0 129 844
SPMM,13,14,0 129 843
SPMM,14,14,0 129 842
SPMM,15,14,0 129 841
SPMM,14,15,0 129 840
SPMM,15,15,0 129 839
XTY,7,7,5 117 838
XTY,6,6,5 117 837
UPDATE,8,1 117 836
UPDATE,9,1 117 835
UPDATE,10,1 117 834
UPDATE,11,1 117 833
UPDATE,12,1 117 832
UPDATE,13,1 117 831
UPDATE,14,1 117 830
UPDATE,15,1 117 829
SPMM,0,24,0 117 828
SPMM,1,24,0 117 827
SPMM,2,24,0 117 826
SPMM,3,24,0 117 825
SPMM,4,24,0 117 824
SPMM,5,24,0 117 823
SPMM,0,25,0 117 822
SPMM,1,25,0 117 821
SPMM,2,25,0 117 820
SPMM,3,25,0 117 819
SPMM,4,25,0 117 818
SPMM,5,25,0 117 817
SPMM,0,26,0 117 816
XTY,0,0,5 117 815
SPMM,1,26,0 117 814
XTY,1,1,5 117 813
SPMM,2,26,0 117 812
XTY,2,2,5 117 811
SPMM,3,26,0 117 810
XTY,3,3,5 117 809
SPMM,4,26,0 117 808
XTY,4,4,5 117 807
SPMM,5,26,0 117 806
XTY,5,5,5 117 805
XTY,5,5,7 118 804
XTY,4,4,7 118 803
XTY,3,3,7 118 802
XTY,2,2,7 118 801
XTY,1,1,7 118 800
XTY,0,0,7 118 799
XTY,7,7,7 118 798
XTY,6,6,7 118 797
SPMM,48,47,0 118 796
SPMM,49,47,0 118 795
SPMM,50,47,0 118 794
SPMM,48,46,0 118 793
SPMM,49,46,0 118 792
SPMM,50,46,0 118 791
SPMM,48,45,0 118 790
SPMM,49,45,0 118 789
SPMM,50,45,0 118 788
SPMM,48,44,0 118 787
SPMM,49,44,0 118 786
SPMM,50,44,0 118 785
SPMM,48,43,0 118 784
SPMM,49,43,0 118 783
SPMM,50,43,0 118 782
SPMM,48,42,0 118 781
SPMM,49,42,0 118 780
SPMM,50,42,0 118 779
SPMM,48,41,0 118 778
SPMM,49,41,0 118 777
SPMM,50,41,0 118 776
SPMM,48,40,0 118 775
SPMM,49,40,0 118 774
SPMM,50,40,0 118 773
XTY,8,8,4 110 772
XTY,9,9,4 110 771
XTY,10,10,4 110 770
XTY,11,11,4 110 769
XTY,12,12,4 110 768
XTY,13,13,4 110 767
XTY,14,14,4 110 766
SPMM,40,15,0 110 765
SPMM,41,15,0 110 764
SPMM,42,15,0 110 763
SPMM,43,15,0 110 762
SPMM,44,15,0 110 761
SPMM,45,15,0 110 760
SPMM,46,15,0 110 759
SPMM,47,15,0 110 758
SPMM,48,15,0 110 757
SPMM,49,15,0 110 756
SPMM,50,15,0 110 755
XTY,15,15,4 110 754
SPMM,40,48,0 114 753
SPMM,40,49,0 114 752
SPMM,40,50,0 114 751
XTY,40,8,5 114 750
XTY,40,8,7 114 749
SPMM,41,48,0 114 748
SPMM,41,49,0 114 747
SPMM,41,50,0 114 746
XTY,41,9,5 114 745
XTY,41,9,7 114 744
SPMM,42,48,0 114 743
SPMM,42,49,0 114 742
SPMM,42,50,0 114 741
XTY,42,10,5 114 740
XTY,42,10,7 114 739
SPMM,43,48,0 114 738
SPMM,43,49,0 114 737
SPMM,43,50,0 114 736
XTY,43,11,5 114 735
XTY,43,11,7 114 734
SPMM,44,48,0 114 733
SPMM,44,49,0 114 732
SPMM,44,50,0 114 731
XTY,44,12,5 114 730
XTY,44,12,7 114 729
SPMM,45,48,0 114 728
SPMM,45,49,0 114 727
SPMM,45,50,0 114 726
XTY,45,13,5 114 725
XTY,45,13,7 114 724
SPMM,46,48,0 114 723
SPMM,46,49,0 114 722
SPMM,46,50,0 114 721
XTY,46,14,5 114 720
XTY,46,14,7 114 719
SPMM,47,48,0 114 718
SPMM,47,49,0 114 717
SPMM,47,50,0 114 716
XTY,47,15,5 114 715
XTY,47,15,7 114 714
XTY,8,8,10 115 713
XTY,9,9,10 115 712
XTY,10,10,10 115 711
XTY,11,11,10 115 710
XTY,12,12,10 115 709
XTY,13,13,10 115 708
XTY,14,14,10 115 707
XTY,15,15,10 115 706
SPMM,48,16,0 115 705
SPMM,48,17,0 115 704
SPMM,48,18,0 115 703
SPMM,48,21,0 115 702
SPMM,48,22,0 115 701
SPMM,48,23,0 115 700
SPMM,49,16,0 115 699
SPMM,49,17,0 115 698
SPMM,49,18,0 115 697
SPMM,49,20,0 115 696
SPMM,49,21,0 115 695
SPMM,49,22,0 115 694
SPMM,49,23,0 115 693
SPMM,50,16,0 115 692
SPMM,50,17,0 115 691
SPMM,50,18,0 115 690
SPMM,50,19,0 115 689
SPMM,50,21,0 115 688
SPMM,50,22,0 115 687
SPMM,50,23,0 115 686
SPMM,48,48,0 119 685
SPMM,48,49,0 119 684
SPMM,48,50,0 119 683
XTY,48,0,5 119 682
XTY,48,0,7 119 681
SPMM,49,48,0 119 680
SPMM,49,49,0 119 679
SPMM,49,50,0 119 678
XTY,49,1,5 119 677
XTY,49,1,7 119 676
SPMM,50,48,0 119 675
SPMM,50,49,0 119 674
SPMM,50,50,0 119 673
XTY,50,2,5 119 672
XTY,50,2,7 119 671
XTY,15,15,5 132 670
XTY,15,15,7 132 669
XTY,14,14,5 132 668
XTY,14,14,7 132 667
XTY,13,13,5 132 666
XTY,13,13,7 132 665
XTY,12,12,5 132 664
XTY,12,12,7 132 663
XTY,11,11,5 132 662
XTY,11,11,7 132 661
XTY,10,10,5 132 660
XTY,10,10,7 132 659
XTY,9,9,5 132 658
XTY,9,9,7 132 657
XTY,8,8,5 132 656
XTY,8,8,7 132 655
RED,RAPBUF,0 132 654
UPDATE,47,1 105 653
XTY,47,15,10 105 652
UPDATE,46,1 105 651
XTY,46,14,10 105 650
UPDATE,45,1 105 649
XTY,45,13,10 105 648
UPDATE,44,1 105 647
XTY,44,12,10 105 646
UPDATE,43,1 105 645
XTY,43,11,10 105 644
UPDATE,42,1 105 643
XTY,42,10,10 105 642
UPDATE,41,1 105 641
XTY,41,9,10 105 640
UPDATE,40,1 105 639
XTY,40,8,10 105 638
XTY,16,0,4 88 637
XTY,17,1,4 88 636
XTY,18,2,4 88 635
XTY,19,3,4 88 634
XTY,20,4,4 88 633
XTY,21,5,4 88 632
XTY,22,6,4 88 631
XTY,23,7,4 88 630
_AP,39 33 629
GET,39,3 33 628
_AP,38 33 627
GET,38,3 33 626
_AP,37 33 625
GET,37,3 33 624
_AP,36 33 623
GET,36,3 33 622
_AP,35 33 621
GET,35,3 33 620
_AP,34 33 619
GET,34,3 33 618
_AP,33 33 617
GET,33,3 33 616
_AP,32 33 615
GET,32,3 33 614
XY,32,5 53 613
XY,33,5 53 612
XY,34,5 53 611
XY,35,5 53 610
XY,36,5 53 609
XY,37,5 53 608
XY,38,5 53 607
XY,39,5 53 606
DLACPY,39,3 66 605
UPDATE,39,3 66 604
XTY,39,7,8 66 603
DLACPY,38,3 66 602
UPDATE,38,3 66 601
XTY,38,6,8 66 600
DLACPY,37,3 66 599
UPDATE,37,3 66 598
XTY,37,5,8 66 597
DLACPY,36,3 66 596
UPDATE,36,3 66 595
XTY,36,4,8 66 594
DLACPY,35,3 66 593
UPDATE,35,3 66 592
XTY,35,3,8 66 591
DLACPY,34,3 66 590
UPDATE,34,3 66 589
XTY,34,2,8 66 588
DLACPY,33,3 66 587
UPDATE,33,3 66 586
XTY,33,1,8 66 585
DLACPY,32,3 66 584
UPDATE,32,3 66 583
XTY,32,0,8 66 582
GET,8,3 25 581
GET,9,3 25 580
GET,10,3 25 579
GET,11,3 25 578
GET,12,3 25 577
GET,13,3 25 576
GET,14,3 25 575
GET,15,3 25 574
GET,48,3 25 573
GET,49,3 25 572
GET,50,3 25 571
XY,50,5 56 570
DLACPY,50,3 56 569
UPDATE,50,3 56 568
XY,49,5 56 567
DLACPY,49,3 56 566
UPDATE,49,3 56 565
XY,48,5 56 564
DLACPY,48,3 56 563
UPDATE,48,3 56 562
XY,15,5 59 561
DLACPY,15,3 59 560
UPDATE,15,3 59 559
XY,14,5 59 558
DLACPY,14,3 59 557
UPDATE,14,3 59 556
XY,13,5 59 555
DLACPY,13,3 59 554
UPDATE,13,3 59 553
XY,12,5 59 552
DLACPY,12,3 59 551
UPDATE,12,3 59 550
XY,11,5 59 549
DLACPY,11,3 59 548
UPDATE,11,3 59 547
XY,10,5 59 546
DLACPY,10,3 59 545
UPDATE,10,3 59 544
XY,9,5 59 543
DLACPY,9,3 59 542
UPDATE,9,3 59 541
XY,8,5 59 540
DLACPY,8,3 59 539
UPDATE,8,3 59 538
XTY,8,8,8 75 537
XTY,9,9,8 75 536
XTY,10,10,8 75 535
XTY,11,11,8 75 534
XTY,12,12,8 75 533
XTY,13,13,8 75 532
XTY,14,14,8 75 531
XTY,15,15,8 75 530
RED,XBPBUF,0 75 529
XTY,48,0,8 77 528
XTY,49,1,8 77 527
XTY,50,2,8 77 526
RED,PAPBUF,0 77 525
RED,XAPBUF,0 77 524
SPEUPDATE,PAP 127 523
RED,RBPBUF,0 127 522
CONSTRUCTGB 127 521
XTY,50,2,4 127 520
XTY,49,1,4 127 519
XTY,48,0,4 127 518
RED,XARBUF,0 127 517
CONSTRUCTGA1 127 516
RED,RARBUF,0 133 515
TRANS,RAR 133 514
SPEUPDATE,RAR 133 513
CONSTRUCTGA2 133 512
EIGEN 133 511
XY,8,8 133 510
XY,9,8 133 509
XY,10,8 133 508
XY,11,8 133 507
XY,12,8 133 506
XY,13,8 133 505
XY,14,8 133 504
XY,15,8 133 503
XY,0,6 134 502
XY,1,6 134 501
XY,2,6 134 500
XY,3,6 134 499
XY,4,6 134 498
XY,5,6 134 497
XY,6,6 134 496
XY,7,6 134 495
XY,0,7 135 494
ADD,0,1 135 493
XY,1,7 135 492
ADD,1,1 135 491
XY,2,7 135 490
ADD,2,1 135 489
XY,3,7 135 488
ADD,3,1 135 487
XY,4,7 135 486
ADD,4,1 135 485
XY,5,7 135 484
ADD,5,1 135 483
XY,6,7 135 482
ADD,6,1 135 481
XY,7,7 135 480
ADD,7,1 135 479
XY,0,10 138 478
ADD,0,3 138 477
XY,1,10 138 476
ADD,1,3 138 475
XY,2,10 138 474
ADD,2,3 138 473
XY,3,10 138 472
ADD,3,3 138 471
XY,4,10 138 470
ADD,4,3 138 469
XY,5,10 138 468
ADD,5,3 138 467
XY,6,10 138 466
ADD,6,3 138 465
XY,7,10 138 464
ADD,7,3 138 463
XY,8,6 146 462
XY,9,6 146 461
XY,10,6 146 460
XY,11,6 146 459
XY,12,6 146 458
XY,13,6 146 457
XY,14,6 146 456
XY,15,6 146 455
XY,8,7 147 454
ADD,8,1 147 453
XY,9,7 147 452
ADD,9,1 147 451
XY,10,7 147 450
ADD,10,1 147 449
XY,11,7 147 448
ADD,11,1 147 447
XY,12,7 147 446
ADD,12,1 147 445
XY,13,7 147 444
ADD,13,1 147 443
XY,14,7 147 442
ADD,14,1 147 441
XY,15,7 147 440
ADD,15,1 147 439
XY,8,10 159 438
ADD,8,3 159 437
XY,9,10 159 436
ADD,9,3 159 435
XY,10,10 159 434
ADD,10,3 159 433
XY,11,10 159 432
ADD,11,3 159 431
XY,12,10 159 430
ADD,12,3 159 429
XY,13,10 159 428
ADD,13,3 159 427
XY,14,10 159 426
ADD,14,3 159 425
XY,15,10 159 424
ADD,15,3 159 423
XY,16,6 143 422
XY,17,6 143 421
XY,18,6 143 420
XY,19,6 143 419
XY,20,6 143 418
XY,21,6 143 417
XY,22,6 143 416
XY,23,6 143 415
XY,24,6 139 414
XY,25,6 139 413
XY,26,6 139 412
XY,27,6 139 411
XY,28,6 139 410
XY,29,6 139 409
XY,30,6 139 408
XY,31,6 139 407
XY,24,7 176 406
ADD,24,1 176 405
XY,25,7 176 404
ADD,25,1 176 403
XY,26,7 176 402
ADD,26,1 176 401
XY,27,7 176 400
ADD,27,1 176 399
XY,28,7 176 398
ADD,28,1 176 397
XY,29,7 176 396
ADD,29,1 176 395
XY,30,7 176 394
ADD,30,1 176 393
XY,31,7 176 392
ADD,31,1 176 391
XY,32,6 150 390
XY,33,6 150 389
XY,34,6 150 388
XY,35,6 150 387
XY,36,6 150 386
XY,37,6 150 385
XY,38,6 150 384
XY,39,6 150 383
XY,32,7 151 382
ADD,32,1 151 381
XY,33,7 151 380
ADD,33,1 151 379
XY,34,7 151 378
ADD,34,1 151 377
XY,35,7 151 376
ADD,35,1 151 375
XY,36,7 151 374
ADD,36,1 151 373
XY,37,7 151 372
ADD,37,1 151 371
XY,38,7 151 370
ADD,38,1 151 369
XY,39,7 151 368
ADD,39,1 151 367
XY,32,10 152 366
ADD,32,3 152 365
XY,33,10 152 364
ADD,33,3 152 363
XY,34,10 152 362
ADD,34,3 152 361
XY,35,10 152 360
ADD,35,3 152 359
XY,36,10 152 358
ADD,36,3 152 357
XY,37,10 152 356
ADD,37,3 152 355
XY,38,10 152 354
ADD,38,3 152 353
XY,39,10 152 352
ADD,39,3 152 351
XY,40,6 136 350
XY,41,6 136 349
XY,42,6 136 348
XY,43,6 136 347
XY,44,6 136 346
XY,45,6 136 345
XY,46,6 136 344
XY,47,6 136 343
XY,40,7 179 342
ADD,40,1 179 341
XY,41,7 179 340
ADD,41,1 179 339
XY,42,7 179 338
ADD,42,1 179 337
XY,43,7 179 336
ADD,43,1 179 335
XY,44,7 179 334
ADD,44,1 179 333
XY,45,7 179 332
ADD,45,1 179 331
XY,46,7 179 330
ADD,46,1 179 329
XY,47,7 179 328
ADD,47,1 179 327
XY,48,6 137 326
XY,49,6 137 325
XY,50,6 137 324
XY,48,7 142 323
ADD,48,1 142 322
XY,49,7 142 321
ADD,49,1 142 320
XY,50,7 142 319
ADD,50,1 142 318
XY,16,7 141 317
XY,17,7 141 316
XY,18,7 141 315
XY,19,7 141 314
XY,20,7 141 313
XY,21,7 141 312
XY,22,7 141 311
XY,23,7 141 310
ADD,23,1 148 309
ADD,22,1 148 308
ADD,21,1 148 307
ADD,20,1 148 306
ADD,19,1 148 305
ADD,18,1 148 304
ADD,17,1 148 303
ADD,16,1 148 302
XY,16,10 153 301
ADD,16,3 153 300
XY,17,10 153 299
ADD,17,3 153 298
XY,18,10 153 297
ADD,18,3 153 296
XY,19,10 153 295
ADD,19,3 153 294
XY,20,10 153 293
ADD,20,3 153 292
XY,21,10 153 291
ADD,21,3 153 290
XY,22,10 153 289
ADD,22,3 153 288
XY,23,10 153 287
ADD,23,3 153 286
XY,24,8 160 285
XY,25,8 160 284
XY,26,8 160 283
XY,27,8 160 282
XY,28,8 160 281
XY,29,8 160 280
XY,30,8 160 279
XY,31,8 160 278
XY,24,9 163 277
ADD,24,2 163 276
XY,25,9 163 275
ADD,25,2 163 274
XY,26,9 163 273
ADD,26,2 163 272
XY,27,9 163 271
ADD,27,2 163 270
XY,28,9 163 269
ADD,28,2 163 268
XY,29,9 163 267
ADD,29,2 163 266
XY,30,9 163 265
ADD,30,2 163 264
XY,31,9 163 263
ADD,31,2 163 262
XY,24,11 166 261
ADD,24,4 166 260
XY,25,11 166 259
ADD,25,4 166 258
XY,26,11 166 257
ADD,26,4 166 256
XY,27,11 166 255
ADD,27,4 166 254
XY,28,11 166 253
ADD,28,4 166 252
XY,29,11 166 251
ADD,29,4 166 250
XY,30,11 166 249
ADD,30,4 166 248
XY,31,11 166 247
ADD,31,4 166 246
XY,48,8 167 245
XY,49,8 167 244
XY,50,8 167 243
XY,0,9 158 242
XY,1,9 158 241
XY,2,9 158 240
XY,3,9 158 239
XY,4,9 158 238
XY,5,9 158 237
XY,6,9 158 236
XY,7,9 158 235
XY,8,9 161 234
ADD,8,2 161 233
XY,9,9 161 232
ADD,9,2 161 231
XY,10,9 161 230
ADD,10,2 161 229
XY,11,9 161 228
ADD,11,2 161 227
XY,12,9 161 226
ADD,12,2 161 225
XY,13,9 161 224
ADD,13,2 161 223
XY,14,9 161 222
ADD,14,2 161 221
XY,15,9 161 220
ADD,15,2 161 219
XY,16,9 170 218
XY,17,9 170 217
XY,18,9 170 216
XY,19,9 170 215
XY,20,9 170 214
XY,21,9 170 213
XY,22,9 170 212
XY,23,9 170 211
XY,16,8 171 210
ADD,16,2 171 209
XY,17,8 171 208
ADD,17,2 171 207
XY,18,8 171 206
ADD,18,2 171 205
XY,19,8 171 204
ADD,19,2 171 203
XY,20,8 171 202
ADD,20,2 171 201
XY,21,8 171 200
ADD,21,2 171 199
XY,22,8 171 198
ADD,22,2 171 197
XY,23,8 171 196
ADD,23,2 171 195
XY,16,11 172 194
ADD,16,4 172 193
XY,17,11 172 192
ADD,17,4 172 191
XY,18,11 172 190
ADD,18,4 172 189
XY,19,11 172 188
ADD,19,4 172 187
XY,20,11 172 186
ADD,20,4 172 185
XY,21,11 172 184
ADD,21,4 172 183
XY,22,11 172 182
ADD,22,4 172 181
XY,23,11 172 180
ADD,23,4 172 179
XY,32,9 144 178
XY,33,9 144 177
XY,34,9 144 176
XY,35,9 144 175
XY,36,9 144 174
XY,37,9 144 173
XY,38,9 144 172
XY,39,9 144 171
XY,40,9 145 170
XY,41,9 145 169
XY,42,9 145 168
XY,43,9 145 167
XY,44,9 145 166
XY,45,9 145 165
XY,46,9 145 164
XY,47,9 145 163
XY,40,8 155 162
ADD,40,2 155 161
XY,41,8 155 160
ADD,41,2 155 159
XY,42,8 155 158
ADD,42,2 155 157
XY,43,8 155 156
ADD,43,2 155 155
XY,44,8 155 154
ADD,44,2 155 153
XY,45,8 155 152
ADD,45,2 155 151
XY,46,8 155 150
ADD,46,2 155 149
XY,47,8 155 148
ADD,47,2 155 147
XY,40,11 164 146
ADD,40,4 164 145
XY,41,11 164 144
ADD,41,4 164 143
XY,42,11 164 142
ADD,42,4 164 141
XY,43,11 164 140
ADD,43,4 164 139
XY,44,11 164 138
ADD,44,4 164 137
XY,45,11 164 136
ADD,45,4 164 135
XY,46,11 164 134
ADD,46,4 164 133
XY,47,11 164 132
ADD,47,4 164 131
XY,48,9 149 130
XY,49,9 149 129
XY,50,9 149 128
XY,24,10 154 127
XY,25,10 154 126
XY,26,10 154 125
XY,27,10 154 124
XY,28,10 154 123
XY,29,10 154 122
XY,30,10 154 121
XY,31,10 154 120
ADD,31,3 177 119
ADD,30,3 177 118
ADD,29,3 177 117
ADD,28,3 177 116
ADD,27,3 177 115
ADD,26,3 177 114
ADD,25,3 177 113
ADD,24,3 177 112
XY,40,10 156 111
XY,41,10 156 110
XY,42,10 156 109
XY,43,10 156 108
XY,44,10 156 107
XY,45,10 156 106
XY,46,10 156 105
XY,47,10 156 104
ADD,47,3 180 103
ADD,46,3 180 102
ADD,45,3 180 101
ADD,44,3 180 100
ADD,43,3 180 99
ADD,42,3 180 98
ADD,41,3 180 97
ADD,40,3 180 96
XY,48,10 157 95
XY,49,10 157 94
XY,50,10 157 93
ADD,50,3 165 92
ADD,49,3 165 91
ADD,48,3 165 90
XY,0,11 168 89
XY,1,11 168 88
XY,2,11 168 87
XY,3,11 168 86
XY,4,11 168 85
XY,5,11 168 84
XY,6,11 168 83
XY,7,11 168 82
XY,0,8 175 81
ADD,0,2 175 80
ADD,0,4 175 79
XY,1,8 175 78
ADD,1,2 175 77
ADD,1,4 175 76
XY,2,8 175 75
ADD,2,2 175 74
ADD,2,4 175 73
XY,3,8 175 72
ADD,3,2 175 71
ADD,3,4 175 70
XY,4,8 175 69
ADD,4,2 175 68
ADD,4,4 175 67
XY,5,8 175 66
ADD,5,2 175 65
ADD,5,4 175 64
XY,6,8 175 63
ADD,6,2 175 62
ADD,6,4 175 61
XY,7,8 175 60
ADD,7,2 175 59
ADD,7,4 175 58
XY,8,11 140 57
XY,9,11 140 56
XY,10,11 140 55
XY,11,11 140 54
XY,12,11 140 53
XY,13,11 140 52
XY,14,11 140 51
XY,15,11 140 50
ADD,15,4 169 49
ADD,14,4 169 48
ADD,13,4 169 47
ADD,12,4 169 46
ADD,11,4 169 45
ADD,10,4 169 44
ADD,9,4 169 43
ADD,8,4 169 42
XY,32,11 162 41
XY,33,11 162 40
XY,34,11 162 39
XY,35,11 162 38
XY,36,11 162 37
XY,37,11 162 36
XY,38,11 162 35
XY,39,11 162 34
XY,32,8 178 33
ADD,32,2 178 32
ADD,32,4 178 31
XY,33,8 178 30
ADD,33,2 178 29
ADD,33,4 178 28
XY,34,8 178 27
ADD,34,2 178 26
ADD,34,4 178 25
XY,35,8 178 24
ADD,35,2 178 23
ADD,35,4 178 22
XY,36,8 178 21
ADD,36,2 178 20
ADD,36,4 178 19
XY,37,8 178 18
ADD,37,2 178 17
ADD,37,4 178 16
XY,38,8 178 15
ADD,38,2 178 14
ADD,38,4 178 13
XY,39,8 178 12
ADD,39,2 178 11
ADD,39,4 178 10
XY,48,11 173 9
XY,49,11 173 8
XY,50,11 173 7
ADD,50,2 174 6
ADD,50,4 174 5
ADD,49,2 174 4
ADD,49,4 174 3
ADD,48,2 174 2
ADD,48,4 174 1
