SETZERO,25,1 0 2633
SETZERO,24,1 0 2632
SETZERO,23,1 0 2631
SETZERO,22,1 0 2630
_X,49 0 2629
_X,48 0 2628
_X,41 0 2627
_X,40 0 2626
_AX,37 0 2625
_AX,36 0 2624
_X,37 0 2623
_X,36 0 2622
_AX,29 0 2621
_AX,28 0 2620
_X,27 0 2619
_X,26 0 2618
_X,25 0 2617
_X,24 0 2616
_X,23 0 2615
_X,22 0 2614
_X,5 0 2613
_X,4 0 2612
_lambda 0 2611
XY,22,1 0 2610
XY,23,1 0 2609
XY,24,1 0 2608
XY,25,1 0 2607
XY,26,1 0 2606
XY,27,1 0 2605
XY,36,1 0 2604
SUB,36,1 0 2603
MULT,36 0 2602
COL,36,4 0 2601
XY,37,1 0 2600
SUB,37,1 0 2599
MULT,37 0 2598
COL,37,5 0 2597
XY,40,1 2 2596
XY,41,1 2 2595
SETZERO,41,1 2 2594
SETZERO,40,1 2 2593
SETZERO,31,1 2 2592
SETZERO,30,1 2 2591
SETZERO,27,1 2 2590
SETZERO,26,1 2 2589
SETZERO,17,1 2 2588
SETZERO,16,1 2 2587
_AX,41 2 2586
SUB,41,1 2 2585
MULT,41 2 2584
_AX,40 2 2583
SUB,40,1 2 2582
MULT,40 2 2581
_AX,27 2 2580
SUB,27,1 2 2579
MULT,27 2 2578
COL,27,11 2 2577
_AX,26 2 2576
SUB,26,1 2 2575
MULT,26 2 2574
COL,26,10 2 2573
_X,17 2 2572
XY,17,1 2 2571
_X,16 2 2570
XY,16,1 2 2569
_X,11 2 2568
XY,11,1 2 2567
_X,10 2 2566
XY,10,1 2 2565
SETZERO,43,1 3 2564
SETZERO,42,1 3 2563
SETZERO,37,1 3 2562
SETZERO,36,1 3 2561
SETZERO,7,1 3 2560
SETZERO,6,1 3 2559
SETZERO,3,1 3 2558
SETZERO,2,1 3 2557
_X,47 3 2556
XY,47,1 3 2555
_X,46 3 2554
XY,46,1 3 2553
_X,31 3 2552
XY,31,1 3 2551
_X,30 3 2550
XY,30,1 3 2549
_AX,25 3 2548
SUB,25,1 3 2547
MULT,25 3 2546
COL,25,9 3 2545
_AX,24 3 2544
SUB,24,1 3 2543
MULT,24 3 2542
COL,24,8 3 2541
_AX,17 3 2540
SUB,17,1 3 2539
MULT,17 3 2538
COL,17,1 3 2537
_AX,16 3 2536
SUB,16,1 3 2535
MULT,16 3 2534
COL,16,0 3 2533
XY,4,1 1 2532
XY,5,1 1 2531
XY,48,1 1 2530
XY,49,1 1 2529
SETZERO,35,1 1 2528
SETZERO,34,1 1 2527
SETZERO,33,1 1 2526
SETZERO,32,1 1 2525
SETZERO,5,1 1 2524
SETZERO,4,1 1 2523
_X,43 1 2522
XY,43,1 1 2521
_X,42 1 2520
XY,42,1 1 2519
_X,29 1 2518
XY,29,1 1 2517
SUB,29,1 1 2516
_X,28 1 2515
XY,28,1 1 2514
SUB,28,1 1 2513
_X,9 1 2512
XY,9,1 1 2511
_X,8 1 2510
XY,8,1 1 2509
_AX,5 1 2508
SUB,5,1 1 2507
MULT,5 1 2506
COL,5,5 1 2505
_AX,4 1 2504
SUB,4,1 1 2503
MULT,4 1 2502
COL,4,4 1 2501
MULT,28 4 2500
COL,28,12 4 2499
MULT,29 4 2498
COL,29,13 4 2497
SETZERO,50,1 4 2496
SETZERO,19,1 4 2495
SETZERO,18,1 4 2494
SETZERO,15,1 4 2493
SETZERO,14,1 4 2492
SETZERO,11,1 4 2491
SETZERO,10,1 4 2490
_AX,50 4 2489
_X,50 4 2488
XY,50,1 4 2487
SUB,50,1 4 2486
MULT,50 4 2485
_AX,47 4 2484
_AX,46 4 2483
_X,19 4 2482
XY,19,1 4 2481
_X,18 4 2480
XY,18,1 4 2479
_AX,11 4 2478
SUB,11,1 4 2477
MULT,11 4 2476
_AX,10 4 2475
SUB,10,1 4 2474
MULT,10 4 2473
SUB,46,1 5 2472
MULT,46 5 2471
COL,46,14 5 2470
SUB,47,1 5 2469
MULT,47 5 2468
COL,47,15 5 2467
_AX,43 5 2466
SUB,43,1 5 2465
MULT,43 5 2464
COL,43,11 5 2463
_AX,42 5 2462
SUB,42,1 5 2461
MULT,42 5 2460
COL,42,10 5 2459
_X,39 5 2458
XY,39,1 5 2457
_X,38 5 2456
XY,38,1 5 2455
_AX,31 5 2454
SUB,31,1 5 2453
MULT,31 5 2452
_AX,30 5 2451
SUB,30,1 5 2450
MULT,30 5 2449
_AX,1 5 2448
_AX,0 5 2447
_X,1 5 2446
XY,1,1 5 2445
SUB,1,1 5 2444
_X,0 5 2443
XY,0,1 5 2442
SUB,0,1 5 2441
COL,30,14 8 2440
COL,31,15 8 2439
SETZERO,47,1 8 2438
SETZERO,46,1 8 2437
SETZERO,39,1 8 2436
SETZERO,38,1 8 2435
SETZERO,29,1 8 2434
SETZERO,28,1 8 2433
SETZERO,21,1 8 2432
SETZERO,20,1 8 2431
SETZERO,1,1 8 2430
SETZERO,0,1 8 2429
_AX,35 8 2428
_AX,34 8 2427
_X,35 8 2426
XY,35,1 8 2425
SUB,35,1 8 2424
_X,34 8 2423
XY,34,1 8 2422
SUB,34,1 8 2421
_X,33 8 2420
XY,33,1 8 2419
_X,32 8 2418
XY,32,1 8 2417
_AX,7 8 2416
_AX,6 8 2415
_X,7 8 2414
XY,7,1 8 2413
SUB,7,1 8 2412
MULT,7 8 2411
_X,6 8 2410
XY,6,1 8 2409
SUB,6,1 8 2408
MULT,6 8 2407
MULT,34 9 2406
COL,34,2 9 2405
MULT,35 9 2404
COL,35,3 9 2403
SETZERO,49,1 9 2402
SETZERO,48,1 9 2401
SETZERO,45,1 9 2400
SETZERO,44,1 9 2399
SETZERO,13,1 9 2398
SETZERO,12,1 9 2397
SETZERO,9,1 9 2396
SETZERO,8,1 9 2395
_AX,23 9 2394
SUB,23,1 9 2393
MULT,23 9 2392
COL,23,7 9 2391
_AX,22 9 2390
SUB,22,1 9 2389
MULT,22 9 2388
COL,22,6 9 2387
_AX,3 9 2386
_AX,2 9 2385
_X,3 9 2384
XY,3,1 9 2383
SUB,3,1 9 2382
MULT,3 9 2381
COL,3,3 9 2380
_X,2 9 2379
XY,2,1 9 2378
SUB,2,1 9 2377
MULT,2 9 2376
COL,2,2 9 2375
COL,6,6 10 2374
COL,7,7 10 2373
_AX,45 10 2372
_AX,44 10 2371
_X,45 10 2370
XY,45,1 10 2369
SUB,45,1 10 2368
MULT,45 10 2367
COL,45,13 10 2366
_X,44 10 2365
XY,44,1 10 2364
SUB,44,1 10 2363
MULT,44 10 2362
COL,44,12 10 2361
_AX,33 10 2360
SUB,33,1 10 2359
MULT,33 10 2358
_AX,32 10 2357
SUB,32,1 10 2356
MULT,32 10 2355
_AX,13 10 2354
_AX,12 10 2353
_X,13 10 2352
XY,13,1 10 2351
SUB,13,1 10 2350
MULT,13 10 2349
COL,13,13 10 2348
_X,12 10 2347
XY,12,1 10 2346
SUB,12,1 10 2345
MULT,12 10 2344
COL,12,12 10 2343
MULT,0 6 2342
COL,0,0 6 2341
MULT,1 6 2340
COL,1,1 6 2339
COL,50,2 6 2338
_AX,39 6 2337
SUB,39,1 6 2336
MULT,39 6 2335
COL,39,7 6 2334
_AX,38 6 2333
SUB,38,1 6 2332
MULT,38 6 2331
COL,38,6 6 2330
_X,21 6 2329
XY,21,1 6 2328
_X,20 6 2327
XY,20,1 6 2326
_AX,19 6 2325
SUB,19,1 6 2324
MULT,19 6 2323
COL,19,3 6 2322
_AX,18 6 2321
SUB,18,1 6 2320
MULT,18 6 2319
COL,18,2 6 2318
_AX,9 6 2317
SUB,9,1 6 2316
MULT,9 6 2315
_AX,8 6 2314
SUB,8,1 6 2313
MULT,8 6 2312
COL,8,8 7 2311
COL,9,9 7 2310
COL,40,8 7 2309
COL,41,9 7 2308
_AX,49 7 2307
SUB,49,1 7 2306
MULT,49 7 2305
COL,49,1 7 2304
_AX,48 7 2303
SUB,48,1 7 2302
MULT,48 7 2301
COL,48,0 7 2300
_AX,21 7 2299
SUB,21,1 7 2298
MULT,21 7 2297
COL,21,5 7 2296
_AX,20 7 2295
SUB,20,1 7 2294
MULT,20 7 2293
COL,20,4 7 2292
_AX,15 7 2291
_AX,14 7 2290
_X,15 7 2289
XY,15,1 7 2288
SUB,15,1 7 2287
MULT,15 7 2286
COL,15,15 7 2285
_X,14 7 2284
XY,14,1 7 2283
SUB,14,1 7 2282
MULT,14 7 2281
COL,14,14 7 2280
COL,32,0 11 2279
COL,33,1 11 2278
COL,10,10 11 2277
COL,11,11 11 2276
RESET,RN 11 2275
RNRED,RNBUF 11 2274
SQRT,RN 11 2273
RESET,actMask 11 2272
CONV,actMask 11 2271
GET,6,1 11 2270
XTY,6,6,1 11 2269
GET,7,1 11 2268
XTY,7,7,1 11 2267
GET,12,1 11 2266
XTY,12,12,1 11 2265
GET,13,1 11 2264
XTY,13,13,1 11 2263
GET,32,1 11 2262
XTY,32,0,1 11 2261
GET,33,1 11 2260
XTY,33,1,1 11 2259
GET,34,1 11 2258
GET,35,1 11 2257
GET,44,1 11 2256
XTY,44,12,1 11 2255
GET,45,1 11 2254
XTY,45,13,1 11 2253
GET,8,1 13 2252
XTY,8,8,1 13 2251
GET,9,1 13 2250
XTY,9,9,1 13 2249
GET,20,1 13 2248
XTY,20,4,1 13 2247
GET,21,1 13 2246
XTY,21,5,1 13 2245
GET,38,1 13 2244
XTY,38,6,1 13 2243
GET,39,1 13 2242
XTY,39,7,1 13 2241
GET,42,1 13 2240
XTY,42,10,1 13 2239
GET,43,1 13 2238
XTY,43,11,1 13 2237
GET,0,1 12 2236
XTY,0,0,1 12 2235
GET,1,1 12 2234
XTY,1,1,1 12 2233
GET,4,1 12 2232
GET,5,1 12 2231
GET,22,1 12 2230
GET,23,1 12 2229
GET,24,1 12 2228
XTY,24,8,1 12 2227
GET,25,1 12 2226
XTY,25,9,1 12 2225
GET,30,1 12 2224
XTY,30,14,1 12 2223
GET,31,1 12 2222
XTY,31,15,1 12 2221
GET,46,1 12 2220
XTY,46,14,1 12 2219
GET,47,1 12 2218
XTY,47,15,1 12 2217
XTY,23,7,1 14 2216
XTY,22,6,1 14 2215
XTY,5,5,1 14 2214
XTY,4,4,1 14 2213
GET,10,1 14 2212
XTY,10,10,1 14 2211
GET,11,1 14 2210
XTY,11,11,1 14 2209
GET,14,1 14 2208
XTY,14,14,1 14 2207
GET,15,1 14 2206
XTY,15,15,1 14 2205
GET,18,1 14 2204
XTY,18,2,1 14 2203
GET,19,1 14 2202
XTY,19,3,1 14 2201
XTY,35,3,1 16 2200
XTY,34,2,1 16 2199
GET,16,1 16 2198
XTY,16,0,1 16 2197
GET,17,1 16 2196
XTY,17,1,1 16 2195
GET,28,1 16 2194
GET,29,1 16 2193
GET,40,1 16 2192
XTY,40,8,1 16 2191
GET,41,1 16 2190
XTY,41,9,1 16 2189
GET,48,1 16 2188
XTY,48,0,1 16 2187
GET,49,1 16 2186
XTY,49,1,1 16 2185
GET,2,1 15 2184
XTY,2,2,1 15 2183
GET,3,1 15 2182
XTY,3,3,1 15 2181
GET,26,1 15 2180
XTY,26,10,1 15 2179
GET,27,1 15 2178
XTY,27,11,1 15 2177
GET,36,1 15 2176
XTY,36,4,1 15 2175
GET,37,1 15 2174
XTY,37,5,1 15 2173
GET,50,1 15 2172
XTY,50,2,1 15 2171
XTY,29,13,1 17 2170
XTY,28,12,1 17 2169
RED,temp2BUF,0 17 2168
XY,0,2 17 2167
XY,1,2 17 2166
XY,2,2 17 2165
XY,3,2 17 2164
XY,4,2 17 2163
XY,5,2 17 2162
XY,6,2 17 2161
XY,7,2 17 2160
XY,8,2 17 2159
XY,9,2 17 2158
XY,50,2 17 2157
XY,10,2 19 2156
XY,11,2 19 2155
XY,12,2 19 2154
XY,13,2 19 2153
XY,14,2 19 2152
XY,15,2 19 2151
XY,18,2 19 2150
XY,19,2 19 2149
XY,30,2 19 2148
XY,31,2 19 2147
XY,42,2 19 2146
XY,43,2 19 2145
XY,44,2 19 2144
XY,45,2 19 2143
XY,46,2 19 2142
XY,47,2 19 2141
SUB,43,2 20 2140
XTY,43,11,2 20 2139
SUB,42,2 20 2138
XTY,42,10,2 20 2137
SUB,9,2 20 2136
XTY,9,9,2 20 2135
SUB,8,2 20 2134
XTY,8,8,2 20 2133
XY,24,2 20 2132
SUB,24,2 20 2131
XTY,24,8,2 20 2130
XY,25,2 20 2129
SUB,25,2 20 2128
XTY,25,9,2 20 2127
XY,26,2 20 2126
XY,27,2 20 2125
XY,16,2 18 2124
XY,17,2 18 2123
XY,20,2 18 2122
XY,21,2 18 2121
XY,28,2 18 2120
XY,29,2 18 2119
XY,32,2 18 2118
XY,33,2 18 2117
XY,34,2 18 2116
XY,35,2 18 2115
XY,36,2 18 2114
XY,37,2 18 2113
XY,40,2 18 2112
XY,41,2 18 2111
XY,48,2 18 2110
XY,49,2 18 2109
SUB,41,2 21 2108
XTY,41,9,2 21 2107
SUB,40,2 21 2106
XTY,40,8,2 21 2105
SUB,35,2 21 2104
SUB,34,2 21 2103
SUB,13,2 21 2102
XTY,13,13,2 21 2101
SUB,12,2 21 2100
XTY,12,12,2 21 2099
SUB,50,2 21 2098
XTY,50,2,2 21 2097
SUB,1,2 21 2096
XTY,1,1,2 21 2095
SUB,0,2 21 2094
XTY,0,0,2 21 2093
XTY,34,2,2 22 2092
XTY,35,3,2 22 2091
SUB,37,2 22 2090
XTY,37,5,2 22 2089
SUB,36,2 22 2088
XTY,36,4,2 22 2087
SUB,33,2 22 2086
XTY,33,1,2 22 2085
SUB,32,2 22 2084
XTY,32,0,2 22 2083
SUB,17,2 22 2082
XTY,17,1,2 22 2081
SUB,16,2 22 2080
XTY,16,0,2 22 2079
SUB,27,2 22 2078
XTY,27,11,2 22 2077
SUB,26,2 22 2076
XTY,26,10,2 22 2075
SUB,31,2 22 2074
XTY,31,15,2 22 2073
SUB,30,2 22 2072
XTY,30,14,2 22 2071
SUB,11,2 22 2070
XTY,11,11,2 22 2069
SUB,10,2 22 2068
XTY,10,10,2 22 2067
XY,38,2 22 2066
SUB,38,2 22 2065
XTY,38,6,2 22 2064
XY,39,2 22 2063
SUB,39,2 22 2062
XTY,39,7,2 22 2061
SUB,49,2 23 2060
XTY,49,1,2 23 2059
SUB,48,2 23 2058
XTY,48,0,2 23 2057
SUB,29,2 23 2056
XTY,29,13,2 23 2055
SUB,28,2 23 2054
XTY,28,12,2 23 2053
SUB,21,2 23 2052
XTY,21,5,2 23 2051
SUB,20,2 23 2050
XTY,20,4,2 23 2049
SUB,47,2 23 2048
XTY,47,15,2 23 2047
SUB,46,2 23 2046
XTY,46,14,2 23 2045
SUB,19,2 23 2044
XTY,19,3,2 23 2043
SUB,18,2 23 2042
XTY,18,2,2 23 2041
SUB,7,2 23 2040
XTY,7,7,2 23 2039
SUB,6,2 23 2038
XTY,6,6,2 23 2037
SUB,5,2 23 2036
XTY,5,5,2 23 2035
SUB,4,2 23 2034
XTY,4,4,2 23 2033
SUB,3,2 23 2032
XTY,3,3,2 23 2031
SUB,2,2 23 2030
XTY,2,2,2 23 2029
SUB,45,2 24 2028
XTY,45,13,2 24 2027
SUB,44,2 24 2026
XTY,44,12,2 24 2025
SUB,15,2 24 2024
XTY,15,15,2 24 2023
SUB,14,2 24 2022
XTY,14,14,2 24 2021
XY,22,2 24 2020
SUB,22,2 24 2019
XTY,22,6,2 24 2018
XY,23,2 24 2017
SUB,23,2 24 2016
XTY,23,7,2 24 2015
RED,RBRBUF,0 24 2014
CHOL,RBR 25 2013
INV,RBR 25 2012
XY,2,3 25 2011
XY,3,3 25 2010
XY,4,3 25 2009
XY,5,3 25 2008
XY,36,3 25 2007
XY,37,3 25 2006
XY,44,3 25 2005
XY,45,3 25 2004
XY,48,3 25 2003
XY,49,3 25 2002
XY,50,3 25 2001
DLACPY,50,1 40 2000
SPMM,15,50,0 40 1999
SPMM,16,50,0 40 1998
SPMM,17,50,0 40 1997
SPMM,22,50,0 40 1996
SPMM,23,50,0 40 1995
SPMM,26,50,0 40 1994
SPMM,27,50,0 40 1993
SPMM,28,50,0 40 1992
SPMM,29,50,0 40 1991
SPMM,30,50,0 40 1990
SPMM,31,50,0 40 1989
SPMM,32,50,0 40 1988
SPMM,33,50,0 40 1987
SPMM,34,50,0 40 1986
SPMM,35,50,0 40 1985
SPMM,36,50,0 40 1984
SPMM,37,50,0 40 1983
SPMM,38,50,0 40 1982
SPMM,39,50,0 40 1981
SPMM,40,50,0 40 1980
SPMM,41,50,0 40 1979
SPMM,44,50,0 40 1978
SPMM,45,50,0 40 1977
SPMM,46,50,0 40 1976
SPMM,47,50,0 40 1975
SPMM,50,50,0 40 1974
UPDATE,50,1 40 1973
XTY,50,2,4 40 1972
DLACPY,49,1 34 1971
SPMM,15,49,0 34 1970
SPMM,16,49,0 34 1969
SPMM,17,49,0 34 1968
SPMM,20,49,0 34 1967
SPMM,21,49,0 34 1966
SPMM,22,49,0 34 1965
SPMM,23,49,0 34 1964
SPMM,30,49,0 34 1963
SPMM,31,49,0 34 1962
SPMM,32,49,0 34 1961
SPMM,33,49,0 34 1960
SPMM,34,49,0 34 1959
SPMM,35,49,0 34 1958
SPMM,36,49,0 34 1957
SPMM,37,49,0 34 1956
SPMM,38,49,0 34 1955
SPMM,39,49,0 34 1954
SPMM,40,49,0 34 1953
SPMM,41,49,0 34 1952
SPMM,42,49,0 34 1951
SPMM,43,49,0 34 1950
SPMM,44,49,0 34 1949
SPMM,45,49,0 34 1948
SPMM,46,49,0 34 1947
SPMM,47,49,0 34 1946
SPMM,48,49,0 34 1945
SPMM,49,49,0 34 1944
XTY,49,1,4 34 1943
DLACPY,48,1 34 1942
SPMM,15,48,0 34 1941
SPMM,16,48,0 34 1940
SPMM,17,48,0 34 1939
SPMM,21,48,0 34 1938
SPMM,22,48,0 34 1937
SPMM,23,48,0 34 1936
SPMM,30,48,0 34 1935
SPMM,31,48,0 34 1934
SPMM,32,48,0 34 1933
SPMM,33,48,0 34 1932
SPMM,34,48,0 34 1931
SPMM,35,48,0 34 1930
SPMM,36,48,0 34 1929
SPMM,37,48,0 34 1928
SPMM,38,48,0 34 1927
SPMM,39,48,0 34 1926
SPMM,40,48,0 34 1925
SPMM,41,48,0 34 1924
SPMM,42,48,0 34 1923
SPMM,43,48,0 34 1922
SPMM,44,48,0 34 1921
SPMM,45,48,0 34 1920
SPMM,46,48,0 34 1919
SPMM,47,48,0 34 1918
SPMM,48,48,0 34 1917
SPMM,49,48,0 34 1916
XTY,48,0,4 34 1915
DLACPY,45,1 41 1914
SPMM,16,45,0 41 1913
SPMM,17,45,0 41 1912
SPMM,22,45,0 41 1911
SPMM,23,45,0 41 1910
SPMM,26,45,0 41 1909
SPMM,27,45,0 41 1908
SPMM,28,45,0 41 1907
SPMM,29,45,0 41 1906
SPMM,30,45,0 41 1905
SPMM,31,45,0 41 1904
SPMM,32,45,0 41 1903
SPMM,33,45,0 41 1902
SPMM,34,45,0 41 1901
SPMM,35,45,0 41 1900
SPMM,36,45,0 41 1899
SPMM,37,45,0 41 1898
SPMM,38,45,0 41 1897
SPMM,39,45,0 41 1896
SPMM,40,45,0 41 1895
SPMM,41,45,0 41 1894
SPMM,42,45,0 41 1893
SPMM,43,45,0 41 1892
SPMM,44,45,0 41 1891
SPMM,45,45,0 41 1890
SPMM,46,45,0 41 1889
SPMM,47,45,0 41 1888
SPMM,48,45,0 41 1887
SPMM,49,45,0 41 1886
SPMM,50,45,0 41 1885
DLACPY,44,1 41 1884
SPMM,16,44,0 41 1883
SPMM,17,44,0 41 1882
SPMM,22,44,0 41 1881
SPMM,23,44,0 41 1880
SPMM,26,44,0 41 1879
SPMM,27,44,0 41 1878
SPMM,28,44,0 41 1877
SPMM,29,44,0 41 1876
SPMM,30,44,0 41 1875
SPMM,31,44,0 41 1874
SPMM,32,44,0 41 1873
SPMM,33,44,0 41 1872
SPMM,34,44,0 41 1871
SPMM,35,44,0 41 1870
SPMM,36,44,0 41 1869
SPMM,37,44,0 41 1868
SPMM,38,44,0 41 1867
SPMM,39,44,0 41 1866
SPMM,40,44,0 41 1865
SPMM,41,44,0 41 1864
SPMM,42,44,0 41 1863
SPMM,43,44,0 41 1862
SPMM,44,44,0 41 1861
SPMM,45,44,0 41 1860
SPMM,46,44,0 41 1859
SPMM,47,44,0 41 1858
SPMM,48,44,0 41 1857
SPMM,49,44,0 41 1856
SPMM,50,44,0 41 1855
DLACPY,37,1 58 1854
SPMM,28,37,0 58 1853
SPMM,29,37,0 58 1852
SPMM,30,37,0 58 1851
SPMM,31,37,0 58 1850
SPMM,32,37,0 58 1849
SPMM,33,37,0 58 1848
SPMM,34,37,0 58 1847
SPMM,35,37,0 58 1846
SPMM,36,37,0 58 1845
SPMM,37,37,0 58 1844
SPMM,38,37,0 58 1843
SPMM,39,37,0 58 1842
SPMM,40,37,0 58 1841
SPMM,41,37,0 58 1840
SPMM,42,37,0 58 1839
SPMM,43,37,0 58 1838
SPMM,44,37,0 58 1837
SPMM,45,37,0 58 1836
DLACPY,36,1 58 1835
SPMM,28,36,0 58 1834
SPMM,29,36,0 58 1833
SPMM,30,36,0 58 1832
SPMM,31,36,0 58 1831
SPMM,32,36,0 58 1830
SPMM,33,36,0 58 1829
SPMM,34,36,0 58 1828
SPMM,35,36,0 58 1827
SPMM,36,36,0 58 1826
SPMM,37,36,0 58 1825
SPMM,38,36,0 58 1824
SPMM,39,36,0 58 1823
SPMM,40,36,0 58 1822
SPMM,41,36,0 58 1821
SPMM,42,36,0 58 1820
SPMM,43,36,0 58 1819
SPMM,44,36,0 58 1818
SPMM,45,36,0 58 1817
SPMM,15,36,0 59 1816
SPMM,18,36,0 59 1815
SPMM,24,36,0 59 1814
SPMM,25,36,0 59 1813
SPMM,26,36,0 59 1812
SPMM,27,36,0 59 1811
SPMM,46,36,0 59 1810
SPMM,47,36,0 59 1809
SPMM,48,36,0 59 1808
SPMM,49,36,0 59 1807
UPDATE,36,1 59 1806
XTY,36,4,4 59 1805
SPMM,15,37,0 59 1804
SPMM,18,37,0 59 1803
SPMM,24,37,0 59 1802
SPMM,26,37,0 59 1801
SPMM,27,37,0 59 1800
SPMM,46,37,0 59 1799
SPMM,47,37,0 59 1798
SPMM,48,37,0 59 1797
SPMM,49,37,0 59 1796
UPDATE,37,1 59 1795
XTY,37,5,4 59 1794
DLACPY,3,1 38 1793
SPMM,2,3,0 38 1792
SPMM,3,3,0 38 1791
SPMM,4,3,0 38 1790
SPMM,8,3,0 38 1789
SPMM,9,3,0 38 1788
SPMM,10,3,0 38 1787
SPMM,11,3,0 38 1786
SPMM,12,3,0 38 1785
SPMM,13,3,0 38 1784
SPMM,14,3,0 38 1783
SPMM,20,3,0 38 1782
SPMM,21,3,0 38 1781
UPDATE,3,1 38 1780
DLACPY,2,1 38 1779
SPMM,1,2,0 38 1778
SPMM,2,2,0 38 1777
SPMM,3,2,0 38 1776
SPMM,8,2,0 38 1775
SPMM,9,2,0 38 1774
SPMM,10,2,0 38 1773
SPMM,11,2,0 38 1772
SPMM,12,2,0 38 1771
SPMM,14,2,0 38 1770
SPMM,20,2,0 38 1769
SPMM,21,2,0 38 1768
UPDATE,2,1 38 1767
XY,6,3 32 1766
DLACPY,6,1 32 1765
SPMM,4,6,0 32 1764
SPMM,5,6,0 32 1763
SPMM,6,6,0 32 1762
SPMM,7,6,0 32 1761
SPMM,8,6,0 32 1760
SPMM,9,6,0 32 1759
SPMM,10,6,0 32 1758
SPMM,11,6,0 32 1757
SPMM,12,6,0 32 1756
SPMM,13,6,0 32 1755
SPMM,14,6,0 32 1754
XY,7,3 32 1753
DLACPY,7,1 32 1752
SPMM,4,7,0 32 1751
SPMM,5,7,0 32 1750
SPMM,6,7,0 32 1749
SPMM,7,7,0 32 1748
SPMM,8,7,0 32 1747
SPMM,9,7,0 32 1746
SPMM,10,7,0 32 1745
SPMM,11,7,0 32 1744
SPMM,12,7,0 32 1743
SPMM,13,7,0 32 1742
SPMM,14,7,0 32 1741
XY,8,3 30 1740
DLACPY,8,1 30 1739
SPMM,2,8,0 30 1738
SPMM,3,8,0 30 1737
SPMM,4,8,0 30 1736
SPMM,5,8,0 30 1735
SPMM,6,8,0 30 1734
SPMM,7,8,0 30 1733
SPMM,10,8,0 30 1732
SPMM,11,8,0 30 1731
SPMM,12,8,0 30 1730
SPMM,13,8,0 30 1729
SPMM,14,8,0 30 1728
XY,9,3 30 1727
DLACPY,9,1 30 1726
SPMM,2,9,0 30 1725
SPMM,3,9,0 30 1724
SPMM,4,9,0 30 1723
SPMM,5,9,0 30 1722
SPMM,6,9,0 30 1721
SPMM,7,9,0 30 1720
SPMM,10,9,0 30 1719
SPMM,11,9,0 30 1718
SPMM,12,9,0 30 1717
SPMM,13,9,0 30 1716
SPMM,14,9,0 30 1715
UPDATE,9,1 31 1714
XTY,9,9,4 31 1713
UPDATE,8,1 31 1712
XTY,8,8,4 31 1711
XY,18,3 31 1710
XY,19,3 31 1709
XY,26,3 31 1708
XY,27,3 31 1707
XY,28,3 31 1706
XY,29,3 31 1705
XY,32,3 31 1704
XY,33,3 31 1703
XY,34,3 31 1702
XY,35,3 31 1701
XY,38,3 31 1700
XY,39,3 31 1699
DLACPY,33,1 44 1698
SPMM,30,33,0 44 1697
SPMM,31,33,0 44 1696
SPMM,32,33,0 44 1695
SPMM,33,33,0 44 1694
SPMM,34,33,0 44 1693
SPMM,35,33,0 44 1692
SPMM,38,33,0 44 1691
SPMM,39,33,0 44 1690
SPMM,40,33,0 44 1689
SPMM,41,33,0 44 1688
SPMM,44,33,0 44 1687
SPMM,45,33,0 44 1686
SPMM,46,33,0 44 1685
SPMM,47,33,0 44 1684
SPMM,48,33,0 44 1683
SPMM,49,33,0 44 1682
DLACPY,32,1 44 1681
SPMM,30,32,0 44 1680
SPMM,31,32,0 44 1679
SPMM,32,32,0 44 1678
SPMM,33,32,0 44 1677
SPMM,34,32,0 44 1676
SPMM,35,32,0 44 1675
SPMM,38,32,0 44 1674
SPMM,39,32,0 44 1673
SPMM,40,32,0 44 1672
SPMM,41,32,0 44 1671
SPMM,44,32,0 44 1670
SPMM,45,32,0 44 1669
SPMM,46,32,0 44 1668
SPMM,47,32,0 44 1667
SPMM,48,32,0 44 1666
SPMM,49,32,0 44 1665
DLACPY,29,1 44 1664
SPMM,16,29,0 44 1663
SPMM,17,29,0 44 1662
SPMM,26,29,0 44 1661
SPMM,27,29,0 44 1660
SPMM,30,29,0 44 1659
SPMM,31,29,0 44 1658
SPMM,32,29,0 44 1657
SPMM,33,29,0 44 1656
SPMM,34,29,0 44 1655
SPMM,35,29,0 44 1654
SPMM,38,29,0 44 1653
SPMM,39,29,0 44 1652
SPMM,44,29,0 44 1651
SPMM,45,29,0 44 1650
SPMM,46,29,0 44 1649
SPMM,47,29,0 44 1648
SPMM,48,29,0 44 1647
SPMM,49,29,0 44 1646
DLACPY,28,1 44 1645
SPMM,16,28,0 44 1644
SPMM,17,28,0 44 1643
SPMM,26,28,0 44 1642
SPMM,27,28,0 44 1641
SPMM,30,28,0 44 1640
SPMM,31,28,0 44 1639
SPMM,32,28,0 44 1638
SPMM,33,28,0 44 1637
SPMM,34,28,0 44 1636
SPMM,35,28,0 44 1635
SPMM,38,28,0 44 1634
SPMM,39,28,0 44 1633
SPMM,44,28,0 44 1632
SPMM,45,28,0 44 1631
SPMM,46,28,0 44 1630
SPMM,47,28,0 44 1629
SPMM,48,28,0 44 1628
SPMM,49,28,0 44 1627
SPMM,20,32,0 46 1626
SPMM,21,32,0 46 1625
SPMM,20,33,0 46 1624
SPMM,21,33,0 46 1623
DLACPY,39,1 46 1622
SPMM,15,39,0 46 1621
SPMM,16,39,0 46 1620
SPMM,17,39,0 46 1619
SPMM,21,39,0 46 1618
SPMM,22,39,0 46 1617
SPMM,23,39,0 46 1616
SPMM,24,39,0 46 1615
SPMM,30,39,0 46 1614
SPMM,31,39,0 46 1613
SPMM,32,39,0 46 1612
SPMM,33,39,0 46 1611
SPMM,34,39,0 46 1610
SPMM,35,39,0 46 1609
SPMM,36,39,0 46 1608
SPMM,37,39,0 46 1607
SPMM,38,39,0 46 1606
SPMM,39,39,0 46 1605
SPMM,40,39,0 46 1604
SPMM,41,39,0 46 1603
SPMM,42,39,0 46 1602
SPMM,43,39,0 46 1601
SPMM,46,39,0 46 1600
SPMM,47,39,0 46 1599
SPMM,50,39,0 46 1598
DLACPY,38,1 46 1597
SPMM,15,38,0 46 1596
SPMM,16,38,0 46 1595
SPMM,17,38,0 46 1594
SPMM,21,38,0 46 1593
SPMM,22,38,0 46 1592
SPMM,23,38,0 46 1591
SPMM,24,38,0 46 1590
SPMM,30,38,0 46 1589
SPMM,31,38,0 46 1588
SPMM,32,38,0 46 1587
SPMM,33,38,0 46 1586
SPMM,34,38,0 46 1585
SPMM,35,38,0 46 1584
SPMM,36,38,0 46 1583
SPMM,37,38,0 46 1582
SPMM,38,38,0 46 1581
SPMM,39,38,0 46 1580
SPMM,40,38,0 46 1579
SPMM,41,38,0 46 1578
SPMM,42,38,0 46 1577
SPMM,43,38,0 46 1576
SPMM,46,38,0 46 1575
SPMM,47,38,0 46 1574
SPMM,50,38,0 46 1573
SPMM,21,28,0 45 1572
SPMM,22,28,0 45 1571
SPMM,23,28,0 45 1570
SPMM,21,29,0 45 1569
SPMM,22,29,0 45 1568
SPMM,23,29,0 45 1567
SPMM,26,32,0 45 1566
SPMM,27,32,0 45 1565
SPMM,26,33,0 45 1564
SPMM,27,33,0 45 1563
DLACPY,35,1 45 1562
SPMM,15,35,0 45 1561
SPMM,16,35,0 45 1560
SPMM,17,35,0 45 1559
SPMM,21,35,0 45 1558
SPMM,22,35,0 45 1557
SPMM,23,35,0 45 1556
SPMM,28,35,0 45 1555
SPMM,29,35,0 45 1554
SPMM,30,35,0 45 1553
SPMM,31,35,0 45 1552
SPMM,32,35,0 45 1551
SPMM,33,35,0 45 1550
SPMM,34,35,0 45 1549
SPMM,35,35,0 45 1548
SPMM,36,35,0 45 1547
SPMM,37,35,0 45 1546
SPMM,42,35,0 45 1545
SPMM,43,35,0 45 1544
SPMM,44,35,0 45 1543
SPMM,45,35,0 45 1542
SPMM,48,35,0 45 1541
SPMM,49,35,0 45 1540
DLACPY,34,1 45 1539
SPMM,15,34,0 45 1538
SPMM,16,34,0 45 1537
SPMM,17,34,0 45 1536
SPMM,21,34,0 45 1535
SPMM,22,34,0 45 1534
SPMM,23,34,0 45 1533
SPMM,28,34,0 45 1532
SPMM,29,34,0 45 1531
SPMM,30,34,0 45 1530
SPMM,31,34,0 45 1529
SPMM,32,34,0 45 1528
SPMM,33,34,0 45 1527
SPMM,34,34,0 45 1526
SPMM,35,34,0 45 1525
SPMM,36,34,0 45 1524
SPMM,37,34,0 45 1523
SPMM,42,34,0 45 1522
SPMM,43,34,0 45 1521
SPMM,44,34,0 45 1520
SPMM,45,34,0 45 1519
SPMM,48,34,0 45 1518
SPMM,49,34,0 45 1517
DLACPY,27,1 69 1516
SPMM,16,27,0 69 1515
SPMM,17,27,0 69 1514
SPMM,21,27,0 69 1513
SPMM,22,27,0 69 1512
SPMM,23,27,0 69 1511
SPMM,26,27,0 69 1510
SPMM,27,27,0 69 1509
SPMM,28,27,0 69 1508
SPMM,29,27,0 69 1507
SPMM,30,27,0 69 1506
SPMM,31,27,0 69 1505
SPMM,32,27,0 69 1504
SPMM,33,27,0 69 1503
SPMM,34,27,0 69 1502
SPMM,35,27,0 69 1501
SPMM,36,27,0 69 1500
SPMM,37,27,0 69 1499
SPMM,38,27,0 69 1498
SPMM,39,27,0 69 1497
SPMM,40,27,0 69 1496
SPMM,41,27,0 69 1495
SPMM,42,27,0 69 1494
SPMM,43,27,0 69 1493
SPMM,44,27,0 69 1492
SPMM,45,27,0 69 1491
SPMM,50,27,0 69 1490
DLACPY,26,1 69 1489
SPMM,16,26,0 69 1488
SPMM,17,26,0 69 1487
SPMM,20,26,0 69 1486
SPMM,21,26,0 69 1485
SPMM,22,26,0 69 1484
SPMM,23,26,0 69 1483
SPMM,24,26,0 69 1482
SPMM,25,26,0 69 1481
SPMM,26,26,0 69 1480
SPMM,27,26,0 69 1479
SPMM,28,26,0 69 1478
SPMM,29,26,0 69 1477
SPMM,30,26,0 69 1476
SPMM,31,26,0 69 1475
SPMM,32,26,0 69 1474
SPMM,33,26,0 69 1473
SPMM,34,26,0 69 1472
SPMM,35,26,0 69 1471
SPMM,36,26,0 69 1470
SPMM,37,26,0 69 1469
SPMM,38,26,0 69 1468
SPMM,39,26,0 69 1467
SPMM,40,26,0 69 1466
SPMM,41,26,0 69 1465
SPMM,42,26,0 69 1464
SPMM,43,26,0 69 1463
SPMM,44,26,0 69 1462
SPMM,45,26,0 69 1461
SPMM,50,26,0 69 1460
DLACPY,19,1 66 1459
SPMM,0,19,0 66 1458
SPMM,1,19,0 66 1457
SPMM,14,19,0 66 1456
SPMM,18,19,0 66 1455
SPMM,19,19,0 66 1454
SPMM,20,19,0 66 1453
SPMM,21,19,0 66 1452
SPMM,24,19,0 66 1451
SPMM,25,19,0 66 1450
SPMM,26,19,0 66 1449
SPMM,31,19,0 66 1448
SPMM,38,19,0 66 1447
SPMM,39,19,0 66 1446
SPMM,41,19,0 66 1445
SPMM,42,19,0 66 1444
SPMM,43,19,0 66 1443
SPMM,44,19,0 66 1442
SPMM,45,19,0 66 1441
SPMM,46,19,0 66 1440
SPMM,47,19,0 66 1439
DLACPY,18,1 66 1438
SPMM,0,18,0 66 1437
SPMM,1,18,0 66 1436
SPMM,14,18,0 66 1435
SPMM,15,18,0 66 1434
SPMM,16,18,0 66 1433
SPMM,17,18,0 66 1432
SPMM,18,18,0 66 1431
SPMM,19,18,0 66 1430
SPMM,20,18,0 66 1429
SPMM,21,18,0 66 1428
SPMM,22,18,0 66 1427
SPMM,23,18,0 66 1426
SPMM,24,18,0 66 1425
SPMM,25,18,0 66 1424
SPMM,26,18,0 66 1423
SPMM,30,18,0 66 1422
SPMM,31,18,0 66 1421
SPMM,38,18,0 66 1420
SPMM,39,18,0 66 1419
SPMM,40,18,0 66 1418
SPMM,41,18,0 66 1417
SPMM,42,18,0 66 1416
SPMM,43,18,0 66 1415
SPMM,44,18,0 66 1414
SPMM,45,18,0 66 1413
SPMM,46,18,0 66 1412
SPMM,47,18,0 66 1411
SPMM,48,18,0 66 1410
SPMM,49,18,0 66 1409
SPMM,2,18,0 67 1408
SPMM,3,18,0 67 1407
SPMM,4,18,0 67 1406
SPMM,5,18,0 67 1405
SPMM,32,18,0 67 1404
SPMM,33,18,0 67 1403
SPMM,36,18,0 67 1402
SPMM,37,18,0 67 1401
XTY,18,2,4 67 1400
SPMM,2,19,0 67 1399
SPMM,3,19,0 67 1398
SPMM,4,19,0 67 1397
SPMM,5,19,0 67 1396
XTY,19,3,4 67 1395
SPMM,15,32,0 67 1394
UPDATE,32,1 67 1393
SPMM,15,33,0 67 1392
UPDATE,33,1 67 1391
SPMM,50,36,0 67 1390
SPMM,50,37,0 67 1389
XY,10,3 26 1388
DLACPY,10,1 26 1387
SPMM,4,10,0 26 1386
SPMM,5,10,0 26 1385
SPMM,6,10,0 26 1384
SPMM,7,10,0 26 1383
SPMM,8,10,0 26 1382
SPMM,9,10,0 26 1381
SPMM,10,10,0 26 1380
SPMM,11,10,0 26 1379
SPMM,12,10,0 26 1378
SPMM,13,10,0 26 1377
SPMM,14,10,0 26 1376
XY,11,3 26 1375
DLACPY,11,1 26 1374
SPMM,4,11,0 26 1373
SPMM,5,11,0 26 1372
SPMM,6,11,0 26 1371
SPMM,7,11,0 26 1370
SPMM,8,11,0 26 1369
SPMM,9,11,0 26 1368
SPMM,10,11,0 26 1367
SPMM,11,11,0 26 1366
SPMM,12,11,0 26 1365
SPMM,13,11,0 26 1364
SPMM,14,11,0 26 1363
SPMM,1,11,0 70 1362
XTY,26,10,4 70 1361
XTY,27,11,4 70 1360
SPMM,24,28,0 70 1359
SPMM,40,28,0 70 1358
SPMM,41,28,0 70 1357
SPMM,50,28,0 70 1356
SPMM,24,29,0 70 1355
SPMM,40,29,0 70 1354
SPMM,41,29,0 70 1353
SPMM,50,29,0 70 1352
SPMM,42,32,0 70 1351
SPMM,43,32,0 70 1350
SPMM,42,33,0 70 1349
SPMM,43,33,0 70 1348
SPMM,24,2,0 70 1347
SPMM,25,2,0 70 1346
SPMM,26,2,0 70 1345
SPMM,24,3,0 70 1344
SPMM,25,3,0 70 1343
SPMM,26,3,0 70 1342
SPMM,2,11,0 27 1341
SPMM,3,11,0 27 1340
UPDATE,11,1 27 1339
XTY,11,11,4 27 1338
SPMM,2,10,0 27 1337
SPMM,3,10,0 27 1336
UPDATE,10,1 27 1335
XTY,10,10,4 27 1334
XY,0,3 27 1333
XY,1,3 27 1332
XY,14,3 27 1331
XY,15,3 27 1330
XY,24,3 27 1329
XY,25,3 27 1328
XY,40,3 27 1327
XY,41,3 27 1326
XY,46,3 27 1325
XY,47,3 27 1324
DLACPY,47,1 35 1323
SPMM,15,47,0 35 1322
SPMM,16,47,0 35 1321
SPMM,17,47,0 35 1320
SPMM,28,47,0 35 1319
SPMM,29,47,0 35 1318
SPMM,30,47,0 35 1317
SPMM,31,47,0 35 1316
SPMM,32,47,0 35 1315
SPMM,33,47,0 35 1314
SPMM,34,47,0 35 1313
SPMM,35,47,0 35 1312
SPMM,36,47,0 35 1311
SPMM,37,47,0 35 1310
SPMM,38,47,0 35 1309
SPMM,39,47,0 35 1308
SPMM,42,47,0 35 1307
SPMM,43,47,0 35 1306
SPMM,44,47,0 35 1305
SPMM,45,47,0 35 1304
SPMM,46,47,0 35 1303
SPMM,47,47,0 35 1302
SPMM,48,47,0 35 1301
SPMM,49,47,0 35 1300
SPMM,50,47,0 35 1299
DLACPY,46,1 35 1298
SPMM,15,46,0 35 1297
SPMM,16,46,0 35 1296
SPMM,17,46,0 35 1295
SPMM,28,46,0 35 1294
SPMM,29,46,0 35 1293
SPMM,30,46,0 35 1292
SPMM,31,46,0 35 1291
SPMM,32,46,0 35 1290
SPMM,33,46,0 35 1289
SPMM,34,46,0 35 1288
SPMM,35,46,0 35 1287
SPMM,36,46,0 35 1286
SPMM,37,46,0 35 1285
SPMM,38,46,0 35 1284
SPMM,39,46,0 35 1283
SPMM,42,46,0 35 1282
SPMM,43,46,0 35 1281
SPMM,44,46,0 35 1280
SPMM,45,46,0 35 1279
SPMM,46,46,0 35 1278
SPMM,47,46,0 35 1277
SPMM,48,46,0 35 1276
SPMM,49,46,0 35 1275
SPMM,50,46,0 35 1274
SPMM,26,48,0 35 1273
SPMM,27,48,0 35 1272
UPDATE,48,1 35 1271
SPMM,26,49,0 35 1270
SPMM,27,49,0 35 1269
UPDATE,49,1 35 1268
DLACPY,41,1 49 1267
SPMM,26,41,0 49 1266
SPMM,27,41,0 49 1265
SPMM,28,41,0 49 1264
SPMM,29,41,0 49 1263
SPMM,30,41,0 49 1262
SPMM,31,41,0 49 1261
SPMM,36,41,0 49 1260
SPMM,37,41,0 49 1259
SPMM,42,41,0 49 1258
SPMM,43,41,0 49 1257
SPMM,44,41,0 49 1256
SPMM,45,41,0 49 1255
SPMM,46,41,0 49 1254
SPMM,47,41,0 49 1253
SPMM,48,41,0 49 1252
SPMM,49,41,0 49 1251
DLACPY,40,1 49 1250
SPMM,26,40,0 49 1249
SPMM,27,40,0 49 1248
SPMM,28,40,0 49 1247
SPMM,29,40,0 49 1246
SPMM,30,40,0 49 1245
SPMM,31,40,0 49 1244
SPMM,36,40,0 49 1243
SPMM,37,40,0 49 1242
SPMM,42,40,0 49 1241
SPMM,43,40,0 49 1240
SPMM,44,40,0 49 1239
SPMM,45,40,0 49 1238
SPMM,46,40,0 49 1237
SPMM,47,40,0 49 1236
SPMM,48,40,0 49 1235
SPMM,49,40,0 49 1234
DLACPY,25,1 47 1233
SPMM,20,25,0 47 1232
SPMM,21,25,0 47 1231
SPMM,24,25,0 47 1230
SPMM,25,25,0 47 1229
SPMM,26,25,0 47 1228
SPMM,40,25,0 47 1227
SPMM,41,25,0 47 1226
SPMM,44,25,0 47 1225
SPMM,45,25,0 47 1224
DLACPY,24,1 47 1223
SPMM,16,24,0 47 1222
SPMM,17,24,0 47 1221
SPMM,20,24,0 47 1220
SPMM,21,24,0 47 1219
SPMM,22,24,0 47 1218
SPMM,23,24,0 47 1217
SPMM,24,24,0 47 1216
SPMM,25,24,0 47 1215
SPMM,26,24,0 47 1214
SPMM,40,24,0 47 1213
SPMM,41,24,0 47 1212
SPMM,44,24,0 47 1211
SPMM,45,24,0 47 1210
SPMM,38,24,0 50 1209
SPMM,39,24,0 50 1208
SPMM,16,40,0 50 1207
SPMM,17,40,0 50 1206
SPMM,18,40,0 50 1205
SPMM,20,40,0 50 1204
SPMM,21,40,0 50 1203
SPMM,24,40,0 50 1202
SPMM,25,40,0 50 1201
SPMM,32,40,0 50 1200
SPMM,33,40,0 50 1199
SPMM,16,41,0 50 1198
SPMM,17,41,0 50 1197
SPMM,18,41,0 50 1196
SPMM,19,41,0 50 1195
SPMM,20,41,0 50 1194
SPMM,21,41,0 50 1193
SPMM,24,41,0 50 1192
SPMM,25,41,0 50 1191
SPMM,32,41,0 50 1190
SPMM,33,41,0 50 1189
SPMM,38,34,0 50 1188
SPMM,39,34,0 50 1187
SPMM,38,35,0 50 1186
SPMM,39,35,0 50 1185
SPMM,36,28,0 50 1184
SPMM,37,28,0 50 1183
SPMM,36,29,0 50 1182
SPMM,37,29,0 50 1181
SPMM,30,24,0 48 1180
SPMM,31,24,0 48 1179
SPMM,32,24,0 48 1178
SPMM,33,24,0 48 1177
SPMM,36,24,0 48 1176
SPMM,37,24,0 48 1175
SPMM,42,24,0 48 1174
SPMM,43,24,0 48 1173
SPMM,46,24,0 48 1172
SPMM,47,24,0 48 1171
SPMM,31,25,0 48 1170
SPMM,32,25,0 48 1169
SPMM,33,25,0 48 1168
SPMM,36,25,0 48 1167
SPMM,42,25,0 48 1166
SPMM,43,25,0 48 1165
SPMM,47,25,0 48 1164
SPMM,26,38,0 48 1163
SPMM,27,38,0 48 1162
SPMM,48,38,0 48 1161
SPMM,49,38,0 48 1160
SPMM,26,39,0 48 1159
SPMM,27,39,0 48 1158
SPMM,48,39,0 48 1157
SPMM,49,39,0 48 1156
SPMM,18,32,0 48 1155
SPMM,18,33,0 48 1154
DLACPY,15,1 63 1153
SPMM,14,15,0 63 1152
SPMM,15,15,0 63 1151
SPMM,21,15,0 63 1150
SPMM,22,15,0 63 1149
SPMM,23,15,0 63 1148
SPMM,26,15,0 63 1147
SPMM,27,15,0 63 1146
SPMM,28,15,0 63 1145
SPMM,29,15,0 63 1144
SPMM,40,15,0 63 1143
SPMM,41,15,0 63 1142
DLACPY,14,1 63 1141
SPMM,4,14,0 63 1140
SPMM,5,14,0 63 1139
SPMM,10,14,0 63 1138
SPMM,11,14,0 63 1137
SPMM,14,14,0 63 1136
SPMM,15,14,0 63 1135
SPMM,20,14,0 63 1134
SPMM,21,14,0 63 1133
SPMM,23,14,0 63 1132
SPMM,26,14,0 63 1131
SPMM,30,15,0 64 1130
SPMM,31,15,0 64 1129
SPMM,32,15,0 64 1128
SPMM,33,15,0 64 1127
SPMM,34,15,0 64 1126
SPMM,35,15,0 64 1125
SPMM,38,15,0 64 1124
SPMM,39,15,0 64 1123
SPMM,42,15,0 64 1122
SPMM,43,15,0 64 1121
SPMM,44,15,0 64 1120
SPMM,45,15,0 64 1119
SPMM,46,15,0 64 1118
SPMM,47,15,0 64 1117
SPMM,48,15,0 64 1116
SPMM,49,15,0 64 1115
DLACPY,1,1 29 1114
SPMM,0,1,0 29 1113
SPMM,1,1,0 29 1112
SPMM,2,1,0 29 1111
SPMM,18,1,0 29 1110
SPMM,19,1,0 29 1109
SPMM,20,1,0 29 1108
SPMM,21,1,0 29 1107
SPMM,24,1,0 29 1106
SPMM,25,1,0 29 1105
UPDATE,1,1 29 1104
XTY,1,1,4 29 1103
DLACPY,0,1 29 1102
SPMM,0,0,0 29 1101
SPMM,1,0,0 29 1100
SPMM,18,0,0 29 1099
SPMM,19,0,0 29 1098
SPMM,20,0,0 29 1097
SPMM,24,0,0 29 1096
SPMM,25,0,0 29 1095
UPDATE,0,1 29 1094
XTY,0,0,4 29 1093
XY,12,3 28 1092
DLACPY,12,1 28 1091
SPMM,2,12,0 28 1090
SPMM,3,12,0 28 1089
SPMM,4,12,0 28 1088
SPMM,5,12,0 28 1087
SPMM,6,12,0 28 1086
SPMM,7,12,0 28 1085
SPMM,8,12,0 28 1084
SPMM,9,12,0 28 1083
SPMM,10,12,0 28 1082
SPMM,11,12,0 28 1081
SPMM,14,12,0 28 1080
UPDATE,12,1 28 1079
XTY,12,12,4 28 1078
XY,13,3 28 1077
DLACPY,13,1 28 1076
SPMM,3,13,0 28 1075
SPMM,4,13,0 28 1074
SPMM,5,13,0 28 1073
SPMM,6,13,0 28 1072
SPMM,7,13,0 28 1071
SPMM,8,13,0 28 1070
SPMM,9,13,0 28 1069
SPMM,10,13,0 28 1068
SPMM,11,13,0 28 1067
SPMM,14,13,0 28 1066
UPDATE,13,1 28 1065
XTY,13,13,4 28 1064
SPMM,12,13,0 33 1063
SPMM,13,13,0 33 1062
SPMM,12,12,0 33 1061
SPMM,13,12,0 33 1060
SPMM,8,9,0 33 1059
SPMM,9,9,0 33 1058
SPMM,8,8,0 33 1057
SPMM,9,8,0 33 1056
SPMM,3,7,0 33 1055
UPDATE,7,1 33 1054
XTY,7,7,4 33 1053
UPDATE,6,1 33 1052
XTY,6,6,4 33 1051
XY,16,3 33 1050
XY,17,3 33 1049
XY,20,3 33 1048
XY,21,3 33 1047
XY,42,3 33 1046
XY,43,3 33 1045
DLACPY,43,1 51 1044
SPMM,26,43,0 51 1043
SPMM,27,43,0 51 1042
SPMM,36,43,0 51 1041
SPMM,37,43,0 51 1040
SPMM,38,43,0 51 1039
SPMM,39,43,0 51 1038
SPMM,40,43,0 51 1037
SPMM,41,43,0 51 1036
SPMM,42,43,0 51 1035
SPMM,43,43,0 51 1034
SPMM,44,43,0 51 1033
SPMM,45,43,0 51 1032
SPMM,46,43,0 51 1031
SPMM,47,43,0 51 1030
DLACPY,42,1 51 1029
SPMM,26,42,0 51 1028
SPMM,27,42,0 51 1027
SPMM,36,42,0 51 1026
SPMM,37,42,0 51 1025
SPMM,38,42,0 51 1024
SPMM,39,42,0 51 1023
SPMM,40,42,0 51 1022
SPMM,41,42,0 51 1021
SPMM,42,42,0 51 1020
SPMM,43,42,0 51 1019
SPMM,44,42,0 51 1018
SPMM,45,42,0 51 1017
SPMM,46,42,0 51 1016
SPMM,47,42,0 51 1015
UPDATE,42,1 57 1014
UPDATE,43,1 57 1013
SPMM,0,24,0 57 1012
SPMM,1,24,0 57 1011
SPMM,14,24,0 57 1010
SPMM,15,24,0 57 1009
UPDATE,24,1 57 1008
SPMM,0,25,0 57 1007
SPMM,1,25,0 57 1006
SPMM,14,25,0 57 1005
UPDATE,25,1 57 1004
SPMM,22,40,0 57 1003
SPMM,23,40,0 57 1002
XTY,40,8,4 57 1001
SPMM,22,41,0 57 1000
SPMM,23,41,0 57 999
XTY,41,9,4 57 998
SPMM,26,34,0 57 997
SPMM,27,34,0 57 996
SPMM,26,35,0 57 995
SPMM,27,35,0 57 994
SPMM,28,32,0 57 993
SPMM,29,32,0 57 992
SPMM,28,33,0 57 991
SPMM,29,33,0 57 990
SPMM,18,42,0 52 989
SPMM,19,42,0 52 988
SPMM,20,42,0 52 987
SPMM,21,42,0 52 986
SPMM,22,42,0 52 985
SPMM,23,42,0 52 984
SPMM,24,42,0 52 983
SPMM,25,42,0 52 982
SPMM,30,42,0 52 981
SPMM,31,42,0 52 980
SPMM,50,42,0 52 979
XTY,42,10,4 52 978
SPMM,18,43,0 52 977
SPMM,19,43,0 52 976
SPMM,21,43,0 52 975
SPMM,22,43,0 52 974
SPMM,23,43,0 52 973
SPMM,24,43,0 52 972
SPMM,25,43,0 52 971
SPMM,30,43,0 52 970
SPMM,31,43,0 52 969
SPMM,50,43,0 52 968
XTY,43,11,4 52 967
SPMM,4,24,0 52 966
SPMM,5,24,0 52 965
SPMM,4,25,0 52 964
SPMM,5,25,0 52 963
DLACPY,17,1 36 962
SPMM,16,17,0 36 961
SPMM,17,17,0 36 960
SPMM,23,17,0 36 959
SPMM,26,17,0 36 958
SPMM,27,17,0 36 957
SPMM,28,17,0 36 956
SPMM,29,17,0 36 955
SPMM,32,17,0 36 954
SPMM,33,17,0 36 953
SPMM,38,17,0 36 952
SPMM,39,17,0 36 951
SPMM,40,17,0 36 950
SPMM,41,17,0 36 949
SPMM,44,17,0 36 948
SPMM,45,17,0 36 947
SPMM,48,17,0 36 946
SPMM,49,17,0 36 945
SPMM,50,17,0 36 944
UPDATE,17,1 36 943
XTY,17,1,4 36 942
DLACPY,16,1 36 941
SPMM,15,16,0 36 940
SPMM,16,16,0 36 939
SPMM,17,16,0 36 938
SPMM,22,16,0 36 937
SPMM,23,16,0 36 936
SPMM,26,16,0 36 935
SPMM,27,16,0 36 934
SPMM,28,16,0 36 933
SPMM,29,16,0 36 932
SPMM,32,16,0 36 931
SPMM,33,16,0 36 930
SPMM,38,16,0 36 929
SPMM,39,16,0 36 928
SPMM,40,16,0 36 927
SPMM,41,16,0 36 926
SPMM,44,16,0 36 925
SPMM,45,16,0 36 924
SPMM,48,16,0 36 923
SPMM,49,16,0 36 922
SPMM,50,16,0 36 921
UPDATE,16,1 36 920
XTY,16,0,4 36 919
SPMM,18,46,0 36 918
SPMM,19,46,0 36 917
SPMM,18,47,0 36 916
SPMM,19,47,0 36 915
SPMM,18,48,0 36 914
SPMM,18,49,0 36 913
SPMM,24,16,0 42 912
SPMM,24,17,0 42 911
SPMM,22,46,0 42 910
SPMM,23,46,0 42 909
SPMM,24,46,0 42 908
SPMM,26,46,0 42 907
SPMM,27,46,0 42 906
SPMM,22,47,0 42 905
SPMM,23,47,0 42 904
SPMM,24,47,0 42 903
SPMM,25,47,0 42 902
SPMM,26,47,0 42 901
SPMM,27,47,0 42 900
SPMM,7,3,0 42 899
SPMM,20,44,0 42 898
SPMM,21,44,0 42 897
SPMM,20,45,0 42 896
SPMM,21,45,0 42 895
SPMM,42,50,0 42 894
SPMM,43,50,0 42 893
SPMM,48,50,0 42 892
SPMM,49,50,0 42 891
SPMM,30,16,0 39 890
SPMM,31,16,0 39 889
SPMM,36,16,0 39 888
SPMM,37,16,0 39 887
SPMM,30,17,0 39 886
SPMM,31,17,0 39 885
SPMM,36,17,0 39 884
SPMM,37,17,0 39 883
SPMM,21,46,0 39 882
SPMM,40,46,0 39 881
SPMM,41,46,0 39 880
UPDATE,46,1 39 879
XTY,46,14,4 39 878
SPMM,20,47,0 39 877
SPMM,21,47,0 39 876
SPMM,40,47,0 39 875
SPMM,41,47,0 39 874
UPDATE,47,1 39 873
XTY,47,15,4 39 872
XTY,2,2,4 39 871
XTY,3,3,4 39 870
SPMM,28,48,0 39 869
SPMM,29,48,0 39 868
SPMM,28,49,0 39 867
SPMM,29,49,0 39 866
SPMM,18,16,0 37 865
SPMM,34,16,0 37 864
SPMM,35,16,0 37 863
SPMM,42,16,0 37 862
SPMM,43,16,0 37 861
SPMM,46,16,0 37 860
SPMM,47,16,0 37 859
SPMM,18,17,0 37 858
SPMM,34,17,0 37 857
SPMM,35,17,0 37 856
SPMM,42,17,0 37 855
SPMM,43,17,0 37 854
SPMM,46,17,0 37 853
SPMM,47,17,0 37 852
SPMM,24,48,0 37 851
SPMM,24,49,0 37 850
SPMM,25,49,0 37 849
DLACPY,5,1 37 848
SPMM,4,5,0 37 847
SPMM,5,5,0 37 846
SPMM,6,5,0 37 845
SPMM,7,5,0 37 844
SPMM,8,5,0 37 843
SPMM,9,5,0 37 842
SPMM,10,5,0 37 841
SPMM,11,5,0 37 840
SPMM,12,5,0 37 839
SPMM,13,5,0 37 838
SPMM,14,5,0 37 837
SPMM,18,5,0 37 836
SPMM,19,5,0 37 835
SPMM,20,5,0 37 834
SPMM,21,5,0 37 833
SPMM,24,5,0 37 832
SPMM,25,5,0 37 831
UPDATE,5,1 37 830
XTY,5,5,4 37 829
DLACPY,4,1 37 828
SPMM,4,4,0 37 827
SPMM,5,4,0 37 826
SPMM,6,4,0 37 825
SPMM,7,4,0 37 824
SPMM,8,4,0 37 823
SPMM,9,4,0 37 822
SPMM,10,4,0 37 821
SPMM,11,4,0 37 820
SPMM,12,4,0 37 819
SPMM,13,4,0 37 818
SPMM,14,4,0 37 817
SPMM,18,4,0 37 816
SPMM,19,4,0 37 815
SPMM,20,4,0 37 814
SPMM,21,4,0 37 813
SPMM,24,4,0 37 812
SPMM,25,4,0 37 811
UPDATE,4,1 37 810
XTY,4,4,4 37 809
SPMM,3,4,0 43 808
SPMM,15,44,0 43 807
SPMM,18,44,0 43 806
SPMM,19,44,0 43 805
SPMM,24,44,0 43 804
SPMM,25,44,0 43 803
UPDATE,44,1 43 802
XTY,44,12,4 43 801
SPMM,15,45,0 43 800
SPMM,18,45,0 43 799
SPMM,19,45,0 43 798
SPMM,24,45,0 43 797
SPMM,25,45,0 43 796
UPDATE,45,1 43 795
XTY,45,13,4 43 794
SPMM,50,48,0 43 793
SPMM,50,49,0 43 792
SPMM,21,50,0 43 791
SPMM,26,4,0 71 790
SPMM,26,5,0 71 789
SPMM,28,42,0 71 788
SPMM,29,42,0 71 787
SPMM,28,43,0 71 786
SPMM,29,43,0 71 785
SPMM,26,0,0 71 784
SPMM,26,1,0 71 783
SPMM,50,24,0 71 782
SPMM,50,25,0 71 781
SPMM,50,18,0 71 780
SPMM,50,19,0 71 779
SPMM,0,26,0 71 778
SPMM,1,26,0 71 777
UPDATE,26,1 71 776
UPDATE,27,1 71 775
SPMM,24,34,0 71 774
SPMM,24,35,0 71 773
XY,22,3 53 772
DLACPY,22,1 53 771
SPMM,15,22,0 53 770
SPMM,16,22,0 53 769
SPMM,18,22,0 53 768
SPMM,22,22,0 53 767
SPMM,23,22,0 53 766
SPMM,26,22,0 53 765
SPMM,27,22,0 53 764
SPMM,28,22,0 53 763
SPMM,29,22,0 53 762
SPMM,30,22,0 53 761
SPMM,31,22,0 53 760
SPMM,34,22,0 53 759
SPMM,35,22,0 53 758
SPMM,36,22,0 53 757
SPMM,37,22,0 53 756
SPMM,38,22,0 53 755
SPMM,39,22,0 53 754
SPMM,40,22,0 53 753
SPMM,41,22,0 53 752
SPMM,42,22,0 53 751
SPMM,43,22,0 53 750
SPMM,46,22,0 53 749
SPMM,47,22,0 53 748
SPMM,48,22,0 53 747
SPMM,49,22,0 53 746
XY,23,3 53 745
DLACPY,23,1 53 744
SPMM,14,23,0 53 743
SPMM,15,23,0 53 742
SPMM,16,23,0 53 741
SPMM,17,23,0 53 740
SPMM,18,23,0 53 739
SPMM,22,23,0 53 738
SPMM,23,23,0 53 737
SPMM,26,23,0 53 736
SPMM,27,23,0 53 735
SPMM,28,23,0 53 734
SPMM,29,23,0 53 733
SPMM,30,23,0 53 732
SPMM,31,23,0 53 731
SPMM,34,23,0 53 730
SPMM,35,23,0 53 729
SPMM,36,23,0 53 728
SPMM,37,23,0 53 727
SPMM,38,23,0 53 726
SPMM,39,23,0 53 725
SPMM,40,23,0 53 724
SPMM,41,23,0 53 723
SPMM,42,23,0 53 722
SPMM,43,23,0 53 721
SPMM,46,23,0 53 720
SPMM,47,23,0 53 719
SPMM,48,23,0 53 718
SPMM,49,23,0 53 717
SPMM,24,23,0 55 716
SPMM,24,22,0 55 715
SPMM,32,42,0 55 714
SPMM,33,42,0 55 713
SPMM,32,43,0 55 712
SPMM,33,43,0 55 711
SPMM,38,40,0 55 710
SPMM,39,40,0 55 709
SPMM,40,40,0 55 708
SPMM,41,40,0 55 707
SPMM,38,41,0 55 706
SPMM,39,41,0 55 705
SPMM,40,41,0 55 704
SPMM,41,41,0 55 703
SPMM,46,34,0 55 702
SPMM,47,34,0 55 701
SPMM,50,34,0 55 700
SPMM,46,35,0 55 699
SPMM,47,35,0 55 698
SPMM,50,35,0 55 697
SPMM,44,38,0 55 696
SPMM,45,38,0 55 695
SPMM,44,39,0 55 694
SPMM,45,39,0 55 693
SPMM,28,28,0 55 692
SPMM,29,28,0 55 691
SPMM,28,29,0 55 690
SPMM,29,29,0 55 689
SPMM,32,23,0 54 688
SPMM,33,23,0 54 687
SPMM,32,22,0 54 686
SPMM,33,22,0 54 685
SPMM,15,42,0 54 684
SPMM,48,42,0 54 683
SPMM,49,42,0 54 682
SPMM,15,43,0 54 681
SPMM,48,43,0 54 680
SPMM,49,43,0 54 679
SPMM,15,40,0 54 678
SPMM,50,40,0 54 677
SPMM,15,41,0 54 676
SPMM,50,41,0 54 675
SPMM,18,28,0 54 674
SPMM,42,28,0 54 673
SPMM,43,28,0 54 672
SPMM,18,29,0 54 671
SPMM,42,29,0 54 670
SPMM,43,29,0 54 669
SPMM,16,32,0 54 668
SPMM,17,32,0 54 667
SPMM,16,33,0 54 666
SPMM,17,33,0 54 665
SPMM,21,23,0 56 664
SPMM,44,23,0 56 663
SPMM,45,23,0 56 662
SPMM,50,23,0 56 661
SPMM,21,22,0 56 660
SPMM,44,22,0 56 659
SPMM,45,22,0 56 658
SPMM,50,22,0 56 657
SPMM,48,24,0 56 656
SPMM,49,24,0 56 655
SPMM,49,25,0 56 654
SPMM,40,34,0 56 653
SPMM,41,34,0 56 652
SPMM,40,35,0 56 651
SPMM,41,35,0 56 650
UPDATE,38,1 56 649
UPDATE,39,1 56 648
SPMM,22,32,0 56 647
SPMM,23,32,0 56 646
SPMM,36,32,0 56 645
SPMM,37,32,0 56 644
SPMM,22,33,0 56 643
SPMM,23,33,0 56 642
SPMM,36,33,0 56 641
SPMM,37,33,0 56 640
XY,30,3 60 639
DLACPY,30,1 60 638
SPMM,15,30,0 60 637
SPMM,21,30,0 60 636
SPMM,22,30,0 60 635
SPMM,23,30,0 60 634
SPMM,26,30,0 60 633
SPMM,27,30,0 60 632
SPMM,30,30,0 60 631
SPMM,31,30,0 60 630
SPMM,34,30,0 60 629
SPMM,35,30,0 60 628
SPMM,36,30,0 60 627
SPMM,37,30,0 60 626
SPMM,38,30,0 60 625
SPMM,39,30,0 60 624
SPMM,40,30,0 60 623
SPMM,41,30,0 60 622
SPMM,42,30,0 60 621
SPMM,43,30,0 60 620
SPMM,44,30,0 60 619
SPMM,45,30,0 60 618
SPMM,46,30,0 60 617
SPMM,47,30,0 60 616
SPMM,48,30,0 60 615
SPMM,49,30,0 60 614
SPMM,50,30,0 60 613
XY,31,3 60 612
DLACPY,31,1 60 611
SPMM,15,31,0 60 610
SPMM,20,31,0 60 609
SPMM,21,31,0 60 608
SPMM,22,31,0 60 607
SPMM,23,31,0 60 606
SPMM,26,31,0 60 605
SPMM,27,31,0 60 604
SPMM,30,31,0 60 603
SPMM,31,31,0 60 602
SPMM,34,31,0 60 601
SPMM,35,31,0 60 600
SPMM,36,31,0 60 599
SPMM,37,31,0 60 598
SPMM,38,31,0 60 597
SPMM,39,31,0 60 596
SPMM,40,31,0 60 595
SPMM,41,31,0 60 594
SPMM,42,31,0 60 593
SPMM,43,31,0 60 592
SPMM,44,31,0 60 591
SPMM,45,31,0 60 590
SPMM,46,31,0 60 589
SPMM,47,31,0 60 588
SPMM,48,31,0 60 587
SPMM,49,31,0 60 586
SPMM,50,31,0 60 585
DLACPY,21,1 72 584
SPMM,14,21,0 72 583
SPMM,15,21,0 72 582
SPMM,18,21,0 72 581
SPMM,19,21,0 72 580
SPMM,28,21,0 72 579
SPMM,29,21,0 72 578
SPMM,30,21,0 72 577
SPMM,31,21,0 72 576
SPMM,34,21,0 72 575
SPMM,35,21,0 72 574
SPMM,44,21,0 72 573
SPMM,45,21,0 72 572
SPMM,46,21,0 72 571
SPMM,47,21,0 72 570
SPMM,50,21,0 72 569
DLACPY,20,1 72 568
SPMM,14,20,0 72 567
SPMM,18,20,0 72 566
SPMM,19,20,0 72 565
SPMM,31,20,0 72 564
SPMM,44,20,0 72 563
XTY,44,12,5 72 562
SPMM,45,20,0 72 561
XTY,45,13,5 72 560
SPMM,47,20,0 72 559
SPMM,26,20,0 73 558
SPMM,40,20,0 73 557
SPMM,41,20,0 73 556
UPDATE,20,1 73 555
SPMM,26,21,0 73 554
XTY,26,10,5 73 553
SPMM,27,21,0 73 552
XTY,27,11,5 73 551
SPMM,40,21,0 73 550
XTY,40,8,5 73 549
SPMM,41,21,0 73 548
XTY,41,9,5 73 547
UPDATE,21,1 73 546
SPMM,28,18,0 73 545
SPMM,29,18,0 73 544
UPDATE,34,1 73 543
UPDATE,35,1 73 542
SPMM,24,50,0 73 541
SPMM,25,50,0 73 540
SPMM,16,31,0 68 539
SPMM,17,31,0 68 538
SPMM,28,31,0 68 537
SPMM,29,31,0 68 536
SPMM,16,30,0 68 535
SPMM,17,30,0 68 534
SPMM,28,30,0 68 533
SPMM,29,30,0 68 532
XTY,10,10,5 68 531
SPMM,11,1,0 68 530
XTY,11,11,5 68 529
UPDATE,18,1 68 528
UPDATE,19,1 68 527
SPMM,28,38,0 68 526
SPMM,29,38,0 68 525
XTY,38,6,4 68 524
SPMM,28,39,0 68 523
SPMM,29,39,0 68 522
XTY,39,7,4 68 521
XTY,28,12,4 68 520
XTY,29,13,4 68 519
SPMM,32,31,0 65 518
SPMM,33,31,0 65 517
SPMM,32,30,0 65 516
SPMM,33,30,0 65 515
SPMM,2,14,0 65 514
SPMM,3,14,0 65 513
SPMM,6,14,0 65 512
XTY,6,6,5 65 511
SPMM,7,14,0 65 510
XTY,7,7,5 65 509
SPMM,8,14,0 65 508
XTY,8,8,5 65 507
SPMM,9,14,0 65 506
XTY,9,9,5 65 505
SPMM,12,14,0 65 504
XTY,12,12,5 65 503
SPMM,13,14,0 65 502
XTY,13,13,5 65 501
SPMM,18,14,0 65 500
SPMM,19,14,0 65 499
UPDATE,14,1 65 498
XTY,14,14,4 65 497
SPMM,16,15,0 65 496
SPMM,18,15,0 65 495
SPMM,36,15,0 65 494
SPMM,37,15,0 65 493
SPMM,50,15,0 65 492
UPDATE,15,1 65 491
XTY,15,15,4 65 490
SPMM,18,38,0 65 489
SPMM,19,38,0 65 488
SPMM,18,39,0 65 487
SPMM,19,39,0 65 486
SPMM,16,36,0 65 485
SPMM,17,36,0 65 484
SPMM,16,37,0 65 483
SPMM,17,37,0 65 482
SPMM,24,31,0 61 481
SPMM,25,31,0 61 480
UPDATE,31,1 61 479
SPMM,24,30,0 61 478
UPDATE,30,1 61 477
XTY,23,7,4 61 476
XTY,22,6,4 61 475
SPMM,34,42,0 61 474
SPMM,35,42,0 61 473
SPMM,34,43,0 61 472
SPMM,35,43,0 61 471
XTY,24,8,4 61 470
XTY,25,9,4 61 469
XTY,34,2,4 61 468
XTY,35,3,4 61 467
UPDATE,28,1 61 466
UPDATE,29,1 61 465
CONSTRUCTGB 61 464
SPMM,18,31,0 62 463
SPMM,19,31,0 62 462
XTY,31,15,4 62 461
SPMM,18,30,0 62 460
XTY,30,14,4 62 459
UPDATE,23,1 62 458
UPDATE,22,1 62 457
UPDATE,40,1 62 456
UPDATE,41,1 62 455
SPMM,24,32,0 62 454
SPMM,25,32,0 62 453
XTY,32,0,4 62 452
SPMM,24,33,0 62 451
SPMM,25,33,0 62 450
XTY,33,1,4 62 449
SPMM,20,36,0 62 448
SPMM,21,36,0 62 447
SPMM,22,36,0 62 446
SPMM,23,36,0 62 445
SPMM,21,37,0 62 444
SPMM,22,37,0 62 443
SPMM,23,37,0 62 442
SPMM,0,20,0 74 441
XTY,0,0,5 74 440
SPMM,1,20,0 74 439
SPMM,24,20,0 74 438
SPMM,25,20,0 74 437
SPMM,36,20,0 74 436
SPMM,42,20,0 74 435
SPMM,49,20,0 74 434
XTY,20,4,4 74 433
SPMM,1,21,0 74 432
XTY,1,1,5 74 431
SPMM,24,21,0 74 430
SPMM,25,21,0 74 429
SPMM,36,21,0 74 428
XTY,36,4,5 74 427
SPMM,37,21,0 74 426
XTY,37,5,5 74 425
SPMM,42,21,0 74 424
XTY,42,10,5 74 423
SPMM,43,21,0 74 422
XTY,43,11,5 74 421
SPMM,48,21,0 74 420
SPMM,49,21,0 74 419
XTY,21,5,4 74 418
RED,XARBUF,0 74 417
SPMM,24,14,0 74 416
SPMM,25,14,0 74 415
XTY,25,9,5 74 414
SPMM,24,15,0 74 413
XTY,24,8,5 74 412
SPMM,28,24,0 74 411
XTY,28,12,5 74 410
SPMM,29,24,0 74 409
XTY,29,13,5 74 408
SPMM,50,32,0 74 407
SPMM,50,33,0 74 406
XTY,50,2,5 74 405
SPMM,4,20,0 75 404
SPMM,5,20,0 75 403
SPMM,20,20,0 75 402
SPMM,21,20,0 75 401
SPMM,32,20,0 75 400
SPMM,33,20,0 75 399
SPMM,4,21,0 75 398
SPMM,5,21,0 75 397
SPMM,20,21,0 75 396
XTY,20,4,5 75 395
SPMM,21,21,0 75 394
XTY,21,5,5 75 393
SPMM,32,21,0 75 392
XTY,32,0,5 75 391
SPMM,33,21,0 75 390
XTY,33,1,5 75 389
SPMM,34,18,0 75 388
SPMM,35,18,0 75 387
SPMM,18,26,0 75 386
SPMM,19,26,0 75 385
SPMM,46,26,0 75 384
SPMM,47,26,0 75 383
SPMM,46,27,0 75 382
SPMM,47,27,0 75 381
SPMM,15,28,0 75 380
SPMM,15,29,0 75 379
XTY,47,15,5 76 378
XTY,46,14,5 76 377
XTY,31,15,5 76 376
XTY,30,14,5 76 375
SPMM,16,42,0 76 374
SPMM,17,42,0 76 373
SPMM,16,43,0 76 372
XTY,16,0,5 76 371
SPMM,17,43,0 76 370
XTY,17,1,5 76 369
SPMM,34,24,0 76 368
SPMM,35,24,0 76 367
SPMM,34,40,0 76 366
SPMM,35,40,0 76 365
SPMM,34,41,0 76 364
XTY,34,2,5 76 363
SPMM,35,41,0 76 362
XTY,35,3,5 76 361
SPMM,2,26,0 76 360
SPMM,3,26,0 76 359
SPMM,22,21,0 77 358
XTY,22,6,5 77 357
SPMM,23,21,0 77 356
XTY,23,7,5 77 355
SPMM,2,24,0 77 354
SPMM,3,24,0 77 353
SPMM,18,24,0 77 352
SPMM,19,24,0 77 351
SPMM,2,25,0 77 350
SPMM,3,25,0 77 349
SPMM,18,25,0 77 348
SPMM,19,25,0 77 347
SPMM,18,34,0 77 346
SPMM,18,35,0 77 345
SPMM,18,2,0 77 344
SPMM,19,2,0 77 343
SPMM,18,3,0 77 342
SPMM,19,3,0 77 341
SPMM,18,50,0 77 340
XTY,18,2,5 77 339
SPMM,19,50,0 77 338
XTY,19,3,5 77 337
SPMM,2,20,0 78 336
SPMM,3,20,0 78 335
SPMM,2,21,0 78 334
XTY,2,2,5 78 333
SPMM,3,21,0 78 332
XTY,3,3,5 78 331
SPMM,38,21,0 78 330
XTY,38,6,5 78 329
SPMM,39,21,0 78 328
XTY,39,7,5 78 327
SPMM,14,26,0 78 326
XTY,14,14,5 78 325
SPMM,15,26,0 78 324
SPMM,48,26,0 78 323
SPMM,49,26,0 78 322
SPMM,15,27,0 78 321
XTY,15,15,5 78 320
SPMM,48,27,0 78 319
XTY,48,0,5 78 318
SPMM,49,27,0 78 317
XTY,49,1,5 78 316
SPMM,4,26,0 79 315
XTY,4,4,5 79 314
SPMM,5,26,0 79 313
XTY,5,5,5 79 312
RED,RARBUF,0 79 311
TRANS,RAR 79 310
SPEUPDATE,RAR 79 309
CONSTRUCTGA 79 308
EIGEN 79 307
XY,4,8 79 306
XY,5,8 79 305
XY,20,6 80 304
XY,21,6 80 303
XY,26,6 80 302
XY,27,6 80 301
XY,46,6 80 300
XY,47,6 80 299
XY,0,8 80 298
XY,1,8 80 297
XY,2,8 80 296
XY,3,8 80 295
XY,14,8 80 294
XY,15,8 80 293
XY,16,8 80 292
XY,17,8 80 291
XY,32,8 80 290
XY,33,8 80 289
XY,24,6 85 288
XY,25,6 85 287
XY,42,6 85 286
XY,43,6 85 285
XY,10,8 85 284
XY,11,8 85 283
XY,24,10 85 282
ADD,24,3 85 281
XY,25,10 85 280
ADD,25,3 85 279
XY,2,11 85 278
ADD,2,4 85 277
XY,3,11 85 276
ADD,3,4 85 275
XY,50,11 85 274
XY,32,6 87 273
XY,33,6 87 272
XY,32,10 87 271
ADD,32,3 87 270
XY,33,10 87 269
ADD,33,3 87 268
XY,46,10 87 267
ADD,46,3 87 266
XY,47,10 87 265
ADD,47,3 87 264
XY,4,11 87 263
ADD,4,4 87 262
XY,5,11 87 261
ADD,5,4 87 260
XY,28,11 87 259
XY,29,11 87 258
XY,18,8 82 257
XY,19,8 82 256
XY,20,8 82 255
XY,21,8 82 254
XY,22,8 82 253
XY,23,8 82 252
XY,26,8 82 251
XY,27,8 82 250
XY,28,8 82 249
XY,29,8 82 248
XY,40,8 82 247
XY,41,8 82 246
XY,46,8 82 245
XY,47,8 82 244
XY,48,8 82 243
XY,49,8 82 242
XY,48,6 88 241
XY,49,6 88 240
XY,12,10 88 239
XY,13,10 88 238
XY,48,10 88 237
ADD,48,3 88 236
XY,49,10 88 235
ADD,49,3 88 234
XY,20,11 88 233
XY,21,11 88 232
XY,22,11 88 231
ADD,22,4 88 230
XY,23,11 88 229
ADD,23,4 88 228
XY,46,11 88 227
XY,47,11 88 226
XY,2,6 98 225
XY,3,6 98 224
XY,44,6 98 223
XY,45,6 98 222
XY,2,10 98 221
ADD,2,3 98 220
XY,3,10 98 219
ADD,3,3 98 218
XY,44,10 98 217
ADD,44,3 98 216
XY,45,10 98 215
ADD,45,3 98 214
XY,18,11 98 213
ADD,18,4 98 212
XY,19,11 98 211
ADD,19,4 98 210
XY,24,8 81 209
XY,25,8 81 208
XY,30,8 81 207
XY,31,8 81 206
XY,34,8 81 205
XY,35,8 81 204
XY,36,8 81 203
XY,37,8 81 202
XY,38,8 81 201
XY,39,8 81 200
XY,42,8 81 199
XY,43,8 81 198
XY,44,8 81 197
XY,45,8 81 196
XY,50,8 81 195
ADD,50,4 92 194
ADD,47,4 92 193
ADD,46,4 92 192
ADD,21,4 92 191
ADD,20,4 92 190
ADD,29,4 92 189
ADD,28,4 92 188
XY,18,10 92 187
XY,19,10 92 186
XY,26,10 92 185
ADD,26,3 92 184
XY,27,10 92 183
ADD,27,3 92 182
XY,40,11 92 181
ADD,40,4 92 180
XY,41,11 92 179
ADD,41,4 92 178
XY,4,10 83 177
XY,5,10 83 176
XY,14,10 83 175
XY,15,10 83 174
XY,30,10 83 173
XY,31,10 83 172
XY,40,10 83 171
XY,41,10 83 170
XY,38,11 83 169
ADD,38,4 83 168
XY,39,11 83 167
ADD,39,4 83 166
XY,38,6 93 165
XY,39,6 93 164
XY,40,6 93 163
ADD,40,3 93 162
XY,41,6 93 161
ADD,41,3 93 160
XY,38,10 93 159
ADD,38,3 93 158
XY,39,10 93 157
ADD,39,3 93 156
XY,36,11 93 155
XY,37,11 93 154
XY,42,11 93 153
ADD,42,4 93 152
XY,43,11 93 151
ADD,43,4 93 150
XY,6,6 94 149
XY,7,6 94 148
XY,22,6 94 147
XY,23,6 94 146
XY,30,6 94 145
ADD,30,3 94 144
XY,31,6 94 143
ADD,31,3 94 142
XY,34,6 94 141
XY,35,6 94 140
XY,22,10 94 139
ADD,22,3 94 138
XY,23,10 94 137
ADD,23,3 94 136
XY,34,10 94 135
XY,35,10 94 134
XY,36,6 84 133
XY,37,6 84 132
XY,28,10 84 131
XY,29,10 84 130
XY,8,11 84 129
XY,9,11 84 128
XY,48,11 84 127
XY,49,11 84 126
ADD,49,4 86 125
ADD,48,4 86 124
XY,16,10 86 123
XY,17,10 86 122
XY,14,11 86 121
ADD,14,4 86 120
XY,15,11 86 119
ADD,15,4 86 118
XY,34,11 86 117
ADD,34,4 86 116
XY,35,11 86 115
ADD,35,4 86 114
XY,44,11 86 113
ADD,44,4 86 112
XY,45,11 86 111
ADD,45,4 86 110
XY,12,6 89 109
ADD,12,3 89 108
XY,13,6 89 107
ADD,13,3 89 106
XY,14,6 89 105
ADD,14,3 89 104
XY,15,6 89 103
ADD,15,3 89 102
XY,16,6 89 101
ADD,16,3 89 100
XY,17,6 89 99
ADD,17,3 89 98
XY,16,11 89 97
ADD,16,4 89 96
XY,17,11 89 95
ADD,17,4 89 94
XY,6,8 90 93
XY,7,8 90 92
XY,8,8 90 91
ADD,8,4 90 90
XY,9,8 90 89
ADD,9,4 90 88
XY,36,10 90 87
ADD,36,3 90 86
XY,37,10 90 85
ADD,37,3 90 84
XY,10,11 90 83
XY,11,11 90 82
XY,26,11 90 81
ADD,26,4 90 80
XY,27,11 90 79
ADD,27,4 90 78
ADD,11,4 91 77
ADD,10,4 91 76
XY,4,6 91 75
ADD,4,3 91 74
XY,5,6 91 73
ADD,5,3 91 72
XY,50,6 91 71
XY,50,10 91 70
ADD,50,3 91 69
XY,24,11 91 68
ADD,24,4 91 67
XY,25,11 91 66
ADD,25,4 91 65
ADD,35,3 95 64
ADD,34,3 95 63
ADD,37,4 95 62
ADD,36,4 95 61
XY,6,10 95 60
ADD,6,3 95 59
XY,7,10 95 58
ADD,7,3 95 57
XY,0,11 95 56
XY,1,11 95 55
XY,6,11 95 54
ADD,6,4 95 53
XY,7,11 95 52
ADD,7,4 95 51
XY,30,11 95 50
XY,31,11 95 49
ADD,1,4 96 48
ADD,0,4 96 47
XY,0,6 96 46
XY,1,6 96 45
XY,8,6 96 44
XY,9,6 96 43
XY,28,6 96 42
XY,29,6 96 41
XY,0,10 96 40
ADD,0,3 96 39
XY,1,10 96 38
ADD,1,3 96 37
XY,32,11 96 36
ADD,32,4 96 35
XY,33,11 96 34
ADD,33,4 96 33
ADD,29,3 97 32
ADD,28,3 97 31
XY,10,6 97 30
XY,11,6 97 29
XY,10,10 97 28
ADD,10,3 97 27
XY,11,10 97 26
ADD,11,3 97 25
XY,20,10 97 24
ADD,20,3 97 23
XY,21,10 97 22
ADD,21,3 97 21
XY,42,10 97 20
ADD,42,3 97 19
XY,43,10 97 18
ADD,43,3 97 17
ADD,31,4 99 16
ADD,30,4 99 15
XY,18,6 99 14
ADD,18,3 99 13
XY,19,6 99 12
ADD,19,3 99 11
XY,12,8 99 10
XY,13,8 99 9
XY,8,10 99 8
ADD,8,3 99 7
XY,9,10 99 6
ADD,9,3 99 5
XY,12,11 99 4
ADD,12,4 99 3
XY,13,11 99 2
ADD,13,4 99 1
