106
0
17
28
48
80
88
112
136
152
168
192
200
216
240
264
280
304
318
335
356
364
372
380
396
412
428
444
450
475
507
515
523
547
571
595
604
631
752
815
833
849
961
969
979
987
1003
1139
1147
1206
1230
1272
1302
1325
1343
1359
1460
1509
1519
1588
1710
1718
1854
1915
1965
1973
1976
2012
2023
2047
2070
2149
2173
2181
2207
2236
2295
2327
2335
2351
2359
2367
2383
2391
2407
2415
2431
2434
2440
2448
2464
2472
2488
2496
2504
2512
2528
2536
2552
2560
2576
2584
2600
2608
2624
2627
2633
