452
0
4
61
113
169
217
265
321
373
421
469
529
581
633
693
740
788
836
892
940
988
1032
1080
1132
1188
1236
1284
1336
1388
1436
1484
1532
1623
1654
1678
1702
1726
1750
1778
1802
1850
1898
1946
2000
2032
2056
2080
2104
2132
2156
2180
2204
2232
2292
2344
2396
2444
2468
2492
2516
2540
2591
2615
2647
2671
2695
2728
2752
2776
2800
2824
2884
2932
2956
3004
3028
3076
3103
3150
3202
3250
3301
3357
3413
3452
3476
3500
3504
3516
3539
3563
3587
3611
3635
3659
3675
3701
3712
3726
3738
3743
3757
3764
3775
3789
3797
3815
3836
3847
3859
3902
3913
3923
3927
3954
3982
4014
4054
4095
4112
4173
4187
4208
4257
4298
4310
4315
4363
4422
4468
4512
4551
4589
4638
4652
4659
4691
4726
4809
4823
4844
4846
4860
4881
4900
4910
4924
4931
4959
4960
4976
5024
5060
5076
5088
5109
5110
5120
5144
5145
5157
5217
5231
5273
5316
5339
5368
5412
5482
5513
5544
5585
5605
5617
5622
5649
5666
5670
5678
5738
5773
5786
5820
5869
5871
5877
5881
5894
5927
5959
5985
6024
6048
6062
6086
6161
6162
6201
6250
6262
6286
6315
6336
6352
6390
6408
6485
6488
6514
6528
6565
6584
6625
6639
6666
6685
6695
6707
6723
6778
6826
6878
6930
6977
7022
7076
7132
7180
7240
7313
7389
7415
7461
7488
7536
7632
7680
7732
7780
7828
7888
7936
7988
8044
8076
8124
8172
8224
8272
8324
8363
8396
8418
8485
8541
8589
8613
8665
8725
8773
8821
8877
8925
8961
8988
9036
9092
9140
9188
9228
9243
9295
9323
9351
9399
9451
9475
9499
9523
9544
9554
9589
9603
9607
9630
9662
9718
9766
9790
9815
9839
9863
9892
9916
9964
10012
10064
10108
10126
10148
10173
10206
10236
10254
10278
10302
10324
10350
10386
10400
10419
10453
10504
10521
10545
10566
10591
10603
10647
10673
10742
10762
10793
10810
10822
10846
10870
10894
10946
10960
10988
11040
11063
11091
11143
11175
11211
11230
11264
11286
11334
11354
11386
11410
11465
11548
11578
11602
11639
11663
11692
11728
11780
11828
11866
11890
11914
11937
11961
11985
12009
12037
12061
12085
12109
12133
12157
12181
12213
12239
12263
12275
12303
12327
12351
12375
12387
12411
12435
12463
12487
12519
12547
12578
12602
12624
12646
12670
12694
12718
12742
12766
12790
12814
12838
12862
12886
12910
12934
12958
12982
13018
13042
13066
13098
13122
13146
13170
13202
13226
13250
13274
13310
13334
13358
13382
13406
13430
13454
13478
13506
13530
13554
13582
13614
13642
13666
13690
13726
13748
13796
13820
13848
13872
13896
13924
13948
13972
13996
14020
14044
14068
14092
14120
14144
14172
14196
14224
14252
14276
14300
14324
