SETZERO,107,1 222 4258
SETZERO,106,1 222 4257
SETZERO,91,1 222 4256
SETZERO,90,1 222 4255
SETZERO,87,1 222 4254
SETZERO,86,1 222 4253
SETZERO,77,1 222 4252
SETZERO,76,1 222 4251
SETZERO,101,1 189 4250
SETZERO,100,1 189 4249
SETZERO,89,1 189 4248
SETZERO,88,1 189 4247
SETZERO,123,1 185 4246
SETZERO,122,1 185 4245
SETZERO,111,1 185 4244
SETZERO,110,1 185 4243
SETZERO,85,1 185 4242
SETZERO,84,1 185 4241
SETZERO,75,1 185 4240
SETZERO,74,1 185 4239
SETZERO,95,1 177 4238
SETZERO,94,1 177 4237
SETZERO,69,1 177 4236
SETZERO,68,1 177 4235
SETZERO,41,1 177 4234
SETZERO,40,1 177 4233
_AX,49 33 4232
_AX,48 33 4231
_X,49 33 4230
_X,48 33 4229
_X,115 0 4228
_X,114 0 4227
_AX,73 0 4226
_AX,72 0 4225
_X,69 0 4224
_X,68 0 4223
_lambda 0 4222
XY,68,1 0 4221
XY,69,1 0 4220
_AX,69 92 4219
SUB,69,1 92 4218
MULT,69 92 4217
COL,69,9 92 4216
_AX,68 92 4215
SUB,68,1 92 4214
MULT,68 92 4213
COL,68,8 92 4212
_AX,113 2 4211
_AX,112 2 4210
_X,75 2 4209
_X,74 2 4208
_X,3 2 4207
XY,3,1 2 4206
_X,2 2 4205
XY,2,1 2 4204
_AX,3 49 4203
SUB,3,1 49 4202
_AX,2 49 4201
SUB,2,1 49 4200
MULT,2 56 4199
COL,2,2 56 4198
MULT,3 56 4197
COL,3,3 56 4196
_AX,111 56 4195
_AX,110 56 4194
_AX,7 56 4193
_AX,6 56 4192
XY,74,1 4 4191
XY,75,1 4 4190
XY,114,1 4 4189
XY,115,1 4 4188
_AX,115 11 4187
SUB,115,1 11 4186
MULT,115 11 4185
COL,115,15 11 4184
_AX,114 11 4183
SUB,114,1 11 4182
MULT,114 11 4181
COL,114,14 11 4180
_X,99 62 4179
_X,98 62 4178
_AX,45 62 4177
_AX,44 62 4176
_X,5 62 4175
XY,5,1 62 4174
_X,4 62 4173
XY,4,1 62 4172
XY,98,1 75 4171
XY,99,1 75 4170
_AX,57 75 4169
_AX,56 75 4168
_X,7 57 4167
XY,7,1 57 4166
_X,6 57 4165
XY,6,1 57 4164
_X,13 66 4163
XY,13,1 66 4162
_X,12 66 4161
XY,12,1 66 4160
_AX,13 68 4159
SUB,13,1 68 4158
MULT,13 68 4157
COL,13,13 68 4156
_AX,12 68 4155
SUB,12,1 68 4154
MULT,12 68 4153
COL,12,12 68 4152
_X,15 21 4151
XY,15,1 21 4150
_X,14 21 4149
XY,14,1 21 4148
_AX,15 41 4147
SUB,15,1 41 4146
MULT,15 41 4145
_AX,14 41 4144
SUB,14,1 41 4143
MULT,14 41 4142
_X,21 102 4141
XY,21,1 102 4140
_X,20 102 4139
XY,20,1 102 4138
_AX,21 103 4137
SUB,21,1 103 4136
MULT,21 103 4135
COL,21,1 103 4134
_AX,20 103 4133
SUB,20,1 103 4132
MULT,20 103 4131
COL,20,0 103 4130
_X,25 5 4129
XY,25,1 5 4128
_X,24 5 4127
XY,24,1 5 4126
_AX,25 17 4125
SUB,25,1 17 4124
MULT,25 17 4123
COL,25,5 17 4122
_AX,24 17 4121
SUB,24,1 17 4120
MULT,24 17 4119
COL,24,4 17 4118
_X,27 10 4117
XY,27,1 10 4116
_X,26 10 4115
XY,26,1 10 4114
_X,19 10 4113
XY,19,1 10 4112
_X,18 10 4111
XY,18,1 10 4110
_AX,27 104 4109
SUB,27,1 104 4108
MULT,27 104 4107
COL,27,7 104 4106
_AX,26 104 4105
SUB,26,1 104 4104
MULT,26 104 4103
COL,26,6 104 4102
_X,119 14 4101
_X,118 14 4100
_AX,19 14 4099
SUB,19,1 14 4098
MULT,19 14 4097
_AX,18 14 4096
SUB,18,1 14 4095
MULT,18 14 4094
XY,118,1 25 4093
XY,119,1 25 4092
_X,111 25 4091
_X,110 25 4090
XY,110,1 30 4089
XY,111,1 30 4088
_AX,31 30 4087
_AX,30 30 4086
_X,29 95 4085
XY,29,1 95 4084
_X,28 95 4083
XY,28,1 95 4082
_AX,119 47 4081
_AX,118 47 4080
_AX,33 47 4079
_AX,32 47 4078
_X,33 47 4077
XY,33,1 47 4076
_X,32 47 4075
XY,32,1 47 4074
SUB,118,1 51 4073
MULT,118 51 4072
SUB,119,1 51 4071
MULT,119 51 4070
SUB,32,1 67 4069
MULT,32 67 4068
SUB,33,1 67 4067
MULT,33 67 4066
_X,35 9 4065
XY,35,1 9 4064
_X,34 9 4063
XY,34,1 9 4062
_X,1 9 4061
XY,1,1 9 4060
_X,0 9 4059
XY,0,1 9 4058
_AX,11 43 4057
_AX,10 43 4056
_AX,1 43 4055
SUB,1,1 43 4054
MULT,1 43 4053
_AX,0 43 4052
SUB,0,1 43 4051
MULT,0 43 4050
COL,0,0 81 4049
COL,1,1 81 4048
_X,121 81 4047
XY,121,1 81 4046
_X,120 81 4045
XY,120,1 81 4044
_X,17 81 4043
_X,16 81 4042
_AX,121 99 4041
SUB,121,1 99 4040
MULT,121 99 4039
COL,121,1 99 4038
_AX,120 99 4037
SUB,120,1 99 4036
MULT,120 99 4035
COL,120,0 99 4034
XY,16,1 89 4033
XY,17,1 89 4032
_AX,77 89 4031
_AX,76 89 4030
_AX,5 89 4029
_AX,4 89 4028
COL,119,19 90 4027
COL,118,18 90 4026
_X,77 90 4025
XY,77,1 90 4024
SUB,77,1 90 4023
_X,76 90 4022
XY,76,1 90 4021
SUB,76,1 90 4020
_X,11 79 4019
XY,11,1 79 4018
SUB,11,1 79 4017
MULT,11 79 4016
_X,10 79 4015
XY,10,1 79 4014
SUB,10,1 79 4013
MULT,10 79 4012
_X,37 74 4011
XY,37,1 74 4010
_X,36 74 4009
XY,36,1 74 4008
_AX,99 78 4007
_AX,98 78 4006
_AX,37 78 4005
SUB,37,1 78 4004
MULT,37 78 4003
_AX,36 78 4002
SUB,36,1 78 4001
MULT,36 78 4000
SUB,98,1 80 3999
MULT,98 80 3998
COL,98,18 80 3997
SUB,99,1 80 3996
MULT,99 80 3995
COL,99,19 80 3994
COL,10,10 80 3993
COL,11,11 80 3992
XY,48,1 34 3991
SUB,48,1 34 3990
MULT,48 34 3989
COL,48,8 34 3988
XY,49,1 34 3987
SUB,49,1 34 3986
MULT,49 34 3985
COL,49,9 34 3984
_X,51 15 3983
XY,51,1 15 3982
_X,50 15 3981
XY,50,1 15 3980
_X,31 15 3979
XY,31,1 15 3978
_X,30 15 3977
XY,30,1 15 3976
_AX,51 16 3975
SUB,51,1 16 3974
MULT,51 16 3973
_AX,50 16 3972
SUB,50,1 16 3971
MULT,50 16 3970
_X,45 16 3969
_X,44 16 3968
COL,50,10 42 3967
COL,51,11 42 3966
_X,87 42 3965
XY,87,1 42 3964
_X,86 42 3963
XY,86,1 42 3962
_X,67 42 3961
_X,66 42 3960
XY,44,1 18 3959
XY,45,1 18 3958
_AX,75 18 3957
_AX,74 18 3956
SUB,45,1 64 3955
MULT,45 64 3954
SUB,44,1 64 3953
MULT,44 64 3952
SUB,74,1 29 3951
MULT,74 29 3950
COL,74,14 29 3949
SUB,75,1 29 3948
MULT,75 29 3947
COL,75,15 29 3946
_AX,107 29 3945
_AX,106 29 3944
_AX,97 83 3943
_AX,96 83 3942
_X,97 83 3941
_X,96 83 3940
_X,53 83 3939
XY,53,1 83 3938
_X,52 83 3937
XY,52,1 83 3936
_AX,53 94 3935
SUB,53,1 94 3934
MULT,53 94 3933
COL,53,13 94 3932
_AX,52 94 3931
SUB,52,1 94 3930
MULT,52 94 3929
COL,52,12 94 3928
XY,96,1 84 3927
SUB,96,1 84 3926
MULT,96 84 3925
COL,96,16 84 3924
XY,97,1 84 3923
SUB,97,1 84 3922
MULT,97 84 3921
COL,97,17 84 3920
_X,57 22 3919
XY,57,1 22 3918
_X,56 22 3917
XY,56,1 22 3916
_X,23 22 3915
XY,23,1 22 3914
_X,22 22 3913
XY,22,1 22 3912
SUB,56,1 77 3911
MULT,56 77 3910
COL,56,16 77 3909
SUB,57,1 77 3908
MULT,57 77 3907
COL,57,17 77 3906
_AX,23 23 3905
SUB,23,1 23 3904
MULT,23 23 3903
COL,23,3 23 3902
_AX,22 23 3901
SUB,22,1 23 3900
MULT,22 23 3899
COL,22,2 23 3898
_X,61 31 3897
XY,61,1 31 3896
_X,60 31 3895
XY,60,1 31 3894
_AX,61 76 3893
SUB,61,1 76 3892
MULT,61 76 3891
COL,61,1 76 3890
_AX,60 76 3889
SUB,60,1 76 3888
MULT,60 76 3887
COL,60,0 76 3886
_X,79 1 3885
XY,79,1 1 3884
_X,78 1 3883
XY,78,1 1 3882
_X,73 1 3881
_X,72 1 3880
_X,41 1 3879
_X,40 1 3878
_AX,79 39 3877
SUB,79,1 39 3876
MULT,79 39 3875
COL,79,19 39 3874
_AX,78 39 3873
SUB,78,1 39 3872
MULT,78 39 3871
COL,78,18 39 3870
XY,72,1 7 3869
XY,73,1 7 3868
_AX,47 7 3867
_AX,46 7 3866
SUB,73,1 20 3865
MULT,73 20 3864
SUB,72,1 20 3863
MULT,72 20 3862
_X,71 20 3861
_X,70 20 3860
XY,70,1 32 3859
XY,71,1 32 3858
_AX,35 32 3857
_AX,34 32 3856
_AX,71 93 3855
SUB,71,1 93 3854
MULT,71 93 3853
COL,71,11 93 3852
_AX,70 93 3851
SUB,70,1 93 3850
MULT,70 93 3849
COL,70,10 93 3848
SUB,34,1 37 3847
MULT,34 37 3846
SUB,35,1 37 3845
MULT,35 37 3844
COL,35,15 85 3843
COL,34,14 85 3842
COL,36,16 85 3841
COL,37,17 85 3840
_AX,83 85 3839
_AX,82 85 3838
_AX,67 85 3837
_AX,66 85 3836
_X,83 105 3835
XY,83,1 105 3834
SUB,83,1 105 3833
MULT,83 105 3832
_X,82 105 3831
XY,82,1 105 3830
SUB,82,1 105 3829
MULT,82 105 3828
XY,40,1 52 3827
XY,41,1 52 3826
_AX,87 52 3825
_AX,86 52 3824
_X,95 53 3823
_X,94 53 3822
_AX,41 53 3821
SUB,41,1 53 3820
MULT,41 53 3819
_AX,40 53 3818
SUB,40,1 53 3817
MULT,40 53 3816
COL,40,0 91 3815
COL,41,1 91 3814
MULT,76 91 3813
COL,76,16 91 3812
MULT,77 91 3811
COL,77,17 91 3810
_AX,17 91 3809
_AX,16 91 3808
SUB,16,1 96 3807
MULT,16 96 3806
SUB,17,1 96 3805
MULT,17 96 3804
XY,94,1 54 3803
XY,95,1 54 3802
_AX,81 54 3801
_AX,80 54 3800
_AX,95 65 3799
SUB,95,1 65 3798
MULT,95 65 3797
COL,95,15 65 3796
_AX,94 65 3795
SUB,94,1 65 3794
MULT,94 65 3793
COL,94,14 65 3792
SUB,86,1 58 3791
MULT,86 58 3790
SUB,87,1 58 3789
MULT,87 58 3788
COL,87,7 63 3787
COL,86,6 63 3786
XY,66,1 63 3785
XY,67,1 63 3784
_X,81 3 3783
XY,81,1 3 3782
_X,80 3 3781
XY,80,1 3 3780
_X,47 3 3779
XY,47,1 3 3778
_X,46 3 3777
XY,46,1 3 3776
SUB,80,1 55 3775
MULT,80 55 3774
SUB,81,1 55 3773
MULT,81 55 3772
COL,81,1 86 3771
COL,80,0 86 3770
SUB,67,1 86 3769
MULT,67 86 3768
COL,67,7 86 3767
SUB,66,1 86 3766
MULT,66 86 3765
COL,66,6 86 3764
SUB,46,1 8 3763
MULT,46 8 3762
SUB,47,1 8 3761
MULT,47 8 3760
_X,89 6 3759
XY,89,1 6 3758
_X,88 6 3757
XY,88,1 6 3756
_X,9 6 3755
XY,9,1 6 3754
_X,8 6 3753
XY,8,1 6 3752
COL,33,13 69 3751
COL,32,12 69 3750
_AX,89 69 3749
SUB,89,1 69 3748
MULT,89 69 3747
_AX,88 69 3746
SUB,88,1 69 3745
MULT,88 69 3744
COL,88,8 71 3743
COL,89,9 71 3742
SUB,111,1 71 3741
MULT,111 71 3740
COL,111,11 71 3739
SUB,110,1 71 3738
MULT,110 71 3737
COL,110,10 71 3736
_X,91 12 3735
XY,91,1 12 3734
_X,90 12 3733
XY,90,1 12 3732
_X,55 12 3731
XY,55,1 12 3730
_X,54 12 3729
XY,54,1 12 3728
_AX,91 46 3727
SUB,91,1 46 3726
MULT,91 46 3725
COL,91,11 46 3724
_AX,90 46 3723
SUB,90,1 46 3722
MULT,90 46 3721
COL,90,10 46 3720
_AX,55 13 3719
SUB,55,1 13 3718
MULT,55 13 3717
COL,55,15 13 3716
_AX,54 13 3715
SUB,54,1 13 3714
MULT,54 13 3713
COL,54,14 13 3712
_X,103 40 3711
XY,103,1 40 3710
_X,102 40 3709
XY,102,1 40 3708
_AX,103 88 3707
SUB,103,1 88 3706
MULT,103 88 3705
COL,103,3 88 3704
_AX,102 88 3703
SUB,102,1 88 3702
MULT,102 88 3701
COL,102,2 88 3700
_AX,105 61 3699
_AX,104 61 3698
_X,105 61 3697
XY,105,1 61 3696
_X,104 61 3695
XY,104,1 61 3694
_X,85 61 3693
_X,84 61 3692
SUB,104,1 72 3691
MULT,104 72 3690
SUB,105,1 72 3689
MULT,105 72 3688
COL,105,5 73 3687
COL,104,4 73 3686
XY,84,1 73 3685
XY,85,1 73 3684
COL,44,4 82 3683
COL,45,5 82 3682
_AX,85 82 3681
SUB,85,1 82 3680
MULT,85 82 3679
_AX,84 82 3678
SUB,84,1 82 3677
MULT,84 82 3676
_AX,9 82 3675
_AX,8 82 3674
COL,84,4 98 3673
COL,85,5 98 3672
COL,47,7 98 3671
COL,46,6 98 3670
RESET,RN 98 3669
_AX,63 98 3668
_AX,62 98 3667
SUB,8,1 106 3666
MULT,8 106 3665
COL,8,8 106 3664
SUB,9,1 106 3663
MULT,9 106 3662
COL,9,9 106 3661
COL,82,2 106 3660
COL,83,3 106 3659
_X,107 24 3658
XY,107,1 24 3657
_X,106 24 3656
XY,106,1 24 3655
_X,93 24 3654
XY,93,1 24 3653
_X,92 24 3652
XY,92,1 24 3651
SUB,106,1 35 3650
MULT,106 35 3649
COL,106,6 35 3648
SUB,107,1 35 3647
MULT,107 35 3646
COL,107,7 35 3645
_X,113 19 3644
XY,113,1 19 3643
_X,112 19 3642
XY,112,1 19 3641
SUB,112,1 36 3640
MULT,112 36 3639
SUB,113,1 36 3638
MULT,113 36 3637
COL,113,13 38 3636
COL,112,12 38 3635
SUB,30,1 38 3634
MULT,30 38 3633
COL,30,10 38 3632
SUB,31,1 38 3631
MULT,31 38 3630
COL,31,11 38 3629
_X,117 26 3628
XY,117,1 26 3627
_X,116 26 3626
XY,116,1 26 3625
COL,72,12 27 3624
COL,73,13 27 3623
_AX,117 27 3622
SUB,117,1 27 3621
_AX,116 27 3620
SUB,116,1 27 3619
_X,109 27 3618
_X,108 27 3617
MULT,116 44 3616
COL,116,16 44 3615
MULT,117 44 3614
COL,117,17 44 3613
COL,18,18 44 3612
COL,19,19 44 3611
_X,63 44 3610
_X,62 44 3609
XY,62,1 50 3608
XY,63,1 50 3607
_AX,93 50 3606
_AX,92 50 3605
SUB,63,1 100 3604
MULT,63 100 3603
COL,63,3 100 3602
SUB,62,1 100 3601
MULT,62 100 3600
COL,62,2 100 3599
_AX,29 100 3598
_AX,28 100 3597
SUB,92,1 59 3596
MULT,92 59 3595
SUB,93,1 59 3594
MULT,93 59 3593
COL,14,14 59 3592
COL,15,15 59 3591
COL,93,13 60 3590
COL,92,12 60 3589
SUB,6,1 60 3588
MULT,6 60 3587
COL,6,6 60 3586
SUB,7,1 60 3585
MULT,7 60 3584
COL,7,7 60 3583
XY,108,1 28 3582
XY,109,1 28 3581
_AX,109 28 3580
SUB,109,1 28 3579
MULT,109 28 3578
_AX,108 28 3577
SUB,108,1 28 3576
MULT,108 28 3575
COL,108,8 45 3574
COL,109,9 45 3573
_AX,65 45 3572
_AX,64 45 3571
_X,43 45 3570
XY,43,1 45 3569
_X,42 45 3568
XY,42,1 45 3567
_AX,43 48 3566
SUB,43,1 48 3565
MULT,43 48 3564
COL,43,3 48 3563
_AX,42 48 3562
SUB,42,1 48 3561
MULT,42 48 3560
COL,42,2 48 3559
_X,65 70 3558
XY,65,1 70 3557
SUB,65,1 70 3556
MULT,65 70 3555
_X,64 70 3554
XY,64,1 70 3553
SUB,64,1 70 3552
MULT,64 70 3551
_X,123 87 3550
XY,123,1 87 3549
_X,122 87 3548
XY,122,1 87 3547
_X,101 87 3546
XY,101,1 87 3545
_X,100 87 3544
XY,100,1 87 3543
_AX,123 108 3542
SUB,123,1 108 3541
MULT,123 108 3540
COL,123,3 108 3539
_AX,122 108 3538
SUB,122,1 108 3537
MULT,122 108 3536
COL,122,2 108 3535
COL,17,17 97 3534
COL,16,16 97 3533
_AX,101 97 3532
SUB,101,1 97 3531
MULT,101 97 3530
_AX,100 97 3529
SUB,100,1 97 3528
MULT,100 97 3527
COL,100,0 101 3526
COL,101,1 101 3525
SUB,28,1 101 3524
SUB,29,1 101 3523
MULT,29 107 3522
COL,29,9 107 3521
MULT,28 107 3520
COL,28,8 107 3519
COL,64,4 107 3518
COL,65,5 107 3517
_AX,59 107 3516
_AX,58 107 3515
_X,59 109 3514
XY,59,1 109 3513
SUB,59,1 109 3512
MULT,59 109 3511
_X,58 109 3510
XY,58,1 109 3509
SUB,58,1 109 3508
MULT,58 109 3507
COL,58,18 110 3506
COL,59,19 110 3505
SUB,4,1 110 3504
MULT,4 110 3503
COL,4,4 110 3502
SUB,5,1 110 3501
MULT,5 110 3500
COL,5,5 110 3499
_AX,39 111 3498
_AX,38 111 3497
_X,39 111 3496
XY,39,1 111 3495
SUB,39,1 111 3494
MULT,39 111 3493
COL,39,19 111 3492
_X,38 111 3491
XY,38,1 111 3490
SUB,38,1 111 3489
MULT,38 111 3488
COL,38,18 111 3487
RNRED,RNBUF 111 3486
SQRT,RN 112 3485
RESET,actMask 112 3484
CONV,actMask 112 3483
GET,4,1 112 3482
GET,5,1 112 3481
GET,0,1 144 3480
XTY,0,0,1 144 3479
GET,1,1 144 3478
XTY,1,1,1 144 3477
GET,2,1 134 3476
XTY,2,2,1 134 3475
GET,3,1 134 3474
XTY,3,3,1 134 3473
GET,6,1 132 3472
XTY,6,6,1 132 3471
GET,7,1 132 3470
XTY,7,7,1 132 3469
GET,8,1 131 3468
XTY,8,8,1 131 3467
GET,9,1 131 3466
XTY,9,9,1 131 3465
GET,10,1 156 3464
XTY,10,10,1 156 3463
GET,11,1 156 3462
XTY,11,11,1 156 3461
GET,12,1 129 3460
XTY,12,12,1 129 3459
GET,13,1 129 3458
XTY,13,13,1 129 3457
GET,14,1 164 3456
XTY,14,14,1 164 3455
GET,15,1 164 3454
XTY,15,15,1 164 3453
GET,16,1 138 3452
XTY,16,16,1 138 3451
GET,17,1 138 3450
XTY,17,17,1 138 3449
GET,18,1 142 3448
XTY,18,18,1 142 3447
GET,19,1 142 3446
XTY,19,19,1 142 3445
GET,20,1 159 3444
XTY,20,0,1 159 3443
GET,21,1 159 3442
XTY,21,1,1 159 3441
GET,22,1 148 3440
XTY,22,2,1 148 3439
GET,23,1 148 3438
XTY,23,3,1 148 3437
GET,26,1 161 3436
XTY,26,6,1 161 3435
GET,27,1 161 3434
XTY,27,7,1 161 3433
GET,28,1 130 3432
XTY,28,8,1 130 3431
GET,29,1 130 3430
XTY,29,9,1 130 3429
GET,30,1 155 3428
XTY,30,10,1 155 3427
GET,31,1 155 3426
XTY,31,11,1 155 3425
GET,32,1 143 3424
XTY,32,12,1 143 3423
GET,33,1 143 3422
XTY,33,13,1 143 3421
GET,34,1 122 3420
XTY,34,14,1 122 3419
GET,35,1 122 3418
XTY,35,15,1 122 3417
GET,36,1 170 3416
XTY,36,16,1 170 3415
GET,37,1 170 3414
XTY,37,17,1 170 3413
GET,38,1 146 3412
XTY,38,18,1 146 3411
GET,39,1 146 3410
XTY,39,19,1 146 3409
GET,40,1 160 3408
XTY,40,0,1 160 3407
GET,41,1 160 3406
XTY,41,1,1 160 3405
GET,42,1 119 3404
XTY,42,2,1 119 3403
GET,43,1 119 3402
XTY,43,3,1 119 3401
GET,44,1 126 3400
XTY,44,4,1 126 3399
GET,45,1 126 3398
XTY,45,5,1 126 3397
GET,46,1 150 3396
XTY,46,6,1 150 3395
GET,47,1 150 3394
XTY,47,7,1 150 3393
GET,48,1 140 3392
XTY,48,8,1 140 3391
GET,49,1 140 3390
XTY,49,9,1 140 3389
GET,50,1 166 3388
XTY,50,10,1 166 3387
GET,51,1 166 3386
XTY,51,11,1 166 3385
GET,52,1 136 3384
XTY,52,12,1 136 3383
GET,53,1 136 3382
XTY,53,13,1 136 3381
GET,54,1 145 3380
XTY,54,14,1 145 3379
GET,55,1 145 3378
XTY,55,15,1 145 3377
GET,56,1 153 3376
XTY,56,16,1 153 3375
GET,57,1 153 3374
XTY,57,17,1 153 3373
GET,58,1 113 3372
XTY,58,18,1 113 3371
GET,59,1 113 3370
XTY,59,19,1 113 3369
GET,60,1 162 3368
XTY,60,0,1 162 3367
GET,61,1 162 3366
XTY,61,1,1 162 3365
GET,62,1 167 3364
XTY,62,2,1 167 3363
GET,63,1 167 3362
XTY,63,3,1 167 3361
GET,64,1 154 3360
XTY,64,4,1 154 3359
GET,65,1 154 3358
XTY,65,5,1 154 3357
GET,66,1 128 3356
XTY,66,6,1 128 3355
GET,67,1 128 3354
XTY,67,7,1 128 3353
GET,68,1 169 3352
XTY,68,8,1 169 3351
GET,69,1 169 3350
XTY,69,9,1 169 3349
GET,70,1 147 3348
XTY,70,10,1 147 3347
GET,71,1 147 3346
XTY,71,11,1 147 3345
GET,72,1 151 3344
XTY,72,12,1 151 3343
GET,73,1 151 3342
XTY,73,13,1 151 3341
GET,74,1 124 3340
XTY,74,14,1 124 3339
GET,75,1 124 3338
XTY,75,15,1 124 3337
GET,76,1 158 3336
XTY,76,16,1 158 3335
GET,77,1 158 3334
XTY,77,17,1 158 3333
XTY,5,5,1 115 3332
XTY,4,4,1 115 3331
GET,78,1 115 3330
XTY,78,18,1 115 3329
GET,79,1 115 3328
XTY,79,19,1 115 3327
GET,80,1 137 3326
XTY,80,0,1 137 3325
GET,81,1 137 3324
XTY,81,1,1 137 3323
GET,82,1 165 3322
XTY,82,2,1 165 3321
GET,83,1 165 3320
XTY,83,3,1 165 3319
GET,84,1 121 3318
XTY,84,4,1 121 3317
GET,85,1 121 3316
XTY,85,5,1 121 3315
GET,86,1 149 3314
XTY,86,6,1 149 3313
GET,87,1 149 3312
XTY,87,7,1 149 3311
GET,88,1 116 3310
XTY,88,8,1 116 3309
GET,89,1 116 3308
XTY,89,9,1 116 3307
GET,90,1 125 3306
XTY,90,10,1 125 3305
GET,91,1 125 3304
XTY,91,11,1 125 3303
GET,92,1 168 3302
XTY,92,12,1 168 3301
GET,93,1 168 3300
XTY,93,13,1 168 3299
GET,96,1 141 3298
XTY,96,16,1 141 3297
GET,97,1 141 3296
XTY,97,17,1 141 3295
GET,98,1 120 3294
XTY,98,18,1 120 3293
GET,99,1 120 3292
XTY,99,19,1 120 3291
GET,24,1 171 3290
GET,25,1 171 3289
GET,100,1 171 3288
XTY,100,0,1 171 3287
GET,101,1 171 3286
XTY,101,1,1 171 3285
GET,104,1 152 3284
XTY,104,4,1 152 3283
GET,105,1 152 3282
XTY,105,5,1 152 3281
GET,106,1 118 3280
XTY,106,6,1 118 3279
GET,107,1 118 3278
XTY,107,7,1 118 3277
GET,102,1 123 3276
GET,103,1 123 3275
GET,108,1 123 3274
GET,109,1 123 3273
XTY,109,9,1 127 3272
XTY,108,8,1 127 3271
XTY,103,3,1 127 3270
XTY,102,2,1 127 3269
GET,110,1 139 3268
XTY,110,10,1 139 3267
GET,111,1 139 3266
XTY,111,11,1 139 3265
GET,112,1 133 3264
XTY,112,12,1 133 3263
GET,113,1 133 3262
XTY,113,13,1 133 3261
GET,114,1 117 3260
XTY,114,14,1 117 3259
GET,115,1 117 3258
XTY,115,15,1 117 3257
GET,118,1 157 3256
XTY,118,18,1 157 3255
GET,119,1 157 3254
XTY,119,19,1 157 3253
GET,116,1 135 3252
GET,117,1 135 3251
GET,120,1 135 3250
GET,121,1 135 3249
XTY,121,1,1 163 3248
XTY,120,0,1 163 3247
XTY,117,17,1 163 3246
XTY,116,16,1 163 3245
GET,122,1 114 3244
XTY,122,2,1 114 3243
GET,123,1 114 3242
XTY,123,3,1 114 3241
XTY,25,5,1 172 3240
XTY,24,4,1 172 3239
GET,94,1 172 3238
XTY,94,14,1 172 3237
GET,95,1 172 3236
XTY,95,15,1 172 3235
RED,temp2BUF,0 172 3234
XY,4,2 203 3233
SUB,4,2 203 3232
XTY,4,4,2 203 3231
XY,5,2 203 3230
SUB,5,2 203 3229
XTY,5,5,2 203 3228
SETZERO,115,1 203 3227
SETZERO,114,1 203 3226
XY,2,2 176 3225
XY,3,2 176 3224
XY,6,2 176 3223
XY,7,2 176 3222
SUB,7,2 232 3221
XTY,7,7,2 232 3220
SUB,6,2 232 3219
XTY,6,6,2 232 3218
XY,44,2 232 3217
SUB,44,2 232 3216
XY,45,2 232 3215
SUB,45,2 232 3214
XTY,45,5,2 233 3213
XTY,44,4,2 233 3212
XY,24,2 233 3211
SUB,24,2 233 3210
XTY,24,4,2 233 3209
XY,25,2 233 3208
SUB,25,2 233 3207
XTY,25,5,2 233 3206
XY,12,2 197 3205
SUB,12,2 197 3204
XTY,12,12,2 197 3203
XY,13,2 197 3202
SUB,13,2 197 3201
XTY,13,13,2 197 3200
SETZERO,45,1 197 3199
SETZERO,44,1 197 3198
XY,16,2 188 3197
XY,17,2 188 3196
SETZERO,83,1 188 3195
SETZERO,82,1 188 3194
XY,18,2 208 3193
XY,19,2 208 3192
XY,26,2 208 3191
SUB,26,2 208 3190
XTY,26,6,2 208 3189
XY,27,2 208 3188
SUB,27,2 208 3187
XTY,27,7,2 208 3186
XY,14,2 175 3185
XY,15,2 175 3184
XY,32,2 175 3183
XY,33,2 175 3182
SUB,15,2 217 3181
XTY,15,15,2 217 3180
SUB,14,2 217 3179
XTY,14,14,2 217 3178
SUB,3,2 217 3177
XTY,3,3,2 217 3176
SUB,2,2 217 3175
XTY,2,2,2 217 3174
XY,36,2 181 3173
XY,37,2 181 3172
SETZERO,79,1 181 3171
SETZERO,78,1 181 3170
SUB,37,2 202 3169
XTY,37,17,2 202 3168
SUB,36,2 202 3167
XTY,36,16,2 202 3166
SUB,33,2 202 3165
XTY,33,13,2 202 3164
SUB,32,2 202 3163
XTY,32,12,2 202 3162
XY,28,2 195 3161
XY,29,2 195 3160
XY,48,2 195 3159
SUB,48,2 195 3158
XTY,48,8,2 195 3157
XY,49,2 195 3156
SUB,49,2 195 3155
XTY,49,9,2 195 3154
XY,8,2 211 3153
XY,9,2 211 3152
XY,50,2 211 3151
SUB,50,2 211 3150
XTY,50,10,2 211 3149
XY,51,2 211 3148
SUB,51,2 211 3147
XTY,51,11,2 211 3146
XY,10,2 224 3145
XY,11,2 224 3144
XY,52,2 224 3143
SUB,52,2 224 3142
XTY,52,12,2 224 3141
XY,53,2 224 3140
SUB,53,2 224 3139
XTY,53,13,2 224 3138
XY,54,2 231 3137
XY,55,2 231 3136
SETZERO,73,1 231 3135
SETZERO,72,1 231 3134
SETZERO,53,1 231 3133
SETZERO,52,1 231 3132
SETZERO,37,1 231 3131
SETZERO,36,1 231 3130
XY,40,2 200 3129
XY,41,2 200 3128
XY,70,2 200 3127
XY,71,2 200 3126
SUB,41,2 209 3125
XTY,41,1,2 209 3124
SUB,40,2 209 3123
XTY,40,0,2 209 3122
XY,64,2 209 3121
XY,65,2 209 3120
SETZERO,43,1 209 3119
SETZERO,42,1 209 3118
SUB,65,2 213 3117
XTY,65,5,2 213 3116
SUB,64,2 213 3115
XTY,64,4,2 213 3114
SUB,9,2 213 3113
XTY,9,9,2 213 3112
SUB,8,2 213 3111
XTY,8,8,2 213 3110
XY,30,2 174 3109
XY,31,2 174 3108
XY,72,2 174 3107
XY,73,2 174 3106
XY,0,2 173 3105
XY,1,2 173 3104
XY,74,2 173 3103
XY,75,2 173 3102
SUB,1,2 201 3101
XTY,1,1,2 201 3100
SUB,0,2 201 3099
XTY,0,0,2 201 3098
SUB,71,2 201 3097
XTY,71,11,2 201 3096
SUB,70,2 201 3095
XTY,70,10,2 201 3094
XY,60,2 183 3093
XY,61,2 183 3092
XY,76,2 183 3091
SUB,76,2 183 3090
XTY,76,16,2 183 3089
XY,77,2 183 3088
SUB,77,2 183 3087
XTY,77,17,2 183 3086
SUB,61,2 184 3085
XTY,61,1,2 184 3084
SUB,60,2 184 3083
XTY,60,0,2 184 3082
SUB,31,2 184 3081
XTY,31,11,2 184 3080
SUB,30,2 184 3079
XTY,30,10,2 184 3078
XY,56,2 190 3077
XY,57,2 190 3076
XY,78,2 190 3075
XY,79,2 190 3074
SUB,57,2 218 3073
SUB,56,2 218 3072
XY,20,2 218 3071
SUB,20,2 218 3070
XTY,20,0,2 218 3069
XY,21,2 218 3068
SUB,21,2 218 3067
XTY,21,1,2 218 3066
XTY,56,16,2 221 3065
XTY,57,17,2 221 3064
XY,120,2 221 3063
SUB,120,2 221 3062
XY,121,2 221 3061
SUB,121,2 221 3060
SETZERO,81,1 221 3059
SETZERO,80,1 221 3058
XTY,121,1,2 226 3057
XTY,120,0,2 226 3056
SUB,29,2 226 3055
XTY,29,9,2 226 3054
SUB,28,2 226 3053
XTY,28,8,2 226 3052
XY,102,2 226 3051
XY,103,2 226 3050
SUB,103,2 229 3049
XTY,103,3,2 229 3048
SUB,102,2 229 3047
XTY,102,2,2 229 3046
SUB,19,2 229 3045
XTY,19,19,2 229 3044
SUB,18,2 229 3043
XTY,18,18,2 229 3042
XY,80,2 198 3041
SUB,80,2 198 3040
XY,81,2 198 3039
SUB,81,2 198 3038
SETZERO,121,1 198 3037
SETZERO,120,1 198 3036
SETZERO,63,1 198 3035
SETZERO,62,1 198 3034
XTY,81,1,2 207 3033
XTY,80,0,2 207 3032
SUB,17,2 207 3031
XTY,17,17,2 207 3030
SUB,16,2 207 3029
XTY,16,16,2 207 3028
SETZERO,109,1 207 3027
SETZERO,108,1 207 3026
XY,82,2 234 3025
SUB,82,2 234 3024
XTY,82,2,2 234 3023
XY,83,2 234 3022
SUB,83,2 234 3021
XTY,83,3,2 234 3020
SETZERO,51,1 234 3019
SETZERO,50,1 234 3018
XY,84,2 196 3017
SUB,84,2 196 3016
XTY,84,4,2 196 3015
XY,85,2 196 3014
SUB,85,2 196 3013
XTY,85,5,2 196 3012
SETZERO,35,1 196 3011
SETZERO,34,1 196 3010
XY,86,2 230 3009
XY,87,2 230 3008
SETZERO,119,1 230 3007
SETZERO,118,1 230 3006
SETZERO,103,1 230 3005
SETZERO,102,1 230 3004
SETZERO,99,1 230 3003
SETZERO,98,1 230 3002
SUB,87,2 235 3001
XTY,87,7,2 235 3000
SUB,86,2 235 2999
XTY,86,6,2 235 2998
SUB,55,2 235 2997
XTY,55,15,2 235 2996
SUB,54,2 235 2995
XTY,54,14,2 235 2994
XY,62,2 191 2993
SUB,62,2 191 2992
XTY,62,2,2 191 2991
XY,63,2 191 2990
SUB,63,2 191 2989
XTY,63,3,2 191 2988
XY,90,2 191 2987
XY,91,2 191 2986
XY,92,2 206 2985
SUB,92,2 206 2984
XTY,92,12,2 206 2983
XY,93,2 206 2982
SUB,93,2 206 2981
XTY,93,13,2 206 2980
SETZERO,39,1 206 2979
SETZERO,38,1 206 2978
XY,96,2 187 2977
XY,97,2 187 2976
SETZERO,65,1 187 2975
SETZERO,64,1 187 2974
SUB,97,2 192 2973
XTY,97,17,2 192 2972
SUB,96,2 192 2971
XTY,96,16,2 192 2970
SUB,91,2 192 2969
XTY,91,11,2 192 2968
SUB,90,2 192 2967
XTY,90,10,2 192 2966
XY,34,2 210 2965
SUB,34,2 210 2964
XTY,34,14,2 210 2963
XY,35,2 210 2962
SUB,35,2 210 2961
XTY,35,15,2 210 2960
XY,98,2 210 2959
XY,99,2 210 2958
SUB,99,2 212 2957
XTY,99,19,2 212 2956
SUB,98,2 212 2955
XTY,98,18,2 212 2954
SETZERO,93,1 212 2953
SETZERO,92,1 212 2952
XY,104,2 180 2951
XY,105,2 180 2950
SETZERO,67,1 180 2949
SETZERO,66,1 180 2948
SUB,105,2 182 2947
XTY,105,5,2 182 2946
SUB,104,2 182 2945
XTY,104,4,2 182 2944
SETZERO,113,1 182 2943
SETZERO,112,1 182 2942
SETZERO,57,1 182 2941
SETZERO,56,1 182 2940
XY,106,2 214 2939
SUB,106,2 214 2938
XTY,106,6,2 214 2937
XY,107,2 214 2936
SUB,107,2 214 2935
XTY,107,7,2 214 2934
SETZERO,105,1 214 2933
SETZERO,104,1 214 2932
XY,100,2 220 2931
SUB,100,2 220 2930
XTY,100,0,2 220 2929
XY,101,2 220 2928
SUB,101,2 220 2927
XTY,101,1,2 220 2926
XY,108,2 220 2925
XY,109,2 220 2924
SUB,109,2 225 2923
XTY,109,9,2 225 2922
SUB,108,2 225 2921
XTY,108,8,2 225 2920
SUB,11,2 225 2919
SUB,10,2 225 2918
SETZERO,71,1 225 2917
SETZERO,70,1 225 2916
XTY,10,10,2 227 2915
XTY,11,11,2 227 2914
XY,42,2 227 2913
SUB,42,2 227 2912
XTY,42,2,2 227 2911
XY,43,2 227 2910
SUB,43,2 227 2909
XTY,43,3,2 227 2908
XY,88,2 204 2907
SUB,88,2 204 2906
XTY,88,8,2 204 2905
XY,89,2 204 2904
SUB,89,2 204 2903
XTY,89,9,2 204 2902
XY,110,2 204 2901
XY,111,2 204 2900
SUB,111,2 205 2899
XTY,111,11,2 205 2898
SUB,110,2 205 2897
XTY,110,10,2 205 2896
SUB,79,2 205 2895
XTY,79,19,2 205 2894
SUB,78,2 205 2893
XTY,78,18,2 205 2892
XY,66,2 216 2891
SUB,66,2 216 2890
XTY,66,6,2 216 2889
XY,67,2 216 2888
SUB,67,2 216 2887
XTY,67,7,2 216 2886
XY,112,2 216 2885
XY,113,2 216 2884
SUB,113,2 228 2883
XTY,113,13,2 228 2882
SUB,112,2 228 2881
XTY,112,12,2 228 2880
SETZERO,117,1 228 2879
SETZERO,116,1 228 2878
XY,114,2 179 2877
SUB,114,2 179 2876
XTY,114,14,2 179 2875
XY,115,2 179 2874
SUB,115,2 179 2873
XTY,115,15,2 179 2872
SETZERO,55,1 179 2871
SETZERO,54,1 179 2870
XY,116,2 178 2869
XY,117,2 178 2868
SETZERO,61,1 178 2867
SETZERO,60,1 178 2866
SUB,117,2 193 2865
XTY,117,17,2 193 2864
SUB,116,2 193 2863
XTY,116,16,2 193 2862
XY,22,2 193 2861
XY,23,2 193 2860
SETZERO,59,1 193 2859
SETZERO,58,1 193 2858
SUB,23,2 194 2857
XTY,23,3,2 194 2856
SUB,22,2 194 2855
XTY,22,2,2 194 2854
SUB,75,2 194 2853
XTY,75,15,2 194 2852
SUB,74,2 194 2851
XTY,74,14,2 194 2850
XY,118,2 199 2849
XY,119,2 199 2848
SETZERO,49,1 199 2847
SETZERO,48,1 199 2846
SUB,119,2 219 2845
XTY,119,19,2 219 2844
SUB,118,2 219 2843
XTY,118,18,2 219 2842
XY,58,2 219 2841
SUB,58,2 219 2840
XY,59,2 219 2839
SUB,59,2 219 2838
XTY,59,19,2 223 2837
XTY,58,18,2 223 2836
SUB,73,2 223 2835
XTY,73,13,2 223 2834
SUB,72,2 223 2833
XTY,72,12,2 223 2832
SETZERO,97,1 223 2831
SETZERO,96,1 223 2830
XY,38,2 186 2829
XY,39,2 186 2828
XY,122,2 186 2827
SUB,122,2 186 2826
XTY,122,2,2 186 2825
XY,123,2 186 2824
SUB,123,2 186 2823
XTY,123,3,2 186 2822
SUB,39,2 215 2821
XTY,39,19,2 215 2820
SUB,38,2 215 2819
XTY,38,18,2 215 2818
XY,68,2 215 2817
SUB,68,2 215 2816
XTY,68,8,2 215 2815
XY,69,2 215 2814
SUB,69,2 215 2813
XTY,69,9,2 215 2812
XY,94,2 236 2811
SUB,94,2 236 2810
XTY,94,14,2 236 2809
XY,95,2 236 2808
SUB,95,2 236 2807
XTY,95,15,2 236 2806
XY,46,2 237 2805
SUB,46,2 237 2804
XTY,46,6,2 237 2803
XY,47,2 237 2802
SUB,47,2 237 2801
XTY,47,7,2 237 2800
RED,RBRBUF,0 237 2799
CHOL,RBR 238 2798
INV,RBR 238 2797
XY,18,3 238 2796
XY,19,3 238 2795
XY,20,3 238 2794
XY,21,3 238 2793
XY,0,3 299 2792
XY,1,3 299 2791
XY,8,3 299 2790
XY,9,3 299 2789
XY,4,3 298 2788
XY,5,3 298 2787
XY,10,3 298 2786
XY,11,3 298 2785
XY,14,3 239 2784
XY,15,3 239 2783
XY,22,3 239 2782
XY,23,3 239 2781
XY,30,3 243 2780
XY,31,3 243 2779
XY,34,3 243 2778
XY,35,3 243 2777
DLACPY,35,1 617 2776
SPMM,34,35,0 617 2775
SPMM,35,35,0 617 2774
SPMM,106,35,0 617 2773
SPMM,107,35,0 617 2772
UPDATE,35,1 617 2771
DLACPY,34,1 617 2770
SPMM,34,34,0 617 2769
SPMM,35,34,0 617 2768
UPDATE,34,1 617 2767
XY,32,3 241 2766
XY,33,3 241 2765
XY,36,3 241 2764
XY,37,3 241 2763
XY,28,3 242 2762
XY,29,3 242 2761
XY,40,3 242 2760
XY,41,3 242 2759
DLACPY,41,1 344 2758
DLACPY,40,1 344 2757
DLACPY,5,1 344 2756
DLACPY,4,1 344 2755
SPMM,40,40,0 490 2754
SPMM,41,40,0 490 2753
SPMM,40,41,0 490 2752
SPMM,41,41,0 490 2751
XY,26,3 244 2750
XY,27,3 244 2749
XY,42,3 244 2748
XY,43,3 244 2747
XY,24,3 240 2746
XY,25,3 240 2745
XY,44,3 240 2744
XY,45,3 240 2743
XY,50,3 248 2742
XY,51,3 248 2741
XY,52,3 248 2740
XY,53,3 248 2739
XY,6,3 249 2738
XY,7,3 249 2737
XY,54,3 249 2736
XY,55,3 249 2735
DLACPY,55,1 434 2734
SPMM,54,55,0 434 2733
SPMM,55,55,0 434 2732
UPDATE,55,1 434 2731
XTY,55,15,4 434 2730
DLACPY,54,1 434 2729
SPMM,54,54,0 434 2728
SPMM,55,54,0 434 2727
UPDATE,54,1 434 2726
XTY,54,14,4 434 2725
DLACPY,7,1 340 2724
DLACPY,6,1 340 2723
SETZERO,9,1 340 2722
SETZERO,8,1 340 2721
SPMM,8,7,0 340 2720
SETZERO,11,1 371 2719
SPMM,11,7,0 371 2718
SETZERO,10,1 371 2717
SPMM,10,6,0 371 2716
SPMM,10,7,0 371 2715
UPDATE,40,1 345 2714
UPDATE,41,1 345 2713
SETZERO,13,1 345 2712
SPMM,13,6,0 345 2711
SETZERO,12,1 345 2710
SPMM,12,5,0 345 2709
SPMM,12,6,0 345 2708
DLACPY,15,1 347 2707
DLACPY,14,1 347 2706
SPMM,13,14,0 347 2705
DLACPY,43,1 381 2704
DLACPY,42,1 381 2703
SPMM,12,42,0 381 2702
SPMM,13,42,0 381 2701
SPMM,42,42,0 513 2700
SPMM,43,42,0 513 2699
SPMM,42,43,0 513 2698
SPMM,43,43,0 513 2697
SPMM,64,42,0 453 2696
SPMM,64,43,0 453 2695
SPMM,65,43,0 453 2694
SETZERO,25,1 342 2693
SPMM,25,6,0 342 2692
SETZERO,24,1 342 2691
SETZERO,3,1 342 2690
SETZERO,2,1 342 2689
SPMM,2,6,0 342 2688
DLACPY,25,1 349 2687
SPMM,24,25,0 349 2686
SPMM,25,25,0 349 2685
DLACPY,24,1 349 2684
SPMM,24,24,0 349 2683
SPMM,25,24,0 349 2682
SETZERO,23,1 349 2681
SPMM,23,24,0 349 2680
SETZERO,22,1 349 2679
XTY,6,6,4 413 2678
XTY,7,7,4 413 2677
XY,60,3 300 2676
XY,61,3 300 2675
DLACPY,61,1 308 2674
SPMM,60,61,0 308 2673
SPMM,61,61,0 308 2672
SPMM,62,61,0 308 2671
DLACPY,60,1 308 2670
SPMM,60,60,0 308 2669
SPMM,61,60,0 308 2668
SPMM,38,60,0 309 2667
SPMM,39,60,0 309 2666
SPMM,112,60,0 309 2665
SPMM,39,61,0 309 2664
SPMM,112,61,0 309 2663
SPMM,113,61,0 309 2662
SPMM,40,60,0 310 2661
SPMM,111,60,0 310 2660
UPDATE,60,1 310 2659
XTY,60,0,4 310 2658
SPMM,40,61,0 310 2657
SPMM,41,61,0 310 2656
UPDATE,61,1 310 2655
XTY,61,1,4 310 2654
XY,62,3 253 2653
DLACPY,62,1 253 2652
SPMM,62,62,0 253 2651
SPMM,63,62,0 253 2650
SPMM,112,62,0 253 2649
SPMM,113,62,0 253 2648
XY,63,3 253 2647
DLACPY,63,1 253 2646
SPMM,62,63,0 253 2645
SPMM,63,63,0 253 2644
SPMM,113,63,0 253 2643
SPMM,41,63,0 254 2642
SPMM,64,63,0 254 2641
SPMM,114,63,0 254 2640
SPMM,40,62,0 254 2639
SPMM,41,62,0 254 2638
SPMM,61,62,0 254 2637
SPMM,114,62,0 254 2636
UPDATE,63,1 320 2635
UPDATE,62,1 320 2634
XY,58,3 320 2633
XY,59,3 320 2632
DLACPY,59,1 322 2631
SPMM,58,59,0 322 2630
SPMM,59,59,0 322 2629
SPMM,60,59,0 322 2628
SPMM,110,59,0 322 2627
SPMM,111,59,0 322 2626
DLACPY,58,1 322 2625
SPMM,58,58,0 322 2624
SPMM,59,58,0 322 2623
SPMM,110,58,0 322 2622
SPMM,111,58,0 322 2621
SPMM,38,58,0 323 2620
SPMM,57,58,0 323 2619
UPDATE,58,1 323 2618
XTY,58,18,4 323 2617
SPMM,38,59,0 323 2616
SPMM,39,59,0 323 2615
UPDATE,59,1 323 2614
XTY,59,19,4 323 2613
XY,64,3 278 2612
DLACPY,64,1 278 2611
SPMM,64,64,0 278 2610
SPMM,65,64,0 278 2609
XY,65,3 278 2608
DLACPY,65,1 278 2607
SPMM,64,65,0 278 2606
SPMM,65,65,0 278 2605
SPMM,66,65,0 278 2604
SPMM,63,64,0 324 2603
SPMM,43,65,0 279 2602
UPDATE,65,1 279 2601
SPMM,42,64,0 279 2600
SPMM,43,64,0 279 2599
UPDATE,64,1 279 2598
XY,46,3 247 2597
XY,47,3 247 2596
XY,68,3 247 2595
XY,69,3 247 2594
XY,74,3 260 2593
DLACPY,74,1 260 2592
SPMM,73,74,0 260 2591
SPMM,74,74,0 260 2590
SPMM,75,74,0 260 2589
XY,75,3 260 2588
DLACPY,75,1 260 2587
SPMM,74,75,0 260 2586
SPMM,75,75,0 260 2585
SPMM,53,75,0 261 2584
SPMM,54,75,0 261 2583
SPMM,55,75,0 261 2582
SPMM,76,75,0 261 2581
SPMM,52,74,0 261 2580
SPMM,53,74,0 261 2579
SPMM,54,74,0 261 2578
SPMM,119,74,0 261 2577
SPMM,120,75,0 294 2576
SPMM,121,75,0 294 2575
UPDATE,75,1 294 2574
SPMM,120,74,0 294 2573
SPMM,121,74,0 294 2572
UPDATE,74,1 294 2571
XTY,75,15,4 314 2570
XTY,74,14,4 314 2569
XY,116,3 314 2568
XY,117,3 314 2567
DLACPY,117,1 316 2566
SPMM,67,117,0 316 2565
SPMM,116,117,0 316 2564
SPMM,117,117,0 316 2563
UPDATE,117,1 316 2562
DLACPY,116,1 316 2561
SPMM,66,116,0 316 2560
SPMM,67,116,0 316 2559
SPMM,116,116,0 316 2558
SPMM,117,116,0 316 2557
UPDATE,116,1 316 2556
SPMM,68,116,0 317 2555
SPMM,69,116,0 317 2554
SPMM,115,116,0 317 2553
SPMM,68,117,0 317 2552
SPMM,69,117,0 317 2551
SPMM,70,117,0 317 2550
SPMM,118,117,0 317 2549
XY,78,3 262 2548
DLACPY,78,1 262 2547
SPMM,78,78,0 262 2546
SPMM,79,78,0 262 2545
SPMM,80,78,0 262 2544
SPMM,81,78,0 262 2543
XY,79,3 262 2542
DLACPY,79,1 262 2541
SPMM,78,79,0 262 2540
SPMM,79,79,0 262 2539
SPMM,80,79,0 262 2538
SPMM,81,79,0 262 2537
SPMM,56,78,0 301 2536
SPMM,57,78,0 301 2535
XY,120,3 301 2534
XY,121,3 301 2533
DLACPY,121,1 304 2532
SPMM,76,121,0 304 2531
SPMM,77,121,0 304 2530
SPMM,120,121,0 304 2529
SPMM,121,121,0 304 2528
SPMM,122,121,0 304 2527
DLACPY,120,1 304 2526
SPMM,120,120,0 304 2525
SPMM,121,120,0 304 2524
SPMM,74,120,0 326 2523
SPMM,75,120,0 326 2522
SPMM,74,121,0 326 2521
SPMM,75,121,0 326 2520
SPMM,113,64,0 326 2519
SPMM,72,120,0 305 2518
SPMM,73,120,0 305 2517
SPMM,119,120,0 305 2516
UPDATE,120,1 305 2515
XTY,120,0,4 305 2514
UPDATE,121,1 305 2513
XTY,121,1,4 305 2512
SPMM,77,78,0 264 2511
XY,70,3 264 2510
XY,71,3 264 2509
DLACPY,71,1 265 2508
SPMM,70,71,0 265 2507
SPMM,71,71,0 265 2506
SPMM,118,71,0 265 2505
SPMM,119,71,0 265 2504
DLACPY,70,1 265 2503
SPMM,69,70,0 265 2502
SPMM,70,70,0 265 2501
SPMM,71,70,0 265 2500
SPMM,118,70,0 265 2499
SPMM,48,70,0 267 2498
SPMM,49,70,0 267 2497
SPMM,50,70,0 267 2496
SPMM,49,71,0 267 2495
SPMM,50,71,0 267 2494
SPMM,51,71,0 267 2493
SPMM,117,70,0 266 2492
XTY,79,19,4 266 2491
XTY,78,18,4 266 2490
UPDATE,70,1 274 2489
UPDATE,71,1 274 2488
XTY,63,3,4 274 2487
XTY,62,2,4 274 2486
XTY,70,10,4 295 2485
XTY,71,11,4 295 2484
SPMM,44,65,0 295 2483
SPMM,45,65,0 295 2482
SPMM,44,64,0 295 2481
SPMM,122,78,0 318 2480
SPMM,123,78,0 318 2479
XY,72,3 318 2478
XY,73,3 318 2477
DLACPY,73,1 335 2476
SPMM,72,73,0 335 2475
SPMM,73,73,0 335 2474
SPMM,120,73,0 335 2473
DLACPY,72,1 335 2472
SPMM,71,72,0 335 2471
SPMM,72,72,0 335 2470
SPMM,73,72,0 335 2469
SPMM,120,72,0 335 2468
SPMM,50,72,0 336 2467
SPMM,51,72,0 336 2466
SPMM,52,72,0 336 2465
SPMM,118,72,0 336 2464
SPMM,119,72,0 336 2463
SPMM,51,73,0 336 2462
SPMM,52,73,0 336 2461
SPMM,53,73,0 336 2460
SPMM,74,73,0 336 2459
SPMM,119,73,0 336 2458
UPDATE,79,1 270 2457
UPDATE,78,1 270 2456
XY,112,3 270 2455
DLACPY,112,1 270 2454
SPMM,112,112,0 270 2453
SPMM,113,112,0 270 2452
XY,113,3 270 2451
DLACPY,113,1 270 2450
SPMM,112,113,0 270 2449
SPMM,113,113,0 270 2448
SPMM,59,112,0 272 2447
XY,100,3 272 2446
XY,101,3 272 2445
DLACPY,101,1 281 2444
SPMM,88,101,0 281 2443
SPMM,102,101,0 281 2442
SPMM,103,101,0 281 2441
DLACPY,100,1 281 2440
SPMM,88,100,0 281 2439
SPMM,99,100,0 281 2438
SPMM,100,100,0 313 2437
SPMM,101,100,0 313 2436
SPMM,100,101,0 313 2435
SPMM,101,101,0 313 2434
UPDATE,100,1 282 2433
XTY,100,0,4 282 2432
SPMM,34,101,0 282 2431
SPMM,35,101,0 282 2430
SPMM,54,101,0 282 2429
SPMM,55,101,0 282 2428
UPDATE,101,1 282 2427
XTY,101,1,4 282 2426
SPMM,61,113,0 293 2425
SPMM,60,112,0 293 2424
SPMM,61,112,0 293 2423
XY,2,3 293 2422
XY,3,3 293 2421
SPMM,62,113,0 271 2420
SPMM,63,113,0 271 2419
SPMM,64,113,0 271 2418
SPMM,114,113,0 271 2417
SPMM,62,112,0 271 2416
SPMM,111,112,0 271 2415
UPDATE,113,1 286 2414
UPDATE,112,1 286 2413
XY,114,3 286 2412
XY,115,3 286 2411
DLACPY,115,1 290 2410
SPMM,64,115,0 290 2409
SPMM,65,115,0 290 2408
SPMM,114,115,0 290 2407
SPMM,115,115,0 290 2406
SPMM,116,115,0 290 2405
DLACPY,114,1 290 2404
SPMM,64,114,0 290 2403
SPMM,65,114,0 290 2402
SPMM,114,114,0 290 2401
SPMM,115,114,0 290 2400
SPMM,62,114,0 291 2399
SPMM,63,114,0 291 2398
SPMM,66,114,0 291 2397
UPDATE,114,1 291 2396
XTY,114,14,4 291 2395
SPMM,66,115,0 291 2394
SPMM,67,115,0 291 2393
UPDATE,115,1 291 2392
XTY,115,15,4 291 2391
XTY,113,13,4 287 2390
XTY,112,12,4 287 2389
XY,38,3 287 2388
XY,39,3 287 2387
DLACPY,39,1 288 2386
SPMM,38,39,0 288 2385
SPMM,39,39,0 288 2384
SPMM,40,39,0 288 2383
DLACPY,38,1 288 2382
SPMM,37,38,0 288 2381
SPMM,38,38,0 288 2380
SPMM,39,38,0 288 2379
SPMM,58,38,0 289 2378
SPMM,59,38,0 289 2377
SPMM,60,38,0 289 2376
UPDATE,38,1 289 2375
XTY,38,18,4 289 2374
SPMM,59,39,0 289 2373
SPMM,60,39,0 289 2372
SPMM,61,39,0 289 2371
UPDATE,39,1 289 2370
XTY,39,19,4 289 2369
XY,56,3 245 2368
XY,57,3 245 2367
XY,80,3 245 2366
XY,81,3 245 2365
DLACPY,81,1 341 2364
SPMM,80,81,0 341 2363
SPMM,81,81,0 341 2362
DLACPY,80,1 341 2361
SPMM,80,80,0 341 2360
SPMM,81,80,0 341 2359
SETZERO,17,1 343 2358
SETZERO,16,1 343 2357
SPMM,16,80,0 343 2356
SPMM,16,6,0 346 2355
SPMM,16,7,0 346 2354
SPMM,17,7,0 346 2353
SPMM,24,5,0 346 2352
SPMM,25,5,0 346 2351
SPMM,16,15,0 361 2350
SPMM,22,4,0 361 2349
SPMM,22,5,0 361 2348
SPMM,23,4,0 361 2347
SPMM,23,5,0 361 2346
UPDATE,80,1 355 2345
UPDATE,81,1 355 2344
DLACPY,29,1 355 2343
SPMM,24,29,0 355 2342
SPMM,25,29,0 355 2341
DLACPY,28,1 355 2340
SPMM,13,28,0 355 2339
SETZERO,33,1 364 2338
SETZERO,32,1 364 2337
SPMM,32,29,0 364 2336
SPMM,2,28,0 369 2335
SPMM,3,28,0 369 2334
SPMM,2,29,0 369 2333
XTY,80,0,4 369 2332
XTY,81,1,4 369 2331
UPDATE,28,1 377 2330
UPDATE,29,1 377 2329
SPMM,78,80,0 377 2328
SPMM,79,80,0 377 2327
SPMM,78,81,0 377 2326
SPMM,79,81,0 377 2325
XTY,28,8,4 410 2324
XTY,29,9,4 410 2323
XTY,42,2,4 410 2322
XTY,43,3,4 410 2321
DLACPY,57,1 399 2320
UPDATE,57,1 399 2319
DLACPY,56,1 399 2318
UPDATE,56,1 399 2317
UPDATE,24,1 399 2316
XTY,24,4,4 399 2315
UPDATE,25,1 399 2314
XTY,25,5,4 399 2313
SPMM,56,56,0 534 2312
SPMM,57,56,0 534 2311
SPMM,56,57,0 534 2310
SPMM,57,57,0 534 2309
SPMM,103,56,0 579 2308
SPMM,80,14,0 579 2307
SPMM,80,15,0 579 2306
SPMM,108,56,0 602 2305
SPMM,109,56,0 602 2304
SPMM,108,57,0 602 2303
SPMM,109,57,0 602 2302
SPMM,85,24,0 602 2301
SPMM,85,25,0 602 2300
XY,82,3 252 2299
XY,83,3 252 2298
XY,86,3 252 2297
XY,87,3 252 2296
DLACPY,87,1 402 2295
SPMM,33,87,0 402 2294
SPMM,98,87,0 402 2293
SPMM,99,87,0 402 2292
XTY,87,7,4 402 2291
DLACPY,86,1 402 2290
SPMM,32,86,0 402 2289
SPMM,33,86,0 402 2288
SPMM,98,86,0 402 2287
XTY,86,6,4 402 2286
SPMM,34,86,0 588 2285
SPMM,34,87,0 588 2284
SPMM,35,87,0 588 2283
XTY,4,4,4 588 2282
XTY,5,5,4 588 2281
SPMM,86,86,0 443 2280
SPMM,87,86,0 443 2279
SPMM,86,87,0 443 2278
SPMM,87,87,0 443 2277
UPDATE,86,1 425 2276
UPDATE,87,1 425 2275
DLACPY,83,1 365 2274
SPMM,16,83,0 365 2273
SPMM,17,83,0 365 2272
SPMM,82,83,0 365 2271
SPMM,83,83,0 365 2270
SPMM,92,83,0 365 2269
SPMM,93,83,0 365 2268
DLACPY,82,1 365 2267
SPMM,16,82,0 365 2266
SPMM,17,82,0 365 2265
SPMM,82,82,0 365 2264
SPMM,83,82,0 365 2263
SPMM,92,82,0 365 2262
SPMM,94,83,0 454 2261
UPDATE,42,1 454 2260
UPDATE,43,1 454 2259
SPMM,89,82,0 624 2258
SPMM,88,80,0 624 2257
SPMM,89,80,0 624 2256
SPMM,88,81,0 624 2255
SPMM,89,81,0 624 2254
XTY,82,2,4 375 2253
XTY,83,3,4 375 2252
XY,84,3 246 2251
XY,85,3 246 2250
XY,88,3 246 2249
XY,89,3 246 2248
DLACPY,85,1 520 2247
SPMM,32,85,0 520 2246
SPMM,33,85,0 520 2245
SPMM,84,85,0 520 2244
SPMM,85,85,0 520 2243
DLACPY,84,1 520 2242
SPMM,84,84,0 520 2241
SPMM,85,84,0 520 2240
SPMM,24,85,0 537 2239
SPMM,82,14,0 537 2238
SPMM,82,15,0 537 2237
SPMM,86,85,0 572 2236
SPMM,102,54,0 572 2235
SPMM,103,54,0 572 2234
SPMM,102,55,0 572 2233
SPMM,103,55,0 572 2232
XY,90,3 333 2231
DLACPY,90,1 333 2230
SPMM,82,90,0 333 2229
SPMM,90,90,0 333 2228
SPMM,91,90,0 333 2227
XY,91,3 333 2226
DLACPY,91,1 333 2225
SPMM,82,91,0 333 2224
SPMM,83,91,0 333 2223
SPMM,90,91,0 333 2222
SPMM,91,91,0 333 2221
SPMM,81,91,0 334 2220
SPMM,92,91,0 334 2219
UPDATE,91,1 334 2218
SPMM,81,90,0 334 2217
SPMM,89,90,0 334 2216
UPDATE,90,1 334 2215
XTY,91,11,4 338 2214
XTY,90,10,4 338 2213
XTY,72,12,4 338 2212
XTY,73,13,4 338 2211
XY,94,3 306 2210
DLACPY,94,1 306 2209
SPMM,84,94,0 306 2208
SPMM,85,94,0 306 2207
SPMM,94,94,0 306 2206
SPMM,95,94,0 306 2205
XY,95,3 306 2204
DLACPY,95,1 306 2203
SPMM,84,95,0 306 2202
SPMM,85,95,0 306 2201
SPMM,94,95,0 306 2200
SPMM,95,95,0 306 2199
UPDATE,95,1 312 2198
UPDATE,94,1 312 2197
SPMM,96,95,0 307 2196
XTY,95,15,4 307 2195
SPMM,83,94,0 307 2194
SPMM,93,94,0 307 2193
XTY,94,14,4 307 2192
XY,98,3 283 2191
DLACPY,98,1 283 2190
SPMM,86,98,0 283 2189
SPMM,87,98,0 283 2188
SPMM,98,98,0 283 2187
SPMM,99,98,0 283 2186
XY,99,3 283 2185
DLACPY,99,1 283 2184
SPMM,87,99,0 283 2183
SPMM,98,99,0 283 2182
SPMM,99,99,0 283 2181
UPDATE,99,1 285 2180
UPDATE,98,1 285 2179
SPMM,87,100,0 285 2178
XTY,65,5,4 285 2177
XTY,64,4,4 285 2176
SPMM,88,99,0 284 2175
SPMM,100,99,0 284 2174
XTY,99,19,4 284 2173
SPMM,97,98,0 284 2172
XTY,98,18,4 284 2171
XY,48,3 250 2170
XY,49,3 250 2169
XY,104,3 250 2168
XY,105,3 250 2167
DLACPY,105,1 457 2166
SPMM,55,105,0 457 2165
SPMM,56,105,0 457 2164
SPMM,104,105,0 457 2163
SPMM,105,105,0 457 2162
DLACPY,104,1 457 2161
SPMM,54,104,0 457 2160
SPMM,55,104,0 457 2159
SPMM,56,104,0 457 2158
SPMM,104,104,0 457 2157
SPMM,105,104,0 457 2156
UPDATE,104,1 458 2155
UPDATE,105,1 458 2154
SPMM,2,5,0 458 2153
SPMM,3,4,0 458 2152
XY,106,3 251 2151
XY,107,3 251 2150
XY,108,3 251 2149
XY,109,3 251 2148
DLACPY,109,1 378 2147
XTY,109,9,4 378 2146
DLACPY,108,1 378 2145
XTY,108,8,4 378 2144
SPMM,35,108,0 577 2143
SPMM,35,109,0 577 2142
SPMM,36,57,0 577 2141
SPMM,37,57,0 577 2140
SPMM,36,108,0 598 2139
SPMM,36,109,0 598 2138
SPMM,106,108,0 592 2137
SPMM,107,108,0 592 2136
SPMM,107,109,0 592 2135
SPMM,80,28,0 592 2134
SPMM,108,108,0 452 2133
SPMM,109,108,0 452 2132
SPMM,108,109,0 452 2131
SPMM,109,109,0 452 2130
DLACPY,107,1 461 2129
SPMM,55,107,0 461 2128
DLACPY,106,1 461 2127
SPMM,55,106,0 461 2126
SPMM,103,106,0 600 2125
SPMM,80,82,0 600 2124
SPMM,81,82,0 600 2123
SPMM,104,106,0 571 2122
SPMM,105,106,0 571 2121
SPMM,104,107,0 571 2120
SPMM,105,107,0 571 2119
SPMM,101,54,0 571 2118
SPMM,101,55,0 571 2117
SPMM,106,106,0 483 2116
SPMM,107,106,0 483 2115
SPMM,106,107,0 483 2114
SPMM,107,107,0 483 2113
XY,110,3 255 2112
DLACPY,110,1 255 2111
SPMM,58,110,0 255 2110
SPMM,59,110,0 255 2109
SPMM,110,110,0 255 2108
SPMM,111,110,0 255 2107
XY,111,3 255 2106
DLACPY,111,1 255 2105
SPMM,58,111,0 255 2104
SPMM,59,111,0 255 2103
SPMM,110,111,0 255 2102
SPMM,111,111,0 255 2101
SPMM,112,111,0 319 2100
SPMM,113,114,0 319 2099
XTY,113,13,5 327 2098
SPMM,112,59,0 327 2097
XTY,112,12,5 327 2096
SPMM,57,111,0 256 2095
SPMM,56,110,0 256 2094
SPMM,57,110,0 256 2093
XY,102,3 256 2092
XY,103,3 256 2091
DLACPY,103,1 258 2090
SPMM,102,103,0 258 2089
SPMM,103,103,0 258 2088
SPMM,104,103,0 258 2087
SPMM,105,103,0 258 2086
SPMM,106,103,0 258 2085
DLACPY,102,1 258 2084
SPMM,102,102,0 258 2083
SPMM,103,102,0 258 2082
SPMM,104,102,0 258 2081
SPMM,34,102,0 292 2080
SPMM,35,102,0 292 2079
SPMM,34,103,0 292 2078
SPMM,35,103,0 292 2077
SPMM,60,111,0 292 2076
SPMM,54,102,0 303 2075
SPMM,55,102,0 303 2074
SPMM,54,103,0 303 2073
SPMM,55,103,0 303 2072
SPMM,114,65,0 303 2071
SPMM,115,65,0 303 2070
SPMM,114,64,0 303 2069
SPMM,115,64,0 303 2068
SPMM,101,102,0 280 2067
SPMM,101,103,0 280 2066
SPMM,72,71,0 280 2065
UPDATE,102,1 321 2064
UPDATE,103,1 321 2063
SPMM,82,79,0 321 2062
XTY,102,2,4 273 2061
XTY,103,3,4 273 2060
SPMM,42,63,0 273 2059
SPMM,43,63,0 273 2058
SPMM,42,62,0 273 2057
SPMM,108,110,0 315 2056
SPMM,109,110,0 315 2055
XY,96,3 315 2054
XY,97,3 315 2053
DLACPY,97,1 330 2052
SPMM,85,97,0 330 2051
SPMM,86,97,0 330 2050
SPMM,87,97,0 330 2049
SPMM,96,97,0 330 2048
SPMM,97,97,0 330 2047
DLACPY,96,1 330 2046
SPMM,85,96,0 330 2045
SPMM,86,96,0 330 2044
SPMM,96,96,0 330 2043
SPMM,97,96,0 330 2042
SPMM,98,97,0 332 2041
SPMM,59,60,0 332 2040
SPMM,95,96,0 331 2039
XY,16,3 331 2038
XY,17,3 331 2037
UPDATE,96,1 337 2036
XTY,96,16,4 337 2035
UPDATE,97,1 337 2034
XTY,97,17,4 337 2033
UPDATE,72,1 337 2032
UPDATE,73,1 337 2031
SPMM,36,58,0 337 2030
SPMM,37,58,0 337 2029
SPMM,37,59,0 337 2028
UPDATE,111,1 257 2027
UPDATE,110,1 257 2026
XY,76,3 257 2025
XY,77,3 257 2024
DLACPY,77,1 259 2023
SPMM,55,77,0 259 2022
SPMM,56,77,0 259 2021
SPMM,57,77,0 259 2020
SPMM,76,77,0 259 2019
SPMM,77,77,0 259 2018
UPDATE,77,1 259 2017
DLACPY,76,1 259 2016
SPMM,54,76,0 259 2015
SPMM,55,76,0 259 2014
SPMM,56,76,0 259 2013
SPMM,76,76,0 259 2012
SPMM,77,76,0 259 2011
UPDATE,76,1 259 2010
SPMM,78,77,0 263 2009
SPMM,36,110,0 263 2008
SPMM,75,76,0 296 2007
XY,12,3 296 2006
XY,13,3 296 2005
DLACPY,13,1 348 2004
SPMM,12,13,0 348 2003
SPMM,13,13,0 348 2002
DLACPY,12,1 348 2001
SPMM,9,12,0 348 2000
SPMM,12,12,0 348 1999
SPMM,13,12,0 348 1998
SPMM,24,12,0 348 1997
SPMM,25,12,0 348 1996
SPMM,23,12,0 350 1995
DLACPY,9,1 350 1994
SPMM,24,9,0 350 1993
SPMM,25,9,0 350 1992
UPDATE,9,1 350 1991
DLACPY,8,1 350 1990
UPDATE,8,1 350 1989
SPMM,12,9,0 351 1988
DLACPY,51,1 351 1987
SPMM,50,51,0 351 1986
SPMM,51,51,0 351 1985
UPDATE,51,1 351 1984
DLACPY,50,1 351 1983
SPMM,50,50,0 351 1982
SPMM,51,50,0 351 1981
UPDATE,50,1 351 1980
SPMM,70,50,0 429 1979
SPMM,71,50,0 429 1978
SPMM,71,51,0 429 1977
SPMM,2,14,0 429 1976
SPMM,2,15,0 429 1975
SPMM,3,14,0 429 1974
SPMM,3,15,0 429 1973
XTY,50,10,4 397 1972
XTY,51,11,4 397 1971
SETZERO,1,1 385 1970
SPMM,1,8,0 385 1969
SPMM,1,9,0 385 1968
SETZERO,0,1 385 1967
SPMM,0,8,0 385 1966
SPMM,1,24,0 594 1965
SPMM,1,25,0 594 1964
SPMM,85,86,0 594 1963
SPMM,0,4,0 392 1962
SPMM,0,6,0 392 1961
SPMM,0,7,0 392 1960
SPMM,1,4,0 392 1959
SPMM,1,5,0 392 1958
SPMM,1,6,0 392 1957
SPMM,1,7,0 392 1956
SPMM,0,12,0 444 1955
SPMM,0,13,0 444 1954
SPMM,0,14,0 389 1953
SPMM,0,15,0 389 1952
SPMM,0,28,0 462 1951
SPMM,1,28,0 462 1950
SPMM,1,29,0 462 1949
XTY,12,12,4 462 1948
XTY,13,13,4 462 1947
SPMM,8,8,0 479 1946
SPMM,9,8,0 479 1945
SPMM,8,9,0 479 1944
SPMM,9,9,0 479 1943
SPMM,11,8,0 379 1942
SPMM,10,9,0 379 1941
SPMM,11,9,0 379 1940
UPDATE,82,1 379 1939
UPDATE,83,1 379 1938
DLACPY,37,1 379 1937
UPDATE,37,1 379 1936
DLACPY,36,1 379 1935
UPDATE,36,1 379 1934
SPMM,36,36,0 439 1933
SPMM,37,36,0 439 1932
SPMM,36,37,0 439 1931
SPMM,37,37,0 439 1930
SPMM,88,36,0 603 1929
SPMM,106,56,0 603 1928
SPMM,107,56,0 603 1927
SPMM,106,57,0 603 1926
SPMM,107,57,0 603 1925
SPMM,106,36,0 584 1924
SPMM,107,36,0 584 1923
SPMM,108,106,0 584 1922
SPMM,108,107,0 584 1921
SPMM,109,107,0 584 1920
SPMM,108,36,0 585 1919
SPMM,109,36,0 585 1918
UPDATE,108,1 585 1917
UPDATE,109,1 585 1916
SPMM,106,104,0 585 1915
SPMM,107,104,0 585 1914
SPMM,106,105,0 585 1913
SPMM,107,105,0 585 1912
SPMM,108,105,0 585 1911
SPMM,106,55,0 627 1910
XTY,106,6,5 627 1909
SPMM,107,55,0 627 1908
XTY,107,7,5 627 1907
XTY,36,16,4 400 1906
XTY,37,17,4 400 1905
SPMM,10,14,0 400 1904
SPMM,10,15,0 400 1903
SETZERO,19,1 358 1902
SPMM,19,4,0 358 1901
SPMM,19,7,0 358 1900
SPMM,19,8,0 358 1899
SETZERO,18,1 358 1898
SPMM,18,4,0 358 1897
SPMM,18,7,0 358 1896
DLACPY,21,1 359 1895
DLACPY,20,1 359 1894
SPMM,19,20,0 359 1893
SPMM,1,20,0 386 1892
SPMM,1,21,0 386 1891
SPMM,8,20,0 401 1890
SPMM,8,21,0 401 1889
SPMM,11,4,0 401 1888
SPMM,11,5,0 401 1887
SETZERO,29,1 403 1886
SPMM,29,20,0 403 1885
SPMM,29,21,0 403 1884
SETZERO,28,1 403 1883
SPMM,28,20,0 403 1882
SPMM,28,21,0 403 1881
SPMM,29,24,0 485 1880
SPMM,29,25,0 485 1879
SPMM,82,80,0 485 1878
SPMM,82,81,0 485 1877
DLACPY,3,1 497 1876
SPMM,2,3,0 497 1875
SPMM,3,3,0 497 1874
SPMM,16,3,0 497 1873
SPMM,17,3,0 497 1872
SPMM,28,3,0 497 1871
DLACPY,2,1 497 1870
SPMM,2,2,0 497 1869
SPMM,3,2,0 497 1868
SPMM,28,2,0 497 1867
SPMM,29,2,0 497 1866
SPMM,18,3,0 532 1865
SPMM,19,3,0 532 1864
SPMM,10,2,0 530 1863
SPMM,10,3,0 530 1862
SPMM,11,3,0 530 1861
SPMM,110,36,0 530 1860
SPMM,12,2,0 498 1859
SPMM,13,2,0 498 1858
DLACPY,89,1 498 1857
DLACPY,88,1 498 1856
SPMM,90,89,0 500 1855
SPMM,9,2,0 500 1854
SPMM,25,2,0 500 1853
UPDATE,2,1 500 1852
UPDATE,3,1 500 1851
SPMM,36,88,0 575 1850
SPMM,36,106,0 575 1849
SPMM,36,107,0 575 1848
SPMM,87,88,0 595 1847
SPMM,108,55,0 595 1846
SPMM,108,35,0 621 1845
XTY,108,8,5 621 1844
SPMM,109,35,0 621 1843
XTY,109,9,5 621 1842
SPMM,88,88,0 526 1841
SPMM,89,88,0 526 1840
SPMM,88,89,0 526 1839
SPMM,89,89,0 526 1838
SPMM,100,88,0 629 1837
SPMM,101,88,0 629 1836
SPMM,100,87,0 629 1835
SPMM,101,34,0 629 1834
SPMM,101,35,0 629 1833
SPMM,99,88,0 501 1832
XTY,99,19,5 501 1831
UPDATE,88,1 501 1830
UPDATE,89,1 501 1829
XTY,98,18,5 501 1828
SPMM,96,86,0 501 1827
SPMM,97,86,0 501 1826
SPMM,97,87,0 501 1825
SPMM,96,85,0 557 1824
XTY,96,16,5 557 1823
SPMM,97,85,0 557 1822
XTY,97,17,5 557 1821
SPMM,28,14,0 406 1820
SPMM,28,15,0 406 1819
DLACPY,17,1 445 1818
SPMM,16,17,0 445 1817
SPMM,17,17,0 445 1816
SPMM,18,17,0 445 1815
SPMM,28,17,0 445 1814
DLACPY,16,1 445 1813
SPMM,16,16,0 445 1812
SPMM,17,16,0 445 1811
SPMM,28,16,0 445 1810
SPMM,3,16,0 590 1809
SPMM,3,17,0 590 1808
SPMM,34,104,0 590 1807
SPMM,35,104,0 590 1806
SPMM,35,105,0 590 1805
SPMM,44,16,0 591 1804
SPMM,44,17,0 591 1803
SPMM,45,17,0 591 1802
SPMM,84,83,0 591 1801
SPMM,80,16,0 583 1800
SPMM,80,17,0 583 1799
SPMM,102,104,0 583 1798
SPMM,103,104,0 583 1797
SPMM,103,105,0 583 1796
SPMM,0,16,0 446 1795
SPMM,10,16,0 446 1794
SPMM,11,16,0 446 1793
UPDATE,16,1 446 1792
XTY,16,16,4 446 1791
SPMM,0,17,0 446 1790
SPMM,10,17,0 446 1789
SPMM,11,17,0 446 1788
UPDATE,17,1 446 1787
XTY,17,17,4 446 1786
SPMM,28,28,0 405 1785
SPMM,28,29,0 405 1784
SPMM,29,28,0 405 1783
SPMM,29,29,0 405 1782
SPMM,45,20,0 589 1781
SPMM,104,54,0 589 1780
SPMM,104,55,0 589 1779
SPMM,105,55,0 589 1778
SPMM,9,24,0 362 1777
SPMM,9,25,0 362 1776
SETZERO,47,1 362 1775
SPMM,47,20,0 362 1774
SPMM,47,21,0 362 1773
SETZERO,46,1 362 1772
SPMM,46,20,0 362 1771
SPMM,46,21,0 362 1770
DLACPY,49,1 447 1769
SPMM,22,49,0 447 1768
SPMM,23,49,0 447 1767
SPMM,48,49,0 447 1766
SPMM,49,49,0 447 1765
DLACPY,48,1 447 1764
SPMM,22,48,0 447 1763
SPMM,23,48,0 447 1762
SPMM,47,48,0 447 1761
SPMM,48,48,0 447 1760
SPMM,49,48,0 447 1759
SPMM,50,49,0 547 1758
SPMM,12,24,0 547 1757
SPMM,12,25,0 547 1756
DLACPY,45,1 466 1755
SPMM,18,45,0 466 1754
SPMM,19,45,0 466 1753
SPMM,44,45,0 466 1752
SPMM,45,45,0 466 1751
SPMM,46,45,0 466 1750
DLACPY,44,1 466 1749
SPMM,18,44,0 466 1748
SPMM,19,44,0 466 1747
SPMM,44,44,0 466 1746
SPMM,45,44,0 466 1745
SPMM,43,44,0 470 1744
XTY,104,4,4 470 1743
XTY,105,5,4 470 1742
UPDATE,44,1 467 1741
XTY,44,4,4 467 1740
UPDATE,45,1 467 1739
XTY,45,5,4 467 1738
DLACPY,69,1 428 1737
SPMM,47,69,0 428 1736
SPMM,68,69,0 428 1735
SPMM,69,69,0 428 1734
SPMM,70,69,0 428 1733
DLACPY,68,1 428 1732
SPMM,46,68,0 428 1731
SPMM,47,68,0 428 1730
SPMM,68,68,0 428 1729
SPMM,69,68,0 428 1728
SPMM,48,68,0 514 1727
SPMM,48,69,0 514 1726
SPMM,49,69,0 514 1725
SPMM,67,68,0 484 1724
SPMM,56,106,0 484 1723
SPMM,57,106,0 484 1722
SPMM,56,107,0 484 1721
SPMM,57,107,0 484 1720
UPDATE,68,1 430 1719
UPDATE,69,1 430 1718
SPMM,76,56,0 430 1717
SPMM,77,56,0 430 1716
SPMM,77,57,0 430 1715
XTY,68,8,4 432 1714
XTY,69,9,4 432 1713
SPMM,32,24,0 432 1712
SPMM,32,25,0 432 1711
SPMM,83,20,0 463 1710
SPMM,83,21,0 463 1709
SPMM,56,55,0 463 1708
SPMM,84,20,0 574 1707
SPMM,84,21,0 574 1706
SPMM,84,28,0 574 1705
SPMM,84,29,0 574 1704
SPMM,85,29,0 574 1703
SPMM,18,28,0 524 1702
SPMM,19,28,0 524 1701
SPMM,19,29,0 524 1700
SPMM,78,56,0 524 1699
SPMM,78,57,0 524 1698
SPMM,18,82,0 366 1697
SPMM,18,83,0 366 1696
SPMM,19,83,0 366 1695
DLACPY,47,1 366 1694
SPMM,19,47,0 366 1693
UPDATE,47,1 366 1692
DLACPY,46,1 366 1691
SPMM,18,46,0 366 1690
SPMM,19,46,0 366 1689
UPDATE,46,1 366 1688
SPMM,22,47,0 456 1687
SPMM,23,47,0 456 1686
SPMM,110,56,0 456 1685
SPMM,110,57,0 456 1684
SPMM,111,57,0 456 1683
XTY,111,11,5 538 1682
SPMM,110,108,0 538 1681
SPMM,110,109,0 538 1680
XTY,110,10,5 538 1679
SPMM,46,46,0 391 1678
SPMM,47,46,0 391 1677
SPMM,46,47,0 391 1676
SPMM,47,47,0 391 1675
SPMM,68,46,0 440 1674
SPMM,68,47,0 440 1673
SPMM,69,47,0 440 1672
SPMM,29,6,0 440 1671
XTY,46,6,4 394 1670
XTY,47,7,4 394 1669
UPDATE,6,1 394 1668
UPDATE,7,1 394 1667
SPMM,2,12,0 352 1666
SPMM,2,13,0 352 1665
SETZERO,27,1 352 1664
SPMM,27,12,0 352 1663
SPMM,27,13,0 352 1662
SPMM,27,80,0 352 1661
SETZERO,26,1 352 1660
SPMM,26,12,0 352 1659
DLACPY,1,1 353 1658
SPMM,2,1,0 353 1657
SPMM,3,1,0 353 1656
SPMM,8,1,0 353 1655
SPMM,9,1,0 353 1654
SPMM,26,1,0 353 1653
DLACPY,0,1 353 1652
SPMM,2,0,0 353 1651
SPMM,3,0,0 353 1650
SPMM,8,0,0 353 1649
SPMM,27,0,0 353 1648
SPMM,10,1,0 376 1647
XTY,40,0,4 376 1646
XTY,41,1,4 376 1645
SETZERO,21,1 367 1644
SPMM,21,1,0 367 1643
SPMM,21,4,0 367 1642
SPMM,21,5,0 367 1641
SPMM,21,8,0 367 1640
SETZERO,20,1 367 1639
SPMM,20,1,0 367 1638
SPMM,20,4,0 367 1637
SPMM,20,8,0 367 1636
DLACPY,23,1 416 1635
SPMM,24,23,0 416 1634
SPMM,29,23,0 416 1633
DLACPY,22,1 416 1632
SPMM,21,22,0 416 1631
SPMM,29,22,0 416 1630
SPMM,1,22,0 455 1629
SPMM,1,23,0 455 1628
UPDATE,20,1 455 1627
UPDATE,21,1 455 1626
SPMM,22,22,0 424 1625
SPMM,23,22,0 424 1624
SPMM,22,23,0 424 1623
SPMM,23,23,0 424 1622
SPMM,84,22,0 620 1621
SPMM,85,22,0 620 1620
SPMM,84,23,0 620 1619
SPMM,85,23,0 620 1618
SPMM,36,105,0 620 1617
XTY,37,17,5 628 1616
SPMM,36,35,0 628 1615
XTY,36,16,5 628 1614
UPDATE,22,1 426 1613
UPDATE,23,1 426 1612
XTY,56,16,4 426 1611
XTY,57,17,4 426 1610
XTY,22,2,4 523 1609
XTY,23,3,4 523 1608
SPMM,42,14,0 523 1607
SPMM,43,14,0 523 1606
SPMM,42,15,0 523 1605
SPMM,43,15,0 523 1604
SPMM,20,7,0 380 1603
SPMM,16,28,0 380 1602
SPMM,17,28,0 380 1601
DLACPY,19,1 464 1600
SPMM,18,19,0 464 1599
SPMM,19,19,0 464 1598
SPMM,20,19,0 464 1597
DLACPY,18,1 464 1596
SPMM,17,18,0 464 1595
SPMM,18,18,0 464 1594
SPMM,19,18,0 464 1593
SPMM,8,19,0 495 1592
SPMM,66,44,0 495 1591
SPMM,66,45,0 495 1590
SPMM,67,45,0 495 1589
SPMM,84,19,0 573 1588
SPMM,44,43,0 573 1587
SPMM,11,18,0 468 1586
SPMM,11,19,0 468 1585
XTY,106,6,4 468 1584
XTY,107,7,4 468 1583
SPMM,82,18,0 477 1582
SPMM,83,18,0 477 1581
SPMM,83,19,0 477 1580
XTY,18,18,4 531 1579
XTY,19,19,4 531 1578
SPMM,22,84,0 531 1577
SPMM,23,84,0 531 1576
SPMM,22,85,0 531 1575
SPMM,23,85,0 531 1574
SPMM,20,20,0 374 1573
SPMM,20,21,0 374 1572
SPMM,21,20,0 374 1571
SPMM,21,21,0 374 1570
SPMM,20,46,0 395 1569
SPMM,20,47,0 395 1568
SPMM,21,46,0 395 1567
SPMM,21,47,0 395 1566
SPMM,2,25,0 395 1565
SPMM,20,28,0 368 1564
SPMM,20,29,0 368 1563
SPMM,20,83,0 368 1562
SPMM,21,28,0 368 1561
SPMM,21,29,0 368 1560
SPMM,21,83,0 368 1559
SPMM,20,84,0 545 1558
SPMM,21,84,0 545 1557
SPMM,38,37,0 545 1556
XTY,38,18,5 546 1555
SPMM,39,40,0 546 1554
XTY,39,19,5 546 1553
SPMM,0,0,0 388 1552
SPMM,1,0,0 388 1551
SPMM,0,1,0 388 1550
SPMM,1,1,0 388 1549
SETZERO,5,1 411 1548
SPMM,5,1,0 411 1547
SPMM,5,21,0 411 1546
SPMM,5,29,0 411 1545
SETZERO,4,1 411 1544
SPMM,4,0,0 411 1543
SPMM,4,1,0 411 1542
SPMM,4,20,0 411 1541
SPMM,4,21,0 411 1540
SPMM,4,28,0 411 1539
SPMM,4,29,0 411 1538
SPMM,5,6,0 421 1537
SPMM,47,22,0 421 1536
SPMM,47,23,0 421 1535
SPMM,5,12,0 419 1534
SPMM,12,23,0 419 1533
SPMM,5,24,0 412 1532
SPMM,5,25,0 412 1531
SPMM,11,24,0 412 1530
SPMM,4,3,0 516 1529
SPMM,5,2,0 516 1528
SPMM,42,16,0 516 1527
SPMM,43,16,0 516 1526
SPMM,43,17,0 516 1525
SPMM,4,4,0 415 1524
SPMM,4,5,0 415 1523
SPMM,5,4,0 415 1522
SPMM,5,5,0 415 1521
SPMM,4,18,0 528 1520
SPMM,4,19,0 528 1519
UPDATE,84,1 528 1518
UPDATE,85,1 528 1517
SPMM,4,22,0 460 1516
SPMM,4,23,0 460 1515
SPMM,5,22,0 460 1514
SPMM,5,23,0 460 1513
SPMM,82,28,0 460 1512
SPMM,83,28,0 460 1511
SPMM,83,29,0 460 1510
SETZERO,7,1 502 1509
SPMM,7,0,0 502 1508
SPMM,7,1,0 502 1507
SETZERO,6,1 502 1506
SPMM,6,0,0 502 1505
SPMM,6,1,0 502 1504
SPMM,6,2,0 502 1503
SPMM,6,29,0 502 1502
SPMM,7,18,0 529 1501
SPMM,7,19,0 529 1500
SPMM,48,24,0 529 1499
SPMM,49,24,0 529 1498
SPMM,49,25,0 529 1497
SPMM,7,20,0 505 1496
SPMM,6,6,0 504 1495
SPMM,6,7,0 504 1494
SPMM,7,6,0 504 1493
SPMM,7,7,0 504 1492
SPMM,6,14,0 507 1491
SPMM,6,15,0 507 1490
SPMM,7,14,0 507 1489
SPMM,7,15,0 507 1488
SPMM,82,89,0 507 1487
SPMM,6,16,0 510 1486
SPMM,7,16,0 510 1485
SPMM,7,17,0 510 1484
SPMM,20,45,0 510 1483
SPMM,6,5,0 506 1482
SPMM,6,25,0 506 1481
SPMM,12,0,0 354 1480
SPMM,13,0,0 354 1479
SPMM,22,1,0 354 1478
SPMM,23,1,0 354 1477
SPMM,24,1,0 354 1476
SPMM,25,1,0 354 1475
UPDATE,14,1 354 1474
UPDATE,15,1 354 1473
SPMM,16,0,0 481 1472
SPMM,17,0,0 481 1471
SPMM,41,42,0 481 1470
SPMM,28,0,0 441 1469
SPMM,28,1,0 441 1468
SPMM,29,1,0 441 1467
SPMM,10,12,0 441 1466
SPMM,11,12,0 441 1465
SPMM,10,13,0 441 1464
UPDATE,0,1 486 1463
UPDATE,1,1 486 1462
SPMM,90,82,0 486 1461
SPMM,91,82,0 486 1460
SPMM,91,83,0 486 1459
SPMM,26,2,0 556 1458
SPMM,27,2,0 556 1457
SPMM,27,3,0 556 1456
XTY,88,8,4 556 1455
XTY,89,9,4 556 1454
SPMM,26,5,0 363 1453
SPMM,22,21,0 363 1452
SPMM,26,6,0 431 1451
SPMM,27,6,0 431 1450
SPMM,62,42,0 431 1449
SPMM,63,42,0 431 1448
SPMM,63,43,0 431 1447
SPMM,60,40,0 433 1446
XTY,60,0,5 433 1445
SPMM,61,40,0 433 1444
SPMM,62,40,0 433 1443
SPMM,61,41,0 433 1442
XTY,61,1,5 433 1441
SPMM,62,41,0 433 1440
XTY,62,2,5 433 1439
SPMM,63,41,0 433 1438
XTY,63,3,5 433 1437
SPMM,26,9,0 357 1436
SPMM,27,9,0 357 1435
SPMM,12,40,0 357 1434
SPMM,12,41,0 357 1433
SPMM,13,40,0 357 1432
SPMM,13,41,0 357 1431
SPMM,26,25,0 356 1430
UPDATE,4,1 356 1429
UPDATE,5,1 356 1428
DLACPY,27,1 539 1427
SPMM,26,27,0 539 1426
SPMM,27,27,0 539 1425
SPMM,28,27,0 539 1424
SPMM,29,27,0 539 1423
DLACPY,26,1 539 1422
SPMM,25,26,0 539 1421
SPMM,26,26,0 539 1420
SPMM,27,26,0 539 1419
SPMM,29,26,0 539 1418
SPMM,80,27,0 576 1417
SPMM,105,36,0 576 1416
SPMM,49,26,0 553 1415
SPMM,18,0,0 553 1414
SPMM,19,0,0 553 1413
SPMM,18,1,0 553 1412
SPMM,19,1,0 553 1411
SPMM,2,26,0 540 1410
SPMM,12,26,0 540 1409
SPMM,32,26,0 540 1408
SPMM,50,26,0 540 1407
SPMM,51,26,0 540 1406
SPMM,2,27,0 540 1405
SPMM,3,27,0 540 1404
SPMM,12,27,0 540 1403
SPMM,13,27,0 540 1402
SPMM,32,27,0 540 1401
SPMM,50,27,0 540 1400
SPMM,51,27,0 540 1399
SPMM,1,26,0 542 1398
SPMM,6,26,0 542 1397
SPMM,9,26,0 542 1396
UPDATE,26,1 542 1395
SPMM,0,27,0 542 1394
SPMM,6,27,0 542 1393
SPMM,9,27,0 542 1392
UPDATE,27,1 542 1391
SPMM,5,26,0 541 1390
SPMM,10,26,0 541 1389
XTY,26,6,4 541 1388
SPMM,10,27,0 541 1387
XTY,27,7,4 541 1386
SPMM,26,29,0 360 1385
SPMM,27,28,0 360 1384
SPMM,27,29,0 360 1383
SPMM,22,29,0 360 1382
SPMM,23,29,0 360 1381
DLACPY,33,1 382 1380
SPMM,32,33,0 382 1379
SPMM,33,33,0 382 1378
DLACPY,32,1 382 1377
SPMM,24,32,0 382 1376
SPMM,25,32,0 382 1375
SPMM,26,32,0 382 1374
SPMM,27,32,0 382 1373
SPMM,32,32,0 382 1372
SPMM,33,32,0 382 1371
SPMM,34,33,0 578 1370
SPMM,44,15,0 578 1369
SPMM,23,32,0 383 1368
SPMM,29,32,0 407 1367
SPMM,28,13,0 407 1366
SPMM,28,80,0 407 1365
SPMM,28,82,0 407 1364
SPMM,28,83,0 407 1363
SPMM,29,83,0 407 1362
SETZERO,31,1 408 1361
SPMM,31,29,0 408 1360
SPMM,31,32,0 408 1359
SPMM,31,50,0 408 1358
SPMM,31,51,0 408 1357
SETZERO,30,1 408 1356
SPMM,30,29,0 408 1355
SPMM,30,32,0 408 1354
SPMM,30,40,0 408 1353
SPMM,30,41,0 408 1352
SPMM,31,22,0 417 1351
SPMM,31,23,0 417 1350
SPMM,8,22,0 417 1349
SPMM,9,22,0 417 1348
SPMM,11,22,0 417 1347
SPMM,8,23,0 417 1346
SPMM,9,23,0 417 1345
SPMM,11,23,0 417 1344
SPMM,32,23,0 417 1343
SPMM,31,48,0 448 1342
SPMM,31,49,0 448 1341
SPMM,21,48,0 448 1340
SPMM,26,49,0 448 1339
SPMM,24,48,0 448 1338
SPMM,24,49,0 448 1337
SPMM,25,49,0 448 1336
SPMM,31,85,0 521 1335
SPMM,83,84,0 521 1334
SPMM,30,2,0 499 1333
XTY,2,2,4 499 1332
XTY,3,3,4 499 1331
SPMM,30,5,0 422 1330
SPMM,58,57,0 422 1329
SPMM,58,36,0 427 1328
SPMM,58,37,0 427 1327
XTY,58,18,5 427 1326
SPMM,59,37,0 427 1325
XTY,59,19,5 427 1324
SPMM,30,6,0 409 1323
SPMM,30,7,0 409 1322
SPMM,31,7,0 409 1321
XTY,14,14,4 409 1320
XTY,15,15,4 409 1319
SPMM,30,8,0 418 1318
SPMM,31,8,0 418 1317
SPMM,31,9,0 418 1316
SPMM,16,42,0 418 1315
SPMM,16,43,0 418 1314
SPMM,17,43,0 418 1313
SPMM,30,12,0 436 1312
SPMM,30,13,0 436 1311
SPMM,31,12,0 436 1310
XTY,8,8,4 436 1309
XTY,9,9,4 436 1308
SPMM,30,14,0 515 1307
SPMM,30,15,0 515 1306
SPMM,55,56,0 515 1305
SPMM,30,18,0 465 1304
SPMM,30,19,0 465 1303
SPMM,31,19,0 465 1302
SPMM,0,18,0 465 1301
SPMM,1,18,0 465 1300
SPMM,28,18,0 465 1299
SPMM,46,18,0 465 1298
SPMM,0,19,0 465 1297
SPMM,1,19,0 465 1296
SPMM,28,19,0 465 1295
SPMM,29,19,0 465 1294
SPMM,46,19,0 465 1293
SPMM,47,19,0 465 1292
SPMM,30,26,0 551 1291
SPMM,30,27,0 551 1290
SPMM,31,26,0 551 1289
SPMM,31,27,0 551 1288
SPMM,116,68,0 551 1287
SPMM,117,68,0 551 1286
SPMM,116,69,0 551 1285
SPMM,117,69,0 551 1284
DLACPY,31,1 473 1283
SPMM,8,31,0 473 1282
SPMM,9,31,0 473 1281
SPMM,30,31,0 473 1280
SPMM,31,31,0 473 1279
DLACPY,30,1 473 1278
SPMM,8,30,0 473 1277
SPMM,30,30,0 473 1276
SPMM,31,30,0 473 1275
SPMM,24,31,0 554 1274
SPMM,25,31,0 554 1273
SPMM,30,46,0 554 1272
SPMM,30,47,0 554 1271
SPMM,31,46,0 554 1270
SPMM,31,47,0 554 1269
SPMM,85,31,0 596 1268
SPMM,104,56,0 596 1267
SPMM,105,56,0 596 1266
SPMM,2,30,0 476 1265
UPDATE,18,1 476 1264
UPDATE,19,1 476 1263
SPMM,6,30,0 517 1262
SPMM,7,30,0 517 1261
SPMM,7,31,0 517 1260
SPMM,48,22,0 517 1259
SPMM,49,22,0 517 1258
SPMM,48,23,0 517 1257
SPMM,49,23,0 517 1256
SPMM,10,30,0 543 1255
SPMM,11,30,0 543 1254
SPMM,10,31,0 543 1253
SPMM,11,31,0 543 1252
SPMM,49,50,0 543 1251
SETZERO,15,1 609 1250
SPMM,15,2,0 609 1249
SPMM,15,3,0 609 1248
SPMM,15,28,0 609 1247
SPMM,15,30,0 609 1246
SPMM,15,80,0 609 1245
SETZERO,14,1 609 1244
SPMM,14,2,0 609 1243
SPMM,14,3,0 609 1242
SPMM,14,28,0 609 1241
SPMM,14,30,0 609 1240
SPMM,14,80,0 609 1239
SPMM,15,82,0 614 1238
SPMM,14,14,0 613 1237
SPMM,14,15,0 613 1236
SPMM,15,14,0 613 1235
SPMM,15,15,0 613 1234
SPMM,14,13,0 610 1233
SPMM,14,27,0 610 1232
SPMM,15,27,0 610 1231
SPMM,14,42,0 615 1230
SPMM,14,43,0 615 1229
SPMM,15,16,0 615 1228
SPMM,15,42,0 615 1227
SPMM,15,43,0 615 1226
SPMM,16,30,0 549 1225
SPMM,17,30,0 549 1224
SPMM,0,2,0 549 1223
SPMM,1,2,0 549 1222
SPMM,0,3,0 549 1221
SPMM,1,3,0 549 1220
SPMM,20,30,0 511 1219
SPMM,21,30,0 511 1218
SPMM,20,31,0 511 1217
SPMM,21,31,0 511 1216
SPMM,48,47,0 511 1215
SPMM,26,30,0 487 1214
SPMM,27,30,0 487 1213
SPMM,26,31,0 487 1212
SPMM,27,31,0 487 1211
SPMM,56,108,0 487 1210
SPMM,57,108,0 487 1209
SPMM,56,109,0 487 1208
SPMM,57,109,0 487 1207
SPMM,18,30,0 475 1206
SPMM,19,30,0 475 1205
SPMM,29,30,0 475 1204
SPMM,40,30,0 475 1203
SPMM,41,30,0 475 1202
SPMM,19,31,0 475 1201
SPMM,29,31,0 475 1200
SPMM,50,31,0 475 1199
SPMM,51,31,0 475 1198
SPMM,42,30,0 474 1197
SPMM,43,30,0 474 1196
SPMM,48,31,0 474 1195
SPMM,49,31,0 474 1194
XTY,49,9,5 563 1193
SPMM,48,21,0 563 1192
XTY,48,8,5 563 1191
SPMM,46,30,0 482 1190
SPMM,47,30,0 482 1189
SPMM,46,31,0 482 1188
SPMM,47,31,0 482 1187
SPMM,5,30,0 480 1186
SPMM,32,30,0 480 1185
UPDATE,30,1 480 1184
SPMM,32,31,0 480 1183
UPDATE,31,1 480 1182
SPMM,79,82,0 480 1181
XTY,32,12,5 619 1180
SPMM,33,34,0 619 1179
XTY,33,13,5 619 1178
XTY,30,10,4 586 1177
XTY,31,11,4 586 1176
SPMM,105,108,0 586 1175
SPMM,30,42,0 420 1174
SPMM,30,43,0 420 1173
SPMM,31,24,0 420 1172
SPMM,31,25,0 420 1171
SPMM,30,44,0 469 1170
SPMM,30,45,0 469 1169
SPMM,31,45,0 469 1168
SPMM,56,103,0 469 1167
XTY,56,16,5 555 1166
SPMM,57,36,0 555 1165
SPMM,57,37,0 555 1164
XTY,57,17,5 555 1163
SPMM,85,32,0 599 1162
SPMM,85,33,0 599 1161
SPMM,24,50,0 599 1160
SPMM,25,50,0 599 1159
SPMM,25,51,0 599 1158
SPMM,86,32,0 580 1157
SPMM,86,33,0 580 1156
SPMM,87,33,0 580 1155
SPMM,80,88,0 580 1154
SPMM,81,88,0 580 1153
SPMM,80,89,0 580 1152
SPMM,81,89,0 580 1151
SPMM,86,34,0 618 1150
XTY,86,6,5 618 1149
SPMM,87,34,0 618 1148
SPMM,87,35,0 618 1147
XTY,87,7,5 618 1146
XTY,81,1,5 606 1145
SPMM,44,18,0 606 1144
SPMM,45,18,0 606 1143
SPMM,44,19,0 606 1142
SPMM,45,19,0 606 1141
SPMM,80,12,0 606 1140
SPMM,80,13,0 606 1139
XTY,80,0,5 606 1138
CONSTRUCTGB 606 1137
UPDATE,32,1 623 1136
UPDATE,33,1 623 1135
SPMM,35,36,0 623 1134
XTY,32,12,4 398 1133
XTY,33,13,4 398 1132
SPMM,2,9,0 398 1131
SPMM,26,50,0 384 1130
SPMM,26,51,0 384 1129
SPMM,27,50,0 384 1128
SPMM,27,51,0 384 1127
SPMM,11,20,0 384 1126
SPMM,11,21,0 384 1125
DLACPY,11,1 559 1124
SPMM,10,11,0 559 1123
SPMM,11,11,0 559 1122
SPMM,30,11,0 559 1121
SPMM,31,11,0 559 1120
DLACPY,10,1 559 1119
SPMM,10,10,0 559 1118
XTY,10,10,5 559 1117
SPMM,11,10,0 559 1116
XTY,11,11,5 559 1115
SPMM,30,10,0 559 1114
SPMM,31,10,0 559 1113
SPMM,4,11,0 567 1112
XTY,4,4,5 567 1111
SPMM,5,11,0 567 1110
XTY,5,5,5 567 1109
SPMM,2,10,0 568 1108
SPMM,3,10,0 568 1107
SPMM,3,11,0 568 1106
SPMM,20,11,0 568 1105
XTY,20,0,5 568 1104
SPMM,21,11,0 568 1103
XTY,21,1,5 568 1102
SPMM,9,10,0 569 1101
SPMM,8,11,0 569 1100
XTY,8,8,5 569 1099
SPMM,9,11,0 569 1098
XTY,9,9,5 569 1097
SPMM,14,10,0 611 1096
SPMM,15,10,0 611 1095
SPMM,14,6,0 611 1094
SPMM,14,7,0 611 1093
SPMM,15,6,0 611 1092
SPMM,15,7,0 611 1091
SPMM,14,0,0 616 1090
SPMM,14,41,0 616 1089
XTY,14,14,5 616 1088
SPMM,15,0,0 616 1087
SPMM,15,44,0 616 1086
XTY,15,15,5 616 1085
SPMM,6,10,0 560 1084
SPMM,7,10,0 560 1083
SPMM,12,10,0 560 1082
SPMM,13,10,0 560 1081
SPMM,16,10,0 560 1080
SPMM,17,10,0 560 1079
SPMM,7,11,0 560 1078
SPMM,12,11,0 560 1077
SPMM,16,11,0 560 1076
SPMM,17,11,0 560 1075
SPMM,22,11,0 560 1074
SPMM,23,11,0 560 1073
SPMM,16,44,0 601 1072
XTY,16,16,5 601 1071
SPMM,17,44,0 601 1070
SPMM,17,45,0 601 1069
XTY,17,17,5 601 1068
SPMM,1,10,0 562 1067
SPMM,26,10,0 562 1066
SPMM,27,10,0 562 1065
XTY,10,10,4 564 1064
XTY,11,11,4 564 1063
SPMM,12,80,0 564 1062
SPMM,13,80,0 564 1061
SPMM,12,30,0 570 1060
SPMM,13,30,0 570 1059
XTY,13,13,5 570 1058
SPMM,12,31,0 570 1057
XTY,12,12,5 570 1056
DLACPY,53,1 492 1055
SPMM,74,53,0 492 1054
SPMM,75,53,0 492 1053
DLACPY,52,1 492 1052
SPMM,26,52,0 492 1051
SPMM,27,52,0 492 1050
SPMM,51,52,0 492 1049
SPMM,74,52,0 492 1048
SPMM,50,24,0 565 1047
SPMM,50,25,0 565 1046
XTY,50,10,5 565 1045
SPMM,51,25,0 565 1044
XTY,51,11,5 565 1043
XTY,26,6,5 593 1042
SPMM,27,14,0 593 1041
SPMM,27,15,0 593 1040
XTY,27,7,5 593 1039
SPMM,54,53,0 535 1038
SPMM,94,84,0 535 1037
SPMM,95,84,0 535 1036
SPMM,94,85,0 535 1035
SPMM,95,85,0 535 1034
XTY,54,14,5 536 1033
SPMM,55,108,0 536 1032
XTY,55,15,5 536 1031
SPMM,102,53,0 607 1030
SPMM,45,46,0 607 1029
SPMM,102,34,0 622 1028
SPMM,103,34,0 622 1027
SPMM,104,34,0 622 1026
SPMM,102,35,0 622 1025
XTY,102,2,5 622 1024
SPMM,103,35,0 622 1023
XTY,103,3,5 622 1022
SPMM,104,35,0 622 1021
XTY,104,4,5 622 1020
SPMM,105,35,0 622 1019
XTY,105,5,5 622 1018
SPMM,31,52,0 494 1017
UPDATE,52,1 494 1016
UPDATE,53,1 494 1015
SPMM,22,31,0 494 1014
SPMM,23,31,0 494 1013
SPMM,22,8,0 582 1012
SPMM,23,8,0 582 1011
SPMM,22,9,0 582 1010
XTY,22,2,5 582 1009
SPMM,23,9,0 582 1008
XTY,23,3,5 582 1007
SPMM,52,52,0 519 1006
SPMM,53,52,0 519 1005
SPMM,52,53,0 519 1004
SPMM,53,53,0 519 1003
SPMM,52,51,0 519 1002
XTY,52,12,5 519 1001
SPMM,53,54,0 519 1000
XTY,53,13,5 519 999
SPMM,40,12,0 488 998
SPMM,41,12,0 488 997
SPMM,41,13,0 488 996
SPMM,41,14,0 488 995
XTY,41,1,5 491 994
XTY,40,0,5 491 993
SPMM,42,12,0 518 992
SPMM,42,13,0 518 991
SPMM,42,41,0 518 990
XTY,42,2,5 544 989
XTY,43,3,5 544 988
SPMM,6,12,0 544 987
SPMM,6,13,0 544 986
XTY,6,6,5 566 985
SPMM,7,8,0 566 984
XTY,7,7,5 566 983
SPMM,121,76,0 297 982
SPMM,121,77,0 297 981
XY,66,3 297 980
XY,67,3 297 979
DLACPY,67,1 370 978
SPMM,66,67,0 370 977
SPMM,67,67,0 370 976
SPMM,115,67,0 370 975
UPDATE,67,1 370 974
DLACPY,66,1 370 973
SPMM,66,66,0 370 972
SPMM,67,66,0 370 971
SPMM,114,66,0 370 970
SPMM,115,66,0 370 969
UPDATE,66,1 370 968
XTY,115,15,5 372 967
XTY,114,14,5 372 966
XTY,0,0,4 372 965
XTY,1,1,4 372 964
SPMM,68,67,0 450 963
SPMM,30,16,0 450 962
SPMM,30,17,0 450 961
SPMM,30,20,0 597 960
SPMM,30,21,0 597 959
XTY,30,10,5 597 958
SPMM,31,20,0 597 957
SPMM,31,21,0 597 956
XTY,31,11,5 597 955
SPMM,44,66,0 587 954
SPMM,45,66,0 587 953
SPMM,45,67,0 587 952
SPMM,35,88,0 587 951
SPMM,44,30,0 608 950
XTY,44,4,5 608 949
SPMM,45,30,0 608 948
SPMM,45,31,0 608 947
XTY,45,5,5 608 946
SPMM,46,66,0 396 945
SPMM,46,67,0 396 944
SPMM,47,67,0 396 943
XTY,20,0,4 396 942
XTY,21,1,4 396 941
XTY,47,7,5 527 940
XTY,46,6,5 527 939
SPMM,65,66,0 471 938
UPDATE,106,1 471 937
UPDATE,107,1 471 936
SPMM,64,44,0 472 935
XTY,64,4,5 472 934
SPMM,65,44,0 472 933
SPMM,65,45,0 472 932
XTY,65,5,5 472 931
XTY,66,6,4 393 930
XTY,67,7,4 393 929
UPDATE,12,1 393 928
UPDATE,13,1 393 927
SPMM,66,46,0 508 926
XTY,66,6,5 508 925
SPMM,67,46,0 508 924
SPMM,67,47,0 508 923
XTY,67,7,5 508 922
XY,122,3 268 921
DLACPY,122,1 268 920
SPMM,76,122,0 268 919
SPMM,77,122,0 268 918
SPMM,122,122,0 268 917
SPMM,123,122,0 268 916
XY,123,3 268 915
DLACPY,123,1 268 914
SPMM,77,123,0 268 913
SPMM,122,123,0 268 912
SPMM,123,123,0 268 911
SPMM,76,54,0 435 910
SPMM,76,55,0 435 909
XTY,76,16,5 435 908
SPMM,77,55,0 435 907
XTY,77,17,5 435 906
SPMM,78,123,0 269 905
UPDATE,123,1 269 904
SPMM,78,122,0 269 903
SPMM,121,122,0 269 902
UPDATE,122,1 269 901
SPMM,122,76,0 269 900
SPMM,122,77,0 269 899
SPMM,123,77,0 269 898
XTY,123,3,5 325 897
XTY,122,2,5 325 896
XY,92,3 325 895
XY,93,3 325 894
DLACPY,93,1 328 893
SPMM,83,93,0 328 892
SPMM,92,93,0 328 891
SPMM,93,93,0 328 890
SPMM,94,93,0 328 889
DLACPY,92,1 328 888
SPMM,82,92,0 328 887
SPMM,83,92,0 328 886
SPMM,92,92,0 328 885
SPMM,93,92,0 328 884
XTY,94,14,5 548 883
XTY,95,15,5 548 882
SPMM,3,18,0 548 881
SPMM,3,19,0 548 880
XTY,3,3,5 605 879
XTY,1,1,5 605 878
XTY,2,2,5 605 877
XTY,0,0,5 605 876
SPMM,82,16,0 558 875
SPMM,83,16,0 558 874
SPMM,82,17,0 558 873
XTY,82,2,5 558 872
SPMM,83,17,0 558 871
XTY,83,3,5 558 870
SPMM,91,92,0 329 869
UPDATE,92,1 329 868
XTY,92,12,4 329 867
SPMM,84,93,0 329 866
UPDATE,93,1 329 865
XTY,93,13,4 329 864
SPMM,90,81,0 509 863
XTY,90,10,5 509 862
SPMM,91,81,0 509 861
XTY,91,11,5 509 860
XTY,84,4,5 626 859
XTY,85,5,5 626 858
XTY,34,14,5 626 857
SPMM,35,106,0 626 856
SPMM,35,107,0 626 855
XTY,35,15,5 626 854
XTY,92,12,5 522 853
SPMM,19,84,0 522 852
SPMM,93,84,0 522 851
XTY,93,13,5 522 850
XTY,84,4,4 522 849
XTY,85,5,4 522 848
UPDATE,10,1 561 847
SPMM,18,11,0 561 846
XTY,18,18,5 561 845
SPMM,19,11,0 561 844
XTY,19,19,5 561 843
SPMM,24,11,0 561 842
UPDATE,11,1 561 841
XTY,24,4,5 604 840
XTY,25,5,5 604 839
SPMM,88,87,0 604 838
XTY,78,18,5 550 837
XTY,79,19,5 550 836
SPMM,28,84,0 550 835
SPMM,29,84,0 550 834
SPMM,29,85,0 550 833
SPMM,28,4,0 581 832
XTY,28,8,5 581 831
SPMM,29,4,0 581 830
SPMM,29,5,0 581 829
XTY,29,9,5 581 828
XTY,123,3,4 275 827
XTY,122,2,4 275 826
XY,118,3 275 825
XY,119,3 275 824
DLACPY,119,1 276 823
SPMM,71,119,0 276 822
SPMM,72,119,0 276 821
SPMM,73,119,0 276 820
SPMM,118,119,0 276 819
SPMM,119,119,0 276 818
DLACPY,118,1 276 817
SPMM,70,118,0 276 816
SPMM,71,118,0 276 815
SPMM,72,118,0 276 814
SPMM,118,118,0 276 813
SPMM,119,118,0 276 812
SPMM,72,52,0 493 811
SPMM,73,52,0 493 810
XTY,52,12,4 493 809
SPMM,73,53,0 493 808
XTY,53,13,4 493 807
SPMM,72,50,0 493 806
SPMM,72,51,0 493 805
XTY,72,12,5 493 804
SPMM,73,51,0 493 803
XTY,73,13,5 493 802
SPMM,70,48,0 449 801
UPDATE,48,1 449 800
XTY,48,8,4 449 799
SPMM,70,49,0 449 798
XTY,70,10,5 449 797
SPMM,71,49,0 449 796
XTY,71,11,5 449 795
UPDATE,49,1 449 794
XTY,49,9,4 449 793
SPMM,120,119,0 302 792
XTY,111,11,4 302 791
XTY,110,10,4 302 790
XTY,120,0,5 339 789
XTY,121,1,5 339 788
XTY,116,16,4 339 787
XTY,117,17,4 339 786
UPDATE,118,1 311 785
UPDATE,119,1 311 784
XTY,76,16,4 311 783
XTY,77,17,4 311 782
SPMM,69,118,0 277 781
SPMM,117,118,0 277 780
XTY,118,18,4 277 779
SPMM,74,119,0 277 778
XTY,119,19,4 277 777
XTY,89,9,5 625 776
XTY,34,14,4 625 775
SPMM,88,35,0 625 774
XTY,88,8,5 625 773
XTY,35,15,4 625 772
RED,XARBUF,0 625 771
SPMM,116,66,0 552 770
SPMM,116,67,0 552 769
XTY,116,16,5 552 768
SPMM,117,67,0 552 767
XTY,117,17,5 552 766
SPMM,74,54,0 496 765
XTY,74,14,5 496 764
SPMM,75,54,0 496 763
SPMM,75,55,0 496 762
XTY,75,15,5 496 761
SPMM,68,48,0 451 760
XTY,68,8,5 451 759
SPMM,69,48,0 451 758
SPMM,69,49,0 451 757
XTY,69,9,5 451 756
XTY,119,19,5 459 755
SPMM,118,69,0 459 754
XTY,118,18,5 459 753
SPMM,101,53,0 630 752
XTY,101,1,5 630 751
XTY,100,0,5 630 750
RED,RARBUF,0 630 749
TRANS,RAR 630 748
SPEUPDATE,RAR 631 747
CONSTRUCTGA 631 746
EIGEN 631 745
XY,0,6 631 744
XY,1,6 631 743
XY,22,6 633 742
XY,23,6 633 741
XY,34,6 633 740
XY,35,6 633 739
XY,22,10 753 738
ADD,22,3 753 737
XY,23,10 753 736
ADD,23,3 753 735
XY,80,6 658 734
XY,81,6 658 733
XY,84,6 658 732
XY,85,6 658 731
XY,84,10 682 730
ADD,84,3 682 729
XY,85,10 682 728
ADD,85,3 682 727
XY,80,10 680 726
ADD,80,3 680 725
XY,81,10 680 724
ADD,81,3 680 723
XY,46,6 639 722
XY,47,6 639 721
XY,92,6 639 720
XY,93,6 639 719
XY,60,6 636 718
XY,61,6 636 717
XY,98,6 636 716
XY,99,6 636 715
XY,98,10 776 714
ADD,98,3 776 713
XY,99,10 776 712
ADD,99,3 776 711
XY,60,10 790 710
ADD,60,3 790 709
XY,61,10 790 708
ADD,61,3 790 707
XY,96,6 634 706
XY,97,6 634 705
XY,100,6 634 704
XY,101,6 634 703
XY,100,10 783 702
ADD,100,3 783 701
XY,101,10 783 700
ADD,101,3 783 699
XY,54,6 637 698
XY,55,6 637 697
XY,104,6 637 696
XY,105,6 637 695
XY,54,10 810 694
ADD,54,3 810 693
XY,55,10 810 692
ADD,55,3 810 691
XY,108,6 649 690
XY,109,6 649 689
XY,112,6 649 688
XY,113,6 649 687
XY,108,10 696 686
ADD,108,3 696 685
XY,109,10 696 684
ADD,109,3 696 683
XY,118,6 646 682
XY,119,6 646 681
XY,122,6 646 680
XY,123,6 646 679
XY,12,8 779 678
XY,13,8 779 677
XY,12,11 784 676
ADD,12,4 784 675
XY,13,11 784 674
ADD,13,4 784 673
XY,56,6 655 672
XY,57,6 655 671
XY,14,8 655 670
XY,15,8 655 669
XY,14,11 738 668
ADD,14,4 738 667
XY,15,11 738 666
ADD,15,4 738 665
XY,56,10 711 664
ADD,56,3 711 663
XY,57,10 711 662
ADD,57,3 711 661
XY,52,6 643 660
XY,53,6 643 659
XY,22,8 643 658
XY,23,8 643 657
XY,22,11 716 656
ADD,22,4 716 655
XY,23,11 716 654
ADD,23,4 716 653
XY,16,8 644 652
XY,17,8 644 651
XY,24,8 644 650
XY,25,8 644 649
XY,16,11 718 648
ADD,16,4 718 647
XY,17,11 718 646
ADD,17,4 718 645
XY,48,6 651 644
XY,49,6 651 643
XY,28,8 651 642
XY,29,8 651 641
XY,28,11 814 640
ADD,28,4 814 639
XY,29,11 814 638
ADD,29,4 814 637
XY,114,6 657 636
XY,115,6 657 635
XY,30,8 657 634
XY,31,8 657 633
XY,0,8 653 632
XY,1,8 653 631
XY,34,8 653 630
XY,35,8 653 629
XY,0,11 780 628
ADD,0,4 780 627
XY,1,11 780 626
ADD,1,4 780 625
XY,76,6 671 624
XY,77,6 671 623
XY,84,8 671 622
XY,85,8 671 621
XY,84,11 672 620
ADD,84,4 672 619
XY,85,11 672 618
ADD,85,4 672 617
XY,120,6 642 616
XY,121,6 642 615
XY,86,8 642 614
XY,87,8 642 613
XY,86,11 721 612
ADD,86,4 721 611
XY,87,11 721 610
ADD,87,4 721 609
XY,120,10 770 608
ADD,120,3 770 607
XY,121,10 770 606
ADD,121,3 770 605
XY,2,6 656 604
XY,3,6 656 603
XY,88,8 656 602
XY,89,8 656 601
XY,2,10 765 600
ADD,2,3 765 599
XY,3,10 765 598
ADD,3,3 765 597
XY,14,6 632 596
XY,15,6 632 595
XY,100,8 632 594
XY,101,8 632 593
XY,50,6 650 592
XY,51,6 650 591
XY,102,8 650 590
XY,103,8 650 589
XY,102,11 769 588
ADD,102,4 769 587
XY,103,11 769 586
ADD,103,4 769 585
XY,86,6 661 584
XY,87,6 661 583
XY,106,8 661 582
XY,107,8 661 581
XY,106,11 713 580
ADD,106,4 713 579
XY,107,11 713 578
ADD,107,4 713 577
XY,86,10 662 576
ADD,86,3 662 575
XY,87,10 662 574
ADD,87,3 662 573
XY,2,8 647 572
XY,3,8 647 571
XY,108,8 647 570
XY,109,8 647 569
XY,2,11 802 568
ADD,2,4 802 567
XY,3,11 802 566
ADD,3,4 802 565
XY,0,10 727 564
ADD,0,3 727 563
XY,1,10 727 562
ADD,1,3 727 561
XY,12,6 793 560
XY,13,6 793 559
XY,8,10 793 558
XY,9,10 793 557
XY,8,6 794 556
ADD,8,3 794 555
XY,9,6 794 554
ADD,9,3 794 553
XY,12,10 817 552
ADD,12,3 817 551
XY,13,10 817 550
ADD,13,3 817 549
XY,6,6 807 548
XY,7,6 807 547
XY,10,10 807 546
XY,11,10 807 545
XY,10,6 808 544
ADD,10,3 808 543
XY,11,6 808 542
ADD,11,3 808 541
XY,102,6 640 540
XY,103,6 640 539
XY,18,10 640 538
XY,19,10 640 537
XY,18,6 712 536
ADD,18,3 712 535
XY,19,6 712 534
ADD,19,3 712 533
XY,118,8 739 532
XY,119,8 739 531
XY,26,10 739 530
XY,27,10 739 529
XY,26,6 750 528
ADD,26,3 750 527
XY,27,6 750 526
ADD,27,3 750 525
XY,118,11 751 524
ADD,118,4 751 523
XY,119,11 751 522
ADD,119,4 751 521
XY,34,10 690 520
XY,35,10 690 519
ADD,35,3 694 518
ADD,34,3 694 517
XY,34,11 694 516
XY,35,11 694 515
XY,60,8 775 514
XY,61,8 775 513
XY,36,10 775 512
XY,37,10 775 511
XY,36,6 782 510
ADD,36,3 782 509
XY,37,6 782 508
ADD,37,3 782 507
XY,60,11 778 506
ADD,60,4 778 505
XY,61,11 778 504
ADD,61,4 778 503
XY,38,6 701 502
XY,39,6 701 501
XY,38,10 701 500
XY,39,10 701 499
ADD,39,3 723 498
ADD,38,3 723 497
XY,94,11 723 496
XY,95,11 723 495
XY,98,8 760 494
XY,99,8 760 493
XY,40,10 760 492
XY,41,10 760 491
XY,40,6 801 490
ADD,40,3 801 489
XY,41,6 801 488
ADD,41,3 801 487
XY,74,8 756 486
XY,75,8 756 485
XY,50,10 756 484
XY,51,10 756 483
ADD,51,3 795 482
ADD,50,3 795 481
XY,54,8 795 480
XY,55,8 795 479
XY,74,11 762 478
ADD,74,4 762 477
XY,75,11 762 476
ADD,75,4 762 475
XY,62,8 764 474
XY,63,8 764 473
XY,52,10 764 472
XY,53,10 764 471
ADD,53,3 774 470
ADD,52,3 774 469
XY,18,11 774 468
XY,19,11 774 467
XY,18,8 797 466
ADD,18,4 797 465
XY,19,8 797 464
ADD,19,4 797 463
XY,62,6 683 462
XY,63,6 683 461
XY,62,10 683 460
ADD,62,3 683 459
XY,63,10 683 458
ADD,63,3 683 457
XY,64,10 667 456
XY,65,10 667 455
XY,72,10 667 454
XY,73,10 667 453
XY,72,6 689 452
ADD,72,3 689 451
XY,73,6 689 450
ADD,73,3 689 449
XY,64,6 674 448
ADD,64,3 674 447
XY,65,6 674 446
ADD,65,3 674 445
XY,68,10 669 444
XY,69,10 669 443
XY,78,10 669 442
XY,79,10 669 441
XY,78,6 681 440
ADD,78,3 681 439
XY,79,6 681 438
ADD,79,3 681 437
XY,68,6 679 436
ADD,68,3 679 435
XY,69,6 679 434
ADD,69,3 679 433
XY,74,10 665 432
XY,75,10 665 431
XY,82,10 665 430
XY,83,10 665 429
XY,82,6 678 428
ADD,82,3 678 427
XY,83,6 678 426
ADD,83,3 678 425
XY,74,6 688 424
ADD,74,3 688 423
XY,75,6 688 422
ADD,75,3 688 421
XY,66,6 675 420
XY,67,6 675 419
XY,88,10 675 418
XY,89,10 675 417
XY,66,10 676 416
ADD,66,3 676 415
XY,67,10 676 414
ADD,67,3 676 413
XY,76,10 663 412
XY,77,10 663 411
XY,90,10 663 410
XY,91,10 663 409
XY,90,6 664 408
ADD,90,3 664 407
XY,91,6 664 406
ADD,91,3 664 405
ADD,77,3 673 404
ADD,76,3 673 403
XY,80,8 673 402
XY,81,8 673 401
XY,80,11 686 400
ADD,80,4 686 399
XY,81,11 686 398
ADD,81,4 686 397
XY,106,6 645 396
XY,107,6 645 395
XY,94,10 645 394
XY,95,10 645 393
XY,106,10 724 392
ADD,106,3 724 391
XY,107,10 724 390
ADD,107,3 724 389
XY,20,6 729 388
XY,21,6 729 387
XY,96,10 729 386
XY,97,10 729 385
ADD,97,3 768 384
ADD,96,3 768 383
XY,68,11 768 382
XY,69,11 768 381
XY,20,10 730 380
ADD,20,3 730 379
XY,21,10 730 378
ADD,21,3 730 377
XY,104,10 747 376
XY,105,10 747 375
ADD,105,3 773 374
ADD,104,3 773 373
XY,48,10 773 372
XY,49,10 773 371
XY,88,6 666 370
XY,89,6 666 369
XY,110,10 666 368
XY,111,10 666 367
XY,110,6 685 366
ADD,110,3 685 365
XY,111,6 685 364
ADD,111,3 685 363
ADD,89,3 684 362
ADD,88,3 684 361
XY,36,8 684 360
XY,37,8 684 359
XY,36,11 687 358
ADD,36,4 687 357
XY,37,11 687 356
ADD,37,4 687 355
XY,32,10 791 354
XY,33,10 791 353
XY,112,10 791 352
XY,113,10 791 351
XY,32,6 815 350
ADD,32,3 815 349
XY,33,6 815 348
ADD,33,3 815 347
XY,32,8 668 346
XY,33,8 668 345
XY,116,10 668 344
XY,117,10 668 343
XY,116,6 670 342
ADD,116,3 670 341
XY,117,6 670 340
ADD,117,3 670 339
XY,32,11 677 338
ADD,32,4 677 337
XY,33,11 677 336
ADD,33,4 677 335
XY,92,8 740 334
XY,93,8 740 333
XY,118,10 740 332
XY,119,10 740 331
XY,92,11 766 330
ADD,92,4 766 329
XY,93,11 766 328
ADD,93,4 766 327
XY,30,10 705 326
XY,31,10 705 325
XY,4,11 705 324
XY,5,11 705 323
XY,4,8 706 322
ADD,4,4 706 321
XY,5,8 706 320
ADD,5,4 706 319
XY,30,6 707 318
ADD,30,3 707 317
XY,31,6 707 316
ADD,31,3 707 315
XY,114,10 731 314
XY,115,10 731 313
XY,6,11 731 312
XY,7,11 731 311
XY,6,8 732 310
ADD,6,4 732 309
XY,7,8 732 308
ADD,7,4 732 307
ADD,115,3 759 306
ADD,114,3 759 305
XY,52,8 759 304
XY,53,8 759 303
XY,52,11 761 302
ADD,52,4 761 301
XY,53,11 761 300
ADD,53,4 761 299
XY,8,8 755 298
XY,9,8 755 297
XY,8,11 755 296
ADD,8,4 755 295
XY,9,11 755 294
ADD,9,4 755 293
XY,44,6 648 292
XY,45,6 648 291
XY,40,11 648 290
XY,41,11 648 289
XY,40,8 752 288
ADD,40,4 752 287
XY,41,8 752 286
ADD,41,4 752 285
XY,44,10 691 284
ADD,44,3 691 283
XY,45,10 691 282
ADD,45,3 691 281
XY,70,6 638 280
XY,71,6 638 279
XY,42,11 638 278
XY,43,11 638 277
XY,42,8 781 276
ADD,42,4 781 275
XY,43,8 781 274
ADD,43,4 781 273
XY,70,10 772 272
ADD,70,3 772 271
XY,71,10 772 270
ADD,71,3 772 269
XY,44,11 659 268
XY,45,11 659 267
XY,44,8 660 266
ADD,44,4 660 265
XY,45,8 660 264
ADD,45,4 660 263
XY,58,6 635 262
XY,59,6 635 261
XY,46,11 635 260
XY,47,11 635 259
XY,46,8 800 258
ADD,46,4 800 257
XY,47,8 800 256
ADD,47,4 800 255
XY,58,10 743 254
ADD,58,3 743 253
XY,59,10 743 252
ADD,59,3 743 251
XY,94,8 767 250
XY,95,8 767 249
XY,48,11 767 248
XY,49,11 767 247
XY,48,8 798 246
ADD,48,4 798 245
XY,49,8 798 244
ADD,49,4 798 243
ADD,95,4 771 242
ADD,94,4 771 241
XY,102,10 771 240
XY,103,10 771 239
ADD,103,3 785 238
ADD,102,3 785 237
ADD,49,3 785 236
ADD,48,3 785 235
XY,90,8 699 234
XY,91,8 699 233
XY,50,11 699 232
XY,51,11 699 231
XY,50,8 722 230
ADD,50,4 722 229
XY,51,8 722 228
ADD,51,4 722 227
XY,122,10 692 226
XY,123,10 692 225
XY,56,11 692 224
XY,57,11 692 223
XY,56,8 788 222
ADD,56,4 788 221
XY,57,8 788 220
ADD,57,4 788 219
XY,54,11 693 218
XY,55,11 693 217
XY,58,11 693 216
XY,59,11 693 215
XY,58,8 734 214
ADD,58,4 734 213
XY,59,8 734 212
ADD,59,4 734 211
ADD,55,4 806 210
ADD,54,4 806 209
ADD,113,3 806 208
ADD,112,3 806 207
XY,28,10 733 206
XY,29,10 733 205
XY,64,11 733 204
XY,65,11 733 203
XY,64,8 757 202
ADD,64,4 757 201
XY,65,8 757 200
ADD,65,4 757 199
XY,28,6 742 198
ADD,28,3 742 197
XY,29,6 742 196
ADD,29,3 742 195
XY,38,8 700 194
XY,39,8 700 193
XY,66,11 700 192
XY,67,11 700 191
XY,66,8 805 190
ADD,66,4 805 189
XY,67,8 805 188
ADD,67,4 805 187
XY,38,11 789 186
ADD,38,4 789 185
XY,39,11 789 184
ADD,39,4 789 183
XY,62,11 719 182
XY,63,11 719 181
XY,70,11 719 180
XY,71,11 719 179
XY,70,8 720 178
ADD,70,4 720 177
XY,71,8 720 176
ADD,71,4 720 175
ADD,63,4 787 174
ADD,62,4 787 173
XY,24,11 787 172
XY,25,11 787 171
ADD,25,4 812 170
ADD,24,4 812 169
XY,16,6 812 168
XY,17,6 812 167
XY,16,10 816 166
ADD,16,3 816 165
XY,17,10 816 164
ADD,17,3 816 163
XY,4,10 735 162
XY,5,10 735 161
XY,72,11 735 160
XY,73,11 735 159
XY,4,6 736 158
ADD,4,3 736 157
XY,5,6 736 156
ADD,5,3 736 155
XY,10,11 777 154
XY,11,11 777 153
XY,78,11 777 152
XY,79,11 777 151
XY,10,8 813 150
ADD,10,4 813 149
XY,11,8 813 148
ADD,11,4 813 147
XY,104,8 652 146
XY,105,8 652 145
XY,82,11 652 144
XY,83,11 652 143
XY,82,8 709 142
ADD,82,4 709 141
XY,83,8 709 140
ADD,83,4 709 139
XY,104,11 754 138
ADD,104,4 754 137
XY,105,11 754 136
ADD,105,4 754 135
XY,94,6 641 134
XY,95,6 641 133
XY,90,11 641 132
XY,91,11 641 131
ADD,91,4 741 130
ADD,90,4 741 129
ADD,35,4 741 128
ADD,34,4 741 127
XY,14,10 695 126
XY,15,10 695 125
XY,96,11 695 124
XY,97,11 695 123
XY,96,8 744 122
ADD,96,4 744 121
XY,97,8 744 120
ADD,97,4 744 119
ADD,15,3 717 118
ADD,14,3 717 117
ADD,95,3 717 116
ADD,94,3 717 115
XY,20,11 702 114
XY,21,11 702 113
XY,98,11 702 112
XY,99,11 702 111
XY,20,8 714 110
ADD,20,4 714 109
XY,21,8 714 108
ADD,21,4 714 107
XY,78,8 698 106
XY,79,8 698 105
XY,100,11 698 104
XY,101,11 698 103
ADD,101,4 763 102
ADD,100,4 763 101
ADD,99,4 763 100
ADD,98,4 763 99
ADD,79,4 803 98
ADD,78,4 803 97
XY,6,10 803 96
XY,7,10 803 95
ADD,7,3 809 94
ADD,6,3 809 93
XY,46,10 809 92
XY,47,10 809 91
ADD,47,3 811 90
ADD,46,3 811 89
XY,68,8 811 88
ADD,68,4 811 87
XY,69,8 811 86
ADD,69,4 811 85
XY,72,8 715 84
XY,73,8 715 83
XY,108,11 715 82
XY,109,11 715 81
ADD,109,4 725 80
ADD,108,4 725 79
XY,30,11 725 78
XY,31,11 725 77
ADD,31,4 728 76
ADD,30,4 728 75
XY,76,11 728 74
XY,77,11 728 73
XY,76,8 796 72
ADD,76,4 796 71
XY,77,8 796 70
ADD,77,4 796 69
ADD,73,4 749 68
ADD,72,4 749 67
ADD,119,3 749 66
ADD,118,3 749 65
XY,92,10 710 64
XY,93,10 710 63
XY,110,11 710 62
XY,111,11 710 61
XY,110,8 804 60
ADD,110,4 804 59
XY,111,8 804 58
ADD,111,4 804 57
ADD,93,3 799 56
ADD,92,3 799 55
ADD,123,3 799 54
ADD,122,3 799 53
XY,24,6 745 52
XY,25,6 745 51
XY,112,11 745 50
XY,113,11 745 49
XY,112,8 758 48
ADD,112,4 758 47
XY,113,8 758 46
ADD,113,4 758 45
XY,24,10 746 44
ADD,24,3 746 43
XY,25,10 746 42
ADD,25,3 746 41
XY,88,11 703 40
XY,89,11 703 39
XY,114,11 703 38
XY,115,11 703 37
XY,114,8 704 36
ADD,114,4 704 35
XY,115,8 704 34
ADD,115,4 704 33
ADD,89,4 737 32
ADD,88,4 737 31
XY,116,8 737 30
XY,117,8 737 29
XY,116,11 748 28
ADD,116,4 748 27
XY,117,11 748 26
ADD,117,4 748 25
XY,42,6 697 24
XY,43,6 697 23
XY,120,11 697 22
XY,121,11 697 21
XY,120,8 786 20
ADD,120,4 786 19
XY,121,8 786 18
ADD,121,4 786 17
XY,42,10 726 16
ADD,42,3 726 15
XY,43,10 726 14
ADD,43,3 726 13
XY,26,8 654 12
XY,27,8 654 11
XY,122,11 654 10
XY,123,11 654 9
XY,122,8 792 8
ADD,122,4 792 7
XY,123,8 792 6
ADD,123,4 792 5
XY,26,11 708 4
ADD,26,4 708 3
XY,27,11 708 2
ADD,27,4 708 1
