SETZERO,79,1 58 2636
SETZERO,78,1 58 2635
SETZERO,77,1 58 2634
SETZERO,76,1 58 2633
_X,91 39 2632
XTY,91,11,20 39 2631
_X,90 39 2630
XTY,90,10,20 39 2629
_X,89 39 2628
XTY,89,9,20 39 2627
_X,88 39 2626
XTY,88,8,20 39 2625
_X,31 39 2624
XTY,31,11,20 39 2623
_X,30 39 2622
XTY,30,10,20 39 2621
_X,29 39 2620
XTY,29,9,20 39 2619
_X,28 39 2618
XTY,28,8,20 39 2617
_X,79 38 2616
XTY,79,19,20 38 2615
_X,78 38 2614
XTY,78,18,20 38 2613
_X,77 38 2612
XTY,77,17,20 38 2611
_X,76 38 2610
XTY,76,16,20 38 2609
SETZERO,95,1 37 2608
SETZERO,94,1 37 2607
SETZERO,93,1 37 2606
SETZERO,92,1 37 2605
SETZERO,67,1 37 2604
SETZERO,66,1 37 2603
SETZERO,65,1 37 2602
SETZERO,64,1 37 2601
_X,43 36 2600
XTY,43,3,20 36 2599
_X,42 36 2598
XTY,42,2,20 36 2597
_X,41 36 2596
XTY,41,1,20 36 2595
_X,40 36 2594
XTY,40,0,20 36 2593
SETZERO,111,1 35 2592
SETZERO,110,1 35 2591
SETZERO,109,1 35 2590
SETZERO,108,1 35 2589
SETZERO,99,1 35 2588
SETZERO,98,1 35 2587
SETZERO,97,1 35 2586
SETZERO,96,1 35 2585
_X,3 34 2584
XTY,3,3,20 34 2583
_X,2 34 2582
XTY,2,2,20 34 2581
_X,1 34 2580
XTY,1,1,20 34 2579
_X,0 34 2578
XTY,0,0,20 34 2577
SETZERO,103,1 33 2576
SETZERO,102,1 33 2575
SETZERO,101,1 33 2574
SETZERO,100,1 33 2573
SETZERO,91,1 32 2572
SETZERO,90,1 32 2571
SETZERO,89,1 32 2570
SETZERO,88,1 32 2569
SETZERO,123,1 31 2568
SETZERO,122,1 31 2567
SETZERO,121,1 31 2566
SETZERO,120,1 31 2565
SETZERO,87,1 31 2564
SETZERO,86,1 31 2563
SETZERO,85,1 31 2562
SETZERO,84,1 31 2561
_X,75 30 2560
XTY,75,15,20 30 2559
_X,74 30 2558
XTY,74,14,20 30 2557
_X,73 30 2556
XTY,73,13,20 30 2555
_X,72 30 2554
XTY,72,12,20 30 2553
_X,39 30 2552
XTY,39,19,20 30 2551
_X,38 30 2550
XTY,38,18,20 30 2549
_X,37 30 2548
XTY,37,17,20 30 2547
_X,36 30 2546
XTY,36,16,20 30 2545
_X,67 29 2544
XTY,67,7,20 29 2543
_X,66 29 2542
XTY,66,6,20 29 2541
_X,65 29 2540
XTY,65,5,20 29 2539
_X,64 29 2538
XTY,64,4,20 29 2537
_X,55 29 2536
XTY,55,15,20 29 2535
_X,54 29 2534
XTY,54,14,20 29 2533
_X,53 29 2532
XTY,53,13,20 29 2531
_X,52 29 2530
XTY,52,12,20 29 2529
_X,111 28 2528
XTY,111,11,20 28 2527
_X,110 28 2526
XTY,110,10,20 28 2525
_X,109 28 2524
XTY,109,9,20 28 2523
_X,108 28 2522
XTY,108,8,20 28 2521
_X,63 26 2520
XTY,63,3,20 26 2519
_X,62 26 2518
XTY,62,2,20 26 2517
_X,61 26 2516
XTY,61,1,20 26 2515
_X,60 26 2514
XTY,60,0,20 26 2513
SETZERO,39,1 25 2512
SETZERO,38,1 25 2511
SETZERO,37,1 25 2510
SETZERO,36,1 25 2509
_X,51 25 2508
_X,50 25 2507
_X,49 25 2506
_X,48 25 2505
XTY,48,8,20 27 2504
XTY,49,9,20 27 2503
XTY,50,10,20 27 2502
XTY,51,11,20 27 2501
_X,107 27 2500
XTY,107,7,20 27 2499
_X,106 27 2498
XTY,106,6,20 27 2497
_X,105 27 2496
XTY,105,5,20 27 2495
_X,104 27 2494
XTY,104,4,20 27 2493
SETZERO,83,1 24 2492
SETZERO,82,1 24 2491
SETZERO,81,1 24 2490
SETZERO,80,1 24 2489
SETZERO,51,1 24 2488
SETZERO,50,1 24 2487
SETZERO,49,1 24 2486
SETZERO,48,1 24 2485
_X,47 23 2484
XTY,47,7,20 23 2483
_X,46 23 2482
XTY,46,6,20 23 2481
_X,45 23 2480
XTY,45,5,20 23 2479
_X,44 23 2478
XTY,44,4,20 23 2477
_X,15 22 2476
XTY,15,15,20 22 2475
_X,14 22 2474
XTY,14,14,20 22 2473
_X,13 22 2472
XTY,13,13,20 22 2471
_X,12 22 2470
XTY,12,12,20 22 2469
SETZERO,119,1 21 2468
SETZERO,118,1 21 2467
SETZERO,117,1 21 2466
SETZERO,116,1 21 2465
SETZERO,47,1 21 2464
SETZERO,46,1 21 2463
SETZERO,45,1 21 2462
SETZERO,44,1 21 2461
_X,59 20 2460
XTY,59,19,20 20 2459
_X,58 20 2458
XTY,58,18,20 20 2457
_X,57 20 2456
XTY,57,17,20 20 2455
_X,56 20 2454
XTY,56,16,20 20 2453
_X,27 20 2452
XTY,27,7,20 20 2451
_X,26 20 2450
XTY,26,6,20 20 2449
_X,25 20 2448
XTY,25,5,20 20 2447
_X,24 20 2446
XTY,24,4,20 20 2445
_X,19 19 2444
XTY,19,19,20 19 2443
_X,18 19 2442
XTY,18,18,20 19 2441
_X,17 19 2440
XTY,17,17,20 19 2439
_X,16 19 2438
XTY,16,16,20 19 2437
SETZERO,63,1 18 2436
SETZERO,62,1 18 2435
SETZERO,61,1 18 2434
SETZERO,60,1 18 2433
SETZERO,35,1 17 2432
SETZERO,34,1 17 2431
SETZERO,33,1 17 2430
SETZERO,32,1 17 2429
_X,115 17 2428
XTY,115,15,20 17 2427
_X,114 17 2426
XTY,114,14,20 17 2425
_X,113 17 2424
XTY,113,13,20 17 2423
_X,112 17 2422
XTY,112,12,20 17 2421
SETZERO,71,1 16 2420
SETZERO,70,1 16 2419
SETZERO,69,1 16 2418
SETZERO,68,1 16 2417
SETZERO,19,1 16 2416
SETZERO,18,1 16 2415
SETZERO,17,1 16 2414
SETZERO,16,1 16 2413
_X,11 15 2412
XTY,11,11,20 15 2411
_X,10 15 2410
XTY,10,10,20 15 2409
_X,9 15 2408
XTY,9,9,20 15 2407
_X,8 15 2406
XTY,8,8,20 15 2405
_X,87 14 2404
XTY,87,7,20 14 2403
_X,86 14 2402
XTY,86,6,20 14 2401
_X,85 14 2400
XTY,85,5,20 14 2399
_X,84 14 2398
XTY,84,4,20 14 2397
_X,83 14 2396
XTY,83,3,20 14 2395
_X,82 14 2394
XTY,82,2,20 14 2393
_X,81 14 2392
XTY,81,1,20 14 2391
_X,80 14 2390
XTY,80,0,20 14 2389
_X,103 13 2388
XTY,103,3,20 13 2387
_X,102 13 2386
XTY,102,2,20 13 2385
_X,101 13 2384
XTY,101,1,20 13 2383
_X,100 13 2382
XTY,100,0,20 13 2381
SETZERO,55,1 12 2380
SETZERO,54,1 12 2379
SETZERO,53,1 12 2378
SETZERO,52,1 12 2377
_X,71 12 2376
XTY,71,11,20 12 2375
_X,70 12 2374
XTY,70,10,20 12 2373
_X,69 12 2372
XTY,69,9,20 12 2371
_X,68 12 2370
XTY,68,8,20 12 2369
SETZERO,15,1 11 2368
SETZERO,14,1 11 2367
SETZERO,13,1 11 2366
SETZERO,12,1 11 2365
_X,35 11 2364
XTY,35,15,20 11 2363
_X,34 11 2362
XTY,34,14,20 11 2361
_X,33 11 2360
XTY,33,13,20 11 2359
_X,32 11 2358
XTY,32,12,20 11 2357
SETZERO,115,1 10 2356
SETZERO,114,1 10 2355
SETZERO,113,1 10 2354
SETZERO,112,1 10 2353
SETZERO,107,1 10 2352
SETZERO,106,1 10 2351
SETZERO,105,1 10 2350
SETZERO,104,1 10 2349
_X,7 9 2348
XTY,7,7,20 9 2347
_X,6 9 2346
XTY,6,6,20 9 2345
_X,5 9 2344
XTY,5,5,20 9 2343
_X,4 9 2342
XTY,4,4,20 9 2341
SETZERO,11,1 8 2340
SETZERO,10,1 8 2339
SETZERO,9,1 8 2338
SETZERO,8,1 8 2337
SETZERO,3,1 8 2336
SETZERO,2,1 8 2335
SETZERO,1,1 8 2334
SETZERO,0,1 8 2333
_X,95 7 2332
XTY,95,15,20 7 2331
_X,94 7 2330
XTY,94,14,20 7 2329
_X,93 7 2328
XTY,93,13,20 7 2327
_X,92 7 2326
XTY,92,12,20 7 2325
SETZERO,23,1 6 2324
SETZERO,22,1 6 2323
SETZERO,21,1 6 2322
SETZERO,20,1 6 2321
SETZERO,59,1 5 2320
SETZERO,58,1 5 2319
SETZERO,57,1 5 2318
SETZERO,56,1 5 2317
SETZERO,31,1 5 2316
SETZERO,30,1 5 2315
SETZERO,29,1 5 2314
SETZERO,28,1 5 2313
_X,119 4 2312
XTY,119,19,20 4 2311
_X,118 4 2310
XTY,118,18,20 4 2309
_X,117 4 2308
XTY,117,17,20 4 2307
_X,116 4 2306
XTY,116,16,20 4 2305
_X,99 4 2304
XTY,99,19,20 4 2303
_X,98 4 2302
XTY,98,18,20 4 2301
_X,97 4 2300
XTY,97,17,20 4 2299
_X,96 4 2298
XTY,96,16,20 4 2297
_X,123 3 2296
XTY,123,3,20 3 2295
_X,122 3 2294
XTY,122,2,20 3 2293
_X,121 3 2292
XTY,121,1,20 3 2291
_X,120 3 2290
XTY,120,0,20 3 2289
_X,23 40 2288
XTY,23,3,20 40 2287
_X,22 40 2286
XTY,22,2,20 40 2285
_X,21 40 2284
XTY,21,1,20 40 2283
_X,20 40 2282
XTY,20,0,20 40 2281
RED,XBXBUF,0 40 2280
CHOL,XBX 40 2279
DLACPY,0,20 41 2278
INV,XBX 45 2277
XY,40,20 45 2276
XY,41,20 45 2275
XY,42,20 45 2274
XY,43,20 45 2273
XY,0,20 74 2272
XY,1,20 74 2271
XY,2,20 74 2270
XY,3,20 74 2269
DLACPY,3,21 444 2268
SPMM,0,3,0 444 2267
SPMM,1,3,0 444 2266
SPMM,2,3,0 444 2265
SPMM,3,3,0 444 2264
DLACPY,2,21 444 2263
SPMM,0,2,0 444 2262
SPMM,1,2,0 444 2261
SPMM,2,2,0 444 2260
SPMM,3,2,0 444 2259
DLACPY,1,21 444 2258
SPMM,0,1,0 444 2257
SPMM,1,1,0 444 2256
SPMM,2,1,0 444 2255
SPMM,3,1,0 444 2254
DLACPY,0,21 444 2253
SPMM,0,0,0 444 2252
SPMM,1,0,0 444 2251
SPMM,2,0,0 444 2250
SPMM,3,0,0 444 2249
SPMM,20,1,0 472 2248
SPMM,21,1,0 472 2247
SPMM,22,1,0 472 2246
SPMM,23,1,0 472 2245
SPMM,8,0,0 456 2244
SPMM,8,1,0 456 2243
SPMM,9,1,0 456 2242
SPMM,10,1,0 456 2241
SPMM,9,2,0 456 2240
SPMM,10,2,0 456 2239
SPMM,10,3,0 456 2238
SPMM,11,3,0 456 2237
SPMM,12,0,0 468 2236
SPMM,13,0,0 468 2235
SPMM,14,0,0 468 2234
SPMM,15,0,0 468 2233
SPMM,12,2,0 468 2232
SPMM,13,2,0 468 2231
SPMM,14,2,0 468 2230
SPMM,15,2,0 468 2229
SPMM,14,3,0 468 2228
SPMM,15,3,0 468 2227
SPMM,16,0,0 460 2226
SPMM,17,0,0 460 2225
SPMM,18,0,0 460 2224
SPMM,19,0,0 460 2223
SPMM,18,1,0 460 2222
SPMM,19,1,0 460 2221
SPMM,16,3,0 460 2220
SPMM,17,3,0 460 2219
SPMM,18,3,0 460 2218
SPMM,19,3,0 460 2217
SPMM,28,0,0 452 2216
SPMM,28,1,0 452 2215
SPMM,29,1,0 452 2214
SPMM,28,2,0 452 2213
SPMM,29,2,0 452 2212
SPMM,30,2,0 452 2211
SPMM,28,3,0 452 2210
XY,4,20 108 2209
XY,5,20 108 2208
XY,6,20 108 2207
XY,7,20 108 2206
XY,8,20 96 2205
XY,9,20 96 2204
XY,10,20 96 2203
XY,11,20 96 2202
DLACPY,11,21 412 2201
SPMM,8,11,0 412 2200
SPMM,9,11,0 412 2199
SPMM,10,11,0 412 2198
SPMM,11,11,0 412 2197
SPMM,30,11,0 412 2196
SPMM,31,11,0 412 2195
DLACPY,10,21 412 2194
SPMM,9,10,0 412 2193
SPMM,10,10,0 412 2192
SPMM,11,10,0 412 2191
SPMM,30,10,0 412 2190
SPMM,31,10,0 412 2189
DLACPY,9,21 412 2188
SPMM,8,9,0 412 2187
SPMM,9,9,0 412 2186
SPMM,10,9,0 412 2185
SPMM,11,9,0 412 2184
SPMM,31,9,0 412 2183
DLACPY,8,21 412 2182
SPMM,8,8,0 412 2181
SPMM,9,8,0 412 2180
SPMM,11,8,0 412 2179
SPMM,30,8,0 412 2178
SPMM,31,8,0 412 2177
SPMM,12,9,0 424 2176
SPMM,12,10,0 424 2175
SPMM,13,10,0 424 2174
SPMM,14,10,0 424 2173
SPMM,15,10,0 424 2172
SPMM,12,11,0 424 2171
SPMM,0,8,0 420 2170
SPMM,1,8,0 420 2169
SPMM,1,9,0 420 2168
SPMM,2,9,0 420 2167
SPMM,1,10,0 420 2166
SPMM,2,10,0 420 2165
SPMM,3,10,0 420 2164
SPMM,3,11,0 420 2163
SPMM,19,8,0 440 2162
SPMM,16,10,0 440 2161
SPMM,17,10,0 440 2160
SPMM,16,11,0 440 2159
SPMM,17,11,0 440 2158
SPMM,18,11,0 440 2157
SPMM,19,11,0 440 2156
SPMM,20,8,0 428 2155
SPMM,21,8,0 428 2154
SPMM,22,8,0 428 2153
SPMM,23,8,0 428 2152
SPMM,22,9,0 428 2151
SPMM,23,9,0 428 2150
SPMM,20,11,0 428 2149
SPMM,21,11,0 428 2148
SPMM,22,11,0 428 2147
SPMM,23,11,0 428 2146
XY,12,20 100 2145
XY,13,20 100 2144
XY,14,20 100 2143
XY,15,20 100 2142
XY,16,20 206 2141
XY,17,20 206 2140
XY,18,20 206 2139
XY,19,20 206 2138
DLACPY,19,21 888 2137
DLACPY,18,21 888 2136
DLACPY,17,21 888 2135
DLACPY,16,21 888 2134
SPMM,20,19,0 915 2133
SPMM,84,19,0 911 2132
SPMM,0,16,0 1196 2131
SPMM,3,16,0 1196 2130
SPMM,0,17,0 1196 2129
SPMM,3,17,0 1196 2128
SPMM,0,18,0 1196 2127
SPMM,1,18,0 1196 2126
SPMM,3,18,0 1196 2125
SPMM,0,19,0 1196 2124
SPMM,1,19,0 1196 2123
SPMM,3,19,0 1196 2122
SPMM,10,16,0 923 2121
SPMM,11,16,0 923 2120
SPMM,10,17,0 923 2119
SPMM,11,17,0 923 2118
SPMM,11,18,0 923 2117
SPMM,8,19,0 923 2116
SPMM,11,19,0 923 2115
SPMM,15,16,0 919 2114
SPMM,16,16,0 890 2113
SPMM,17,16,0 890 2112
SPMM,16,17,0 890 2111
SPMM,17,17,0 890 2110
SPMM,18,17,0 890 2109
SPMM,17,18,0 890 2108
SPMM,18,18,0 890 2107
SPMM,19,18,0 890 2106
SPMM,18,19,0 890 2105
SPMM,19,19,0 890 2104
SPMM,28,16,0 899 2103
SPMM,30,16,0 899 2102
SPMM,28,17,0 899 2101
SPMM,30,17,0 899 2100
SPMM,28,18,0 899 2099
SPMM,30,18,0 899 2098
SPMM,28,19,0 899 2097
SPMM,29,19,0 899 2096
SPMM,30,19,0 899 2095
SPMM,31,19,0 899 2094
SPMM,44,16,0 892 2093
SPMM,44,17,0 892 2092
SPMM,45,17,0 892 2091
SPMM,44,18,0 892 2090
SPMM,45,18,0 892 2089
SPMM,46,18,0 892 2088
SPMM,44,19,0 892 2087
SPMM,45,19,0 892 2086
SPMM,46,19,0 892 2085
SPMM,47,19,0 892 2084
SPMM,80,16,0 903 2083
SPMM,82,16,0 903 2082
SPMM,83,16,0 903 2081
SPMM,80,17,0 903 2080
SPMM,82,17,0 903 2079
SPMM,83,17,0 903 2078
SPMM,82,18,0 903 2077
SPMM,83,18,0 903 2076
SPMM,83,19,0 903 2075
XY,20,20 62 2074
XY,21,20 62 2073
XY,22,20 62 2072
XY,23,20 62 2071
DLACPY,23,21 860 2070
SPMM,22,23,0 860 2069
SPMM,23,23,0 860 2068
DLACPY,22,21 860 2067
SPMM,21,22,0 860 2066
SPMM,22,22,0 860 2065
SPMM,23,22,0 860 2064
DLACPY,21,21 860 2063
SPMM,20,21,0 860 2062
SPMM,21,21,0 860 2061
SPMM,22,21,0 860 2060
DLACPY,20,21 860 2059
SPMM,20,20,0 860 2058
SPMM,21,20,0 860 2057
SPMM,12,23,0 1171 2056
SPMM,32,23,0 927 2055
SPMM,48,21,0 880 2054
SPMM,48,22,0 880 2053
SPMM,49,22,0 880 2052
SPMM,48,23,0 880 2051
SPMM,49,23,0 880 2050
SPMM,1,20,0 1200 2049
SPMM,1,21,0 1200 2048
SPMM,1,22,0 1200 2047
SPMM,1,23,0 1200 2046
SPMM,8,20,0 1011 2045
SPMM,11,20,0 1011 2044
SPMM,8,21,0 1011 2043
SPMM,11,21,0 1011 2042
SPMM,8,22,0 1011 2041
SPMM,9,22,0 1011 2040
SPMM,11,22,0 1011 2039
SPMM,8,23,0 1011 2038
SPMM,9,23,0 1011 2037
SPMM,11,23,0 1011 2036
SPMM,19,20,0 1065 2035
SPMM,28,20,0 868 2034
SPMM,29,20,0 868 2033
SPMM,30,20,0 868 2032
SPMM,31,20,0 868 2031
SPMM,28,21,0 868 2030
SPMM,29,21,0 868 2029
SPMM,30,21,0 868 2028
SPMM,31,21,0 868 2027
SPMM,29,22,0 868 2026
SPMM,31,22,0 868 2025
SPMM,29,23,0 868 2024
SPMM,31,23,0 868 2023
SPMM,45,20,0 884 2022
SPMM,46,20,0 884 2021
SPMM,47,20,0 884 2020
SPMM,46,21,0 884 2019
SPMM,47,21,0 884 2018
SPMM,47,22,0 884 2017
SPMM,47,23,0 884 2016
SPMM,83,20,0 1003 2015
SPMM,83,21,0 1003 2014
SPMM,84,20,0 872 2013
SPMM,84,21,0 872 2012
SPMM,84,22,0 872 2011
SPMM,85,22,0 872 2010
SPMM,84,23,0 872 2009
SPMM,85,23,0 872 2008
XY,24,20 78 2007
XY,25,20 78 2006
XY,26,20 78 2005
XY,27,20 78 2004
XY,28,20 82 2003
XY,29,20 82 2002
XY,30,20 82 2001
XY,31,20 82 2000
DLACPY,31,21 796 1999
DLACPY,30,21 796 1998
DLACPY,29,21 796 1997
DLACPY,28,21 796 1996
SPMM,48,31,0 816 1995
SPMM,49,31,0 816 1994
SPMM,50,31,0 816 1993
SPMM,51,31,0 816 1992
SPMM,8,30,0 808 1991
SPMM,10,30,0 808 1990
SPMM,11,30,0 808 1989
SPMM,8,31,0 808 1988
SPMM,9,31,0 808 1987
SPMM,10,31,0 808 1986
SPMM,11,31,0 808 1985
SPMM,44,30,0 998 1984
SPMM,45,30,0 998 1983
SPMM,46,30,0 998 1982
SPMM,47,30,0 998 1981
SPMM,45,31,0 998 1980
SPMM,46,31,0 998 1979
SPMM,47,31,0 998 1978
SPMM,32,29,0 1166 1977
SPMM,32,30,0 1166 1976
SPMM,32,31,0 1166 1975
SPMM,0,28,0 1219 1974
SPMM,1,28,0 1219 1973
SPMM,2,28,0 1219 1972
SPMM,3,28,0 1219 1971
SPMM,1,29,0 1219 1970
SPMM,2,29,0 1219 1969
SPMM,2,30,0 1219 1968
SPMM,13,28,0 824 1967
SPMM,14,28,0 824 1966
SPMM,15,28,0 824 1965
SPMM,12,30,0 824 1964
SPMM,13,30,0 824 1963
SPMM,14,30,0 824 1962
SPMM,15,30,0 824 1961
SPMM,12,31,0 824 1960
SPMM,16,28,0 828 1959
SPMM,17,28,0 828 1958
SPMM,18,28,0 828 1957
SPMM,19,28,0 828 1956
SPMM,19,29,0 828 1955
SPMM,16,30,0 828 1954
SPMM,17,30,0 828 1953
SPMM,18,30,0 828 1952
SPMM,19,30,0 828 1951
SPMM,19,31,0 828 1950
SPMM,20,28,0 836 1949
SPMM,21,28,0 836 1948
SPMM,20,29,0 836 1947
SPMM,21,29,0 836 1946
SPMM,22,29,0 836 1945
SPMM,23,29,0 836 1944
SPMM,20,30,0 836 1943
SPMM,21,30,0 836 1942
SPMM,20,31,0 836 1941
SPMM,21,31,0 836 1940
SPMM,22,31,0 836 1939
SPMM,23,31,0 836 1938
SPMM,28,28,0 800 1937
SPMM,29,28,0 800 1936
SPMM,28,29,0 800 1935
SPMM,29,29,0 800 1934
SPMM,30,29,0 800 1933
SPMM,31,29,0 800 1932
SPMM,29,30,0 800 1931
SPMM,30,30,0 800 1930
SPMM,31,30,0 800 1929
SPMM,29,31,0 800 1928
SPMM,30,31,0 800 1927
SPMM,31,31,0 800 1926
SPMM,80,28,0 840 1925
SPMM,82,28,0 840 1924
SPMM,83,28,0 840 1923
SPMM,83,29,0 840 1922
SPMM,84,28,0 1007 1921
SPMM,84,29,0 1007 1920
SPMM,85,29,0 1007 1919
SPMM,85,31,0 1007 1918
XY,32,20 70 1917
XY,33,20 70 1916
XY,34,20 70 1915
XY,35,20 70 1914
DLACPY,35,21 1045 1913
SPMM,34,35,0 1045 1912
SPMM,35,35,0 1045 1911
SPMM,87,35,0 1045 1910
DLACPY,34,21 1045 1909
SPMM,33,34,0 1045 1908
SPMM,34,34,0 1045 1907
SPMM,35,34,0 1045 1906
SPMM,86,34,0 1045 1905
SPMM,87,34,0 1045 1904
DLACPY,33,21 1045 1903
SPMM,32,33,0 1045 1902
SPMM,33,33,0 1045 1901
SPMM,34,33,0 1045 1900
SPMM,85,33,0 1045 1899
SPMM,86,33,0 1045 1898
SPMM,87,33,0 1045 1897
DLACPY,32,21 1045 1896
SPMM,32,32,0 1045 1895
SPMM,33,32,0 1045 1894
SPMM,85,32,0 1045 1893
SPMM,86,32,0 1045 1892
SPMM,36,35,0 1057 1891
SPMM,88,35,0 1049 1890
SPMM,108,35,0 1133 1889
SPMM,109,35,0 1133 1888
SPMM,101,34,0 1053 1887
SPMM,102,34,0 1053 1886
SPMM,103,34,0 1053 1885
SPMM,101,35,0 1053 1884
SPMM,102,35,0 1053 1883
SPMM,103,35,0 1053 1882
SPMM,104,34,0 1082 1881
SPMM,104,35,0 1082 1880
SPMM,105,35,0 1082 1879
SPMM,106,35,0 1082 1878
SPMM,107,35,0 1082 1877
SPMM,23,32,0 1077 1876
SPMM,29,32,0 1061 1875
SPMM,30,32,0 1061 1874
SPMM,31,32,0 1061 1873
XY,36,20 112 1872
XY,37,20 112 1871
XY,38,20 112 1870
XY,39,20 112 1869
DLACPY,39,21 511 1868
SPMM,38,39,0 511 1867
SPMM,39,39,0 511 1866
DLACPY,38,21 511 1865
SPMM,37,38,0 511 1864
SPMM,38,38,0 511 1863
SPMM,39,38,0 511 1862
DLACPY,37,21 511 1861
SPMM,36,37,0 511 1860
SPMM,37,37,0 511 1859
SPMM,38,37,0 511 1858
DLACPY,36,21 511 1857
SPMM,36,36,0 511 1856
SPMM,37,36,0 511 1855
SPMM,60,38,0 622 1854
SPMM,60,39,0 622 1853
SPMM,61,39,0 622 1852
SPMM,35,36,0 539 1851
SPMM,57,36,0 515 1850
SPMM,58,36,0 515 1849
SPMM,57,37,0 515 1848
SPMM,58,37,0 515 1847
SPMM,59,37,0 515 1846
SPMM,58,38,0 515 1845
SPMM,59,38,0 515 1844
SPMM,59,39,0 515 1843
SPMM,88,36,0 519 1842
SPMM,105,36,0 527 1841
SPMM,106,36,0 527 1840
SPMM,107,36,0 527 1839
SPMM,108,36,0 618 1838
SPMM,109,36,0 618 1837
SPMM,110,36,0 618 1836
XY,44,20 202 1835
XY,45,20 202 1834
XY,46,20 202 1833
XY,47,20 202 1832
DLACPY,47,21 1016 1831
SPMM,46,47,0 1016 1830
SPMM,47,47,0 1016 1829
DLACPY,46,21 1016 1828
SPMM,45,46,0 1016 1827
SPMM,46,46,0 1016 1826
SPMM,47,46,0 1016 1825
DLACPY,45,21 1016 1824
SPMM,44,45,0 1016 1823
SPMM,45,45,0 1016 1822
SPMM,46,45,0 1016 1821
DLACPY,44,21 1016 1820
SPMM,44,44,0 1016 1819
SPMM,45,44,0 1016 1818
SPMM,48,47,0 1151 1817
SPMM,68,46,0 1186 1816
SPMM,68,47,0 1186 1815
SPMM,69,47,0 1186 1814
SPMM,20,45,0 1028 1813
SPMM,20,46,0 1028 1812
SPMM,21,46,0 1028 1811
SPMM,20,47,0 1028 1810
SPMM,21,47,0 1028 1809
SPMM,22,47,0 1028 1808
SPMM,23,47,0 1028 1807
SPMM,15,44,0 1036 1806
SPMM,16,44,0 1020 1805
SPMM,17,44,0 1020 1804
SPMM,18,44,0 1020 1803
SPMM,19,44,0 1020 1802
SPMM,17,45,0 1020 1801
SPMM,18,45,0 1020 1800
SPMM,19,45,0 1020 1799
SPMM,18,46,0 1020 1798
SPMM,19,46,0 1020 1797
SPMM,19,47,0 1020 1796
SPMM,30,44,0 1032 1795
SPMM,30,45,0 1032 1794
SPMM,31,45,0 1032 1793
SPMM,30,46,0 1032 1792
SPMM,31,46,0 1032 1791
SPMM,30,47,0 1032 1790
SPMM,31,47,0 1032 1789
SPMM,64,44,0 1204 1788
SPMM,65,44,0 1204 1787
SPMM,66,44,0 1204 1786
SPMM,65,45,0 1204 1785
SPMM,66,45,0 1204 1784
SPMM,67,45,0 1204 1783
SPMM,66,46,0 1204 1782
SPMM,67,46,0 1204 1781
SPMM,67,47,0 1204 1780
XY,48,20 116 1779
XY,49,20 116 1778
XY,50,20 116 1777
XY,51,20 116 1776
DLACPY,51,21 380 1775
DLACPY,50,21 380 1774
DLACPY,49,21 380 1773
DLACPY,48,21 380 1772
SPMM,52,51,0 408 1771
SPMM,21,48,0 1041 1770
SPMM,22,48,0 1041 1769
SPMM,23,48,0 1041 1768
SPMM,22,49,0 1041 1767
SPMM,23,49,0 1041 1766
SPMM,31,48,0 404 1765
SPMM,31,49,0 404 1764
SPMM,31,50,0 404 1763
SPMM,31,51,0 404 1762
SPMM,47,48,0 531 1761
SPMM,48,48,0 384 1760
SPMM,49,48,0 384 1759
SPMM,48,49,0 384 1758
SPMM,49,49,0 384 1757
SPMM,50,49,0 384 1756
SPMM,49,50,0 384 1755
SPMM,50,50,0 384 1754
SPMM,51,50,0 384 1753
SPMM,50,51,0 384 1752
SPMM,51,51,0 384 1751
SPMM,68,48,0 392 1750
SPMM,69,48,0 392 1749
SPMM,70,48,0 392 1748
SPMM,69,49,0 392 1747
SPMM,70,49,0 392 1746
SPMM,71,49,0 392 1745
SPMM,70,50,0 392 1744
SPMM,71,50,0 392 1743
SPMM,71,51,0 392 1742
XY,52,20 92 1741
XY,53,20 92 1740
XY,54,20 92 1739
XY,55,20 92 1738
DLACPY,55,21 844 1737
SPMM,54,55,0 844 1736
SPMM,55,55,0 844 1735
DLACPY,54,21 844 1734
SPMM,53,54,0 844 1733
SPMM,54,54,0 844 1732
SPMM,55,54,0 844 1731
DLACPY,53,21 844 1730
SPMM,52,53,0 844 1729
SPMM,53,53,0 844 1728
SPMM,54,53,0 844 1727
DLACPY,52,21 844 1726
SPMM,51,52,0 844 1725
SPMM,52,52,0 844 1724
SPMM,53,52,0 844 1723
SPMM,56,55,0 951 1722
SPMM,108,55,0 1069 1721
SPMM,76,54,0 848 1720
SPMM,76,55,0 848 1719
SPMM,77,55,0 848 1718
SPMM,104,54,0 852 1717
SPMM,104,55,0 852 1716
SPMM,105,55,0 852 1715
SPMM,106,55,0 852 1714
SPMM,107,55,0 852 1713
SPMM,101,53,0 856 1712
SPMM,102,53,0 856 1711
SPMM,101,54,0 856 1710
SPMM,102,54,0 856 1709
SPMM,103,54,0 856 1708
SPMM,101,55,0 856 1707
SPMM,102,55,0 856 1706
SPMM,103,55,0 856 1705
SPMM,31,52,0 1124 1704
XY,56,20 119 1703
XY,57,20 119 1702
XY,58,20 119 1701
XY,59,20 119 1700
DLACPY,59,21 748 1699
DLACPY,58,21 748 1698
DLACPY,57,21 748 1697
DLACPY,56,21 748 1696
SPMM,60,59,0 1224 1695
SPMM,112,59,0 1208 1694
SPMM,36,57,0 1161 1693
SPMM,37,57,0 1161 1692
SPMM,36,58,0 1161 1691
SPMM,37,58,0 1161 1690
SPMM,38,58,0 1161 1689
SPMM,37,59,0 1161 1688
SPMM,38,59,0 1161 1687
SPMM,39,59,0 1161 1686
SPMM,55,56,0 780 1685
SPMM,56,56,0 943 1684
SPMM,57,56,0 943 1683
SPMM,56,57,0 943 1682
SPMM,57,57,0 943 1681
SPMM,58,57,0 943 1680
SPMM,57,58,0 943 1679
SPMM,58,58,0 943 1678
SPMM,59,58,0 943 1677
SPMM,58,59,0 943 1676
SPMM,59,59,0 943 1675
SPMM,76,56,0 756 1674
SPMM,77,56,0 756 1673
SPMM,78,56,0 756 1672
SPMM,77,57,0 756 1671
SPMM,78,57,0 756 1670
SPMM,103,56,0 987 1669
SPMM,104,56,0 788 1668
SPMM,105,56,0 788 1667
SPMM,106,56,0 788 1666
SPMM,107,56,0 788 1665
SPMM,106,57,0 788 1664
SPMM,107,57,0 788 1663
SPMM,108,56,0 752 1662
SPMM,109,56,0 752 1661
SPMM,110,56,0 752 1660
SPMM,108,57,0 752 1659
SPMM,109,57,0 752 1658
SPMM,110,57,0 752 1657
SPMM,111,57,0 752 1656
SPMM,110,58,0 752 1655
SPMM,111,58,0 752 1654
SPMM,110,59,0 752 1653
SPMM,111,59,0 752 1652
XY,60,20 162 1651
XY,61,20 162 1650
XY,62,20 162 1649
XY,63,20 162 1648
DLACPY,63,21 282 1647
SPMM,62,63,0 282 1646
SPMM,63,63,0 282 1645
DLACPY,62,21 282 1644
SPMM,61,62,0 282 1643
SPMM,62,62,0 282 1642
SPMM,63,62,0 282 1641
DLACPY,61,21 282 1640
SPMM,60,61,0 282 1639
SPMM,61,61,0 282 1638
SPMM,62,61,0 282 1637
DLACPY,60,21 282 1636
SPMM,60,60,0 282 1635
SPMM,61,60,0 282 1634
SPMM,64,63,0 290 1633
SPMM,38,60,0 334 1632
SPMM,39,60,0 334 1631
SPMM,39,61,0 334 1630
SPMM,59,60,0 330 1629
SPMM,111,60,0 626 1628
SPMM,112,60,0 286 1627
SPMM,112,61,0 286 1626
SPMM,113,61,0 286 1625
SPMM,112,62,0 286 1624
SPMM,113,62,0 286 1623
SPMM,114,62,0 286 1622
SPMM,113,63,0 286 1621
SPMM,114,63,0 286 1620
XY,64,20 104 1619
XY,65,20 104 1618
XY,66,20 104 1617
XY,67,20 104 1616
DLACPY,67,21 218 1615
DLACPY,66,21 218 1614
DLACPY,65,21 218 1613
DLACPY,64,21 218 1612
SPMM,68,67,0 230 1611
SPMM,116,66,0 630 1610
SPMM,116,67,0 630 1609
SPMM,117,67,0 630 1608
SPMM,44,64,0 507 1607
SPMM,44,65,0 507 1606
SPMM,45,65,0 507 1605
SPMM,44,66,0 507 1604
SPMM,45,66,0 507 1603
SPMM,46,66,0 507 1602
SPMM,45,67,0 507 1601
SPMM,46,67,0 507 1600
SPMM,47,67,0 507 1599
SPMM,63,64,0 226 1598
SPMM,64,64,0 222 1597
SPMM,65,64,0 222 1596
SPMM,64,65,0 222 1595
SPMM,65,65,0 222 1594
SPMM,66,65,0 222 1593
SPMM,65,66,0 222 1592
SPMM,66,66,0 222 1591
SPMM,67,66,0 222 1590
SPMM,66,67,0 222 1589
SPMM,67,67,0 222 1588
SPMM,113,64,0 535 1587
SPMM,114,64,0 535 1586
SPMM,115,64,0 535 1585
SPMM,114,65,0 535 1584
SPMM,115,65,0 535 1583
SPMM,114,66,0 535 1582
SPMM,115,66,0 535 1581
SPMM,115,67,0 535 1580
XY,68,20 122 1579
XY,69,20 122 1578
XY,70,20 122 1577
XY,71,20 122 1576
DLACPY,71,21 543 1575
DLACPY,70,21 543 1574
DLACPY,69,21 543 1573
DLACPY,68,21 543 1572
SPMM,46,68,0 571 1571
SPMM,47,68,0 571 1570
SPMM,47,69,0 571 1569
SPMM,48,68,0 551 1568
SPMM,48,69,0 551 1567
SPMM,49,69,0 551 1566
SPMM,48,70,0 551 1565
SPMM,49,70,0 551 1564
SPMM,50,70,0 551 1563
SPMM,49,71,0 551 1562
SPMM,50,71,0 551 1561
SPMM,51,71,0 551 1560
SPMM,67,68,0 567 1559
SPMM,68,68,0 547 1558
SPMM,69,68,0 547 1557
SPMM,68,69,0 547 1556
SPMM,69,69,0 547 1555
SPMM,70,69,0 547 1554
SPMM,69,70,0 547 1553
SPMM,70,70,0 547 1552
SPMM,71,70,0 547 1551
SPMM,70,71,0 547 1550
SPMM,71,71,0 547 1549
SPMM,116,68,0 555 1548
SPMM,117,68,0 555 1547
SPMM,116,69,0 555 1546
SPMM,117,69,0 555 1545
SPMM,118,69,0 555 1544
SPMM,117,70,0 555 1543
SPMM,118,70,0 555 1542
SPMM,118,71,0 555 1541
SPMM,119,71,0 555 1540
XY,72,20 57 1539
XY,73,20 57 1538
XY,74,20 57 1537
XY,75,20 57 1536
DLACPY,75,21 250 1535
DLACPY,74,21 250 1534
DLACPY,73,21 250 1533
DLACPY,72,21 250 1532
SPMM,76,75,0 258 1531
SPMM,50,72,0 559 1530
SPMM,51,72,0 559 1529
SPMM,51,73,0 559 1528
SPMM,52,72,0 474 1527
SPMM,52,73,0 474 1526
SPMM,53,73,0 474 1525
SPMM,52,74,0 474 1524
SPMM,53,74,0 474 1523
SPMM,54,74,0 474 1522
SPMM,53,75,0 474 1521
SPMM,54,75,0 474 1520
SPMM,55,75,0 474 1519
SPMM,71,72,0 262 1518
SPMM,118,72,0 614 1517
SPMM,119,72,0 614 1516
SPMM,119,73,0 614 1515
SPMM,119,74,0 614 1514
SPMM,120,72,0 634 1513
SPMM,120,73,0 634 1512
SPMM,120,74,0 634 1511
SPMM,121,74,0 634 1510
SPMM,120,75,0 634 1509
SPMM,121,75,0 634 1508
XY,76,20 66 1507
XY,77,20 66 1506
XY,78,20 66 1505
XY,79,20 66 1504
DLACPY,79,21 234 1503
DLACPY,78,21 234 1502
DLACPY,77,21 234 1501
DLACPY,76,21 234 1500
SPMM,80,78,0 348 1499
SPMM,81,78,0 348 1498
SPMM,80,79,0 348 1497
SPMM,81,79,0 348 1496
SPMM,82,79,0 348 1495
SPMM,54,76,0 476 1494
SPMM,55,76,0 476 1493
SPMM,55,77,0 476 1492
SPMM,56,76,0 246 1491
SPMM,56,77,0 246 1490
SPMM,57,77,0 246 1489
SPMM,56,78,0 246 1488
SPMM,57,78,0 246 1487
SPMM,76,76,0 238 1486
SPMM,77,76,0 238 1485
SPMM,76,77,0 238 1484
SPMM,77,77,0 238 1483
SPMM,78,77,0 238 1482
SPMM,77,78,0 238 1481
SPMM,78,78,0 238 1480
SPMM,79,78,0 238 1479
SPMM,78,79,0 238 1478
SPMM,79,79,0 238 1477
SPMM,121,76,0 503 1476
SPMM,122,76,0 503 1475
SPMM,121,77,0 503 1474
SPMM,122,77,0 503 1473
SPMM,123,77,0 503 1472
SPMM,122,78,0 503 1471
SPMM,123,78,0 503 1470
XY,80,20 134 1469
XY,81,20 134 1468
XY,82,20 134 1467
XY,83,20 134 1466
DLACPY,83,21 956 1465
SPMM,82,83,0 956 1464
SPMM,83,83,0 956 1463
DLACPY,82,21 956 1462
SPMM,80,82,0 956 1461
SPMM,81,82,0 956 1460
SPMM,82,82,0 956 1459
SPMM,83,82,0 956 1458
DLACPY,81,21 956 1457
SPMM,80,81,0 956 1456
SPMM,81,81,0 956 1455
SPMM,82,81,0 956 1454
DLACPY,80,21 956 1453
SPMM,80,80,0 956 1452
SPMM,81,80,0 956 1451
SPMM,82,80,0 956 1450
SPMM,20,83,0 1087 1449
SPMM,21,83,0 1087 1448
SPMM,84,83,0 980 1447
SPMM,92,82,0 960 1446
SPMM,92,83,0 960 1445
SPMM,93,83,0 960 1444
SPMM,94,83,0 960 1443
SPMM,12,80,0 984 1442
SPMM,13,80,0 984 1441
SPMM,14,80,0 984 1440
SPMM,15,80,0 984 1439
SPMM,15,82,0 984 1438
SPMM,16,80,0 968 1437
SPMM,16,82,0 968 1436
SPMM,17,82,0 968 1435
SPMM,18,82,0 968 1434
SPMM,16,83,0 968 1433
SPMM,17,83,0 968 1432
SPMM,18,83,0 968 1431
SPMM,19,83,0 968 1430
SPMM,28,80,0 972 1429
SPMM,28,82,0 972 1428
SPMM,28,83,0 972 1427
SPMM,29,83,0 972 1426
SPMM,78,80,0 1073 1425
SPMM,79,80,0 1073 1424
SPMM,78,81,0 1073 1423
SPMM,79,81,0 1073 1422
SPMM,79,82,0 1073 1421
SPMM,88,80,0 964 1420
SPMM,89,80,0 964 1419
SPMM,88,81,0 964 1418
SPMM,89,81,0 964 1417
SPMM,90,81,0 964 1416
SPMM,91,81,0 964 1415
SPMM,89,82,0 964 1414
SPMM,90,82,0 964 1413
SPMM,91,82,0 964 1412
SPMM,91,83,0 964 1411
XY,84,20 130 1410
XY,85,20 130 1409
XY,86,20 130 1408
XY,87,20 130 1407
XY,88,20 49 1406
XY,89,20 49 1405
XY,90,20 49 1404
XY,91,20 49 1403
DLACPY,91,21 298 1402
SPMM,90,91,0 298 1401
SPMM,91,91,0 298 1400
DLACPY,90,21 298 1399
SPMM,89,90,0 298 1398
SPMM,90,90,0 298 1397
SPMM,91,90,0 298 1396
DLACPY,89,21 298 1395
SPMM,88,89,0 298 1394
SPMM,89,89,0 298 1393
SPMM,90,89,0 298 1392
DLACPY,88,21 298 1391
SPMM,88,88,0 298 1390
SPMM,89,88,0 298 1389
SPMM,92,91,0 306 1388
SPMM,35,88,0 352 1387
SPMM,36,88,0 345 1386
SPMM,80,88,0 302 1385
SPMM,81,88,0 302 1384
SPMM,80,89,0 302 1383
SPMM,81,89,0 302 1382
SPMM,82,89,0 302 1381
SPMM,81,90,0 302 1380
SPMM,82,90,0 302 1379
SPMM,81,91,0 302 1378
SPMM,82,91,0 302 1377
SPMM,83,91,0 302 1376
SPMM,87,88,0 356 1375
SPMM,99,88,0 360 1374
SPMM,100,88,0 310 1373
SPMM,101,88,0 310 1372
XY,92,20 170 1371
XY,93,20 170 1370
XY,94,20 170 1369
XY,95,20 170 1368
DLACPY,95,21 174 1367
SPMM,94,95,0 174 1366
SPMM,95,95,0 174 1365
DLACPY,94,21 174 1364
SPMM,93,94,0 174 1363
SPMM,94,94,0 174 1362
SPMM,95,94,0 174 1361
DLACPY,93,21 174 1360
SPMM,92,93,0 174 1359
SPMM,93,93,0 174 1358
SPMM,94,93,0 174 1357
DLACPY,92,21 174 1356
SPMM,92,92,0 174 1355
SPMM,93,92,0 174 1354
SPMM,96,95,0 483 1353
SPMM,84,93,0 178 1352
SPMM,84,94,0 178 1351
SPMM,85,94,0 178 1350
SPMM,84,95,0 178 1349
SPMM,85,95,0 178 1348
SPMM,82,92,0 182 1347
SPMM,83,92,0 182 1346
SPMM,83,93,0 182 1345
SPMM,83,94,0 182 1344
SPMM,91,92,0 487 1343
XY,96,20 158 1342
XY,97,20 158 1341
XY,98,20 158 1340
XY,99,20 158 1339
DLACPY,99,21 186 1338
DLACPY,98,21 186 1337
DLACPY,97,21 186 1336
DLACPY,96,21 186 1335
SPMM,88,99,0 214 1334
SPMM,100,99,0 210 1333
SPMM,85,96,0 194 1332
SPMM,86,96,0 194 1331
SPMM,85,97,0 194 1330
SPMM,86,97,0 194 1329
SPMM,87,97,0 194 1328
SPMM,86,98,0 194 1327
SPMM,87,98,0 194 1326
SPMM,87,99,0 194 1325
SPMM,95,96,0 198 1324
SPMM,96,96,0 190 1323
SPMM,97,96,0 190 1322
SPMM,96,97,0 190 1321
SPMM,97,97,0 190 1320
SPMM,98,97,0 190 1319
SPMM,97,98,0 190 1318
SPMM,98,98,0 190 1317
SPMM,99,98,0 190 1316
SPMM,98,99,0 190 1315
SPMM,99,99,0 190 1314
XY,100,20 53 1313
XY,101,20 53 1312
XY,102,20 53 1311
XY,103,20 53 1310
DLACPY,103,21 574 1309
DLACPY,102,21 574 1308
DLACPY,101,21 574 1307
DLACPY,100,21 574 1306
SPMM,56,103,0 600 1305
SPMM,104,102,0 580 1304
SPMM,104,103,0 580 1303
SPMM,105,103,0 580 1302
SPMM,106,103,0 580 1301
SPMM,34,101,0 592 1300
SPMM,35,101,0 592 1299
SPMM,34,102,0 592 1298
SPMM,35,102,0 592 1297
SPMM,34,103,0 592 1296
SPMM,35,103,0 592 1295
SPMM,54,101,0 607 1294
SPMM,55,101,0 607 1293
SPMM,54,102,0 607 1292
SPMM,55,102,0 607 1291
SPMM,54,103,0 607 1290
SPMM,55,103,0 607 1289
SPMM,87,100,0 604 1288
SPMM,88,100,0 588 1287
SPMM,88,101,0 588 1286
SPMM,99,100,0 584 1285
SPMM,100,100,0 576 1284
SPMM,101,100,0 576 1283
SPMM,100,101,0 576 1282
SPMM,101,101,0 576 1281
SPMM,102,101,0 576 1280
SPMM,103,101,0 576 1279
SPMM,101,102,0 576 1278
SPMM,102,102,0 576 1277
SPMM,103,102,0 576 1276
SPMM,101,103,0 576 1275
SPMM,102,103,0 576 1274
SPMM,103,103,0 576 1273
XY,104,20 85 1272
XY,105,20 85 1271
XY,106,20 85 1270
XY,107,20 85 1269
DLACPY,107,21 674 1268
DLACPY,106,21 674 1267
DLACPY,105,21 674 1266
DLACPY,104,21 674 1265
SPMM,36,105,0 702 1264
SPMM,36,106,0 702 1263
SPMM,36,107,0 702 1262
SPMM,108,105,0 682 1261
SPMM,108,106,0 682 1260
SPMM,108,107,0 682 1259
SPMM,109,107,0 682 1258
SPMM,34,104,0 694 1257
SPMM,35,104,0 694 1256
SPMM,35,105,0 694 1255
SPMM,35,106,0 694 1254
SPMM,35,107,0 694 1253
SPMM,54,104,0 690 1252
SPMM,55,104,0 690 1251
SPMM,55,105,0 690 1250
SPMM,55,106,0 690 1249
SPMM,55,107,0 690 1248
SPMM,56,104,0 698 1247
SPMM,56,105,0 698 1246
SPMM,56,106,0 698 1245
SPMM,57,106,0 698 1244
SPMM,56,107,0 698 1243
SPMM,57,107,0 698 1242
SPMM,102,104,0 686 1241
SPMM,103,104,0 686 1240
SPMM,103,105,0 686 1239
SPMM,103,106,0 686 1238
SPMM,104,104,0 678 1237
SPMM,105,104,0 678 1236
SPMM,106,104,0 678 1235
SPMM,107,104,0 678 1234
SPMM,104,105,0 678 1233
SPMM,105,105,0 678 1232
SPMM,106,105,0 678 1231
SPMM,107,105,0 678 1230
SPMM,104,106,0 678 1229
SPMM,105,106,0 678 1228
SPMM,106,106,0 678 1227
SPMM,107,106,0 678 1226
SPMM,104,107,0 678 1225
SPMM,105,107,0 678 1224
SPMM,106,107,0 678 1223
SPMM,107,107,0 678 1222
XY,108,20 154 1221
XY,109,20 154 1220
XY,110,20 154 1219
XY,111,20 154 1218
DLACPY,111,21 266 1217
SPMM,110,111,0 266 1216
SPMM,111,111,0 266 1215
DLACPY,110,21 266 1214
SPMM,108,110,0 266 1213
SPMM,109,110,0 266 1212
SPMM,110,110,0 266 1211
SPMM,111,110,0 266 1210
DLACPY,109,21 266 1209
SPMM,107,109,0 266 1208
SPMM,108,109,0 266 1207
SPMM,109,109,0 266 1206
SPMM,110,109,0 266 1205
DLACPY,108,21 266 1204
SPMM,105,108,0 266 1203
SPMM,106,108,0 266 1202
SPMM,107,108,0 266 1201
SPMM,108,108,0 266 1200
SPMM,109,108,0 266 1199
SPMM,110,108,0 266 1198
XTY,107,7,21 1083 1197
XTY,106,6,21 1083 1196
XTY,105,5,21 1083 1195
XTY,104,4,21 1083 1194
SPMM,60,111,0 400 1193
SPMM,112,111,0 278 1192
SPMM,35,108,0 376 1191
SPMM,35,109,0 376 1190
SPMM,36,108,0 274 1189
SPMM,36,109,0 274 1188
SPMM,36,110,0 274 1187
SPMM,55,108,0 491 1186
XTY,55,15,21 999 1185
XTY,54,14,21 999 1184
XTY,53,13,21 999 1183
XTY,52,12,21 999 1182
SPMM,56,108,0 270 1181
SPMM,57,108,0 270 1180
SPMM,56,109,0 270 1179
SPMM,57,109,0 270 1178
SPMM,56,110,0 270 1177
SPMM,57,110,0 270 1176
SPMM,58,110,0 270 1175
SPMM,59,110,0 270 1174
SPMM,57,111,0 270 1173
SPMM,58,111,0 270 1172
SPMM,59,111,0 270 1171
XY,112,20 126 1170
XY,113,20 126 1169
XY,114,20 126 1168
XY,115,20 126 1167
DLACPY,115,21 364 1166
DLACPY,114,21 364 1165
DLACPY,113,21 364 1164
DLACPY,112,21 364 1163
SPMM,116,115,0 610 1162
SPMM,64,113,0 372 1161
SPMM,64,114,0 372 1160
SPMM,65,114,0 372 1159
SPMM,66,114,0 372 1158
SPMM,64,115,0 372 1157
SPMM,65,115,0 372 1156
SPMM,66,115,0 372 1155
SPMM,67,115,0 372 1154
SPMM,59,112,0 499 1153
XTY,59,19,21 952 1152
XTY,58,18,21 952 1151
XTY,57,17,21 952 1150
XTY,56,16,21 952 1149
SPMM,60,112,0 368 1148
SPMM,61,112,0 368 1147
SPMM,62,112,0 368 1146
SPMM,61,113,0 368 1145
SPMM,62,113,0 368 1144
SPMM,63,113,0 368 1143
SPMM,62,114,0 368 1142
SPMM,63,114,0 368 1141
SPMM,111,112,0 479 1140
XTY,111,11,21 1134 1139
XTY,110,10,21 1134 1138
XTY,109,9,21 1134 1137
XTY,108,8,21 1134 1136
SPMM,112,112,0 495 1135
SPMM,113,112,0 495 1134
SPMM,112,113,0 495 1133
SPMM,113,113,0 495 1132
SPMM,114,113,0 495 1131
SPMM,113,114,0 495 1130
SPMM,114,114,0 495 1129
SPMM,115,114,0 495 1128
SPMM,114,115,0 495 1127
SPMM,115,115,0 495 1126
XY,116,20 88 1125
XY,117,20 88 1124
XY,118,20 88 1123
XY,119,20 88 1122
DLACPY,119,21 706 1121
SPMM,118,119,0 706 1120
SPMM,119,119,0 706 1119
DLACPY,118,21 706 1118
SPMM,117,118,0 706 1117
SPMM,118,118,0 706 1116
SPMM,119,118,0 706 1115
DLACPY,117,21 706 1114
SPMM,116,117,0 706 1113
SPMM,117,117,0 706 1112
SPMM,118,117,0 706 1111
DLACPY,116,21 706 1110
SPMM,116,116,0 706 1109
SPMM,117,116,0 706 1108
SPMM,120,119,0 727 1107
SPMM,66,116,0 719 1106
SPMM,67,116,0 719 1105
SPMM,67,117,0 719 1104
SPMM,68,116,0 715 1103
SPMM,69,116,0 715 1102
SPMM,68,117,0 715 1101
SPMM,69,117,0 715 1100
SPMM,70,117,0 715 1099
SPMM,69,118,0 715 1098
SPMM,70,118,0 715 1097
SPMM,71,118,0 715 1096
SPMM,71,119,0 715 1095
XTY,71,11,21 1187 1094
XTY,70,10,21 1187 1093
XTY,69,9,21 1187 1092
XTY,68,8,21 1187 1091
SPMM,115,116,0 723 1090
XY,120,20 138 1089
DLACPY,120,21 138 1088
XY,121,20 138 1087
DLACPY,121,21 138 1086
XY,122,20 138 1085
DLACPY,122,21 138 1084
XY,123,20 138 1083
DLACPY,123,21 138 1082
SPMM,77,123,0 146 1081
SPMM,78,123,0 146 1080
SPMM,76,122,0 146 1079
SPMM,77,122,0 146 1078
SPMM,78,122,0 146 1077
SPMM,76,121,0 146 1076
SPMM,77,121,0 146 1075
XTY,77,17,21 1078 1074
XTY,76,16,21 1078 1073
XTY,78,18,21 1078 1072
XTY,79,19,21 1078 1071
SPMM,119,120,0 166 1070
XTY,119,19,21 707 1069
XTY,117,17,21 707 1068
XTY,116,16,21 707 1067
XTY,118,18,21 707 1066
SPMM,122,123,0 142 1065
SPMM,123,123,0 142 1064
SPMM,121,122,0 142 1063
SPMM,122,122,0 142 1062
SPMM,123,122,0 142 1061
SPMM,120,121,0 142 1060
SPMM,121,121,0 142 1059
SPMM,122,121,0 142 1058
SPMM,120,120,0 142 1057
SPMM,121,120,0 142 1056
XTY,121,1,21 728 1055
XTY,120,0,21 728 1054
XTY,122,2,21 728 1053
XTY,123,3,21 728 1052
SETZERO,75,1 2 1051
SETZERO,74,1 2 1050
SETZERO,73,1 2 1049
SETZERO,72,1 2 1048
SPMM,75,76,0 436 1047
SPMM,72,50,0 396 1046
SPMM,72,51,0 396 1045
SPMM,73,51,0 396 1044
SPMM,72,52,0 1191 1043
SPMM,73,52,0 1191 1042
SPMM,73,53,0 1191 1041
SPMM,74,52,0 1191 1040
SPMM,74,53,0 1191 1039
SPMM,74,54,0 1191 1038
SPMM,75,53,0 1191 1037
SPMM,75,54,0 1191 1036
SPMM,75,55,0 1191 1035
SPMM,72,71,0 638 1034
SPMM,72,72,0 254 1033
SPMM,72,73,0 254 1032
SPMM,73,72,0 254 1031
SPMM,73,73,0 254 1030
SPMM,73,74,0 254 1029
SPMM,74,73,0 254 1028
SPMM,74,74,0 254 1027
SPMM,74,75,0 254 1026
SPMM,75,74,0 254 1025
SPMM,75,75,0 254 1024
SPMM,72,118,0 711 1023
SPMM,72,119,0 711 1022
SPMM,73,119,0 711 1021
SPMM,74,119,0 711 1020
SPMM,72,120,0 150 1019
SPMM,73,120,0 150 1018
SPMM,74,120,0 150 1017
SPMM,74,121,0 150 1016
SPMM,75,120,0 150 1015
SPMM,75,121,0 150 1014
XTY,75,15,21 1192 1013
XTY,74,14,21 1192 1012
XTY,73,13,21 1192 1011
XTY,72,12,21 1192 1010
SETZERO,7,1 1 1009
SETZERO,6,1 1 1008
SETZERO,5,1 1 1007
SETZERO,4,1 1 1006
SPMM,4,0,0 448 1005
SPMM,4,1,0 448 1004
SPMM,4,3,0 448 1003
SPMM,5,1,0 448 1002
SPMM,5,2,0 448 1001
SPMM,6,0,0 448 1000
SPMM,6,1,0 448 999
SPMM,6,2,0 448 998
SPMM,7,0,0 448 997
SPMM,7,1,0 448 996
DLACPY,7,21 314 995
SPMM,6,7,0 314 994
SPMM,7,7,0 314 993
DLACPY,6,21 314 992
SPMM,5,6,0 314 991
SPMM,6,6,0 314 990
SPMM,7,6,0 314 989
DLACPY,5,21 314 988
SPMM,4,5,0 314 987
SPMM,5,5,0 314 986
SPMM,6,5,0 314 985
DLACPY,4,21 314 984
SPMM,4,4,0 314 983
SPMM,5,4,0 314 982
SPMM,12,5,0 326 981
SPMM,12,6,0 326 980
SPMM,13,6,0 326 979
SPMM,14,6,0 326 978
SPMM,15,6,0 326 977
SPMM,14,7,0 326 976
SPMM,15,7,0 326 975
SPMM,0,4,0 318 974
SPMM,1,4,0 318 973
SPMM,3,4,0 318 972
SPMM,1,5,0 318 971
SPMM,2,5,0 318 970
SPMM,0,6,0 318 969
SPMM,1,6,0 318 968
SPMM,2,6,0 318 967
SPMM,0,7,0 318 966
SPMM,1,7,0 318 965
SPMM,11,4,0 596 964
SPMM,11,5,0 596 963
SPMM,10,6,0 596 962
SPMM,8,7,0 596 961
SPMM,10,7,0 596 960
SPMM,11,7,0 596 959
SPMM,18,4,0 338 958
SPMM,19,4,0 338 957
SPMM,16,6,0 338 956
SPMM,16,7,0 338 955
SPMM,17,7,0 338 954
SPMM,18,7,0 338 953
SPMM,19,7,0 338 952
SPMM,20,4,0 342 951
SPMM,21,4,0 342 950
SPMM,22,4,0 342 949
SPMM,23,4,0 342 948
SPMM,21,5,0 342 947
SPMM,22,5,0 342 946
SPMM,23,5,0 342 945
SPMM,20,7,0 342 944
SPMM,28,4,0 322 943
SPMM,29,4,0 322 942
SPMM,29,5,0 322 941
SPMM,30,5,0 322 940
SPMM,29,6,0 322 939
SPMM,30,6,0 322 938
SPMM,30,7,0 322 937
SPMM,31,7,0 322 936
SPMM,4,11,0 416 935
SPMM,5,11,0 416 934
SPMM,6,10,0 416 933
SPMM,7,8,0 416 932
SPMM,7,10,0 416 931
SPMM,7,11,0 416 930
SPMM,4,18,0 895 929
SPMM,4,19,0 895 928
SPMM,6,16,0 895 927
SPMM,7,16,0 895 926
SPMM,7,17,0 895 925
SPMM,7,18,0 895 924
SPMM,7,19,0 895 923
SPMM,4,20,0 876 922
SPMM,4,21,0 876 921
SPMM,4,22,0 876 920
SPMM,4,23,0 876 919
SPMM,5,21,0 876 918
SPMM,5,22,0 876 917
SPMM,5,23,0 876 916
SPMM,7,20,0 876 915
SPMM,4,28,0 804 914
SPMM,4,29,0 804 913
SPMM,5,29,0 804 912
SPMM,5,30,0 804 911
SPMM,6,29,0 804 910
SPMM,6,30,0 804 909
SPMM,7,30,0 804 908
SPMM,7,31,0 804 907
SETZERO,43,1 0 906
SETZERO,42,1 0 905
SETZERO,41,1 0 904
SETZERO,40,1 0 903
SETZERO,27,1 0 902
SETZERO,26,1 0 901
SETZERO,25,1 0 900
SETZERO,24,1 0 899
SPMM,43,44,0 1024 898
SPMM,42,16,0 907 897
SPMM,43,16,0 907 896
SPMM,43,17,0 907 895
SPMM,42,64,0 242 894
SPMM,43,64,0 242 893
SPMM,43,65,0 242 892
DLACPY,15,21 732 891
SPMM,14,15,0 732 890
SPMM,15,15,0 732 889
SPMM,42,15,0 732 888
SPMM,43,15,0 732 887
DLACPY,14,21 732 886
SPMM,13,14,0 732 885
SPMM,14,14,0 732 884
SPMM,15,14,0 732 883
SPMM,41,14,0 732 882
SPMM,42,14,0 732 881
SPMM,43,14,0 732 880
DLACPY,13,21 732 879
SPMM,12,13,0 732 878
SPMM,13,13,0 732 877
SPMM,14,13,0 732 876
SPMM,41,13,0 732 875
SPMM,42,13,0 732 874
DLACPY,12,21 732 873
SPMM,12,12,0 732 872
SPMM,13,12,0 732 871
SPMM,40,12,0 732 870
SPMM,41,12,0 732 869
SPMM,42,12,0 732 868
SPMM,16,15,0 1156 867
SPMM,44,15,0 1095 866
SPMM,0,12,0 1215 865
SPMM,2,12,0 1215 864
SPMM,0,13,0 1215 863
SPMM,2,13,0 1215 862
SPMM,0,14,0 1215 861
SPMM,2,14,0 1215 860
SPMM,3,14,0 1215 859
SPMM,0,15,0 1215 858
SPMM,2,15,0 1215 857
SPMM,3,15,0 1215 856
SPMM,5,12,0 740 855
SPMM,6,12,0 740 854
SPMM,6,13,0 740 853
SPMM,6,14,0 740 852
SPMM,7,14,0 740 851
SPMM,6,15,0 740 850
SPMM,7,15,0 740 849
SPMM,9,12,0 744 848
SPMM,10,12,0 744 847
SPMM,11,12,0 744 846
SPMM,10,13,0 744 845
SPMM,10,14,0 744 844
SPMM,10,15,0 744 843
SPMM,23,12,0 994 842
SPMM,24,12,0 760 841
SPMM,25,12,0 760 840
SPMM,26,12,0 760 839
SPMM,27,12,0 760 838
SPMM,27,13,0 760 837
SPMM,27,14,0 760 836
SPMM,27,15,0 760 835
SPMM,30,12,0 736 834
SPMM,31,12,0 736 833
SPMM,28,13,0 736 832
SPMM,30,13,0 736 831
SPMM,28,14,0 736 830
SPMM,30,14,0 736 829
SPMM,28,15,0 736 828
SPMM,30,15,0 736 827
SPMM,80,12,0 792 826
SPMM,80,13,0 792 825
SPMM,80,14,0 792 824
SPMM,82,14,0 792 823
SPMM,80,15,0 792 822
SPMM,82,15,0 792 821
SPMM,40,30,0 812 820
SPMM,41,30,0 812 819
SPMM,42,30,0 812 818
SPMM,43,30,0 812 817
SPMM,40,39,0 523 816
DLACPY,43,21 642 815
SPMM,42,43,0 642 814
SPMM,43,43,0 642 813
DLACPY,42,21 642 812
SPMM,41,42,0 642 811
SPMM,42,42,0 642 810
SPMM,43,42,0 642 809
DLACPY,41,21 642 808
SPMM,40,41,0 642 807
SPMM,41,41,0 642 806
SPMM,42,41,0 642 805
DLACPY,40,21 642 804
SPMM,40,40,0 642 803
SPMM,41,40,0 642 802
SPMM,44,43,0 666 801
XTY,44,4,21 1096 800
XTY,47,7,21 1096 799
XTY,46,6,21 1096 798
XTY,45,5,21 1096 797
SPMM,16,42,0 670 796
SPMM,16,43,0 670 795
SPMM,17,43,0 670 794
SPMM,64,42,0 662 793
SPMM,64,43,0 662 792
SPMM,65,43,0 662 791
XTY,65,5,21 1205 790
XTY,64,4,21 1205 789
XTY,67,7,21 1205 788
XTY,66,6,21 1205 787
SPMM,12,40,0 654 786
SPMM,13,40,0 654 785
SPMM,12,41,0 654 784
SPMM,13,41,0 654 783
SPMM,14,41,0 654 782
SPMM,12,42,0 654 781
SPMM,13,42,0 654 780
SPMM,14,42,0 654 779
SPMM,15,42,0 654 778
SPMM,14,43,0 654 777
SPMM,15,43,0 654 776
SPMM,30,40,0 658 775
SPMM,30,41,0 658 774
SPMM,30,42,0 658 773
SPMM,30,43,0 658 772
SPMM,39,40,0 650 771
XTY,39,19,21 1162 770
XTY,36,16,21 1162 769
XTY,38,18,21 1162 768
XTY,37,17,21 1162 767
SPMM,60,40,0 646 766
SPMM,61,40,0 646 765
SPMM,62,40,0 646 764
SPMM,61,41,0 646 763
SPMM,62,41,0 646 762
SPMM,63,41,0 646 761
SPMM,62,42,0 646 760
SPMM,63,42,0 646 759
SPMM,63,43,0 646 758
XTY,63,3,21 1225 757
XTY,62,2,21 1225 756
XTY,61,1,21 1225 755
XTY,60,0,21 1225 754
SPMM,40,60,0 294 753
SPMM,40,61,0 294 752
SPMM,40,62,0 294 751
SPMM,41,61,0 294 750
SPMM,41,62,0 294 749
SPMM,41,63,0 294 748
SPMM,42,62,0 294 747
SPMM,42,63,0 294 746
SPMM,43,63,0 294 745
XTY,43,3,21 1037 744
XTY,42,2,21 1037 743
XTY,41,1,21 1037 742
XTY,40,0,21 1037 741
SPMM,27,80,0 976 740
SPMM,26,52,0 990 739
SPMM,27,52,0 990 738
SPMM,24,1,0 563 737
SPMM,25,1,0 563 736
SPMM,25,2,0 563 735
SPMM,26,1,0 563 734
SPMM,26,2,0 563 733
SPMM,27,0,0 563 732
SPMM,27,2,0 563 731
SPMM,27,3,0 563 730
SPMM,24,5,0 464 729
SPMM,25,5,0 464 728
SPMM,25,6,0 464 727
SPMM,26,5,0 464 726
SPMM,26,6,0 464 725
SPMM,27,6,0 464 724
SPMM,24,9,0 432 723
SPMM,24,11,0 432 722
SPMM,25,9,0 432 721
SPMM,26,9,0 432 720
SPMM,26,10,0 432 719
SPMM,27,9,0 432 718
SPMM,27,10,0 432 717
SPMM,24,23,0 864 716
DLACPY,27,21 764 715
SPMM,26,27,0 764 714
SPMM,27,27,0 764 713
DLACPY,26,21 764 712
SPMM,25,26,0 764 711
SPMM,26,26,0 764 710
SPMM,27,26,0 764 709
DLACPY,25,21 764 708
SPMM,24,25,0 764 707
SPMM,25,25,0 764 706
SPMM,26,25,0 764 705
DLACPY,24,21 764 704
SPMM,24,24,0 764 703
SPMM,25,24,0 764 702
SPMM,80,27,0 947 701
SPMM,1,24,0 1211 700
SPMM,1,25,0 1211 699
SPMM,2,25,0 1211 698
SPMM,1,26,0 1211 697
SPMM,2,26,0 1211 696
SPMM,0,27,0 1211 695
SPMM,2,27,0 1211 694
SPMM,3,27,0 1211 693
XTY,3,3,21 1220 692
XTY,2,2,21 1220 691
XTY,0,0,21 1220 690
XTY,1,1,21 1220 689
SPMM,5,24,0 784 688
SPMM,5,25,0 784 687
SPMM,6,25,0 784 686
SPMM,5,26,0 784 685
SPMM,6,26,0 784 684
SPMM,6,27,0 784 683
XTY,6,6,21 1120 682
XTY,5,5,21 1120 681
XTY,7,7,21 1120 680
XTY,4,4,21 1120 679
SPMM,9,24,0 772 678
SPMM,11,24,0 772 677
SPMM,9,25,0 772 676
SPMM,9,26,0 772 675
SPMM,10,26,0 772 674
SPMM,9,27,0 772 673
SPMM,10,27,0 772 672
XTY,10,10,21 1012 671
XTY,9,9,21 1012 670
XTY,11,11,21 1012 669
XTY,8,8,21 1012 668
SPMM,12,24,0 820 667
SPMM,12,25,0 820 666
SPMM,12,26,0 820 665
SPMM,12,27,0 820 664
SPMM,13,27,0 820 663
SPMM,14,27,0 820 662
SPMM,15,27,0 820 661
XTY,15,15,21 1172 660
XTY,14,14,21 1172 659
XTY,13,13,21 1172 658
XTY,12,12,21 1172 657
SPMM,23,24,0 768 656
SPMM,29,24,0 776 655
SPMM,31,24,0 776 654
SPMM,29,25,0 776 653
SPMM,31,25,0 776 652
SPMM,29,26,0 776 651
SPMM,30,26,0 776 650
SPMM,31,26,0 776 649
SPMM,28,27,0 776 648
SPMM,29,27,0 776 647
SPMM,30,27,0 776 646
SPMM,31,27,0 776 645
SPMM,32,24,0 931 644
SPMM,32,25,0 931 643
SPMM,32,26,0 931 642
SPMM,32,27,0 931 641
SPMM,48,24,0 935 640
SPMM,49,24,0 935 639
SPMM,50,24,0 935 638
SPMM,49,25,0 935 637
SPMM,50,25,0 935 636
SPMM,51,25,0 935 635
SPMM,49,26,0 935 634
SPMM,50,26,0 935 633
SPMM,51,26,0 935 632
SPMM,50,27,0 935 631
SPMM,51,27,0 935 630
XTY,51,11,21 1152 629
XTY,50,10,21 1152 628
XTY,49,9,21 1152 627
XTY,48,8,21 1152 626
SPMM,85,24,0 939 625
SPMM,85,25,0 939 624
DLACPY,87,21 1100 623
SPMM,86,87,0 1100 622
SPMM,87,87,0 1100 621
DLACPY,86,21 1100 620
SPMM,85,86,0 1100 619
SPMM,86,86,0 1100 618
SPMM,87,86,0 1100 617
XTY,87,7,21 1100 616
DLACPY,85,21 1100 615
SPMM,84,85,0 1100 614
SPMM,85,85,0 1100 613
SPMM,86,85,0 1100 612
XTY,86,6,21 1100 611
DLACPY,84,21 1100 610
SPMM,84,84,0 1100 609
XTY,84,4,21 1100 608
SPMM,85,84,0 1100 607
XTY,85,5,21 1100 606
SPMM,88,87,0 1118 605
XTY,88,8,21 1119 604
XTY,91,11,21 1119 603
XTY,89,9,21 1119 602
XTY,90,10,21 1119 601
SPMM,100,87,0 1138 600
XTY,100,0,21 1139 599
XTY,103,3,21 1139 598
XTY,102,2,21 1139 597
XTY,101,1,21 1139 596
SPMM,24,85,0 1181 595
SPMM,32,85,0 1147 594
SPMM,33,85,0 1147 593
SPMM,32,86,0 1147 592
SPMM,33,86,0 1147 591
SPMM,34,86,0 1147 590
SPMM,33,87,0 1147 589
SPMM,34,87,0 1147 588
SPMM,35,87,0 1147 587
XTY,35,15,21 1167 586
XTY,34,14,21 1167 585
XTY,33,13,21 1167 584
XTY,32,12,21 1167 583
SPMM,96,85,0 1128 582
SPMM,97,85,0 1128 581
SPMM,96,86,0 1128 580
SPMM,97,86,0 1128 579
SPMM,98,86,0 1128 578
SPMM,97,87,0 1128 577
SPMM,98,87,0 1128 576
SPMM,99,87,0 1128 575
XTY,99,19,21 1129 574
XTY,98,18,21 1129 573
XTY,97,17,21 1129 572
XTY,96,16,21 1129 571
SPMM,19,84,0 1104 570
XTY,19,19,21 1157 569
XTY,17,17,21 1157 568
XTY,16,16,21 1157 567
XTY,18,18,21 1157 566
SPMM,20,84,0 1176 565
SPMM,21,84,0 1176 564
SPMM,22,84,0 1176 563
SPMM,23,84,0 1176 562
SPMM,22,85,0 1176 561
SPMM,23,85,0 1176 560
XTY,23,3,21 1177 559
XTY,22,2,21 1177 558
XTY,21,1,21 1177 557
XTY,20,0,21 1177 556
SPMM,28,84,0 1143 555
XTY,28,8,21 1143 554
SPMM,29,84,0 1143 553
SPMM,29,85,0 1143 552
XTY,29,9,21 1143 551
SPMM,31,85,0 1143 550
XTY,31,11,21 1143 549
XTY,30,10,21 1143 548
SPMM,83,84,0 1113 547
XTY,83,3,21 1114 546
XTY,80,0,21 1114 545
XTY,82,2,21 1114 544
XTY,81,1,21 1114 543
SPMM,93,84,0 1108 542
SPMM,94,84,0 1108 541
SPMM,95,84,0 1108 540
SPMM,94,85,0 1108 539
SPMM,95,85,0 1108 538
XTY,95,15,21 1109 537
XTY,94,14,21 1109 536
XTY,93,13,21 1109 535
XTY,92,12,21 1109 534
SPMM,24,29,0 832 533
SPMM,24,31,0 832 532
SPMM,25,29,0 832 531
SPMM,25,31,0 832 530
SPMM,26,29,0 832 529
SPMM,26,30,0 832 528
SPMM,26,31,0 832 527
SPMM,27,28,0 832 526
SPMM,27,29,0 832 525
SPMM,27,30,0 832 524
SPMM,27,31,0 832 523
SPMM,24,32,0 1091 522
SPMM,25,32,0 1091 521
SPMM,26,32,0 1091 520
SPMM,27,32,0 1091 519
SPMM,24,48,0 388 518
SPMM,24,49,0 388 517
SPMM,24,50,0 388 516
SPMM,25,49,0 388 515
SPMM,25,50,0 388 514
SPMM,25,51,0 388 513
SPMM,26,49,0 388 512
SPMM,26,50,0 388 511
SPMM,26,51,0 388 510
SPMM,27,50,0 388 509
SPMM,27,51,0 388 508
XTY,27,7,21 1182 507
XTY,26,6,21 1182 506
XTY,25,5,21 1182 505
XTY,24,4,21 1182 504
XTY,115,15,21 1226 503
XTY,114,14,21 1226 502
XTY,113,13,21 1226 501
XTY,112,12,21 1226 500
RED,XAXBUF,0 1226 499
SPEUPDATE,XAX 1227 498
EIGEN 1227 497
XY,72,22 1227 496
DLACPY,72,23 1227 495
XY,73,22 1227 494
DLACPY,73,23 1227 493
XY,74,22 1227 492
DLACPY,74,23 1227 491
XY,75,22 1227 490
DLACPY,75,23 1227 489
XY,0,21 1239 488
DLACPY,0,22 1239 487
XY,1,21 1239 486
DLACPY,1,22 1239 485
XY,2,21 1239 484
DLACPY,2,22 1239 483
XY,3,21 1239 482
DLACPY,3,22 1239 481
XY,4,21 1280 480
DLACPY,4,22 1280 479
XY,5,21 1280 478
DLACPY,5,22 1280 477
XY,6,21 1280 476
DLACPY,6,22 1280 475
XY,7,21 1280 474
DLACPY,7,22 1280 473
XY,8,21 1290 472
DLACPY,8,22 1290 471
XY,9,21 1290 470
DLACPY,9,22 1290 469
XY,10,21 1290 468
DLACPY,10,22 1290 467
XY,11,21 1290 466
DLACPY,11,22 1290 465
XY,12,21 1270 464
XY,13,21 1270 463
XY,14,21 1270 462
XY,15,21 1270 461
XY,16,21 1294 460
DLACPY,16,22 1294 459
XY,17,21 1294 458
DLACPY,17,22 1294 457
XY,18,21 1294 456
DLACPY,18,22 1294 455
XY,19,21 1294 454
DLACPY,19,22 1294 453
XY,20,21 1268 452
DLACPY,20,22 1268 451
XY,21,21 1268 450
DLACPY,21,22 1268 449
XY,22,21 1268 448
DLACPY,22,22 1268 447
XY,23,21 1268 446
DLACPY,23,22 1268 445
XY,24,21 1235 444
DLACPY,24,22 1235 443
XY,25,21 1235 442
DLACPY,25,22 1235 441
XY,26,21 1235 440
DLACPY,26,22 1235 439
XY,27,21 1235 438
DLACPY,27,22 1235 437
XY,28,21 1283 436
DLACPY,28,22 1283 435
XY,29,21 1283 434
DLACPY,29,22 1283 433
XY,30,21 1283 432
DLACPY,30,22 1283 431
XY,31,21 1283 430
DLACPY,31,22 1283 429
XY,32,21 1271 428
DLACPY,32,22 1271 427
XY,33,21 1271 426
DLACPY,33,22 1271 425
XY,34,21 1271 424
DLACPY,34,22 1271 423
XY,35,21 1271 422
DLACPY,35,22 1271 421
XY,36,21 1287 420
DLACPY,36,22 1287 419
XY,37,21 1287 418
DLACPY,37,22 1287 417
XY,38,21 1287 416
DLACPY,38,22 1287 415
XY,39,21 1287 414
DLACPY,39,22 1287 413
XY,40,21 1246 412
XY,41,21 1246 411
XY,42,21 1246 410
XY,43,21 1246 409
DLACPY,43,22 1251 408
DLACPY,42,22 1251 407
DLACPY,41,22 1251 406
DLACPY,40,22 1251 405
XY,44,21 1269 404
DLACPY,44,22 1269 403
XY,45,21 1269 402
DLACPY,45,22 1269 401
XY,46,21 1269 400
DLACPY,46,22 1269 399
XY,47,21 1269 398
DLACPY,47,22 1269 397
XY,48,21 1259 396
DLACPY,48,22 1259 395
XY,49,21 1259 394
DLACPY,49,22 1259 393
XY,50,21 1259 392
DLACPY,50,22 1259 391
XY,51,21 1259 390
DLACPY,51,22 1259 389
XY,52,21 1292 388
DLACPY,52,22 1292 387
XY,53,21 1292 386
DLACPY,53,22 1292 385
XY,54,21 1292 384
DLACPY,54,22 1292 383
XY,55,21 1292 382
DLACPY,55,22 1292 381
XY,56,21 1275 380
DLACPY,56,22 1275 379
XY,57,21 1275 378
DLACPY,57,22 1275 377
XY,58,21 1275 376
DLACPY,58,22 1275 375
XY,59,21 1275 374
DLACPY,59,22 1275 373
XY,60,21 1267 372
DLACPY,60,22 1267 371
XY,61,21 1267 370
DLACPY,61,22 1267 369
XY,62,21 1267 368
DLACPY,62,22 1267 367
XY,63,21 1267 366
DLACPY,63,22 1267 365
XY,64,21 1273 364
DLACPY,64,22 1273 363
XY,65,21 1273 362
DLACPY,65,22 1273 361
XY,66,21 1273 360
DLACPY,66,22 1273 359
XY,67,21 1273 358
DLACPY,67,22 1273 357
XY,68,21 1281 356
XY,69,21 1281 355
XY,70,21 1281 354
XY,71,21 1281 353
DLACPY,71,22 1288 352
DLACPY,70,22 1288 351
DLACPY,69,22 1288 350
DLACPY,68,22 1288 349
XY,72,21 1250 348
DLACPY,72,22 1250 347
XY,73,21 1250 346
DLACPY,73,22 1250 345
XY,74,21 1250 344
DLACPY,74,22 1250 343
XY,75,21 1250 342
DLACPY,75,22 1250 341
XY,76,21 1266 340
DLACPY,76,22 1266 339
XY,77,21 1266 338
DLACPY,77,22 1266 337
XY,78,21 1266 336
DLACPY,78,22 1266 335
XY,79,21 1266 334
DLACPY,79,22 1266 333
XY,80,21 1261 332
XY,81,21 1261 331
XY,82,21 1261 330
XY,83,21 1261 329
DLACPY,83,22 1263 328
DLACPY,82,22 1263 327
DLACPY,81,22 1263 326
DLACPY,80,22 1263 325
XY,84,21 1284 324
DLACPY,84,22 1284 323
XY,85,21 1284 322
DLACPY,85,22 1284 321
XY,86,21 1284 320
DLACPY,86,22 1284 319
XY,87,21 1284 318
DLACPY,87,22 1284 317
XY,88,21 1260 316
DLACPY,88,22 1260 315
XY,89,21 1260 314
DLACPY,89,22 1260 313
XY,90,21 1260 312
DLACPY,90,22 1260 311
XY,91,21 1260 310
DLACPY,91,22 1260 309
XY,92,21 1262 308
DLACPY,92,22 1262 307
XY,93,21 1262 306
DLACPY,93,22 1262 305
XY,94,21 1262 304
DLACPY,94,22 1262 303
XY,95,21 1262 302
DLACPY,95,22 1262 301
XY,96,21 1289 300
DLACPY,96,22 1289 299
XY,97,21 1289 298
DLACPY,97,22 1289 297
XY,98,21 1289 296
DLACPY,98,22 1289 295
XY,99,21 1289 294
DLACPY,99,22 1289 293
XY,100,21 1282 292
DLACPY,100,22 1282 291
XY,101,21 1282 290
DLACPY,101,22 1282 289
XY,102,21 1282 288
DLACPY,102,22 1282 287
XY,103,21 1282 286
DLACPY,103,22 1282 285
XY,104,21 1295 284
DLACPY,104,22 1295 283
XY,105,21 1295 282
DLACPY,105,22 1295 281
XY,106,21 1295 280
DLACPY,106,22 1295 279
XY,107,21 1295 278
DLACPY,107,22 1295 277
XY,108,21 1286 276
DLACPY,108,22 1286 275
XY,109,21 1286 274
DLACPY,109,22 1286 273
XY,110,21 1286 272
DLACPY,110,22 1286 271
XY,111,21 1286 270
DLACPY,111,22 1286 269
XY,112,21 1255 268
DLACPY,112,22 1255 267
XY,113,21 1255 266
DLACPY,113,22 1255 265
XY,114,21 1255 264
DLACPY,114,22 1255 263
XY,115,21 1255 262
DLACPY,115,22 1255 261
XY,116,21 1278 260
DLACPY,116,22 1278 259
XY,117,21 1278 258
DLACPY,117,22 1278 257
XY,118,21 1278 256
DLACPY,118,22 1278 255
XY,119,21 1278 254
DLACPY,119,22 1278 253
XY,120,21 1272 252
XY,121,21 1272 251
XY,122,21 1272 250
XY,123,21 1272 249
DLACPY,123,22 1274 248
DLACPY,122,22 1274 247
DLACPY,121,22 1274 246
DLACPY,120,22 1274 245
DLACPY,15,22 1274 244
DLACPY,14,22 1274 243
DLACPY,13,22 1274 242
DLACPY,12,22 1274 241
XY,0,22 1233 240
DLACPY,0,23 1233 239
XY,1,22 1233 238
DLACPY,1,23 1233 237
XY,2,22 1233 236
DLACPY,2,23 1233 235
XY,3,22 1233 234
DLACPY,3,23 1233 233
XY,4,22 1285 232
DLACPY,4,23 1285 231
XY,5,22 1285 230
DLACPY,5,23 1285 229
XY,6,22 1285 228
DLACPY,6,23 1285 227
XY,7,22 1285 226
DLACPY,7,23 1285 225
XY,8,22 1241 224
DLACPY,8,23 1241 223
XY,9,22 1241 222
DLACPY,9,23 1241 221
XY,10,22 1241 220
DLACPY,10,23 1241 219
XY,11,22 1241 218
DLACPY,11,23 1241 217
XY,12,22 1236 216
DLACPY,12,23 1236 215
XY,13,22 1236 214
DLACPY,13,23 1236 213
XY,14,22 1236 212
DLACPY,14,23 1236 211
XY,15,22 1236 210
DLACPY,15,23 1236 209
XY,16,22 1244 208
DLACPY,16,23 1244 207
XY,17,22 1244 206
DLACPY,17,23 1244 205
XY,18,22 1244 204
DLACPY,18,23 1244 203
XY,19,22 1244 202
DLACPY,19,23 1244 201
XY,20,22 1248 200
DLACPY,20,23 1248 199
XY,21,22 1248 198
DLACPY,21,23 1248 197
XY,22,22 1248 196
DLACPY,22,23 1248 195
XY,23,22 1248 194
DLACPY,23,23 1248 193
XY,24,22 1237 192
DLACPY,24,23 1237 191
XY,25,22 1237 190
DLACPY,25,23 1237 189
XY,26,22 1237 188
DLACPY,26,23 1237 187
XY,27,22 1237 186
DLACPY,27,23 1237 185
XY,28,22 1253 184
DLACPY,28,23 1253 183
XY,29,22 1253 182
DLACPY,29,23 1253 181
XY,30,22 1253 180
DLACPY,30,23 1253 179
XY,31,22 1253 178
DLACPY,31,23 1253 177
XY,32,22 1238 176
DLACPY,32,23 1238 175
XY,33,22 1238 174
DLACPY,33,23 1238 173
XY,34,22 1238 172
DLACPY,34,23 1238 171
XY,35,22 1238 170
DLACPY,35,23 1238 169
XY,36,22 1242 168
XY,37,22 1242 167
XY,38,22 1242 166
XY,39,22 1242 165
DLACPY,39,23 1247 164
DLACPY,38,23 1247 163
DLACPY,37,23 1247 162
DLACPY,36,23 1247 161
XY,40,22 1229 160
DLACPY,40,23 1229 159
XY,41,22 1229 158
DLACPY,41,23 1229 157
XY,42,22 1229 156
DLACPY,42,23 1229 155
XY,43,22 1229 154
DLACPY,43,23 1229 153
XY,44,22 1254 152
DLACPY,44,23 1254 151
XY,45,22 1254 150
DLACPY,45,23 1254 149
XY,46,22 1254 148
DLACPY,46,23 1254 147
XY,47,22 1254 146
DLACPY,47,23 1254 145
XY,48,22 1252 144
DLACPY,48,23 1252 143
XY,49,22 1252 142
DLACPY,49,23 1252 141
XY,50,22 1252 140
DLACPY,50,23 1252 139
XY,51,22 1252 138
DLACPY,51,23 1252 137
XY,52,22 1265 136
DLACPY,52,23 1265 135
XY,53,22 1265 134
DLACPY,53,23 1265 133
XY,54,22 1265 132
DLACPY,54,23 1265 131
XY,55,22 1265 130
DLACPY,55,23 1265 129
XY,56,22 1258 128
DLACPY,56,23 1258 127
XY,57,22 1258 126
DLACPY,57,23 1258 125
XY,58,22 1258 124
DLACPY,58,23 1258 123
XY,59,22 1258 122
DLACPY,59,23 1258 121
XY,60,22 1234 120
DLACPY,60,23 1234 119
XY,61,22 1234 118
DLACPY,61,23 1234 117
XY,62,22 1234 116
DLACPY,62,23 1234 115
XY,63,22 1234 114
DLACPY,63,23 1234 113
XY,64,22 1231 112
DLACPY,64,23 1231 111
XY,65,22 1231 110
DLACPY,65,23 1231 109
XY,66,22 1231 108
DLACPY,66,23 1231 107
XY,67,22 1231 106
DLACPY,67,23 1231 105
XY,68,22 1230 104
DLACPY,68,23 1230 103
XY,69,22 1230 102
DLACPY,69,23 1230 101
XY,70,22 1230 100
DLACPY,70,23 1230 99
XY,71,22 1230 98
DLACPY,71,23 1230 97
XY,76,22 1249 96
DLACPY,76,23 1249 95
XY,77,22 1249 94
DLACPY,77,23 1249 93
XY,78,22 1249 92
DLACPY,78,23 1249 91
XY,79,22 1249 90
DLACPY,79,23 1249 89
XY,80,22 1232 88
DLACPY,80,23 1232 87
XY,81,22 1232 86
DLACPY,81,23 1232 85
XY,82,22 1232 84
DLACPY,82,23 1232 83
XY,83,22 1232 82
DLACPY,83,23 1232 81
XY,84,22 1245 80
DLACPY,84,23 1245 79
XY,85,22 1245 78
DLACPY,85,23 1245 77
XY,86,22 1245 76
DLACPY,86,23 1245 75
XY,87,22 1245 74
DLACPY,87,23 1245 73
XY,88,22 1243 72
DLACPY,88,23 1243 71
XY,89,22 1243 70
DLACPY,89,23 1243 69
XY,90,22 1243 68
DLACPY,90,23 1243 67
XY,91,22 1243 66
DLACPY,91,23 1243 65
XY,92,22 1264 64
XY,93,22 1264 63
XY,94,22 1264 62
XY,95,22 1264 61
DLACPY,95,23 1277 60
DLACPY,94,23 1277 59
DLACPY,93,23 1277 58
DLACPY,92,23 1277 57
XY,96,22 1276 56
XY,97,22 1276 55
XY,98,22 1276 54
XY,99,22 1276 53
DLACPY,99,23 1279 52
DLACPY,98,23 1279 51
DLACPY,97,23 1279 50
DLACPY,96,23 1279 49
XY,100,22 1240 48
DLACPY,100,23 1240 47
XY,101,22 1240 46
DLACPY,101,23 1240 45
XY,102,22 1240 44
DLACPY,102,23 1240 43
XY,103,22 1240 42
DLACPY,103,23 1240 41
XY,104,22 1257 40
DLACPY,104,23 1257 39
XY,105,22 1257 38
DLACPY,105,23 1257 37
XY,106,22 1257 36
DLACPY,106,23 1257 35
XY,107,22 1257 34
DLACPY,107,23 1257 33
XY,108,22 1256 32
DLACPY,108,23 1256 31
XY,109,22 1256 30
DLACPY,109,23 1256 29
XY,110,22 1256 28
DLACPY,110,23 1256 27
XY,111,22 1256 26
DLACPY,111,23 1256 25
XY,112,22 1228 24
DLACPY,112,23 1228 23
XY,113,22 1228 22
DLACPY,113,23 1228 21
XY,114,22 1228 20
DLACPY,114,23 1228 19
XY,115,22 1228 18
DLACPY,115,23 1228 17
XY,116,22 1291 16
DLACPY,116,23 1291 15
XY,117,22 1291 14
DLACPY,117,23 1291 13
XY,118,22 1291 12
DLACPY,118,23 1291 11
XY,119,22 1291 10
DLACPY,119,23 1291 9
XY,120,22 1293 8
DLACPY,120,23 1293 7
XY,121,22 1293 6
DLACPY,121,23 1293 5
XY,122,22 1293 4
DLACPY,122,23 1293 3
XY,123,22 1293 2
DLACPY,123,23 1293 1
