490 1
492 2
493 4
494 6
495 8
496 10
497 12
498 14
499 16
500 18
501 20
502 22
503 24
504 26
505 28
506 30
507 32
508 34
509 36
510 38
511 40
512 42
513 44
514 46
515 48
516 50
517 52
518 54
519 56
520 58
521 60
522 62
523 64
524 66
525 68
526 70
527 72
528 74
529 76
530 78
531 80
532 82
533 84
534 86
535 88
536 90
537 92
538 94
539 96
540 98
541 100
542 102
543 104
544 106
545 108
546 110
547 112
548 114
549 116
550 118
551 120
552 122
553 124
554 126
555 128
556 130
557 132
558 134
559 136
560 138
561 140
562 142
563 144
564 146
565 148
566 150
567 152
568 154
569 156
570 158
571 160
572 162
573 164
574 166
575 168
576 170
577 172
578 174
579 176
580 178
581 180
582 182
583 184
584 186
585 188
586 190
587 192
588 194
589 196
590 198
591 200
592 202
593 204
594 206
595 208
596 210
597 212
598 214
599 216
600 218
601 220
602 222
603 224
604 226
605 228
606 230
607 232
608 234
609 236
610 238
611 240
612 242
613 244
614 246
615 248
616 250
617 252
618 254
619 256
620 258
621 260
622 262
623 264
624 266
625 268
626 270
627 272
628 274
629 276
630 278
631 280
632 282
633 284
634 286
635 288
636 290
637 292
638 294
639 296
640 298
641 300
642 302
643 304
644 306
645 308
646 310
647 312
648 314
649 316
650 318
651 320
652 322
653 324
654 326
655 328
656 330
657 332
658 334
659 336
660 338
661 340
662 342
663 344
664 346
665 348
666 350
667 352
668 354
669 356
670 358
671 360
672 362
673 364
674 366
675 368
676 370
677 372
678 374
679 376
680 378
681 380
682 382
683 384
684 386
685 388
686 390
687 392
688 394
689 396
690 398
691 400
692 402
693 404
694 406
695 408
696 410
697 412
698 414
699 416
700 418
701 420
702 422
703 424
704 426
705 428
706 430
707 432
708 434
709 436
710 438
711 440
712 442
713 444
714 446
715 448
716 450
717 452
718 454
719 456
720 458
721 460
722 462
723 464
724 466
725 468
726 470
727 472
728 474
729 476
730 478
731 480
732 482
733 484
734 486
735 488
982 981
984 983
1229 985
1475 1719
1476 1231
1477 1232
1478 1233
1479 1234
1480 1235
1481 1236
1482 1237
1483 1238
1484 1239
1485 1240
1486 1241
1487 1242
1488 1243
1489 1244
1490 1245
1491 1246
1492 1247
1493 1248
1494 1249
1495 1250
1496 1251
1497 1252
1498 1253
1499 1254
1500 1255
1501 1256
1502 1257
1503 1258
1504 1259
1505 1260
1506 1261
1507 1262
1508 1263
1509 1264
1510 1265
1511 1266
1512 1267
1513 1268
1514 1269
1515 1270
1516 1271
1517 1272
1518 1273
1519 1274
1520 1275
1521 1276
1522 1277
1523 1278
1524 1279
1525 1280
1526 1281
1527 1282
1528 1283
1529 1284
1530 1285
1531 1286
1532 1287
1533 1288
1534 1289
1535 1290
1536 1291
1537 1292
1538 1293
1539 1294
1540 1295
1541 1296
1542 1297
1543 1298
1544 1299
1545 1300
1546 1301
1547 1302
1548 1303
1549 1304
1550 1305
1551 1306
1552 1307
1553 1308
1554 1309
1555 1310
1556 1311
1557 1312
1558 1313
1559 1314
1560 1315
1561 1316
1562 1317
1563 1318
1564 1319
1565 1320
1566 1321
1567 1322
1568 1323
1569 1324
1570 1325
1571 1326
1572 1327
1573 1328
1574 1329
1575 1330
1576 1331
1577 1332
1578 1333
1579 1334
1580 1335
1581 1336
1582 1337
1583 1338
1584 1339
1585 1340
1586 1341
1587 1342
1588 1343
1589 1344
1590 1345
1591 1346
1592 1347
1593 1348
1594 1349
1595 1350
1596 1351
1597 1352
1598 1353
1599 1354
1600 1355
1601 1356
1602 1357
1603 1358
1604 1359
1605 1360
1606 1361
1607 1362
1608 1363
1609 1364
1610 1365
1611 1366
1612 1367
1613 1368
1614 1369
1615 1370
1616 1371
1617 1372
1618 1373
1619 1374
1620 1375
1621 1376
1622 1377
1623 1378
1624 1379
1625 1380
1626 1381
1627 1382
1628 1383
1629 1384
1630 1385
1631 1386
1632 1387
1633 1388
1634 1389
1635 1390
1636 1391
1637 1392
1638 1393
1639 1394
1640 1395
1641 1396
1642 1397
1643 1398
1644 1399
1645 1400
1646 1401
1647 1402
1648 1403
1649 1404
1650 1405
1651 1406
1652 1407
1653 1408
1654 1409
1655 1410
1656 1411
1657 1412
1658 1413
1659 1414
1660 1415
1661 1416
1662 1417
1663 1418
1664 1419
1665 1420
1666 1421
1667 1422
1668 1423
1669 1424
1670 1425
1671 1426
1672 1427
1673 1428
1674 1429
1675 1430
1676 1431
1677 1432
1678 1433
1679 1434
1680 1435
1681 1436
1682 1437
1683 1438
1684 1439
1685 1440
1686 1441
1687 1442
1688 1443
1689 1444
1690 1445
1691 1446
1692 1447
1693 1448
1694 1449
1695 1450
1696 1451
1697 1452
1698 1453
1699 1454
1700 1455
1701 1456
1702 1457
1703 1458
1704 1459
1705 1460
1706 1461
1707 1462
1708 1463
1709 1464
1710 1465
1711 1466
1712 1467
1713 1468
1714 1469
1715 1470
1716 1471
1717 1472
1718 1473
1965 1720
1966 1721
2211 2456
2212 2457
2213 2458
2214 2459
2215 2460
2216 2461
2217 2462
2218 2463
2219 2464
2220 2465
2221 2466
2222 2467
2223 2468
2224 2469
2225 2470
2226 2471
2227 2472
2228 2473
2229 2474
2230 2475
2231 2476
2232 2477
2233 2478
2234 2479
2235 2480
2236 2481
2237 2482
2238 2483
2239 2484
2240 2485
2241 2486
2242 2487
2243 2488
2244 2489
2245 2490
2246 2491
2247 2492
2248 2493
2249 2494
2250 2495
2251 2496
2252 2497
2253 2498
2254 2499
2255 2500
2256 2501
2257 2502
2258 2503
2259 2504
2260 2505
2261 2506
2262 2507
2263 2508
2264 2509
2265 2510
2266 2511
2267 2512
2268 2513
2269 2514
2270 2515
2271 2516
2272 2517
2273 2518
2274 2519
2275 2520
2276 2521
2277 2522
2278 2523
2279 2524
2280 2525
2281 2526
2282 2527
2283 2528
2284 2529
2285 2530
2286 2531
2287 2532
2288 2533
2289 2534
2290 2535
2291 2536
2292 2537
2293 2538
2294 2539
2295 2540
2296 2541
2297 2542
2298 2543
2299 2544
2300 2545
2301 2546
2302 2547
2303 2548
2304 2549
2305 2550
2306 2551
2307 2552
2308 2553
2309 2554
2310 2555
2311 2556
2312 2557
2313 2558
2314 2559
2315 2560
2316 2561
2317 2562
2318 2563
2319 2564
2320 2565
2321 2566
2322 2567
2323 2568
2324 2569
2325 2570
2326 2571
2327 2572
2328 2573
2329 2574
2330 2575
2331 2576
2332 2577
2333 2578
2334 2579
2335 2580
2336 2581
2337 2582
2338 2583
2339 2584
2340 2585
2341 2586
2342 2587
2343 2588
2344 2589
2345 2590
2346 2591
2347 2592
2348 2593
2349 2594
2350 2595
2351 2596
2352 2597
2353 2598
2354 2599
2355 2600
2356 2601
2357 2602
2358 2603
2359 2604
2360 2605
2361 2606
2362 2607
2363 2608
2364 2609
2365 2610
2366 2611
2367 2612
2368 2613
2369 2614
2370 2615
2371 2616
2372 2617
2373 2618
2374 2619
2375 2620
2376 2621
2377 2622
2378 2623
2379 2624
2380 2625
2381 2626
2382 2627
2383 2628
2384 2629
2385 2630
2386 2631
2387 2632
2388 2633
2389 2634
2390 2635
2391 2636
2392 2637
2393 2638
2394 2639
2395 2640
2396 2641
2397 2642
2398 2643
2399 2644
2400 2645
2401 2646
2402 2647
2403 2648
2404 2649
2405 2650
2406 2651
2407 2652
2408 2653
2409 2654
2410 2655
2411 2656
2412 2657
2413 2658
2414 2659
2415 2660
2416 2661
2417 2662
2418 2663
2419 2664
2420 2665
2421 2666
2422 2667
2423 2668
2424 2669
2425 2670
2426 2671
2427 2672
2428 2673
2429 2674
2430 2675
2431 2676
2432 2677
2433 2678
2434 2679
2435 2680
2436 2681
2437 2682
2438 2683
2439 2684
2440 2685
2441 2686
2442 2687
2443 2688
2444 2689
2445 2690
2446 2691
2447 2692
2448 2693
2449 2694
2450 2695
2451 2696
2452 2697
2453 2698
2454 2699
2455 2700
2946 3190
2947 2702
2948 2703
2949 2704
2950 2705
2951 2706
2952 2707
2953 2708
2954 2709
2955 2710
2956 2711
2957 2712
2958 2713
2959 2714
2960 2715
2961 2716
2962 2717
2963 2718
2964 2719
2965 2720
2966 2721
2967 2722
2968 2723
2969 2724
2970 2725
2971 2726
2972 2727
2973 2728
2974 2729
2975 2730
2976 2731
2977 2732
2978 2733
2979 2734
2980 2735
2981 2736
2982 2737
2983 2738
2984 2739
2985 2740
2986 2741
2987 2742
2988 2743
2989 2744
2990 2745
2991 2746
2992 2747
2993 2748
2994 2749
2995 2750
2996 2751
2997 2752
2998 2753
2999 2754
3000 2755
3001 2756
3002 2757
3003 2758
3004 2759
3005 2760
3006 2761
3007 2762
3008 2763
3009 2764
3010 2765
3011 2766
3012 2767
3013 2768
3014 2769
3015 2770
3016 2771
3017 2772
3018 2773
3019 2774
3020 2775
3021 2776
3022 2777
3023 2778
3024 2779
3025 2780
3026 2781
3027 2782
3028 2783
3029 2784
3030 2785
3031 2786
3032 2787
3033 2788
3034 2789
3035 2790
3036 2791
3037 2792
3038 2793
3039 2794
3040 2795
3041 2796
3042 2797
3043 2798
3044 2799
3045 2800
3046 2801
3047 2802
3048 2803
3049 2804
3050 2805
3051 2806
3052 2807
3053 2808
3054 2809
3055 2810
3056 2811
3057 2812
3058 2813
3059 2814
3060 2815
3061 2816
3062 2817
3063 2818
3064 2819
3065 2820
3066 2821
3067 2822
3068 2823
3069 2824
3070 2825
3071 2826
3072 2827
3073 2828
3074 2829
3075 2830
3076 2831
3077 2832
3078 2833
3079 2834
3080 2835
3081 2836
3082 2837
3083 2838
3084 2839
3085 2840
3086 2841
3087 2842
3088 2843
3089 2844
3090 2845
3091 2846
3092 2847
3093 2848
3094 2849
3095 2850
3096 2851
3097 2852
3098 2853
3099 2854
3100 2855
3101 2856
3102 2857
3103 2858
3104 2859
3105 2860
3106 2861
3107 2862
3108 2863
3109 2864
3110 2865
3111 2866
3112 2867
3113 2868
3114 2869
3115 2870
3116 2871
3117 2872
3118 2873
3119 2874
3120 2875
3121 2876
3122 2877
3123 2878
3124 2879
3125 2880
3126 2881
3127 2882
3128 2883
3129 2884
3130 2885
3131 2886
3132 2887
3133 2888
3134 2889
3135 2890
3136 2891
3137 2892
3138 2893
3139 2894
3140 2895
3141 2896
3142 2897
3143 2898
3144 2899
3145 2900
3146 2901
3147 2902
3148 2903
3149 2904
3150 2905
3151 2906
3152 2907
3153 2908
3154 2909
3155 2910
3156 2911
3157 2912
3158 2913
3159 2914
3160 2915
3161 2916
3162 2917
3163 2918
3164 2919
3165 2920
3166 2921
3167 2922
3168 2923
3169 2924
3170 2925
3171 2926
3172 2927
3173 2928
3174 2929
3175 2930
3176 2931
3177 2932
3178 2933
3179 2934
3180 2935
3181 2936
3182 2937
3183 2938
3184 2939
3185 2940
3186 2941
3187 2942
3188 2943
3189 2944
3436 3191
3437 3192
3927 3682
3928 3683
3929 3684
3930 3685
3931 3686
3932 3687
3933 3688
3934 3689
3935 3690
3936 3691
3937 3692
3938 3693
3939 3694
3940 3695
3941 3696
3942 3697
3943 3698
3944 3699
3945 3700
3946 3701
3947 3702
3948 3703
3949 3704
3950 3705
3951 3706
3952 3707
3953 3708
3954 3709
3955 3710
3956 3711
3957 3712
3958 3713
3959 3714
3960 3715
3961 3716
3962 3717
3963 3718
3964 3719
3965 3720
3966 3721
3967 3722
3968 3723
3969 3724
3970 3725
3971 3726
3972 3727
3973 3728
3974 3729
3975 3730
3976 3731
3977 3732
3978 3733
3979 3734
3980 3735
3981 3736
3982 3737
3983 3738
3984 3739
3985 3740
3986 3741
3987 3742
3988 3743
3989 3744
3990 3745
3991 3746
3992 3747
3993 3748
3994 3749
3995 3750
3996 3751
3997 3752
3998 3753
3999 3754
4000 3755
4001 3756
4002 3757
4003 3758
4004 3759
4005 3760
4006 3761
4007 3762
4008 3763
4009 3764
4010 3765
4011 3766
4012 3767
4013 3768
4014 3769
4015 3770
4016 3771
4017 3772
4018 3773
4019 3774
4020 3775
4021 3776
4022 3777
4023 3778
4024 3779
4025 3780
4026 3781
4027 3782
4028 3783
4029 3784
4030 3785
4031 3786
4032 3787
4033 3788
4034 3789
4035 3790
4036 3791
4037 3792
4038 3793
4039 3794
4040 3795
4041 3796
4042 3797
4043 3798
4044 3799
4045 3800
4046 3801
4047 3802
4048 3803
4049 3804
4050 3805
4051 3806
4052 3807
4053 3808
4054 3809
4055 3810
4056 3811
4057 3812
4058 3813
4059 3814
4060 3815
4061 3816
4062 3817
4063 3818
4064 3819
4065 3820
4066 3821
4067 3822
4068 3823
4069 3824
4070 3825
4071 3826
4072 3827
4073 3828
4074 3829
4075 3830
4076 3831
4077 3832
4078 3833
4079 3834
4080 3835
4081 3836
4082 3837
4083 3838
4084 3839
4085 3840
4086 3841
4087 3842
4088 3843
4089 3844
4090 3845
4091 3846
4092 3847
4093 3848
4094 3849
4095 3850
4096 3851
4097 3852
4098 3853
4099 3854
4100 3855
4101 3856
4102 3857
4103 3858
4104 3859
4105 3860
4106 3861
4107 3862
4108 3863
4109 3864
4110 3865
4111 3866
4112 3867
4113 3868
4114 3869
4115 3870
4116 3871
4117 3872
4118 3873
4119 3874
4120 3875
4121 3876
4122 3877
4123 3878
4124 3879
4125 3880
4126 3881
4127 3882
4128 3883
4129 3884
4130 3885
4131 3886
4132 3887
4133 3888
4134 3889
4135 3890
4136 3891
4137 3892
4138 3893
4139 3894
4140 3895
4141 3896
4142 3897
4143 3898
4144 3899
4145 3900
4146 3901
4147 3902
4148 3903
4149 3904
4150 3905
4151 3906
4152 3907
4153 3908
4154 3909
4155 3910
4156 3911
4157 3912
4158 3913
4159 3914
4160 3915
4161 3916
4162 3917
4163 3918
4164 3919
4165 3920
4166 3921
4167 3922
4168 3923
4169 3924
4170 3925
4171 3926
4417 4418
4662 4663
4908 4909
5153 5154
5398 5399
5644 4907
5645 5889
5646 3193
5647 3194
5648 3195
5649 3196
5650 3197
5651 3198
5652 3199
5653 3200
5654 3201
5655 3202
5656 3203
5657 3204
5658 3205
5659 3206
5660 3207
5661 3208
5662 3209
5663 3210
5664 3211
5665 3212
5666 3213
5667 3214
5668 3215
5669 3216
5670 3217
5671 3218
5672 3219
5673 3220
5674 3221
5675 3222
5676 3223
5677 3224
5678 3225
5679 3226
5680 3227
5681 3228
5682 3229
5683 3230
5684 3231
5685 3232
5686 3233
5687 3234
5688 3235
5689 3236
5690 3237
5691 3238
5692 3239
5693 3240
5694 3241
5695 3242
5696 3243
5697 3244
5698 3245
5699 3246
5700 3247
5701 3248
5702 3249
5703 3250
5704 3251
5705 3252
5706 3253
5707 3254
5708 3255
5709 3256
5710 3257
5711 3258
5712 3259
5713 3260
5714 3261
5715 3262
5716 3263
5717 3264
5718 3265
5719 3266
5720 3267
5721 3268
5722 3269
5723 3270
5724 3271
5725 3272
5726 3273
5727 3274
5728 3275
5729 3276
5730 3277
5731 3278
5732 3279
5733 3280
5734 3281
5735 3282
5736 3283
5737 3284
5738 3285
5739 3286
5740 3287
5741 3288
5742 3289
5743 3290
5744 3291
5745 3292
5746 3293
5747 3294
5748 3295
5749 3296
5750 3297
5751 3298
5752 3299
5753 3300
5754 3301
5755 3302
5756 3303
5757 3304
5758 3305
5759 3306
5760 3307
5761 3308
5762 3309
5763 3310
5764 3311
5765 3312
5766 3313
5767 3314
5768 3315
5769 3316
5770 3317
5771 3318
5772 3319
5773 3320
5774 3321
5775 3322
5776 3323
5777 3324
5778 3325
5779 3326
5780 3327
5781 3328
5782 3329
5783 3330
5784 3331
5785 3332
5786 3333
5787 3334
5788 3335
5789 3336
5790 3337
5791 3338
5792 3339
5793 3340
5794 3341
5795 3342
5796 3343
5797 3344
5798 3345
5799 3346
5800 3347
5801 3348
5802 3349
5803 3350
5804 3351
5805 3352
5806 3353
5807 3354
5808 3355
5809 3356
5810 3357
5811 3358
5812 3359
5813 3360
5814 3361
5815 3362
5816 3363
5817 3364
5818 3365
5819 3366
5820 3367
5821 3368
5822 3369
5823 3370
5824 3371
5825 3372
5826 3373
5827 3374
5828 3375
5829 3376
5830 3377
5831 3378
5832 3379
5833 3380
5834 3381
5835 3382
5836 3383
5837 3384
5838 3385
5839 3386
5840 3387
5841 3388
5842 3389
5843 3390
5844 3391
5845 3392
5846 3393
5847 3394
5848 3395
5849 3396
5850 3397
5851 3398
5852 3399
5853 3400
5854 3401
5855 3402
5856 3403
5857 3404
5858 3405
5859 3406
5860 3407
5861 3408
5862 3409
5863 3410
5864 3411
5865 3412
5866 3413
5867 3414
5868 3415
5869 3416
5870 3417
5871 3418
5872 3419
5873 3420
5874 3421
5875 3422
5876 3423
5877 3424
5878 3425
5879 3426
5880 3427
5881 3428
5882 3429
5883 3430
5884 3431
5885 3432
5886 3433
5887 3434
5888 3435
5890 6134
5891 1722
5892 1723
5893 1724
5894 1725
5895 1726
5896 1727
5897 1728
5898 1729
5899 1730
5900 1731
5901 1732
5902 1733
5903 1734
5904 1735
5905 1736
5906 1737
5907 1738
5908 1739
5909 1740
5910 1741
5911 1742
5912 1743
5913 1744
5914 1745
5915 1746
5916 1747
5917 1748
5918 1749
5919 1750
5920 1751
5921 1752
5922 1753
5923 1754
5924 1755
5925 1756
5926 1757
5927 1758
5928 1759
5929 1760
5930 1761
5931 1762
5932 1763
5933 1764
5934 1765
5935 1766
5936 1767
5937 1768
5938 1769
5939 1770
5940 1771
5941 1772
5942 1773
5943 1774
5944 1775
5945 1776
5946 1777
5947 1778
5948 1779
5949 1780
5950 1781
5951 1782
5952 1783
5953 1784
5954 1785
5955 1786
5956 1787
5957 1788
5958 1789
5959 1790
5960 1791
5961 1792
5962 1793
5963 1794
5964 1795
5965 1796
5966 1797
5967 1798
5968 1799
5969 1800
5970 1801
5971 1802
5972 1803
5973 1804
5974 1805
5975 1806
5976 1807
5977 1808
5978 1809
5979 1810
5980 1811
5981 1812
5982 1813
5983 1814
5984 1815
5985 1816
5986 1817
5987 1818
5988 1819
5989 1820
5990 1821
5991 1822
5992 1823
5993 1824
5994 1825
5995 1826
5996 1827
5997 1828
5998 1829
5999 1830
6000 1831
6001 1832
6002 1833
6003 1834
6004 1835
6005 1836
6006 1837
6007 1838
6008 1839
6009 1840
6010 1841
6011 1842
6012 1843
6013 1844
6014 1845
6015 1846
6016 1847
6017 1848
6018 1849
6019 1850
6020 1851
6021 1852
6022 1853
6023 1854
6024 1855
6025 1856
6026 1857
6027 1858
6028 1859
6029 1860
6030 1861
6031 1862
6032 1863
6033 1864
6034 1865
6035 1866
6036 1867
6037 1868
6038 1869
6039 1870
6040 1871
6041 1872
6042 1873
6043 1874
6044 1875
6045 1876
6046 1877
6047 1878
6048 1879
6049 1880
6050 1881
6051 1882
6052 1883
6053 1884
6054 1885
6055 1886
6056 1887
6057 1888
6058 1889
6059 1890
6060 1891
6061 1892
6062 1893
6063 1894
6064 1895
6065 1896
6066 1897
6067 1898
6068 1899
6069 1900
6070 1901
6071 1902
6072 1903
6073 1904
6074 1905
6075 1906
6076 1907
6077 1908
6078 1909
6079 1910
6080 1911
6081 1912
6082 1913
6083 1914
6084 1915
6085 1916
6086 1917
6087 1918
6088 1919
6089 1920
6090 1921
6091 1922
6092 1923
6093 1924
6094 1925
6095 1926
6096 1927
6097 1928
6098 1929
6099 1930
6100 1931
6101 1932
6102 1933
6103 1934
6104 1935
6105 1936
6106 1937
6107 1938
6108 1939
6109 1940
6110 1941
6111 1942
6112 1943
6113 1944
6114 1945
6115 1946
6116 1947
6117 1948
6118 1949
6119 1950
6120 1951
6121 1952
6122 1953
6123 1954
6124 1955
6125 1956
6126 1957
6127 1958
6128 1959
6129 1960
6130 1961
6131 1962
6132 1963
6133 1964
6136 6381
6137 6382
6138 6383
6139 6384
6140 6385
6141 6386
6142 6387
6143 6388
6144 6389
6145 6390
6146 6391
6147 6392
6148 6393
6149 6394
6150 6395
6151 6396
6152 6397
6153 6398
6154 6399
6155 6400
6156 6401
6157 6402
6158 6403
6159 6404
6160 6405
6161 6406
6162 6407
6163 6408
6164 6409
6165 6410
6166 6411
6167 6412
6168 6413
6169 6414
6170 6415
6171 6416
6172 6417
6173 6418
6174 6419
6175 6420
6176 6421
6177 6422
6178 6423
6179 6424
6180 6425
6181 6426
6182 6427
6183 6428
6184 6429
6185 6430
6186 6431
6187 6432
6188 6433
6189 6434
6190 6435
6191 6436
6192 6437
6193 6438
6194 6439
6195 6440
6196 6441
6197 6442
6198 6443
6199 6444
6200 6445
6201 6446
6202 6447
6203 6448
6204 6449
6205 6450
6206 6451
6207 6452
6208 6453
6209 6454
6210 6455
6211 6456
6212 6457
6213 6458
6214 6459
6215 6460
6216 6461
6217 6462
6218 6463
6219 6464
6220 6465
6221 6466
6222 6467
6223 6468
6224 6469
6225 6470
6226 6471
6227 6472
6228 6473
6229 6474
6230 6475
6231 6476
6232 6477
6233 6478
6234 6479
6235 6480
6236 6481
6237 6482
6238 6483
6239 6484
6240 6485
6241 6486
6242 6487
6243 6488
6244 6489
6245 6490
6246 6491
6247 6492
6248 6493
6249 6494
6250 6495
6251 6496
6252 6497
6253 6498
6254 6499
6255 6500
6256 6501
6257 6502
6258 6503
6259 6504
6260 6505
6261 6506
6262 6507
6263 6508
6264 6509
6265 6510
6266 6511
6267 6512
6268 6513
6269 6514
6270 6515
6271 6516
6272 6517
6273 6518
6274 6519
6275 6520
6276 6521
6277 6522
6278 6523
6279 6524
6280 6525
6281 6526
6282 6527
6283 6528
6284 6529
6285 6530
6286 6531
6287 6532
6288 6533
6289 6534
6290 6535
6291 6536
6292 6537
6293 6538
6294 6539
6295 6540
6296 6541
6297 6542
6298 6543
6299 6544
6300 6545
6301 6546
6302 6547
6303 6548
6304 6549
6305 6550
6306 6551
6307 6552
6308 6553
6309 6554
6310 6555
6311 6556
6312 6557
6313 6558
6314 6559
6315 6560
6316 6561
6317 6562
6318 6563
6319 6564
6320 6565
6321 6566
6322 6567
6323 6568
6324 6569
6325 6570
6326 6571
6327 6572
6328 6573
6329 6574
6330 6575
6331 6576
6332 6577
6333 6578
6334 6579
6335 6580
6336 6581
6337 6582
6338 6583
6339 6584
6340 6585
6341 6586
6342 6587
6343 6588
6344 6589
6345 6590
6346 6591
6347 6592
6348 6593
6349 6594
6350 6595
6351 6596
6352 6597
6353 6598
6354 6599
6355 6600
6356 6601
6357 6602
6358 6603
6359 6604
6360 6605
6361 6606
6362 6607
6363 6608
6364 6609
6365 6610
6366 6611
6367 6612
6368 6613
6369 6614
6370 6615
6371 6616
6372 6617
6373 6618
6374 6619
6375 6620
6376 6621
6377 6622
6378 6623
6379 6624
6380 6625
6626 6871
6627 6872
6628 6873
6629 6874
6630 6875
6631 6876
6632 6877
6633 6878
6634 6879
6635 6880
6636 6881
6637 6882
6638 6883
6639 6884
6640 6885
6641 6886
6642 6887
6643 6888
6644 6889
6645 6890
6646 6891
6647 6892
6648 6893
6649 6894
6650 6895
6651 6896
6652 6897
6653 6898
6654 6899
6655 6900
6656 6901
6657 6902
6658 6903
6659 6904
6660 6905
6661 6906
6662 6907
6663 6908
6664 6909
6665 6910
6666 6911
6667 6912
6668 6913
6669 6914
6670 6915
6671 6916
6672 6917
6673 6918
6674 6919
6675 6920
6676 6921
6677 6922
6678 6923
6679 6924
6680 6925
6681 6926
6682 6927
6683 6928
6684 6929
6685 6930
6686 6931
6687 6932
6688 6933
6689 6934
6690 6935
6691 6936
6692 6937
6693 6938
6694 6939
6695 6940
6696 6941
6697 6942
6698 6943
6699 6944
6700 6945
6701 6946
6702 6947
6703 6948
6704 6949
6705 6950
6706 6951
6707 6952
6708 6953
6709 6954
6710 6955
6711 6956
6712 6957
6713 6958
6714 6959
6715 6960
6716 6961
6717 6962
6718 6963
6719 6964
6720 6965
6721 6966
6722 6967
6723 6968
6724 6969
6725 6970
6726 6971
6727 6972
6728 6973
6729 6974
6730 6975
6731 6976
6732 6977
6733 6978
6734 6979
6735 6980
6736 6981
6737 6982
6738 6983
6739 6984
6740 6985
6741 6986
6742 6987
6743 6988
6744 6989
6745 6990
6746 6991
6747 6992
6748 6993
6749 6994
6750 6995
6751 6996
6752 6997
6753 6998
6754 6999
6755 7000
6756 7001
6757 7002
6758 7003
6759 7004
6760 7005
6761 7006
6762 7007
6763 7008
6764 7009
6765 7010
6766 7011
6767 7012
6768 7013
6769 7014
6770 7015
6771 7016
6772 7017
6773 7018
6774 7019
6775 7020
6776 7021
6777 7022
6778 7023
6779 7024
6780 7025
6781 7026
6782 7027
6783 7028
6784 7029
6785 7030
6786 7031
6787 7032
6788 7033
6789 7034
6790 7035
6791 7036
6792 7037
6793 7038
6794 7039
6795 7040
6796 7041
6797 7042
6798 7043
6799 7044
6800 7045
6801 7046
6802 7047
6803 7048
6804 7049
6805 7050
6806 7051
6807 7052
6808 7053
6809 7054
6810 7055
6811 7056
6812 7057
6813 7058
6814 7059
6815 7060
6816 7061
6817 7062
6818 7063
6819 7064
6820 7065
6821 7066
6822 7067
6823 7068
6824 7069
6825 7070
6826 7071
6827 7072
6828 7073
6829 7074
6830 7075
6831 7076
6832 7077
6833 7078
6834 7079
6835 7080
6836 7081
6837 7082
6838 7083
6839 7084
6840 7085
6841 7086
6842 7087
6843 7088
6844 7089
6845 7090
6846 7091
6847 7092
6848 7093
6849 7094
6850 7095
6851 7096
6852 7097
6853 7098
6854 7099
6855 7100
6856 7101
6857 7102
6858 7103
6859 7104
6860 7105
6861 7106
6862 7107
6863 7108
6864 7109
6865 7110
6866 7111
6867 7112
6868 7113
6869 7114
7115 6135
7605 6870
