digraph G {
A(0,0)=64;
SpMV(0,0)=64;
A(0,1)=64;
SpMV(0,1)=64;
A(1,0)=64;
SpMV(1,0)=64;
A(1,1)=64;
SpMV(1,1)=64;
X(0)=8;
X(1)=8;
Y(0)=8;
Y(1)=8;
SUM(0)=8;
SUM(1)=8;
SCL(0)=1;
N(0)=8;
N(1)=8;
CPY(0)=8;
CPY(1)=8;
{A(0,0),SpMV(0,0),8*8};
{X(0),SpMV(0,0),8};
{SpMV(0,0),Y(0),8};
{A(0,1),SpMV(0,1),8*8};
{X(1),SpMV(0,1),8};
{SpMV(0,1),Y(0),8};
{A(1,0),SpMV(1,0),8*8};
{X(0),SpMV(1,0),8};
{SpMV(1,0),Y(1),8};
{A(1,1),SpMV(1,1),8*8};
{X(1),SpMV(1,1),8};
{SpMV(1,1),Y(1),8};
{Y(0),SUM(0), 8};
{Y(1),SUM(1), 8};
{SUM(0),SCL(0),1};
{SUM(1),SCL(0),1};
{SCL(0),N(0),1};
{SCL(0),N(1),1};
{N(0),CPY(0),8};
{N(1),CPY(1),8};
}
