



generateDgraph called



i = 0 str = A(0,0) weight = 1.000000
i = 1 str = SpMV(0,0) weight = 1.000000
i = 2 str = A(0,1) weight = 1.000000
i = 3 str = SpMV(0,1) weight = 1.000000
i = 4 str = A(0,2) weight = 1.000000
i = 5 str = SpMV(0,2) weight = 1.000000
i = 6 str = A(0,3) weight = 1.000000
i = 7 str = SpMV(0,3) weight = 1.000000
i = 8 str = A(1,0) weight = 1.000000
i = 9 str = SpMV(1,0) weight = 1.000000
i = 10 str = A(1,1) weight = 1.000000
i = 11 str = SpMV(1,1) weight = 1.000000
i = 12 str = A(1,2) weight = 1.000000
i = 13 str = SpMV(1,2) weight = 1.000000
i = 14 str = A(1,3) weight = 1.000000
i = 15 str = SpMV(1,3) weight = 1.000000
i = 16 str = A(2,0) weight = 1.000000
i = 17 str = SpMV(2,0) weight = 1.000000
i = 18 str = A(2,1) weight = 1.000000
i = 19 str = SpMV(2,1) weight = 1.000000
i = 20 str = A(2,2) weight = 1.000000
i = 21 str = SpMV(2,2) weight = 1.000000
i = 22 str = A(2,3) weight = 1.000000
i = 23 str = SpMV(2,3) weight = 1.000000
i = 24 str = A(3,0) weight = 1.000000
i = 25 str = SpMV(3,0) weight = 1.000000
i = 26 str = A(3,1) weight = 1.000000
i = 27 str = SpMV(3,1) weight = 1.000000
i = 28 str = A(3,2) weight = 1.000000
i = 29 str = SpMV(3,2) weight = 1.000000
i = 30 str = A(3,3) weight = 1.000000
i = 31 str = SpMV(3,3) weight = 1.000000
i = 32 str = X(0) weight = 1.000000
i = 33 str = X(1) weight = 1.000000
i = 34 str = X(2) weight = 1.000000
i = 35 str = X(3) weight = 1.000000
i = 36 str = Y(0) weight = 1.000000
i = 37 str = Y(1) weight = 1.000000
i = 38 str = Y(2) weight = 1.000000
i = 39 str = Y(3) weight = 1.000000
i = 40 str = SUM(0) weight = 1.000000
i = 41 str = SUM(1) weight = 1.000000
i = 42 str = SUM(2) weight = 1.000000
i = 43 str = SUM(3) weight = 1.000000
i = 44 str = SCL(0) weight = 1.000000
i = 45 str = N(0) weight = 1.000000
i = 46 str = N(1) weight = 1.000000
i = 47 str = N(2) weight = 1.000000
i = 48 str = N(3) weight = 1.000000
i = 49 str = CPY(0) weight = 1.000000
i = 50 str = CPY(1) weight = 1.000000
i = 51 str = CPY(2) weight = 1.000000
i = 52 str = CPY(3) weight = 1.000000
v2 = 0 v1 = 1
v2 = 32 v1 = 1
v2 = 1 v1 = 36
v2 = 2 v1 = 3
v2 = 33 v1 = 3
v2 = 3 v1 = 36
v2 = 4 v1 = 5
v2 = 34 v1 = 5
v2 = 5 v1 = 36
v2 = 6 v1 = 7
v2 = 35 v1 = 7
v2 = 7 v1 = 36
v2 = 8 v1 = 9
v2 = 32 v1 = 9
v2 = 9 v1 = 37
v2 = 10 v1 = 11
v2 = 33 v1 = 11
v2 = 11 v1 = 37
v2 = 12 v1 = 13
v2 = 34 v1 = 13
v2 = 13 v1 = 37
v2 = 14 v1 = 15
v2 = 35 v1 = 15
v2 = 15 v1 = 37
v2 = 16 v1 = 17
v2 = 32 v1 = 17
v2 = 17 v1 = 38
v2 = 18 v1 = 19
v2 = 33 v1 = 19
v2 = 19 v1 = 38
v2 = 20 v1 = 21
v2 = 34 v1 = 21
v2 = 21 v1 = 38
v2 = 22 v1 = 23
v2 = 35 v1 = 23
v2 = 23 v1 = 38
v2 = 24 v1 = 25
v2 = 32 v1 = 25
v2 = 25 v1 = 39
v2 = 26 v1 = 27
v2 = 33 v1 = 27
v2 = 27 v1 = 39
v2 = 28 v1 = 29
v2 = 34 v1 = 29
v2 = 29 v1 = 39
v2 = 30 v1 = 31
v2 = 35 v1 = 31
v2 = 31 v1 = 39
v2 = 36 v1 = 40
v2 = 37 v1 = 41
v2 = 38 v1 = 42
v2 = 39 v1 = 43
v2 = 40 v1 = 44
v2 = 41 v1 = 44
v2 = 42 v1 = 44
v2 = 43 v1 = 44
v2 = 44 v1 = 45
v2 = 44 v1 = 46
v2 = 44 v1 = 47
v2 = 44 v1 = 48
v2 = 45 v1 = 49
v2 = 46 v1 = 50
v2 = 47 v1 = 51
v2 = 48 v1 = 52
my vertex count = 53
G.vw[1] = 1.000000 totvw = 1.000000
G.vw[2] = 1.000000 totvw = 2.000000
G.vw[3] = 1.000000 totvw = 3.000000
G.vw[4] = 1.000000 totvw = 4.000000
G.vw[5] = 1.000000 totvw = 5.000000
G.vw[6] = 1.000000 totvw = 6.000000
G.vw[7] = 1.000000 totvw = 7.000000
G.vw[8] = 1.000000 totvw = 8.000000
G.vw[9] = 1.000000 totvw = 9.000000
G.vw[10] = 1.000000 totvw = 10.000000
G.vw[11] = 1.000000 totvw = 11.000000
G.vw[12] = 1.000000 totvw = 12.000000
G.vw[13] = 1.000000 totvw = 13.000000
G.vw[14] = 1.000000 totvw = 14.000000
G.vw[15] = 1.000000 totvw = 15.000000
G.vw[16] = 1.000000 totvw = 16.000000
G.vw[17] = 1.000000 totvw = 17.000000
G.vw[18] = 1.000000 totvw = 18.000000
G.vw[19] = 1.000000 totvw = 19.000000
G.vw[20] = 1.000000 totvw = 20.000000
G.vw[21] = 1.000000 totvw = 21.000000
G.vw[22] = 1.000000 totvw = 22.000000
G.vw[23] = 1.000000 totvw = 23.000000
G.vw[24] = 1.000000 totvw = 24.000000
G.vw[25] = 1.000000 totvw = 25.000000
G.vw[26] = 1.000000 totvw = 26.000000
G.vw[27] = 1.000000 totvw = 27.000000
G.vw[28] = 1.000000 totvw = 28.000000
G.vw[29] = 1.000000 totvw = 29.000000
G.vw[30] = 1.000000 totvw = 30.000000
G.vw[31] = 1.000000 totvw = 31.000000
G.vw[32] = 1.000000 totvw = 32.000000
G.vw[33] = 1.000000 totvw = 33.000000
G.vw[34] = 1.000000 totvw = 34.000000
G.vw[35] = 1.000000 totvw = 35.000000
G.vw[36] = 1.000000 totvw = 36.000000
G.vw[37] = 1.000000 totvw = 37.000000
G.vw[38] = 1.000000 totvw = 38.000000
G.vw[39] = 1.000000 totvw = 39.000000
G.vw[40] = 1.000000 totvw = 40.000000
G.vw[41] = 1.000000 totvw = 41.000000
G.vw[42] = 1.000000 totvw = 42.000000
G.vw[43] = 1.000000 totvw = 43.000000
G.vw[44] = 1.000000 totvw = 44.000000
G.vw[45] = 1.000000 totvw = 45.000000
G.vw[46] = 1.000000 totvw = 46.000000
G.vw[47] = 1.000000 totvw = 47.000000
G.vw[48] = 1.000000 totvw = 48.000000
G.vw[49] = 1.000000 totvw = 49.000000
G.vw[50] = 1.000000 totvw = 50.000000
G.vw[51] = 1.000000 totvw = 51.000000
G.vw[52] = 1.000000 totvw = 52.000000
G.vw[53] = 1.000000 totvw = 53.000000
ecIn[0] = 65536.000000
ecIn[1] = 256.000000
ecIn[2] = 256.000000
ecIn[3] = 65536.000000
ecIn[4] = 256.000000
ecIn[5] = 256.000000
ecIn[6] = 65536.000000
ecIn[7] = 256.000000
ecIn[8] = 256.000000
ecIn[9] = 65536.000000
ecIn[10] = 256.000000
ecIn[11] = 256.000000
ecIn[12] = 65536.000000
ecIn[13] = 256.000000
ecIn[14] = 256.000000
ecIn[15] = 65536.000000
ecIn[16] = 256.000000
ecIn[17] = 256.000000
ecIn[18] = 65536.000000
ecIn[19] = 256.000000
ecIn[20] = 256.000000
ecIn[21] = 65536.000000
ecIn[22] = 256.000000
ecIn[23] = 256.000000
ecIn[24] = 65536.000000
ecIn[25] = 256.000000
ecIn[26] = 256.000000
ecIn[27] = 65536.000000
ecIn[28] = 256.000000
ecIn[29] = 256.000000
ecIn[30] = 65536.000000
ecIn[31] = 256.000000
ecIn[32] = 256.000000
ecIn[33] = 65536.000000
ecIn[34] = 256.000000
ecIn[35] = 256.000000
ecIn[36] = 65536.000000
ecIn[37] = 256.000000
ecIn[38] = 256.000000
ecIn[39] = 65536.000000
ecIn[40] = 256.000000
ecIn[41] = 256.000000
ecIn[42] = 65536.000000
ecIn[43] = 256.000000
ecIn[44] = 256.000000
ecIn[45] = 65536.000000
ecIn[46] = 256.000000
ecIn[47] = 256.000000
ecIn[48] = 256.000000
ecIn[49] = 256.000000
ecIn[50] = 256.000000
ecIn[51] = 256.000000
ecIn[52] = 1.000000
ecIn[53] = 1.000000
ecIn[54] = 1.000000
ecIn[55] = 1.000000
ecIn[56] = 1.000000
ecIn[57] = 1.000000
ecIn[58] = 1.000000
ecIn[59] = 1.000000
ecIn[60] = 256.000000
ecIn[61] = 256.000000
ecIn[62] = 256.000000
ecIn[63] = 256.000000
in filloutformin vertex = 53 edges = 64
outstart[0] = 0
outstart[1] = 1
outstart[2] = 2
outstart[3] = 3
outstart[4] = 4
outstart[5] = 5
outstart[6] = 6
outstart[7] = 7
outstart[8] = 8
outstart[9] = 9
outstart[10] = 10
outstart[11] = 11
outstart[12] = 12
outstart[13] = 13
outstart[14] = 14
outstart[15] = 15
outstart[16] = 16
outstart[17] = 17
outstart[18] = 18
outstart[19] = 19
outstart[20] = 20
outstart[21] = 21
outstart[22] = 22
outstart[23] = 23
outstart[24] = 24
outstart[25] = 25
outstart[26] = 26
outstart[27] = 27
outstart[28] = 28
outstart[29] = 29
outstart[30] = 30
outstart[31] = 31
outstart[32] = 32
outstart[33] = 36
outstart[34] = 40
outstart[35] = 44
outstart[36] = 48
outstart[37] = 49
outstart[38] = 50
outstart[39] = 51
outstart[40] = 52
outstart[41] = 53
outstart[42] = 54
outstart[43] = 55
outstart[44] = 56
outstart[45] = 60
outstart[46] = 61
outstart[47] = 62
outstart[48] = 63
outstart[49] = 64
outstart[50] = 64
outstart[51] = 64
outstart[52] = 64
outstart[53] = 64
outstart[54] = 64
out[0] = 2
ecout[0] = ecin[0] = 65536.000000
out[35] = 2
ecout[35] = ecin[1] = 256.000000
out[2] = 4
ecout[2] = ecin[2] = 256.000000
out[39] = 4
ecout[39] = ecin[3] = 65536.000000
out[4] = 6
ecout[4] = ecin[4] = 256.000000
out[43] = 6
ecout[43] = ecin[5] = 256.000000
out[6] = 8
ecout[6] = ecin[6] = 65536.000000
out[47] = 8
ecout[47] = ecin[7] = 256.000000
out[8] = 10
ecout[8] = ecin[8] = 256.000000
out[34] = 10
ecout[34] = ecin[9] = 65536.000000
out[10] = 12
ecout[10] = ecin[10] = 256.000000
out[38] = 12
ecout[38] = ecin[11] = 256.000000
out[12] = 14
ecout[12] = ecin[12] = 65536.000000
out[42] = 14
ecout[42] = ecin[13] = 256.000000
out[14] = 16
ecout[14] = ecin[14] = 256.000000
out[46] = 16
ecout[46] = ecin[15] = 65536.000000
out[16] = 18
ecout[16] = ecin[16] = 256.000000
out[33] = 18
ecout[33] = ecin[17] = 256.000000
out[18] = 20
ecout[18] = ecin[18] = 65536.000000
out[37] = 20
ecout[37] = ecin[19] = 256.000000
out[20] = 22
ecout[20] = ecin[20] = 256.000000
out[41] = 22
ecout[41] = ecin[21] = 65536.000000
out[22] = 24
ecout[22] = ecin[22] = 256.000000
out[45] = 24
ecout[45] = ecin[23] = 256.000000
out[24] = 26
ecout[24] = ecin[24] = 65536.000000
out[32] = 26
ecout[32] = ecin[25] = 256.000000
out[26] = 28
ecout[26] = ecin[26] = 256.000000
out[36] = 28
ecout[36] = ecin[27] = 65536.000000
out[28] = 30
ecout[28] = ecin[28] = 256.000000
out[40] = 30
ecout[40] = ecin[29] = 256.000000
out[30] = 32
ecout[30] = ecin[30] = 65536.000000
out[44] = 32
ecout[44] = ecin[31] = 256.000000
out[1] = 37
ecout[1] = ecin[32] = 256.000000
out[3] = 37
ecout[3] = ecin[33] = 65536.000000
out[5] = 37
ecout[5] = ecin[34] = 256.000000
out[7] = 37
ecout[7] = ecin[35] = 256.000000
out[9] = 38
ecout[9] = ecin[36] = 65536.000000
out[11] = 38
ecout[11] = ecin[37] = 256.000000
out[13] = 38
ecout[13] = ecin[38] = 256.000000
out[15] = 38
ecout[15] = ecin[39] = 65536.000000
out[17] = 39
ecout[17] = ecin[40] = 256.000000
out[19] = 39
ecout[19] = ecin[41] = 256.000000
out[21] = 39
ecout[21] = ecin[42] = 65536.000000
out[23] = 39
ecout[23] = ecin[43] = 256.000000
out[25] = 40
ecout[25] = ecin[44] = 256.000000
out[27] = 40
ecout[27] = ecin[45] = 65536.000000
out[29] = 40
ecout[29] = ecin[46] = 256.000000
out[31] = 40
ecout[31] = ecin[47] = 256.000000
out[48] = 41
ecout[48] = ecin[48] = 256.000000
out[49] = 42
ecout[49] = ecin[49] = 256.000000
out[50] = 43
ecout[50] = ecin[50] = 256.000000
out[51] = 44
ecout[51] = ecin[51] = 256.000000
out[52] = 45
ecout[52] = ecin[52] = 1.000000
out[53] = 45
ecout[53] = ecin[53] = 1.000000
out[54] = 45
ecout[54] = ecin[54] = 1.000000
out[55] = 45
ecout[55] = ecin[55] = 1.000000
out[59] = 46
ecout[59] = ecin[56] = 1.000000
out[58] = 47
ecout[58] = ecin[57] = 1.000000
out[57] = 48
ecout[57] = ecin[58] = 1.000000
out[56] = 49
ecout[56] = ecin[59] = 1.000000
out[60] = 50
ecout[60] = ecin[60] = 256.000000
out[61] = 51
ecout[61] = ecin[61] = 256.000000
out[62] = 52
ecout[62] = ecin[62] = 256.000000
out[63] = 53
ecout[63] = ecin[63] = 256.000000
out[0] = 2
out[1] = 37
out[2] = 4
out[3] = 37
out[4] = 6
out[5] = 37
out[6] = 8
out[7] = 37
out[8] = 10
out[9] = 38
out[10] = 12
out[11] = 38
out[12] = 14
out[13] = 38
out[14] = 16
out[15] = 38
out[16] = 18
out[17] = 39
out[18] = 20
out[19] = 39
out[20] = 22
out[21] = 39
out[22] = 24
out[23] = 39
out[24] = 26
out[25] = 40
out[26] = 28
out[27] = 40
out[28] = 30
out[29] = 40
out[30] = 32
out[31] = 40
out[32] = 26
out[33] = 18
out[34] = 10
out[35] = 2
out[36] = 28
out[37] = 20
out[38] = 12
out[39] = 4
out[40] = 30
out[41] = 22
out[42] = 14
out[43] = 6
out[44] = 32
out[45] = 24
out[46] = 16
out[47] = 8
out[48] = 41
out[49] = 42
out[50] = 43
out[51] = 44
out[52] = 45
out[53] = 45
out[54] = 45
out[55] = 45
out[56] = 49
out[57] = 48
out[58] = 47
out[59] = 46
out[60] = 50
out[61] = 51
out[62] = 52
out[63] = 53
maxIndegree = 4	 minindegree =  0
 maxoutdegree =  4	  minoutdegree = 0
 avgindegree = 1.207547	 avgutdegree =  1.207547
graph total weight = 53.000000
out[0] = 2
out[1] = 37
out[2] = 4
out[3] = 37
out[4] = 6
out[5] = 37
out[6] = 8
out[7] = 37
out[8] = 10
out[9] = 38
out[10] = 12
out[11] = 38
out[12] = 14
out[13] = 38
out[14] = 16
out[15] = 38
out[16] = 18
out[17] = 39
out[18] = 20
out[19] = 39
out[20] = 22
out[21] = 39
out[22] = 24
out[23] = 39
out[24] = 26
out[25] = 40
out[26] = 28
out[27] = 40
out[28] = 30
out[29] = 40
out[30] = 32
out[31] = 40
out[32] = 26
out[33] = 18
out[34] = 10
out[35] = 2
out[36] = 28
out[37] = 20
out[38] = 12
out[39] = 4
out[40] = 30
out[41] = 22
out[42] = 14
out[43] = 6
out[44] = 32
out[45] = 24
out[46] = 16
out[47] = 8
out[48] = 41
out[49] = 42
out[50] = 43
out[51] = 44
out[52] = 45
out[53] = 45
out[54] = 45
out[55] = 45
out[56] = 49
out[57] = 48
out[58] = 47
out[59] = 46
out[60] = 50
out[61] = 51
out[62] = 52
out[63] = 53
Nb node: 53
Nb Edges: 64
Nb part: 4
Lower Bound[0]: 1.000000
Targeted Bound[0]: 13.250000

########################## RUN 0 ########################


depth = 1

@In rVcycle nVrtx = 53, nbpart = 4, lb0 = 1.000000, ub0 = 13.250000, lb1 = 1.000000, ub1 = 13.250000
vweight of this part = 0.000000 vertex count = 53
inside my BFS

freed
vertex = 2 incoming edge weight = 65536.000000
vertex = 2 incoming edge weight = 256.000000
vertex = 4 incoming edge weight = 256.000000
vertex = 4 incoming edge weight = 65536.000000
vertex = 6 incoming edge weight = 256.000000
vertex = 6 incoming edge weight = 256.000000
vertex = 8 incoming edge weight = 65536.000000
vertex = 8 incoming edge weight = 256.000000
vertex = 10 incoming edge weight = 256.000000
vertex = 10 incoming edge weight = 65536.000000
vertex = 12 incoming edge weight = 256.000000
vertex = 12 incoming edge weight = 256.000000
vertex = 14 incoming edge weight = 65536.000000
vertex = 14 incoming edge weight = 256.000000
vertex = 16 incoming edge weight = 256.000000
vertex = 16 incoming edge weight = 65536.000000
vertex = 18 incoming edge weight = 256.000000
vertex = 18 incoming edge weight = 256.000000
vertex = 20 incoming edge weight = 65536.000000
vertex = 20 incoming edge weight = 256.000000
vertex = 22 incoming edge weight = 256.000000
vertex = 22 incoming edge weight = 65536.000000
vertex = 24 incoming edge weight = 256.000000
vertex = 24 incoming edge weight = 256.000000
vertex = 26 incoming edge weight = 65536.000000
vertex = 26 incoming edge weight = 256.000000
vertex = 28 incoming edge weight = 256.000000
vertex = 28 incoming edge weight = 65536.000000
vertex = 30 incoming edge weight = 256.000000
vertex = 30 incoming edge weight = 256.000000
vertex = 32 incoming edge weight = 65536.000000
vertex = 32 incoming edge weight = 256.000000
vertex = 37 incoming edge weight = 256.000000
vertex = 37 incoming edge weight = 65536.000000
vertex = 37 incoming edge weight = 256.000000
vertex = 37 incoming edge weight = 256.000000
vertex = 38 incoming edge weight = 65536.000000
vertex = 38 incoming edge weight = 256.000000
vertex = 38 incoming edge weight = 256.000000
vertex = 38 incoming edge weight = 65536.000000
vertex = 39 incoming edge weight = 256.000000
vertex = 39 incoming edge weight = 256.000000
vertex = 39 incoming edge weight = 65536.000000
vertex = 39 incoming edge weight = 256.000000
vertex = 40 incoming edge weight = 256.000000
vertex = 40 incoming edge weight = 65536.000000
vertex = 40 incoming edge weight = 256.000000
vertex = 40 incoming edge weight = 256.000000
vertex = 41 incoming edge weight = 256.000000
vertex = 42 incoming edge weight = 256.000000
vertex = 43 incoming edge weight = 256.000000
vertex = 44 incoming edge weight = 256.000000
vertex = 45 incoming edge weight = 1.000000
vertex = 45 incoming edge weight = 1.000000
vertex = 45 incoming edge weight = 1.000000
vertex = 45 incoming edge weight = 1.000000
vertex = 46 incoming edge weight = 1.000000
vertex = 47 incoming edge weight = 1.000000
vertex = 48 incoming edge weight = 1.000000
vertex = 49 incoming edge weight = 1.000000
vertex = 50 incoming edge weight = 256.000000
vertex = 51 incoming edge weight = 256.000000
vertex = 52 incoming edge weight = 256.000000
vertex = 53 incoming edge weight = 256.000000
vertex = 1 j = 0 outgoing edge weight = 65536.000000
vertex = 2 j = 1 outgoing edge weight = 256.000000
vertex = 3 j = 2 outgoing edge weight = 256.000000
vertex = 4 j = 3 outgoing edge weight = 65536.000000
vertex = 5 j = 4 outgoing edge weight = 256.000000
vertex = 6 j = 5 outgoing edge weight = 256.000000
vertex = 7 j = 6 outgoing edge weight = 65536.000000
vertex = 8 j = 7 outgoing edge weight = 256.000000
vertex = 9 j = 8 outgoing edge weight = 256.000000
vertex = 10 j = 9 outgoing edge weight = 65536.000000
vertex = 11 j = 10 outgoing edge weight = 256.000000
vertex = 12 j = 11 outgoing edge weight = 256.000000
vertex = 13 j = 12 outgoing edge weight = 65536.000000
vertex = 14 j = 13 outgoing edge weight = 256.000000
vertex = 15 j = 14 outgoing edge weight = 256.000000
vertex = 16 j = 15 outgoing edge weight = 65536.000000
vertex = 17 j = 16 outgoing edge weight = 256.000000
vertex = 18 j = 17 outgoing edge weight = 256.000000
vertex = 19 j = 18 outgoing edge weight = 65536.000000
vertex = 20 j = 19 outgoing edge weight = 256.000000
vertex = 21 j = 20 outgoing edge weight = 256.000000
vertex = 22 j = 21 outgoing edge weight = 65536.000000
vertex = 23 j = 22 outgoing edge weight = 256.000000
vertex = 24 j = 23 outgoing edge weight = 256.000000
vertex = 25 j = 24 outgoing edge weight = 65536.000000
vertex = 26 j = 25 outgoing edge weight = 256.000000
vertex = 27 j = 26 outgoing edge weight = 256.000000
vertex = 28 j = 27 outgoing edge weight = 65536.000000
vertex = 29 j = 28 outgoing edge weight = 256.000000
vertex = 30 j = 29 outgoing edge weight = 256.000000
vertex = 31 j = 30 outgoing edge weight = 65536.000000
vertex = 32 j = 31 outgoing edge weight = 256.000000
vertex = 33 j = 32 outgoing edge weight = 256.000000
vertex = 33 j = 33 outgoing edge weight = 256.000000
vertex = 33 j = 34 outgoing edge weight = 65536.000000
vertex = 33 j = 35 outgoing edge weight = 256.000000
vertex = 34 j = 36 outgoing edge weight = 65536.000000
vertex = 34 j = 37 outgoing edge weight = 256.000000
vertex = 34 j = 38 outgoing edge weight = 256.000000
vertex = 34 j = 39 outgoing edge weight = 65536.000000
vertex = 35 j = 40 outgoing edge weight = 256.000000
vertex = 35 j = 41 outgoing edge weight = 65536.000000
vertex = 35 j = 42 outgoing edge weight = 256.000000
vertex = 35 j = 43 outgoing edge weight = 256.000000
vertex = 36 j = 44 outgoing edge weight = 256.000000
vertex = 36 j = 45 outgoing edge weight = 256.000000
vertex = 36 j = 46 outgoing edge weight = 65536.000000
vertex = 36 j = 47 outgoing edge weight = 256.000000
vertex = 37 j = 48 outgoing edge weight = 256.000000
vertex = 38 j = 49 outgoing edge weight = 256.000000
vertex = 39 j = 50 outgoing edge weight = 256.000000
vertex = 40 j = 51 outgoing edge weight = 256.000000
vertex = 41 j = 52 outgoing edge weight = 1.000000
vertex = 42 j = 53 outgoing edge weight = 1.000000
vertex = 43 j = 54 outgoing edge weight = 1.000000
vertex = 44 j = 55 outgoing edge weight = 1.000000
vertex = 45 j = 56 outgoing edge weight = 1.000000
vertex = 45 j = 57 outgoing edge weight = 1.000000
vertex = 45 j = 58 outgoing edge weight = 1.000000
vertex = 45 j = 59 outgoing edge weight = 1.000000
vertex = 46 j = 60 outgoing edge weight = 256.000000
vertex = 47 j = 61 outgoing edge weight = 256.000000
vertex = 48 j = 62 outgoing edge weight = 256.000000
vertex = 49 j = 63 outgoing edge weight = 256.000000
incoming edge weight in this part = 1058824.000000
my dfs for traversal = 53
36 8 37 41 45 46 50 47 51 48 52 49 53 16 38 42 24 39 43 32 40 44 35 6 14 22 30 34 4 12 20 28 33 2 10 18 26 31 29 27 25 23 21 19 17 15 13 11 9 7 5 3 1 
bissection opt.ub[0] = 13.250000 Gweight ub1 = 13.250000
bissection opt.ub[1] = 13.250000 Gweight ub1 = 26.500000
bissection opt.ub[2] = 13.250000 Gweight ub2 = 13.250000
bissection opt.ub[3] = 13.250000 Gweight ub2 = 26.500000
@In recursive nVrtx = 53, nbpart = 2, lb0 = 26.221750, ub0 = 26.778250, lb1 = 26.221750, ub1 = 26.778250
In Vcycle deb nbpart = 2, lb0 = 26.221750, ub0 = 26.778250, lb1 = 26.221750, ub1 = 26.778250


crit in stopping criteria = 53 stop size = 200

In Vcycle before ini part nbpart = 2, lb0 = 26.221750, ub0 = 26.778250, lb1 = 26.221750, ub1 = 26.778250
vertex = 53 
### opt.nbPart = 2
### opt.ub = 26.778250 26.778250 
### opt.lb = 26.221750 26.221750 
### opt.ratio = 1.010500


init partition all algo


coarse graph vertex count = 53

total vw = 53.000000

init DFS totbound = 26.778250 bound[0] = 26.778250


init DFS totbound = 53.556500 bound[1] = 26.778250

kernighan vrtx = 53

lb_pw = 26.221750 ub_pw = 26.778250
 (nbpart = 0)


Exact Kernighan Initial partition cost 179769313486231570814527423731704356798070567525844996598917476803157260780028538760589558632766878171540458953514382464234321326889464182768467546703537516986049910576551282076245490090389328944075868508455133942304583236903222948165808559332123348274797826204144723168738177180919299881250404026184124858368

 (nbpart = 1)
kernighan vrtx = 53

lb_pw = 23.599575 ub_pw = 29.456075
 (nbpart = 2)

After initpartKerDFS partition :

Info:	p:2	min:24	max:29	-->
	i-0	part size 24 - upperboud 26.778250
	i-1	part size 29 - upperboud 26.778250

partsize[0] = 24

partsize[1] = 29
 bad
kernighan vrtx = 53

lb_pw = 27.200968 ub_pw = 27.778250
 (nbpart = 0)


Exact Kernighan Initial partition cost 528640

 (nbpart = 2)
iniPartKerBFS: something wrong!

After initPerKerBFS partition :

Info:	p:2	min:24	max:29	-->
	i-0	part size 24 - upperboud 26.778250
	i-1	part size 29 - upperboud 26.778250

partsize[0] = 24

partsize[1] = 29
 bad
kernighan vrtx = 53

lb_pw = 27.200968 ub_pw = 27.778250
 (nbpart = 0)


Exact Kernighan Initial partition cost 330496

 (nbpart = 2)
iniPartKerMix: something wrong!

After initPerKerMix partition :

Info:	p:2	min:24	max:29	-->
	i-0	part size 24 - upperboud 26.778250
	i-1	part size 29 - upperboud 26.778250

partsize[0] = 24

partsize[1] = 29
 bad
edgecut is called

After initPerForcedBalance partition :

Info:	p:2	min:24	max:29	-->
	i-0	part size 24 - upperboud 26.778250
	i-1	part size 29 - upperboud 26.778250

partsize[0] = 24

partsize[1] = 29
 bad
edgecut is called

After initPerGGG partition :

Info:	p:2	min:24	max:29	-->
	i-0	part size 24 - upperboud 26.778250
	i-1	part size 29 - upperboud 26.778250

partsize[0] = 24

partsize[1] = 29
 bad
edgecut is called

After initPerBFSGrowing partition :

Info:	p:2	min:24	max:29	-->
	i-0	part size 24 - upperboud 26.778250
	i-1	part size 29 - upperboud 26.778250

partsize[0] = 24

partsize[1] = 29
 bad
MetisCut: 1539
edgecut is called
edgecut is called
MetisCut: 1539
MetisCut: 1539
MetisCut: 1539
MetisCut: 1539
Metis cost 254974464

After Metis partition :

Info:	p:2	min:24	max:29	-->
	i-0	part size 24 - upperboud 26.778250
	i-1	part size 29 - upperboud 26.778250

partsize[0] = 24

partsize[1] = 29
 bad


Call print info part from vcycle

Info:	p:2	min:24	max:29	-->
	i-0	part size 24 - upperboud 26.778250
	i-1	part size 29 - upperboud 26.778250

partsize[0] = 24

partsize[1] = 29
 bad



refinement called



PARTSIZES
24, 29, 
UPPERBOUNDS
26.750425, 26.750425, 
============
toporder on parts[0] = 0
toporder on parts[1] = 1
We ran 4 Forced Balance iterations
26, 27, PARTSIZES
edgecut is called
   ref 1	53	64	0	1608517472
Step	Graph Size	Nb Egde	Edge cut	Nb comm
edgecut is called
nbcommunication called
0	53	64	197890	131842	0.000001	0.006809	0.000371
edgecut is called

After coarsen graph nodes = 53
1 = part 1
2 = part 1
3 = part 1
4 = part 1
5 = part 1
6 = part 1
7 = part 1
8 = part 1
9 = part 0
10 = part 0
11 = part 1
12 = part 1
13 = part 1
14 = part 1
15 = part 1
16 = part 1
17 = part 0
18 = part 0
19 = part 0
20 = part 0
21 = part 0
22 = part 0
23 = part 0
24 = part 0
25 = part 0
26 = part 0
27 = part 0
28 = part 0
29 = part 0
30 = part 0
31 = part 0
32 = part 0
33 = part 0
34 = part 0
35 = part 0
36 = part 0
37 = part 1
38 = part 1
39 = part 0
40 = part 0
41 = part 1
42 = part 1
43 = part 0
44 = part 0
45 = part 1
46 = part 1
47 = part 1
48 = part 1
49 = part 1
50 = part 1
51 = part 1
52 = part 1
53 = part 1

partin = 0 partout = 1

changed index of 1 = 1

changed index of 2 = 2

changed index of 3 = 3

changed index of 4 = 4

changed index of 5 = 5

changed index of 6 = 6

changed index of 7 = 7

changed index of 8 = 8

changed index of 9 = 1

changed index of 10 = 2

changed index of 11 = 9

changed index of 12 = 10

changed index of 13 = 11

changed index of 14 = 12

changed index of 15 = 13

changed index of 16 = 14

changed index of 17 = 3

changed index of 18 = 4

changed index of 19 = 5

changed index of 20 = 6

changed index of 21 = 7

changed index of 22 = 8

changed index of 23 = 9

changed index of 24 = 10

changed index of 25 = 11

changed index of 26 = 12

changed index of 27 = 13

changed index of 28 = 14

changed index of 29 = 15

changed index of 30 = 16

changed index of 31 = 17

changed index of 32 = 18

changed index of 33 = 19

changed index of 34 = 20

changed index of 35 = 21

changed index of 36 = 22

changed index of 37 = 15

changed index of 38 = 16

changed index of 39 = 23

changed index of 40 = 24

changed index of 41 = 17

changed index of 42 = 18

changed index of 43 = 25

changed index of 44 = 26

changed index of 45 = 19

changed index of 46 = 20

changed index of 47 = 21

changed index of 48 = 22

changed index of 49 = 23

changed index of 50 = 24

changed index of 51 = 25

changed index of 52 = 26

changed index of 53 = 27
Let's allocate everything, nVrtx1 = 26, nEdge1 = 28, nVrtx2 = 27, nEdge2 = 26, partin = 0, partout = 1
outnode = 1, idx1 = 0, idx2 = 0
outnode = 33, idx1 = 0, idx2 = 1
outnode = 3, idx1 = 0, idx2 = 1
outnode = 34, idx1 = 0, idx2 = 2
outnode = 5, idx1 = 0, idx2 = 2
outnode = 35, idx1 = 0, idx2 = 3
outnode = 7, idx1 = 0, idx2 = 3
outnode = 36, idx1 = 0, idx2 = 4
outnode = 9, idx1 = 0, idx2 = 4
outnode = 33, idx1 = 1, idx2 = 4
outnode = 11, idx1 = 2, idx2 = 4
outnode = 34, idx1 = 2, idx2 = 5
outnode = 13, idx1 = 2, idx2 = 5
outnode = 35, idx1 = 2, idx2 = 6
outnode = 15, idx1 = 2, idx2 = 6
outnode = 36, idx1 = 2, idx2 = 7
outnode = 17, idx1 = 2, idx2 = 7
outnode = 33, idx1 = 3, idx2 = 7
outnode = 19, idx1 = 4, idx2 = 7
outnode = 34, idx1 = 5, idx2 = 7
outnode = 21, idx1 = 6, idx2 = 7
outnode = 35, idx1 = 7, idx2 = 7
outnode = 23, idx1 = 8, idx2 = 7
outnode = 36, idx1 = 9, idx2 = 7
outnode = 25, idx1 = 10, idx2 = 7
outnode = 33, idx1 = 11, idx2 = 7
outnode = 27, idx1 = 12, idx2 = 7
outnode = 34, idx1 = 13, idx2 = 7
outnode = 29, idx1 = 14, idx2 = 7
outnode = 35, idx1 = 15, idx2 = 7
outnode = 31, idx1 = 16, idx2 = 7
outnode = 36, idx1 = 17, idx2 = 7
outnode = 2, idx1 = 18, idx2 = 7
outnode = 4, idx1 = 18, idx2 = 8
outnode = 6, idx1 = 18, idx2 = 9
outnode = 8, idx1 = 18, idx2 = 10
outnode = 10, idx1 = 18, idx2 = 11
outnode = 12, idx1 = 18, idx2 = 11
outnode = 14, idx1 = 18, idx2 = 12
outnode = 16, idx1 = 18, idx2 = 13
outnode = 18, idx1 = 18, idx2 = 14
outnode = 20, idx1 = 19, idx2 = 14
outnode = 22, idx1 = 20, idx2 = 14
outnode = 24, idx1 = 21, idx2 = 14
outnode = 26, idx1 = 22, idx2 = 14
outnode = 28, idx1 = 23, idx2 = 14
outnode = 30, idx1 = 24, idx2 = 14
outnode = 32, idx1 = 25, idx2 = 14
outnode = 37, idx1 = 26, idx2 = 14
outnode = 38, idx1 = 26, idx2 = 15
outnode = 39, idx1 = 26, idx2 = 16
outnode = 40, idx1 = 27, idx2 = 16
outnode = 41, idx1 = 28, idx2 = 16
outnode = 42, idx1 = 28, idx2 = 17
outnode = 43, idx1 = 28, idx2 = 18
outnode = 44, idx1 = 28, idx2 = 18
outnode = 45, idx1 = 28, idx2 = 18
outnode = 45, idx1 = 28, idx2 = 19
outnode = 45, idx1 = 28, idx2 = 20
outnode = 45, idx1 = 28, idx2 = 21
outnode = 46, idx1 = 28, idx2 = 22
outnode = 47, idx1 = 28, idx2 = 23
outnode = 48, idx1 = 28, idx2 = 24
outnode = 49, idx1 = 28, idx2 = 25
in filloutformin vertex = 26 edges = 28
outstart[0] = 0
outstart[1] = 1
outstart[2] = 1
outstart[3] = 2
outstart[4] = 3
outstart[5] = 4
outstart[6] = 5
outstart[7] = 6
outstart[8] = 7
outstart[9] = 8
outstart[10] = 9
outstart[11] = 10
outstart[12] = 11
outstart[13] = 12
outstart[14] = 13
outstart[15] = 14
outstart[16] = 15
outstart[17] = 16
outstart[18] = 17
outstart[19] = 20
outstart[20] = 22
outstart[21] = 24
outstart[22] = 26
outstart[23] = 27
outstart[24] = 28
outstart[25] = 28
outstart[26] = 28
outstart[27] = 28
out[0] = 2
ecout[0] = ecin[0] = 1.000000
out[19] = 2
ecout[19] = ecin[1] = 1.000000
out[1] = 4
ecout[1] = ecin[2] = 1.000000
out[18] = 4
ecout[18] = ecin[3] = 1.000000
out[3] = 6
ecout[3] = ecin[4] = 1.000000
out[21] = 6
ecout[21] = ecin[5] = 1.000000
out[5] = 8
ecout[5] = ecin[6] = 1.000000
out[23] = 8
ecout[23] = ecin[7] = 1.000000
out[7] = 10
ecout[7] = ecin[8] = 1.000000
out[25] = 10
ecout[25] = ecin[9] = 1.000000
out[9] = 12
ecout[9] = ecin[10] = 1.000000
out[17] = 12
ecout[17] = ecin[11] = 1.000000
out[11] = 14
ecout[11] = ecin[12] = 1.000000
out[20] = 14
ecout[20] = ecin[13] = 65536.000000
out[13] = 16
ecout[13] = ecin[14] = 256.000000
out[22] = 16
ecout[22] = ecin[15] = 256.000000
out[15] = 18
ecout[15] = ecin[16] = 1.000000
out[24] = 18
ecout[24] = ecin[17] = 1.000000
out[2] = 23
ecout[2] = ecin[18] = 256.000000
out[4] = 23
ecout[4] = ecin[19] = 1.000000
out[6] = 23
ecout[6] = ecin[20] = 1.000000
out[8] = 23
ecout[8] = ecin[21] = 1.000000
out[10] = 24
ecout[10] = ecin[22] = 1.000000
out[12] = 24
ecout[12] = ecin[23] = 1.000000
out[14] = 24
ecout[14] = ecin[24] = 1.000000
out[16] = 24
ecout[16] = ecin[25] = 1.000000
out[26] = 25
ecout[26] = ecin[26] = 1.000000
out[27] = 26
ecout[27] = ecin[27] = 1.000000
in filloutformin vertex = 27 edges = 26
outstart[0] = 0
outstart[1] = 1
outstart[2] = 2
outstart[3] = 3
outstart[4] = 4
outstart[5] = 5
outstart[6] = 6
outstart[7] = 7
outstart[8] = 8
outstart[9] = 9
outstart[10] = 10
outstart[11] = 11
outstart[12] = 12
outstart[13] = 13
outstart[14] = 14
outstart[15] = 15
outstart[16] = 16
outstart[17] = 17
outstart[18] = 18
outstart[19] = 22
outstart[20] = 23
outstart[21] = 24
outstart[22] = 25
outstart[23] = 26
outstart[24] = 26
outstart[25] = 26
outstart[26] = 26
outstart[27] = 26
outstart[28] = 26
out[0] = 2
ecout[0] = ecin[0] = 1.000000
out[2] = 4
ecout[2] = ecin[1] = 1.000000
out[4] = 6
ecout[4] = ecin[2] = 1.000000
out[6] = 8
ecout[6] = ecin[3] = 1.000000
out[8] = 10
ecout[8] = ecin[4] = 1.000000
out[10] = 12
ecout[10] = ecin[5] = 1.000000
out[12] = 14
ecout[12] = ecin[6] = 1.000000
out[1] = 15
ecout[1] = ecin[7] = 1.000000
out[3] = 15
ecout[3] = ecin[8] = 1.000000
out[5] = 15
ecout[5] = ecin[9] = 1.000000
out[7] = 15
ecout[7] = ecin[10] = 1.000000
out[9] = 16
ecout[9] = ecin[11] = 1.000000
out[11] = 16
ecout[11] = ecin[12] = 1.000000
out[13] = 16
ecout[13] = ecin[13] = 1.000000
out[14] = 17
ecout[14] = ecin[14] = 1.000000
out[15] = 18
ecout[15] = ecin[15] = 1.000000
out[16] = 19
ecout[16] = ecin[16] = 1.000000
out[17] = 19
ecout[17] = ecin[17] = 1.000000
out[21] = 20
ecout[21] = ecin[18] = 1.000000
out[20] = 21
ecout[20] = ecin[19] = 1.000000
out[19] = 22
ecout[19] = ecin[20] = 1.000000
out[18] = 23
ecout[18] = ecin[21] = 1.000000
out[22] = 24
ecout[22] = ecin[22] = 1.000000
out[23] = 25
ecout[23] = ecin[23] = 1.000000
out[24] = 26
ecout[24] = ecin[24] = 1.000000
out[25] = 27
ecout[25] = ecin[25] = 1.000000
NOW REC 1 !!!
G1weight = 26.000000, G2weight = 27.000000, ratio = 1.030000
### opt.nbPart = 2
### opt.ub = 13.250000 13.250000 
### opt.lb = 26.221750 26.221750 
### opt.ratio = 1.030000


depth = 2

@@In rVcycle nVrtx = 26, nbpart = 2, lb0 = 26.221750, ub0 = 13.250000, lb1 = 26.221750, ub1 = 13.250000
vweight of this part = 0.000000 vertex count = 26
inside my BFS

freed
vertex = 2 incoming edge weight = 1.000000
vertex = 2 incoming edge weight = 1.000000
vertex = 4 incoming edge weight = 1.000000
vertex = 4 incoming edge weight = 1.000000
vertex = 6 incoming edge weight = 1.000000
vertex = 6 incoming edge weight = 1.000000
vertex = 8 incoming edge weight = 1.000000
vertex = 8 incoming edge weight = 1.000000
vertex = 10 incoming edge weight = 1.000000
vertex = 10 incoming edge weight = 1.000000
vertex = 12 incoming edge weight = 1.000000
vertex = 12 incoming edge weight = 1.000000
vertex = 14 incoming edge weight = 1.000000
vertex = 14 incoming edge weight = 65536.000000
vertex = 16 incoming edge weight = 256.000000
vertex = 16 incoming edge weight = 256.000000
vertex = 18 incoming edge weight = 1.000000
vertex = 18 incoming edge weight = 1.000000
vertex = 23 incoming edge weight = 256.000000
vertex = 23 incoming edge weight = 1.000000
vertex = 23 incoming edge weight = 1.000000
vertex = 23 incoming edge weight = 1.000000
vertex = 24 incoming edge weight = 1.000000
vertex = 24 incoming edge weight = 1.000000
vertex = 24 incoming edge weight = 1.000000
vertex = 24 incoming edge weight = 1.000000
vertex = 25 incoming edge weight = 1.000000
vertex = 26 incoming edge weight = 1.000000
vertex = 1 j = 0 outgoing edge weight = 1.000000
vertex = 3 j = 1 outgoing edge weight = 1.000000
vertex = 4 j = 2 outgoing edge weight = 256.000000
vertex = 5 j = 3 outgoing edge weight = 1.000000
vertex = 6 j = 4 outgoing edge weight = 1.000000
vertex = 7 j = 5 outgoing edge weight = 1.000000
vertex = 8 j = 6 outgoing edge weight = 1.000000
vertex = 9 j = 7 outgoing edge weight = 1.000000
vertex = 10 j = 8 outgoing edge weight = 1.000000
vertex = 11 j = 9 outgoing edge weight = 1.000000
vertex = 12 j = 10 outgoing edge weight = 1.000000
vertex = 13 j = 11 outgoing edge weight = 1.000000
vertex = 14 j = 12 outgoing edge weight = 1.000000
vertex = 15 j = 13 outgoing edge weight = 256.000000
vertex = 16 j = 14 outgoing edge weight = 1.000000
vertex = 17 j = 15 outgoing edge weight = 1.000000
vertex = 18 j = 16 outgoing edge weight = 1.000000
vertex = 19 j = 17 outgoing edge weight = 1.000000
vertex = 19 j = 18 outgoing edge weight = 1.000000
vertex = 19 j = 19 outgoing edge weight = 1.000000
vertex = 20 j = 20 outgoing edge weight = 65536.000000
vertex = 20 j = 21 outgoing edge weight = 1.000000
vertex = 21 j = 22 outgoing edge weight = 256.000000
vertex = 21 j = 23 outgoing edge weight = 1.000000
vertex = 22 j = 24 outgoing edge weight = 1.000000
vertex = 22 j = 25 outgoing edge weight = 1.000000
vertex = 23 j = 26 outgoing edge weight = 1.000000
vertex = 24 j = 27 outgoing edge weight = 1.000000
incoming edge weight in this part = 66328.000000
my dfs for traversal = 26
22 10 23 25 18 24 26 21 8 16 20 6 14 19 2 4 12 17 15 13 11 9 7 5 3 1 
First opt
### opt.nbPart = 2
### opt.ub = 13.250000 13.250000 
### opt.lb = 26.221750 26.221750 
### opt.ratio = 1.030000
Second opt
### opt.nbPart = 2
### opt.ub = 13.647500 13.647500 
### opt.lb = 12.852500 12.852500 
### opt.ratio = 1.030000
In Vcycle deb nbpart = 2, lb0 = 12.852500, ub0 = 13.647500, lb1 = 12.852500, ub1 = 13.647500


crit in stopping criteria = 26 stop size = 200

In Vcycle before ini part nbpart = 2, lb0 = 12.852500, ub0 = 13.647500, lb1 = 12.852500, ub1 = 13.647500
vertex = 26 
### opt.nbPart = 2
### opt.ub = 13.647500 13.647500 
### opt.lb = 12.852500 12.852500 
### opt.ratio = 1.030000


init partition all algo


coarse graph vertex count = 26

total vw = 26.000000

init DFS totbound = 13.647500 bound[0] = 13.647500


init DFS totbound = 27.295000 bound[1] = 13.647500

kernighan vrtx = 26

lb_pw = 12.852500 ub_pw = 13.647500
 (nbpart = 2)

After initpartKerDFS partition :

Info:	p:2	min:13	max:13	-->
	i-0	part size 13 - upperboud 13.647500
	i-1	part size 13 - upperboud 13.647500

partsize[0] = 13

partsize[1] = 13
 good
kernighan vrtx = 26

lb_pw = 12.852500 ub_pw = 13.647500
 (nbpart = 2)
iniPartKerBFS: something wrong!

After initPerKerBFS partition :

Info:	p:2	min:13	max:13	-->
	i-0	part size 13 - upperboud 13.647500
	i-1	part size 13 - upperboud 13.647500

partsize[0] = 13

partsize[1] = 13
 good
kernighan vrtx = 26

lb_pw = 12.852500 ub_pw = 13.647500
 (nbpart = 2)
iniPartKerMix: something wrong!

After initPerKerMix partition :

Info:	p:2	min:13	max:13	-->
	i-0	part size 13 - upperboud 13.647500
	i-1	part size 13 - upperboud 13.647500

partsize[0] = 13

partsize[1] = 13
 good
edgecut is called

After initPerForcedBalance partition :

Info:	p:2	min:13	max:13	-->
	i-0	part size 13 - upperboud 13.647500
	i-1	part size 13 - upperboud 13.647500

partsize[0] = 13

partsize[1] = 13
 good
edgecut is called

After initPerGGG partition :

Info:	p:2	min:13	max:13	-->
	i-0	part size 13 - upperboud 13.647500
	i-1	part size 13 - upperboud 13.647500

partsize[0] = 13

partsize[1] = 13
 good
edgecut is called

After initPerBFSGrowing partition :

Info:	p:2	min:13	max:13	-->
	i-0	part size 13 - upperboud 13.647500
	i-1	part size 13 - upperboud 13.647500

partsize[0] = 13

partsize[1] = 13
 good
MetisCut: 4
edgecut is called
edgecut is called
edgecut is called
edgecut is called
MetisCut: 4
MetisCut: 4
MetisCut: 4
MetisCut: 4
Metis cost 254979584

After Metis partition :

Info:	p:2	min:13	max:13	-->
	i-0	part size 13 - upperboud 13.647500
	i-1	part size 13 - upperboud 13.647500

partsize[0] = 13

partsize[1] = 13
 good


Call print info part from vcycle

Info:	p:2	min:13	max:13	-->
	i-0	part size 13 - upperboud 13.647500
	i-1	part size 13 - upperboud 13.647500

partsize[0] = 13

partsize[1] = 13
 good



refinement called



PARTSIZES
13, 13, 
UPPERBOUNDS
13.582750, 13.582750, 
============
toporder on parts[0] = 0
toporder on parts[1] = 1
We ran 1 Forced Balance iterations
13, 13, PARTSIZES
edgecut is called
   ref 1	26	28	0	0
Step	Graph Size	Nb Egde	Edge cut	Nb comm
edgecut is called
nbcommunication called
0	26	28	6	5	0.000000	0.001256	0.000169
edgecut is called

C->part[2] = 1 C->part[igraph->in[0] = 1

C->part[2] = 1 C->part[igraph->in[1] = 0
partin 0 partout 1
END REC 1 !!!
Info:	p:2	min:13	max:13	-->
	i-0	part size 13 - upperboud 13.647500
	i-1	part size 13 - upperboud 13.647500

partsize[0] = 13

partsize[1] = 13
 good

After coarsen graph 1 nodes = 26
1 = part 1
2 = part 1
3 = part 1
4 = part 1
5 = part 1
6 = part 1
7 = part 1
8 = part 1
9 = part 1
10 = part 1
11 = part 0
12 = part 0
13 = part 0
14 = part 0
15 = part 0
16 = part 0
17 = part 0
18 = part 0
19 = part 0
20 = part 0
21 = part 0
22 = part 0
23 = part 1
24 = part 0
25 = part 1
26 = part 1
NOW REC 2 !!!
G1weight = 26.000000, G2weight = 27.000000, ratio = 1.030000
### opt.nbPart = 2
### opt.ub = 13.250000 13.250000 
### opt.lb = 26.221750 26.221750 
### opt.ratio = 1.030000


depth = 2

@@In rVcycle nVrtx = 27, nbpart = 2, lb0 = 26.221750, ub0 = 13.250000, lb1 = 26.221750, ub1 = 13.250000
vweight of this part = 0.000000 vertex count = 27
inside my BFS

freed
vertex = 2 incoming edge weight = 1.000000
vertex = 4 incoming edge weight = 1.000000
vertex = 6 incoming edge weight = 1.000000
vertex = 8 incoming edge weight = 1.000000
vertex = 10 incoming edge weight = 1.000000
vertex = 12 incoming edge weight = 1.000000
vertex = 14 incoming edge weight = 1.000000
vertex = 15 incoming edge weight = 1.000000
vertex = 15 incoming edge weight = 1.000000
vertex = 15 incoming edge weight = 1.000000
vertex = 15 incoming edge weight = 1.000000
vertex = 16 incoming edge weight = 1.000000
vertex = 16 incoming edge weight = 1.000000
vertex = 16 incoming edge weight = 1.000000
vertex = 17 incoming edge weight = 1.000000
vertex = 18 incoming edge weight = 1.000000
vertex = 19 incoming edge weight = 1.000000
vertex = 19 incoming edge weight = 1.000000
vertex = 20 incoming edge weight = 1.000000
vertex = 21 incoming edge weight = 1.000000
vertex = 22 incoming edge weight = 1.000000
vertex = 23 incoming edge weight = 1.000000
vertex = 24 incoming edge weight = 1.000000
vertex = 25 incoming edge weight = 1.000000
vertex = 26 incoming edge weight = 1.000000
vertex = 27 incoming edge weight = 1.000000
vertex = 1 j = 0 outgoing edge weight = 1.000000
vertex = 2 j = 1 outgoing edge weight = 1.000000
vertex = 3 j = 2 outgoing edge weight = 1.000000
vertex = 4 j = 3 outgoing edge weight = 1.000000
vertex = 5 j = 4 outgoing edge weight = 1.000000
vertex = 6 j = 5 outgoing edge weight = 1.000000
vertex = 7 j = 6 outgoing edge weight = 1.000000
vertex = 8 j = 7 outgoing edge weight = 1.000000
vertex = 9 j = 8 outgoing edge weight = 1.000000
vertex = 10 j = 9 outgoing edge weight = 1.000000
vertex = 11 j = 10 outgoing edge weight = 1.000000
vertex = 12 j = 11 outgoing edge weight = 1.000000
vertex = 13 j = 12 outgoing edge weight = 1.000000
vertex = 14 j = 13 outgoing edge weight = 1.000000
vertex = 15 j = 14 outgoing edge weight = 1.000000
vertex = 16 j = 15 outgoing edge weight = 1.000000
vertex = 17 j = 16 outgoing edge weight = 1.000000
vertex = 18 j = 17 outgoing edge weight = 1.000000
vertex = 19 j = 18 outgoing edge weight = 1.000000
vertex = 19 j = 19 outgoing edge weight = 1.000000
vertex = 19 j = 20 outgoing edge weight = 1.000000
vertex = 19 j = 21 outgoing edge weight = 1.000000
vertex = 20 j = 22 outgoing edge weight = 1.000000
vertex = 21 j = 23 outgoing edge weight = 1.000000
vertex = 22 j = 24 outgoing edge weight = 1.000000
vertex = 23 j = 25 outgoing edge weight = 1.000000
incoming edge weight in this part = 26.000000
my dfs for traversal = 27
13 14 16 18 19 20 24 21 25 22 26 23 27 11 12 9 10 7 8 15 17 5 6 3 4 1 2 
coarse vertex count = 27
END REC 2 !!!
Info:	p:1	min:27	max:27	-->
	i-0	part size 27 - upperboud 13.250000

partsize[0] = 27
 bad

After coarsen graph 2 nodes = 27
1 = part 0
2 = part 0
3 = part 0
4 = part 0
5 = part 0
6 = part 0
7 = part 0
8 = part 0
9 = part 0
10 = part 0
11 = part 0
12 = part 0
13 = part 0
14 = part 0
15 = part 0
16 = part 0
17 = part 0
18 = part 0
19 = part 0
20 = part 0
21 = part 0
22 = part 0
23 = part 0
24 = part 0
25 = part 0
26 = part 0
27 = part 0
i  = 1 nvrtx = 53 part 1 next_index 1
i  = 2 nvrtx = 53 part 1 next_index 2
i  = 3 nvrtx = 53 part 1 next_index 3
i  = 4 nvrtx = 53 part 1 next_index 4
i  = 5 nvrtx = 53 part 1 next_index 5
i  = 6 nvrtx = 53 part 1 next_index 6
i  = 7 nvrtx = 53 part 1 next_index 7
i  = 8 nvrtx = 53 part 1 next_index 8
i  = 9 nvrtx = 53 part 0 next_index 1
i  = 10 nvrtx = 53 part 0 next_index 2
i  = 11 nvrtx = 53 part 1 next_index 9
i  = 12 nvrtx = 53 part 1 next_index 10
i  = 13 nvrtx = 53 part 1 next_index 11
i  = 14 nvrtx = 53 part 1 next_index 12
i  = 15 nvrtx = 53 part 1 next_index 13
i  = 16 nvrtx = 53 part 1 next_index 14
i  = 17 nvrtx = 53 part 0 next_index 3
i  = 18 nvrtx = 53 part 0 next_index 4
i  = 19 nvrtx = 53 part 0 next_index 5
i  = 20 nvrtx = 53 part 0 next_index 6
i  = 21 nvrtx = 53 part 0 next_index 7
i  = 22 nvrtx = 53 part 0 next_index 8
i  = 23 nvrtx = 53 part 0 next_index 9
i  = 24 nvrtx = 53 part 0 next_index 10
i  = 25 nvrtx = 53 part 0 next_index 11
i  = 26 nvrtx = 53 part 0 next_index 12
i  = 27 nvrtx = 53 part 0 next_index 13
i  = 28 nvrtx = 53 part 0 next_index 14
i  = 29 nvrtx = 53 part 0 next_index 15
i  = 30 nvrtx = 53 part 0 next_index 16
i  = 31 nvrtx = 53 part 0 next_index 17
i  = 32 nvrtx = 53 part 0 next_index 18
i  = 33 nvrtx = 53 part 0 next_index 19
i  = 34 nvrtx = 53 part 0 next_index 20
i  = 35 nvrtx = 53 part 0 next_index 21
i  = 36 nvrtx = 53 part 0 next_index 22
i  = 37 nvrtx = 53 part 1 next_index 15
i  = 38 nvrtx = 53 part 1 next_index 16
i  = 39 nvrtx = 53 part 0 next_index 23
i  = 40 nvrtx = 53 part 0 next_index 24
i  = 41 nvrtx = 53 part 1 next_index 17
i  = 42 nvrtx = 53 part 1 next_index 18
i  = 43 nvrtx = 53 part 0 next_index 25
i  = 44 nvrtx = 53 part 0 next_index 26
i  = 45 nvrtx = 53 part 1 next_index 19
i  = 46 nvrtx = 53 part 1 next_index 20
i  = 47 nvrtx = 53 part 1 next_index 21
i  = 48 nvrtx = 53 part 1 next_index 22
i  = 49 nvrtx = 53 part 1 next_index 23
i  = 50 nvrtx = 53 part 1 next_index 24
i  = 51 nvrtx = 53 part 1 next_index 25
i  = 52 nvrtx = 53 part 1 next_index 26
i  = 53 nvrtx = 53 part 1 next_index 27
C->part[1] = 	2(rcoarse2)
C->part[2] = 	2(rcoarse2)
C->part[3] = 	2(rcoarse2)
C->part[4] = 	2(rcoarse2)
C->part[5] = 	2(rcoarse2)
C->part[6] = 	2(rcoarse2)
C->part[7] = 	2(rcoarse2)
C->part[8] = 	2(rcoarse2)
C->part[9] = 	1(rcoars1)
C->part[10] = 	1(rcoars1)
C->part[11] = 	2(rcoarse2)
C->part[12] = 	2(rcoarse2)
C->part[13] = 	2(rcoarse2)
C->part[14] = 	2(rcoarse2)
C->part[15] = 	2(rcoarse2)
C->part[16] = 	2(rcoarse2)
C->part[17] = 	1(rcoars1)
C->part[18] = 	1(rcoars1)
C->part[19] = 	1(rcoars1)
C->part[20] = 	1(rcoars1)
C->part[21] = 	1(rcoars1)
C->part[22] = 	1(rcoars1)
C->part[23] = 	1(rcoars1)
C->part[24] = 	1(rcoars1)
C->part[25] = 	0(rcoars1)
C->part[26] = 	0(rcoars1)
C->part[27] = 	0(rcoars1)
C->part[28] = 	0(rcoars1)
C->part[29] = 	0(rcoars1)
C->part[30] = 	0(rcoars1)
C->part[31] = 	0(rcoars1)
C->part[32] = 	0(rcoars1)
C->part[33] = 	0(rcoars1)
C->part[34] = 	0(rcoars1)
C->part[35] = 	0(rcoars1)
C->part[36] = 	0(rcoars1)
C->part[37] = 	2(rcoarse2)
C->part[38] = 	2(rcoarse2)
C->part[39] = 	1(rcoars1)
C->part[40] = 	0(rcoars1)
C->part[41] = 	2(rcoarse2)
C->part[42] = 	2(rcoarse2)
C->part[43] = 	1(rcoars1)
C->part[44] = 	1(rcoars1)
C->part[45] = 	2(rcoarse2)
C->part[46] = 	2(rcoarse2)
C->part[47] = 	2(rcoarse2)
C->part[48] = 	2(rcoarse2)
C->part[49] = 	2(rcoarse2)
C->part[50] = 	2(rcoarse2)
C->part[51] = 	2(rcoarse2)
C->part[52] = 	2(rcoarse2)
C->part[53] = 	2(rcoarse2)
A(0,0) = part 0
SpMV(0,0) = part 2
A(0,1) = part 2
SpMV(0,1) = part 2
A(0,2) = part 2
SpMV(0,2) = part 2
A(0,3) = part 2
SpMV(0,3) = part 2
A(1,0) = part 2
SpMV(1,0) = part 1
A(1,1) = part 1
SpMV(1,1) = part 2
A(1,2) = part 2
SpMV(1,2) = part 2
A(1,3) = part 2
SpMV(1,3) = part 2
A(2,0) = part 2
SpMV(2,0) = part 1
A(2,1) = part 1
SpMV(2,1) = part 1
A(2,2) = part 1
SpMV(2,2) = part 1
A(2,3) = part 1
SpMV(2,3) = part 1
A(3,0) = part 1
SpMV(3,0) = part 0
A(3,1) = part 0
SpMV(3,1) = part 0
A(3,2) = part 0
SpMV(3,2) = part 0
A(3,3) = part 0
SpMV(3,3) = part 0
X(0) = part 0
X(1) = part 0
X(2) = part 0
X(3) = part 0
Y(0) = part 0
Y(1) = part 2
Y(2) = part 2
Y(3) = part 1
SUM(0) = part 0
SUM(1) = part 2
SUM(2) = part 2
SUM(3) = part 1
SCL(0) = part 1
N(0) = part 2
N(1) = part 2
N(2) = part 2
N(3) = part 2
CPY(0) = part 2
CPY(1) = part 2
CPY(2) = part 2
CPY(3) = part 2
edgecut is called
nbcommunication called


DFSTopsort called

ready[15] = 32
ready[14] = 30
ready[13] = 28
ready[12] = 26
ready[12] = 40
ready[12] = 44
ready[11] = 24
ready[10] = 22
ready[9] = 20
ready[8] = 18
ready[8] = 39
ready[8] = 43
ready[7] = 16
ready[6] = 14
ready[5] = 12
ready[4] = 10
ready[4] = 38
ready[4] = 42
ready[3] = 8
ready[2] = 6
ready[1] = 4
ready[0] = 2
ready[0] = 37
ready[0] = 41
ready[0] = 45
ready[0] = 49
ready[1] = 48
ready[2] = 47
ready[3] = 46
ready[3] = 50
ready[2] = 51
ready[1] = 52
ready[0] = 53
Final run 0	53	64	198402	0	329986.000000
Times	0.000	0.001	0.000	0.010
Info:	p:3	min:13	max:27	-->
	i-0	part size 13 - upperboud 13.647500
	i-1	part size 13 - upperboud 13.647500
	i-2	part size 27 - upperboud 13.647500

partsize[0] = 13

partsize[1] = 13

partsize[2] = 27
 bad
######################## END RUN 0 ########################

######################## OUTPUT 0 ########################

Initial Graph : 53 nodes 64 edges
Final edgecut : 489728 
Total time	 :	 0.01 seconds

Coarsening [depth : 0]	 :	 0.00 seconds	 (0.01 %)
	Matching	 :	 0.00 seconds	 (0.00 %)
	Building Graph	 :	 0.00 seconds	 (0.00 %)

Initial Partitioning	 :	 0.01 seconds	 (82.60 %)
	Kernighan DFS           	 :	 0.00 seconds	 (2.16 %)	(EdgeCut 197890)
	Kernighan BFS           	 :	 0.00 seconds	 (0.69 %)	(EdgeCut 528640)
	Kernighan Mix DFS-BFS   	 :	 0.00 seconds	 (0.69 %)	(EdgeCut 330496)
	Greedy Graph Growing    	 :	 0.00 seconds	 (0.22 %)	(EdgeCut 329985)
	Forced Balance Inipart  	 :	 0.00 seconds	 (0.26 %)	(EdgeCut 329985)
	Metis + fix             	 :	 0.01 seconds	 (95.27 %)	(EdgeCut 264449)
	BFS Growing             	 :	 0.00 seconds	 (0.55 %)	(EdgeCut 331008)
Best Initial Partition : Kernighan DFS (edgecut 493056)

Uncoarsening [depth : 0]	 :	 0.00 seconds	 (4.50 %)
	Force Balance	 :	 0.00 seconds	 (11.63 %)
	Refinement	 :	 0.00 seconds	 (8.10 %)
	Project Back	 :	 0.00 seconds	 (0.00 %)
		Uncoarsening Step 0	 :	 0.00 seconds (99.49 %)
			Force Balance pass	 :	 0.00 seconds (11.69 %) (edgecut 197890)
			Refinement pass 1	 :	 0.00 seconds (8.14 %)	 (edgecut 197890)

###########################################################

Final runs	53	64	329986.000000	0.000000	198402.000000	0.000000
partition top sort[1] = 36 part = 0
partition top sort[2] = 35 part = 0
partition top sort[3] = 34 part = 0
partition top sort[4] = 33 part = 0
partition top sort[5] = 31 part = 0
partition top sort[6] = 32 part = 0
partition top sort[7] = 29 part = 0
partition top sort[8] = 30 part = 0
partition top sort[9] = 27 part = 0
partition top sort[10] = 28 part = 0
partition top sort[11] = 25 part = 0
partition top sort[12] = 26 part = 0
partition top sort[13] = 40 part = 0
partition top sort[14] = 44 part = 1
partition top sort[15] = 23 part = 1
partition top sort[16] = 24 part = 1
partition top sort[17] = 21 part = 1
partition top sort[18] = 22 part = 1
partition top sort[19] = 19 part = 1
partition top sort[20] = 20 part = 1
partition top sort[21] = 17 part = 1
partition top sort[22] = 18 part = 1
partition top sort[23] = 39 part = 1
partition top sort[24] = 43 part = 1
partition top sort[25] = 9 part = 1
partition top sort[26] = 10 part = 1
partition top sort[27] = 15 part = 2
partition top sort[28] = 16 part = 2
partition top sort[29] = 13 part = 2
partition top sort[30] = 14 part = 2
partition top sort[31] = 11 part = 2
partition top sort[32] = 12 part = 2
partition top sort[33] = 38 part = 2
partition top sort[34] = 42 part = 2
partition top sort[35] = 7 part = 2
partition top sort[36] = 8 part = 2
partition top sort[37] = 5 part = 2
partition top sort[38] = 6 part = 2
partition top sort[39] = 3 part = 2
partition top sort[40] = 4 part = 2
partition top sort[41] = 1 part = 2
partition top sort[42] = 2 part = 2
partition top sort[43] = 37 part = 2
partition top sort[44] = 41 part = 2
partition top sort[45] = 45 part = 2
partition top sort[46] = 46 part = 2
partition top sort[47] = 50 part = 2
partition top sort[48] = 47 part = 2
partition top sort[49] = 51 part = 2
partition top sort[50] = 48 part = 2
partition top sort[51] = 52 part = 2
partition top sort[52] = 49 part = 2
