digraph G {
A(0,0)=1;
SpMV(0,0)=1;
A(0,1)=1;
SpMV(0,1)=1;
A(1,0)=1;
SpMV(1,0)=1;
A(1,1)=1;
SpMV(1,1)=1;
X(0)=1;
X(1)=1;
Y(0)=1;
Y(1)=1;
SUM(0)=1;
SUM(1)=1;
SCL(0)=1;
N(0)=1;
N(1)=1;
CPY(0)=1;
CPY(1)=1;
{A(0,0),SpMV(0,0),262144}; 
{X(0),SpMV(0,0),512};
{SpMV(0,0),Y(0),512};
{A(0,1),SpMV(0,1),262144}; 
{X(1),SpMV(0,1),512};
{SpMV(0,1),Y(0),512};
{A(1,0),SpMV(1,0),262144}; 
{X(0),SpMV(1,0),512};
{SpMV(1,0),Y(1),512};
{A(1,1),SpMV(1,1),262144}; 
{X(1),SpMV(1,1),512};
{SpMV(1,1),Y(1),512};
{Y(0),SUM(0),512}; 
{Y(1),SUM(1),512}; 
{SUM(0),SCL(0),1}; 
{SUM(1),SCL(0),1}; 
{SCL(0),N(0),1}; 
{SCL(0),N(1),1}; 
{N(0),CPY(0),512};
{N(1),CPY(1),512};
}
