digraph G {
0 [style=filled, fillcolor=red, weight=1];
1 [style=filled, fillcolor=blue, weight=1];
2 [style=filled, fillcolor=blue, weight=1];
3 [style=filled, fillcolor=blue, weight=1];
4 [style=filled, fillcolor=red, weight=1];
5 [style=filled, fillcolor=blue, weight=1];
6 [style=filled, fillcolor=red, weight=1];
7 [style=filled, fillcolor=red, weight=1];
8 [style=filled, fillcolor=red, weight=1];
9 [style=filled, fillcolor=blue, weight=1];
10 [style=filled, fillcolor=red, weight=1];
11 [style=filled, fillcolor=blue, weight=1];
12 [style=filled, fillcolor=red, weight=1];
13 [style=filled, fillcolor=red, weight=1];
14 [style=filled, fillcolor=blue, weight=1];
15 [style=filled, fillcolor=blue, weight=1];
16 [style=filled, fillcolor=red, weight=1];
17 [style=filled, fillcolor=red, weight=1];
18 [style=filled, fillcolor=red, weight=1];
19 [style=filled, fillcolor=red, weight=1];
20 [style=filled, fillcolor=blue, weight=1];
21 [style=filled, fillcolor=blue, weight=1];
22 [style=filled, fillcolor=red, weight=1];
23 [style=filled, fillcolor=blue, weight=1];
24 [style=filled, fillcolor=blue, weight=1];
25 [style=filled, fillcolor=red, weight=1];
26 [style=filled, fillcolor=blue, weight=1];
0->13 [weight=1650081264];
1->21 [weight=1650081264];
2->23 [weight=1650081264];
3->24 [weight=1650081264];
4->25 [weight=1650081264];
5->11 [weight=1650081264];
6->12 [weight=1650081264];
7->13 [weight=1650081264];
8->14 [weight=1650081264];
9->15 [weight=1650081264];
10->17 [weight=1650081264];
20->26 [weight=1650081264];
}
