_AX,35 0 2633
_AX,34 0 2632
_AX,33 0 2631
_AX,32 0 2630
_AX,23 0 2629
_AX,22 0 2628
_AX,21 0 2627
_AX,20 0 2626
_X,23 0 2625
_X,22 0 2624
_X,21 0 2623
_X,20 0 2622
_AX,19 0 2621
_AX,18 0 2620
_AX,17 0 2619
_AX,16 0 2618
_X,15 0 2617
_X,14 0 2616
_X,13 0 2615
_X,12 0 2614
_lambda 0 2613
XY,12,1 0 2612
XY,13,1 0 2611
XY,14,1 0 2610
XY,15,1 0 2609
XY,20,1 0 2608
SUB,20,1 0 2607
XY,21,1 0 2606
SUB,21,1 0 2605
XY,22,1 0 2604
SUB,22,1 0 2603
XY,23,1 0 2602
SUB,23,1 0 2601
_X,35 2 2600
XY,35,1 2 2599
SUB,35,1 2 2598
MULT,35 2 2597
_X,34 2 2596
XY,34,1 2 2595
SUB,34,1 2 2594
MULT,34 2 2593
_X,33 2 2592
XY,33,1 2 2591
SUB,33,1 2 2590
MULT,33 2 2589
_X,32 2 2588
XY,32,1 2 2587
SUB,32,1 2 2586
MULT,32 2 2585
_X,31 2 2584
XY,31,1 2 2583
_X,30 2 2582
XY,30,1 2 2581
_X,29 2 2580
XY,29,1 2 2579
_X,28 2 2578
XY,28,1 2 2577
_X,19 2 2576
_X,18 2 2575
_X,17 2 2574
_X,16 2 2573
COL,32,12 4 2572
COL,33,13 4 2571
COL,34,14 4 2570
COL,35,15 4 2569
_AX,7 4 2568
_AX,6 4 2567
_AX,5 4 2566
_AX,4 4 2565
_AX,3 4 2564
_AX,2 4 2563
_AX,1 4 2562
_AX,0 4 2561
_X,3 4 2560
XY,3,1 4 2559
SUB,3,1 4 2558
MULT,3 4 2557
COL,3,3 4 2556
_X,2 4 2555
XY,2,1 4 2554
SUB,2,1 4 2553
MULT,2 4 2552
COL,2,2 4 2551
_X,1 4 2550
XY,1,1 4 2549
SUB,1,1 4 2548
MULT,1 4 2547
COL,1,1 4 2546
_X,0 4 2545
XY,0,1 4 2544
SUB,0,1 4 2543
MULT,0 4 2542
COL,0,0 4 2541
XY,16,1 3 2540
SUB,16,1 3 2539
MULT,16 3 2538
COL,16,16 3 2537
XY,17,1 3 2536
SUB,17,1 3 2535
MULT,17 3 2534
COL,17,17 3 2533
XY,18,1 3 2532
SUB,18,1 3 2531
MULT,18 3 2530
COL,18,18 3 2529
XY,19,1 3 2528
SUB,19,1 3 2527
MULT,19 3 2526
COL,19,19 3 2525
_X,47 3 2524
XY,47,1 3 2523
_X,46 3 2522
XY,46,1 3 2521
_X,45 3 2520
XY,45,1 3 2519
_X,44 3 2518
XY,44,1 3 2517
_AX,27 3 2516
_AX,26 3 2515
_AX,25 3 2514
_AX,24 3 2513
RESET,RN 8 2512
_X,50 8 2511
_X,49 8 2510
_X,48 8 2509
_X,39 8 2508
XY,39,1 8 2507
_X,38 8 2506
XY,38,1 8 2505
_X,37 8 2504
XY,37,1 8 2503
_X,36 8 2502
XY,36,1 8 2501
_AX,11 8 2500
_AX,10 8 2499
_AX,9 8 2498
_AX,8 8 2497
_X,11 8 2496
XY,11,1 8 2495
SUB,11,1 8 2494
_X,10 8 2493
XY,10,1 8 2492
SUB,10,1 8 2491
_X,9 8 2490
XY,9,1 8 2489
SUB,9,1 8 2488
_X,8 8 2487
XY,8,1 8 2486
SUB,8,1 8 2485
_X,43 1 2484
XY,43,1 1 2483
_X,42 1 2482
XY,42,1 1 2481
_X,41 1 2480
XY,41,1 1 2479
_X,40 1 2478
XY,40,1 1 2477
_AX,15 1 2476
SUB,15,1 1 2475
_AX,14 1 2474
SUB,14,1 1 2473
_AX,13 1 2472
SUB,13,1 1 2471
_AX,12 1 2470
SUB,12,1 1 2469
_X,7 1 2468
XY,7,1 1 2467
_X,6 1 2466
XY,6,1 1 2465
_X,5 1 2464
XY,5,1 1 2463
_X,4 1 2462
XY,4,1 1 2461
MULT,12 6 2460
COL,12,12 6 2459
MULT,13 6 2458
COL,13,13 6 2457
MULT,14 6 2456
COL,14,14 6 2455
MULT,15 6 2454
COL,15,15 6 2453
_X,27 6 2452
XY,27,1 6 2451
SUB,27,1 6 2450
MULT,27 6 2449
_X,26 6 2448
XY,26,1 6 2447
SUB,26,1 6 2446
MULT,26 6 2445
_X,25 6 2444
XY,25,1 6 2443
SUB,25,1 6 2442
MULT,25 6 2441
_X,24 6 2440
XY,24,1 6 2439
SUB,24,1 6 2438
MULT,24 6 2437
COL,24,4 7 2436
COL,25,5 7 2435
COL,26,6 7 2434
COL,27,7 7 2433
MULT,23 7 2432
COL,23,3 7 2431
MULT,22 7 2430
COL,22,2 7 2429
MULT,21 7 2428
COL,21,1 7 2427
MULT,20 7 2426
COL,20,0 7 2425
_AX,47 7 2424
SUB,47,1 7 2423
MULT,47 7 2422
COL,47,7 7 2421
_AX,46 7 2420
SUB,46,1 7 2419
MULT,46 7 2418
COL,46,6 7 2417
_AX,45 7 2416
SUB,45,1 7 2415
MULT,45 7 2414
COL,45,5 7 2413
_AX,44 7 2412
SUB,44,1 7 2411
MULT,44 7 2410
COL,44,4 7 2409
SUB,4,1 5 2408
MULT,4 5 2407
SUB,5,1 5 2406
MULT,5 5 2405
SUB,6,1 5 2404
MULT,6 5 2403
SUB,7,1 5 2402
MULT,7 5 2401
_AX,43 5 2400
SUB,43,1 5 2399
MULT,43 5 2398
COL,43,3 5 2397
_AX,42 5 2396
SUB,42,1 5 2395
MULT,42 5 2394
COL,42,2 5 2393
_AX,41 5 2392
SUB,41,1 5 2391
MULT,41 5 2390
COL,41,1 5 2389
_AX,40 5 2388
SUB,40,1 5 2387
MULT,40 5 2386
COL,40,0 5 2385
COL,7,7 9 2384
COL,6,6 9 2383
COL,5,5 9 2382
COL,4,4 9 2381
XY,48,1 9 2380
XY,49,1 9 2379
XY,50,1 9 2378
_AX,50 9 2377
SUB,50,1 9 2376
MULT,50 9 2375
COL,50,10 9 2374
_AX,49 9 2373
SUB,49,1 9 2372
MULT,49 9 2371
COL,49,9 9 2370
_AX,48 9 2369
SUB,48,1 9 2368
MULT,48 9 2367
COL,48,8 9 2366
MULT,8 10 2365
COL,8,8 10 2364
MULT,9 10 2363
COL,9,9 10 2362
MULT,10 10 2361
COL,10,10 10 2360
MULT,11 10 2359
COL,11,11 10 2358
SETZERO,47,1 10 2357
SETZERO,46,1 10 2356
SETZERO,45,1 10 2355
SETZERO,44,1 10 2354
_AX,39 10 2353
SUB,39,1 10 2352
MULT,39 10 2351
COL,39,19 10 2350
_AX,38 10 2349
SUB,38,1 10 2348
MULT,38 10 2347
COL,38,18 10 2346
_AX,37 10 2345
SUB,37,1 10 2344
MULT,37 10 2343
COL,37,17 10 2342
_AX,36 10 2341
SUB,36,1 10 2340
MULT,36 10 2339
COL,36,16 10 2338
_AX,31 10 2337
SUB,31,1 10 2336
MULT,31 10 2335
COL,31,11 10 2334
_AX,30 10 2333
SUB,30,1 10 2332
MULT,30 10 2331
COL,30,10 10 2330
_AX,29 10 2329
SUB,29,1 10 2328
MULT,29 10 2327
COL,29,9 10 2326
_AX,28 10 2325
SUB,28,1 10 2324
MULT,28 10 2323
COL,28,8 10 2322
RNRED,RNBUF 10 2321
SQRT,RN 10 2320
RESET,actMask 11 2319
CONV,actMask 11 2318
GET,28,1 11 2317
GET,29,1 11 2316
GET,30,1 11 2315
GET,31,1 11 2314
GET,32,1 11 2313
XTY,32,12,1 11 2312
GET,33,1 11 2311
XTY,33,13,1 11 2310
GET,34,1 11 2309
XTY,34,14,1 11 2308
GET,35,1 11 2307
XTY,35,15,1 11 2306
GET,40,1 11 2305
GET,41,1 11 2304
GET,42,1 11 2303
GET,43,1 11 2302
CONSTRUCTGB 11 2301
XTY,43,3,1 13 2300
XTY,42,2,1 13 2299
XTY,41,1,1 13 2298
XTY,40,0,1 13 2297
GET,16,1 13 2296
XTY,16,16,1 13 2295
GET,17,1 13 2294
XTY,17,17,1 13 2293
GET,18,1 13 2292
XTY,18,18,1 13 2291
GET,19,1 13 2290
XTY,19,19,1 13 2289
GET,20,1 13 2288
XTY,20,0,1 13 2287
GET,21,1 13 2286
XTY,21,1,1 13 2285
GET,22,1 13 2284
XTY,22,2,1 13 2283
GET,23,1 13 2282
XTY,23,3,1 13 2281
GET,8,1 15 2280
XTY,8,8,1 15 2279
GET,9,1 15 2278
XTY,9,9,1 15 2277
GET,10,1 15 2276
XTY,10,10,1 15 2275
GET,11,1 15 2274
XTY,11,11,1 15 2273
GET,12,1 15 2272
XTY,12,12,1 15 2271
GET,13,1 15 2270
XTY,13,13,1 15 2269
GET,14,1 15 2268
XTY,14,14,1 15 2267
GET,15,1 15 2266
XTY,15,15,1 15 2265
GET,24,1 15 2264
XTY,24,4,1 15 2263
GET,25,1 15 2262
XTY,25,5,1 15 2261
GET,26,1 15 2260
XTY,26,6,1 15 2259
GET,27,1 15 2258
XTY,27,7,1 15 2257
GET,0,1 14 2256
XTY,0,0,1 14 2255
GET,1,1 14 2254
XTY,1,1,1 14 2253
GET,2,1 14 2252
XTY,2,2,1 14 2251
GET,3,1 14 2250
XTY,3,3,1 14 2249
GET,44,1 14 2248
XTY,44,4,1 14 2247
GET,45,1 14 2246
XTY,45,5,1 14 2245
GET,46,1 14 2244
XTY,46,6,1 14 2243
GET,47,1 14 2242
XTY,47,7,1 14 2241
GET,4,1 12 2240
XTY,4,4,1 12 2239
GET,5,1 12 2238
XTY,5,5,1 12 2237
GET,6,1 12 2236
XTY,6,6,1 12 2235
GET,7,1 12 2234
XTY,7,7,1 12 2233
GET,36,1 12 2232
XTY,36,16,1 12 2231
GET,37,1 12 2230
XTY,37,17,1 12 2229
GET,38,1 12 2228
XTY,38,18,1 12 2227
GET,39,1 12 2226
XTY,39,19,1 12 2225
GET,48,1 12 2224
XTY,48,8,1 12 2223
GET,49,1 12 2222
XTY,49,9,1 12 2221
GET,50,1 12 2220
XTY,50,10,1 12 2219
XTY,31,11,1 16 2218
XTY,30,10,1 16 2217
XTY,29,9,1 16 2216
XTY,28,8,1 16 2215
RED,temp2BUF,0 16 2214
XY,12,2 16 2213
SUB,12,2 16 2212
XTY,12,12,2 16 2211
XY,13,2 16 2210
SUB,13,2 16 2209
XTY,13,13,2 16 2208
XY,14,2 16 2207
SUB,14,2 16 2206
XTY,14,14,2 16 2205
XY,15,2 16 2204
SUB,15,2 16 2203
XTY,15,15,2 16 2202
XY,36,2 16 2201
XY,37,2 16 2200
XY,38,2 16 2199
XY,39,2 16 2198
XY,8,2 22 2197
XY,9,2 22 2196
XY,10,2 22 2195
XY,11,2 22 2194
XY,20,2 22 2193
SUB,20,2 22 2192
XTY,20,0,2 22 2191
XY,21,2 22 2190
SUB,21,2 22 2189
XTY,21,1,2 22 2188
XY,22,2 22 2187
SUB,22,2 22 2186
XTY,22,2,2 22 2185
XY,23,2 22 2184
SUB,23,2 22 2183
XTY,23,3,2 22 2182
SETZERO,43,1 22 2181
SETZERO,42,1 22 2180
SETZERO,41,1 22 2179
SETZERO,40,1 22 2178
SETZERO,23,1 22 2177
SETZERO,22,1 22 2176
SETZERO,21,1 22 2175
SETZERO,20,1 22 2174
SUB,11,2 23 2173
XTY,11,11,2 23 2172
SUB,10,2 23 2171
XTY,10,10,2 23 2170
SUB,9,2 23 2169
XTY,9,9,2 23 2168
SUB,8,2 23 2167
XTY,8,8,2 23 2166
XY,0,2 23 2165
SUB,0,2 23 2164
XTY,0,0,2 23 2163
XY,1,2 23 2162
SUB,1,2 23 2161
XTY,1,1,2 23 2160
XY,2,2 23 2159
SUB,2,2 23 2158
XTY,2,2,2 23 2157
XY,3,2 23 2156
SUB,3,2 23 2155
XTY,3,3,2 23 2154
SETZERO,39,1 23 2153
SETZERO,38,1 23 2152
SETZERO,37,1 23 2151
SETZERO,36,1 23 2150
SETZERO,27,1 23 2149
SETZERO,26,1 23 2148
SETZERO,25,1 23 2147
SETZERO,24,1 23 2146
SUB,39,2 20 2145
XTY,39,19,2 20 2144
SUB,38,2 20 2143
XTY,38,18,2 20 2142
SUB,37,2 20 2141
XTY,37,17,2 20 2140
SUB,36,2 20 2139
XTY,36,16,2 20 2138
XY,16,2 20 2137
SUB,16,2 20 2136
XY,17,2 20 2135
SUB,17,2 20 2134
XY,18,2 20 2133
SUB,18,2 20 2132
XY,19,2 20 2131
SUB,19,2 20 2130
XY,28,2 20 2129
SUB,28,2 20 2128
XTY,28,8,2 20 2127
XY,29,2 20 2126
SUB,29,2 20 2125
XTY,29,9,2 20 2124
XY,30,2 20 2123
SUB,30,2 20 2122
XTY,30,10,2 20 2121
XY,31,2 20 2120
SUB,31,2 20 2119
XTY,31,11,2 20 2118
XTY,19,19,2 21 2117
XTY,18,18,2 21 2116
XTY,17,17,2 21 2115
XTY,16,16,2 21 2114
SETZERO,50,1 21 2113
SETZERO,49,1 21 2112
SETZERO,48,1 21 2111
SETZERO,35,1 21 2110
SETZERO,34,1 21 2109
SETZERO,33,1 21 2108
SETZERO,32,1 21 2107
SETZERO,31,1 21 2106
SETZERO,30,1 21 2105
SETZERO,29,1 21 2104
SETZERO,28,1 21 2103
SETZERO,15,1 21 2102
SETZERO,14,1 21 2101
SETZERO,13,1 21 2100
SETZERO,12,1 21 2099
SETZERO,11,1 21 2098
SETZERO,10,1 21 2097
SETZERO,9,1 21 2096
SETZERO,8,1 21 2095
SETZERO,7,1 21 2094
SETZERO,6,1 21 2093
SETZERO,5,1 21 2092
SETZERO,4,1 21 2091
SETZERO,3,1 21 2090
SETZERO,2,1 21 2089
SETZERO,1,1 21 2088
SETZERO,0,1 21 2087
XY,24,2 18 2086
SUB,24,2 18 2085
XTY,24,4,2 18 2084
XY,25,2 18 2083
SUB,25,2 18 2082
XTY,25,5,2 18 2081
XY,26,2 18 2080
SUB,26,2 18 2079
XTY,26,6,2 18 2078
XY,27,2 18 2077
SUB,27,2 18 2076
XTY,27,7,2 18 2075
XY,32,2 18 2074
SUB,32,2 18 2073
XTY,32,12,2 18 2072
XY,33,2 18 2071
SUB,33,2 18 2070
XTY,33,13,2 18 2069
XY,34,2 18 2068
SUB,34,2 18 2067
XTY,34,14,2 18 2066
XY,35,2 18 2065
SUB,35,2 18 2064
XTY,35,15,2 18 2063
XY,44,2 17 2062
SUB,44,2 17 2061
XTY,44,4,2 17 2060
XY,45,2 17 2059
SUB,45,2 17 2058
XTY,45,5,2 17 2057
XY,46,2 17 2056
SUB,46,2 17 2055
XTY,46,6,2 17 2054
XY,47,2 17 2053
SUB,47,2 17 2052
XTY,47,7,2 17 2051
XY,40,2 19 2050
SUB,40,2 19 2049
XTY,40,0,2 19 2048
XY,41,2 19 2047
SUB,41,2 19 2046
XTY,41,1,2 19 2045
XY,42,2 19 2044
SUB,42,2 19 2043
XTY,42,2,2 19 2042
XY,43,2 19 2041
SUB,43,2 19 2040
XTY,43,3,2 19 2039
XY,48,2 19 2038
SUB,48,2 19 2037
XTY,48,8,2 19 2036
XY,49,2 19 2035
SUB,49,2 19 2034
XTY,49,9,2 19 2033
XY,50,2 19 2032
SUB,50,2 19 2031
XTY,50,10,2 19 2030
XY,4,2 24 2029
SUB,4,2 24 2028
XTY,4,4,2 24 2027
XY,5,2 24 2026
SUB,5,2 24 2025
XTY,5,5,2 24 2024
XY,6,2 24 2023
SUB,6,2 24 2022
XTY,6,6,2 24 2021
XY,7,2 24 2020
SUB,7,2 24 2019
XTY,7,7,2 24 2018
RED,RBRBUF,0 24 2017
CHOL,RBR 24 2016
SETZERO,19,1 24 2015
SETZERO,18,1 24 2014
SETZERO,17,1 24 2013
SETZERO,16,1 24 2012
INV,RBR 25 2011
XY,24,3 25 2010
XY,25,3 25 2009
XY,26,3 25 2008
XY,27,3 25 2007
XY,28,3 25 2006
XY,29,3 25 2005
XY,30,3 25 2004
XY,31,3 25 2003
XY,44,3 25 2002
DLACPY,44,1 25 2001
XY,45,3 25 2000
DLACPY,45,1 25 1999
XY,46,3 25 1998
DLACPY,46,1 25 1997
XY,47,3 25 1996
DLACPY,47,1 25 1995
DLACPY,31,1 36 1994
SPMM,24,31,0 36 1993
SPMM,25,31,0 36 1992
SPMM,26,31,0 36 1991
SPMM,27,31,0 36 1990
SPMM,28,31,0 36 1989
SPMM,29,31,0 36 1988
SPMM,30,31,0 36 1987
SPMM,31,31,0 36 1986
SPMM,32,31,0 36 1985
SPMM,33,31,0 36 1984
SPMM,34,31,0 36 1983
SPMM,35,31,0 36 1982
SPMM,36,31,0 36 1981
SPMM,37,31,0 36 1980
SPMM,38,31,0 36 1979
SPMM,39,31,0 36 1978
SPMM,40,31,0 36 1977
SPMM,41,31,0 36 1976
SPMM,42,31,0 36 1975
SPMM,43,31,0 36 1974
SPMM,44,31,0 36 1973
SPMM,45,31,0 36 1972
SPMM,46,31,0 36 1971
SPMM,47,31,0 36 1970
SPMM,48,31,0 36 1969
SPMM,49,31,0 36 1968
SPMM,50,31,0 36 1967
DLACPY,30,1 36 1966
SPMM,24,30,0 36 1965
SPMM,26,30,0 36 1964
SPMM,27,30,0 36 1963
SPMM,28,30,0 36 1962
SPMM,29,30,0 36 1961
SPMM,30,30,0 36 1960
SPMM,31,30,0 36 1959
SPMM,32,30,0 36 1958
SPMM,33,30,0 36 1957
SPMM,34,30,0 36 1956
SPMM,35,30,0 36 1955
SPMM,36,30,0 36 1954
SPMM,37,30,0 36 1953
SPMM,38,30,0 36 1952
SPMM,39,30,0 36 1951
SPMM,40,30,0 36 1950
SPMM,41,30,0 36 1949
SPMM,42,30,0 36 1948
SPMM,43,30,0 36 1947
SPMM,44,30,0 36 1946
SPMM,45,30,0 36 1945
SPMM,46,30,0 36 1944
SPMM,47,30,0 36 1943
SPMM,48,30,0 36 1942
SPMM,49,30,0 36 1941
SPMM,50,30,0 36 1940
DLACPY,29,1 36 1939
SPMM,24,29,0 36 1938
SPMM,26,29,0 36 1937
SPMM,27,29,0 36 1936
SPMM,28,29,0 36 1935
SPMM,29,29,0 36 1934
SPMM,30,29,0 36 1933
SPMM,31,29,0 36 1932
SPMM,32,29,0 36 1931
SPMM,33,29,0 36 1930
SPMM,34,29,0 36 1929
SPMM,35,29,0 36 1928
SPMM,36,29,0 36 1927
SPMM,37,29,0 36 1926
SPMM,38,29,0 36 1925
SPMM,39,29,0 36 1924
SPMM,40,29,0 36 1923
SPMM,41,29,0 36 1922
SPMM,42,29,0 36 1921
SPMM,43,29,0 36 1920
SPMM,44,29,0 36 1919
SPMM,45,29,0 36 1918
SPMM,46,29,0 36 1917
SPMM,47,29,0 36 1916
SPMM,48,29,0 36 1915
SPMM,49,29,0 36 1914
SPMM,50,29,0 36 1913
DLACPY,28,1 36 1912
SPMM,24,28,0 36 1911
SPMM,26,28,0 36 1910
SPMM,27,28,0 36 1909
SPMM,28,28,0 36 1908
SPMM,29,28,0 36 1907
SPMM,30,28,0 36 1906
SPMM,31,28,0 36 1905
SPMM,32,28,0 36 1904
SPMM,33,28,0 36 1903
SPMM,34,28,0 36 1902
SPMM,35,28,0 36 1901
SPMM,36,28,0 36 1900
SPMM,37,28,0 36 1899
SPMM,38,28,0 36 1898
SPMM,39,28,0 36 1897
SPMM,40,28,0 36 1896
SPMM,41,28,0 36 1895
SPMM,42,28,0 36 1894
SPMM,43,28,0 36 1893
SPMM,44,28,0 36 1892
SPMM,45,28,0 36 1891
SPMM,46,28,0 36 1890
SPMM,47,28,0 36 1889
SPMM,48,28,0 36 1888
SPMM,49,28,0 36 1887
SPMM,50,28,0 36 1886
SPMM,16,28,0 37 1885
SPMM,17,28,0 37 1884
SPMM,18,28,0 37 1883
XTY,28,8,4 37 1882
SPMM,16,29,0 37 1881
SPMM,17,29,0 37 1880
SPMM,18,29,0 37 1879
XTY,29,9,4 37 1878
SPMM,16,30,0 37 1877
SPMM,17,30,0 37 1876
SPMM,18,30,0 37 1875
XTY,30,10,4 37 1874
SPMM,16,31,0 37 1873
SPMM,17,31,0 37 1872
SPMM,18,31,0 37 1871
SPMM,19,31,0 37 1870
XTY,31,11,4 37 1869
XTY,47,7,4 37 1868
XTY,46,6,4 37 1867
XTY,45,5,4 37 1866
XTY,44,4,4 37 1865
DLACPY,27,1 34 1864
SPMM,26,27,0 34 1863
SPMM,27,27,0 34 1862
SPMM,28,27,0 34 1861
SPMM,29,27,0 34 1860
SPMM,30,27,0 34 1859
SPMM,31,27,0 34 1858
SPMM,36,27,0 34 1857
SPMM,37,27,0 34 1856
SPMM,38,27,0 34 1855
SPMM,39,27,0 34 1854
SPMM,40,27,0 34 1853
SPMM,41,27,0 34 1852
SPMM,42,27,0 34 1851
SPMM,43,27,0 34 1850
SPMM,44,27,0 34 1849
SPMM,45,27,0 34 1848
SPMM,46,27,0 34 1847
SPMM,47,27,0 34 1846
DLACPY,26,1 34 1845
SPMM,24,26,0 34 1844
SPMM,25,26,0 34 1843
SPMM,26,26,0 34 1842
SPMM,27,26,0 34 1841
SPMM,28,26,0 34 1840
SPMM,29,26,0 34 1839
SPMM,30,26,0 34 1838
SPMM,31,26,0 34 1837
SPMM,36,26,0 34 1836
SPMM,37,26,0 34 1835
SPMM,38,26,0 34 1834
SPMM,39,26,0 34 1833
SPMM,40,26,0 34 1832
SPMM,41,26,0 34 1831
SPMM,42,26,0 34 1830
SPMM,43,26,0 34 1829
SPMM,44,26,0 34 1828
SPMM,45,26,0 34 1827
SPMM,46,26,0 34 1826
SPMM,47,26,0 34 1825
DLACPY,25,1 34 1824
SPMM,24,25,0 34 1823
SPMM,25,25,0 34 1822
SPMM,26,25,0 34 1821
SPMM,31,25,0 34 1820
SPMM,36,25,0 34 1819
SPMM,40,25,0 34 1818
SPMM,41,25,0 34 1817
SPMM,42,25,0 34 1816
SPMM,43,25,0 34 1815
SPMM,44,25,0 34 1814
SPMM,45,25,0 34 1813
SPMM,47,25,0 34 1812
DLACPY,24,1 34 1811
SPMM,24,24,0 34 1810
SPMM,25,24,0 34 1809
SPMM,26,24,0 34 1808
SPMM,28,24,0 34 1807
SPMM,29,24,0 34 1806
SPMM,30,24,0 34 1805
SPMM,31,24,0 34 1804
SPMM,36,24,0 34 1803
SPMM,37,24,0 34 1802
SPMM,38,24,0 34 1801
SPMM,39,24,0 34 1800
SPMM,40,24,0 34 1799
SPMM,41,24,0 34 1798
SPMM,42,24,0 34 1797
SPMM,43,24,0 34 1796
SPMM,44,24,0 34 1795
SPMM,45,24,0 34 1794
SPMM,46,24,0 34 1793
SPMM,47,24,0 34 1792
XY,0,3 30 1791
DLACPY,0,1 30 1790
SPMM,0,0,0 30 1789
SPMM,1,0,0 30 1788
SPMM,18,0,0 30 1787
SPMM,19,0,0 30 1786
XY,1,3 30 1785
DLACPY,1,1 30 1784
SPMM,0,1,0 30 1783
SPMM,1,1,0 30 1782
SPMM,2,1,0 30 1781
SPMM,11,1,0 30 1780
SPMM,18,1,0 30 1779
SPMM,19,1,0 30 1778
XY,2,3 30 1777
DLACPY,2,1 30 1776
SPMM,1,2,0 30 1775
SPMM,2,2,0 30 1774
SPMM,3,2,0 30 1773
SPMM,8,2,0 30 1772
SPMM,9,2,0 30 1771
SPMM,10,2,0 30 1770
SPMM,11,2,0 30 1769
SPMM,12,2,0 30 1768
SPMM,14,2,0 30 1767
SPMM,18,2,0 30 1766
SPMM,19,2,0 30 1765
XY,3,3 30 1764
DLACPY,3,1 30 1763
SPMM,2,3,0 30 1762
SPMM,3,3,0 30 1761
SPMM,4,3,0 30 1760
SPMM,7,3,0 30 1759
SPMM,8,3,0 30 1758
SPMM,9,3,0 30 1757
SPMM,10,3,0 30 1756
SPMM,11,3,0 30 1755
SPMM,12,3,0 30 1754
SPMM,13,3,0 30 1753
SPMM,14,3,0 30 1752
SPMM,18,3,0 30 1751
SPMM,19,3,0 30 1750
XY,4,3 32 1749
DLACPY,4,1 32 1748
SPMM,8,4,0 32 1747
SPMM,9,4,0 32 1746
SPMM,10,4,0 32 1745
SPMM,11,4,0 32 1744
SPMM,12,4,0 32 1743
SPMM,13,4,0 32 1742
SPMM,14,4,0 32 1741
SPMM,18,4,0 32 1740
SPMM,19,4,0 32 1739
SPMM,24,4,0 32 1738
SPMM,25,4,0 32 1737
SPMM,26,4,0 32 1736
UPDATE,4,1 32 1735
XTY,4,4,4 32 1734
XY,5,3 32 1733
DLACPY,5,1 32 1732
SPMM,8,5,0 32 1731
SPMM,9,5,0 32 1730
SPMM,10,5,0 32 1729
SPMM,11,5,0 32 1728
SPMM,12,5,0 32 1727
SPMM,13,5,0 32 1726
SPMM,14,5,0 32 1725
SPMM,18,5,0 32 1724
SPMM,19,5,0 32 1723
SPMM,24,5,0 32 1722
SPMM,25,5,0 32 1721
SPMM,26,5,0 32 1720
UPDATE,5,1 32 1719
XTY,5,5,4 32 1718
XY,6,3 32 1717
DLACPY,6,1 32 1716
SPMM,8,6,0 32 1715
SPMM,9,6,0 32 1714
SPMM,10,6,0 32 1713
SPMM,11,6,0 32 1712
SPMM,12,6,0 32 1711
SPMM,13,6,0 32 1710
SPMM,14,6,0 32 1709
UPDATE,6,1 32 1708
XTY,6,6,4 32 1707
XY,7,3 32 1706
DLACPY,7,1 32 1705
SPMM,8,7,0 32 1704
SPMM,9,7,0 32 1703
SPMM,10,7,0 32 1702
SPMM,11,7,0 32 1701
SPMM,12,7,0 32 1700
SPMM,13,7,0 32 1699
SPMM,14,7,0 32 1698
UPDATE,7,1 32 1697
XTY,7,7,4 32 1696
XY,8,3 27 1695
DLACPY,8,1 27 1694
SPMM,4,8,0 27 1693
SPMM,5,8,0 27 1692
SPMM,6,8,0 27 1691
SPMM,7,8,0 27 1690
SPMM,8,8,0 27 1689
SPMM,9,8,0 27 1688
SPMM,10,8,0 27 1687
SPMM,11,8,0 27 1686
SPMM,12,8,0 27 1685
SPMM,13,8,0 27 1684
SPMM,14,8,0 27 1683
UPDATE,8,1 27 1682
XTY,8,8,4 27 1681
XY,9,3 27 1680
DLACPY,9,1 27 1679
SPMM,4,9,0 27 1678
SPMM,5,9,0 27 1677
SPMM,6,9,0 27 1676
SPMM,7,9,0 27 1675
SPMM,8,9,0 27 1674
SPMM,9,9,0 27 1673
SPMM,10,9,0 27 1672
SPMM,11,9,0 27 1671
SPMM,12,9,0 27 1670
SPMM,13,9,0 27 1669
SPMM,14,9,0 27 1668
UPDATE,9,1 27 1667
XTY,9,9,4 27 1666
XY,10,3 27 1665
DLACPY,10,1 27 1664
SPMM,4,10,0 27 1663
SPMM,5,10,0 27 1662
SPMM,6,10,0 27 1661
SPMM,7,10,0 27 1660
SPMM,8,10,0 27 1659
SPMM,9,10,0 27 1658
SPMM,10,10,0 27 1657
SPMM,11,10,0 27 1656
SPMM,12,10,0 27 1655
SPMM,13,10,0 27 1654
SPMM,14,10,0 27 1653
UPDATE,10,1 27 1652
XTY,10,10,4 27 1651
XY,11,3 27 1650
DLACPY,11,1 27 1649
SPMM,4,11,0 27 1648
SPMM,5,11,0 27 1647
SPMM,6,11,0 27 1646
SPMM,7,11,0 27 1645
SPMM,8,11,0 27 1644
SPMM,9,11,0 27 1643
SPMM,10,11,0 27 1642
SPMM,11,11,0 27 1641
SPMM,12,11,0 27 1640
SPMM,13,11,0 27 1639
SPMM,14,11,0 27 1638
UPDATE,11,1 27 1637
XTY,11,11,4 27 1636
XY,16,3 26 1635
XY,17,3 26 1634
XY,18,3 26 1633
XY,19,3 26 1632
XY,20,3 26 1631
XY,21,3 26 1630
XY,22,3 26 1629
XY,23,3 26 1628
XY,40,3 26 1627
XY,41,3 26 1626
XY,42,3 26 1625
XY,43,3 26 1624
DLACPY,43,1 35 1623
SPMM,15,43,0 35 1622
SPMM,16,43,0 35 1621
SPMM,17,43,0 35 1620
SPMM,18,43,0 35 1619
SPMM,19,43,0 35 1618
SPMM,21,43,0 35 1617
SPMM,22,43,0 35 1616
SPMM,23,43,0 35 1615
SPMM,24,43,0 35 1614
SPMM,25,43,0 35 1613
SPMM,26,43,0 35 1612
SPMM,27,43,0 35 1611
SPMM,28,43,0 35 1610
SPMM,29,43,0 35 1609
SPMM,30,43,0 35 1608
SPMM,31,43,0 35 1607
SPMM,48,43,0 35 1606
SPMM,49,43,0 35 1605
SPMM,50,43,0 35 1604
DLACPY,42,1 35 1603
SPMM,15,42,0 35 1602
SPMM,16,42,0 35 1601
SPMM,17,42,0 35 1600
SPMM,18,42,0 35 1599
SPMM,19,42,0 35 1598
SPMM,20,42,0 35 1597
SPMM,21,42,0 35 1596
SPMM,22,42,0 35 1595
SPMM,23,42,0 35 1594
SPMM,24,42,0 35 1593
SPMM,25,42,0 35 1592
SPMM,26,42,0 35 1591
SPMM,27,42,0 35 1590
SPMM,28,42,0 35 1589
SPMM,29,42,0 35 1588
SPMM,30,42,0 35 1587
SPMM,31,42,0 35 1586
SPMM,48,42,0 35 1585
SPMM,49,42,0 35 1584
SPMM,50,42,0 35 1583
DLACPY,41,1 35 1582
SPMM,15,41,0 35 1581
SPMM,16,41,0 35 1580
SPMM,17,41,0 35 1579
SPMM,18,41,0 35 1578
SPMM,19,41,0 35 1577
SPMM,20,41,0 35 1576
SPMM,21,41,0 35 1575
SPMM,22,41,0 35 1574
SPMM,23,41,0 35 1573
SPMM,24,41,0 35 1572
SPMM,25,41,0 35 1571
SPMM,26,41,0 35 1570
SPMM,27,41,0 35 1569
SPMM,28,41,0 35 1568
SPMM,29,41,0 35 1567
SPMM,30,41,0 35 1566
SPMM,31,41,0 35 1565
SPMM,48,41,0 35 1564
SPMM,49,41,0 35 1563
SPMM,50,41,0 35 1562
DLACPY,40,1 35 1561
SPMM,15,40,0 35 1560
SPMM,16,40,0 35 1559
SPMM,17,40,0 35 1558
SPMM,18,40,0 35 1557
SPMM,20,40,0 35 1556
SPMM,21,40,0 35 1555
SPMM,22,40,0 35 1554
SPMM,23,40,0 35 1553
SPMM,24,40,0 35 1552
SPMM,25,40,0 35 1551
SPMM,26,40,0 35 1550
SPMM,27,40,0 35 1549
SPMM,28,40,0 35 1548
SPMM,29,40,0 35 1547
SPMM,30,40,0 35 1546
SPMM,31,40,0 35 1545
SPMM,48,40,0 35 1544
SPMM,49,40,0 35 1543
SPMM,50,40,0 35 1542
SPMM,36,40,0 44 1541
SPMM,37,40,0 44 1540
SPMM,38,40,0 44 1539
SPMM,39,40,0 44 1538
SPMM,40,40,0 44 1537
SPMM,41,40,0 44 1536
SPMM,42,40,0 44 1535
SPMM,43,40,0 44 1534
SPMM,44,40,0 44 1533
SPMM,45,40,0 44 1532
SPMM,46,40,0 44 1531
SPMM,47,40,0 44 1530
SPMM,36,41,0 44 1529
SPMM,37,41,0 44 1528
SPMM,38,41,0 44 1527
SPMM,39,41,0 44 1526
SPMM,40,41,0 44 1525
SPMM,41,41,0 44 1524
SPMM,42,41,0 44 1523
SPMM,43,41,0 44 1522
SPMM,44,41,0 44 1521
SPMM,45,41,0 44 1520
SPMM,46,41,0 44 1519
SPMM,47,41,0 44 1518
SPMM,36,42,0 44 1517
SPMM,37,42,0 44 1516
SPMM,38,42,0 44 1515
SPMM,39,42,0 44 1514
SPMM,40,42,0 44 1513
SPMM,41,42,0 44 1512
SPMM,42,42,0 44 1511
SPMM,43,42,0 44 1510
SPMM,44,42,0 44 1509
SPMM,45,42,0 44 1508
SPMM,46,42,0 44 1507
SPMM,47,42,0 44 1506
SPMM,36,43,0 44 1505
SPMM,37,43,0 44 1504
SPMM,38,43,0 44 1503
SPMM,39,43,0 44 1502
SPMM,40,43,0 44 1501
SPMM,41,43,0 44 1500
SPMM,42,43,0 44 1499
SPMM,43,43,0 44 1498
SPMM,44,43,0 44 1497
SPMM,45,43,0 44 1496
SPMM,46,43,0 44 1495
SPMM,47,43,0 44 1494
SPMM,20,47,0 44 1493
SPMM,21,47,0 44 1492
SPMM,22,47,0 44 1491
SPMM,23,47,0 44 1490
SPMM,32,47,0 44 1489
SPMM,33,47,0 44 1488
SPMM,34,47,0 44 1487
SPMM,35,47,0 44 1486
SPMM,36,47,0 44 1485
SPMM,37,47,0 44 1484
SPMM,38,47,0 44 1483
SPMM,39,47,0 44 1482
UPDATE,47,1 44 1481
SPMM,21,46,0 44 1480
SPMM,22,46,0 44 1479
SPMM,23,46,0 44 1478
SPMM,32,46,0 44 1477
SPMM,33,46,0 44 1476
SPMM,34,46,0 44 1475
SPMM,35,46,0 44 1474
SPMM,36,46,0 44 1473
SPMM,37,46,0 44 1472
SPMM,38,46,0 44 1471
SPMM,39,46,0 44 1470
UPDATE,46,1 44 1469
SPMM,20,45,0 44 1468
SPMM,21,45,0 44 1467
SPMM,22,45,0 44 1466
SPMM,23,45,0 44 1465
SPMM,32,45,0 44 1464
SPMM,33,45,0 44 1463
SPMM,34,45,0 44 1462
SPMM,35,45,0 44 1461
SPMM,36,45,0 44 1460
SPMM,37,45,0 44 1459
SPMM,38,45,0 44 1458
SPMM,39,45,0 44 1457
UPDATE,45,1 44 1456
SPMM,20,44,0 44 1455
SPMM,21,44,0 44 1454
SPMM,22,44,0 44 1453
SPMM,23,44,0 44 1452
SPMM,32,44,0 44 1451
SPMM,33,44,0 44 1450
SPMM,34,44,0 44 1449
SPMM,35,44,0 44 1448
SPMM,36,44,0 44 1447
SPMM,37,44,0 44 1446
SPMM,38,44,0 44 1445
SPMM,39,44,0 44 1444
UPDATE,44,1 44 1443
XTY,40,0,4 38 1442
XTY,41,1,4 38 1441
XTY,42,2,4 38 1440
XTY,43,3,4 38 1439
SPMM,14,24,0 38 1438
SPMM,15,24,0 38 1437
XTY,24,4,4 38 1436
SPMM,14,25,0 38 1435
XTY,25,5,4 38 1434
SPMM,14,26,0 38 1433
SPMM,15,26,0 38 1432
XTY,26,6,4 38 1431
SPMM,15,27,0 38 1430
XTY,27,7,4 38 1429
DLACPY,19,1 41 1428
SPMM,14,19,0 41 1427
SPMM,18,19,0 41 1426
SPMM,19,19,0 41 1425
SPMM,20,19,0 41 1424
SPMM,21,19,0 41 1423
SPMM,38,19,0 41 1422
SPMM,39,19,0 41 1421
UPDATE,19,1 41 1420
DLACPY,18,1 41 1419
SPMM,14,18,0 41 1418
SPMM,15,18,0 41 1417
SPMM,16,18,0 41 1416
SPMM,17,18,0 41 1415
SPMM,18,18,0 41 1414
SPMM,19,18,0 41 1413
SPMM,20,18,0 41 1412
SPMM,21,18,0 41 1411
SPMM,22,18,0 41 1410
SPMM,23,18,0 41 1409
SPMM,32,18,0 41 1408
SPMM,33,18,0 41 1407
SPMM,34,18,0 41 1406
SPMM,35,18,0 41 1405
SPMM,36,18,0 41 1404
SPMM,37,18,0 41 1403
SPMM,38,18,0 41 1402
SPMM,39,18,0 41 1401
UPDATE,18,1 41 1400
DLACPY,17,1 41 1399
SPMM,16,17,0 41 1398
SPMM,17,17,0 41 1397
SPMM,18,17,0 41 1396
SPMM,23,17,0 41 1395
SPMM,32,17,0 41 1394
SPMM,33,17,0 41 1393
SPMM,34,17,0 41 1392
SPMM,35,17,0 41 1391
SPMM,36,17,0 41 1390
SPMM,37,17,0 41 1389
SPMM,38,17,0 41 1388
SPMM,39,17,0 41 1387
UPDATE,17,1 41 1386
DLACPY,16,1 41 1385
SPMM,15,16,0 41 1384
SPMM,16,16,0 41 1383
SPMM,17,16,0 41 1382
SPMM,18,16,0 41 1381
SPMM,22,16,0 41 1380
SPMM,23,16,0 41 1379
SPMM,32,16,0 41 1378
SPMM,33,16,0 41 1377
SPMM,34,16,0 41 1376
SPMM,35,16,0 41 1375
SPMM,36,16,0 41 1374
SPMM,37,16,0 41 1373
SPMM,38,16,0 41 1372
SPMM,39,16,0 41 1371
UPDATE,16,1 41 1370
SPMM,4,18,0 54 1369
SPMM,5,18,0 54 1368
SPMM,4,19,0 54 1367
SPMM,5,19,0 54 1366
SPMM,48,24,0 54 1365
SPMM,49,24,0 54 1364
SPMM,50,24,0 54 1363
SPMM,49,25,0 54 1362
SPMM,50,25,0 54 1361
SPMM,48,26,0 54 1360
SPMM,49,26,0 54 1359
SPMM,50,26,0 54 1358
SPMM,48,27,0 54 1357
SPMM,49,27,0 54 1356
SPMM,50,27,0 54 1355
SPMM,40,47,0 54 1354
SPMM,41,47,0 54 1353
SPMM,42,47,0 54 1352
SPMM,43,47,0 54 1351
SPMM,40,46,0 54 1350
SPMM,41,46,0 54 1349
SPMM,42,46,0 54 1348
SPMM,43,46,0 54 1347
SPMM,40,45,0 54 1346
SPMM,41,45,0 54 1345
SPMM,42,45,0 54 1344
SPMM,43,45,0 54 1343
SPMM,40,44,0 54 1342
SPMM,41,44,0 54 1341
SPMM,42,44,0 54 1340
SPMM,43,44,0 54 1339
XY,48,3 28 1338
DLACPY,48,1 28 1337
SPMM,28,48,0 28 1336
SPMM,29,48,0 28 1335
SPMM,30,48,0 28 1334
SPMM,31,48,0 28 1333
SPMM,36,48,0 28 1332
SPMM,37,48,0 28 1331
SPMM,38,48,0 28 1330
SPMM,39,48,0 28 1329
SPMM,40,48,0 28 1328
SPMM,41,48,0 28 1327
SPMM,42,48,0 28 1326
SPMM,43,48,0 28 1325
SPMM,44,48,0 28 1324
SPMM,45,48,0 28 1323
SPMM,46,48,0 28 1322
SPMM,47,48,0 28 1321
SPMM,48,48,0 28 1320
SPMM,49,48,0 28 1319
SPMM,50,48,0 28 1318
XY,49,3 28 1317
DLACPY,49,1 28 1316
SPMM,28,49,0 28 1315
SPMM,29,49,0 28 1314
SPMM,30,49,0 28 1313
SPMM,31,49,0 28 1312
SPMM,36,49,0 28 1311
SPMM,37,49,0 28 1310
SPMM,38,49,0 28 1309
SPMM,39,49,0 28 1308
SPMM,40,49,0 28 1307
SPMM,41,49,0 28 1306
SPMM,42,49,0 28 1305
SPMM,43,49,0 28 1304
SPMM,44,49,0 28 1303
SPMM,45,49,0 28 1302
SPMM,46,49,0 28 1301
SPMM,47,49,0 28 1300
SPMM,48,49,0 28 1299
SPMM,49,49,0 28 1298
SPMM,50,49,0 28 1297
XY,50,3 28 1296
DLACPY,50,1 28 1295
SPMM,28,50,0 28 1294
SPMM,29,50,0 28 1293
SPMM,30,50,0 28 1292
SPMM,31,50,0 28 1291
SPMM,36,50,0 28 1290
SPMM,37,50,0 28 1289
SPMM,38,50,0 28 1288
SPMM,39,50,0 28 1287
SPMM,40,50,0 28 1286
SPMM,41,50,0 28 1285
SPMM,42,50,0 28 1284
SPMM,43,50,0 28 1283
SPMM,44,50,0 28 1282
SPMM,45,50,0 28 1281
SPMM,46,50,0 28 1280
SPMM,47,50,0 28 1279
SPMM,48,50,0 28 1278
SPMM,49,50,0 28 1277
SPMM,50,50,0 28 1276
SPMM,21,50,0 31 1275
SPMM,22,50,0 31 1274
SPMM,23,50,0 31 1273
SPMM,20,49,0 31 1272
SPMM,21,49,0 31 1271
SPMM,22,49,0 31 1270
SPMM,23,49,0 31 1269
SPMM,21,48,0 31 1268
SPMM,22,48,0 31 1267
SPMM,23,48,0 31 1266
SPMM,20,3,0 31 1265
SPMM,21,3,0 31 1264
SPMM,24,3,0 31 1263
SPMM,25,3,0 31 1262
SPMM,26,3,0 31 1261
UPDATE,3,1 31 1260
XTY,3,3,4 31 1259
SPMM,20,2,0 31 1258
SPMM,21,2,0 31 1257
SPMM,24,2,0 31 1256
SPMM,25,2,0 31 1255
SPMM,26,2,0 31 1254
UPDATE,2,1 31 1253
XTY,2,2,4 31 1252
SPMM,20,1,0 31 1251
SPMM,21,1,0 31 1250
SPMM,24,1,0 31 1249
SPMM,25,1,0 31 1248
SPMM,26,1,0 31 1247
UPDATE,1,1 31 1246
XTY,1,1,4 31 1245
SPMM,20,0,0 31 1244
SPMM,24,0,0 31 1243
SPMM,25,0,0 31 1242
SPMM,26,0,0 31 1241
UPDATE,0,1 31 1240
XTY,0,0,4 31 1239
XY,32,3 31 1238
XY,33,3 31 1237
XY,34,3 31 1236
XY,35,3 31 1235
DLACPY,35,1 39 1234
SPMM,16,35,0 39 1233
SPMM,17,35,0 39 1232
SPMM,18,35,0 39 1231
SPMM,21,35,0 39 1230
SPMM,22,35,0 39 1229
SPMM,23,35,0 39 1228
SPMM,28,35,0 39 1227
SPMM,29,35,0 39 1226
SPMM,30,35,0 39 1225
SPMM,31,35,0 39 1224
SPMM,32,35,0 39 1223
SPMM,33,35,0 39 1222
SPMM,34,35,0 39 1221
SPMM,35,35,0 39 1220
SPMM,36,35,0 39 1219
SPMM,37,35,0 39 1218
SPMM,38,35,0 39 1217
SPMM,39,35,0 39 1216
SPMM,44,35,0 39 1215
SPMM,45,35,0 39 1214
SPMM,46,35,0 39 1213
SPMM,47,35,0 39 1212
DLACPY,34,1 39 1211
SPMM,16,34,0 39 1210
SPMM,17,34,0 39 1209
SPMM,18,34,0 39 1208
SPMM,21,34,0 39 1207
SPMM,22,34,0 39 1206
SPMM,23,34,0 39 1205
SPMM,28,34,0 39 1204
SPMM,29,34,0 39 1203
SPMM,30,34,0 39 1202
SPMM,31,34,0 39 1201
SPMM,32,34,0 39 1200
SPMM,33,34,0 39 1199
SPMM,34,34,0 39 1198
SPMM,35,34,0 39 1197
SPMM,36,34,0 39 1196
SPMM,37,34,0 39 1195
SPMM,38,34,0 39 1194
SPMM,39,34,0 39 1193
SPMM,44,34,0 39 1192
SPMM,45,34,0 39 1191
SPMM,46,34,0 39 1190
SPMM,47,34,0 39 1189
DLACPY,33,1 39 1188
SPMM,16,33,0 39 1187
SPMM,17,33,0 39 1186
SPMM,18,33,0 39 1185
SPMM,20,33,0 39 1184
SPMM,21,33,0 39 1183
SPMM,22,33,0 39 1182
SPMM,23,33,0 39 1181
SPMM,28,33,0 39 1180
SPMM,29,33,0 39 1179
SPMM,30,33,0 39 1178
SPMM,31,33,0 39 1177
SPMM,32,33,0 39 1176
SPMM,33,33,0 39 1175
SPMM,34,33,0 39 1174
SPMM,35,33,0 39 1173
SPMM,36,33,0 39 1172
SPMM,37,33,0 39 1171
SPMM,38,33,0 39 1170
SPMM,39,33,0 39 1169
SPMM,44,33,0 39 1168
SPMM,45,33,0 39 1167
SPMM,46,33,0 39 1166
SPMM,47,33,0 39 1165
DLACPY,32,1 39 1164
SPMM,16,32,0 39 1163
SPMM,17,32,0 39 1162
SPMM,18,32,0 39 1161
SPMM,20,32,0 39 1160
SPMM,21,32,0 39 1159
SPMM,22,32,0 39 1158
SPMM,23,32,0 39 1157
SPMM,28,32,0 39 1156
SPMM,29,32,0 39 1155
SPMM,30,32,0 39 1154
SPMM,31,32,0 39 1153
SPMM,32,32,0 39 1152
SPMM,33,32,0 39 1151
SPMM,34,32,0 39 1150
SPMM,35,32,0 39 1149
SPMM,36,32,0 39 1148
SPMM,37,32,0 39 1147
SPMM,38,32,0 39 1146
SPMM,39,32,0 39 1145
SPMM,44,32,0 39 1144
SPMM,45,32,0 39 1143
SPMM,46,32,0 39 1142
SPMM,47,32,0 39 1141
SPMM,15,32,0 40 1140
XTY,32,12,4 40 1139
SPMM,15,33,0 40 1138
XTY,33,13,4 40 1137
SPMM,15,34,0 40 1136
XTY,34,14,4 40 1135
SPMM,15,35,0 40 1134
XTY,35,15,4 40 1133
UPDATE,24,1 40 1132
UPDATE,25,1 40 1131
UPDATE,26,1 40 1130
UPDATE,27,1 40 1129
SPMM,15,50,0 29 1128
SPMM,16,50,0 29 1127
SPMM,17,50,0 29 1126
SPMM,18,50,0 29 1125
SPMM,19,50,0 29 1124
SPMM,24,50,0 29 1123
SPMM,25,50,0 29 1122
SPMM,26,50,0 29 1121
SPMM,27,50,0 29 1120
SPMM,32,50,0 29 1119
SPMM,33,50,0 29 1118
SPMM,34,50,0 29 1117
SPMM,35,50,0 29 1116
UPDATE,50,1 29 1115
SPMM,15,49,0 29 1114
SPMM,16,49,0 29 1113
SPMM,17,49,0 29 1112
SPMM,18,49,0 29 1111
SPMM,24,49,0 29 1110
SPMM,25,49,0 29 1109
SPMM,26,49,0 29 1108
SPMM,27,49,0 29 1107
SPMM,32,49,0 29 1106
SPMM,33,49,0 29 1105
SPMM,34,49,0 29 1104
SPMM,35,49,0 29 1103
UPDATE,49,1 29 1102
SPMM,15,48,0 29 1101
SPMM,16,48,0 29 1100
SPMM,17,48,0 29 1099
SPMM,18,48,0 29 1098
SPMM,24,48,0 29 1097
SPMM,26,48,0 29 1096
SPMM,27,48,0 29 1095
SPMM,32,48,0 29 1094
SPMM,33,48,0 29 1093
SPMM,34,48,0 29 1092
SPMM,35,48,0 29 1091
UPDATE,48,1 29 1090
XY,12,3 29 1089
XY,13,3 29 1088
XY,14,3 29 1087
XY,15,3 29 1086
DLACPY,15,1 42 1085
SPMM,14,15,0 42 1084
SPMM,15,15,0 42 1083
SPMM,16,15,0 42 1082
SPMM,18,15,0 42 1081
SPMM,21,15,0 42 1080
SPMM,22,15,0 42 1079
SPMM,23,15,0 42 1078
SPMM,24,15,0 42 1077
SPMM,26,15,0 42 1076
SPMM,27,15,0 42 1075
SPMM,32,15,0 42 1074
SPMM,33,15,0 42 1073
SPMM,34,15,0 42 1072
SPMM,35,15,0 42 1071
SPMM,36,15,0 42 1070
SPMM,37,15,0 42 1069
SPMM,38,15,0 42 1068
SPMM,39,15,0 42 1067
DLACPY,14,1 42 1066
SPMM,12,14,0 42 1065
SPMM,13,14,0 42 1064
SPMM,14,14,0 42 1063
SPMM,15,14,0 42 1062
SPMM,18,14,0 42 1061
SPMM,19,14,0 42 1060
SPMM,20,14,0 42 1059
SPMM,21,14,0 42 1058
SPMM,23,14,0 42 1057
SPMM,24,14,0 42 1056
SPMM,25,14,0 42 1055
SPMM,26,14,0 42 1054
DLACPY,13,1 42 1053
SPMM,12,13,0 42 1052
SPMM,13,13,0 42 1051
SPMM,14,13,0 42 1050
DLACPY,12,1 42 1049
SPMM,12,12,0 42 1048
SPMM,13,12,0 42 1047
SPMM,14,12,0 42 1046
SPMM,8,12,0 43 1045
SPMM,9,12,0 43 1044
SPMM,10,12,0 43 1043
SPMM,11,12,0 43 1042
UPDATE,12,1 43 1041
XTY,12,12,4 43 1040
SPMM,8,13,0 43 1039
SPMM,9,13,0 43 1038
SPMM,10,13,0 43 1037
SPMM,11,13,0 43 1036
UPDATE,13,1 43 1035
XTY,13,13,4 43 1034
SPMM,8,14,0 43 1033
XTY,8,8,5 43 1032
SPMM,9,14,0 43 1031
XTY,9,9,5 43 1030
SPMM,10,14,0 43 1029
XTY,10,10,5 43 1028
SPMM,11,14,0 43 1027
XTY,11,11,5 43 1026
UPDATE,14,1 43 1025
XTY,14,14,4 43 1024
UPDATE,15,1 43 1023
XTY,15,15,4 43 1022
UPDATE,32,1 43 1021
UPDATE,33,1 43 1020
UPDATE,34,1 43 1019
UPDATE,35,1 43 1018
SPMM,28,16,0 43 1017
SPMM,29,16,0 43 1016
SPMM,30,16,0 43 1015
SPMM,31,16,0 43 1014
SPMM,28,17,0 43 1013
SPMM,29,17,0 43 1012
SPMM,30,17,0 43 1011
SPMM,31,17,0 43 1010
SPMM,28,18,0 43 1009
SPMM,29,18,0 43 1008
SPMM,30,18,0 43 1007
SPMM,31,18,0 43 1006
SPMM,31,19,0 43 1005
XTY,50,10,4 33 1004
XTY,49,9,4 33 1003
XTY,48,8,4 33 1002
SPMM,1,11,0 33 1001
SPMM,2,11,0 33 1000
SPMM,3,11,0 33 999
SPMM,2,10,0 33 998
SPMM,3,10,0 33 997
SPMM,2,9,0 33 996
SPMM,3,9,0 33 995
SPMM,2,8,0 33 994
SPMM,3,8,0 33 993
SPMM,3,7,0 33 992
SPMM,4,7,0 33 991
SPMM,5,7,0 33 990
SPMM,6,7,0 33 989
SPMM,7,7,0 33 988
SPMM,4,6,0 33 987
SPMM,5,6,0 33 986
SPMM,6,6,0 33 985
SPMM,7,6,0 33 984
SPMM,4,5,0 33 983
SPMM,5,5,0 33 982
SPMM,6,5,0 33 981
SPMM,7,5,0 33 980
SPMM,20,5,0 33 979
SPMM,21,5,0 33 978
SPMM,3,4,0 33 977
SPMM,4,4,0 33 976
SPMM,5,4,0 33 975
SPMM,6,4,0 33 974
SPMM,7,4,0 33 973
SPMM,20,4,0 33 972
SPMM,21,4,0 33 971
XY,36,3 33 970
XY,37,3 33 969
XY,38,3 33 968
XY,39,3 33 967
DLACPY,39,1 45 966
SPMM,15,39,0 45 965
SPMM,28,39,0 45 964
SPMM,29,39,0 45 963
SPMM,30,39,0 45 962
SPMM,31,39,0 45 961
SPMM,32,39,0 45 960
SPMM,33,39,0 45 959
SPMM,34,39,0 45 958
SPMM,35,39,0 45 957
SPMM,40,39,0 45 956
SPMM,41,39,0 45 955
SPMM,42,39,0 45 954
SPMM,43,39,0 45 953
SPMM,48,39,0 45 952
SPMM,49,39,0 45 951
SPMM,50,39,0 45 950
UPDATE,39,1 45 949
DLACPY,38,1 45 948
SPMM,15,38,0 45 947
SPMM,28,38,0 45 946
SPMM,29,38,0 45 945
SPMM,30,38,0 45 944
SPMM,31,38,0 45 943
SPMM,32,38,0 45 942
SPMM,33,38,0 45 941
SPMM,34,38,0 45 940
SPMM,35,38,0 45 939
SPMM,40,38,0 45 938
SPMM,41,38,0 45 937
SPMM,42,38,0 45 936
SPMM,43,38,0 45 935
SPMM,48,38,0 45 934
SPMM,49,38,0 45 933
SPMM,50,38,0 45 932
UPDATE,38,1 45 931
DLACPY,37,1 45 930
SPMM,15,37,0 45 929
SPMM,28,37,0 45 928
SPMM,29,37,0 45 927
SPMM,30,37,0 45 926
SPMM,31,37,0 45 925
SPMM,32,37,0 45 924
SPMM,33,37,0 45 923
SPMM,34,37,0 45 922
SPMM,35,37,0 45 921
SPMM,40,37,0 45 920
SPMM,41,37,0 45 919
SPMM,42,37,0 45 918
SPMM,43,37,0 45 917
SPMM,48,37,0 45 916
SPMM,49,37,0 45 915
SPMM,50,37,0 45 914
UPDATE,37,1 45 913
DLACPY,36,1 45 912
SPMM,15,36,0 45 911
SPMM,28,36,0 45 910
SPMM,29,36,0 45 909
SPMM,30,36,0 45 908
SPMM,31,36,0 45 907
SPMM,32,36,0 45 906
SPMM,33,36,0 45 905
SPMM,34,36,0 45 904
SPMM,35,36,0 45 903
SPMM,40,36,0 45 902
SPMM,41,36,0 45 901
SPMM,42,36,0 45 900
SPMM,43,36,0 45 899
SPMM,48,36,0 45 898
SPMM,49,36,0 45 897
SPMM,50,36,0 45 896
UPDATE,36,1 45 895
SPMM,48,32,0 45 894
SPMM,49,32,0 45 893
SPMM,50,32,0 45 892
SPMM,48,33,0 45 891
SPMM,49,33,0 45 890
SPMM,50,33,0 45 889
SPMM,48,34,0 45 888
SPMM,49,34,0 45 887
SPMM,50,34,0 45 886
SPMM,48,35,0 45 885
SPMM,49,35,0 45 884
SPMM,50,35,0 45 883
XTY,36,16,4 46 882
XTY,37,17,4 46 881
XTY,38,18,4 46 880
XTY,39,19,4 46 879
DLACPY,23,1 46 878
SPMM,14,23,0 46 877
SPMM,15,23,0 46 876
SPMM,24,23,0 46 875
SPMM,26,23,0 46 874
SPMM,27,23,0 46 873
SPMM,28,23,0 46 872
SPMM,29,23,0 46 871
SPMM,30,23,0 46 870
SPMM,31,23,0 46 869
SPMM,32,23,0 46 868
SPMM,33,23,0 46 867
SPMM,34,23,0 46 866
SPMM,35,23,0 46 865
XTY,23,3,4 46 864
DLACPY,22,1 46 863
SPMM,15,22,0 46 862
SPMM,24,22,0 46 861
SPMM,26,22,0 46 860
SPMM,27,22,0 46 859
SPMM,28,22,0 46 858
SPMM,29,22,0 46 857
SPMM,30,22,0 46 856
SPMM,31,22,0 46 855
SPMM,32,22,0 46 854
SPMM,33,22,0 46 853
SPMM,34,22,0 46 852
SPMM,35,22,0 46 851
XTY,22,2,4 46 850
DLACPY,21,1 46 849
SPMM,14,21,0 46 848
SPMM,15,21,0 46 847
SPMM,24,21,0 46 846
SPMM,25,21,0 46 845
SPMM,26,21,0 46 844
SPMM,27,21,0 46 843
SPMM,28,21,0 46 842
SPMM,29,21,0 46 841
SPMM,30,21,0 46 840
SPMM,31,21,0 46 839
SPMM,32,21,0 46 838
SPMM,33,21,0 46 837
SPMM,34,21,0 46 836
SPMM,35,21,0 46 835
XTY,21,1,4 46 834
DLACPY,20,1 46 833
SPMM,14,20,0 46 832
SPMM,24,20,0 46 831
SPMM,25,20,0 46 830
SPMM,26,20,0 46 829
SPMM,31,20,0 46 828
SPMM,32,20,0 46 827
SPMM,33,20,0 46 826
XTY,20,0,4 46 825
SPMM,28,15,0 48 824
SPMM,29,15,0 48 823
SPMM,30,15,0 48 822
SPMM,31,15,0 48 821
SPMM,28,47,0 48 820
SPMM,29,47,0 48 819
SPMM,30,47,0 48 818
SPMM,31,47,0 48 817
SPMM,28,46,0 48 816
SPMM,29,46,0 48 815
SPMM,30,46,0 48 814
SPMM,31,46,0 48 813
SPMM,28,45,0 48 812
SPMM,29,45,0 48 811
SPMM,30,45,0 48 810
SPMM,31,45,0 48 809
SPMM,28,44,0 48 808
XTY,28,8,5 48 807
SPMM,29,44,0 48 806
XTY,29,9,5 48 805
SPMM,30,44,0 48 804
XTY,30,10,5 48 803
SPMM,31,44,0 48 802
XTY,31,11,5 48 801
SPMM,18,20,0 47 800
SPMM,19,20,0 47 799
SPMM,20,20,0 47 798
SPMM,21,20,0 47 797
SPMM,18,21,0 47 796
SPMM,19,21,0 47 795
SPMM,20,21,0 47 794
SPMM,21,21,0 47 793
SPMM,22,21,0 47 792
SPMM,23,21,0 47 791
SPMM,16,22,0 47 790
SPMM,18,22,0 47 789
SPMM,21,22,0 47 788
SPMM,22,22,0 47 787
SPMM,23,22,0 47 786
SPMM,16,23,0 47 785
SPMM,17,23,0 47 784
SPMM,18,23,0 47 783
SPMM,21,23,0 47 782
SPMM,22,23,0 47 781
SPMM,23,23,0 47 780
SPMM,44,36,0 47 779
SPMM,45,36,0 47 778
SPMM,46,36,0 47 777
SPMM,47,36,0 47 776
SPMM,44,37,0 47 775
SPMM,45,37,0 47 774
SPMM,46,37,0 47 773
SPMM,47,37,0 47 772
SPMM,44,38,0 47 771
SPMM,45,38,0 47 770
SPMM,46,38,0 47 769
SPMM,47,38,0 47 768
SPMM,44,39,0 47 767
SPMM,45,39,0 47 766
SPMM,46,39,0 47 765
SPMM,47,39,0 47 764
SPMM,36,20,0 49 763
UPDATE,20,1 49 762
SPMM,36,21,0 49 761
SPMM,37,21,0 49 760
SPMM,38,21,0 49 759
SPMM,39,21,0 49 758
UPDATE,21,1 49 757
SPMM,36,22,0 49 756
SPMM,37,22,0 49 755
SPMM,38,22,0 49 754
SPMM,39,22,0 49 753
UPDATE,22,1 49 752
SPMM,36,23,0 49 751
SPMM,37,23,0 49 750
SPMM,38,23,0 49 749
SPMM,39,23,0 49 748
UPDATE,23,1 49 747
SPMM,20,36,0 49 746
SPMM,21,36,0 49 745
SPMM,22,36,0 49 744
SPMM,23,36,0 49 743
SPMM,21,37,0 49 742
SPMM,22,37,0 49 741
SPMM,23,37,0 49 740
SPMM,21,38,0 49 739
SPMM,22,38,0 49 738
SPMM,23,38,0 49 737
SPMM,21,39,0 49 736
SPMM,22,39,0 49 735
SPMM,23,39,0 49 734
SPMM,24,16,0 49 733
SPMM,26,16,0 49 732
SPMM,27,16,0 49 731
SPMM,24,17,0 49 730
SPMM,26,17,0 49 729
SPMM,27,17,0 49 728
SPMM,24,18,0 49 727
SPMM,25,18,0 49 726
SPMM,26,18,0 49 725
SPMM,24,19,0 49 724
SPMM,25,19,0 49 723
SPMM,26,19,0 49 722
SPMM,20,24,0 49 721
SPMM,21,24,0 49 720
SPMM,22,24,0 49 719
SPMM,23,24,0 49 718
SPMM,32,24,0 49 717
SPMM,33,24,0 49 716
SPMM,34,24,0 49 715
SPMM,35,24,0 49 714
SPMM,20,25,0 49 713
SPMM,21,25,0 49 712
SPMM,32,25,0 49 711
SPMM,33,25,0 49 710
SPMM,20,26,0 49 709
SPMM,21,26,0 49 708
SPMM,22,26,0 49 707
SPMM,23,26,0 49 706
SPMM,32,26,0 49 705
SPMM,33,26,0 49 704
SPMM,34,26,0 49 703
SPMM,35,26,0 49 702
SPMM,21,27,0 49 701
SPMM,22,27,0 49 700
SPMM,23,27,0 49 699
SPMM,32,27,0 49 698
SPMM,33,27,0 49 697
SPMM,34,27,0 49 696
SPMM,35,27,0 49 695
SPMM,21,28,0 49 694
SPMM,22,28,0 49 693
SPMM,23,28,0 49 692
SPMM,21,29,0 49 691
SPMM,22,29,0 49 690
SPMM,23,29,0 49 689
SPMM,21,30,0 49 688
SPMM,22,30,0 49 687
SPMM,23,30,0 49 686
SPMM,20,31,0 49 685
XTY,20,0,5 49 684
SPMM,21,31,0 49 683
XTY,21,1,5 49 682
SPMM,22,31,0 49 681
XTY,22,2,5 49 680
SPMM,23,31,0 49 679
XTY,23,3,5 49 678
SPMM,16,36,0 50 677
SPMM,17,36,0 50 676
SPMM,18,36,0 50 675
SPMM,24,36,0 50 674
SPMM,25,36,0 50 673
SPMM,26,36,0 50 672
SPMM,27,36,0 50 671
SPMM,36,36,0 50 670
SPMM,37,36,0 50 669
SPMM,38,36,0 50 668
SPMM,39,36,0 50 667
SPMM,16,37,0 50 666
SPMM,17,37,0 50 665
SPMM,18,37,0 50 664
SPMM,24,37,0 50 663
SPMM,26,37,0 50 662
SPMM,27,37,0 50 661
SPMM,36,37,0 50 660
SPMM,37,37,0 50 659
SPMM,38,37,0 50 658
SPMM,39,37,0 50 657
SPMM,16,38,0 50 656
SPMM,17,38,0 50 655
SPMM,18,38,0 50 654
SPMM,19,38,0 50 653
SPMM,24,38,0 50 652
SPMM,26,38,0 50 651
SPMM,27,38,0 50 650
SPMM,36,38,0 50 649
SPMM,37,38,0 50 648
SPMM,38,38,0 50 647
SPMM,39,38,0 50 646
SPMM,16,39,0 50 645
SPMM,17,39,0 50 644
SPMM,18,39,0 50 643
SPMM,19,39,0 50 642
SPMM,24,39,0 50 641
SPMM,26,39,0 50 640
SPMM,27,39,0 50 639
SPMM,36,39,0 50 638
XTY,36,16,5 50 637
SPMM,37,39,0 50 636
XTY,37,17,5 50 635
SPMM,38,39,0 50 634
XTY,38,18,5 50 633
SPMM,39,39,0 50 632
XTY,39,19,5 50 631
SPMM,15,28,0 50 630
SPMM,15,29,0 50 629
SPMM,15,30,0 50 628
SPMM,15,31,0 50 627
SPMM,16,47,0 50 626
SPMM,17,47,0 50 625
SPMM,18,47,0 50 624
SPMM,19,47,0 50 623
SPMM,16,46,0 50 622
SPMM,17,46,0 50 621
SPMM,18,46,0 50 620
SPMM,19,46,0 50 619
SPMM,16,45,0 50 618
SPMM,17,45,0 50 617
SPMM,18,45,0 50 616
SPMM,19,45,0 50 615
SPMM,16,44,0 50 614
SPMM,17,44,0 50 613
SPMM,18,44,0 50 612
SPMM,19,44,0 50 611
SPMM,40,32,0 51 610
SPMM,41,32,0 51 609
SPMM,42,32,0 51 608
SPMM,43,32,0 51 607
SPMM,40,33,0 51 606
SPMM,41,33,0 51 605
SPMM,42,33,0 51 604
SPMM,43,33,0 51 603
SPMM,40,34,0 51 602
SPMM,41,34,0 51 601
SPMM,42,34,0 51 600
SPMM,43,34,0 51 599
SPMM,40,35,0 51 598
SPMM,41,35,0 51 597
SPMM,42,35,0 51 596
SPMM,43,35,0 51 595
XTY,16,16,4 51 594
XTY,17,17,4 51 593
XTY,18,18,4 51 592
XTY,19,19,4 51 591
RED,XARBUF,0 51 590
SPMM,16,24,0 51 589
SPMM,17,24,0 51 588
SPMM,18,24,0 51 587
SPMM,19,24,0 51 586
SPMM,18,25,0 51 585
SPMM,19,25,0 51 584
SPMM,16,26,0 51 583
SPMM,17,26,0 51 582
SPMM,18,26,0 51 581
XTY,18,18,5 51 580
SPMM,19,26,0 51 579
XTY,19,19,5 51 578
SPMM,16,27,0 51 577
XTY,16,16,5 51 576
SPMM,17,27,0 51 575
XTY,17,17,5 51 574
SPMM,24,47,0 51 573
SPMM,25,47,0 51 572
SPMM,26,47,0 51 571
SPMM,27,47,0 51 570
SPMM,24,46,0 51 569
SPMM,26,46,0 51 568
SPMM,27,46,0 51 567
SPMM,24,45,0 51 566
SPMM,25,45,0 51 565
SPMM,26,45,0 51 564
SPMM,27,45,0 51 563
SPMM,24,44,0 51 562
SPMM,25,44,0 51 561
SPMM,26,44,0 51 560
SPMM,27,44,0 51 559
SPMM,40,20,0 55 558
SPMM,41,20,0 55 557
SPMM,42,20,0 55 556
SPMM,40,21,0 55 555
SPMM,41,21,0 55 554
SPMM,42,21,0 55 553
SPMM,43,21,0 55 552
SPMM,40,22,0 55 551
SPMM,41,22,0 55 550
SPMM,42,22,0 55 549
SPMM,43,22,0 55 548
SPMM,40,23,0 55 547
SPMM,41,23,0 55 546
SPMM,42,23,0 55 545
SPMM,43,23,0 55 544
SPMM,40,15,0 55 543
SPMM,41,15,0 55 542
SPMM,42,15,0 55 541
SPMM,43,15,0 55 540
SPMM,40,16,0 55 539
SPMM,41,16,0 55 538
SPMM,42,16,0 55 537
SPMM,43,16,0 55 536
SPMM,44,16,0 55 535
SPMM,45,16,0 55 534
SPMM,46,16,0 55 533
SPMM,47,16,0 55 532
SPMM,40,17,0 55 531
SPMM,41,17,0 55 530
SPMM,42,17,0 55 529
SPMM,43,17,0 55 528
SPMM,44,17,0 55 527
SPMM,45,17,0 55 526
SPMM,46,17,0 55 525
SPMM,47,17,0 55 524
SPMM,40,18,0 55 523
XTY,40,0,5 55 522
SPMM,41,18,0 55 521
SPMM,42,18,0 55 520
SPMM,43,18,0 55 519
SPMM,44,18,0 55 518
SPMM,45,18,0 55 517
SPMM,46,18,0 55 516
SPMM,47,18,0 55 515
SPMM,41,19,0 55 514
XTY,41,1,5 55 513
SPMM,42,19,0 55 512
XTY,42,2,5 55 511
SPMM,43,19,0 55 510
XTY,43,3,5 55 509
SPMM,44,19,0 55 508
SPMM,45,19,0 55 507
SPMM,46,19,0 55 506
SPMM,47,19,0 55 505
SPMM,4,24,0 55 504
SPMM,5,24,0 55 503
SPMM,4,25,0 55 502
SPMM,5,25,0 55 501
SPMM,4,26,0 55 500
SPMM,5,26,0 55 499
XTY,14,14,5 52 498
XTY,13,13,5 52 497
XTY,12,12,5 52 496
SPMM,4,12,0 52 495
SPMM,5,12,0 52 494
SPMM,6,12,0 52 493
SPMM,7,12,0 52 492
SPMM,4,13,0 52 491
SPMM,5,13,0 52 490
SPMM,6,13,0 52 489
SPMM,7,13,0 52 488
SPMM,4,14,0 52 487
SPMM,5,14,0 52 486
SPMM,6,14,0 52 485
SPMM,7,14,0 52 484
SPMM,24,32,0 52 483
SPMM,25,32,0 52 482
SPMM,26,32,0 52 481
SPMM,27,32,0 52 480
SPMM,24,33,0 52 479
SPMM,25,33,0 52 478
XTY,25,5,5 52 477
SPMM,26,33,0 52 476
SPMM,27,33,0 52 475
SPMM,24,34,0 52 474
SPMM,26,34,0 52 473
SPMM,27,34,0 52 472
SPMM,24,35,0 52 471
XTY,24,4,5 52 470
SPMM,26,35,0 52 469
XTY,26,6,5 52 468
SPMM,27,35,0 52 467
XTY,27,7,5 52 466
SPMM,32,40,0 52 465
SPMM,33,40,0 52 464
SPMM,34,40,0 52 463
SPMM,35,40,0 52 462
SPMM,32,41,0 52 461
SPMM,33,41,0 52 460
SPMM,34,41,0 52 459
SPMM,35,41,0 52 458
SPMM,32,42,0 52 457
SPMM,33,42,0 52 456
SPMM,34,42,0 52 455
SPMM,35,42,0 52 454
SPMM,32,43,0 52 453
XTY,32,12,5 52 452
SPMM,33,43,0 52 451
XTY,33,13,5 52 450
SPMM,34,43,0 52 449
XTY,34,14,5 52 448
SPMM,35,43,0 52 447
XTY,35,15,5 52 446
SPMM,15,47,0 52 445
SPMM,15,46,0 52 444
SPMM,15,45,0 52 443
SPMM,15,44,0 52 442
XTY,15,15,5 52 441
SPMM,4,20,0 53 440
SPMM,5,20,0 53 439
SPMM,49,20,0 53 438
SPMM,4,21,0 53 437
SPMM,5,21,0 53 436
SPMM,48,21,0 53 435
SPMM,49,21,0 53 434
SPMM,50,21,0 53 433
SPMM,48,22,0 53 432
SPMM,49,22,0 53 431
SPMM,50,22,0 53 430
SPMM,48,23,0 53 429
SPMM,49,23,0 53 428
SPMM,50,23,0 53 427
SPMM,48,15,0 53 426
SPMM,49,15,0 53 425
SPMM,50,15,0 53 424
UPDATE,40,1 53 423
UPDATE,41,1 53 422
UPDATE,42,1 53 421
UPDATE,43,1 53 420
UPDATE,28,1 53 419
UPDATE,29,1 53 418
UPDATE,30,1 53 417
UPDATE,31,1 53 416
XTY,5,5,5 56 415
XTY,4,4,5 56 414
XTY,7,7,5 56 413
XTY,6,6,5 56 412
SPMM,0,20,0 56 411
SPMM,1,20,0 56 410
SPMM,2,20,0 56 409
SPMM,3,20,0 56 408
SPMM,44,20,0 56 407
SPMM,45,20,0 56 406
SPMM,47,20,0 56 405
SPMM,1,21,0 56 404
SPMM,2,21,0 56 403
SPMM,3,21,0 56 402
SPMM,44,21,0 56 401
SPMM,45,21,0 56 400
SPMM,46,21,0 56 399
SPMM,47,21,0 56 398
SPMM,44,22,0 56 397
SPMM,45,22,0 56 396
SPMM,46,22,0 56 395
SPMM,47,22,0 56 394
SPMM,44,23,0 56 393
SPMM,45,23,0 56 392
SPMM,46,23,0 56 391
SPMM,47,23,0 56 390
SPMM,2,12,0 56 389
SPMM,3,12,0 56 388
SPMM,3,13,0 56 387
SPMM,2,14,0 56 386
SPMM,3,14,0 56 385
SPMM,44,15,0 56 384
SPMM,45,15,0 56 383
SPMM,46,15,0 56 382
SPMM,47,15,0 56 381
SPMM,44,47,0 56 380
SPMM,45,47,0 56 379
SPMM,46,47,0 56 378
SPMM,47,47,0 56 377
SPMM,44,46,0 56 376
SPMM,45,46,0 56 375
SPMM,46,46,0 56 374
SPMM,47,46,0 56 373
SPMM,44,45,0 56 372
SPMM,45,45,0 56 371
SPMM,46,45,0 56 370
SPMM,47,45,0 56 369
SPMM,44,44,0 56 368
XTY,44,4,5 56 367
SPMM,45,44,0 56 366
XTY,45,5,5 56 365
SPMM,46,44,0 56 364
XTY,46,6,5 56 363
SPMM,47,44,0 56 362
XTY,47,7,5 56 361
SPMM,48,16,0 57 360
SPMM,49,16,0 57 359
SPMM,50,16,0 57 358
SPMM,48,17,0 57 357
SPMM,49,17,0 57 356
SPMM,50,17,0 57 355
SPMM,0,18,0 57 354
SPMM,1,18,0 57 353
SPMM,2,18,0 57 352
SPMM,3,18,0 57 351
SPMM,48,18,0 57 350
SPMM,49,18,0 57 349
SPMM,50,18,0 57 348
SPMM,0,19,0 57 347
SPMM,1,19,0 57 346
SPMM,2,19,0 57 345
SPMM,3,19,0 57 344
SPMM,50,19,0 57 343
SPMM,0,24,0 57 342
SPMM,1,24,0 57 341
SPMM,2,24,0 57 340
SPMM,3,24,0 57 339
SPMM,0,25,0 57 338
SPMM,1,25,0 57 337
SPMM,2,25,0 57 336
SPMM,3,25,0 57 335
SPMM,0,26,0 57 334
XTY,0,0,5 57 333
SPMM,1,26,0 57 332
XTY,1,1,5 57 331
SPMM,2,26,0 57 330
XTY,2,2,5 57 329
SPMM,3,26,0 57 328
XTY,3,3,5 57 327
SPMM,48,47,0 57 326
SPMM,49,47,0 57 325
SPMM,50,47,0 57 324
SPMM,48,46,0 57 323
SPMM,49,46,0 57 322
SPMM,50,46,0 57 321
SPMM,48,45,0 57 320
SPMM,49,45,0 57 319
SPMM,50,45,0 57 318
SPMM,48,44,0 57 317
XTY,48,8,5 57 316
SPMM,49,44,0 57 315
XTY,49,9,5 57 314
SPMM,50,44,0 57 313
XTY,50,10,5 57 312
RED,RARBUF,0 58 311
TRANS,RAR 58 310
SPEUPDATE,RAR 58 309
CONSTRUCTGA 58 308
EIGEN 58 307
XY,12,6 58 306
XY,13,6 58 305
XY,14,6 58 304
XY,15,6 58 303
XY,16,6 58 302
XY,17,6 58 301
XY,18,6 58 300
XY,19,6 58 299
XY,20,6 60 298
XY,21,6 60 297
XY,22,6 60 296
XY,23,6 60 295
XY,24,6 60 294
XY,25,6 60 293
XY,26,6 60 292
XY,27,6 60 291
XY,48,6 60 290
XY,49,6 60 289
XY,50,6 60 288
XY,36,6 61 287
XY,37,6 61 286
XY,38,6 61 285
XY,39,6 61 284
XY,40,6 61 283
XY,41,6 61 282
XY,42,6 61 281
XY,43,6 61 280
XY,0,8 61 279
XY,1,8 61 278
XY,2,8 61 277
XY,3,8 61 276
XY,32,10 61 275
XY,33,10 61 274
XY,34,10 61 273
XY,35,10 61 272
XY,32,6 64 271
ADD,32,3 64 270
XY,33,6 64 269
ADD,33,3 64 268
XY,34,6 64 267
ADD,34,3 64 266
XY,35,6 64 265
ADD,35,3 64 264
XY,40,8 64 263
XY,41,8 64 262
XY,42,8 64 261
XY,43,8 64 260
XY,36,10 73 259
ADD,36,3 73 258
XY,37,10 73 257
ADD,37,3 73 256
XY,38,10 73 255
ADD,38,3 73 254
XY,39,10 73 253
ADD,39,3 73 252
XY,40,11 73 251
ADD,40,4 73 250
XY,41,11 73 249
ADD,41,4 73 248
XY,42,11 73 247
ADD,42,4 73 246
XY,43,11 73 245
ADD,43,4 73 244
XY,8,8 68 243
XY,9,8 68 242
XY,10,8 68 241
XY,11,8 68 240
XY,0,11 68 239
XY,1,11 68 238
XY,2,11 68 237
XY,3,11 68 236
XY,8,11 68 235
ADD,8,4 68 234
XY,9,11 68 233
ADD,9,4 68 232
XY,10,11 68 231
ADD,10,4 68 230
XY,11,11 68 229
ADD,11,4 68 228
ADD,3,4 69 227
ADD,2,4 69 226
ADD,1,4 69 225
ADD,0,4 69 224
XY,48,10 69 223
ADD,48,3 69 222
XY,49,10 69 221
ADD,49,3 69 220
XY,50,10 69 219
ADD,50,3 69 218
XY,0,6 59 217
XY,1,6 59 216
XY,2,6 59 215
XY,3,6 59 214
XY,44,6 59 213
XY,45,6 59 212
XY,46,6 59 211
XY,47,6 59 210
XY,16,11 59 209
XY,17,11 59 208
XY,18,11 59 207
XY,19,11 59 206
XY,16,8 66 205
ADD,16,4 66 204
XY,17,8 66 203
ADD,17,4 66 202
XY,18,8 66 201
ADD,18,4 66 200
XY,19,8 66 199
ADD,19,4 66 198
XY,28,8 66 197
XY,29,8 66 196
XY,30,8 66 195
XY,31,8 66 194
XY,40,10 66 193
XY,41,10 66 192
XY,42,10 66 191
XY,43,10 66 190
XY,32,11 66 189
XY,33,11 66 188
XY,34,11 66 187
XY,35,11 66 186
XY,32,8 78 185
ADD,32,4 78 184
XY,33,8 78 183
ADD,33,4 78 182
XY,34,8 78 181
ADD,34,4 78 180
XY,35,8 78 179
ADD,35,4 78 178
XY,0,10 78 177
ADD,0,3 78 176
XY,1,10 78 175
ADD,1,3 78 174
XY,2,10 78 173
ADD,2,3 78 172
XY,3,10 78 171
ADD,3,3 78 170
ADD,43,3 71 169
ADD,42,3 71 168
ADD,41,3 71 167
ADD,40,3 71 166
XY,4,6 71 165
XY,5,6 71 164
XY,6,6 71 163
XY,7,6 71 162
XY,20,10 71 161
XY,21,10 71 160
XY,22,10 71 159
XY,23,10 71 158
XY,8,6 74 157
XY,9,6 74 156
XY,10,6 74 155
XY,11,6 74 154
XY,16,10 74 153
XY,17,10 74 152
XY,18,10 74 151
XY,19,10 74 150
XY,44,10 74 149
ADD,44,3 74 148
XY,45,10 74 147
ADD,45,3 74 146
XY,46,10 74 145
ADD,46,3 74 144
XY,47,10 74 143
ADD,47,3 74 142
XY,12,11 74 141
XY,13,11 74 140
XY,14,11 74 139
XY,15,11 74 138
ADD,19,3 79 137
ADD,18,3 79 136
ADD,17,3 79 135
ADD,16,3 79 134
XY,12,10 79 133
ADD,12,3 79 132
XY,13,10 79 131
ADD,13,3 79 130
XY,14,10 79 129
ADD,14,3 79 128
XY,15,10 79 127
ADD,15,3 79 126
XY,12,8 76 125
ADD,12,4 76 124
XY,13,8 76 123
ADD,13,4 76 122
XY,14,8 76 121
ADD,14,4 76 120
XY,15,8 76 119
ADD,15,4 76 118
XY,4,10 76 117
ADD,4,3 76 116
XY,5,10 76 115
ADD,5,3 76 114
XY,6,10 76 113
ADD,6,3 76 112
XY,7,10 76 111
ADD,7,3 76 110
XY,8,10 76 109
ADD,8,3 76 108
XY,9,10 76 107
ADD,9,3 76 106
XY,10,10 76 105
ADD,10,3 76 104
XY,11,10 76 103
ADD,11,3 76 102
XY,20,8 72 101
XY,21,8 72 100
XY,22,8 72 99
XY,23,8 72 98
XY,20,11 72 97
ADD,20,4 72 96
XY,21,11 72 95
ADD,21,4 72 94
XY,22,11 72 93
ADD,22,4 72 92
XY,23,11 72 91
ADD,23,4 72 90
XY,24,8 77 89
XY,25,8 77 88
XY,26,8 77 87
XY,27,8 77 86
XY,24,11 77 85
ADD,24,4 77 84
XY,25,11 77 83
ADD,25,4 77 82
XY,26,11 77 81
ADD,26,4 77 80
XY,27,11 77 79
ADD,27,4 77 78
XY,36,8 67 77
XY,37,8 67 76
XY,38,8 67 75
XY,39,8 67 74
XY,28,11 67 73
XY,29,11 67 72
XY,30,11 67 71
XY,31,11 67 70
XY,36,11 67 69
XY,37,11 67 68
XY,38,11 67 67
XY,39,11 67 66
ADD,31,4 80 65
ADD,30,4 80 64
ADD,29,4 80 63
ADD,28,4 80 62
XY,24,10 80 61
ADD,24,3 80 60
XY,25,10 80 59
ADD,25,3 80 58
XY,26,10 80 57
ADD,26,3 80 56
XY,27,10 80 55
ADD,27,3 80 54
XY,28,10 62 53
XY,29,10 62 52
XY,30,10 62 51
XY,31,10 62 50
XY,44,11 62 49
XY,45,11 62 48
XY,46,11 62 47
XY,47,11 62 46
XY,44,8 65 45
ADD,44,4 65 44
XY,45,8 65 43
ADD,45,4 65 42
XY,46,8 65 41
ADD,46,4 65 40
XY,47,8 65 39
ADD,47,4 65 38
XY,48,8 65 37
XY,49,8 65 36
XY,50,8 65 35
ADD,23,3 75 34
ADD,22,3 75 33
ADD,21,3 75 32
ADD,20,3 75 31
XY,48,11 75 30
ADD,48,4 75 29
XY,49,11 75 28
ADD,49,4 75 27
XY,50,11 75 26
ADD,50,4 75 25
XY,28,6 63 24
ADD,28,3 63 23
XY,29,6 63 22
ADD,29,3 63 21
XY,30,6 63 20
ADD,30,3 63 19
XY,31,6 63 18
ADD,31,3 63 17
XY,4,8 63 16
XY,5,8 63 15
XY,6,8 63 14
XY,7,8 63 13
ADD,39,4 70 12
ADD,38,4 70 11
ADD,37,4 70 10
ADD,36,4 70 9
XY,4,11 70 8
ADD,4,4 70 7
XY,5,11 70 6
ADD,5,4 70 5
XY,6,11 70 4
ADD,6,4 70 3
XY,7,11 70 2
ADD,7,4 70 1
