SETZERO,25,1 0 2633
SETZERO,24,1 0 2632
SETZERO,23,1 0 2631
SETZERO,22,1 0 2630
_X,49 0 2629
_X,48 0 2628
_X,41 0 2627
_X,40 0 2626
_AX,37 0 2625
_AX,36 0 2624
_X,37 0 2623
_X,36 0 2622
_AX,29 0 2621
_AX,28 0 2620
_X,27 0 2619
_X,26 0 2618
_X,25 0 2617
_X,24 0 2616
_X,23 0 2615
_X,22 0 2614
_X,5 0 2613
_X,4 0 2612
_lambda 0 2611
XY,22,1 0 2610
XY,23,1 0 2609
XY,24,1 0 2608
XY,25,1 0 2607
XY,26,1 0 2606
XY,27,1 0 2605
XY,36,1 0 2604
SUB,36,1 0 2603
MULT,36 0 2602
COL,36,16 0 2601
XY,37,1 0 2600
SUB,37,1 0 2599
MULT,37 0 2598
COL,37,17 0 2597
XY,40,1 2 2596
XY,41,1 2 2595
SETZERO,41,1 2 2594
SETZERO,40,1 2 2593
SETZERO,31,1 2 2592
SETZERO,30,1 2 2591
SETZERO,27,1 2 2590
SETZERO,26,1 2 2589
SETZERO,17,1 2 2588
SETZERO,16,1 2 2587
_AX,41 2 2586
SUB,41,1 2 2585
MULT,41 2 2584
_AX,40 2 2583
SUB,40,1 2 2582
MULT,40 2 2581
_AX,27 2 2580
SUB,27,1 2 2579
MULT,27 2 2578
COL,27,7 2 2577
_AX,26 2 2576
SUB,26,1 2 2575
MULT,26 2 2574
COL,26,6 2 2573
_X,17 2 2572
XY,17,1 2 2571
_X,16 2 2570
XY,16,1 2 2569
_X,11 2 2568
XY,11,1 2 2567
_X,10 2 2566
XY,10,1 2 2565
SETZERO,43,1 3 2564
SETZERO,42,1 3 2563
SETZERO,37,1 3 2562
SETZERO,36,1 3 2561
SETZERO,7,1 3 2560
SETZERO,6,1 3 2559
SETZERO,3,1 3 2558
SETZERO,2,1 3 2557
_X,47 3 2556
XY,47,1 3 2555
_X,46 3 2554
XY,46,1 3 2553
_X,31 3 2552
XY,31,1 3 2551
_X,30 3 2550
XY,30,1 3 2549
_AX,25 3 2548
SUB,25,1 3 2547
MULT,25 3 2546
COL,25,5 3 2545
_AX,24 3 2544
SUB,24,1 3 2543
MULT,24 3 2542
COL,24,4 3 2541
_AX,17 3 2540
SUB,17,1 3 2539
MULT,17 3 2538
COL,17,17 3 2537
_AX,16 3 2536
SUB,16,1 3 2535
MULT,16 3 2534
COL,16,16 3 2533
XY,4,1 1 2532
XY,5,1 1 2531
XY,48,1 1 2530
XY,49,1 1 2529
SETZERO,35,1 1 2528
SETZERO,34,1 1 2527
SETZERO,33,1 1 2526
SETZERO,32,1 1 2525
SETZERO,5,1 1 2524
SETZERO,4,1 1 2523
_X,43 1 2522
XY,43,1 1 2521
_X,42 1 2520
XY,42,1 1 2519
_X,29 1 2518
XY,29,1 1 2517
SUB,29,1 1 2516
_X,28 1 2515
XY,28,1 1 2514
SUB,28,1 1 2513
_X,9 1 2512
XY,9,1 1 2511
_X,8 1 2510
XY,8,1 1 2509
_AX,5 1 2508
SUB,5,1 1 2507
MULT,5 1 2506
COL,5,5 1 2505
_AX,4 1 2504
SUB,4,1 1 2503
MULT,4 1 2502
COL,4,4 1 2501
MULT,28 4 2500
COL,28,8 4 2499
MULT,29 4 2498
COL,29,9 4 2497
SETZERO,50,1 4 2496
SETZERO,19,1 4 2495
SETZERO,18,1 4 2494
SETZERO,15,1 4 2493
SETZERO,14,1 4 2492
SETZERO,11,1 4 2491
SETZERO,10,1 4 2490
_AX,50 4 2489
_X,50 4 2488
XY,50,1 4 2487
SUB,50,1 4 2486
MULT,50 4 2485
_AX,47 4 2484
_AX,46 4 2483
_X,19 4 2482
XY,19,1 4 2481
_X,18 4 2480
XY,18,1 4 2479
_AX,11 4 2478
SUB,11,1 4 2477
MULT,11 4 2476
_AX,10 4 2475
SUB,10,1 4 2474
MULT,10 4 2473
SUB,46,1 5 2472
MULT,46 5 2471
COL,46,6 5 2470
SUB,47,1 5 2469
MULT,47 5 2468
COL,47,7 5 2467
_AX,43 5 2466
SUB,43,1 5 2465
MULT,43 5 2464
COL,43,3 5 2463
_AX,42 5 2462
SUB,42,1 5 2461
MULT,42 5 2460
COL,42,2 5 2459
_X,39 5 2458
XY,39,1 5 2457
_X,38 5 2456
XY,38,1 5 2455
_AX,31 5 2454
SUB,31,1 5 2453
MULT,31 5 2452
_AX,30 5 2451
SUB,30,1 5 2450
MULT,30 5 2449
_AX,1 5 2448
_AX,0 5 2447
_X,1 5 2446
XY,1,1 5 2445
SUB,1,1 5 2444
_X,0 5 2443
XY,0,1 5 2442
SUB,0,1 5 2441
COL,30,10 8 2440
COL,31,11 8 2439
SETZERO,47,1 8 2438
SETZERO,46,1 8 2437
SETZERO,39,1 8 2436
SETZERO,38,1 8 2435
SETZERO,29,1 8 2434
SETZERO,28,1 8 2433
SETZERO,21,1 8 2432
SETZERO,20,1 8 2431
SETZERO,1,1 8 2430
SETZERO,0,1 8 2429
_AX,35 8 2428
_AX,34 8 2427
_X,35 8 2426
XY,35,1 8 2425
SUB,35,1 8 2424
_X,34 8 2423
XY,34,1 8 2422
SUB,34,1 8 2421
_X,33 8 2420
XY,33,1 8 2419
_X,32 8 2418
XY,32,1 8 2417
_AX,7 8 2416
_AX,6 8 2415
_X,7 8 2414
XY,7,1 8 2413
SUB,7,1 8 2412
MULT,7 8 2411
_X,6 8 2410
XY,6,1 8 2409
SUB,6,1 8 2408
MULT,6 8 2407
MULT,34 9 2406
COL,34,14 9 2405
MULT,35 9 2404
COL,35,15 9 2403
SETZERO,49,1 9 2402
SETZERO,48,1 9 2401
SETZERO,45,1 9 2400
SETZERO,44,1 9 2399
SETZERO,13,1 9 2398
SETZERO,12,1 9 2397
SETZERO,9,1 9 2396
SETZERO,8,1 9 2395
_AX,23 9 2394
SUB,23,1 9 2393
MULT,23 9 2392
COL,23,3 9 2391
_AX,22 9 2390
SUB,22,1 9 2389
MULT,22 9 2388
COL,22,2 9 2387
_AX,3 9 2386
_AX,2 9 2385
_X,3 9 2384
XY,3,1 9 2383
SUB,3,1 9 2382
MULT,3 9 2381
COL,3,3 9 2380
_X,2 9 2379
XY,2,1 9 2378
SUB,2,1 9 2377
MULT,2 9 2376
COL,2,2 9 2375
COL,6,6 10 2374
COL,7,7 10 2373
_AX,45 10 2372
_AX,44 10 2371
_X,45 10 2370
XY,45,1 10 2369
SUB,45,1 10 2368
MULT,45 10 2367
COL,45,5 10 2366
_X,44 10 2365
XY,44,1 10 2364
SUB,44,1 10 2363
MULT,44 10 2362
COL,44,4 10 2361
_AX,33 10 2360
SUB,33,1 10 2359
MULT,33 10 2358
_AX,32 10 2357
SUB,32,1 10 2356
MULT,32 10 2355
_AX,13 10 2354
_AX,12 10 2353
_X,13 10 2352
XY,13,1 10 2351
SUB,13,1 10 2350
MULT,13 10 2349
COL,13,13 10 2348
_X,12 10 2347
XY,12,1 10 2346
SUB,12,1 10 2345
MULT,12 10 2344
COL,12,12 10 2343
MULT,0 6 2342
COL,0,0 6 2341
MULT,1 6 2340
COL,1,1 6 2339
COL,50,10 6 2338
_AX,39 6 2337
SUB,39,1 6 2336
MULT,39 6 2335
COL,39,19 6 2334
_AX,38 6 2333
SUB,38,1 6 2332
MULT,38 6 2331
COL,38,18 6 2330
_X,21 6 2329
XY,21,1 6 2328
_X,20 6 2327
XY,20,1 6 2326
_AX,19 6 2325
SUB,19,1 6 2324
MULT,19 6 2323
COL,19,19 6 2322
_AX,18 6 2321
SUB,18,1 6 2320
MULT,18 6 2319
COL,18,18 6 2318
_AX,9 6 2317
SUB,9,1 6 2316
MULT,9 6 2315
_AX,8 6 2314
SUB,8,1 6 2313
MULT,8 6 2312
COL,8,8 7 2311
COL,9,9 7 2310
COL,40,0 7 2309
COL,41,1 7 2308
_AX,49 7 2307
SUB,49,1 7 2306
MULT,49 7 2305
COL,49,9 7 2304
_AX,48 7 2303
SUB,48,1 7 2302
MULT,48 7 2301
COL,48,8 7 2300
_AX,21 7 2299
SUB,21,1 7 2298
MULT,21 7 2297
COL,21,1 7 2296
_AX,20 7 2295
SUB,20,1 7 2294
MULT,20 7 2293
COL,20,0 7 2292
_AX,15 7 2291
_AX,14 7 2290
_X,15 7 2289
XY,15,1 7 2288
SUB,15,1 7 2287
MULT,15 7 2286
COL,15,15 7 2285
_X,14 7 2284
XY,14,1 7 2283
SUB,14,1 7 2282
MULT,14 7 2281
COL,14,14 7 2280
COL,32,12 11 2279
COL,33,13 11 2278
COL,10,10 11 2277
COL,11,11 11 2276
RESET,RN 11 2275
RNRED,RNBUF 11 2274
SQRT,RN 11 2273
RESET,actMask 11 2272
CONV,actMask 11 2271
GET,6,1 11 2270
XTY,6,6,1 11 2269
GET,7,1 11 2268
XTY,7,7,1 11 2267
GET,12,1 11 2266
XTY,12,12,1 11 2265
GET,13,1 11 2264
XTY,13,13,1 11 2263
GET,32,1 11 2262
XTY,32,12,1 11 2261
GET,33,1 11 2260
XTY,33,13,1 11 2259
GET,34,1 11 2258
GET,35,1 11 2257
GET,44,1 11 2256
XTY,44,4,1 11 2255
GET,45,1 11 2254
XTY,45,5,1 11 2253
GET,8,1 13 2252
XTY,8,8,1 13 2251
GET,9,1 13 2250
XTY,9,9,1 13 2249
GET,20,1 13 2248
XTY,20,0,1 13 2247
GET,21,1 13 2246
XTY,21,1,1 13 2245
GET,38,1 13 2244
XTY,38,18,1 13 2243
GET,39,1 13 2242
XTY,39,19,1 13 2241
GET,42,1 13 2240
XTY,42,2,1 13 2239
GET,43,1 13 2238
XTY,43,3,1 13 2237
GET,0,1 12 2236
XTY,0,0,1 12 2235
GET,1,1 12 2234
XTY,1,1,1 12 2233
GET,4,1 12 2232
GET,5,1 12 2231
GET,22,1 12 2230
GET,23,1 12 2229
GET,24,1 12 2228
XTY,24,4,1 12 2227
GET,25,1 12 2226
XTY,25,5,1 12 2225
GET,30,1 12 2224
XTY,30,10,1 12 2223
GET,31,1 12 2222
XTY,31,11,1 12 2221
GET,46,1 12 2220
XTY,46,6,1 12 2219
GET,47,1 12 2218
XTY,47,7,1 12 2217
XTY,23,3,1 14 2216
XTY,22,2,1 14 2215
XTY,5,5,1 14 2214
XTY,4,4,1 14 2213
GET,10,1 14 2212
XTY,10,10,1 14 2211
GET,11,1 14 2210
XTY,11,11,1 14 2209
GET,14,1 14 2208
XTY,14,14,1 14 2207
GET,15,1 14 2206
XTY,15,15,1 14 2205
GET,18,1 14 2204
XTY,18,18,1 14 2203
GET,19,1 14 2202
XTY,19,19,1 14 2201
XTY,35,15,1 16 2200
XTY,34,14,1 16 2199
GET,16,1 16 2198
XTY,16,16,1 16 2197
GET,17,1 16 2196
XTY,17,17,1 16 2195
GET,28,1 16 2194
GET,29,1 16 2193
GET,40,1 16 2192
XTY,40,0,1 16 2191
GET,41,1 16 2190
XTY,41,1,1 16 2189
GET,48,1 16 2188
XTY,48,8,1 16 2187
GET,49,1 16 2186
XTY,49,9,1 16 2185
GET,2,1 15 2184
XTY,2,2,1 15 2183
GET,3,1 15 2182
XTY,3,3,1 15 2181
GET,26,1 15 2180
XTY,26,6,1 15 2179
GET,27,1 15 2178
XTY,27,7,1 15 2177
GET,36,1 15 2176
XTY,36,16,1 15 2175
GET,37,1 15 2174
XTY,37,17,1 15 2173
GET,50,1 15 2172
XTY,50,10,1 15 2171
XTY,29,9,1 17 2170
XTY,28,8,1 17 2169
RED,temp2BUF,0 17 2168
XY,0,2 17 2167
XY,1,2 17 2166
XY,2,2 17 2165
XY,3,2 17 2164
XY,4,2 17 2163
XY,5,2 17 2162
XY,6,2 17 2161
XY,7,2 17 2160
XY,8,2 17 2159
XY,9,2 17 2158
XY,50,2 17 2157
XY,10,2 19 2156
XY,11,2 19 2155
XY,12,2 19 2154
XY,13,2 19 2153
XY,14,2 19 2152
XY,15,2 19 2151
XY,18,2 19 2150
XY,19,2 19 2149
XY,30,2 19 2148
XY,31,2 19 2147
XY,42,2 19 2146
XY,43,2 19 2145
XY,44,2 19 2144
XY,45,2 19 2143
XY,46,2 19 2142
XY,47,2 19 2141
XY,16,2 18 2140
XY,17,2 18 2139
XY,20,2 18 2138
XY,21,2 18 2137
XY,28,2 18 2136
XY,29,2 18 2135
XY,32,2 18 2134
XY,33,2 18 2133
XY,34,2 18 2132
XY,35,2 18 2131
XY,36,2 18 2130
XY,37,2 18 2129
XY,40,2 18 2128
XY,41,2 18 2127
XY,48,2 18 2126
XY,49,2 18 2125
SUB,41,2 20 2124
XTY,41,1,2 20 2123
SUB,40,2 20 2122
XTY,40,0,2 20 2121
SUB,35,2 20 2120
SUB,34,2 20 2119
SUB,43,2 20 2118
XTY,43,3,2 20 2117
SUB,42,2 20 2116
XTY,42,2,2 20 2115
SUB,13,2 20 2114
XTY,13,13,2 20 2113
SUB,12,2 20 2112
XTY,12,12,2 20 2111
SUB,50,2 20 2110
XTY,50,10,2 20 2109
SUB,9,2 20 2108
XTY,9,9,2 20 2107
SUB,8,2 20 2106
XTY,8,8,2 20 2105
SUB,1,2 20 2104
XTY,1,1,2 20 2103
SUB,0,2 20 2102
XTY,0,0,2 20 2101
XY,24,2 20 2100
SUB,24,2 20 2099
XTY,24,4,2 20 2098
XY,25,2 20 2097
SUB,25,2 20 2096
XTY,25,5,2 20 2095
XY,26,2 20 2094
XY,27,2 20 2093
SUB,27,2 21 2092
XTY,27,7,2 21 2091
SUB,26,2 21 2090
XTY,26,6,2 21 2089
XTY,34,14,2 21 2088
XTY,35,15,2 21 2087
SUB,37,2 21 2086
XTY,37,17,2 21 2085
SUB,36,2 21 2084
XTY,36,16,2 21 2083
SUB,33,2 21 2082
XTY,33,13,2 21 2081
SUB,32,2 21 2080
XTY,32,12,2 21 2079
SUB,17,2 21 2078
XTY,17,17,2 21 2077
SUB,16,2 21 2076
XTY,16,16,2 21 2075
SUB,31,2 21 2074
XTY,31,11,2 21 2073
SUB,30,2 21 2072
XTY,30,10,2 21 2071
SUB,11,2 21 2070
XTY,11,11,2 21 2069
SUB,10,2 21 2068
XTY,10,10,2 21 2067
XY,38,2 21 2066
SUB,38,2 21 2065
XTY,38,18,2 21 2064
XY,39,2 21 2063
SUB,39,2 21 2062
XTY,39,19,2 21 2061
SUB,29,2 22 2060
XTY,29,9,2 22 2059
SUB,28,2 22 2058
XTY,28,8,2 22 2057
SUB,21,2 22 2056
XTY,21,1,2 22 2055
SUB,20,2 22 2054
XTY,20,0,2 22 2053
SUB,47,2 22 2052
XTY,47,7,2 22 2051
SUB,46,2 22 2050
XTY,46,6,2 22 2049
SUB,19,2 22 2048
XTY,19,19,2 22 2047
SUB,18,2 22 2046
XTY,18,18,2 22 2045
SUB,15,2 22 2044
SUB,14,2 22 2043
SUB,7,2 22 2042
XTY,7,7,2 22 2041
SUB,6,2 22 2040
XTY,6,6,2 22 2039
SUB,5,2 22 2038
XTY,5,5,2 22 2037
SUB,4,2 22 2036
XTY,4,4,2 22 2035
XY,22,2 22 2034
SUB,22,2 22 2033
XTY,22,2,2 22 2032
XY,23,2 22 2031
SUB,23,2 22 2030
XTY,23,3,2 22 2029
XTY,14,14,2 23 2028
XTY,15,15,2 23 2027
SUB,49,2 23 2026
XTY,49,9,2 23 2025
SUB,48,2 23 2024
XTY,48,8,2 23 2023
SUB,45,2 23 2022
XTY,45,5,2 23 2021
SUB,44,2 23 2020
XTY,44,4,2 23 2019
SUB,3,2 23 2018
XTY,3,3,2 23 2017
SUB,2,2 23 2016
XTY,2,2,2 23 2015
RED,RBRBUF,0 23 2014
CHOL,RBR 23 2013
INV,RBR 23 2012
XY,2,3 23 2011
XY,3,3 23 2010
XY,4,3 23 2009
XY,5,3 23 2008
XY,36,3 23 2007
XY,37,3 23 2006
XY,44,3 23 2005
XY,45,3 23 2004
XY,48,3 23 2003
XY,49,3 23 2002
XY,50,3 23 2001
DLACPY,50,1 32 2000
SPMM,16,50,0 32 1999
SPMM,17,50,0 32 1998
SPMM,21,50,0 32 1997
SPMM,22,50,0 32 1996
SPMM,23,50,0 32 1995
SPMM,26,50,0 32 1994
SPMM,27,50,0 32 1993
SPMM,28,50,0 32 1992
SPMM,29,50,0 32 1991
SPMM,30,50,0 32 1990
SPMM,31,50,0 32 1989
SPMM,32,50,0 32 1988
SPMM,33,50,0 32 1987
SPMM,34,50,0 32 1986
SPMM,35,50,0 32 1985
SPMM,36,50,0 32 1984
SPMM,37,50,0 32 1983
SPMM,38,50,0 32 1982
SPMM,39,50,0 32 1981
SPMM,40,50,0 32 1980
SPMM,41,50,0 32 1979
SPMM,42,50,0 32 1978
SPMM,43,50,0 32 1977
SPMM,44,50,0 32 1976
SPMM,45,50,0 32 1975
SPMM,46,50,0 32 1974
SPMM,47,50,0 32 1973
SPMM,50,50,0 32 1972
SPMM,15,50,0 35 1971
UPDATE,50,1 35 1970
DLACPY,49,1 35 1969
SPMM,15,49,0 35 1968
SPMM,16,49,0 35 1967
SPMM,17,49,0 35 1966
SPMM,18,49,0 35 1965
SPMM,20,49,0 35 1964
SPMM,21,49,0 35 1963
SPMM,22,49,0 35 1962
SPMM,23,49,0 35 1961
SPMM,24,49,0 35 1960
SPMM,25,49,0 35 1959
SPMM,26,49,0 35 1958
SPMM,27,49,0 35 1957
SPMM,30,49,0 35 1956
SPMM,31,49,0 35 1955
SPMM,34,49,0 35 1954
SPMM,35,49,0 35 1953
SPMM,38,49,0 35 1952
SPMM,39,49,0 35 1951
SPMM,40,49,0 35 1950
SPMM,41,49,0 35 1949
SPMM,46,49,0 35 1948
SPMM,47,49,0 35 1947
SPMM,50,49,0 35 1946
XTY,49,9,4 35 1945
DLACPY,48,1 35 1944
SPMM,15,48,0 35 1943
SPMM,16,48,0 35 1942
SPMM,17,48,0 35 1941
SPMM,18,48,0 35 1940
SPMM,21,48,0 35 1939
SPMM,22,48,0 35 1938
SPMM,23,48,0 35 1937
SPMM,24,48,0 35 1936
SPMM,26,48,0 35 1935
SPMM,27,48,0 35 1934
SPMM,30,48,0 35 1933
SPMM,31,48,0 35 1932
SPMM,34,48,0 35 1931
SPMM,35,48,0 35 1930
SPMM,38,48,0 35 1929
SPMM,39,48,0 35 1928
SPMM,40,48,0 35 1927
SPMM,41,48,0 35 1926
SPMM,46,48,0 35 1925
SPMM,47,48,0 35 1924
SPMM,50,48,0 35 1923
XTY,48,8,4 35 1922
SPMM,28,48,0 36 1921
SPMM,29,48,0 36 1920
SPMM,32,48,0 36 1919
SPMM,33,48,0 36 1918
SPMM,36,48,0 36 1917
SPMM,37,48,0 36 1916
SPMM,42,48,0 36 1915
SPMM,43,48,0 36 1914
SPMM,48,48,0 36 1913
SPMM,49,48,0 36 1912
SPMM,28,49,0 36 1911
SPMM,29,49,0 36 1910
SPMM,32,49,0 36 1909
SPMM,33,49,0 36 1908
SPMM,36,49,0 36 1907
SPMM,37,49,0 36 1906
SPMM,42,49,0 36 1905
SPMM,43,49,0 36 1904
SPMM,48,49,0 36 1903
SPMM,49,49,0 36 1902
SPMM,48,50,0 36 1901
SPMM,49,50,0 36 1900
DLACPY,5,1 36 1899
SPMM,4,5,0 36 1898
SPMM,5,5,0 36 1897
SPMM,6,5,0 36 1896
SPMM,7,5,0 36 1895
SPMM,8,5,0 36 1894
SPMM,9,5,0 36 1893
SPMM,12,5,0 36 1892
SPMM,13,5,0 36 1891
SPMM,14,5,0 36 1890
SPMM,18,5,0 36 1889
SPMM,19,5,0 36 1888
UPDATE,5,1 36 1887
XTY,5,5,4 36 1886
DLACPY,4,1 36 1885
SPMM,3,4,0 36 1884
SPMM,4,4,0 36 1883
SPMM,5,4,0 36 1882
SPMM,6,4,0 36 1881
SPMM,7,4,0 36 1880
SPMM,8,4,0 36 1879
SPMM,9,4,0 36 1878
SPMM,12,4,0 36 1877
SPMM,13,4,0 36 1876
SPMM,14,4,0 36 1875
SPMM,18,4,0 36 1874
SPMM,19,4,0 36 1873
UPDATE,4,1 36 1872
XTY,4,4,4 36 1871
DLACPY,45,1 30 1870
SPMM,28,45,0 30 1869
SPMM,29,45,0 30 1868
SPMM,32,45,0 30 1867
SPMM,33,45,0 30 1866
SPMM,34,45,0 30 1865
SPMM,35,45,0 30 1864
SPMM,36,45,0 30 1863
SPMM,37,45,0 30 1862
SPMM,38,45,0 30 1861
SPMM,39,45,0 30 1860
SPMM,40,45,0 30 1859
SPMM,41,45,0 30 1858
SPMM,42,45,0 30 1857
SPMM,43,45,0 30 1856
SPMM,44,45,0 30 1855
SPMM,45,45,0 30 1854
SPMM,46,45,0 30 1853
SPMM,47,45,0 30 1852
SPMM,48,45,0 30 1851
SPMM,49,45,0 30 1850
DLACPY,44,1 30 1849
SPMM,28,44,0 30 1848
SPMM,29,44,0 30 1847
SPMM,32,44,0 30 1846
SPMM,33,44,0 30 1845
SPMM,34,44,0 30 1844
SPMM,35,44,0 30 1843
SPMM,36,44,0 30 1842
SPMM,37,44,0 30 1841
SPMM,38,44,0 30 1840
SPMM,39,44,0 30 1839
SPMM,40,44,0 30 1838
SPMM,41,44,0 30 1837
SPMM,42,44,0 30 1836
SPMM,43,44,0 30 1835
SPMM,44,44,0 30 1834
SPMM,45,44,0 30 1833
SPMM,46,44,0 30 1832
SPMM,47,44,0 30 1831
SPMM,48,44,0 30 1830
SPMM,49,44,0 30 1829
DLACPY,3,1 33 1828
SPMM,2,3,0 33 1827
SPMM,3,3,0 33 1826
SPMM,4,3,0 33 1825
SPMM,8,3,0 33 1824
SPMM,9,3,0 33 1823
SPMM,10,3,0 33 1822
SPMM,11,3,0 33 1821
SPMM,12,3,0 33 1820
SPMM,13,3,0 33 1819
SPMM,14,3,0 33 1818
DLACPY,2,1 33 1817
SPMM,1,2,0 33 1816
SPMM,2,2,0 33 1815
SPMM,3,2,0 33 1814
SPMM,8,2,0 33 1813
SPMM,9,2,0 33 1812
SPMM,10,2,0 33 1811
SPMM,11,2,0 33 1810
SPMM,12,2,0 33 1809
SPMM,14,2,0 33 1808
XY,0,3 24 1807
DLACPY,0,1 24 1806
SPMM,0,0,0 24 1805
SPMM,1,0,0 24 1804
SPMM,18,0,0 24 1803
SPMM,19,0,0 24 1802
SPMM,20,0,0 24 1801
SPMM,24,0,0 24 1800
SPMM,25,0,0 24 1799
UPDATE,0,1 24 1798
XY,1,3 24 1797
DLACPY,1,1 24 1796
SPMM,0,1,0 24 1795
SPMM,1,1,0 24 1794
SPMM,2,1,0 24 1793
SPMM,18,1,0 24 1792
SPMM,19,1,0 24 1791
SPMM,20,1,0 24 1790
SPMM,21,1,0 24 1789
SPMM,24,1,0 24 1788
SPMM,25,1,0 24 1787
UPDATE,1,1 24 1786
XTY,1,1,4 25 1785
XTY,0,0,4 25 1784
XY,12,3 25 1783
XY,13,3 25 1782
XY,14,3 25 1781
XY,15,3 25 1780
XY,18,3 25 1779
XY,19,3 25 1778
XY,20,3 25 1777
XY,21,3 25 1776
XY,26,3 25 1775
XY,27,3 25 1774
XY,34,3 25 1773
XY,35,3 25 1772
XY,40,3 25 1771
XY,41,3 25 1770
DLACPY,27,1 41 1769
SPMM,15,27,0 41 1768
SPMM,16,27,0 41 1767
SPMM,17,27,0 41 1766
SPMM,21,27,0 41 1765
SPMM,22,27,0 41 1764
SPMM,23,27,0 41 1763
SPMM,28,27,0 41 1762
SPMM,29,27,0 41 1761
SPMM,32,27,0 41 1760
SPMM,33,27,0 41 1759
SPMM,34,27,0 41 1758
SPMM,35,27,0 41 1757
SPMM,42,27,0 41 1756
SPMM,43,27,0 41 1755
SPMM,44,27,0 41 1754
SPMM,45,27,0 41 1753
SPMM,46,27,0 41 1752
SPMM,47,27,0 41 1751
SPMM,48,27,0 41 1750
SPMM,49,27,0 41 1749
SPMM,50,27,0 41 1748
DLACPY,26,1 41 1747
SPMM,2,26,0 41 1746
SPMM,3,26,0 41 1745
SPMM,4,26,0 41 1744
SPMM,5,26,0 41 1743
SPMM,14,26,0 41 1742
SPMM,15,26,0 41 1741
SPMM,16,26,0 41 1740
SPMM,17,26,0 41 1739
SPMM,18,26,0 41 1738
SPMM,19,26,0 41 1737
SPMM,20,26,0 41 1736
SPMM,21,26,0 41 1735
SPMM,22,26,0 41 1734
SPMM,23,26,0 41 1733
SPMM,24,26,0 41 1732
SPMM,25,26,0 41 1731
SPMM,28,26,0 41 1730
SPMM,29,26,0 41 1729
SPMM,32,26,0 41 1728
SPMM,33,26,0 41 1727
SPMM,34,26,0 41 1726
SPMM,35,26,0 41 1725
SPMM,42,26,0 41 1724
SPMM,43,26,0 41 1723
SPMM,44,26,0 41 1722
SPMM,45,26,0 41 1721
SPMM,46,26,0 41 1720
SPMM,47,26,0 41 1719
SPMM,48,26,0 41 1718
SPMM,49,26,0 41 1717
SPMM,50,26,0 41 1716
SPMM,0,26,0 42 1715
SPMM,1,26,0 42 1714
XTY,26,6,4 42 1713
XTY,27,7,4 42 1712
DLACPY,41,1 42 1711
SPMM,15,41,0 42 1710
SPMM,18,41,0 42 1709
SPMM,19,41,0 42 1708
SPMM,28,41,0 42 1707
SPMM,29,41,0 42 1706
SPMM,30,41,0 42 1705
SPMM,31,41,0 42 1704
SPMM,34,41,0 42 1703
SPMM,35,41,0 42 1702
SPMM,36,41,0 42 1701
SPMM,37,41,0 42 1700
SPMM,38,41,0 42 1699
SPMM,39,41,0 42 1698
SPMM,40,41,0 42 1697
SPMM,41,41,0 42 1696
SPMM,42,41,0 42 1695
SPMM,43,41,0 42 1694
SPMM,44,41,0 42 1693
SPMM,45,41,0 42 1692
SPMM,46,41,0 42 1691
SPMM,47,41,0 42 1690
UPDATE,41,1 42 1689
XTY,41,1,4 42 1688
DLACPY,40,1 42 1687
SPMM,15,40,0 42 1686
SPMM,18,40,0 42 1685
SPMM,28,40,0 42 1684
SPMM,29,40,0 42 1683
SPMM,30,40,0 42 1682
SPMM,31,40,0 42 1681
SPMM,34,40,0 42 1680
SPMM,35,40,0 42 1679
SPMM,36,40,0 42 1678
SPMM,37,40,0 42 1677
SPMM,38,40,0 42 1676
SPMM,39,40,0 42 1675
SPMM,40,40,0 42 1674
SPMM,41,40,0 42 1673
SPMM,42,40,0 42 1672
SPMM,43,40,0 42 1671
SPMM,44,40,0 42 1670
SPMM,45,40,0 42 1669
SPMM,46,40,0 42 1668
SPMM,47,40,0 42 1667
UPDATE,40,1 42 1666
XTY,40,0,4 42 1665
DLACPY,21,1 39 1664
SPMM,2,21,0 39 1663
SPMM,3,21,0 39 1662
SPMM,4,21,0 39 1661
SPMM,5,21,0 39 1660
SPMM,14,21,0 39 1659
SPMM,15,21,0 39 1658
SPMM,18,21,0 39 1657
SPMM,19,21,0 39 1656
SPMM,20,21,0 39 1655
SPMM,21,21,0 39 1654
SPMM,22,21,0 39 1653
SPMM,23,21,0 39 1652
SPMM,24,21,0 39 1651
SPMM,25,21,0 39 1650
SPMM,26,21,0 39 1649
SPMM,27,21,0 39 1648
SPMM,28,21,0 39 1647
SPMM,29,21,0 39 1646
SPMM,30,21,0 39 1645
SPMM,31,21,0 39 1644
SPMM,36,21,0 39 1643
SPMM,37,21,0 39 1642
SPMM,38,21,0 39 1641
SPMM,39,21,0 39 1640
SPMM,40,21,0 39 1639
SPMM,41,21,0 39 1638
SPMM,44,21,0 39 1637
SPMM,45,21,0 39 1636
SPMM,48,21,0 39 1635
SPMM,49,21,0 39 1634
SPMM,50,21,0 39 1633
DLACPY,20,1 39 1632
SPMM,2,20,0 39 1631
SPMM,3,20,0 39 1630
SPMM,4,20,0 39 1629
SPMM,5,20,0 39 1628
SPMM,14,20,0 39 1627
SPMM,18,20,0 39 1626
SPMM,19,20,0 39 1625
SPMM,20,20,0 39 1624
SPMM,21,20,0 39 1623
SPMM,24,20,0 39 1622
SPMM,25,20,0 39 1621
SPMM,26,20,0 39 1620
SPMM,31,20,0 39 1619
SPMM,36,20,0 39 1618
SPMM,40,20,0 39 1617
SPMM,41,20,0 39 1616
SPMM,44,20,0 39 1615
SPMM,45,20,0 39 1614
SPMM,49,20,0 39 1613
SPMM,47,20,0 49 1612
SPMM,34,21,0 49 1611
SPMM,35,21,0 49 1610
SPMM,46,21,0 49 1609
SPMM,47,21,0 49 1608
DLACPY,15,1 49 1607
SPMM,16,15,0 49 1606
SPMM,21,15,0 49 1605
SPMM,22,15,0 49 1604
SPMM,23,15,0 49 1603
SPMM,26,15,0 49 1602
SPMM,27,15,0 49 1601
SPMM,28,15,0 49 1600
SPMM,29,15,0 49 1599
SPMM,30,15,0 49 1598
SPMM,31,15,0 49 1597
SPMM,32,15,0 49 1596
SPMM,33,15,0 49 1595
SPMM,34,15,0 49 1594
SPMM,35,15,0 49 1593
SPMM,38,15,0 49 1592
SPMM,39,15,0 49 1591
SPMM,40,15,0 49 1590
SPMM,41,15,0 49 1589
SPMM,44,15,0 49 1588
SPMM,45,15,0 49 1587
SPMM,48,15,0 49 1586
SPMM,49,15,0 49 1585
UPDATE,15,1 49 1584
DLACPY,14,1 49 1583
SPMM,2,14,0 49 1582
SPMM,3,14,0 49 1581
SPMM,4,14,0 49 1580
SPMM,5,14,0 49 1579
SPMM,6,14,0 49 1578
SPMM,7,14,0 49 1577
SPMM,20,14,0 49 1576
SPMM,21,14,0 49 1575
SPMM,23,14,0 49 1574
SPMM,26,14,0 49 1573
UPDATE,14,1 49 1572
DLACPY,19,1 53 1571
SPMM,0,19,0 53 1570
SPMM,1,19,0 53 1569
SPMM,14,19,0 53 1568
SPMM,18,19,0 53 1567
SPMM,19,19,0 53 1566
SPMM,20,19,0 53 1565
SPMM,21,19,0 53 1564
SPMM,24,19,0 53 1563
SPMM,25,19,0 53 1562
SPMM,26,19,0 53 1561
SPMM,31,19,0 53 1560
SPMM,38,19,0 53 1559
SPMM,39,19,0 53 1558
SPMM,41,19,0 53 1557
SPMM,42,19,0 53 1556
SPMM,43,19,0 53 1555
SPMM,44,19,0 53 1554
SPMM,45,19,0 53 1553
SPMM,46,19,0 53 1552
SPMM,47,19,0 53 1551
DLACPY,18,1 53 1550
SPMM,0,18,0 53 1549
SPMM,1,18,0 53 1548
SPMM,14,18,0 53 1547
SPMM,15,18,0 53 1546
SPMM,16,18,0 53 1545
SPMM,17,18,0 53 1544
SPMM,18,18,0 53 1543
SPMM,19,18,0 53 1542
SPMM,20,18,0 53 1541
SPMM,21,18,0 53 1540
SPMM,22,18,0 53 1539
SPMM,23,18,0 53 1538
SPMM,24,18,0 53 1537
SPMM,25,18,0 53 1536
SPMM,26,18,0 53 1535
SPMM,30,18,0 53 1534
SPMM,31,18,0 53 1533
SPMM,38,18,0 53 1532
SPMM,39,18,0 53 1531
SPMM,40,18,0 53 1530
SPMM,41,18,0 53 1529
SPMM,42,18,0 53 1528
SPMM,43,18,0 53 1527
SPMM,44,18,0 53 1526
SPMM,45,18,0 53 1525
SPMM,46,18,0 53 1524
SPMM,47,18,0 53 1523
SPMM,48,18,0 53 1522
SPMM,49,18,0 53 1521
DLACPY,13,1 28 1520
SPMM,3,13,0 28 1519
SPMM,4,13,0 28 1518
SPMM,5,13,0 28 1517
SPMM,6,13,0 28 1516
SPMM,7,13,0 28 1515
SPMM,8,13,0 28 1514
SPMM,9,13,0 28 1513
SPMM,10,13,0 28 1512
SPMM,11,13,0 28 1511
SPMM,12,13,0 28 1510
SPMM,13,13,0 28 1509
SPMM,14,13,0 28 1508
UPDATE,13,1 28 1507
XTY,13,13,4 28 1506
DLACPY,12,1 28 1505
SPMM,2,12,0 28 1504
SPMM,3,12,0 28 1503
SPMM,4,12,0 28 1502
SPMM,5,12,0 28 1501
SPMM,6,12,0 28 1500
SPMM,7,12,0 28 1499
SPMM,8,12,0 28 1498
SPMM,9,12,0 28 1497
SPMM,10,12,0 28 1496
SPMM,11,12,0 28 1495
SPMM,12,12,0 28 1494
SPMM,13,12,0 28 1493
SPMM,14,12,0 28 1492
UPDATE,12,1 28 1491
XTY,12,12,4 28 1490
XY,6,3 28 1489
DLACPY,6,1 28 1488
SPMM,4,6,0 28 1487
SPMM,5,6,0 28 1486
SPMM,6,6,0 28 1485
SPMM,7,6,0 28 1484
SPMM,8,6,0 28 1483
SPMM,9,6,0 28 1482
SPMM,10,6,0 28 1481
SPMM,11,6,0 28 1480
SPMM,12,6,0 28 1479
SPMM,13,6,0 28 1478
SPMM,14,6,0 28 1477
UPDATE,6,1 28 1476
XTY,6,6,4 28 1475
XY,7,3 28 1474
DLACPY,7,1 28 1473
SPMM,3,7,0 28 1472
SPMM,4,7,0 28 1471
SPMM,5,7,0 28 1470
SPMM,6,7,0 28 1469
SPMM,7,7,0 28 1468
SPMM,8,7,0 28 1467
SPMM,9,7,0 28 1466
SPMM,10,7,0 28 1465
SPMM,11,7,0 28 1464
SPMM,12,7,0 28 1463
SPMM,13,7,0 28 1462
SPMM,14,7,0 28 1461
UPDATE,7,1 28 1460
XTY,7,7,4 28 1459
XY,8,3 28 1458
DLACPY,8,1 28 1457
SPMM,2,8,0 28 1456
SPMM,3,8,0 28 1455
SPMM,4,8,0 28 1454
SPMM,5,8,0 28 1453
SPMM,6,8,0 28 1452
SPMM,7,8,0 28 1451
SPMM,8,8,0 28 1450
SPMM,9,8,0 28 1449
SPMM,10,8,0 28 1448
SPMM,11,8,0 28 1447
SPMM,12,8,0 28 1446
SPMM,13,8,0 28 1445
SPMM,14,8,0 28 1444
UPDATE,8,1 28 1443
XTY,8,8,4 28 1442
XY,9,3 28 1441
DLACPY,9,1 28 1440
SPMM,2,9,0 28 1439
SPMM,3,9,0 28 1438
SPMM,4,9,0 28 1437
SPMM,5,9,0 28 1436
SPMM,6,9,0 28 1435
SPMM,7,9,0 28 1434
SPMM,8,9,0 28 1433
SPMM,9,9,0 28 1432
SPMM,10,9,0 28 1431
SPMM,11,9,0 28 1430
SPMM,12,9,0 28 1429
SPMM,13,9,0 28 1428
SPMM,14,9,0 28 1427
UPDATE,9,1 28 1426
XTY,9,9,4 28 1425
XY,46,3 28 1424
XY,47,3 28 1423
DLACPY,47,1 37 1422
SPMM,16,47,0 37 1421
SPMM,17,47,0 37 1420
SPMM,22,47,0 37 1419
SPMM,23,47,0 37 1418
SPMM,26,47,0 37 1417
SPMM,27,47,0 37 1416
SPMM,28,47,0 37 1415
SPMM,29,47,0 37 1414
SPMM,30,47,0 37 1413
SPMM,31,47,0 37 1412
SPMM,32,47,0 37 1411
SPMM,33,47,0 37 1410
SPMM,34,47,0 37 1409
SPMM,35,47,0 37 1408
SPMM,36,47,0 37 1407
SPMM,37,47,0 37 1406
SPMM,38,47,0 37 1405
SPMM,39,47,0 37 1404
SPMM,40,47,0 37 1403
SPMM,41,47,0 37 1402
SPMM,42,47,0 37 1401
SPMM,43,47,0 37 1400
SPMM,44,47,0 37 1399
SPMM,45,47,0 37 1398
SPMM,46,47,0 37 1397
SPMM,47,47,0 37 1396
SPMM,48,47,0 37 1395
SPMM,49,47,0 37 1394
SPMM,50,47,0 37 1393
DLACPY,46,1 37 1392
SPMM,16,46,0 37 1391
SPMM,17,46,0 37 1390
SPMM,22,46,0 37 1389
SPMM,23,46,0 37 1388
SPMM,26,46,0 37 1387
SPMM,27,46,0 37 1386
SPMM,28,46,0 37 1385
SPMM,29,46,0 37 1384
SPMM,30,46,0 37 1383
SPMM,31,46,0 37 1382
SPMM,32,46,0 37 1381
SPMM,33,46,0 37 1380
SPMM,34,46,0 37 1379
SPMM,35,46,0 37 1378
SPMM,36,46,0 37 1377
SPMM,37,46,0 37 1376
SPMM,38,46,0 37 1375
SPMM,39,46,0 37 1374
SPMM,40,46,0 37 1373
SPMM,41,46,0 37 1372
SPMM,42,46,0 37 1371
SPMM,43,46,0 37 1370
SPMM,44,46,0 37 1369
SPMM,45,46,0 37 1368
SPMM,46,46,0 37 1367
SPMM,47,46,0 37 1366
SPMM,48,46,0 37 1365
SPMM,49,46,0 37 1364
SPMM,50,46,0 37 1363
XY,10,3 26 1362
DLACPY,10,1 26 1361
SPMM,2,10,0 26 1360
SPMM,3,10,0 26 1359
SPMM,4,10,0 26 1358
SPMM,5,10,0 26 1357
SPMM,6,10,0 26 1356
SPMM,7,10,0 26 1355
SPMM,8,10,0 26 1354
SPMM,9,10,0 26 1353
SPMM,10,10,0 26 1352
SPMM,11,10,0 26 1351
SPMM,12,10,0 26 1350
SPMM,13,10,0 26 1349
SPMM,14,10,0 26 1348
XY,11,3 26 1347
DLACPY,11,1 26 1346
SPMM,2,11,0 26 1345
SPMM,3,11,0 26 1344
SPMM,4,11,0 26 1343
SPMM,5,11,0 26 1342
SPMM,6,11,0 26 1341
SPMM,7,11,0 26 1340
SPMM,8,11,0 26 1339
SPMM,9,11,0 26 1338
SPMM,10,11,0 26 1337
SPMM,11,11,0 26 1336
SPMM,12,11,0 26 1335
SPMM,13,11,0 26 1334
SPMM,14,11,0 26 1333
UPDATE,11,1 27 1332
XTY,11,11,4 27 1331
UPDATE,10,1 27 1330
XTY,10,10,4 27 1329
XY,16,3 27 1328
XY,17,3 27 1327
XY,24,3 27 1326
XY,25,3 27 1325
XY,28,3 27 1324
XY,29,3 27 1323
XY,32,3 27 1322
XY,33,3 27 1321
XY,38,3 27 1320
XY,39,3 27 1319
XY,42,3 27 1318
XY,43,3 27 1317
DLACPY,43,1 61 1316
SPMM,15,43,0 61 1315
SPMM,18,43,0 61 1314
SPMM,19,43,0 61 1313
SPMM,21,43,0 61 1312
SPMM,22,43,0 61 1311
SPMM,23,43,0 61 1310
SPMM,26,43,0 61 1309
SPMM,27,43,0 61 1308
SPMM,28,43,0 61 1307
SPMM,29,43,0 61 1306
SPMM,32,43,0 61 1305
SPMM,33,43,0 61 1304
SPMM,34,43,0 61 1303
SPMM,35,43,0 61 1302
SPMM,38,43,0 61 1301
SPMM,39,43,0 61 1300
SPMM,40,43,0 61 1299
SPMM,41,43,0 61 1298
SPMM,42,43,0 61 1297
SPMM,43,43,0 61 1296
SPMM,44,43,0 61 1295
SPMM,45,43,0 61 1294
SPMM,46,43,0 61 1293
SPMM,47,43,0 61 1292
UPDATE,43,1 61 1291
XTY,43,3,4 61 1290
DLACPY,42,1 61 1289
SPMM,15,42,0 61 1288
SPMM,18,42,0 61 1287
SPMM,19,42,0 61 1286
SPMM,20,42,0 61 1285
SPMM,21,42,0 61 1284
SPMM,22,42,0 61 1283
SPMM,23,42,0 61 1282
SPMM,26,42,0 61 1281
SPMM,27,42,0 61 1280
SPMM,28,42,0 61 1279
SPMM,29,42,0 61 1278
SPMM,32,42,0 61 1277
SPMM,33,42,0 61 1276
SPMM,34,42,0 61 1275
SPMM,35,42,0 61 1274
SPMM,38,42,0 61 1273
SPMM,39,42,0 61 1272
SPMM,40,42,0 61 1271
SPMM,41,42,0 61 1270
SPMM,42,42,0 61 1269
SPMM,43,42,0 61 1268
SPMM,44,42,0 61 1267
SPMM,45,42,0 61 1266
SPMM,46,42,0 61 1265
SPMM,47,42,0 61 1264
UPDATE,42,1 61 1263
XTY,42,2,4 61 1262
DLACPY,39,1 45 1261
SPMM,16,39,0 45 1260
SPMM,17,39,0 45 1259
SPMM,21,39,0 45 1258
SPMM,22,39,0 45 1257
SPMM,23,39,0 45 1256
SPMM,26,39,0 45 1255
SPMM,27,39,0 45 1254
SPMM,28,39,0 45 1253
SPMM,29,39,0 45 1252
SPMM,30,39,0 45 1251
SPMM,31,39,0 45 1250
SPMM,34,39,0 45 1249
SPMM,35,39,0 45 1248
SPMM,36,39,0 45 1247
SPMM,37,39,0 45 1246
SPMM,38,39,0 45 1245
SPMM,39,39,0 45 1244
SPMM,40,39,0 45 1243
SPMM,41,39,0 45 1242
SPMM,42,39,0 45 1241
SPMM,43,39,0 45 1240
SPMM,44,39,0 45 1239
SPMM,45,39,0 45 1238
SPMM,46,39,0 45 1237
SPMM,47,39,0 45 1236
SPMM,48,39,0 45 1235
SPMM,49,39,0 45 1234
SPMM,50,39,0 45 1233
DLACPY,38,1 45 1232
SPMM,16,38,0 45 1231
SPMM,17,38,0 45 1230
SPMM,21,38,0 45 1229
SPMM,22,38,0 45 1228
SPMM,23,38,0 45 1227
SPMM,26,38,0 45 1226
SPMM,27,38,0 45 1225
SPMM,28,38,0 45 1224
SPMM,29,38,0 45 1223
SPMM,30,38,0 45 1222
SPMM,31,38,0 45 1221
SPMM,34,38,0 45 1220
SPMM,35,38,0 45 1219
SPMM,36,38,0 45 1218
SPMM,37,38,0 45 1217
SPMM,38,38,0 45 1216
SPMM,39,38,0 45 1215
SPMM,40,38,0 45 1214
SPMM,41,38,0 45 1213
SPMM,42,38,0 45 1212
SPMM,43,38,0 45 1211
SPMM,44,38,0 45 1210
SPMM,45,38,0 45 1209
SPMM,46,38,0 45 1208
SPMM,47,38,0 45 1207
SPMM,48,38,0 45 1206
SPMM,49,38,0 45 1205
SPMM,50,38,0 45 1204
DLACPY,33,1 40 1203
SPMM,15,33,0 40 1202
SPMM,16,33,0 40 1201
SPMM,17,33,0 40 1200
SPMM,20,33,0 40 1199
SPMM,21,33,0 40 1198
SPMM,22,33,0 40 1197
SPMM,23,33,0 40 1196
SPMM,26,33,0 40 1195
SPMM,27,33,0 40 1194
SPMM,30,33,0 40 1193
SPMM,31,33,0 40 1192
SPMM,32,33,0 40 1191
SPMM,33,33,0 40 1190
SPMM,36,33,0 40 1189
SPMM,37,33,0 40 1188
SPMM,38,33,0 40 1187
SPMM,39,33,0 40 1186
SPMM,42,33,0 40 1185
SPMM,43,33,0 40 1184
SPMM,46,33,0 40 1183
SPMM,47,33,0 40 1182
SPMM,48,33,0 40 1181
SPMM,49,33,0 40 1180
SPMM,50,33,0 40 1179
DLACPY,32,1 40 1178
SPMM,15,32,0 40 1177
SPMM,16,32,0 40 1176
SPMM,17,32,0 40 1175
SPMM,20,32,0 40 1174
SPMM,21,32,0 40 1173
SPMM,22,32,0 40 1172
SPMM,23,32,0 40 1171
SPMM,26,32,0 40 1170
SPMM,27,32,0 40 1169
SPMM,30,32,0 40 1168
SPMM,31,32,0 40 1167
SPMM,32,32,0 40 1166
SPMM,33,32,0 40 1165
SPMM,36,32,0 40 1164
SPMM,37,32,0 40 1163
SPMM,38,32,0 40 1162
SPMM,39,32,0 40 1161
SPMM,42,32,0 40 1160
SPMM,43,32,0 40 1159
SPMM,46,32,0 40 1158
SPMM,47,32,0 40 1157
SPMM,48,32,0 40 1156
SPMM,49,32,0 40 1155
SPMM,50,32,0 40 1154
SPMM,32,20,0 40 1153
SPMM,33,20,0 40 1152
XTY,20,0,4 40 1151
SPMM,32,21,0 40 1150
SPMM,33,21,0 40 1149
XTY,21,1,4 40 1148
SPMM,34,32,0 43 1147
SPMM,35,32,0 43 1146
SPMM,34,33,0 43 1145
SPMM,35,33,0 43 1144
SPMM,22,40,0 43 1143
SPMM,23,40,0 43 1142
SPMM,22,41,0 43 1141
SPMM,23,41,0 43 1140
SPMM,36,26,0 43 1139
SPMM,37,26,0 43 1138
SPMM,36,27,0 43 1137
SPMM,37,27,0 43 1136
DLACPY,35,1 43 1135
SPMM,15,35,0 43 1134
SPMM,21,35,0 43 1133
SPMM,22,35,0 43 1132
SPMM,23,35,0 43 1131
SPMM,26,35,0 43 1130
SPMM,27,35,0 43 1129
SPMM,30,35,0 43 1128
SPMM,31,35,0 43 1127
SPMM,32,35,0 43 1126
SPMM,33,35,0 43 1125
SPMM,36,35,0 43 1124
SPMM,37,35,0 43 1123
SPMM,38,35,0 43 1122
SPMM,39,35,0 43 1121
SPMM,44,35,0 43 1120
SPMM,45,35,0 43 1119
SPMM,46,35,0 43 1118
SPMM,47,35,0 43 1117
SPMM,48,35,0 43 1116
SPMM,49,35,0 43 1115
DLACPY,34,1 43 1114
SPMM,15,34,0 43 1113
SPMM,21,34,0 43 1112
SPMM,22,34,0 43 1111
SPMM,23,34,0 43 1110
SPMM,26,34,0 43 1109
SPMM,27,34,0 43 1108
SPMM,30,34,0 43 1107
SPMM,31,34,0 43 1106
SPMM,32,34,0 43 1105
SPMM,33,34,0 43 1104
SPMM,36,34,0 43 1103
SPMM,37,34,0 43 1102
SPMM,38,34,0 43 1101
SPMM,39,34,0 43 1100
SPMM,44,34,0 43 1099
SPMM,45,34,0 43 1098
SPMM,46,34,0 43 1097
SPMM,47,34,0 43 1096
SPMM,48,34,0 43 1095
SPMM,49,34,0 43 1094
SPMM,11,1,0 43 1093
SPMM,16,34,0 47 1092
SPMM,17,34,0 47 1091
SPMM,40,34,0 47 1090
SPMM,41,34,0 47 1089
SPMM,16,35,0 47 1088
SPMM,17,35,0 47 1087
SPMM,40,35,0 47 1086
SPMM,41,35,0 47 1085
SPMM,28,32,0 47 1084
SPMM,29,32,0 47 1083
XTY,32,12,4 47 1082
SPMM,28,33,0 47 1081
SPMM,29,33,0 47 1080
XTY,33,13,4 47 1079
SPMM,18,38,0 47 1078
SPMM,19,38,0 47 1077
SPMM,18,39,0 47 1076
SPMM,19,39,0 47 1075
SPMM,24,40,0 47 1074
SPMM,25,40,0 47 1073
SPMM,24,41,0 47 1072
SPMM,25,41,0 47 1071
SPMM,26,26,0 47 1070
SPMM,27,26,0 47 1069
UPDATE,26,1 47 1068
SPMM,26,27,0 47 1067
SPMM,27,27,0 47 1066
UPDATE,27,1 47 1065
SPMM,50,34,0 44 1064
SPMM,50,35,0 44 1063
UPDATE,32,1 44 1062
UPDATE,33,1 44 1061
DLACPY,25,1 44 1060
SPMM,0,25,0 44 1059
SPMM,1,25,0 44 1058
SPMM,18,25,0 44 1057
SPMM,19,25,0 44 1056
SPMM,24,25,0 44 1055
SPMM,25,25,0 44 1054
SPMM,26,25,0 44 1053
SPMM,40,25,0 44 1052
SPMM,41,25,0 44 1051
SPMM,44,25,0 44 1050
SPMM,45,25,0 44 1049
SPMM,49,25,0 44 1048
UPDATE,25,1 44 1047
DLACPY,24,1 44 1046
SPMM,0,24,0 44 1045
SPMM,1,24,0 44 1044
SPMM,16,24,0 44 1043
SPMM,17,24,0 44 1042
SPMM,18,24,0 44 1041
SPMM,19,24,0 44 1040
SPMM,22,24,0 44 1039
SPMM,23,24,0 44 1038
SPMM,24,24,0 44 1037
SPMM,25,24,0 44 1036
SPMM,26,24,0 44 1035
SPMM,38,24,0 44 1034
SPMM,39,24,0 44 1033
SPMM,40,24,0 44 1032
SPMM,41,24,0 44 1031
SPMM,44,24,0 44 1030
SPMM,45,24,0 44 1029
SPMM,48,24,0 44 1028
SPMM,49,24,0 44 1027
UPDATE,24,1 44 1026
SPMM,1,11,0 44 1025
SPMM,40,26,0 44 1024
SPMM,41,26,0 44 1023
SPMM,40,27,0 44 1022
SPMM,41,27,0 44 1021
CONSTRUCTGB 44 1020
SPMM,2,24,0 46 1019
SPMM,3,24,0 46 1018
SPMM,4,24,0 46 1017
SPMM,5,24,0 46 1016
SPMM,2,25,0 46 1015
SPMM,3,25,0 46 1014
SPMM,4,25,0 46 1013
SPMM,5,25,0 46 1012
SPMM,42,34,0 46 1011
SPMM,43,34,0 46 1010
SPMM,42,35,0 46 1009
SPMM,43,35,0 46 1008
SPMM,24,38,0 46 1007
UPDATE,38,1 46 1006
SPMM,24,39,0 46 1005
UPDATE,39,1 46 1004
UPDATE,20,1 46 1003
UPDATE,21,1 46 1002
SPMM,38,26,0 46 1001
SPMM,39,26,0 46 1000
SPMM,38,27,0 46 999
SPMM,39,27,0 46 998
XY,22,3 46 997
XY,23,3 46 996
XTY,24,4,4 54 995
XTY,25,5,4 54 994
SPMM,28,34,0 54 993
SPMM,29,34,0 54 992
SPMM,28,35,0 54 991
SPMM,29,35,0 54 990
SPMM,15,38,0 54 989
SPMM,15,39,0 54 988
SPMM,4,18,0 54 987
SPMM,5,18,0 54 986
XTY,18,18,4 54 985
SPMM,4,19,0 54 984
XTY,4,4,5 54 983
SPMM,5,19,0 54 982
XTY,5,5,5 54 981
XTY,19,19,4 54 980
SPMM,46,15,0 54 979
SPMM,47,15,0 54 978
SPMM,42,20,0 54 977
SPMM,42,21,0 54 976
SPMM,43,21,0 54 975
DLACPY,23,1 56 974
SPMM,14,23,0 56 973
SPMM,15,23,0 56 972
SPMM,16,23,0 56 971
SPMM,17,23,0 56 970
SPMM,18,23,0 56 969
SPMM,21,23,0 56 968
SPMM,22,23,0 56 967
SPMM,23,23,0 56 966
SPMM,26,23,0 56 965
SPMM,27,23,0 56 964
SPMM,28,23,0 56 963
SPMM,29,23,0 56 962
SPMM,32,23,0 56 961
SPMM,33,23,0 56 960
SPMM,34,23,0 56 959
SPMM,35,23,0 56 958
SPMM,36,23,0 56 957
SPMM,37,23,0 56 956
SPMM,38,23,0 56 955
SPMM,39,23,0 56 954
SPMM,40,23,0 56 953
SPMM,41,23,0 56 952
SPMM,42,23,0 56 951
SPMM,43,23,0 56 950
SPMM,44,23,0 56 949
SPMM,45,23,0 56 948
SPMM,46,23,0 56 947
SPMM,47,23,0 56 946
SPMM,48,23,0 56 945
SPMM,49,23,0 56 944
DLACPY,22,1 56 943
SPMM,15,22,0 56 942
SPMM,16,22,0 56 941
SPMM,18,22,0 56 940
SPMM,21,22,0 56 939
SPMM,22,22,0 56 938
SPMM,23,22,0 56 937
SPMM,26,22,0 56 936
SPMM,27,22,0 56 935
SPMM,28,22,0 56 934
SPMM,29,22,0 56 933
SPMM,32,22,0 56 932
SPMM,33,22,0 56 931
SPMM,34,22,0 56 930
SPMM,35,22,0 56 929
SPMM,36,22,0 56 928
SPMM,37,22,0 56 927
SPMM,38,22,0 56 926
SPMM,39,22,0 56 925
SPMM,40,22,0 56 924
SPMM,41,22,0 56 923
SPMM,42,22,0 56 922
SPMM,43,22,0 56 921
SPMM,44,22,0 56 920
SPMM,45,22,0 56 919
SPMM,46,22,0 56 918
SPMM,47,22,0 56 917
SPMM,48,22,0 56 916
SPMM,49,22,0 56 915
SPMM,30,22,0 59 914
SPMM,31,22,0 59 913
SPMM,30,23,0 59 912
SPMM,31,23,0 59 911
SPMM,14,24,0 59 910
SPMM,15,24,0 59 909
SPMM,20,24,0 59 908
SPMM,21,24,0 59 907
SPMM,42,24,0 59 906
SPMM,43,24,0 59 905
SPMM,14,25,0 59 904
SPMM,20,25,0 59 903
SPMM,21,25,0 59 902
SPMM,42,25,0 59 901
SPMM,43,25,0 59 900
SPMM,24,32,0 59 899
SPMM,25,32,0 59 898
SPMM,24,33,0 59 897
SPMM,25,33,0 59 896
SPMM,32,18,0 59 895
SPMM,33,18,0 59 894
SPMM,36,18,0 59 893
SPMM,37,18,0 59 892
SPMM,26,4,0 59 891
SPMM,26,5,0 59 890
XTY,22,2,4 58 889
XTY,23,3,4 58 888
UPDATE,34,1 58 887
UPDATE,35,1 58 886
SPMM,32,38,0 58 885
SPMM,33,38,0 58 884
SPMM,32,39,0 58 883
SPMM,33,39,0 58 882
SPMM,12,14,0 58 881
XTY,12,12,5 58 880
SPMM,13,14,0 58 879
XTY,13,13,5 58 878
SPMM,18,14,0 58 877
SPMM,19,14,0 58 876
SPMM,18,15,0 58 875
SPMM,0,20,0 58 874
XTY,0,0,5 58 873
SPMM,1,20,0 58 872
SPMM,1,21,0 58 871
XTY,1,1,5 58 870
DLACPY,29,1 48 869
SPMM,16,29,0 48 868
SPMM,17,29,0 48 867
SPMM,21,29,0 48 866
SPMM,26,29,0 48 865
SPMM,27,29,0 48 864
SPMM,28,29,0 48 863
SPMM,29,29,0 48 862
SPMM,30,29,0 48 861
SPMM,31,29,0 48 860
SPMM,34,29,0 48 859
SPMM,35,29,0 48 858
SPMM,36,29,0 48 857
SPMM,37,29,0 48 856
SPMM,38,29,0 48 855
SPMM,39,29,0 48 854
SPMM,40,29,0 48 853
SPMM,41,29,0 48 852
SPMM,42,29,0 48 851
SPMM,43,29,0 48 850
SPMM,44,29,0 48 849
SPMM,45,29,0 48 848
SPMM,46,29,0 48 847
SPMM,47,29,0 48 846
SPMM,50,29,0 48 845
UPDATE,29,1 48 844
DLACPY,28,1 48 843
SPMM,16,28,0 48 842
SPMM,17,28,0 48 841
SPMM,21,28,0 48 840
SPMM,26,28,0 48 839
SPMM,27,28,0 48 838
SPMM,28,28,0 48 837
SPMM,29,28,0 48 836
SPMM,30,28,0 48 835
SPMM,31,28,0 48 834
SPMM,34,28,0 48 833
SPMM,35,28,0 48 832
SPMM,36,28,0 48 831
SPMM,37,28,0 48 830
SPMM,38,28,0 48 829
SPMM,39,28,0 48 828
SPMM,40,28,0 48 827
SPMM,41,28,0 48 826
SPMM,42,28,0 48 825
SPMM,43,28,0 48 824
SPMM,44,28,0 48 823
SPMM,45,28,0 48 822
SPMM,46,28,0 48 821
SPMM,47,28,0 48 820
SPMM,50,28,0 48 819
UPDATE,28,1 48 818
SPMM,16,40,0 48 817
SPMM,17,40,0 48 816
SPMM,16,41,0 48 815
SPMM,17,41,0 48 814
DLACPY,17,1 29 813
SPMM,18,17,0 29 812
SPMM,23,17,0 29 811
SPMM,26,17,0 29 810
SPMM,27,17,0 29 809
SPMM,28,17,0 29 808
SPMM,29,17,0 29 807
SPMM,30,17,0 29 806
SPMM,31,17,0 29 805
SPMM,32,17,0 29 804
SPMM,33,17,0 29 803
SPMM,34,17,0 29 802
SPMM,35,17,0 29 801
SPMM,36,17,0 29 800
SPMM,37,17,0 29 799
SPMM,38,17,0 29 798
SPMM,39,17,0 29 797
SPMM,40,17,0 29 796
SPMM,41,17,0 29 795
SPMM,42,17,0 29 794
SPMM,43,17,0 29 793
SPMM,44,17,0 29 792
SPMM,45,17,0 29 791
SPMM,46,17,0 29 790
SPMM,47,17,0 29 789
SPMM,50,17,0 29 788
DLACPY,16,1 29 787
SPMM,15,16,0 29 786
SPMM,18,16,0 29 785
SPMM,22,16,0 29 784
SPMM,23,16,0 29 783
SPMM,26,16,0 29 782
SPMM,27,16,0 29 781
SPMM,28,16,0 29 780
SPMM,29,16,0 29 779
SPMM,30,16,0 29 778
SPMM,31,16,0 29 777
SPMM,32,16,0 29 776
SPMM,33,16,0 29 775
SPMM,34,16,0 29 774
SPMM,35,16,0 29 773
SPMM,36,16,0 29 772
SPMM,37,16,0 29 771
SPMM,38,16,0 29 770
SPMM,39,16,0 29 769
SPMM,40,16,0 29 768
SPMM,41,16,0 29 767
SPMM,42,16,0 29 766
SPMM,43,16,0 29 765
SPMM,44,16,0 29 764
SPMM,45,16,0 29 763
SPMM,46,16,0 29 762
SPMM,47,16,0 29 761
SPMM,50,16,0 29 760
SPMM,24,16,0 31 759
SPMM,24,17,0 31 758
SPMM,15,44,0 31 757
SPMM,16,44,0 31 756
SPMM,17,44,0 31 755
SPMM,18,44,0 31 754
SPMM,19,44,0 31 753
SPMM,20,44,0 31 752
SPMM,21,44,0 31 751
SPMM,24,44,0 31 750
SPMM,25,44,0 31 749
SPMM,26,44,0 31 748
SPMM,27,44,0 31 747
XTY,44,4,4 31 746
SPMM,15,45,0 31 745
SPMM,16,45,0 31 744
SPMM,17,45,0 31 743
SPMM,18,45,0 31 742
SPMM,19,45,0 31 741
SPMM,20,45,0 31 740
SPMM,21,45,0 31 739
SPMM,24,45,0 31 738
SPMM,25,45,0 31 737
SPMM,26,45,0 31 736
SPMM,27,45,0 31 735
XTY,45,5,4 31 734
UPDATE,16,1 38 733
UPDATE,17,1 38 732
SPMM,15,46,0 38 731
SPMM,18,46,0 38 730
SPMM,19,46,0 38 729
SPMM,21,46,0 38 728
SPMM,24,46,0 38 727
UPDATE,46,1 38 726
XTY,46,6,4 38 725
SPMM,15,47,0 38 724
SPMM,18,47,0 38 723
SPMM,19,47,0 38 722
SPMM,20,47,0 38 721
SPMM,21,47,0 38 720
SPMM,24,47,0 38 719
SPMM,25,47,0 38 718
UPDATE,47,1 38 717
XTY,47,7,4 38 716
UPDATE,2,1 38 715
XTY,2,2,4 38 714
UPDATE,3,1 38 713
XTY,3,3,4 38 712
SPMM,50,44,0 38 711
UPDATE,44,1 38 710
SPMM,50,45,0 38 709
UPDATE,45,1 38 708
SPMM,10,4,0 38 707
SPMM,11,4,0 38 706
SPMM,20,4,0 38 705
SPMM,21,4,0 38 704
SPMM,24,4,0 38 703
SPMM,25,4,0 38 702
SPMM,10,5,0 38 701
SPMM,11,5,0 38 700
SPMM,20,5,0 38 699
SPMM,21,5,0 38 698
SPMM,24,5,0 38 697
SPMM,25,5,0 38 696
SPMM,44,48,0 38 695
SPMM,45,48,0 38 694
UPDATE,48,1 38 693
SPMM,44,49,0 38 692
SPMM,45,49,0 38 691
UPDATE,49,1 38 690
SPMM,16,16,0 34 689
SPMM,17,16,0 34 688
SPMM,48,16,0 34 687
SPMM,49,16,0 34 686
XTY,16,16,4 34 685
SPMM,16,17,0 34 684
SPMM,17,17,0 34 683
SPMM,48,17,0 34 682
SPMM,49,17,0 34 681
XTY,17,17,4 34 680
SPMM,20,2,0 34 679
SPMM,21,2,0 34 678
SPMM,7,3,0 34 677
SPMM,20,3,0 34 676
SPMM,21,3,0 34 675
SPMM,22,44,0 34 674
SPMM,23,44,0 34 673
SPMM,30,44,0 34 672
SPMM,31,44,0 34 671
SPMM,22,45,0 34 670
SPMM,23,45,0 34 669
SPMM,30,45,0 34 668
SPMM,31,45,0 34 667
XTY,50,10,4 34 666
XY,30,3 50 665
DLACPY,30,1 50 664
SPMM,15,30,0 50 663
SPMM,16,30,0 50 662
SPMM,17,30,0 50 661
SPMM,21,30,0 50 660
SPMM,26,30,0 50 659
SPMM,27,30,0 50 658
SPMM,28,30,0 50 657
SPMM,29,30,0 50 656
SPMM,32,30,0 50 655
SPMM,33,30,0 50 654
SPMM,34,30,0 50 653
SPMM,35,30,0 50 652
SPMM,36,30,0 50 651
SPMM,37,30,0 50 650
SPMM,38,30,0 50 649
SPMM,39,30,0 50 648
SPMM,40,30,0 50 647
SPMM,41,30,0 50 646
SPMM,42,30,0 50 645
SPMM,43,30,0 50 644
SPMM,44,30,0 50 643
SPMM,45,30,0 50 642
SPMM,46,30,0 50 641
SPMM,47,30,0 50 640
SPMM,48,30,0 50 639
SPMM,49,30,0 50 638
XY,31,3 50 637
DLACPY,31,1 50 636
SPMM,15,31,0 50 635
SPMM,16,31,0 50 634
SPMM,17,31,0 50 633
SPMM,20,31,0 50 632
SPMM,21,31,0 50 631
SPMM,26,31,0 50 630
SPMM,27,31,0 50 629
SPMM,28,31,0 50 628
SPMM,29,31,0 50 627
SPMM,32,31,0 50 626
SPMM,33,31,0 50 625
SPMM,34,31,0 50 624
SPMM,35,31,0 50 623
SPMM,36,31,0 50 622
SPMM,37,31,0 50 621
SPMM,38,31,0 50 620
SPMM,39,31,0 50 619
SPMM,40,31,0 50 618
SPMM,41,31,0 50 617
SPMM,42,31,0 50 616
SPMM,43,31,0 50 615
SPMM,44,31,0 50 614
SPMM,45,31,0 50 613
SPMM,46,31,0 50 612
SPMM,47,31,0 50 611
SPMM,48,31,0 50 610
SPMM,49,31,0 50 609
SPMM,18,31,0 51 608
SPMM,19,31,0 51 607
SPMM,18,30,0 51 606
XTY,7,7,5 51 605
SPMM,15,28,0 51 604
SPMM,22,28,0 51 603
SPMM,23,28,0 51 602
SPMM,48,28,0 51 601
SPMM,49,28,0 51 600
SPMM,15,29,0 51 599
SPMM,22,29,0 51 598
SPMM,23,29,0 51 597
SPMM,48,29,0 51 596
SPMM,49,29,0 51 595
XTY,6,6,5 51 594
XTY,14,14,4 51 593
SPMM,36,15,0 51 592
SPMM,37,15,0 51 591
SPMM,50,15,0 51 590
XTY,15,15,4 51 589
SPMM,22,31,0 55 588
SPMM,23,31,0 55 587
SPMM,22,30,0 55 586
SPMM,23,30,0 55 585
XTY,34,14,4 55 584
XTY,35,15,4 55 583
SPMM,8,14,0 55 582
XTY,8,8,5 55 581
SPMM,9,14,0 55 580
XTY,9,9,5 55 579
SPMM,14,14,0 55 578
SPMM,15,14,0 55 577
SPMM,14,15,0 55 576
SPMM,15,15,0 55 575
SPMM,20,40,0 55 574
SPMM,21,40,0 55 573
SPMM,50,40,0 55 572
SPMM,20,41,0 55 571
SPMM,21,41,0 55 570
SPMM,50,41,0 55 569
SPMM,30,26,0 55 568
SPMM,31,26,0 55 567
SPMM,30,27,0 55 566
SPMM,31,27,0 55 565
SPMM,24,31,0 60 564
SPMM,25,31,0 60 563
SPMM,24,30,0 60 562
SPMM,24,28,0 60 561
SPMM,24,29,0 60 560
SPMM,28,24,0 60 559
SPMM,29,24,0 60 558
SPMM,36,24,0 60 557
SPMM,37,24,0 60 556
SPMM,36,25,0 60 555
SPMM,24,34,0 60 554
SPMM,24,35,0 60 553
SPMM,18,32,0 60 552
SPMM,18,33,0 60 551
XTY,38,18,4 60 550
XTY,39,19,4 60 549
SPMM,50,18,0 60 548
SPMM,50,19,0 60 547
XTY,14,14,5 62 546
SPMM,16,42,0 62 545
SPMM,17,42,0 62 544
SPMM,36,42,0 62 543
SPMM,37,42,0 62 542
SPMM,16,43,0 62 541
SPMM,17,43,0 62 540
SPMM,36,43,0 62 539
SPMM,37,43,0 62 538
SPMM,28,18,0 62 537
SPMM,29,18,0 62 536
DLACPY,37,1 62 535
SPMM,15,37,0 62 534
SPMM,16,37,0 62 533
SPMM,17,37,0 62 532
SPMM,22,37,0 62 531
SPMM,23,37,0 62 530
SPMM,24,37,0 62 529
SPMM,30,37,0 62 528
SPMM,31,37,0 62 527
SPMM,32,37,0 62 526
SPMM,33,37,0 62 525
SPMM,36,37,0 62 524
SPMM,37,37,0 62 523
SPMM,46,37,0 62 522
SPMM,47,37,0 62 521
SPMM,48,37,0 62 520
SPMM,49,37,0 62 519
UPDATE,37,1 62 518
XTY,37,17,4 62 517
DLACPY,36,1 62 516
SPMM,15,36,0 62 515
XTY,15,15,5 62 514
SPMM,16,36,0 62 513
XTY,16,16,5 62 512
SPMM,17,36,0 62 511
XTY,17,17,5 62 510
SPMM,22,36,0 62 509
SPMM,23,36,0 62 508
SPMM,24,36,0 62 507
SPMM,25,36,0 62 506
SPMM,30,36,0 62 505
SPMM,31,36,0 62 504
SPMM,32,36,0 62 503
SPMM,33,36,0 62 502
SPMM,36,36,0 62 501
XTY,36,16,5 62 500
SPMM,37,36,0 62 499
XTY,37,17,5 62 498
SPMM,46,36,0 62 497
SPMM,47,36,0 62 496
SPMM,48,36,0 62 495
SPMM,49,36,0 62 494
UPDATE,36,1 62 493
XTY,36,16,4 62 492
SPMM,30,31,0 57 491
SPMM,31,31,0 57 490
SPMM,30,30,0 57 489
SPMM,31,30,0 57 488
SPMM,24,22,0 57 487
UPDATE,22,1 57 486
SPMM,24,23,0 57 485
UPDATE,23,1 57 484
SPMM,2,18,0 57 483
SPMM,3,18,0 57 482
UPDATE,18,1 57 481
SPMM,2,19,0 57 480
XTY,2,2,5 57 479
SPMM,3,19,0 57 478
XTY,3,3,5 57 477
UPDATE,19,1 57 476
SPMM,32,40,0 57 475
SPMM,33,40,0 57 474
SPMM,48,40,0 57 473
SPMM,49,40,0 57 472
SPMM,32,41,0 57 471
SPMM,33,41,0 57 470
SPMM,48,41,0 57 469
SPMM,49,41,0 57 468
SPMM,50,31,0 52 467
UPDATE,31,1 52 466
XTY,31,11,4 52 465
SPMM,50,30,0 52 464
UPDATE,30,1 52 463
XTY,30,10,4 52 462
SPMM,40,32,0 52 461
SPMM,41,32,0 52 460
SPMM,44,32,0 52 459
SPMM,45,32,0 52 458
SPMM,40,33,0 52 457
SPMM,41,33,0 52 456
SPMM,44,33,0 52 455
SPMM,45,33,0 52 454
SPMM,10,14,0 52 453
XTY,10,10,5 52 452
SPMM,11,14,0 52 451
XTY,11,11,5 52 450
SPMM,26,40,0 52 449
SPMM,27,40,0 52 448
SPMM,26,41,0 52 447
SPMM,27,41,0 52 446
XTY,23,3,5 64 445
XTY,22,2,5 64 444
SPMM,20,36,0 64 443
XTY,20,0,5 64 442
SPMM,21,36,0 64 441
SPMM,21,37,0 64 440
XTY,21,1,5 64 439
XTY,28,8,4 64 438
XTY,29,9,4 64 437
RED,XARBUF,0 64 436
SPMM,48,42,0 64 435
SPMM,49,42,0 64 434
SPMM,48,43,0 64 433
XTY,48,8,5 64 432
SPMM,49,43,0 64 431
XTY,49,9,5 64 430
SPMM,18,50,0 64 429
SPMM,19,50,0 64 428
SPMM,18,36,0 63 427
SPMM,34,36,0 63 426
SPMM,35,36,0 63 425
SPMM,40,36,0 63 424
SPMM,41,36,0 63 423
SPMM,44,36,0 63 422
SPMM,45,36,0 63 421
SPMM,50,36,0 63 420
SPMM,18,37,0 63 419
SPMM,34,37,0 63 418
SPMM,35,37,0 63 417
SPMM,40,37,0 63 416
XTY,40,0,5 63 415
SPMM,41,37,0 63 414
XTY,41,1,5 63 413
SPMM,44,37,0 63 412
XTY,44,4,5 63 411
SPMM,45,37,0 63 410
XTY,45,5,5 63 409
SPMM,50,37,0 63 408
SPMM,42,15,0 63 407
SPMM,43,15,0 63 406
SPMM,26,36,0 65 405
SPMM,27,36,0 65 404
SPMM,38,36,0 65 403
SPMM,39,36,0 65 402
SPMM,42,36,0 65 401
SPMM,43,36,0 65 400
SPMM,26,37,0 65 399
SPMM,27,37,0 65 398
SPMM,38,37,0 65 397
SPMM,39,37,0 65 396
SPMM,42,37,0 65 395
XTY,42,2,5 65 394
SPMM,43,37,0 65 393
XTY,43,3,5 65 392
SPMM,32,28,0 65 391
SPMM,33,28,0 65 390
SPMM,32,29,0 65 389
SPMM,33,29,0 65 388
SPMM,50,22,0 65 387
SPMM,50,23,0 65 386
SPMM,32,24,0 65 385
SPMM,33,24,0 65 384
SPMM,34,24,0 65 383
SPMM,35,24,0 65 382
SPMM,50,24,0 65 381
SPMM,32,25,0 65 380
XTY,32,12,5 65 379
SPMM,33,25,0 65 378
XTY,33,13,5 65 377
SPMM,50,25,0 65 376
SPMM,18,34,0 65 375
SPMM,34,34,0 65 374
SPMM,35,34,0 65 373
SPMM,18,35,0 65 372
SPMM,34,35,0 65 371
SPMM,35,35,0 65 370
SPMM,30,42,0 65 369
SPMM,31,42,0 65 368
SPMM,50,42,0 65 367
SPMM,30,43,0 65 366
SPMM,31,43,0 65 365
SPMM,50,43,0 65 364
XTY,50,10,5 65 363
SPMM,24,14,0 65 362
SPMM,25,14,0 65 361
SPMM,24,15,0 65 360
SPMM,24,50,0 65 359
SPMM,25,50,0 65 358
XTY,39,19,5 66 357
XTY,38,18,5 66 356
XTY,27,7,5 66 355
SPMM,28,36,0 66 354
SPMM,29,36,0 66 353
SPMM,28,37,0 66 352
XTY,28,8,5 66 351
SPMM,29,37,0 66 350
XTY,29,9,5 66 349
SPMM,18,28,0 66 348
SPMM,18,29,0 66 347
SPMM,46,24,0 66 346
XTY,46,6,5 66 345
SPMM,47,24,0 66 344
SPMM,47,25,0 66 343
XTY,47,7,5 66 342
SPMM,24,42,0 66 341
SPMM,25,42,0 66 340
SPMM,24,43,0 66 339
SPMM,25,43,0 66 338
SPMM,34,18,0 66 337
XTY,34,14,5 66 336
SPMM,35,18,0 66 335
XTY,35,15,5 66 334
SPMM,26,1,0 66 333
SPMM,26,0,0 66 332
SPMM,18,2,0 66 331
SPMM,19,2,0 66 330
SPMM,24,2,0 66 329
SPMM,25,2,0 66 328
SPMM,26,2,0 66 327
SPMM,18,3,0 66 326
XTY,18,18,5 66 325
SPMM,19,3,0 66 324
XTY,19,19,5 66 323
SPMM,24,3,0 66 322
XTY,24,4,5 66 321
SPMM,25,3,0 66 320
XTY,25,5,5 66 319
SPMM,26,3,0 66 318
XTY,26,6,5 66 317
SPMM,30,24,0 67 316
XTY,30,10,5 67 315
SPMM,31,24,0 67 314
SPMM,31,25,0 67 313
XTY,31,11,5 67 312
RED,RARBUF,0 67 311
TRANS,RAR 67 310
SPEUPDATE,RAR 67 309
CONSTRUCTGA 67 308
EIGEN 67 307
XY,30,8 67 306
XY,31,8 67 305
XY,14,8 69 304
XY,15,8 69 303
XY,22,8 69 302
XY,23,8 69 301
XY,28,8 69 300
XY,29,8 69 299
XY,32,8 69 298
XY,33,8 69 297
XY,36,8 69 296
XY,37,8 69 295
XY,38,8 69 294
XY,39,8 69 293
XY,44,8 69 292
XY,45,8 69 291
XY,46,8 69 290
XY,47,8 69 289
XY,18,8 70 288
XY,19,8 70 287
XY,20,8 70 286
XY,21,8 70 285
XY,24,8 70 284
XY,25,8 70 283
XY,34,8 70 282
XY,35,8 70 281
XY,40,8 70 280
XY,41,8 70 279
XY,42,8 70 278
XY,43,8 70 277
XY,48,8 70 276
XY,49,8 70 275
XY,50,8 70 274
XY,30,6 75 273
XY,31,6 75 272
XY,28,10 75 271
XY,29,10 75 270
XY,30,10 75 269
ADD,30,3 75 268
XY,31,10 75 267
ADD,31,3 75 266
XY,14,11 75 265
ADD,14,4 75 264
XY,15,11 75 263
ADD,15,4 75 262
XY,50,11 75 261
ADD,50,4 75 260
XY,8,8 71 259
XY,9,8 71 258
XY,4,10 71 257
XY,5,10 71 256
XY,42,10 71 255
XY,43,10 71 254
XY,8,11 71 253
ADD,8,4 71 252
XY,9,11 71 251
ADD,9,4 71 250
XY,18,11 71 249
ADD,18,4 71 248
XY,19,11 71 247
ADD,19,4 71 246
XY,26,11 71 245
XY,27,11 71 244
XY,30,11 71 243
XY,31,11 71 242
XY,40,11 71 241
XY,41,11 71 240
ADD,31,4 76 239
ADD,30,4 76 238
XY,12,8 76 237
XY,13,8 76 236
XY,18,10 76 235
XY,19,10 76 234
XY,12,11 76 233
ADD,12,4 76 232
XY,13,11 76 231
ADD,13,4 76 230
XY,22,11 76 229
XY,23,11 76 228
XY,44,11 76 227
ADD,44,4 76 226
XY,45,11 76 225
ADD,45,4 76 224
ADD,23,4 77 223
ADD,22,4 77 222
XY,18,6 77 221
XY,19,6 77 220
XY,38,6 77 219
XY,39,6 77 218
XY,4,8 77 217
XY,5,8 77 216
XY,38,10 77 215
ADD,38,3 77 214
XY,39,10 77 213
ADD,39,3 77 212
XY,4,11 77 211
ADD,4,4 77 210
XY,5,11 77 209
ADD,5,4 77 208
XY,4,6 72 207
ADD,4,3 72 206
XY,5,6 72 205
ADD,5,3 72 204
XY,32,6 72 203
XY,33,6 72 202
XY,34,6 72 201
XY,35,6 72 200
XY,32,10 72 199
ADD,32,3 72 198
XY,33,10 72 197
ADD,33,3 72 196
XY,24,11 72 195
XY,25,11 72 194
XY,32,11 72 193
XY,33,11 72 192
ADD,19,3 78 191
ADD,18,3 78 190
XY,24,6 78 189
XY,25,6 78 188
XY,28,6 78 187
ADD,28,3 78 186
XY,29,6 78 185
ADD,29,3 78 184
XY,34,10 78 183
ADD,34,3 78 182
XY,35,10 78 181
ADD,35,3 78 180
XY,36,11 78 179
ADD,36,4 78 178
XY,37,11 78 177
ADD,37,4 78 176
XY,36,6 68 175
XY,37,6 68 174
XY,40,6 68 173
XY,41,6 68 172
XY,42,6 68 171
XY,43,6 68 170
XY,44,6 68 169
XY,45,6 68 168
XY,46,6 68 167
XY,47,6 68 166
XY,16,8 68 165
XY,17,8 68 164
XY,26,8 68 163
XY,27,8 68 162
XY,22,10 68 161
XY,23,10 68 160
ADD,25,4 73 159
ADD,24,4 73 158
ADD,41,4 73 157
ADD,40,4 73 156
XY,10,6 73 155
XY,11,6 73 154
XY,26,6 73 153
XY,27,6 73 152
XY,0,8 73 151
XY,1,8 73 150
XY,44,10 73 149
ADD,44,3 73 148
XY,45,10 73 147
ADD,45,3 73 146
XY,16,11 73 145
XY,17,11 73 144
ADD,17,4 74 143
ADD,16,4 74 142
XY,12,6 74 141
XY,13,6 74 140
XY,50,6 74 139
XY,12,10 74 138
ADD,12,3 74 137
XY,13,10 74 136
ADD,13,3 74 135
XY,14,10 74 134
XY,15,10 74 133
XY,28,11 74 132
ADD,28,4 74 131
XY,29,11 74 130
ADD,29,4 74 129
ADD,43,3 79 128
ADD,42,3 79 127
XY,2,8 79 126
XY,3,8 79 125
XY,10,8 79 124
XY,11,8 79 123
XY,16,10 79 122
XY,17,10 79 121
XY,48,10 79 120
XY,49,10 79 119
XY,2,11 79 118
XY,3,11 79 117
XY,10,11 79 116
XY,11,11 79 115
XY,38,11 79 114
ADD,38,4 79 113
XY,39,11 79 112
ADD,39,4 79 111
XY,16,6 80 110
ADD,16,3 80 109
XY,17,6 80 108
ADD,17,3 80 107
XY,20,6 80 106
XY,21,6 80 105
XY,8,10 80 104
XY,9,10 80 103
XY,26,10 80 102
XY,27,10 80 101
XY,36,10 80 100
XY,37,10 80 99
XY,46,10 80 98
ADD,46,3 80 97
XY,47,10 80 96
ADD,47,3 80 95
XY,0,6 81 94
XY,1,6 81 93
XY,6,6 81 92
XY,7,6 81 91
XY,8,6 81 90
ADD,8,3 81 89
XY,9,6 81 88
ADD,9,3 81 87
XY,22,6 81 86
ADD,22,3 81 85
XY,23,6 81 84
ADD,23,3 81 83
XY,6,10 81 82
ADD,6,3 81 81
XY,7,10 81 80
ADD,7,3 81 79
ADD,11,4 82 78
ADD,10,4 82 77
XY,0,10 82 76
ADD,0,3 82 75
XY,1,10 82 74
ADD,1,3 82 73
XY,10,10 82 72
ADD,10,3 82 71
XY,11,10 82 70
ADD,11,3 82 69
XY,6,11 82 68
XY,7,11 82 67
XY,34,11 82 66
ADD,34,4 82 65
XY,35,11 82 64
ADD,35,4 82 63
ADD,33,4 84 62
ADD,32,4 84 61
XY,2,6 84 60
XY,3,6 84 59
XY,6,8 84 58
ADD,6,4 84 57
XY,7,8 84 56
ADD,7,4 84 55
XY,2,10 84 54
ADD,2,3 84 53
XY,3,10 84 52
ADD,3,3 84 51
XY,24,10 84 50
ADD,24,3 84 49
XY,25,10 84 48
ADD,25,3 84 47
ADD,37,3 83 46
ADD,36,3 83 45
ADD,27,3 83 44
ADD,26,3 83 43
XY,20,10 83 42
ADD,20,3 83 41
XY,21,10 83 40
ADD,21,3 83 39
XY,50,10 83 38
ADD,50,3 83 37
XY,20,11 83 36
XY,21,11 83 35
XY,48,11 83 34
XY,49,11 83 33
ADD,49,4 86 32
ADD,48,4 86 31
ADD,3,4 86 30
ADD,2,4 86 29
XY,14,6 86 28
ADD,14,3 86 27
XY,15,6 86 26
ADD,15,3 86 25
XY,48,6 86 24
ADD,48,3 86 23
XY,49,6 86 22
ADD,49,3 86 21
XY,40,10 86 20
ADD,40,3 86 19
XY,41,10 86 18
ADD,41,3 86 17
ADD,21,4 85 16
ADD,20,4 85 15
ADD,27,4 85 14
ADD,26,4 85 13
XY,0,11 85 12
ADD,0,4 85 11
XY,1,11 85 10
ADD,1,4 85 9
XY,42,11 85 8
ADD,42,4 85 7
XY,43,11 85 6
ADD,43,4 85 5
XY,46,11 85 4
ADD,46,4 85 3
XY,47,11 85 2
ADD,47,4 85 1
