SETZERO,43,1 1 1960
SETZERO,42,1 1 1959
SETZERO,41,1 1 1958
SETZERO,40,1 1 1957
SETZERO,31,1 1 1956
SETZERO,30,1 1 1955
SETZERO,29,1 1 1954
SETZERO,28,1 1 1953
_X,15 1 1952
XTY,15,15,20 1 1951
_X,14 1 1950
XTY,14,14,20 1 1949
_X,13 1 1948
XTY,13,13,20 1 1947
_X,12 1 1946
XTY,12,12,20 1 1945
_X,11 1 1944
XTY,11,11,20 1 1943
_X,10 1 1942
XTY,10,10,20 1 1941
_X,9 1 1940
XTY,9,9,20 1 1939
_X,8 1 1938
XTY,8,8,20 1 1937
_X,7 1 1936
XTY,7,7,20 1 1935
_X,6 1 1934
XTY,6,6,20 1 1933
_X,5 1 1932
XTY,5,5,20 1 1931
_X,4 1 1930
XTY,4,4,20 1 1929
SETZERO,47,1 0 1928
SETZERO,46,1 0 1927
SETZERO,45,1 0 1926
SETZERO,44,1 0 1925
SETZERO,19,1 0 1924
SETZERO,18,1 0 1923
SETZERO,17,1 0 1922
SETZERO,16,1 0 1921
_X,50 0 1920
XTY,50,10,20 0 1919
_X,49 0 1918
XTY,49,9,20 0 1917
_X,48 0 1916
XTY,48,8,20 0 1915
_X,47 0 1914
_X,46 0 1913
_X,45 0 1912
_X,44 0 1911
_X,43 0 1910
XTY,43,3,20 0 1909
_X,42 0 1908
XTY,42,2,20 0 1907
_X,41 0 1906
XTY,41,1,20 0 1905
_X,40 0 1904
XTY,40,0,20 0 1903
_X,27 0 1902
XTY,27,7,20 0 1901
_X,26 0 1900
XTY,26,6,20 0 1899
_X,25 0 1898
XTY,25,5,20 0 1897
_X,24 0 1896
XTY,24,4,20 0 1895
XTY,44,4,20 2 1894
XTY,45,5,20 2 1893
XTY,46,6,20 2 1892
XTY,47,7,20 2 1891
SETZERO,39,1 2 1890
SETZERO,38,1 2 1889
SETZERO,37,1 2 1888
SETZERO,36,1 2 1887
SETZERO,35,1 2 1886
SETZERO,34,1 2 1885
SETZERO,33,1 2 1884
SETZERO,32,1 2 1883
_X,23 2 1882
XTY,23,3,20 2 1881
_X,22 2 1880
XTY,22,2,20 2 1879
_X,21 2 1878
XTY,21,1,20 2 1877
_X,20 2 1876
XTY,20,0,20 2 1875
_X,19 2 1874
_X,18 2 1873
_X,17 2 1872
_X,16 2 1871
_X,3 2 1870
XTY,3,3,20 2 1869
_X,2 2 1868
XTY,2,2,20 2 1867
_X,1 2 1866
XTY,1,1,20 2 1865
_X,0 2 1864
XTY,0,0,20 2 1863
XTY,16,16,20 3 1862
XTY,17,17,20 3 1861
XTY,18,18,20 3 1860
XTY,19,19,20 3 1859
SETZERO,50,1 3 1858
SETZERO,49,1 3 1857
SETZERO,48,1 3 1856
SETZERO,27,1 3 1855
SETZERO,26,1 3 1854
SETZERO,25,1 3 1853
SETZERO,24,1 3 1852
SETZERO,23,1 3 1851
SETZERO,22,1 3 1850
SETZERO,21,1 3 1849
SETZERO,20,1 3 1848
_X,39 3 1847
XTY,39,19,20 3 1846
_X,38 3 1845
XTY,38,18,20 3 1844
_X,37 3 1843
XTY,37,17,20 3 1842
_X,36 3 1841
XTY,36,16,20 3 1840
_X,35 3 1839
XTY,35,15,20 3 1838
_X,34 3 1837
XTY,34,14,20 3 1836
_X,33 3 1835
XTY,33,13,20 3 1834
_X,32 3 1833
XTY,32,12,20 3 1832
SETZERO,15,1 4 1831
SETZERO,14,1 4 1830
SETZERO,13,1 4 1829
SETZERO,12,1 4 1828
SETZERO,11,1 4 1827
SETZERO,10,1 4 1826
SETZERO,9,1 4 1825
SETZERO,8,1 4 1824
SETZERO,7,1 4 1823
SETZERO,6,1 4 1822
SETZERO,5,1 4 1821
SETZERO,4,1 4 1820
SETZERO,3,1 4 1819
SETZERO,2,1 4 1818
SETZERO,1,1 4 1817
SETZERO,0,1 4 1816
_X,31 4 1815
XTY,31,11,20 4 1814
_X,30 4 1813
XTY,30,10,20 4 1812
_X,29 4 1811
XTY,29,9,20 4 1810
_X,28 4 1809
XTY,28,8,20 4 1808
RED,XBXBUF,0 4 1807
CHOL,XBX 4 1806
DLACPY,0,20 5 1805
INV,XBX 5 1804
XY,12,20 5 1803
XY,13,20 5 1802
XY,14,20 5 1801
XY,15,20 5 1800
XY,20,20 5 1799
XY,21,20 5 1798
XY,22,20 5 1797
XY,23,20 5 1796
DLACPY,15,21 49 1795
SPMM,14,15,0 49 1794
SPMM,15,15,0 49 1793
DLACPY,14,21 49 1792
SPMM,12,14,0 49 1791
SPMM,13,14,0 49 1790
SPMM,14,14,0 49 1789
SPMM,15,14,0 49 1788
DLACPY,13,21 49 1787
SPMM,12,13,0 49 1786
SPMM,13,13,0 49 1785
SPMM,14,13,0 49 1784
DLACPY,12,21 49 1783
SPMM,12,12,0 49 1782
SPMM,13,12,0 49 1781
SPMM,14,12,0 49 1780
XY,0,20 10 1779
DLACPY,0,21 10 1778
XY,1,20 10 1777
DLACPY,1,21 10 1776
XY,2,20 10 1775
DLACPY,2,21 10 1774
XY,3,20 10 1773
DLACPY,3,21 10 1772
SPMM,4,3,0 12 1771
SPMM,7,3,0 12 1770
XY,48,20 12 1769
XY,49,20 12 1768
XY,50,20 12 1767
DLACPY,50,21 30 1766
SPMM,48,50,0 30 1765
SPMM,49,50,0 30 1764
SPMM,50,50,0 30 1763
DLACPY,49,21 30 1762
SPMM,48,49,0 30 1761
SPMM,49,49,0 30 1760
SPMM,50,49,0 30 1759
DLACPY,48,21 30 1758
SPMM,48,48,0 30 1757
SPMM,49,48,0 30 1756
SPMM,50,48,0 30 1755
SPMM,16,48,0 33 1754
SPMM,17,48,0 33 1753
SPMM,18,48,0 33 1752
SPMM,32,48,0 33 1751
SPMM,33,48,0 33 1750
SPMM,34,48,0 33 1749
SPMM,35,48,0 33 1748
SPMM,16,49,0 33 1747
SPMM,17,49,0 33 1746
SPMM,18,49,0 33 1745
SPMM,32,49,0 33 1744
SPMM,33,49,0 33 1743
SPMM,34,49,0 33 1742
SPMM,35,49,0 33 1741
SPMM,16,50,0 33 1740
SPMM,17,50,0 33 1739
SPMM,18,50,0 33 1738
SPMM,19,50,0 33 1737
SPMM,32,50,0 33 1736
SPMM,33,50,0 33 1735
SPMM,34,50,0 33 1734
SPMM,35,50,0 33 1733
SPMM,28,48,0 32 1732
SPMM,29,48,0 32 1731
SPMM,30,48,0 32 1730
SPMM,31,48,0 32 1729
SPMM,36,48,0 32 1728
SPMM,37,48,0 32 1727
SPMM,38,48,0 32 1726
SPMM,39,48,0 32 1725
SPMM,28,49,0 32 1724
SPMM,29,49,0 32 1723
SPMM,30,49,0 32 1722
SPMM,31,49,0 32 1721
SPMM,36,49,0 32 1720
SPMM,37,49,0 32 1719
SPMM,38,49,0 32 1718
SPMM,39,49,0 32 1717
SPMM,28,50,0 32 1716
SPMM,29,50,0 32 1715
SPMM,30,50,0 32 1714
SPMM,31,50,0 32 1713
SPMM,36,50,0 32 1712
SPMM,37,50,0 32 1711
SPMM,38,50,0 32 1710
SPMM,39,50,0 32 1709
SPMM,40,48,0 31 1708
SPMM,41,48,0 31 1707
SPMM,42,48,0 31 1706
SPMM,43,48,0 31 1705
SPMM,44,48,0 31 1704
SPMM,45,48,0 31 1703
SPMM,46,48,0 31 1702
SPMM,47,48,0 31 1701
SPMM,40,49,0 31 1700
SPMM,41,49,0 31 1699
SPMM,42,49,0 31 1698
SPMM,43,49,0 31 1697
SPMM,44,49,0 31 1696
SPMM,45,49,0 31 1695
SPMM,46,49,0 31 1694
SPMM,47,49,0 31 1693
SPMM,40,50,0 31 1692
SPMM,41,50,0 31 1691
SPMM,42,50,0 31 1690
SPMM,43,50,0 31 1689
SPMM,44,50,0 31 1688
SPMM,45,50,0 31 1687
SPMM,46,50,0 31 1686
SPMM,47,50,0 31 1685
SPMM,12,3,0 13 1684
SPMM,13,3,0 13 1683
SPMM,14,3,0 13 1682
SPMM,12,2,0 13 1681
SPMM,14,2,0 13 1680
XY,40,20 13 1679
XY,41,20 13 1678
XY,42,20 13 1677
XY,43,20 13 1676
DLACPY,43,21 14 1675
SPMM,40,43,0 14 1674
SPMM,41,43,0 14 1673
SPMM,42,43,0 14 1672
SPMM,43,43,0 14 1671
DLACPY,42,21 14 1670
SPMM,40,42,0 14 1669
SPMM,41,42,0 14 1668
SPMM,42,42,0 14 1667
SPMM,43,42,0 14 1666
DLACPY,41,21 14 1665
SPMM,40,41,0 14 1664
SPMM,41,41,0 14 1663
SPMM,42,41,0 14 1662
SPMM,43,41,0 14 1661
DLACPY,40,21 14 1660
SPMM,40,40,0 14 1659
SPMM,41,40,0 14 1658
SPMM,42,40,0 14 1657
SPMM,43,40,0 14 1656
SPMM,24,40,0 44 1655
SPMM,25,40,0 44 1654
SPMM,26,40,0 44 1653
SPMM,27,40,0 44 1652
SPMM,24,41,0 44 1651
SPMM,25,41,0 44 1650
SPMM,26,41,0 44 1649
SPMM,27,41,0 44 1648
SPMM,24,42,0 44 1647
SPMM,25,42,0 44 1646
SPMM,26,42,0 44 1645
SPMM,27,42,0 44 1644
SPMM,24,43,0 44 1643
SPMM,25,43,0 44 1642
SPMM,26,43,0 44 1641
SPMM,27,43,0 44 1640
SPMM,20,3,0 44 1639
SPMM,21,3,0 44 1638
SPMM,20,2,0 44 1637
SPMM,21,2,0 44 1636
SPMM,20,1,0 44 1635
SPMM,21,1,0 44 1634
SPMM,20,0,0 44 1633
SPMM,28,40,0 15 1632
SPMM,29,40,0 15 1631
SPMM,30,40,0 15 1630
SPMM,31,40,0 15 1629
SPMM,36,40,0 15 1628
SPMM,37,40,0 15 1627
SPMM,38,40,0 15 1626
SPMM,39,40,0 15 1625
SPMM,28,41,0 15 1624
SPMM,29,41,0 15 1623
SPMM,30,41,0 15 1622
SPMM,31,41,0 15 1621
SPMM,36,41,0 15 1620
SPMM,37,41,0 15 1619
SPMM,38,41,0 15 1618
SPMM,39,41,0 15 1617
SPMM,28,42,0 15 1616
SPMM,29,42,0 15 1615
SPMM,30,42,0 15 1614
SPMM,31,42,0 15 1613
SPMM,36,42,0 15 1612
SPMM,37,42,0 15 1611
SPMM,38,42,0 15 1610
SPMM,39,42,0 15 1609
SPMM,28,43,0 15 1608
SPMM,29,43,0 15 1607
SPMM,30,43,0 15 1606
SPMM,31,43,0 15 1605
SPMM,36,43,0 15 1604
SPMM,37,43,0 15 1603
SPMM,38,43,0 15 1602
SPMM,39,43,0 15 1601
SPMM,20,40,0 16 1600
SPMM,21,40,0 16 1599
SPMM,22,40,0 16 1598
SPMM,23,40,0 16 1597
SPMM,44,40,0 16 1596
SPMM,45,40,0 16 1595
SPMM,46,40,0 16 1594
SPMM,47,40,0 16 1593
SPMM,20,41,0 16 1592
SPMM,21,41,0 16 1591
SPMM,22,41,0 16 1590
SPMM,23,41,0 16 1589
SPMM,44,41,0 16 1588
SPMM,45,41,0 16 1587
SPMM,46,41,0 16 1586
SPMM,47,41,0 16 1585
SPMM,20,42,0 16 1584
SPMM,21,42,0 16 1583
SPMM,22,42,0 16 1582
SPMM,23,42,0 16 1581
SPMM,44,42,0 16 1580
SPMM,45,42,0 16 1579
SPMM,46,42,0 16 1578
SPMM,47,42,0 16 1577
SPMM,21,43,0 16 1576
SPMM,22,43,0 16 1575
SPMM,23,43,0 16 1574
SPMM,44,43,0 16 1573
SPMM,45,43,0 16 1572
SPMM,46,43,0 16 1571
SPMM,47,43,0 16 1570
SPMM,16,40,0 17 1569
SPMM,17,40,0 17 1568
SPMM,18,40,0 17 1567
SPMM,48,40,0 17 1566
SPMM,49,40,0 17 1565
SPMM,50,40,0 17 1564
SPMM,16,41,0 17 1563
SPMM,17,41,0 17 1562
SPMM,18,41,0 17 1561
SPMM,19,41,0 17 1560
SPMM,48,41,0 17 1559
SPMM,49,41,0 17 1558
SPMM,50,41,0 17 1557
SPMM,16,42,0 17 1556
SPMM,17,42,0 17 1555
SPMM,18,42,0 17 1554
SPMM,19,42,0 17 1553
SPMM,48,42,0 17 1552
SPMM,49,42,0 17 1551
SPMM,50,42,0 17 1550
SPMM,16,43,0 17 1549
SPMM,17,43,0 17 1548
SPMM,18,43,0 17 1547
SPMM,19,43,0 17 1546
SPMM,48,43,0 17 1545
SPMM,49,43,0 17 1544
SPMM,50,43,0 17 1543
SPMM,2,3,0 11 1542
SPMM,3,3,0 11 1541
SPMM,8,3,0 11 1540
SPMM,9,3,0 11 1539
SPMM,10,3,0 11 1538
SPMM,11,3,0 11 1537
SPMM,1,2,0 11 1536
SPMM,2,2,0 11 1535
SPMM,3,2,0 11 1534
SPMM,8,2,0 11 1533
SPMM,9,2,0 11 1532
SPMM,10,2,0 11 1531
SPMM,11,2,0 11 1530
SPMM,0,1,0 11 1529
SPMM,1,1,0 11 1528
SPMM,2,1,0 11 1527
SPMM,11,1,0 11 1526
SPMM,0,0,0 11 1525
SPMM,1,0,0 11 1524
XY,8,20 7 1523
XY,9,20 7 1522
XY,10,20 7 1521
XY,11,20 7 1520
XY,16,20 7 1519
XY,17,20 7 1518
XY,18,20 7 1517
XY,19,20 7 1516
XY,24,20 7 1515
XY,25,20 7 1514
XY,26,20 7 1513
XY,27,20 7 1512
XY,32,20 7 1511
XY,33,20 7 1510
XY,34,20 7 1509
XY,35,20 7 1508
DLACPY,35,21 38 1507
SPMM,28,35,0 38 1506
SPMM,29,35,0 38 1505
SPMM,30,35,0 38 1504
SPMM,31,35,0 38 1503
SPMM,32,35,0 38 1502
SPMM,33,35,0 38 1501
SPMM,34,35,0 38 1500
SPMM,35,35,0 38 1499
DLACPY,34,21 38 1498
SPMM,28,34,0 38 1497
SPMM,29,34,0 38 1496
SPMM,30,34,0 38 1495
SPMM,31,34,0 38 1494
SPMM,32,34,0 38 1493
SPMM,33,34,0 38 1492
SPMM,34,34,0 38 1491
SPMM,35,34,0 38 1490
DLACPY,33,21 38 1489
SPMM,28,33,0 38 1488
SPMM,29,33,0 38 1487
SPMM,30,33,0 38 1486
SPMM,31,33,0 38 1485
SPMM,32,33,0 38 1484
SPMM,33,33,0 38 1483
SPMM,34,33,0 38 1482
SPMM,35,33,0 38 1481
DLACPY,32,21 38 1480
SPMM,28,32,0 38 1479
SPMM,29,32,0 38 1478
SPMM,30,32,0 38 1477
SPMM,31,32,0 38 1476
SPMM,32,32,0 38 1475
SPMM,33,32,0 38 1474
SPMM,34,32,0 38 1473
SPMM,35,32,0 38 1472
SPMM,15,32,0 43 1471
SPMM,15,33,0 43 1470
SPMM,15,34,0 43 1469
SPMM,15,35,0 43 1468
SPMM,18,3,0 43 1467
SPMM,19,3,0 43 1466
SPMM,18,2,0 43 1465
SPMM,19,2,0 43 1464
SPMM,18,1,0 43 1463
SPMM,19,1,0 43 1462
SPMM,18,0,0 43 1461
SPMM,19,0,0 43 1460
SPMM,16,32,0 42 1459
SPMM,17,32,0 42 1458
SPMM,18,32,0 42 1457
SPMM,16,33,0 42 1456
SPMM,17,33,0 42 1455
SPMM,18,33,0 42 1454
SPMM,16,34,0 42 1453
SPMM,17,34,0 42 1452
SPMM,18,34,0 42 1451
SPMM,16,35,0 42 1450
SPMM,17,35,0 42 1449
SPMM,18,35,0 42 1448
SPMM,24,3,0 42 1447
SPMM,25,3,0 42 1446
SPMM,26,3,0 42 1445
SPMM,24,2,0 42 1444
SPMM,25,2,0 42 1443
SPMM,26,2,0 42 1442
SPMM,24,1,0 42 1441
SPMM,25,1,0 42 1440
SPMM,26,1,0 42 1439
SPMM,24,0,0 42 1438
SPMM,25,0,0 42 1437
SPMM,26,0,0 42 1436
SPMM,20,32,0 41 1435
SPMM,21,32,0 41 1434
SPMM,22,32,0 41 1433
SPMM,23,32,0 41 1432
SPMM,40,32,0 41 1431
SPMM,41,32,0 41 1430
SPMM,42,32,0 41 1429
SPMM,43,32,0 41 1428
SPMM,20,33,0 41 1427
SPMM,21,33,0 41 1426
SPMM,22,33,0 41 1425
SPMM,23,33,0 41 1424
SPMM,40,33,0 41 1423
SPMM,41,33,0 41 1422
SPMM,42,33,0 41 1421
SPMM,43,33,0 41 1420
SPMM,21,34,0 41 1419
SPMM,22,34,0 41 1418
SPMM,23,34,0 41 1417
SPMM,40,34,0 41 1416
SPMM,41,34,0 41 1415
SPMM,42,34,0 41 1414
SPMM,43,34,0 41 1413
SPMM,21,35,0 41 1412
SPMM,22,35,0 41 1411
SPMM,23,35,0 41 1410
SPMM,40,35,0 41 1409
SPMM,41,35,0 41 1408
SPMM,42,35,0 41 1407
SPMM,43,35,0 41 1406
SPMM,36,32,0 39 1405
SPMM,37,32,0 39 1404
SPMM,38,32,0 39 1403
SPMM,39,32,0 39 1402
SPMM,44,32,0 39 1401
SPMM,45,32,0 39 1400
SPMM,46,32,0 39 1399
SPMM,47,32,0 39 1398
SPMM,36,33,0 39 1397
SPMM,37,33,0 39 1396
SPMM,38,33,0 39 1395
SPMM,39,33,0 39 1394
SPMM,44,33,0 39 1393
SPMM,45,33,0 39 1392
SPMM,46,33,0 39 1391
SPMM,47,33,0 39 1390
SPMM,36,34,0 39 1389
SPMM,37,34,0 39 1388
SPMM,38,34,0 39 1387
SPMM,39,34,0 39 1386
SPMM,44,34,0 39 1385
SPMM,45,34,0 39 1384
SPMM,46,34,0 39 1383
SPMM,47,34,0 39 1382
SPMM,36,35,0 39 1381
SPMM,37,35,0 39 1380
SPMM,38,35,0 39 1379
SPMM,39,35,0 39 1378
SPMM,44,35,0 39 1377
SPMM,45,35,0 39 1376
SPMM,46,35,0 39 1375
SPMM,47,35,0 39 1374
SPMM,24,32,0 40 1373
SPMM,25,32,0 40 1372
SPMM,26,32,0 40 1371
SPMM,27,32,0 40 1370
SPMM,48,32,0 40 1369
SPMM,49,32,0 40 1368
SPMM,50,32,0 40 1367
SPMM,24,33,0 40 1366
SPMM,25,33,0 40 1365
SPMM,26,33,0 40 1364
SPMM,27,33,0 40 1363
SPMM,48,33,0 40 1362
SPMM,49,33,0 40 1361
SPMM,50,33,0 40 1360
SPMM,24,34,0 40 1359
SPMM,26,34,0 40 1358
SPMM,27,34,0 40 1357
SPMM,48,34,0 40 1356
SPMM,49,34,0 40 1355
SPMM,50,34,0 40 1354
SPMM,24,35,0 40 1353
SPMM,26,35,0 40 1352
SPMM,27,35,0 40 1351
SPMM,48,35,0 40 1350
SPMM,49,35,0 40 1349
SPMM,50,35,0 40 1348
DLACPY,27,21 54 1347
SPMM,26,27,0 54 1346
SPMM,27,27,0 54 1345
DLACPY,26,21 54 1344
SPMM,24,26,0 54 1343
SPMM,25,26,0 54 1342
SPMM,26,26,0 54 1341
SPMM,27,26,0 54 1340
DLACPY,25,21 54 1339
SPMM,24,25,0 54 1338
SPMM,25,25,0 54 1337
SPMM,26,25,0 54 1336
DLACPY,24,21 54 1335
SPMM,24,24,0 54 1334
SPMM,25,24,0 54 1333
SPMM,26,24,0 54 1332
SPMM,16,24,0 55 1331
SPMM,17,24,0 55 1330
SPMM,18,24,0 55 1329
SPMM,19,24,0 55 1328
SPMM,20,24,0 55 1327
SPMM,21,24,0 55 1326
SPMM,22,24,0 55 1325
SPMM,23,24,0 55 1324
SPMM,18,25,0 55 1323
SPMM,19,25,0 55 1322
SPMM,20,25,0 55 1321
SPMM,21,25,0 55 1320
SPMM,16,26,0 55 1319
SPMM,17,26,0 55 1318
SPMM,18,26,0 55 1317
SPMM,19,26,0 55 1316
SPMM,20,26,0 55 1315
SPMM,21,26,0 55 1314
SPMM,22,26,0 55 1313
SPMM,23,26,0 55 1312
SPMM,16,27,0 55 1311
SPMM,17,27,0 55 1310
SPMM,21,27,0 55 1309
SPMM,22,27,0 55 1308
SPMM,23,27,0 55 1307
SPMM,32,24,0 59 1306
SPMM,33,24,0 59 1305
SPMM,34,24,0 59 1304
SPMM,35,24,0 59 1303
SPMM,32,25,0 59 1302
SPMM,33,25,0 59 1301
SPMM,32,26,0 59 1300
SPMM,33,26,0 59 1299
SPMM,34,26,0 59 1298
SPMM,35,26,0 59 1297
SPMM,32,27,0 59 1296
SPMM,33,27,0 59 1295
SPMM,34,27,0 59 1294
SPMM,35,27,0 59 1293
SPMM,20,14,0 59 1292
SPMM,21,14,0 59 1291
SPMM,23,14,0 59 1290
SPMM,21,15,0 59 1289
SPMM,22,15,0 59 1288
SPMM,23,15,0 59 1287
SPMM,28,24,0 57 1286
SPMM,29,24,0 57 1285
SPMM,30,24,0 57 1284
SPMM,31,24,0 57 1283
SPMM,36,24,0 57 1282
SPMM,37,24,0 57 1281
SPMM,38,24,0 57 1280
SPMM,39,24,0 57 1279
SPMM,31,25,0 57 1278
SPMM,36,25,0 57 1277
SPMM,28,26,0 57 1276
SPMM,29,26,0 57 1275
SPMM,30,26,0 57 1274
SPMM,31,26,0 57 1273
SPMM,36,26,0 57 1272
SPMM,37,26,0 57 1271
SPMM,38,26,0 57 1270
SPMM,39,26,0 57 1269
SPMM,28,27,0 57 1268
SPMM,29,27,0 57 1267
SPMM,30,27,0 57 1266
SPMM,31,27,0 57 1265
SPMM,36,27,0 57 1264
SPMM,37,27,0 57 1263
SPMM,38,27,0 57 1262
SPMM,39,27,0 57 1261
SPMM,40,24,0 56 1260
SPMM,41,24,0 56 1259
SPMM,42,24,0 56 1258
SPMM,43,24,0 56 1257
SPMM,44,24,0 56 1256
SPMM,45,24,0 56 1255
SPMM,46,24,0 56 1254
SPMM,47,24,0 56 1253
SPMM,40,25,0 56 1252
SPMM,41,25,0 56 1251
SPMM,42,25,0 56 1250
SPMM,43,25,0 56 1249
SPMM,44,25,0 56 1248
SPMM,45,25,0 56 1247
SPMM,47,25,0 56 1246
SPMM,40,26,0 56 1245
SPMM,41,26,0 56 1244
SPMM,42,26,0 56 1243
SPMM,43,26,0 56 1242
SPMM,44,26,0 56 1241
SPMM,45,26,0 56 1240
SPMM,46,26,0 56 1239
SPMM,47,26,0 56 1238
SPMM,40,27,0 56 1237
SPMM,41,27,0 56 1236
SPMM,42,27,0 56 1235
SPMM,43,27,0 56 1234
SPMM,44,27,0 56 1233
SPMM,45,27,0 56 1232
SPMM,46,27,0 56 1231
SPMM,47,27,0 56 1230
SPMM,48,24,0 58 1229
SPMM,49,24,0 58 1228
SPMM,50,24,0 58 1227
SPMM,49,25,0 58 1226
SPMM,50,25,0 58 1225
SPMM,48,26,0 58 1224
SPMM,49,26,0 58 1223
SPMM,50,26,0 58 1222
SPMM,48,27,0 58 1221
SPMM,49,27,0 58 1220
SPMM,50,27,0 58 1219
SPMM,32,15,0 58 1218
SPMM,33,15,0 58 1217
SPMM,34,15,0 58 1216
SPMM,35,15,0 58 1215
DLACPY,19,21 46 1214
SPMM,18,19,0 46 1213
SPMM,19,19,0 46 1212
DLACPY,18,21 46 1211
SPMM,16,18,0 46 1210
SPMM,17,18,0 46 1209
SPMM,18,18,0 46 1208
SPMM,19,18,0 46 1207
DLACPY,17,21 46 1206
SPMM,16,17,0 46 1205
SPMM,17,17,0 46 1204
SPMM,18,17,0 46 1203
DLACPY,16,21 46 1202
SPMM,16,16,0 46 1201
SPMM,17,16,0 46 1200
SPMM,18,16,0 46 1199
SPMM,22,16,0 61 1198
SPMM,23,16,0 61 1197
SPMM,23,17,0 61 1196
SPMM,20,18,0 61 1195
SPMM,21,18,0 61 1194
SPMM,22,18,0 61 1193
SPMM,23,18,0 61 1192
SPMM,20,19,0 61 1191
SPMM,21,19,0 61 1190
SPMM,2,12,0 61 1189
SPMM,3,12,0 61 1188
SPMM,3,13,0 61 1187
SPMM,2,14,0 61 1186
SPMM,3,14,0 61 1185
SPMM,32,16,0 52 1184
SPMM,33,16,0 52 1183
SPMM,34,16,0 52 1182
SPMM,35,16,0 52 1181
SPMM,32,17,0 52 1180
SPMM,33,17,0 52 1179
SPMM,34,17,0 52 1178
SPMM,35,17,0 52 1177
SPMM,32,18,0 52 1176
SPMM,33,18,0 52 1175
SPMM,34,18,0 52 1174
SPMM,35,18,0 52 1173
SPMM,28,15,0 52 1172
SPMM,29,15,0 52 1171
SPMM,30,15,0 52 1170
SPMM,31,15,0 52 1169
SPMM,28,16,0 48 1168
SPMM,29,16,0 48 1167
SPMM,30,16,0 48 1166
SPMM,31,16,0 48 1165
SPMM,40,16,0 48 1164
SPMM,41,16,0 48 1163
SPMM,42,16,0 48 1162
SPMM,43,16,0 48 1161
SPMM,28,17,0 48 1160
SPMM,29,17,0 48 1159
SPMM,30,17,0 48 1158
SPMM,31,17,0 48 1157
SPMM,40,17,0 48 1156
SPMM,41,17,0 48 1155
SPMM,42,17,0 48 1154
SPMM,43,17,0 48 1153
SPMM,28,18,0 48 1152
SPMM,29,18,0 48 1151
SPMM,30,18,0 48 1150
SPMM,31,18,0 48 1149
SPMM,40,18,0 48 1148
SPMM,41,18,0 48 1147
SPMM,42,18,0 48 1146
SPMM,43,18,0 48 1145
SPMM,31,19,0 48 1144
SPMM,41,19,0 48 1143
SPMM,42,19,0 48 1142
SPMM,43,19,0 48 1141
SPMM,15,16,0 65 1140
SPMM,44,16,0 65 1139
SPMM,45,16,0 65 1138
SPMM,46,16,0 65 1137
SPMM,47,16,0 65 1136
SPMM,44,17,0 65 1135
SPMM,45,17,0 65 1134
SPMM,46,17,0 65 1133
SPMM,47,17,0 65 1132
SPMM,14,18,0 65 1131
SPMM,15,18,0 65 1130
SPMM,44,18,0 65 1129
SPMM,45,18,0 65 1128
SPMM,46,18,0 65 1127
SPMM,47,18,0 65 1126
SPMM,14,19,0 65 1125
SPMM,44,19,0 65 1124
SPMM,45,19,0 65 1123
SPMM,46,19,0 65 1122
SPMM,47,19,0 65 1121
SPMM,24,16,0 47 1120
SPMM,26,16,0 47 1119
SPMM,27,16,0 47 1118
SPMM,48,16,0 47 1117
SPMM,49,16,0 47 1116
SPMM,50,16,0 47 1115
SPMM,24,17,0 47 1114
SPMM,26,17,0 47 1113
SPMM,27,17,0 47 1112
SPMM,48,17,0 47 1111
SPMM,49,17,0 47 1110
SPMM,50,17,0 47 1109
SPMM,24,18,0 47 1108
SPMM,25,18,0 47 1107
SPMM,26,18,0 47 1106
SPMM,48,18,0 47 1105
SPMM,49,18,0 47 1104
SPMM,50,18,0 47 1103
SPMM,24,19,0 47 1102
SPMM,25,19,0 47 1101
SPMM,26,19,0 47 1100
SPMM,50,19,0 47 1099
DLACPY,11,21 8 1098
SPMM,4,11,0 8 1097
SPMM,5,11,0 8 1096
SPMM,6,11,0 8 1095
SPMM,7,11,0 8 1094
SPMM,8,11,0 8 1093
SPMM,9,11,0 8 1092
SPMM,10,11,0 8 1091
SPMM,11,11,0 8 1090
DLACPY,10,21 8 1089
SPMM,4,10,0 8 1088
SPMM,5,10,0 8 1087
SPMM,6,10,0 8 1086
SPMM,7,10,0 8 1085
SPMM,8,10,0 8 1084
SPMM,9,10,0 8 1083
SPMM,10,10,0 8 1082
SPMM,11,10,0 8 1081
DLACPY,9,21 8 1080
SPMM,4,9,0 8 1079
SPMM,5,9,0 8 1078
SPMM,6,9,0 8 1077
SPMM,7,9,0 8 1076
SPMM,8,9,0 8 1075
SPMM,9,9,0 8 1074
SPMM,10,9,0 8 1073
SPMM,11,9,0 8 1072
DLACPY,8,21 8 1071
SPMM,4,8,0 8 1070
SPMM,5,8,0 8 1069
SPMM,6,8,0 8 1068
SPMM,7,8,0 8 1067
SPMM,8,8,0 8 1066
SPMM,9,8,0 8 1065
SPMM,10,8,0 8 1064
SPMM,11,8,0 8 1063
SPMM,2,8,0 9 1062
SPMM,3,8,0 9 1061
SPMM,12,8,0 9 1060
SPMM,13,8,0 9 1059
SPMM,14,8,0 9 1058
SPMM,2,9,0 9 1057
SPMM,3,9,0 9 1056
SPMM,12,9,0 9 1055
SPMM,13,9,0 9 1054
SPMM,14,9,0 9 1053
SPMM,2,10,0 9 1052
SPMM,3,10,0 9 1051
SPMM,12,10,0 9 1050
SPMM,13,10,0 9 1049
SPMM,14,10,0 9 1048
SPMM,1,11,0 9 1047
SPMM,2,11,0 9 1046
SPMM,3,11,0 9 1045
SPMM,12,11,0 9 1044
SPMM,13,11,0 9 1043
SPMM,14,11,0 9 1042
XY,4,20 6 1041
XY,5,20 6 1040
XY,6,20 6 1039
XY,7,20 6 1038
XY,28,20 6 1037
XY,29,20 6 1036
XY,30,20 6 1035
XY,31,20 6 1034
XY,36,20 6 1033
XY,37,20 6 1032
XY,38,20 6 1031
XY,39,20 6 1030
XY,44,20 6 1029
XY,45,20 6 1028
XY,46,20 6 1027
XY,47,20 6 1026
DLACPY,47,21 22 1025
SPMM,36,47,0 22 1024
SPMM,37,47,0 22 1023
SPMM,38,47,0 22 1022
SPMM,39,47,0 22 1021
SPMM,44,47,0 22 1020
SPMM,45,47,0 22 1019
SPMM,46,47,0 22 1018
SPMM,47,47,0 22 1017
DLACPY,46,21 22 1016
SPMM,36,46,0 22 1015
SPMM,37,46,0 22 1014
SPMM,38,46,0 22 1013
SPMM,39,46,0 22 1012
SPMM,44,46,0 22 1011
SPMM,45,46,0 22 1010
SPMM,46,46,0 22 1009
SPMM,47,46,0 22 1008
DLACPY,45,21 22 1007
SPMM,36,45,0 22 1006
SPMM,37,45,0 22 1005
SPMM,38,45,0 22 1004
SPMM,39,45,0 22 1003
SPMM,44,45,0 22 1002
SPMM,45,45,0 22 1001
SPMM,46,45,0 22 1000
SPMM,47,45,0 22 999
DLACPY,44,21 22 998
SPMM,36,44,0 22 997
SPMM,37,44,0 22 996
SPMM,38,44,0 22 995
SPMM,39,44,0 22 994
SPMM,44,44,0 22 993
SPMM,45,44,0 22 992
SPMM,46,44,0 22 991
SPMM,47,44,0 22 990
SPMM,20,44,0 24 989
SPMM,21,44,0 24 988
SPMM,22,44,0 24 987
SPMM,23,44,0 24 986
SPMM,28,44,0 24 985
SPMM,29,44,0 24 984
SPMM,30,44,0 24 983
SPMM,31,44,0 24 982
SPMM,20,45,0 24 981
SPMM,21,45,0 24 980
SPMM,22,45,0 24 979
SPMM,23,45,0 24 978
SPMM,28,45,0 24 977
SPMM,29,45,0 24 976
SPMM,30,45,0 24 975
SPMM,31,45,0 24 974
SPMM,21,46,0 24 973
SPMM,22,46,0 24 972
SPMM,23,46,0 24 971
SPMM,28,46,0 24 970
SPMM,29,46,0 24 969
SPMM,30,46,0 24 968
SPMM,31,46,0 24 967
SPMM,20,47,0 24 966
SPMM,21,47,0 24 965
SPMM,22,47,0 24 964
SPMM,23,47,0 24 963
SPMM,28,47,0 24 962
SPMM,29,47,0 24 961
SPMM,30,47,0 24 960
SPMM,31,47,0 24 959
SPMM,32,44,0 23 958
SPMM,33,44,0 23 957
SPMM,34,44,0 23 956
SPMM,35,44,0 23 955
SPMM,40,44,0 23 954
SPMM,41,44,0 23 953
SPMM,42,44,0 23 952
SPMM,43,44,0 23 951
SPMM,32,45,0 23 950
SPMM,33,45,0 23 949
SPMM,34,45,0 23 948
SPMM,35,45,0 23 947
SPMM,40,45,0 23 946
SPMM,41,45,0 23 945
SPMM,42,45,0 23 944
SPMM,43,45,0 23 943
SPMM,32,46,0 23 942
SPMM,33,46,0 23 941
SPMM,34,46,0 23 940
SPMM,35,46,0 23 939
SPMM,40,46,0 23 938
SPMM,41,46,0 23 937
SPMM,42,46,0 23 936
SPMM,43,46,0 23 935
SPMM,32,47,0 23 934
SPMM,33,47,0 23 933
SPMM,34,47,0 23 932
SPMM,35,47,0 23 931
SPMM,40,47,0 23 930
SPMM,41,47,0 23 929
SPMM,42,47,0 23 928
SPMM,43,47,0 23 927
SPMM,24,44,0 25 926
SPMM,25,44,0 25 925
SPMM,26,44,0 25 924
SPMM,27,44,0 25 923
SPMM,48,44,0 25 922
SPMM,49,44,0 25 921
SPMM,50,44,0 25 920
SPMM,24,45,0 25 919
SPMM,25,45,0 25 918
SPMM,26,45,0 25 917
SPMM,27,45,0 25 916
SPMM,48,45,0 25 915
SPMM,49,45,0 25 914
SPMM,50,45,0 25 913
SPMM,24,46,0 25 912
SPMM,26,46,0 25 911
SPMM,27,46,0 25 910
SPMM,48,46,0 25 909
SPMM,49,46,0 25 908
SPMM,50,46,0 25 907
SPMM,24,47,0 25 906
SPMM,25,47,0 25 905
SPMM,26,47,0 25 904
SPMM,27,47,0 25 903
SPMM,48,47,0 25 902
SPMM,49,47,0 25 901
SPMM,50,47,0 25 900
DLACPY,39,21 18 899
SPMM,36,39,0 18 898
SPMM,37,39,0 18 897
SPMM,38,39,0 18 896
SPMM,39,39,0 18 895
DLACPY,38,21 18 894
SPMM,36,38,0 18 893
SPMM,37,38,0 18 892
SPMM,38,38,0 18 891
SPMM,39,38,0 18 890
DLACPY,37,21 18 889
SPMM,36,37,0 18 888
SPMM,37,37,0 18 887
SPMM,38,37,0 18 886
SPMM,39,37,0 18 885
DLACPY,36,21 18 884
SPMM,36,36,0 18 883
SPMM,37,36,0 18 882
SPMM,38,36,0 18 881
SPMM,39,36,0 18 880
SPMM,15,36,0 34 879
SPMM,15,37,0 34 878
SPMM,15,38,0 34 877
SPMM,15,39,0 34 876
SPMM,16,44,0 34 875
SPMM,17,44,0 34 874
SPMM,18,44,0 34 873
SPMM,19,44,0 34 872
SPMM,16,45,0 34 871
SPMM,17,45,0 34 870
SPMM,18,45,0 34 869
SPMM,19,45,0 34 868
SPMM,16,46,0 34 867
SPMM,17,46,0 34 866
SPMM,18,46,0 34 865
SPMM,19,46,0 34 864
SPMM,16,47,0 34 863
SPMM,17,47,0 34 862
SPMM,18,47,0 34 861
SPMM,19,47,0 34 860
SPMM,16,36,0 21 859
SPMM,17,36,0 21 858
SPMM,18,36,0 21 857
SPMM,16,37,0 21 856
SPMM,17,37,0 21 855
SPMM,18,37,0 21 854
SPMM,16,38,0 21 853
SPMM,17,38,0 21 852
SPMM,18,38,0 21 851
SPMM,19,38,0 21 850
SPMM,16,39,0 21 849
SPMM,17,39,0 21 848
SPMM,18,39,0 21 847
SPMM,19,39,0 21 846
SPMM,15,40,0 21 845
SPMM,15,41,0 21 844
SPMM,15,42,0 21 843
SPMM,15,43,0 21 842
SPMM,20,36,0 28 841
SPMM,21,36,0 28 840
SPMM,22,36,0 28 839
SPMM,23,36,0 28 838
SPMM,21,37,0 28 837
SPMM,22,37,0 28 836
SPMM,23,37,0 28 835
SPMM,21,38,0 28 834
SPMM,22,38,0 28 833
SPMM,23,38,0 28 832
SPMM,21,39,0 28 831
SPMM,22,39,0 28 830
SPMM,23,39,0 28 829
SPMM,15,44,0 28 828
SPMM,15,45,0 28 827
SPMM,15,46,0 28 826
SPMM,15,47,0 28 825
SPMM,32,36,0 19 824
SPMM,33,36,0 19 823
SPMM,34,36,0 19 822
SPMM,35,36,0 19 821
SPMM,40,36,0 19 820
SPMM,41,36,0 19 819
SPMM,42,36,0 19 818
SPMM,43,36,0 19 817
SPMM,32,37,0 19 816
SPMM,33,37,0 19 815
SPMM,34,37,0 19 814
SPMM,35,37,0 19 813
SPMM,40,37,0 19 812
SPMM,41,37,0 19 811
SPMM,42,37,0 19 810
SPMM,43,37,0 19 809
SPMM,32,38,0 19 808
SPMM,33,38,0 19 807
SPMM,34,38,0 19 806
SPMM,35,38,0 19 805
SPMM,40,38,0 19 804
SPMM,41,38,0 19 803
SPMM,42,38,0 19 802
SPMM,43,38,0 19 801
SPMM,32,39,0 19 800
SPMM,33,39,0 19 799
SPMM,34,39,0 19 798
SPMM,35,39,0 19 797
SPMM,40,39,0 19 796
SPMM,41,39,0 19 795
SPMM,42,39,0 19 794
SPMM,43,39,0 19 793
SPMM,28,36,0 20 792
SPMM,29,36,0 20 791
SPMM,30,36,0 20 790
SPMM,31,36,0 20 789
SPMM,44,36,0 20 788
SPMM,45,36,0 20 787
SPMM,46,36,0 20 786
SPMM,47,36,0 20 785
SPMM,28,37,0 20 784
SPMM,29,37,0 20 783
SPMM,30,37,0 20 782
SPMM,31,37,0 20 781
SPMM,44,37,0 20 780
SPMM,45,37,0 20 779
SPMM,46,37,0 20 778
SPMM,47,37,0 20 777
SPMM,28,38,0 20 776
SPMM,29,38,0 20 775
SPMM,30,38,0 20 774
SPMM,31,38,0 20 773
SPMM,44,38,0 20 772
SPMM,45,38,0 20 771
SPMM,46,38,0 20 770
SPMM,47,38,0 20 769
SPMM,28,39,0 20 768
SPMM,29,39,0 20 767
SPMM,30,39,0 20 766
SPMM,31,39,0 20 765
SPMM,44,39,0 20 764
SPMM,45,39,0 20 763
SPMM,46,39,0 20 762
SPMM,47,39,0 20 761
SPMM,48,36,0 37 760
SPMM,49,36,0 37 759
SPMM,50,36,0 37 758
SPMM,48,37,0 37 757
SPMM,49,37,0 37 756
SPMM,50,37,0 37 755
SPMM,48,38,0 37 754
SPMM,49,38,0 37 753
SPMM,50,38,0 37 752
SPMM,48,39,0 37 751
SPMM,49,39,0 37 750
SPMM,50,39,0 37 749
SPMM,24,48,0 37 748
SPMM,26,48,0 37 747
SPMM,27,48,0 37 746
SPMM,24,49,0 37 745
SPMM,25,49,0 37 744
SPMM,26,49,0 37 743
SPMM,27,49,0 37 742
SPMM,24,50,0 37 741
SPMM,25,50,0 37 740
SPMM,26,50,0 37 739
SPMM,27,50,0 37 738
DLACPY,31,21 50 737
SPMM,28,31,0 50 736
SPMM,29,31,0 50 735
SPMM,30,31,0 50 734
SPMM,31,31,0 50 733
SPMM,36,31,0 50 732
SPMM,37,31,0 50 731
SPMM,38,31,0 50 730
SPMM,39,31,0 50 729
DLACPY,30,21 50 728
SPMM,28,30,0 50 727
SPMM,29,30,0 50 726
SPMM,30,30,0 50 725
SPMM,31,30,0 50 724
SPMM,36,30,0 50 723
SPMM,37,30,0 50 722
SPMM,38,30,0 50 721
SPMM,39,30,0 50 720
DLACPY,29,21 50 719
SPMM,28,29,0 50 718
SPMM,29,29,0 50 717
SPMM,30,29,0 50 716
SPMM,31,29,0 50 715
SPMM,36,29,0 50 714
SPMM,37,29,0 50 713
SPMM,38,29,0 50 712
SPMM,39,29,0 50 711
DLACPY,28,21 50 710
SPMM,28,28,0 50 709
SPMM,29,28,0 50 708
SPMM,30,28,0 50 707
SPMM,31,28,0 50 706
SPMM,36,28,0 50 705
SPMM,37,28,0 50 704
SPMM,38,28,0 50 703
SPMM,39,28,0 50 702
SPMM,15,28,0 53 701
SPMM,15,29,0 53 700
SPMM,15,30,0 53 699
SPMM,15,31,0 53 698
SPMM,36,16,0 53 697
SPMM,37,16,0 53 696
SPMM,38,16,0 53 695
SPMM,39,16,0 53 694
SPMM,36,17,0 53 693
SPMM,37,17,0 53 692
SPMM,38,17,0 53 691
SPMM,39,17,0 53 690
SPMM,36,18,0 53 689
SPMM,37,18,0 53 688
SPMM,38,18,0 53 687
SPMM,39,18,0 53 686
SPMM,38,19,0 53 685
SPMM,39,19,0 53 684
SPMM,21,28,0 51 683
SPMM,22,28,0 51 682
SPMM,23,28,0 51 681
SPMM,24,28,0 51 680
SPMM,26,28,0 51 679
SPMM,27,28,0 51 678
SPMM,21,29,0 51 677
SPMM,22,29,0 51 676
SPMM,23,29,0 51 675
SPMM,24,29,0 51 674
SPMM,26,29,0 51 673
SPMM,27,29,0 51 672
SPMM,21,30,0 51 671
SPMM,22,30,0 51 670
SPMM,23,30,0 51 669
SPMM,24,30,0 51 668
SPMM,26,30,0 51 667
SPMM,27,30,0 51 666
SPMM,20,31,0 51 665
SPMM,21,31,0 51 664
SPMM,22,31,0 51 663
SPMM,23,31,0 51 662
SPMM,24,31,0 51 661
SPMM,25,31,0 51 660
SPMM,26,31,0 51 659
SPMM,27,31,0 51 658
SPMM,40,28,0 60 657
SPMM,41,28,0 60 656
SPMM,42,28,0 60 655
SPMM,43,28,0 60 654
SPMM,44,28,0 60 653
SPMM,45,28,0 60 652
SPMM,46,28,0 60 651
SPMM,47,28,0 60 650
SPMM,40,29,0 60 649
SPMM,41,29,0 60 648
SPMM,42,29,0 60 647
SPMM,43,29,0 60 646
SPMM,44,29,0 60 645
SPMM,45,29,0 60 644
SPMM,46,29,0 60 643
SPMM,47,29,0 60 642
SPMM,40,30,0 60 641
SPMM,41,30,0 60 640
SPMM,42,30,0 60 639
SPMM,43,30,0 60 638
SPMM,44,30,0 60 637
SPMM,45,30,0 60 636
SPMM,46,30,0 60 635
SPMM,47,30,0 60 634
SPMM,40,31,0 60 633
SPMM,41,31,0 60 632
SPMM,42,31,0 60 631
SPMM,43,31,0 60 630
SPMM,44,31,0 60 629
SPMM,45,31,0 60 628
SPMM,46,31,0 60 627
SPMM,47,31,0 60 626
SPMM,48,28,0 66 625
SPMM,49,28,0 66 624
SPMM,50,28,0 66 623
SPMM,48,29,0 66 622
SPMM,49,29,0 66 621
SPMM,50,29,0 66 620
SPMM,48,30,0 66 619
SPMM,49,30,0 66 618
SPMM,50,30,0 66 617
SPMM,48,31,0 66 616
SPMM,49,31,0 66 615
SPMM,50,31,0 66 614
SPMM,44,15,0 66 613
SPMM,45,15,0 66 612
SPMM,46,15,0 66 611
SPMM,47,15,0 66 610
DLACPY,7,21 26 609
SPMM,4,7,0 26 608
SPMM,5,7,0 26 607
SPMM,6,7,0 26 606
SPMM,7,7,0 26 605
DLACPY,6,21 26 604
SPMM,4,6,0 26 603
SPMM,5,6,0 26 602
SPMM,6,6,0 26 601
SPMM,7,6,0 26 600
DLACPY,5,21 26 599
SPMM,4,5,0 26 598
SPMM,5,5,0 26 597
SPMM,6,5,0 26 596
SPMM,7,5,0 26 595
DLACPY,4,21 26 594
SPMM,4,4,0 26 593
SPMM,5,4,0 26 592
SPMM,6,4,0 26 591
SPMM,7,4,0 26 590
SPMM,3,4,0 29 589
SPMM,3,7,0 29 588
SPMM,24,36,0 29 587
SPMM,25,36,0 29 586
SPMM,26,36,0 29 585
SPMM,27,36,0 29 584
SPMM,24,37,0 29 583
SPMM,26,37,0 29 582
SPMM,27,37,0 29 581
SPMM,24,38,0 29 580
SPMM,26,38,0 29 579
SPMM,27,38,0 29 578
SPMM,24,39,0 29 577
SPMM,26,39,0 29 576
SPMM,27,39,0 29 575
SPMM,8,4,0 27 574
SPMM,9,4,0 27 573
SPMM,10,4,0 27 572
SPMM,11,4,0 27 571
SPMM,12,4,0 27 570
SPMM,13,4,0 27 569
SPMM,14,4,0 27 568
SPMM,8,5,0 27 567
SPMM,9,5,0 27 566
SPMM,10,5,0 27 565
SPMM,11,5,0 27 564
SPMM,12,5,0 27 563
SPMM,13,5,0 27 562
SPMM,14,5,0 27 561
SPMM,8,6,0 27 560
SPMM,9,6,0 27 559
SPMM,10,6,0 27 558
SPMM,11,6,0 27 557
SPMM,12,6,0 27 556
SPMM,13,6,0 27 555
SPMM,14,6,0 27 554
SPMM,8,7,0 27 553
SPMM,9,7,0 27 552
SPMM,10,7,0 27 551
SPMM,11,7,0 27 550
SPMM,12,7,0 27 549
SPMM,13,7,0 27 548
SPMM,14,7,0 27 547
SPMM,18,4,0 35 546
SPMM,19,4,0 35 545
SPMM,18,5,0 35 544
SPMM,19,5,0 35 543
SPMM,15,48,0 35 542
SPMM,15,49,0 35 541
SPMM,15,50,0 35 540
SPMM,20,4,0 36 539
SPMM,21,4,0 36 538
SPMM,20,5,0 36 537
SPMM,21,5,0 36 536
SPMM,21,48,0 36 535
SPMM,22,48,0 36 534
SPMM,23,48,0 36 533
SPMM,20,49,0 36 532
SPMM,21,49,0 36 531
SPMM,22,49,0 36 530
SPMM,23,49,0 36 529
SPMM,21,50,0 36 528
SPMM,22,50,0 36 527
SPMM,23,50,0 36 526
DLACPY,23,21 62 525
SPMM,21,23,0 62 524
SPMM,22,23,0 62 523
SPMM,23,23,0 62 522
DLACPY,22,21 62 521
SPMM,21,22,0 62 520
SPMM,22,22,0 62 519
SPMM,23,22,0 62 518
DLACPY,21,21 62 517
SPMM,20,21,0 62 516
SPMM,21,21,0 62 515
SPMM,22,21,0 62 514
XTY,22,2,21 62 513
SPMM,23,21,0 62 512
XTY,23,3,21 62 511
DLACPY,20,21 62 510
SPMM,20,20,0 62 509
XTY,20,0,21 62 508
SPMM,21,20,0 62 507
XTY,21,1,21 62 506
SPMM,0,20,0 74 505
SPMM,1,20,0 74 504
SPMM,2,20,0 74 503
SPMM,3,20,0 74 502
SPMM,4,20,0 74 501
SPMM,5,20,0 74 500
SPMM,1,21,0 74 499
SPMM,2,21,0 74 498
SPMM,3,21,0 74 497
SPMM,4,21,0 74 496
SPMM,5,21,0 74 495
SPMM,4,18,0 74 494
SPMM,5,18,0 74 493
SPMM,4,19,0 74 492
SPMM,5,19,0 74 491
SPMM,4,24,0 74 490
SPMM,5,24,0 74 489
SPMM,4,25,0 74 488
SPMM,5,25,0 74 487
SPMM,4,26,0 74 486
SPMM,5,26,0 74 485
SPMM,4,12,0 75 484
SPMM,5,12,0 75 483
SPMM,6,12,0 75 482
SPMM,7,12,0 75 481
SPMM,8,12,0 75 480
SPMM,9,12,0 75 479
SPMM,10,12,0 75 478
SPMM,11,12,0 75 477
SPMM,4,13,0 75 476
SPMM,5,13,0 75 475
SPMM,6,13,0 75 474
SPMM,7,13,0 75 473
SPMM,8,13,0 75 472
SPMM,9,13,0 75 471
SPMM,10,13,0 75 470
SPMM,11,13,0 75 469
SPMM,4,14,0 75 468
XTY,4,4,21 75 467
SPMM,5,14,0 75 466
XTY,5,5,21 75 465
SPMM,6,14,0 75 464
XTY,6,6,21 75 463
SPMM,7,14,0 75 462
XTY,7,7,21 75 461
SPMM,8,14,0 75 460
XTY,8,8,21 75 459
SPMM,9,14,0 75 458
XTY,9,9,21 75 457
SPMM,10,14,0 75 456
XTY,10,10,21 75 455
SPMM,11,14,0 75 454
XTY,11,11,21 75 453
SPMM,18,20,0 63 452
SPMM,19,20,0 63 451
SPMM,32,20,0 63 450
SPMM,33,20,0 63 449
SPMM,18,21,0 63 448
SPMM,19,21,0 63 447
SPMM,32,21,0 63 446
SPMM,33,21,0 63 445
SPMM,34,21,0 63 444
SPMM,35,21,0 63 443
SPMM,16,22,0 63 442
SPMM,18,22,0 63 441
SPMM,32,22,0 63 440
SPMM,33,22,0 63 439
SPMM,34,22,0 63 438
SPMM,35,22,0 63 437
SPMM,16,23,0 63 436
SPMM,17,23,0 63 435
SPMM,18,23,0 63 434
SPMM,32,23,0 63 433
SPMM,33,23,0 63 432
SPMM,34,23,0 63 431
SPMM,35,23,0 63 430
SPMM,36,20,0 64 429
SPMM,36,21,0 64 428
SPMM,37,21,0 64 427
SPMM,38,21,0 64 426
SPMM,39,21,0 64 425
SPMM,36,22,0 64 424
SPMM,37,22,0 64 423
SPMM,38,22,0 64 422
SPMM,39,22,0 64 421
SPMM,36,23,0 64 420
SPMM,37,23,0 64 419
SPMM,38,23,0 64 418
SPMM,39,23,0 64 417
SPMM,14,24,0 64 416
SPMM,15,24,0 64 415
SPMM,14,25,0 64 414
SPMM,14,26,0 64 413
SPMM,15,26,0 64 412
SPMM,15,27,0 64 411
SPMM,36,15,0 67 410
XTY,36,16,21 67 409
SPMM,37,15,0 67 408
XTY,37,17,21 67 407
SPMM,38,15,0 67 406
XTY,38,18,21 67 405
SPMM,39,15,0 67 404
XTY,39,19,21 67 403
SPMM,14,20,0 69 402
SPMM,31,20,0 69 401
SPMM,14,21,0 69 400
SPMM,15,21,0 69 399
SPMM,28,21,0 69 398
SPMM,29,21,0 69 397
SPMM,30,21,0 69 396
SPMM,31,21,0 69 395
SPMM,15,22,0 69 394
SPMM,28,22,0 69 393
SPMM,29,22,0 69 392
SPMM,30,22,0 69 391
SPMM,31,22,0 69 390
SPMM,14,23,0 69 389
XTY,14,14,21 69 388
SPMM,15,23,0 69 387
XTY,15,15,21 69 386
SPMM,28,23,0 69 385
XTY,28,8,21 69 384
SPMM,29,23,0 69 383
XTY,29,9,21 69 382
SPMM,30,23,0 69 381
XTY,30,10,21 69 380
SPMM,31,23,0 69 379
XTY,31,11,21 69 378
XTY,13,13,21 69 377
XTY,12,12,21 69 376
SPMM,49,20,0 71 375
SPMM,48,21,0 71 374
SPMM,49,21,0 71 373
SPMM,50,21,0 71 372
SPMM,48,22,0 71 371
SPMM,49,22,0 71 370
SPMM,50,22,0 71 369
SPMM,48,23,0 71 368
SPMM,49,23,0 71 367
SPMM,50,23,0 71 366
SPMM,18,14,0 71 365
SPMM,19,14,0 71 364
SPMM,16,15,0 71 363
SPMM,18,15,0 71 362
SPMM,44,20,0 73 361
SPMM,45,20,0 73 360
SPMM,47,20,0 73 359
SPMM,44,21,0 73 358
SPMM,45,21,0 73 357
SPMM,46,21,0 73 356
SPMM,47,21,0 73 355
SPMM,44,22,0 73 354
SPMM,45,22,0 73 353
SPMM,46,22,0 73 352
SPMM,47,22,0 73 351
SPMM,44,23,0 73 350
XTY,44,4,21 73 349
SPMM,45,23,0 73 348
XTY,45,5,21 73 347
SPMM,46,23,0 73 346
XTY,46,6,21 73 345
SPMM,47,23,0 73 344
XTY,47,7,21 73 343
SPMM,16,28,0 73 342
SPMM,17,28,0 73 341
SPMM,18,28,0 73 340
SPMM,16,29,0 73 339
SPMM,17,29,0 73 338
SPMM,18,29,0 73 337
SPMM,16,30,0 73 336
SPMM,17,30,0 73 335
SPMM,18,30,0 73 334
SPMM,16,31,0 73 333
XTY,16,16,21 73 332
SPMM,17,31,0 73 331
XTY,17,17,21 73 330
SPMM,18,31,0 73 329
XTY,18,18,21 73 328
SPMM,19,31,0 73 327
XTY,19,19,21 73 326
SPMM,24,4,0 45 325
SPMM,25,4,0 45 324
SPMM,26,4,0 45 323
SPMM,24,5,0 45 322
SPMM,25,5,0 45 321
SPMM,26,5,0 45 320
SPMM,32,40,0 45 319
SPMM,33,40,0 45 318
SPMM,34,40,0 45 317
SPMM,35,40,0 45 316
SPMM,32,41,0 45 315
SPMM,33,41,0 45 314
SPMM,34,41,0 45 313
SPMM,35,41,0 45 312
SPMM,32,42,0 45 311
SPMM,33,42,0 45 310
SPMM,34,42,0 45 309
SPMM,35,42,0 45 308
SPMM,32,43,0 45 307
SPMM,33,43,0 45 306
SPMM,34,43,0 45 305
SPMM,35,43,0 45 304
SPMM,32,28,0 70 303
SPMM,33,28,0 70 302
SPMM,34,28,0 70 301
SPMM,35,28,0 70 300
SPMM,32,29,0 70 299
SPMM,33,29,0 70 298
SPMM,34,29,0 70 297
SPMM,35,29,0 70 296
SPMM,32,30,0 70 295
SPMM,33,30,0 70 294
SPMM,34,30,0 70 293
SPMM,35,30,0 70 292
SPMM,32,31,0 70 291
XTY,32,12,21 70 290
SPMM,33,31,0 70 289
XTY,33,13,21 70 288
SPMM,34,31,0 70 287
XTY,34,14,21 70 286
SPMM,35,31,0 70 285
XTY,35,15,21 70 284
SPMM,24,20,0 68 283
SPMM,25,20,0 68 282
SPMM,26,20,0 68 281
SPMM,40,20,0 68 280
SPMM,41,20,0 68 279
SPMM,42,20,0 68 278
SPMM,24,21,0 68 277
SPMM,25,21,0 68 276
SPMM,26,21,0 68 275
SPMM,27,21,0 68 274
SPMM,40,21,0 68 273
SPMM,41,21,0 68 272
SPMM,42,21,0 68 271
SPMM,43,21,0 68 270
SPMM,24,22,0 68 269
SPMM,26,22,0 68 268
SPMM,27,22,0 68 267
SPMM,40,22,0 68 266
SPMM,41,22,0 68 265
SPMM,42,22,0 68 264
SPMM,43,22,0 68 263
SPMM,24,23,0 68 262
SPMM,26,23,0 68 261
SPMM,27,23,0 68 260
SPMM,40,23,0 68 259
SPMM,41,23,0 68 258
SPMM,42,23,0 68 257
SPMM,43,23,0 68 256
SPMM,24,14,0 68 255
SPMM,25,14,0 68 254
XTY,25,5,21 68 253
SPMM,26,14,0 68 252
SPMM,24,15,0 68 251
XTY,24,4,21 68 250
SPMM,26,15,0 68 249
XTY,26,6,21 68 248
SPMM,27,15,0 68 247
XTY,27,7,21 68 246
SPMM,40,15,0 72 245
XTY,40,0,21 72 244
SPMM,41,15,0 72 243
XTY,41,1,21 72 242
SPMM,42,15,0 72 241
XTY,42,2,21 72 240
SPMM,43,15,0 72 239
XTY,43,3,21 72 238
SPMM,48,15,0 72 237
XTY,48,8,21 72 236
SPMM,49,15,0 72 235
XTY,49,9,21 72 234
SPMM,50,15,0 72 233
XTY,50,10,21 72 232
SPMM,0,18,0 76 231
SPMM,1,18,0 76 230
SPMM,2,18,0 76 229
SPMM,3,18,0 76 228
SPMM,0,19,0 76 227
SPMM,1,19,0 76 226
SPMM,2,19,0 76 225
SPMM,3,19,0 76 224
SPMM,0,24,0 76 223
SPMM,1,24,0 76 222
SPMM,2,24,0 76 221
SPMM,3,24,0 76 220
SPMM,0,25,0 76 219
SPMM,1,25,0 76 218
SPMM,2,25,0 76 217
SPMM,3,25,0 76 216
SPMM,0,26,0 76 215
XTY,0,0,21 76 214
SPMM,1,26,0 76 213
XTY,1,1,21 76 212
SPMM,2,26,0 76 211
XTY,2,2,21 76 210
SPMM,3,26,0 76 209
XTY,3,3,21 76 208
RED,XAXBUF,0 76 207
SPEUPDATE,XAX 76 206
EIGEN 76 205
XY,0,22 76 204
XY,1,22 76 203
XY,2,22 76 202
XY,3,22 76 201
XY,4,22 76 200
XY,5,22 76 199
XY,6,22 76 198
XY,7,22 76 197
XY,8,21 83 196
DLACPY,8,22 83 195
XY,9,21 83 194
DLACPY,9,22 83 193
XY,10,21 83 192
DLACPY,10,22 83 191
XY,11,21 83 190
DLACPY,11,22 83 189
XY,20,21 83 188
DLACPY,20,22 83 187
XY,21,21 83 186
DLACPY,21,22 83 185
XY,22,21 83 184
DLACPY,22,22 83 183
XY,23,21 83 182
DLACPY,23,22 83 181
XY,24,21 83 180
DLACPY,24,22 83 179
XY,25,21 83 178
DLACPY,25,22 83 177
XY,26,21 83 176
DLACPY,26,22 83 175
XY,27,21 83 174
DLACPY,27,22 83 173
XY,28,21 83 172
DLACPY,28,22 83 171
XY,29,21 83 170
DLACPY,29,22 83 169
XY,30,21 83 168
DLACPY,30,22 83 167
XY,31,21 83 166
DLACPY,31,22 83 165
DLACPY,3,23 78 164
DLACPY,2,23 78 163
DLACPY,1,23 78 162
DLACPY,0,23 78 161
XY,8,22 78 160
DLACPY,8,23 78 159
XY,9,22 78 158
DLACPY,9,23 78 157
XY,10,22 78 156
DLACPY,10,23 78 155
XY,11,22 78 154
DLACPY,11,23 78 153
XY,12,22 78 152
XY,13,22 78 151
XY,14,22 78 150
XY,15,22 78 149
DLACPY,15,23 79 148
DLACPY,14,23 79 147
DLACPY,13,23 79 146
DLACPY,12,23 79 145
DLACPY,7,23 79 144
DLACPY,6,23 79 143
DLACPY,5,23 79 142
DLACPY,4,23 79 141
XY,12,21 79 140
DLACPY,12,22 79 139
XY,13,21 79 138
DLACPY,13,22 79 137
XY,14,21 79 136
DLACPY,14,22 79 135
XY,15,21 79 134
DLACPY,15,22 79 133
XY,28,22 79 132
DLACPY,28,23 79 131
XY,29,22 79 130
DLACPY,29,23 79 129
XY,30,22 79 128
DLACPY,30,23 79 127
XY,31,22 79 126
DLACPY,31,23 79 125
XY,32,22 79 124
DLACPY,32,23 79 123
XY,33,22 79 122
DLACPY,33,23 79 121
XY,34,22 79 120
DLACPY,34,23 79 119
XY,35,22 79 118
DLACPY,35,23 79 117
XY,16,22 77 116
DLACPY,16,23 77 115
XY,17,22 77 114
DLACPY,17,23 77 113
XY,18,22 77 112
DLACPY,18,23 77 111
XY,19,22 77 110
DLACPY,19,23 77 109
XY,36,22 77 108
XY,37,22 77 107
XY,38,22 77 106
XY,39,22 77 105
XY,44,22 77 104
DLACPY,44,23 77 103
XY,45,22 77 102
DLACPY,45,23 77 101
XY,46,22 77 100
DLACPY,46,23 77 99
XY,47,22 77 98
DLACPY,47,23 77 97
DLACPY,39,23 80 96
DLACPY,38,23 80 95
DLACPY,37,23 80 94
DLACPY,36,23 80 93
XY,16,21 80 92
DLACPY,16,22 80 91
XY,17,21 80 90
DLACPY,17,22 80 89
XY,18,21 80 88
DLACPY,18,22 80 87
XY,19,21 80 86
DLACPY,19,22 80 85
XY,40,21 80 84
XY,41,21 80 83
XY,42,21 80 82
XY,43,21 80 81
XY,44,21 80 80
DLACPY,44,22 80 79
XY,45,21 80 78
DLACPY,45,22 80 77
XY,46,21 80 76
DLACPY,46,22 80 75
XY,47,21 80 74
DLACPY,47,22 80 73
XY,48,21 80 72
DLACPY,48,22 80 71
XY,49,21 80 70
DLACPY,49,22 80 69
XY,50,21 80 68
DLACPY,50,22 80 67
DLACPY,43,22 82 66
DLACPY,42,22 82 65
DLACPY,41,22 82 64
DLACPY,40,22 82 63
XY,0,21 82 62
DLACPY,0,22 82 61
XY,1,21 82 60
DLACPY,1,22 82 59
XY,2,21 82 58
DLACPY,2,22 82 57
XY,3,21 82 56
DLACPY,3,22 82 55
XY,36,21 82 54
DLACPY,36,22 82 53
XY,37,21 82 52
DLACPY,37,22 82 51
XY,38,21 82 50
DLACPY,38,22 82 49
XY,39,21 82 48
DLACPY,39,22 82 47
XY,20,22 82 46
DLACPY,20,23 82 45
XY,21,22 82 44
DLACPY,21,23 82 43
XY,22,22 82 42
DLACPY,22,23 82 41
XY,23,22 82 40
DLACPY,23,23 82 39
XY,24,22 82 38
DLACPY,24,23 82 37
XY,25,22 82 36
DLACPY,25,23 82 35
XY,26,22 82 34
DLACPY,26,23 82 33
XY,27,22 82 32
DLACPY,27,23 82 31
XY,4,21 81 30
DLACPY,4,22 81 29
XY,5,21 81 28
DLACPY,5,22 81 27
XY,6,21 81 26
DLACPY,6,22 81 25
XY,7,21 81 24
DLACPY,7,22 81 23
XY,32,21 81 22
DLACPY,32,22 81 21
XY,33,21 81 20
DLACPY,33,22 81 19
XY,34,21 81 18
DLACPY,34,22 81 17
XY,35,21 81 16
DLACPY,35,22 81 15
XY,40,22 81 14
DLACPY,40,23 81 13
XY,41,22 81 12
DLACPY,41,23 81 11
XY,42,22 81 10
DLACPY,42,23 81 9
XY,43,22 81 8
DLACPY,43,23 81 7
XY,48,22 81 6
DLACPY,48,23 81 5
XY,49,22 81 4
DLACPY,49,23 81 3
XY,50,22 81 2
DLACPY,50,23 81 1
