_X,111 18 2636
XTY,111,11,20 18 2635
_X,110 18 2634
XTY,110,10,20 18 2633
_X,109 18 2632
XTY,109,9,20 18 2631
_X,108 18 2630
XTY,108,8,20 18 2629
_X,107 18 2628
XTY,107,7,20 18 2627
_X,106 18 2626
XTY,106,6,20 18 2625
_X,105 18 2624
XTY,105,5,20 18 2623
_X,104 18 2622
XTY,104,4,20 18 2621
_X,47 18 2620
XTY,47,7,20 18 2619
_X,46 18 2618
XTY,46,6,20 18 2617
_X,45 18 2616
XTY,45,5,20 18 2615
_X,44 18 2614
XTY,44,4,20 18 2613
_X,43 18 2612
XTY,43,3,20 18 2611
_X,42 18 2610
XTY,42,2,20 18 2609
_X,41 18 2608
XTY,41,1,20 18 2607
_X,40 18 2606
XTY,40,0,20 18 2605
_X,31 17 2604
XTY,31,11,20 17 2603
_X,30 17 2602
XTY,30,10,20 17 2601
_X,29 17 2600
XTY,29,9,20 17 2599
_X,28 17 2598
XTY,28,8,20 17 2597
_X,27 17 2596
XTY,27,7,20 17 2595
_X,26 17 2594
XTY,26,6,20 17 2593
_X,25 17 2592
XTY,25,5,20 17 2591
_X,24 17 2590
XTY,24,4,20 17 2589
SETZERO,111,1 16 2588
SETZERO,110,1 16 2587
SETZERO,109,1 16 2586
SETZERO,108,1 16 2585
SETZERO,107,1 16 2584
SETZERO,106,1 16 2583
SETZERO,105,1 16 2582
SETZERO,104,1 16 2581
SETZERO,103,1 16 2580
SETZERO,102,1 16 2579
SETZERO,101,1 16 2578
SETZERO,100,1 16 2577
SETZERO,99,1 16 2576
SETZERO,98,1 16 2575
SETZERO,97,1 16 2574
SETZERO,96,1 16 2573
_X,23 15 2572
XTY,23,3,20 15 2571
_X,22 15 2570
XTY,22,2,20 15 2569
_X,21 15 2568
XTY,21,1,20 15 2567
_X,20 15 2566
XTY,20,0,20 15 2565
_X,19 15 2564
XTY,19,19,20 15 2563
_X,18 15 2562
XTY,18,18,20 15 2561
_X,17 15 2560
XTY,17,17,20 15 2559
_X,16 15 2558
XTY,16,16,20 15 2557
_X,15 15 2556
XTY,15,15,20 15 2555
_X,14 15 2554
XTY,14,14,20 15 2553
_X,13 15 2552
XTY,13,13,20 15 2551
_X,12 15 2550
XTY,12,12,20 15 2549
_X,11 15 2548
XTY,11,11,20 15 2547
_X,10 15 2546
XTY,10,10,20 15 2545
_X,9 15 2544
XTY,9,9,20 15 2543
_X,8 15 2542
XTY,8,8,20 15 2541
_X,55 13 2540
XTY,55,15,20 13 2539
_X,54 13 2538
XTY,54,14,20 13 2537
_X,53 13 2536
XTY,53,13,20 13 2535
_X,52 13 2534
XTY,52,12,20 13 2533
_X,51 13 2532
XTY,51,11,20 13 2531
_X,50 13 2530
XTY,50,10,20 13 2529
_X,49 13 2528
XTY,49,9,20 13 2527
_X,48 13 2526
XTY,48,8,20 13 2525
SETZERO,123,1 12 2524
SETZERO,122,1 12 2523
SETZERO,121,1 12 2522
SETZERO,120,1 12 2521
SETZERO,39,1 12 2520
SETZERO,38,1 12 2519
SETZERO,37,1 12 2518
SETZERO,36,1 12 2517
SETZERO,35,1 12 2516
SETZERO,34,1 12 2515
SETZERO,33,1 12 2514
SETZERO,32,1 12 2513
SETZERO,95,1 11 2512
SETZERO,94,1 11 2511
SETZERO,93,1 11 2510
SETZERO,92,1 11 2509
SETZERO,91,1 11 2508
SETZERO,90,1 11 2507
SETZERO,89,1 11 2506
SETZERO,88,1 11 2505
_X,39 11 2504
XTY,39,19,20 11 2503
_X,38 11 2502
XTY,38,18,20 11 2501
_X,37 11 2500
XTY,37,17,20 11 2499
_X,36 11 2498
XTY,36,16,20 11 2497
_X,35 11 2496
XTY,35,15,20 11 2495
_X,34 11 2494
XTY,34,14,20 11 2493
_X,33 11 2492
XTY,33,13,20 11 2491
_X,32 11 2490
XTY,32,12,20 11 2489
SETZERO,7,1 9 2488
SETZERO,6,1 9 2487
SETZERO,5,1 9 2486
SETZERO,4,1 9 2485
SETZERO,3,1 9 2484
SETZERO,2,1 9 2483
SETZERO,1,1 9 2482
SETZERO,0,1 9 2481
_X,71 9 2480
_X,70 9 2479
_X,69 9 2478
_X,68 9 2477
_X,67 9 2476
_X,66 9 2475
_X,65 9 2474
_X,64 9 2473
XTY,64,4,20 14 2472
XTY,65,5,20 14 2471
XTY,66,6,20 14 2470
XTY,67,7,20 14 2469
XTY,68,8,20 14 2468
XTY,69,9,20 14 2467
XTY,70,10,20 14 2466
XTY,71,11,20 14 2465
SETZERO,47,1 14 2464
SETZERO,46,1 14 2463
SETZERO,45,1 14 2462
SETZERO,44,1 14 2461
SETZERO,43,1 14 2460
SETZERO,42,1 14 2459
SETZERO,41,1 14 2458
SETZERO,40,1 14 2457
SETZERO,119,1 8 2456
SETZERO,118,1 8 2455
SETZERO,117,1 8 2454
SETZERO,116,1 8 2453
SETZERO,115,1 8 2452
SETZERO,114,1 8 2451
SETZERO,113,1 8 2450
SETZERO,112,1 8 2449
_X,103 8 2448
_X,102 8 2447
_X,101 8 2446
_X,100 8 2445
_X,99 8 2444
_X,98 8 2443
_X,97 8 2442
_X,96 8 2441
XTY,96,16,20 10 2440
XTY,97,17,20 10 2439
XTY,98,18,20 10 2438
XTY,99,19,20 10 2437
XTY,100,0,20 10 2436
XTY,101,1,20 10 2435
XTY,102,2,20 10 2434
XTY,103,3,20 10 2433
SETZERO,15,1 10 2432
SETZERO,14,1 10 2431
SETZERO,13,1 10 2430
SETZERO,12,1 10 2429
SETZERO,11,1 10 2428
SETZERO,10,1 10 2427
SETZERO,9,1 10 2426
SETZERO,8,1 10 2425
_X,95 7 2424
XTY,95,15,20 7 2423
_X,94 7 2422
XTY,94,14,20 7 2421
_X,93 7 2420
XTY,93,13,20 7 2419
_X,92 7 2418
XTY,92,12,20 7 2417
_X,91 7 2416
XTY,91,11,20 7 2415
_X,90 7 2414
XTY,90,10,20 7 2413
_X,89 7 2412
XTY,89,9,20 7 2411
_X,88 7 2410
XTY,88,8,20 7 2409
_X,79 6 2408
XTY,79,19,20 6 2407
_X,78 6 2406
XTY,78,18,20 6 2405
_X,77 6 2404
XTY,77,17,20 6 2403
_X,76 6 2402
XTY,76,16,20 6 2401
_X,75 6 2400
XTY,75,15,20 6 2399
_X,74 6 2398
XTY,74,14,20 6 2397
_X,73 6 2396
XTY,73,13,20 6 2395
_X,72 6 2394
XTY,72,12,20 6 2393
_X,7 6 2392
XTY,7,7,20 6 2391
_X,6 6 2390
XTY,6,6,20 6 2389
_X,5 6 2388
XTY,5,5,20 6 2387
_X,4 6 2386
XTY,4,4,20 6 2385
_X,3 6 2384
XTY,3,3,20 6 2383
_X,2 6 2382
XTY,2,2,20 6 2381
_X,1 6 2380
XTY,1,1,20 6 2379
_X,0 6 2378
XTY,0,0,20 6 2377
_X,63 5 2376
XTY,63,3,20 5 2375
_X,62 5 2374
XTY,62,2,20 5 2373
_X,61 5 2372
XTY,61,1,20 5 2371
_X,60 5 2370
XTY,60,0,20 5 2369
_X,59 5 2368
XTY,59,19,20 5 2367
_X,58 5 2366
XTY,58,18,20 5 2365
_X,57 5 2364
XTY,57,17,20 5 2363
_X,56 5 2362
XTY,56,16,20 5 2361
SETZERO,87,1 4 2360
SETZERO,86,1 4 2359
SETZERO,85,1 4 2358
SETZERO,84,1 4 2357
SETZERO,83,1 4 2356
SETZERO,82,1 4 2355
SETZERO,81,1 4 2354
SETZERO,80,1 4 2353
SETZERO,71,1 4 2352
SETZERO,70,1 4 2351
SETZERO,69,1 4 2350
SETZERO,68,1 4 2349
SETZERO,67,1 4 2348
SETZERO,66,1 4 2347
SETZERO,65,1 4 2346
SETZERO,64,1 4 2345
_X,87 3 2344
XTY,87,7,20 3 2343
_X,86 3 2342
XTY,86,6,20 3 2341
_X,85 3 2340
XTY,85,5,20 3 2339
_X,84 3 2338
XTY,84,4,20 3 2337
_X,83 3 2336
XTY,83,3,20 3 2335
_X,82 3 2334
XTY,82,2,20 3 2333
_X,81 3 2332
XTY,81,1,20 3 2331
_X,80 3 2330
XTY,80,0,20 3 2329
SETZERO,79,1 2 2328
SETZERO,78,1 2 2327
SETZERO,77,1 2 2326
SETZERO,76,1 2 2325
SETZERO,75,1 2 2324
SETZERO,74,1 2 2323
SETZERO,73,1 2 2322
SETZERO,72,1 2 2321
_X,119 2 2320
XTY,119,19,20 2 2319
_X,118 2 2318
XTY,118,18,20 2 2317
_X,117 2 2316
XTY,117,17,20 2 2315
_X,116 2 2314
XTY,116,16,20 2 2313
_X,115 2 2312
XTY,115,15,20 2 2311
_X,114 2 2310
XTY,114,14,20 2 2309
_X,113 2 2308
XTY,113,13,20 2 2307
_X,112 2 2306
XTY,112,12,20 2 2305
_X,123 19 2304
XTY,123,3,20 19 2303
_X,122 19 2302
XTY,122,2,20 19 2301
_X,121 19 2300
XTY,121,1,20 19 2299
_X,120 19 2298
XTY,120,0,20 19 2297
RED,XBXBUF,0 19 2296
CHOL,XBX 19 2295
DLACPY,0,20 19 2294
INV,XBX 24 2293
XY,80,20 24 2292
XY,81,20 24 2291
XY,82,20 24 2290
XY,83,20 24 2289
XY,84,20 24 2288
XY,85,20 24 2287
XY,86,20 24 2286
XY,87,20 24 2285
DLACPY,87,21 643 2284
SPMM,86,87,0 643 2283
SPMM,87,87,0 643 2282
DLACPY,86,21 643 2281
SPMM,85,86,0 643 2280
SPMM,86,86,0 643 2279
SPMM,87,86,0 643 2278
DLACPY,85,21 643 2277
SPMM,84,85,0 643 2276
SPMM,85,85,0 643 2275
SPMM,86,85,0 643 2274
DLACPY,84,21 643 2273
SPMM,83,84,0 643 2272
SPMM,84,84,0 643 2271
SPMM,85,84,0 643 2270
DLACPY,83,21 643 2269
SPMM,82,83,0 643 2268
SPMM,83,83,0 643 2267
SPMM,84,83,0 643 2266
DLACPY,82,21 643 2265
SPMM,80,82,0 643 2264
SPMM,81,82,0 643 2263
SPMM,82,82,0 643 2262
SPMM,83,82,0 643 2261
DLACPY,81,21 643 2260
SPMM,80,81,0 643 2259
SPMM,81,81,0 643 2258
SPMM,82,81,0 643 2257
DLACPY,80,21 643 2256
SPMM,80,80,0 643 2255
SPMM,81,80,0 643 2254
SPMM,82,80,0 643 2253
SPMM,32,85,0 679 2252
SPMM,33,85,0 679 2251
SPMM,32,86,0 679 2250
SPMM,33,86,0 679 2249
SPMM,34,86,0 679 2248
SPMM,33,87,0 679 2247
SPMM,34,87,0 679 2246
SPMM,35,87,0 679 2245
SPMM,96,85,0 649 2244
SPMM,97,85,0 649 2243
SPMM,96,86,0 649 2242
SPMM,97,86,0 649 2241
SPMM,98,86,0 649 2240
SPMM,97,87,0 649 2239
SPMM,98,87,0 649 2238
SPMM,99,87,0 649 2237
SPMM,100,87,0 649 2236
SPMM,12,80,0 667 2235
SPMM,13,80,0 667 2234
SPMM,14,80,0 667 2233
SPMM,15,80,0 667 2232
SPMM,15,82,0 667 2231
SPMM,78,80,0 661 2230
SPMM,79,80,0 661 2229
SPMM,78,81,0 661 2228
SPMM,79,81,0 661 2227
SPMM,79,82,0 661 2226
SPMM,88,80,0 685 2225
SPMM,89,80,0 685 2224
SPMM,88,81,0 685 2223
SPMM,89,81,0 685 2222
SPMM,90,81,0 685 2221
SPMM,91,81,0 685 2220
SPMM,89,82,0 685 2219
SPMM,90,82,0 685 2218
SPMM,91,82,0 685 2217
SPMM,92,82,0 685 2216
SPMM,91,83,0 685 2215
SPMM,92,83,0 685 2214
SPMM,93,83,0 685 2213
SPMM,94,83,0 685 2212
SPMM,93,84,0 685 2211
SPMM,94,84,0 685 2210
SPMM,95,84,0 685 2209
SPMM,94,85,0 685 2208
SPMM,95,85,0 685 2207
SPMM,88,87,0 685 2206
XY,0,20 44 2205
XY,1,20 44 2204
XY,2,20 44 2203
XY,3,20 44 2202
XY,4,20 44 2201
XY,5,20 44 2200
XY,6,20 44 2199
XY,7,20 44 2198
DLACPY,7,21 363 2197
SPMM,0,7,0 363 2196
SPMM,1,7,0 363 2195
SPMM,6,7,0 363 2194
SPMM,7,7,0 363 2193
DLACPY,6,21 363 2192
SPMM,0,6,0 363 2191
SPMM,1,6,0 363 2190
SPMM,2,6,0 363 2189
SPMM,5,6,0 363 2188
SPMM,6,6,0 363 2187
SPMM,7,6,0 363 2186
DLACPY,5,21 363 2185
SPMM,1,5,0 363 2184
SPMM,2,5,0 363 2183
SPMM,4,5,0 363 2182
SPMM,5,5,0 363 2181
SPMM,6,5,0 363 2180
DLACPY,4,21 363 2179
SPMM,0,4,0 363 2178
SPMM,1,4,0 363 2177
SPMM,3,4,0 363 2176
SPMM,4,4,0 363 2175
SPMM,5,4,0 363 2174
DLACPY,3,21 363 2173
SPMM,0,3,0 363 2172
SPMM,1,3,0 363 2171
SPMM,2,3,0 363 2170
SPMM,3,3,0 363 2169
SPMM,4,3,0 363 2168
DLACPY,2,21 363 2167
SPMM,0,2,0 363 2166
SPMM,1,2,0 363 2165
SPMM,2,2,0 363 2164
SPMM,3,2,0 363 2163
SPMM,5,2,0 363 2162
SPMM,6,2,0 363 2161
DLACPY,1,21 363 2160
SPMM,0,1,0 363 2159
SPMM,1,1,0 363 2158
SPMM,2,1,0 363 2157
SPMM,3,1,0 363 2156
SPMM,4,1,0 363 2155
SPMM,5,1,0 363 2154
SPMM,6,1,0 363 2153
SPMM,7,1,0 363 2152
DLACPY,0,21 363 2151
SPMM,0,0,0 363 2150
SPMM,1,0,0 363 2149
SPMM,2,0,0 363 2148
SPMM,3,0,0 363 2147
SPMM,4,0,0 363 2146
SPMM,6,0,0 363 2145
SPMM,7,0,0 363 2144
SPMM,8,0,0 368 2143
SPMM,12,0,0 368 2142
SPMM,13,0,0 368 2141
SPMM,14,0,0 368 2140
SPMM,15,0,0 368 2139
SPMM,8,1,0 368 2138
SPMM,9,1,0 368 2137
SPMM,10,1,0 368 2136
SPMM,9,2,0 368 2135
SPMM,10,2,0 368 2134
SPMM,12,2,0 368 2133
SPMM,13,2,0 368 2132
SPMM,14,2,0 368 2131
SPMM,15,2,0 368 2130
SPMM,10,3,0 368 2129
SPMM,11,3,0 368 2128
SPMM,14,3,0 368 2127
SPMM,15,3,0 368 2126
SPMM,11,4,0 368 2125
SPMM,11,5,0 368 2124
SPMM,12,5,0 368 2123
SPMM,10,6,0 368 2122
SPMM,12,6,0 368 2121
SPMM,13,6,0 368 2120
SPMM,14,6,0 368 2119
SPMM,15,6,0 368 2118
SPMM,8,7,0 368 2117
SPMM,10,7,0 368 2116
SPMM,11,7,0 368 2115
SPMM,14,7,0 368 2114
SPMM,15,7,0 368 2113
XY,8,20 84 2112
XY,9,20 84 2111
XY,10,20 84 2110
XY,11,20 84 2109
XY,12,20 84 2108
XY,13,20 84 2107
XY,14,20 84 2106
XY,15,20 84 2105
DLACPY,15,21 164 2104
SPMM,0,15,0 164 2103
SPMM,2,15,0 164 2102
SPMM,3,15,0 164 2101
SPMM,6,15,0 164 2100
SPMM,7,15,0 164 2099
DLACPY,14,21 164 2098
SPMM,0,14,0 164 2097
SPMM,2,14,0 164 2096
SPMM,3,14,0 164 2095
SPMM,6,14,0 164 2094
SPMM,7,14,0 164 2093
DLACPY,13,21 164 2092
SPMM,0,13,0 164 2091
SPMM,2,13,0 164 2090
SPMM,6,13,0 164 2089
DLACPY,12,21 164 2088
SPMM,0,12,0 164 2087
SPMM,2,12,0 164 2086
SPMM,5,12,0 164 2085
SPMM,6,12,0 164 2084
DLACPY,11,21 164 2083
SPMM,3,11,0 164 2082
SPMM,4,11,0 164 2081
SPMM,5,11,0 164 2080
SPMM,7,11,0 164 2079
DLACPY,10,21 164 2078
SPMM,1,10,0 164 2077
SPMM,2,10,0 164 2076
SPMM,3,10,0 164 2075
SPMM,6,10,0 164 2074
SPMM,7,10,0 164 2073
DLACPY,9,21 164 2072
SPMM,1,9,0 164 2071
SPMM,2,9,0 164 2070
DLACPY,8,21 164 2069
SPMM,0,8,0 164 2068
SPMM,1,8,0 164 2067
SPMM,7,8,0 164 2066
SPMM,40,12,0 174 2065
SPMM,41,12,0 174 2064
SPMM,42,12,0 174 2063
SPMM,41,13,0 174 2062
SPMM,42,13,0 174 2061
SPMM,41,14,0 174 2060
SPMM,42,14,0 174 2059
SPMM,43,14,0 174 2058
SPMM,42,15,0 174 2057
SPMM,43,15,0 174 2056
SPMM,44,15,0 174 2055
SPMM,80,12,0 179 2054
SPMM,80,13,0 179 2053
SPMM,80,14,0 179 2052
SPMM,82,14,0 179 2051
SPMM,80,15,0 179 2050
SPMM,82,15,0 179 2049
SPMM,8,8,0 348 2048
SPMM,9,8,0 348 2047
SPMM,11,8,0 348 2046
SPMM,8,9,0 348 2045
SPMM,9,9,0 348 2044
SPMM,10,9,0 348 2043
SPMM,11,9,0 348 2042
SPMM,12,9,0 348 2041
SPMM,9,10,0 348 2040
SPMM,10,10,0 348 2039
SPMM,11,10,0 348 2038
SPMM,12,10,0 348 2037
SPMM,13,10,0 348 2036
SPMM,14,10,0 348 2035
SPMM,15,10,0 348 2034
SPMM,8,11,0 348 2033
SPMM,9,11,0 348 2032
SPMM,10,11,0 348 2031
SPMM,11,11,0 348 2030
SPMM,12,11,0 348 2029
SPMM,9,12,0 348 2028
SPMM,10,12,0 348 2027
SPMM,11,12,0 348 2026
SPMM,12,12,0 348 2025
SPMM,13,12,0 348 2024
SPMM,10,13,0 348 2023
SPMM,12,13,0 348 2022
SPMM,13,13,0 348 2021
SPMM,14,13,0 348 2020
SPMM,10,14,0 348 2019
SPMM,13,14,0 348 2018
SPMM,14,14,0 348 2017
SPMM,15,14,0 348 2016
SPMM,10,15,0 348 2015
SPMM,14,15,0 348 2014
SPMM,15,15,0 348 2013
XY,16,20 39 2012
XY,17,20 39 2011
XY,18,20 39 2010
XY,19,20 39 2009
XY,20,20 39 2008
XY,21,20 39 2007
XY,22,20 39 2006
XY,23,20 39 2005
DLACPY,23,21 303 2004
DLACPY,22,21 303 2003
DLACPY,21,21 303 2002
DLACPY,20,21 303 2001
DLACPY,19,21 303 2000
DLACPY,18,21 303 1999
DLACPY,17,21 303 1998
DLACPY,16,21 303 1997
SPMM,32,23,0 323 1996
SPMM,0,16,0 333 1995
SPMM,3,16,0 333 1994
SPMM,6,16,0 333 1993
SPMM,7,16,0 333 1992
SPMM,0,17,0 333 1991
SPMM,3,17,0 333 1990
SPMM,7,17,0 333 1989
SPMM,0,18,0 333 1988
SPMM,1,18,0 333 1987
SPMM,3,18,0 333 1986
SPMM,4,18,0 333 1985
SPMM,7,18,0 333 1984
SPMM,0,19,0 333 1983
SPMM,1,19,0 333 1982
SPMM,3,19,0 333 1981
SPMM,4,19,0 333 1980
SPMM,7,19,0 333 1979
SPMM,1,20,0 333 1978
SPMM,4,20,0 333 1977
SPMM,7,20,0 333 1976
SPMM,1,21,0 333 1975
SPMM,4,21,0 333 1974
SPMM,5,21,0 333 1973
SPMM,1,22,0 333 1972
SPMM,4,22,0 333 1971
SPMM,5,22,0 333 1970
SPMM,1,23,0 333 1969
SPMM,4,23,0 333 1968
SPMM,5,23,0 333 1967
SPMM,10,16,0 318 1966
SPMM,11,16,0 318 1965
SPMM,15,16,0 318 1964
SPMM,10,17,0 318 1963
SPMM,11,17,0 318 1962
SPMM,11,18,0 318 1961
SPMM,8,19,0 318 1960
SPMM,11,19,0 318 1959
SPMM,8,20,0 318 1958
SPMM,11,20,0 318 1957
SPMM,8,21,0 318 1956
SPMM,11,21,0 318 1955
SPMM,8,22,0 318 1954
SPMM,9,22,0 318 1953
SPMM,11,22,0 318 1952
SPMM,8,23,0 318 1951
SPMM,9,23,0 318 1950
SPMM,11,23,0 318 1949
SPMM,12,23,0 318 1948
SPMM,42,16,0 338 1947
SPMM,43,16,0 338 1946
SPMM,44,16,0 338 1945
SPMM,43,17,0 338 1944
SPMM,44,17,0 338 1943
SPMM,45,17,0 338 1942
SPMM,44,18,0 338 1941
SPMM,45,18,0 338 1940
SPMM,46,18,0 338 1939
SPMM,44,19,0 338 1938
SPMM,45,19,0 338 1937
SPMM,46,19,0 338 1936
SPMM,47,19,0 338 1935
SPMM,45,20,0 338 1934
SPMM,46,20,0 338 1933
SPMM,47,20,0 338 1932
SPMM,46,21,0 338 1931
SPMM,47,21,0 338 1930
SPMM,47,22,0 338 1929
SPMM,47,23,0 338 1928
SPMM,80,16,0 313 1927
SPMM,82,16,0 313 1926
SPMM,83,16,0 313 1925
SPMM,80,17,0 313 1924
SPMM,82,17,0 313 1923
SPMM,83,17,0 313 1922
SPMM,82,18,0 313 1921
SPMM,83,18,0 313 1920
SPMM,83,19,0 313 1919
SPMM,84,19,0 313 1918
SPMM,83,20,0 313 1917
SPMM,84,20,0 313 1916
SPMM,83,21,0 313 1915
SPMM,84,21,0 313 1914
SPMM,84,22,0 313 1913
SPMM,85,22,0 313 1912
SPMM,84,23,0 313 1911
SPMM,85,23,0 313 1910
XY,24,20 69 1909
XY,25,20 69 1908
XY,26,20 69 1907
XY,27,20 69 1906
XY,28,20 69 1905
XY,29,20 69 1904
XY,30,20 69 1903
XY,31,20 69 1902
DLACPY,31,21 535 1901
DLACPY,30,21 535 1900
DLACPY,29,21 535 1899
DLACPY,28,21 535 1898
DLACPY,27,21 535 1897
DLACPY,26,21 535 1896
DLACPY,25,21 535 1895
DLACPY,24,21 535 1894
SPMM,40,30,0 545 1893
SPMM,41,30,0 545 1892
SPMM,42,30,0 545 1891
SPMM,43,30,0 545 1890
SPMM,44,30,0 545 1889
SPMM,45,30,0 545 1888
SPMM,46,30,0 545 1887
SPMM,47,30,0 545 1886
SPMM,45,31,0 545 1885
SPMM,46,31,0 545 1884
SPMM,47,31,0 545 1883
SPMM,1,24,0 637 1882
SPMM,5,24,0 637 1881
SPMM,1,25,0 637 1880
SPMM,2,25,0 637 1879
SPMM,5,25,0 637 1878
SPMM,6,25,0 637 1877
SPMM,1,26,0 637 1876
SPMM,2,26,0 637 1875
SPMM,5,26,0 637 1874
SPMM,6,26,0 637 1873
SPMM,0,27,0 637 1872
SPMM,2,27,0 637 1871
SPMM,3,27,0 637 1870
SPMM,6,27,0 637 1869
SPMM,0,28,0 637 1868
SPMM,1,28,0 637 1867
SPMM,2,28,0 637 1866
SPMM,3,28,0 637 1865
SPMM,4,28,0 637 1864
SPMM,1,29,0 637 1863
SPMM,2,29,0 637 1862
SPMM,4,29,0 637 1861
SPMM,5,29,0 637 1860
SPMM,6,29,0 637 1859
SPMM,2,30,0 637 1858
SPMM,5,30,0 637 1857
SPMM,6,30,0 637 1856
SPMM,7,30,0 637 1855
SPMM,7,31,0 637 1854
XTY,7,7,21 638 1853
XTY,6,6,21 638 1852
XTY,5,5,21 638 1851
XTY,2,2,21 638 1850
XTY,4,4,21 638 1849
XTY,1,1,21 638 1848
XTY,3,3,21 638 1847
XTY,0,0,21 638 1846
SPMM,9,24,0 620 1845
SPMM,11,24,0 620 1844
SPMM,12,24,0 620 1843
SPMM,9,25,0 620 1842
SPMM,12,25,0 620 1841
SPMM,9,26,0 620 1840
SPMM,10,26,0 620 1839
SPMM,12,26,0 620 1838
SPMM,9,27,0 620 1837
SPMM,10,27,0 620 1836
SPMM,12,27,0 620 1835
SPMM,13,27,0 620 1834
SPMM,14,27,0 620 1833
SPMM,15,27,0 620 1832
SPMM,13,28,0 620 1831
SPMM,14,28,0 620 1830
SPMM,15,28,0 620 1829
SPMM,8,30,0 620 1828
SPMM,10,30,0 620 1827
SPMM,11,30,0 620 1826
SPMM,12,30,0 620 1825
SPMM,13,30,0 620 1824
SPMM,14,30,0 620 1823
SPMM,15,30,0 620 1822
SPMM,8,31,0 620 1821
SPMM,9,31,0 620 1820
SPMM,10,31,0 620 1819
SPMM,11,31,0 620 1818
SPMM,12,31,0 620 1817
SPMM,32,24,0 560 1816
SPMM,32,25,0 560 1815
SPMM,32,26,0 560 1814
SPMM,32,27,0 560 1813
SPMM,32,29,0 560 1812
SPMM,32,30,0 560 1811
SPMM,32,31,0 560 1810
SPMM,85,24,0 550 1809
SPMM,85,25,0 550 1808
SPMM,80,27,0 550 1807
SPMM,80,28,0 550 1806
SPMM,82,28,0 550 1805
SPMM,83,28,0 550 1804
SPMM,84,28,0 550 1803
SPMM,83,29,0 550 1802
SPMM,84,29,0 550 1801
SPMM,85,29,0 550 1800
SPMM,85,31,0 550 1799
XY,32,20 74 1798
XY,33,20 74 1797
XY,34,20 74 1796
XY,35,20 74 1795
XY,36,20 74 1794
XY,37,20 74 1793
XY,38,20 74 1792
XY,39,20 74 1791
DLACPY,39,21 479 1790
DLACPY,38,21 479 1789
DLACPY,37,21 479 1788
DLACPY,36,21 479 1787
DLACPY,35,21 479 1786
DLACPY,34,21 479 1785
DLACPY,33,21 479 1784
DLACPY,32,21 479 1783
SPMM,40,39,0 520 1782
SPMM,88,35,0 530 1781
SPMM,88,36,0 530 1780
SPMM,101,34,0 570 1779
SPMM,102,34,0 570 1778
SPMM,103,34,0 570 1777
SPMM,101,35,0 570 1776
SPMM,102,35,0 570 1775
SPMM,103,35,0 570 1774
SPMM,104,34,0 525 1773
SPMM,104,35,0 525 1772
SPMM,105,35,0 525 1771
SPMM,106,35,0 525 1770
SPMM,107,35,0 525 1769
SPMM,108,35,0 525 1768
SPMM,109,35,0 525 1767
SPMM,105,36,0 525 1766
SPMM,106,36,0 525 1765
SPMM,107,36,0 525 1764
SPMM,108,36,0 525 1763
SPMM,109,36,0 525 1762
SPMM,110,36,0 525 1761
SPMM,32,32,0 484 1760
SPMM,33,32,0 484 1759
SPMM,32,33,0 484 1758
SPMM,33,33,0 484 1757
SPMM,34,33,0 484 1756
SPMM,33,34,0 484 1755
SPMM,34,34,0 484 1754
SPMM,35,34,0 484 1753
SPMM,34,35,0 484 1752
SPMM,35,35,0 484 1751
SPMM,36,35,0 484 1750
SPMM,35,36,0 484 1749
SPMM,36,36,0 484 1748
SPMM,37,36,0 484 1747
SPMM,36,37,0 484 1746
SPMM,37,37,0 484 1745
SPMM,38,37,0 484 1744
SPMM,37,38,0 484 1743
SPMM,38,38,0 484 1742
SPMM,39,38,0 484 1741
SPMM,38,39,0 484 1740
SPMM,39,39,0 484 1739
SPMM,85,32,0 489 1738
SPMM,86,32,0 489 1737
SPMM,85,33,0 489 1736
SPMM,86,33,0 489 1735
SPMM,87,33,0 489 1734
SPMM,86,34,0 489 1733
SPMM,87,34,0 489 1732
SPMM,87,35,0 489 1731
XY,40,20 94 1730
XY,41,20 94 1729
XY,42,20 94 1728
XY,43,20 94 1727
XY,44,20 94 1726
XY,45,20 94 1725
XY,46,20 94 1724
XY,47,20 94 1723
DLACPY,47,21 99 1722
DLACPY,46,21 99 1721
DLACPY,45,21 99 1720
DLACPY,44,21 99 1719
DLACPY,43,21 99 1718
DLACPY,42,21 99 1717
DLACPY,41,21 99 1716
DLACPY,40,21 99 1715
SPMM,64,42,0 474 1714
SPMM,64,43,0 474 1713
SPMM,65,43,0 474 1712
SPMM,64,44,0 474 1711
SPMM,65,44,0 474 1710
SPMM,66,44,0 474 1709
SPMM,65,45,0 474 1708
SPMM,66,45,0 474 1707
SPMM,67,45,0 474 1706
SPMM,66,46,0 474 1705
SPMM,67,46,0 474 1704
SPMM,68,46,0 474 1703
SPMM,67,47,0 474 1702
SPMM,68,47,0 474 1701
SPMM,69,47,0 474 1700
SPMM,12,40,0 610 1699
SPMM,13,40,0 610 1698
SPMM,12,41,0 610 1697
SPMM,13,41,0 610 1696
SPMM,14,41,0 610 1695
SPMM,12,42,0 610 1694
SPMM,13,42,0 610 1693
SPMM,14,42,0 610 1692
SPMM,15,42,0 610 1691
SPMM,14,43,0 610 1690
SPMM,15,43,0 610 1689
SPMM,15,44,0 610 1688
XTY,15,15,21 668 1687
XTY,14,14,21 668 1686
XTY,13,13,21 668 1685
XTY,12,12,21 668 1684
XTY,11,11,21 668 1683
XTY,10,10,21 668 1682
XTY,9,9,21 668 1681
XTY,8,8,21 668 1680
SPMM,39,40,0 580 1679
SPMM,40,40,0 443 1678
SPMM,41,40,0 443 1677
SPMM,40,41,0 443 1676
SPMM,41,41,0 443 1675
SPMM,42,41,0 443 1674
SPMM,41,42,0 443 1673
SPMM,42,42,0 443 1672
SPMM,43,42,0 443 1671
SPMM,42,43,0 443 1670
SPMM,43,43,0 443 1669
SPMM,44,43,0 443 1668
SPMM,43,44,0 443 1667
SPMM,44,44,0 443 1666
SPMM,45,44,0 443 1665
SPMM,44,45,0 443 1664
SPMM,45,45,0 443 1663
SPMM,46,45,0 443 1662
SPMM,45,46,0 443 1661
SPMM,46,46,0 443 1660
SPMM,47,46,0 443 1659
SPMM,46,47,0 443 1658
SPMM,47,47,0 443 1657
XY,48,20 64 1656
XY,49,20 64 1655
XY,50,20 64 1654
XY,51,20 64 1653
XY,52,20 64 1652
XY,53,20 64 1651
XY,54,20 64 1650
XY,55,20 64 1649
XY,56,20 34 1648
XY,57,20 34 1647
XY,58,20 34 1646
XY,59,20 34 1645
XY,60,20 34 1644
XY,61,20 34 1643
XY,62,20 34 1642
XY,63,20 34 1641
XY,64,20 29 1640
XY,65,20 29 1639
XY,66,20 29 1638
XY,67,20 29 1637
XY,68,20 29 1636
XY,69,20 29 1635
XY,70,20 29 1634
XY,71,20 29 1633
DLACPY,71,21 383 1632
DLACPY,70,21 383 1631
DLACPY,69,21 383 1630
DLACPY,68,21 383 1629
DLACPY,67,21 383 1628
DLACPY,66,21 383 1627
DLACPY,65,21 383 1626
DLACPY,64,21 383 1625
SPMM,72,71,0 413 1624
SPMM,42,64,0 398 1623
SPMM,43,64,0 398 1622
SPMM,44,64,0 398 1621
SPMM,43,65,0 398 1620
SPMM,44,65,0 398 1619
SPMM,45,65,0 398 1618
SPMM,44,66,0 398 1617
SPMM,45,66,0 398 1616
SPMM,46,66,0 398 1615
SPMM,45,67,0 398 1614
SPMM,46,67,0 398 1613
SPMM,47,67,0 398 1612
SPMM,46,68,0 398 1611
SPMM,47,68,0 398 1610
SPMM,47,69,0 398 1609
SPMM,64,64,0 388 1608
SPMM,65,64,0 388 1607
SPMM,64,65,0 388 1606
SPMM,65,65,0 388 1605
SPMM,66,65,0 388 1604
SPMM,65,66,0 388 1603
SPMM,66,66,0 388 1602
SPMM,67,66,0 388 1601
SPMM,66,67,0 388 1600
SPMM,67,67,0 388 1599
SPMM,68,67,0 388 1598
SPMM,67,68,0 388 1597
SPMM,68,68,0 388 1596
SPMM,69,68,0 388 1595
SPMM,68,69,0 388 1594
SPMM,69,69,0 388 1593
SPMM,70,69,0 388 1592
SPMM,69,70,0 388 1591
SPMM,70,70,0 388 1590
SPMM,71,70,0 388 1589
SPMM,70,71,0 388 1588
SPMM,71,71,0 388 1587
SPMM,113,64,0 393 1586
SPMM,114,64,0 393 1585
SPMM,115,64,0 393 1584
SPMM,114,65,0 393 1583
SPMM,115,65,0 393 1582
SPMM,114,66,0 393 1581
SPMM,115,66,0 393 1580
SPMM,116,66,0 393 1579
SPMM,115,67,0 393 1578
SPMM,116,67,0 393 1577
SPMM,117,67,0 393 1576
SPMM,116,68,0 393 1575
SPMM,117,68,0 393 1574
SPMM,116,69,0 393 1573
SPMM,117,69,0 393 1572
SPMM,118,69,0 393 1571
SPMM,117,70,0 393 1570
SPMM,118,70,0 393 1569
SPMM,118,71,0 393 1568
SPMM,119,71,0 393 1567
XY,72,20 139 1566
XY,73,20 139 1565
XY,74,20 139 1564
XY,75,20 139 1563
XY,76,20 139 1562
XY,77,20 139 1561
XY,78,20 139 1560
XY,79,20 139 1559
DLACPY,79,21 183 1558
SPMM,78,79,0 183 1557
SPMM,79,79,0 183 1556
DLACPY,78,21 183 1555
SPMM,77,78,0 183 1554
SPMM,78,78,0 183 1553
SPMM,79,78,0 183 1552
DLACPY,77,21 183 1551
SPMM,76,77,0 183 1550
SPMM,77,77,0 183 1549
SPMM,78,77,0 183 1548
DLACPY,76,21 183 1547
SPMM,75,76,0 183 1546
SPMM,76,76,0 183 1545
SPMM,77,76,0 183 1544
DLACPY,75,21 183 1543
SPMM,74,75,0 183 1542
SPMM,75,75,0 183 1541
SPMM,76,75,0 183 1540
DLACPY,74,21 183 1539
SPMM,73,74,0 183 1538
SPMM,74,74,0 183 1537
SPMM,75,74,0 183 1536
DLACPY,73,21 183 1535
SPMM,72,73,0 183 1534
SPMM,73,73,0 183 1533
SPMM,74,73,0 183 1532
DLACPY,72,21 183 1531
SPMM,72,72,0 183 1530
SPMM,73,72,0 183 1529
SPMM,80,78,0 243 1528
SPMM,81,78,0 243 1527
SPMM,80,79,0 243 1526
SPMM,81,79,0 243 1525
SPMM,82,79,0 243 1524
SPMM,71,72,0 213 1523
SPMM,118,72,0 208 1522
SPMM,119,72,0 208 1521
SPMM,119,73,0 208 1520
SPMM,119,74,0 208 1519
SPMM,120,72,0 192 1518
SPMM,120,73,0 192 1517
SPMM,120,74,0 192 1516
SPMM,121,74,0 192 1515
SPMM,120,75,0 192 1514
SPMM,121,75,0 192 1513
SPMM,121,76,0 192 1512
SPMM,122,76,0 192 1511
SPMM,121,77,0 192 1510
SPMM,122,77,0 192 1509
SPMM,123,77,0 192 1508
SPMM,122,78,0 192 1507
SPMM,123,78,0 192 1506
XY,88,20 49 1505
XY,89,20 49 1504
XY,90,20 49 1503
XY,91,20 49 1502
XY,92,20 49 1501
XY,93,20 49 1500
XY,94,20 49 1499
XY,95,20 49 1498
DLACPY,95,21 144 1497
DLACPY,94,21 144 1496
DLACPY,93,21 144 1495
DLACPY,92,21 144 1494
DLACPY,91,21 144 1493
DLACPY,90,21 144 1492
DLACPY,89,21 144 1491
DLACPY,88,21 144 1490
SPMM,35,88,0 218 1489
SPMM,36,88,0 218 1488
SPMM,80,88,0 154 1487
SPMM,81,88,0 154 1486
SPMM,87,88,0 154 1485
SPMM,80,89,0 154 1484
SPMM,81,89,0 154 1483
SPMM,82,89,0 154 1482
SPMM,81,90,0 154 1481
SPMM,82,90,0 154 1480
SPMM,81,91,0 154 1479
SPMM,82,91,0 154 1478
SPMM,83,91,0 154 1477
SPMM,82,92,0 154 1476
SPMM,83,92,0 154 1475
SPMM,83,93,0 154 1474
SPMM,84,93,0 154 1473
SPMM,83,94,0 154 1472
SPMM,84,94,0 154 1471
SPMM,85,94,0 154 1470
SPMM,84,95,0 154 1469
SPMM,85,95,0 154 1468
SPMM,88,88,0 149 1467
SPMM,89,88,0 149 1466
SPMM,88,89,0 149 1465
SPMM,89,89,0 149 1464
SPMM,90,89,0 149 1463
SPMM,89,90,0 149 1462
SPMM,90,90,0 149 1461
SPMM,91,90,0 149 1460
SPMM,90,91,0 149 1459
SPMM,91,91,0 149 1458
SPMM,92,91,0 149 1457
SPMM,91,92,0 149 1456
SPMM,92,92,0 149 1455
SPMM,93,92,0 149 1454
SPMM,92,93,0 149 1453
SPMM,93,93,0 149 1452
SPMM,94,93,0 149 1451
SPMM,93,94,0 149 1450
SPMM,94,94,0 149 1449
SPMM,95,94,0 149 1448
SPMM,94,95,0 149 1447
SPMM,95,95,0 149 1446
SPMM,99,88,0 159 1445
SPMM,100,88,0 159 1444
SPMM,101,88,0 159 1443
SPMM,96,95,0 159 1442
XY,96,20 59 1441
XY,97,20 59 1440
XY,98,20 59 1439
XY,99,20 59 1438
XY,100,20 59 1437
XY,101,20 59 1436
XY,102,20 59 1435
XY,103,20 59 1434
DLACPY,103,21 263 1433
SPMM,101,103,0 263 1432
SPMM,102,103,0 263 1431
SPMM,103,103,0 263 1430
DLACPY,102,21 263 1429
SPMM,101,102,0 263 1428
SPMM,102,102,0 263 1427
SPMM,103,102,0 263 1426
DLACPY,101,21 263 1425
SPMM,100,101,0 263 1424
SPMM,101,101,0 263 1423
SPMM,102,101,0 263 1422
SPMM,103,101,0 263 1421
DLACPY,100,21 263 1420
SPMM,99,100,0 263 1419
SPMM,100,100,0 263 1418
SPMM,101,100,0 263 1417
DLACPY,99,21 263 1416
SPMM,98,99,0 263 1415
SPMM,99,99,0 263 1414
SPMM,100,99,0 263 1413
DLACPY,98,21 263 1412
SPMM,97,98,0 263 1411
SPMM,98,98,0 263 1410
SPMM,99,98,0 263 1409
DLACPY,97,21 263 1408
SPMM,96,97,0 263 1407
SPMM,97,97,0 263 1406
SPMM,98,97,0 263 1405
DLACPY,96,21 263 1404
SPMM,96,96,0 263 1403
SPMM,97,96,0 263 1402
SPMM,104,102,0 278 1401
SPMM,104,103,0 278 1400
SPMM,105,103,0 278 1399
SPMM,106,103,0 278 1398
SPMM,34,101,0 288 1397
SPMM,35,101,0 288 1396
SPMM,34,102,0 288 1395
SPMM,35,102,0 288 1394
SPMM,34,103,0 288 1393
SPMM,35,103,0 288 1392
SPMM,85,96,0 268 1391
SPMM,86,96,0 268 1390
SPMM,85,97,0 268 1389
SPMM,86,97,0 268 1388
SPMM,87,97,0 268 1387
SPMM,86,98,0 268 1386
SPMM,87,98,0 268 1385
SPMM,87,99,0 268 1384
SPMM,87,100,0 268 1383
XTY,87,7,21 644 1382
XTY,86,6,21 644 1381
XTY,85,5,21 644 1380
XTY,84,4,21 644 1379
XTY,83,3,21 644 1378
XTY,82,2,21 644 1377
XTY,81,1,21 644 1376
XTY,80,0,21 644 1375
SPMM,95,96,0 273 1374
SPMM,88,99,0 273 1373
SPMM,88,100,0 273 1372
SPMM,88,101,0 273 1371
XTY,88,8,21 686 1370
XTY,95,15,21 686 1369
XTY,94,14,21 686 1368
XTY,93,13,21 686 1367
XTY,92,12,21 686 1366
XTY,91,11,21 686 1365
XTY,90,10,21 686 1364
XTY,89,9,21 686 1363
XY,104,20 89 1362
XY,105,20 89 1361
XY,106,20 89 1360
XY,107,20 89 1359
XY,108,20 89 1358
XY,109,20 89 1357
XY,110,20 89 1356
XY,111,20 89 1355
DLACPY,111,21 223 1354
DLACPY,110,21 223 1353
DLACPY,109,21 223 1352
DLACPY,108,21 223 1351
DLACPY,107,21 223 1350
DLACPY,106,21 223 1349
DLACPY,105,21 223 1348
DLACPY,104,21 223 1347
SPMM,112,111,0 358 1346
SPMM,34,104,0 248 1345
SPMM,35,104,0 248 1344
SPMM,35,105,0 248 1343
SPMM,36,105,0 248 1342
SPMM,35,106,0 248 1341
SPMM,36,106,0 248 1340
SPMM,35,107,0 248 1339
SPMM,36,107,0 248 1338
SPMM,35,108,0 248 1337
SPMM,36,108,0 248 1336
SPMM,35,109,0 248 1335
SPMM,36,109,0 248 1334
SPMM,36,110,0 248 1333
SPMM,102,104,0 238 1332
SPMM,103,104,0 238 1331
SPMM,103,105,0 238 1330
SPMM,103,106,0 238 1329
SPMM,104,104,0 228 1328
SPMM,105,104,0 228 1327
SPMM,106,104,0 228 1326
SPMM,107,104,0 228 1325
SPMM,104,105,0 228 1324
SPMM,105,105,0 228 1323
SPMM,106,105,0 228 1322
SPMM,107,105,0 228 1321
SPMM,108,105,0 228 1320
SPMM,104,106,0 228 1319
SPMM,105,106,0 228 1318
SPMM,106,106,0 228 1317
SPMM,107,106,0 228 1316
SPMM,108,106,0 228 1315
SPMM,104,107,0 228 1314
SPMM,105,107,0 228 1313
SPMM,106,107,0 228 1312
SPMM,107,107,0 228 1311
SPMM,108,107,0 228 1310
SPMM,109,107,0 228 1309
SPMM,105,108,0 228 1308
SPMM,106,108,0 228 1307
SPMM,107,108,0 228 1306
SPMM,108,108,0 228 1305
SPMM,109,108,0 228 1304
SPMM,110,108,0 228 1303
SPMM,107,109,0 228 1302
SPMM,108,109,0 228 1301
SPMM,109,109,0 228 1300
SPMM,110,109,0 228 1299
SPMM,108,110,0 228 1298
SPMM,109,110,0 228 1297
SPMM,110,110,0 228 1296
SPMM,111,110,0 228 1295
SPMM,110,111,0 228 1294
SPMM,111,111,0 228 1293
XY,112,20 79 1292
XY,113,20 79 1291
XY,114,20 79 1290
XY,115,20 79 1289
XY,116,20 79 1288
XY,117,20 79 1287
XY,118,20 79 1286
XY,119,20 79 1285
DLACPY,119,21 104 1284
DLACPY,118,21 104 1283
DLACPY,117,21 104 1282
DLACPY,116,21 104 1281
DLACPY,115,21 104 1280
DLACPY,114,21 104 1279
DLACPY,113,21 104 1278
DLACPY,112,21 104 1277
SPMM,120,119,0 202 1276
SPMM,72,118,0 119 1275
SPMM,72,119,0 119 1274
SPMM,73,119,0 119 1273
SPMM,74,119,0 119 1272
SPMM,64,113,0 134 1271
SPMM,64,114,0 134 1270
SPMM,65,114,0 134 1269
SPMM,66,114,0 134 1268
SPMM,64,115,0 134 1267
SPMM,65,115,0 134 1266
SPMM,66,115,0 134 1265
SPMM,67,115,0 134 1264
SPMM,66,116,0 134 1263
SPMM,67,116,0 134 1262
SPMM,68,116,0 134 1261
SPMM,69,116,0 134 1260
SPMM,67,117,0 134 1259
SPMM,68,117,0 134 1258
SPMM,69,117,0 134 1257
SPMM,70,117,0 134 1256
SPMM,69,118,0 134 1255
SPMM,70,118,0 134 1254
SPMM,71,118,0 134 1253
SPMM,71,119,0 134 1252
SPMM,111,112,0 343 1251
SPMM,112,112,0 109 1250
SPMM,113,112,0 109 1249
SPMM,112,113,0 109 1248
SPMM,113,113,0 109 1247
SPMM,114,113,0 109 1246
SPMM,113,114,0 109 1245
SPMM,114,114,0 109 1244
SPMM,115,114,0 109 1243
SPMM,114,115,0 109 1242
SPMM,115,115,0 109 1241
SPMM,116,115,0 109 1240
SPMM,115,116,0 109 1239
SPMM,116,116,0 109 1238
SPMM,117,116,0 109 1237
SPMM,116,117,0 109 1236
SPMM,117,117,0 109 1235
SPMM,118,117,0 109 1234
SPMM,117,118,0 109 1233
SPMM,118,118,0 109 1232
SPMM,119,118,0 109 1231
SPMM,118,119,0 109 1230
SPMM,119,119,0 109 1229
XY,120,20 54 1228
XY,121,20 54 1227
XY,122,20 54 1226
XY,123,20 54 1225
DLACPY,123,21 124 1224
DLACPY,122,21 124 1223
DLACPY,121,21 124 1222
DLACPY,120,21 124 1221
SPMM,72,120,0 253 1220
SPMM,73,120,0 253 1219
SPMM,74,120,0 253 1218
SPMM,75,120,0 253 1217
SPMM,74,121,0 253 1216
SPMM,75,121,0 253 1215
SPMM,76,121,0 253 1214
SPMM,77,121,0 253 1213
SPMM,76,122,0 253 1212
SPMM,77,122,0 253 1211
SPMM,78,122,0 253 1210
SPMM,77,123,0 253 1209
SPMM,78,123,0 253 1208
SPMM,119,120,0 293 1207
SPMM,120,120,0 129 1206
SPMM,121,120,0 129 1205
SPMM,120,121,0 129 1204
SPMM,121,121,0 129 1203
SPMM,122,121,0 129 1202
SPMM,121,122,0 129 1201
SPMM,122,122,0 129 1200
SPMM,123,122,0 129 1199
SPMM,122,123,0 129 1198
SPMM,123,123,0 129 1197
XTY,123,3,21 203 1196
XTY,122,2,21 203 1195
XTY,121,1,21 203 1194
XTY,120,0,21 203 1193
SETZERO,31,1 1 1192
SETZERO,30,1 1 1191
SETZERO,29,1 1 1190
SETZERO,28,1 1 1189
SETZERO,27,1 1 1188
SETZERO,26,1 1 1187
SETZERO,25,1 1 1186
SETZERO,24,1 1 1185
SETZERO,23,1 1 1184
SETZERO,22,1 1 1183
SETZERO,21,1 1 1182
SETZERO,20,1 1 1181
SETZERO,19,1 1 1180
SETZERO,18,1 1 1179
SETZERO,17,1 1 1178
SETZERO,16,1 1 1177
SPMM,30,40,0 615 1176
SPMM,30,41,0 615 1175
SPMM,30,42,0 615 1174
SPMM,30,43,0 615 1173
SPMM,30,44,0 615 1172
SPMM,30,45,0 615 1171
SPMM,30,46,0 615 1170
SPMM,30,47,0 615 1169
SPMM,31,45,0 615 1168
SPMM,31,46,0 615 1167
SPMM,31,47,0 615 1166
SPMM,24,1,0 373 1165
SPMM,24,5,0 373 1164
SPMM,25,1,0 373 1163
SPMM,25,2,0 373 1162
SPMM,25,5,0 373 1161
SPMM,25,6,0 373 1160
SPMM,26,1,0 373 1159
SPMM,26,2,0 373 1158
SPMM,26,5,0 373 1157
SPMM,26,6,0 373 1156
SPMM,27,0,0 373 1155
SPMM,27,2,0 373 1154
SPMM,27,3,0 373 1153
SPMM,27,6,0 373 1152
SPMM,28,0,0 373 1151
SPMM,28,1,0 373 1150
SPMM,28,2,0 373 1149
SPMM,28,3,0 373 1148
SPMM,28,4,0 373 1147
SPMM,29,1,0 373 1146
SPMM,29,2,0 373 1145
SPMM,29,4,0 373 1144
SPMM,29,5,0 373 1143
SPMM,29,6,0 373 1142
SPMM,30,2,0 373 1141
SPMM,30,5,0 373 1140
SPMM,30,6,0 373 1139
SPMM,30,7,0 373 1138
SPMM,31,7,0 373 1137
SPMM,24,9,0 169 1136
SPMM,24,11,0 169 1135
SPMM,24,12,0 169 1134
SPMM,25,9,0 169 1133
SPMM,25,12,0 169 1132
SPMM,26,9,0 169 1131
SPMM,26,10,0 169 1130
SPMM,26,12,0 169 1129
SPMM,27,9,0 169 1128
SPMM,27,10,0 169 1127
SPMM,27,12,0 169 1126
SPMM,27,13,0 169 1125
SPMM,27,14,0 169 1124
SPMM,27,15,0 169 1123
SPMM,28,13,0 169 1122
SPMM,28,14,0 169 1121
SPMM,28,15,0 169 1120
SPMM,30,8,0 169 1119
SPMM,30,10,0 169 1118
SPMM,30,11,0 169 1117
SPMM,30,12,0 169 1116
SPMM,30,13,0 169 1115
SPMM,30,14,0 169 1114
SPMM,30,15,0 169 1113
SPMM,31,8,0 169 1112
SPMM,31,9,0 169 1111
SPMM,31,10,0 169 1110
SPMM,31,11,0 169 1109
SPMM,31,12,0 169 1108
SPMM,24,23,0 308 1107
SPMM,28,16,0 308 1106
SPMM,28,17,0 308 1105
SPMM,28,18,0 308 1104
SPMM,28,19,0 308 1103
SPMM,28,20,0 308 1102
SPMM,28,21,0 308 1101
SPMM,29,19,0 308 1100
SPMM,29,20,0 308 1099
SPMM,29,21,0 308 1098
SPMM,29,22,0 308 1097
SPMM,29,23,0 308 1096
SPMM,30,16,0 308 1095
SPMM,30,17,0 308 1094
SPMM,30,18,0 308 1093
SPMM,30,19,0 308 1092
SPMM,30,20,0 308 1091
SPMM,30,21,0 308 1090
SPMM,31,19,0 308 1089
SPMM,31,20,0 308 1088
SPMM,31,21,0 308 1087
SPMM,31,22,0 308 1086
SPMM,31,23,0 308 1085
SPMM,24,24,0 555 1084
SPMM,24,25,0 555 1083
SPMM,24,29,0 555 1082
SPMM,24,31,0 555 1081
SPMM,25,24,0 555 1080
SPMM,25,25,0 555 1079
SPMM,25,26,0 555 1078
SPMM,25,29,0 555 1077
SPMM,25,31,0 555 1076
SPMM,26,25,0 555 1075
SPMM,26,26,0 555 1074
SPMM,26,27,0 555 1073
SPMM,26,29,0 555 1072
SPMM,26,30,0 555 1071
SPMM,26,31,0 555 1070
SPMM,27,26,0 555 1069
SPMM,27,27,0 555 1068
SPMM,27,28,0 555 1067
SPMM,27,29,0 555 1066
SPMM,27,30,0 555 1065
SPMM,27,31,0 555 1064
SPMM,28,27,0 555 1063
SPMM,28,28,0 555 1062
SPMM,28,29,0 555 1061
SPMM,29,24,0 555 1060
SPMM,29,25,0 555 1059
SPMM,29,26,0 555 1058
SPMM,29,27,0 555 1057
SPMM,29,28,0 555 1056
SPMM,29,29,0 555 1055
SPMM,29,30,0 555 1054
SPMM,29,31,0 555 1053
SPMM,30,26,0 555 1052
SPMM,30,27,0 555 1051
SPMM,30,29,0 555 1050
SPMM,30,30,0 555 1049
SPMM,30,31,0 555 1048
SPMM,31,24,0 555 1047
SPMM,31,25,0 555 1046
SPMM,31,26,0 555 1045
SPMM,31,27,0 555 1044
SPMM,31,29,0 555 1043
SPMM,31,30,0 555 1042
SPMM,31,31,0 555 1041
SPMM,24,32,0 494 1040
SPMM,25,32,0 494 1039
SPMM,26,32,0 494 1038
SPMM,27,32,0 494 1037
SPMM,29,32,0 494 1036
SPMM,30,32,0 494 1035
SPMM,31,32,0 494 1034
SPMM,24,85,0 673 1033
SPMM,27,80,0 673 1032
SPMM,28,80,0 673 1031
SPMM,28,82,0 673 1030
SPMM,28,83,0 673 1029
SPMM,28,84,0 673 1028
SPMM,29,83,0 673 1027
SPMM,29,84,0 673 1026
SPMM,29,85,0 673 1025
SPMM,31,85,0 673 1024
SPMM,23,32,0 605 1023
SPMM,16,0,0 378 1022
SPMM,16,3,0 378 1021
SPMM,16,6,0 378 1020
SPMM,16,7,0 378 1019
SPMM,17,0,0 378 1018
SPMM,17,3,0 378 1017
SPMM,17,7,0 378 1016
SPMM,18,0,0 378 1015
SPMM,18,1,0 378 1014
SPMM,18,3,0 378 1013
SPMM,18,4,0 378 1012
SPMM,18,7,0 378 1011
SPMM,19,0,0 378 1010
SPMM,19,1,0 378 1009
SPMM,19,3,0 378 1008
SPMM,19,4,0 378 1007
SPMM,19,7,0 378 1006
SPMM,20,1,0 378 1005
SPMM,20,4,0 378 1004
SPMM,20,7,0 378 1003
SPMM,21,1,0 378 1002
SPMM,21,4,0 378 1001
SPMM,21,5,0 378 1000
SPMM,22,1,0 378 999
SPMM,22,4,0 378 998
SPMM,22,5,0 378 997
SPMM,23,1,0 378 996
SPMM,23,4,0 378 995
SPMM,23,5,0 378 994
SPMM,16,10,0 258 993
SPMM,16,11,0 258 992
SPMM,16,15,0 258 991
SPMM,17,10,0 258 990
SPMM,17,11,0 258 989
SPMM,18,11,0 258 988
SPMM,19,8,0 258 987
SPMM,19,11,0 258 986
SPMM,20,8,0 258 985
SPMM,20,11,0 258 984
SPMM,21,8,0 258 983
SPMM,21,11,0 258 982
SPMM,22,8,0 258 981
SPMM,22,9,0 258 980
SPMM,22,11,0 258 979
SPMM,23,8,0 258 978
SPMM,23,9,0 258 977
SPMM,23,11,0 258 976
SPMM,23,12,0 258 975
SPMM,16,16,0 418 974
SPMM,16,17,0 418 973
SPMM,17,16,0 418 972
SPMM,17,17,0 418 971
SPMM,17,18,0 418 970
SPMM,18,17,0 418 969
SPMM,18,18,0 418 968
SPMM,18,19,0 418 967
SPMM,19,18,0 418 966
SPMM,19,19,0 418 965
SPMM,19,20,0 418 964
SPMM,20,19,0 418 963
SPMM,20,20,0 418 962
SPMM,20,21,0 418 961
SPMM,21,20,0 418 960
SPMM,21,21,0 418 959
SPMM,21,22,0 418 958
SPMM,22,21,0 418 957
SPMM,22,22,0 418 956
SPMM,22,23,0 418 955
SPMM,23,22,0 418 954
SPMM,23,23,0 418 953
SPMM,16,28,0 540 952
SPMM,16,30,0 540 951
SPMM,17,28,0 540 950
SPMM,17,30,0 540 949
SPMM,18,28,0 540 948
SPMM,18,30,0 540 947
SPMM,19,28,0 540 946
SPMM,19,29,0 540 945
SPMM,19,30,0 540 944
SPMM,19,31,0 540 943
SPMM,20,28,0 540 942
SPMM,20,29,0 540 941
SPMM,20,30,0 540 940
SPMM,20,31,0 540 939
SPMM,21,28,0 540 938
SPMM,21,29,0 540 937
SPMM,21,30,0 540 936
SPMM,21,31,0 540 935
SPMM,22,29,0 540 934
SPMM,22,31,0 540 933
SPMM,23,24,0 540 932
SPMM,23,29,0 540 931
SPMM,23,31,0 540 930
SPMM,16,42,0 448 929
SPMM,16,43,0 448 928
SPMM,16,44,0 448 927
SPMM,17,43,0 448 926
SPMM,17,44,0 448 925
SPMM,17,45,0 448 924
SPMM,18,44,0 448 923
SPMM,18,45,0 448 922
SPMM,18,46,0 448 921
SPMM,19,44,0 448 920
SPMM,19,45,0 448 919
SPMM,19,46,0 448 918
SPMM,19,47,0 448 917
SPMM,20,45,0 448 916
SPMM,20,46,0 448 915
SPMM,20,47,0 448 914
SPMM,21,46,0 448 913
SPMM,21,47,0 448 912
SPMM,22,47,0 448 911
SPMM,23,47,0 448 910
SPMM,16,80,0 655 909
SPMM,16,82,0 655 908
SPMM,16,83,0 655 907
SPMM,17,82,0 655 906
SPMM,17,83,0 655 905
SPMM,18,82,0 655 904
SPMM,18,83,0 655 903
SPMM,19,83,0 655 902
SPMM,19,84,0 655 901
SPMM,20,83,0 655 900
SPMM,20,84,0 655 899
SPMM,21,83,0 655 898
SPMM,21,84,0 655 897
SPMM,22,84,0 655 896
SPMM,22,85,0 655 895
SPMM,23,84,0 655 894
SPMM,23,85,0 655 893
SETZERO,63,1 0 892
SETZERO,62,1 0 891
SETZERO,61,1 0 890
SETZERO,60,1 0 889
SETZERO,59,1 0 888
SETZERO,58,1 0 887
SETZERO,57,1 0 886
SETZERO,56,1 0 885
SETZERO,55,1 0 884
SETZERO,54,1 0 883
SETZERO,53,1 0 882
SETZERO,52,1 0 881
SETZERO,51,1 0 880
SETZERO,50,1 0 879
SETZERO,49,1 0 878
SETZERO,48,1 0 877
SPMM,63,64,0 403 876
SPMM,60,40,0 590 875
SPMM,61,40,0 590 874
SPMM,61,41,0 590 873
SPMM,62,40,0 590 872
SPMM,62,41,0 590 871
SPMM,62,42,0 590 870
SPMM,63,41,0 590 869
SPMM,63,42,0 590 868
SPMM,63,43,0 590 867
SPMM,59,112,0 114 866
SPMM,60,112,0 114 865
SPMM,61,112,0 114 864
SPMM,61,113,0 114 863
SPMM,62,112,0 114 862
SPMM,62,113,0 114 861
SPMM,62,114,0 114 860
SPMM,63,113,0 114 859
SPMM,63,114,0 114 858
SPMM,57,36,0 631 857
SPMM,57,37,0 631 856
SPMM,58,36,0 631 855
SPMM,58,37,0 631 854
SPMM,58,38,0 631 853
SPMM,59,37,0 631 852
SPMM,59,38,0 631 851
SPMM,59,39,0 631 850
SPMM,60,38,0 631 849
SPMM,60,39,0 631 848
SPMM,61,39,0 631 847
DLACPY,63,21 423 846
SPMM,62,63,0 423 845
SPMM,63,63,0 423 844
DLACPY,62,21 423 843
SPMM,61,62,0 423 842
SPMM,62,62,0 423 841
SPMM,63,62,0 423 840
DLACPY,61,21 423 839
SPMM,60,61,0 423 838
SPMM,61,61,0 423 837
SPMM,62,61,0 423 836
DLACPY,60,21 423 835
SPMM,59,60,0 423 834
SPMM,60,60,0 423 833
SPMM,61,60,0 423 832
DLACPY,59,21 423 831
SPMM,58,59,0 423 830
SPMM,59,59,0 423 829
SPMM,60,59,0 423 828
DLACPY,58,21 423 827
SPMM,57,58,0 423 826
SPMM,58,58,0 423 825
SPMM,59,58,0 423 824
DLACPY,57,21 423 823
SPMM,56,57,0 423 822
SPMM,57,57,0 423 821
SPMM,58,57,0 423 820
DLACPY,56,21 423 819
SPMM,56,56,0 423 818
SPMM,57,56,0 423 817
SPMM,64,63,0 459 816
SPMM,40,60,0 464 815
SPMM,40,61,0 464 814
SPMM,41,61,0 464 813
SPMM,40,62,0 464 812
SPMM,41,62,0 464 811
SPMM,42,62,0 464 810
SPMM,41,63,0 464 809
SPMM,42,63,0 464 808
SPMM,43,63,0 464 807
SPMM,112,59,0 453 806
SPMM,112,60,0 453 805
SPMM,112,61,0 453 804
SPMM,113,61,0 453 803
SPMM,112,62,0 453 802
SPMM,113,62,0 453 801
SPMM,114,62,0 453 800
SPMM,113,63,0 453 799
SPMM,114,63,0 453 798
XTY,114,14,21 454 797
XTY,113,13,21 454 796
XTY,112,12,21 454 795
XTY,119,19,21 454 794
XTY,118,18,21 454 793
XTY,117,17,21 454 792
XTY,116,16,21 454 791
XTY,115,15,21 454 790
SPMM,36,57,0 428 789
SPMM,37,57,0 428 788
SPMM,36,58,0 428 787
SPMM,37,58,0 428 786
SPMM,38,58,0 428 785
SPMM,37,59,0 428 784
SPMM,38,59,0 428 783
SPMM,39,59,0 428 782
SPMM,38,60,0 428 781
SPMM,39,60,0 428 780
SPMM,39,61,0 428 779
XTY,39,19,21 680 778
XTY,38,18,21 680 777
XTY,37,17,21 680 776
XTY,36,16,21 680 775
XTY,35,15,21 680 774
XTY,34,14,21 680 773
XTY,33,13,21 680 772
XTY,32,12,21 680 771
SPMM,55,56,0 438 770
SPMM,76,56,0 433 769
SPMM,77,56,0 433 768
SPMM,78,56,0 433 767
SPMM,77,57,0 433 766
SPMM,78,57,0 433 765
SPMM,103,56,0 469 764
SPMM,56,76,0 197 763
SPMM,56,77,0 197 762
SPMM,56,78,0 197 761
SPMM,57,77,0 197 760
SPMM,57,78,0 197 759
SPMM,56,103,0 283 758
SPMM,56,104,0 233 757
SPMM,56,105,0 233 756
SPMM,56,106,0 233 755
SPMM,56,107,0 233 754
SPMM,56,108,0 233 753
SPMM,56,109,0 233 752
SPMM,56,110,0 233 751
SPMM,57,106,0 233 750
SPMM,57,107,0 233 749
SPMM,57,108,0 233 748
SPMM,57,109,0 233 747
SPMM,57,110,0 233 746
SPMM,57,111,0 233 745
SPMM,58,110,0 233 744
SPMM,58,111,0 233 743
SPMM,59,110,0 233 742
SPMM,59,111,0 233 741
SPMM,60,111,0 233 740
SPMM,54,101,0 298 739
SPMM,54,102,0 298 738
SPMM,54,103,0 298 737
SPMM,55,101,0 298 736
SPMM,55,102,0 298 735
SPMM,55,103,0 298 734
SPMM,54,104,0 353 733
SPMM,55,104,0 353 732
SPMM,55,105,0 353 731
SPMM,55,106,0 353 730
SPMM,55,107,0 353 729
SPMM,55,108,0 353 728
SPMM,50,72,0 187 727
SPMM,51,72,0 187 726
SPMM,51,73,0 187 725
SPMM,52,72,0 187 724
SPMM,52,73,0 187 723
SPMM,52,74,0 187 722
SPMM,53,73,0 187 721
SPMM,53,74,0 187 720
SPMM,53,75,0 187 719
SPMM,54,74,0 187 718
SPMM,54,75,0 187 717
SPMM,54,76,0 187 716
SPMM,55,75,0 187 715
SPMM,55,76,0 187 714
SPMM,55,77,0 187 713
SPMM,48,21,0 328 712
SPMM,48,22,0 328 711
SPMM,48,23,0 328 710
SPMM,49,22,0 328 709
SPMM,49,23,0 328 708
SPMM,48,24,0 575 707
SPMM,48,31,0 575 706
SPMM,49,24,0 575 705
SPMM,49,25,0 575 704
SPMM,49,26,0 575 703
SPMM,49,31,0 575 702
SPMM,50,24,0 575 701
SPMM,50,25,0 575 700
SPMM,50,26,0 575 699
SPMM,50,27,0 575 698
SPMM,50,31,0 575 697
SPMM,51,25,0 575 696
SPMM,51,26,0 575 695
SPMM,51,27,0 575 694
SPMM,51,31,0 575 693
SPMM,48,47,0 625 692
DLACPY,55,21 499 691
SPMM,54,55,0 499 690
SPMM,55,55,0 499 689
DLACPY,54,21 499 688
SPMM,53,54,0 499 687
SPMM,54,54,0 499 686
SPMM,55,54,0 499 685
DLACPY,53,21 499 684
SPMM,52,53,0 499 683
SPMM,53,53,0 499 682
SPMM,54,53,0 499 681
DLACPY,52,21 499 680
SPMM,51,52,0 499 679
SPMM,52,52,0 499 678
SPMM,53,52,0 499 677
DLACPY,51,21 499 676
SPMM,50,51,0 499 675
SPMM,51,51,0 499 674
SPMM,52,51,0 499 673
SPMM,71,51,0 499 672
DLACPY,50,21 499 671
SPMM,49,50,0 499 670
SPMM,50,50,0 499 669
SPMM,51,50,0 499 668
SPMM,70,50,0 499 667
SPMM,71,50,0 499 666
DLACPY,49,21 499 665
SPMM,48,49,0 499 664
SPMM,49,49,0 499 663
SPMM,50,49,0 499 662
SPMM,69,49,0 499 661
SPMM,70,49,0 499 660
SPMM,71,49,0 499 659
DLACPY,48,21 499 658
SPMM,48,48,0 499 657
SPMM,49,48,0 499 656
SPMM,68,48,0 499 655
SPMM,69,48,0 499 654
SPMM,70,48,0 499 653
XTY,70,10,21 515 652
XTY,69,9,21 515 651
XTY,68,8,21 515 650
XTY,71,11,21 515 649
XTY,64,4,21 515 648
XTY,67,7,21 515 647
XTY,66,6,21 515 646
XTY,65,5,21 515 645
SPMM,56,55,0 504 644
XTY,56,16,21 632 643
XTY,60,0,21 632 642
XTY,59,19,21 632 641
XTY,58,18,21 632 640
XTY,57,17,21 632 639
XTY,61,1,21 632 638
XTY,62,2,21 632 637
XTY,63,3,21 632 636
SPMM,104,54,0 514 635
SPMM,104,55,0 514 634
SPMM,105,55,0 514 633
SPMM,106,55,0 514 632
SPMM,107,55,0 514 631
SPMM,108,55,0 514 630
SPMM,104,56,0 585 629
XTY,104,4,21 585 628
SPMM,105,56,0 585 627
XTY,105,5,21 585 626
SPMM,106,56,0 585 625
SPMM,107,56,0 585 624
SPMM,108,56,0 585 623
SPMM,109,56,0 585 622
SPMM,110,56,0 585 621
SPMM,106,57,0 585 620
XTY,106,6,21 585 619
SPMM,107,57,0 585 618
XTY,107,7,21 585 617
SPMM,108,57,0 585 616
XTY,108,8,21 585 615
SPMM,109,57,0 585 614
XTY,109,9,21 585 613
SPMM,110,57,0 585 612
SPMM,111,57,0 585 611
SPMM,110,58,0 585 610
SPMM,111,58,0 585 609
SPMM,110,59,0 585 608
XTY,110,10,21 585 607
SPMM,111,59,0 585 606
SPMM,111,60,0 585 605
XTY,111,11,21 585 604
SPMM,101,53,0 509 603
SPMM,102,53,0 509 602
SPMM,101,54,0 509 601
SPMM,102,54,0 509 600
SPMM,103,54,0 509 599
SPMM,101,55,0 509 598
SPMM,102,55,0 509 597
SPMM,103,55,0 509 596
XTY,103,3,21 650 595
XTY,102,2,21 650 594
XTY,101,1,21 650 593
XTY,97,17,21 650 592
XTY,96,16,21 650 591
XTY,98,18,21 650 590
XTY,99,19,21 650 589
XTY,100,0,21 650 588
SPMM,72,50,0 600 587
SPMM,72,51,0 600 586
SPMM,73,51,0 600 585
SPMM,72,52,0 600 584
SPMM,73,52,0 600 583
SPMM,74,52,0 600 582
SPMM,73,53,0 600 581
SPMM,74,53,0 600 580
SPMM,75,53,0 600 579
SPMM,74,54,0 600 578
SPMM,75,54,0 600 577
SPMM,76,54,0 600 576
SPMM,75,55,0 600 575
SPMM,76,55,0 600 574
SPMM,77,55,0 600 573
XTY,77,17,21 662 572
XTY,76,16,21 662 571
XTY,75,15,21 662 570
XTY,74,14,21 662 569
XTY,73,13,21 662 568
XTY,72,12,21 662 567
XTY,78,18,21 662 566
XTY,79,19,21 662 565
SPMM,21,48,0 565 564
SPMM,22,48,0 565 563
SPMM,23,48,0 565 562
SPMM,22,49,0 565 561
SPMM,23,49,0 565 560
XTY,23,3,21 656 559
XTY,22,2,21 656 558
XTY,21,1,21 656 557
XTY,20,0,21 656 556
XTY,19,19,21 656 555
XTY,18,18,21 656 554
XTY,17,17,21 656 553
XTY,16,16,21 656 552
SPMM,24,48,0 595 551
SPMM,31,48,0 595 550
SPMM,24,49,0 595 549
SPMM,25,49,0 595 548
SPMM,26,49,0 595 547
SPMM,31,49,0 595 546
SPMM,24,50,0 595 545
SPMM,25,50,0 595 544
SPMM,26,50,0 595 543
SPMM,27,50,0 595 542
SPMM,31,50,0 595 541
SPMM,25,51,0 595 540
SPMM,26,51,0 595 539
SPMM,27,51,0 595 538
SPMM,31,51,0 595 537
SPMM,26,52,0 595 536
SPMM,27,52,0 595 535
SPMM,31,52,0 595 534
XTY,31,11,21 674 533
XTY,27,7,21 674 532
XTY,26,6,21 674 531
XTY,25,5,21 674 530
XTY,24,4,21 674 529
XTY,29,9,21 674 528
XTY,28,8,21 674 527
XTY,30,10,21 674 526
SPMM,47,48,0 691 525
XTY,47,7,21 692 524
XTY,43,3,21 692 523
XTY,42,2,21 692 522
XTY,41,1,21 692 521
XTY,40,0,21 692 520
XTY,46,6,21 692 519
XTY,45,5,21 692 518
XTY,44,4,21 692 517
SPMM,48,68,0 408 516
SPMM,48,69,0 408 515
SPMM,48,70,0 408 514
SPMM,49,69,0 408 513
SPMM,49,70,0 408 512
SPMM,49,71,0 408 511
SPMM,50,70,0 408 510
SPMM,50,71,0 408 509
SPMM,51,71,0 408 508
XTY,51,11,21 626 507
XTY,50,10,21 626 506
XTY,49,9,21 626 505
XTY,48,8,21 626 504
XTY,52,12,21 626 503
XTY,53,13,21 626 502
XTY,54,14,21 626 501
XTY,55,15,21 626 500
RED,XAXBUF,0 693 499
SPEUPDATE,XAX 693 498
EIGEN 694 497
XY,88,22 694 496
DLACPY,88,23 694 495
XY,89,22 694 494
DLACPY,89,23 694 493
XY,90,22 694 492
DLACPY,90,23 694 491
XY,91,22 694 490
DLACPY,91,23 694 489
XY,92,22 694 488
DLACPY,92,23 694 487
XY,93,22 694 486
DLACPY,93,23 694 485
XY,94,22 694 484
DLACPY,94,23 694 483
XY,95,22 694 482
DLACPY,95,23 694 481
XY,0,21 712 480
DLACPY,0,22 712 479
XY,1,21 712 478
DLACPY,1,22 712 477
XY,2,21 712 476
DLACPY,2,22 712 475
XY,3,21 712 474
DLACPY,3,22 712 473
XY,4,21 712 472
DLACPY,4,22 712 471
XY,5,21 712 470
DLACPY,5,22 712 469
XY,6,21 712 468
DLACPY,6,22 712 467
XY,7,21 712 466
DLACPY,7,22 712 465
XY,8,21 709 464
DLACPY,8,22 709 463
XY,9,21 709 462
DLACPY,9,22 709 461
XY,10,21 709 460
DLACPY,10,22 709 459
XY,11,21 709 458
DLACPY,11,22 709 457
XY,12,21 709 456
DLACPY,12,22 709 455
XY,13,21 709 454
DLACPY,13,22 709 453
XY,14,21 709 452
DLACPY,14,22 709 451
XY,15,21 709 450
DLACPY,15,22 709 449
XY,16,21 711 448
DLACPY,16,22 711 447
XY,17,21 711 446
DLACPY,17,22 711 445
XY,18,21 711 444
DLACPY,18,22 711 443
XY,19,21 711 442
DLACPY,19,22 711 441
XY,20,21 711 440
DLACPY,20,22 711 439
XY,21,21 711 438
DLACPY,21,22 711 437
XY,22,21 711 436
DLACPY,22,22 711 435
XY,23,21 711 434
DLACPY,23,22 711 433
XY,24,21 725 432
DLACPY,24,22 725 431
XY,25,21 725 430
DLACPY,25,22 725 429
XY,26,21 725 428
DLACPY,26,22 725 427
XY,27,21 725 426
DLACPY,27,22 725 425
XY,28,21 725 424
DLACPY,28,22 725 423
XY,29,21 725 422
DLACPY,29,22 725 421
XY,30,21 725 420
DLACPY,30,22 725 419
XY,31,21 725 418
DLACPY,31,22 725 417
XY,32,21 729 416
DLACPY,32,22 729 415
XY,33,21 729 414
DLACPY,33,22 729 413
XY,34,21 729 412
DLACPY,34,22 729 411
XY,35,21 729 410
DLACPY,35,22 729 409
XY,36,21 729 408
DLACPY,36,22 729 407
XY,37,21 729 406
DLACPY,37,22 729 405
XY,38,21 729 404
DLACPY,38,22 729 403
XY,39,21 729 402
DLACPY,39,22 729 401
XY,40,21 696 400
DLACPY,40,22 696 399
XY,41,21 696 398
DLACPY,41,22 696 397
XY,42,21 696 396
DLACPY,42,22 696 395
XY,43,21 696 394
DLACPY,43,22 696 393
XY,44,21 696 392
DLACPY,44,22 696 391
XY,45,21 696 390
DLACPY,45,22 696 389
XY,46,21 696 388
DLACPY,46,22 696 387
XY,47,21 696 386
DLACPY,47,22 696 385
XY,48,21 728 384
DLACPY,48,22 728 383
XY,49,21 728 382
DLACPY,49,22 728 381
XY,50,21 728 380
DLACPY,50,22 728 379
XY,51,21 728 378
DLACPY,51,22 728 377
XY,52,21 728 376
DLACPY,52,22 728 375
XY,53,21 728 374
DLACPY,53,22 728 373
XY,54,21 728 372
DLACPY,54,22 728 371
XY,55,21 728 370
DLACPY,55,22 728 369
XY,56,21 720 368
XY,57,21 720 367
XY,58,21 720 366
XY,59,21 720 365
XY,60,21 720 364
XY,61,21 720 363
XY,62,21 720 362
XY,63,21 720 361
XY,64,21 716 360
DLACPY,64,22 716 359
XY,65,21 716 358
DLACPY,65,22 716 357
XY,66,21 716 356
DLACPY,66,22 716 355
XY,67,21 716 354
DLACPY,67,22 716 353
XY,68,21 716 352
DLACPY,68,22 716 351
XY,69,21 716 350
DLACPY,69,22 716 349
XY,70,21 716 348
DLACPY,70,22 716 347
XY,71,21 716 346
DLACPY,71,22 716 345
XY,72,21 704 344
XY,73,21 704 343
XY,74,21 704 342
XY,75,21 704 341
XY,76,21 704 340
XY,77,21 704 339
XY,78,21 704 338
XY,79,21 704 337
XY,80,21 714 336
DLACPY,80,22 714 335
XY,81,21 714 334
DLACPY,81,22 714 333
XY,82,21 714 332
DLACPY,82,22 714 331
XY,83,21 714 330
DLACPY,83,22 714 329
XY,84,21 714 328
DLACPY,84,22 714 327
XY,85,21 714 326
DLACPY,85,22 714 325
XY,86,21 714 324
DLACPY,86,22 714 323
XY,87,21 714 322
DLACPY,87,22 714 321
XY,88,21 718 320
DLACPY,88,22 718 319
XY,89,21 718 318
DLACPY,89,22 718 317
XY,90,21 718 316
DLACPY,90,22 718 315
XY,91,21 718 314
DLACPY,91,22 718 313
XY,92,21 718 312
DLACPY,92,22 718 311
XY,93,21 718 310
DLACPY,93,22 718 309
XY,94,21 718 308
DLACPY,94,22 718 307
XY,95,21 718 306
DLACPY,95,22 718 305
XY,96,21 727 304
DLACPY,96,22 727 303
XY,97,21 727 302
DLACPY,97,22 727 301
XY,98,21 727 300
DLACPY,98,22 727 299
XY,99,21 727 298
DLACPY,99,22 727 297
XY,100,21 727 296
DLACPY,100,22 727 295
XY,101,21 727 294
DLACPY,101,22 727 293
XY,102,21 727 292
DLACPY,102,22 727 291
XY,103,21 727 290
DLACPY,103,22 727 289
XY,104,21 713 288
XY,105,21 713 287
XY,106,21 713 286
XY,107,21 713 285
XY,108,21 713 284
XY,109,21 713 283
XY,110,21 713 282
XY,111,21 713 281
DLACPY,111,22 717 280
DLACPY,110,22 717 279
DLACPY,109,22 717 278
DLACPY,108,22 717 277
DLACPY,107,22 717 276
DLACPY,106,22 717 275
DLACPY,105,22 717 274
DLACPY,104,22 717 273
XY,112,21 715 272
DLACPY,112,22 715 271
XY,113,21 715 270
DLACPY,113,22 715 269
XY,114,21 715 268
DLACPY,114,22 715 267
XY,115,21 715 266
DLACPY,115,22 715 265
XY,116,21 715 264
DLACPY,116,22 715 263
XY,117,21 715 262
DLACPY,117,22 715 261
XY,118,21 715 260
DLACPY,118,22 715 259
XY,119,21 715 258
DLACPY,119,22 715 257
XY,120,21 710 256
DLACPY,120,22 710 255
XY,121,21 710 254
DLACPY,121,22 710 253
XY,122,21 710 252
DLACPY,122,22 710 251
XY,123,21 710 250
DLACPY,123,22 710 249
XY,0,22 708 248
DLACPY,0,23 708 247
XY,1,22 708 246
DLACPY,1,23 708 245
XY,2,22 708 244
DLACPY,2,23 708 243
XY,3,22 708 242
DLACPY,3,23 708 241
XY,4,22 708 240
DLACPY,4,23 708 239
XY,5,22 708 238
DLACPY,5,23 708 237
XY,6,22 708 236
DLACPY,6,23 708 235
XY,7,22 708 234
DLACPY,7,23 708 233
XY,8,22 702 232
DLACPY,8,23 702 231
XY,9,22 702 230
DLACPY,9,23 702 229
XY,10,22 702 228
DLACPY,10,23 702 227
XY,11,22 702 226
DLACPY,11,23 702 225
XY,12,22 702 224
DLACPY,12,23 702 223
XY,13,22 702 222
DLACPY,13,23 702 221
XY,14,22 702 220
DLACPY,14,23 702 219
XY,15,22 702 218
DLACPY,15,23 702 217
XY,16,22 707 216
DLACPY,16,23 707 215
XY,17,22 707 214
DLACPY,17,23 707 213
XY,18,22 707 212
DLACPY,18,23 707 211
XY,19,22 707 210
DLACPY,19,23 707 209
XY,20,22 707 208
DLACPY,20,23 707 207
XY,21,22 707 206
DLACPY,21,23 707 205
XY,22,22 707 204
DLACPY,22,23 707 203
XY,23,22 707 202
DLACPY,23,23 707 201
XY,24,22 701 200
DLACPY,24,23 701 199
XY,25,22 701 198
DLACPY,25,23 701 197
XY,26,22 701 196
DLACPY,26,23 701 195
XY,27,22 701 194
DLACPY,27,23 701 193
XY,28,22 701 192
DLACPY,28,23 701 191
XY,29,22 701 190
DLACPY,29,23 701 189
XY,30,22 701 188
DLACPY,30,23 701 187
XY,31,22 701 186
DLACPY,31,23 701 185
XY,32,22 703 184
DLACPY,32,23 703 183
XY,33,22 703 182
DLACPY,33,23 703 181
XY,34,22 703 180
DLACPY,34,23 703 179
XY,35,22 703 178
DLACPY,35,23 703 177
XY,36,22 703 176
DLACPY,36,23 703 175
XY,37,22 703 174
DLACPY,37,23 703 173
XY,38,22 703 172
DLACPY,38,23 703 171
XY,39,22 703 170
DLACPY,39,23 703 169
XY,40,22 695 168
DLACPY,40,23 695 167
XY,41,22 695 166
DLACPY,41,23 695 165
XY,42,22 695 164
DLACPY,42,23 695 163
XY,43,22 695 162
DLACPY,43,23 695 161
XY,44,22 695 160
DLACPY,44,23 695 159
XY,45,22 695 158
DLACPY,45,23 695 157
XY,46,22 695 156
DLACPY,46,23 695 155
XY,47,22 695 154
DLACPY,47,23 695 153
XY,48,22 698 152
DLACPY,48,23 698 151
XY,49,22 698 150
DLACPY,49,23 698 149
XY,50,22 698 148
DLACPY,50,23 698 147
XY,51,22 698 146
DLACPY,51,23 698 145
XY,52,22 698 144
DLACPY,52,23 698 143
XY,53,22 698 142
DLACPY,53,23 698 141
XY,54,22 698 140
DLACPY,54,23 698 139
XY,55,22 698 138
DLACPY,55,23 698 137
XY,56,22 700 136
XY,57,22 700 135
XY,58,22 700 134
XY,59,22 700 133
XY,60,22 700 132
XY,61,22 700 131
XY,62,22 700 130
XY,63,22 700 129
DLACPY,63,23 726 128
DLACPY,62,23 726 127
DLACPY,61,23 726 126
DLACPY,60,23 726 125
DLACPY,59,23 726 124
DLACPY,58,23 726 123
DLACPY,57,23 726 122
DLACPY,56,23 726 121
DLACPY,63,22 726 120
DLACPY,62,22 726 119
DLACPY,61,22 726 118
DLACPY,60,22 726 117
DLACPY,59,22 726 116
DLACPY,58,22 726 115
DLACPY,57,22 726 114
DLACPY,56,22 726 113
XY,64,22 721 112
XY,65,22 721 111
XY,66,22 721 110
XY,67,22 721 109
XY,68,22 721 108
XY,69,22 721 107
XY,70,22 721 106
XY,71,22 721 105
DLACPY,71,23 723 104
DLACPY,70,23 723 103
DLACPY,69,23 723 102
DLACPY,68,23 723 101
DLACPY,67,23 723 100
DLACPY,66,23 723 99
DLACPY,65,23 723 98
DLACPY,64,23 723 97
XY,72,22 705 96
DLACPY,72,23 705 95
XY,73,22 705 94
DLACPY,73,23 705 93
XY,74,22 705 92
DLACPY,74,23 705 91
XY,75,22 705 90
DLACPY,75,23 705 89
XY,76,22 705 88
DLACPY,76,23 705 87
XY,77,22 705 86
DLACPY,77,23 705 85
XY,78,22 705 84
DLACPY,78,23 705 83
XY,79,22 705 82
DLACPY,79,23 705 81
XY,80,22 697 80
DLACPY,80,23 697 79
XY,81,22 697 78
DLACPY,81,23 697 77
XY,82,22 697 76
DLACPY,82,23 697 75
XY,83,22 697 74
DLACPY,83,23 697 73
XY,84,22 697 72
DLACPY,84,23 697 71
XY,85,22 697 70
DLACPY,85,23 697 69
XY,86,22 697 68
DLACPY,86,23 697 67
XY,87,22 697 66
DLACPY,87,23 697 65
XY,96,22 724 64
DLACPY,96,23 724 63
XY,97,22 724 62
DLACPY,97,23 724 61
XY,98,22 724 60
DLACPY,98,23 724 59
XY,99,22 724 58
DLACPY,99,23 724 57
XY,100,22 724 56
DLACPY,100,23 724 55
XY,101,22 724 54
DLACPY,101,23 724 53
XY,102,22 724 52
DLACPY,102,23 724 51
XY,103,22 724 50
DLACPY,103,23 724 49
XY,104,22 722 48
DLACPY,104,23 722 47
XY,105,22 722 46
DLACPY,105,23 722 45
XY,106,22 722 44
DLACPY,106,23 722 43
XY,107,22 722 42
DLACPY,107,23 722 41
XY,108,22 722 40
DLACPY,108,23 722 39
XY,109,22 722 38
DLACPY,109,23 722 37
XY,110,22 722 36
DLACPY,110,23 722 35
XY,111,22 722 34
DLACPY,111,23 722 33
XY,112,22 699 32
XY,113,22 699 31
XY,114,22 699 30
XY,115,22 699 29
XY,116,22 699 28
XY,117,22 699 27
XY,118,22 699 26
XY,119,22 699 25
DLACPY,119,23 706 24
DLACPY,118,23 706 23
DLACPY,117,23 706 22
DLACPY,116,23 706 21
DLACPY,115,23 706 20
DLACPY,114,23 706 19
DLACPY,113,23 706 18
DLACPY,112,23 706 17
DLACPY,79,22 706 16
DLACPY,78,22 706 15
DLACPY,77,22 706 14
DLACPY,76,22 706 13
DLACPY,75,22 706 12
DLACPY,74,22 706 11
DLACPY,73,22 706 10
DLACPY,72,22 706 9
XY,120,22 719 8
DLACPY,120,23 719 7
XY,121,22 719 6
DLACPY,121,23 719 5
XY,122,22 719 4
DLACPY,122,23 719 3
XY,123,22 719 2
DLACPY,123,23 719 1
