SETZERO,30,1 153 1610
SETZERO,29,1 153 1609
SETZERO,28,1 153 1608
SETZERO,27,1 153 1607
SETZERO,26,1 153 1606
SETZERO,25,1 153 1605
SETZERO,24,1 153 1604
SETZERO,7,1 151 1603
SETZERO,6,1 151 1602
SETZERO,5,1 151 1601
SETZERO,4,1 151 1600
SETZERO,3,1 151 1599
SETZERO,2,1 151 1598
SETZERO,1,1 151 1597
SETZERO,0,1 151 1596
SETZERO,23,1 150 1595
SETZERO,22,1 150 1594
SETZERO,21,1 150 1593
SETZERO,20,1 150 1592
SETZERO,19,1 150 1591
SETZERO,18,1 150 1590
SETZERO,17,1 150 1589
SETZERO,16,1 150 1588
SETZERO,15,1 148 1587
SETZERO,14,1 148 1586
SETZERO,13,1 148 1585
SETZERO,12,1 148 1584
SETZERO,11,1 148 1583
SETZERO,10,1 148 1582
SETZERO,9,1 148 1581
SETZERO,8,1 148 1580
_AP,30 77 1579
_AP,29 77 1578
_AP,28 77 1577
_AP,27 77 1576
_AP,26 77 1575
_AP,25 77 1574
_AP,24 77 1573
_AX,30 45 1572
_AX,29 45 1571
_AX,28 45 1570
_AX,27 45 1569
_AX,26 45 1568
_AX,25 45 1567
_AX,24 45 1566
_AX,23 30 1565
_AX,22 30 1564
_AX,21 30 1563
_AX,20 30 1562
_AX,19 30 1561
_AX,18 30 1560
_AX,17 30 1559
_AX,16 30 1558
_P,15 30 1557
_P,14 30 1556
_P,13 30 1555
_P,12 30 1554
_P,11 30 1553
_P,10 30 1552
_P,9 30 1551
_P,8 30 1550
_P,30 29 1549
_P,29 29 1548
_P,28 29 1547
_P,27 29 1546
_P,26 29 1545
_P,25 29 1544
_P,24 29 1543
_P,23 22 1542
_P,22 22 1541
_P,21 22 1540
_P,20 22 1539
_P,19 22 1538
_P,18 22 1537
_P,17 22 1536
_P,16 22 1535
_X,23 1 1534
_X,22 1 1533
_X,21 1 1532
_X,20 1 1531
_X,19 1 1530
_X,18 1 1529
_X,17 1 1528
_X,16 1 1527
_AX,15 1 1526
_AX,14 1 1525
_AX,13 1 1524
_AX,12 1 1523
_AX,11 1 1522
_AX,10 1 1521
_AX,9 1 1520
_AX,8 1 1519
RESET,RN 2 1518
_lambda 2 1517
XY,16,1 2 1516
XY,17,1 2 1515
XY,18,1 2 1514
XY,19,1 2 1513
XY,20,1 2 1512
XY,21,1 2 1511
XY,22,1 2 1510
XY,23,1 2 1509
SUB,23,1 43 1508
MULT,23 43 1507
SUB,22,1 43 1506
MULT,22 43 1505
SUB,21,1 43 1504
MULT,21 43 1503
SUB,20,1 43 1502
MULT,20 43 1501
SUB,19,1 43 1500
MULT,19 43 1499
SUB,18,1 43 1498
MULT,18 43 1497
SUB,17,1 43 1496
MULT,17 43 1495
SUB,16,1 43 1494
MULT,16 43 1493
COL,16,16 44 1492
COL,17,17 44 1491
COL,18,18 44 1490
COL,19,19 44 1489
COL,20,0 44 1488
COL,21,1 44 1487
COL,22,2 44 1486
COL,23,3 44 1485
_X,7 28 1484
XY,7,1 28 1483
_X,6 28 1482
XY,6,1 28 1481
_X,5 28 1480
XY,5,1 28 1479
_X,4 28 1478
XY,4,1 28 1477
_X,3 28 1476
XY,3,1 28 1475
_X,2 28 1474
XY,2,1 28 1473
_X,1 28 1472
XY,1,1 28 1471
_X,0 28 1470
XY,0,1 28 1469
_AX,7 36 1468
SUB,7,1 36 1467
MULT,7 36 1466
_AX,6 36 1465
SUB,6,1 36 1464
MULT,6 36 1463
_AX,5 36 1462
SUB,5,1 36 1461
MULT,5 36 1460
_AX,4 36 1459
SUB,4,1 36 1458
MULT,4 36 1457
_AX,3 36 1456
SUB,3,1 36 1455
MULT,3 36 1454
_AX,2 36 1453
SUB,2,1 36 1452
MULT,2 36 1451
_AX,1 36 1450
SUB,1,1 36 1449
MULT,1 36 1448
_AX,0 36 1447
SUB,0,1 36 1446
MULT,0 36 1445
COL,0,0 37 1444
COL,1,1 37 1443
COL,2,2 37 1442
COL,3,3 37 1441
COL,4,4 37 1440
COL,5,5 37 1439
COL,6,6 37 1438
COL,7,7 37 1437
_X,15 8 1436
XY,15,1 8 1435
_X,14 8 1434
XY,14,1 8 1433
_X,13 8 1432
XY,13,1 8 1431
_X,12 8 1430
XY,12,1 8 1429
_X,11 8 1428
XY,11,1 8 1427
_X,10 8 1426
XY,10,1 8 1425
_X,9 8 1424
XY,9,1 8 1423
_X,8 8 1422
XY,8,1 8 1421
SUB,8,1 14 1420
MULT,8 14 1419
SUB,9,1 14 1418
MULT,9 14 1417
SUB,10,1 14 1416
MULT,10 14 1415
SUB,11,1 14 1414
MULT,11 14 1413
SUB,12,1 14 1412
MULT,12 14 1411
SUB,13,1 14 1410
MULT,13 14 1409
SUB,14,1 14 1408
MULT,14 14 1407
SUB,15,1 14 1406
MULT,15 14 1405
COL,15,15 15 1404
COL,14,14 15 1403
COL,13,13 15 1402
COL,12,12 15 1401
COL,11,11 15 1400
COL,10,10 15 1399
COL,9,9 15 1398
COL,8,8 15 1397
_X,30 21 1396
XY,30,1 21 1395
_X,29 21 1394
XY,29,1 21 1393
_X,28 21 1392
XY,28,1 21 1391
_X,27 21 1390
XY,27,1 21 1389
_X,26 21 1388
XY,26,1 21 1387
_X,25 21 1386
XY,25,1 21 1385
_X,24 21 1384
XY,24,1 21 1383
SUB,24,1 51 1382
MULT,24 51 1381
SUB,25,1 51 1380
MULT,25 51 1379
SUB,26,1 51 1378
MULT,26 51 1377
SUB,27,1 51 1376
MULT,27 51 1375
SUB,28,1 51 1374
MULT,28 51 1373
SUB,29,1 51 1372
MULT,29 51 1371
SUB,30,1 51 1370
MULT,30 51 1369
COL,30,10 52 1368
COL,29,9 52 1367
COL,28,8 52 1366
COL,27,7 52 1365
COL,26,6 52 1364
COL,25,5 52 1363
COL,24,4 52 1362
RNRED,RNBUF 52 1361
SQRT,RN 52 1360
RESET,actMask 53 1359
CONV,actMask 53 1358
_AP,7 53 1357
GET,7,3 53 1356
_AP,6 53 1355
GET,6,3 53 1354
_AP,5 53 1353
GET,5,3 53 1352
_AP,4 53 1351
GET,4,3 53 1350
_AP,3 53 1349
GET,3,3 53 1348
_AP,2 53 1347
GET,2,3 53 1346
_AP,1 53 1345
GET,1,3 53 1344
_AP,0 53 1343
GET,0,3 53 1342
GET,0,1 62 1341
XTY,0,0,1 62 1340
GET,1,1 62 1339
XTY,1,1,1 62 1338
GET,2,1 62 1337
XTY,2,2,1 62 1336
GET,3,1 62 1335
XTY,3,3,1 62 1334
GET,4,1 62 1333
XTY,4,4,1 62 1332
GET,5,1 62 1331
XTY,5,5,1 62 1330
GET,6,1 62 1329
XTY,6,6,1 62 1328
GET,7,1 62 1327
XTY,7,7,1 62 1326
GET,8,1 72 1325
XTY,8,8,1 72 1324
GET,9,1 72 1323
XTY,9,9,1 72 1322
GET,10,1 72 1321
XTY,10,10,1 72 1320
GET,11,1 72 1319
XTY,11,11,1 72 1318
GET,12,1 72 1317
XTY,12,12,1 72 1316
GET,13,1 72 1315
XTY,13,13,1 72 1314
GET,14,1 72 1313
XTY,14,14,1 72 1312
GET,15,1 72 1311
XTY,15,15,1 72 1310
GET,16,1 65 1309
GET,17,1 65 1308
GET,18,1 65 1307
GET,19,1 65 1306
GET,20,1 65 1305
GET,21,1 65 1304
GET,22,1 65 1303
GET,23,1 65 1302
XTY,23,3,1 66 1301
XTY,22,2,1 66 1300
XTY,21,1,1 66 1299
XTY,20,0,1 66 1298
XTY,19,19,1 66 1297
XTY,18,18,1 66 1296
XTY,17,17,1 66 1295
XTY,16,16,1 66 1294
GET,24,1 54 1293
GET,25,1 54 1292
GET,26,1 54 1291
GET,27,1 54 1290
GET,28,1 54 1289
GET,29,1 54 1288
GET,30,1 54 1287
XTY,30,10,1 56 1286
XTY,29,9,1 56 1285
XTY,28,8,1 56 1284
XTY,27,7,1 56 1283
XTY,26,6,1 56 1282
XTY,25,5,1 56 1281
XTY,24,4,1 56 1280
RED,temp2BUF,0 73 1279
XY,0,2 75 1278
XY,1,2 75 1277
XY,2,2 75 1276
XY,3,2 75 1275
XY,4,2 75 1274
XY,5,2 75 1273
XY,6,2 75 1272
XY,7,2 75 1271
SUB,7,2 84 1270
XTY,7,7,2 84 1269
SUB,6,2 84 1268
XTY,6,6,2 84 1267
SUB,5,2 84 1266
XTY,5,5,2 84 1265
SUB,4,2 84 1264
XTY,4,4,2 84 1263
SUB,3,2 84 1262
XTY,3,3,2 84 1261
SUB,2,2 84 1260
XTY,2,2,2 84 1259
SUB,1,2 84 1258
XTY,1,1,2 84 1257
SUB,0,2 84 1256
XTY,0,0,2 84 1255
XY,8,2 76 1254
XY,9,2 76 1253
XY,10,2 76 1252
XY,11,2 76 1251
XY,12,2 76 1250
XY,13,2 76 1249
XY,14,2 76 1248
XY,15,2 76 1247
SUB,15,2 82 1246
XTY,15,15,2 82 1245
SUB,14,2 82 1244
XTY,14,14,2 82 1243
SUB,13,2 82 1242
XTY,13,13,2 82 1241
SUB,12,2 82 1240
XTY,12,12,2 82 1239
SUB,11,2 82 1238
XTY,11,11,2 82 1237
SUB,10,2 82 1236
XTY,10,10,2 82 1235
SUB,9,2 82 1234
XTY,9,9,2 82 1233
SUB,8,2 82 1232
XTY,8,8,2 82 1231
XY,16,2 74 1230
XY,17,2 74 1229
XY,18,2 74 1228
XY,19,2 74 1227
XY,20,2 74 1226
XY,21,2 74 1225
XY,22,2 74 1224
XY,23,2 74 1223
SUB,23,2 79 1222
XTY,23,3,2 79 1221
SUB,22,2 79 1220
XTY,22,2,2 79 1219
SUB,21,2 79 1218
XTY,21,1,2 79 1217
SUB,20,2 79 1216
XTY,20,0,2 79 1215
SUB,19,2 79 1214
XTY,19,19,2 79 1213
SUB,18,2 79 1212
XTY,18,18,2 79 1211
SUB,17,2 79 1210
XTY,17,17,2 79 1209
SUB,16,2 79 1208
XTY,16,16,2 79 1207
XY,24,2 145 1206
SUB,24,2 145 1205
XTY,24,4,2 145 1204
XY,25,2 145 1203
SUB,25,2 145 1202
XTY,25,5,2 145 1201
XY,26,2 145 1200
SUB,26,2 145 1199
XTY,26,6,2 145 1198
XY,27,2 145 1197
SUB,27,2 145 1196
XTY,27,7,2 145 1195
XY,28,2 145 1194
SUB,28,2 145 1193
XTY,28,8,2 145 1192
XY,29,2 145 1191
SUB,29,2 145 1190
XTY,29,9,2 145 1189
XY,30,2 145 1188
SUB,30,2 145 1187
XTY,30,10,2 145 1186
RED,RBRBUF,0 146 1185
CHOL,RBR 147 1184
INV,RBR 147 1183
XY,24,3 147 1182
XY,25,3 147 1181
XY,26,3 147 1180
XY,27,3 147 1179
XY,28,3 147 1178
XY,29,3 147 1177
XY,30,3 147 1176
DLACPY,30,1 174 1175
SPMM,30,30,0 174 1174
XTY,30,10,4 174 1173
DLACPY,29,1 174 1172
SPMM,29,29,0 174 1171
SPMM,30,29,0 174 1170
XTY,29,9,4 174 1169
DLACPY,28,1 174 1168
SPMM,28,28,0 174 1167
SPMM,29,28,0 174 1166
SPMM,30,28,0 174 1165
XTY,28,8,4 174 1164
DLACPY,27,1 174 1163
SPMM,27,27,0 174 1162
SPMM,28,27,0 174 1161
SPMM,29,27,0 174 1160
SPMM,30,27,0 174 1159
XTY,27,7,4 174 1158
DLACPY,26,1 174 1157
SPMM,26,26,0 174 1156
SPMM,27,26,0 174 1155
SPMM,28,26,0 174 1154
SPMM,29,26,0 174 1153
SPMM,30,26,0 174 1152
XTY,26,6,4 174 1151
DLACPY,25,1 174 1150
SPMM,25,25,0 174 1149
SPMM,26,25,0 174 1148
SPMM,27,25,0 174 1147
SPMM,28,25,0 174 1146
SPMM,29,25,0 174 1145
SPMM,30,25,0 174 1144
XTY,25,5,4 174 1143
DLACPY,24,1 174 1142
SPMM,24,24,0 174 1141
SPMM,25,24,0 174 1140
SPMM,26,24,0 174 1139
SPMM,27,24,0 174 1138
SPMM,28,24,0 174 1137
SPMM,29,24,0 174 1136
SPMM,30,24,0 174 1135
XTY,24,4,4 174 1134
UPDATE,24,1 175 1133
UPDATE,25,1 175 1132
UPDATE,26,1 175 1131
UPDATE,27,1 175 1130
UPDATE,28,1 175 1129
UPDATE,29,1 175 1128
UPDATE,30,1 175 1127
XY,0,3 152 1126
XY,1,3 152 1125
XY,2,3 152 1124
XY,3,3 152 1123
XY,4,3 152 1122
XY,5,3 152 1121
XY,6,3 152 1120
XY,7,3 152 1119
DLACPY,7,1 183 1118
SPMM,7,7,0 183 1117
DLACPY,6,1 183 1116
SPMM,6,6,0 183 1115
SPMM,7,6,0 183 1114
DLACPY,5,1 183 1113
SPMM,5,5,0 183 1112
SPMM,6,5,0 183 1111
SPMM,7,5,0 183 1110
DLACPY,4,1 183 1109
SPMM,4,4,0 183 1108
SPMM,5,4,0 183 1107
SPMM,6,4,0 183 1106
SPMM,7,4,0 183 1105
DLACPY,3,1 183 1104
SPMM,3,3,0 183 1103
SPMM,4,3,0 183 1102
SPMM,5,3,0 183 1101
SPMM,6,3,0 183 1100
SPMM,7,3,0 183 1099
DLACPY,2,1 183 1098
SPMM,2,2,0 183 1097
SPMM,3,2,0 183 1096
SPMM,4,2,0 183 1095
SPMM,5,2,0 183 1094
SPMM,6,2,0 183 1093
SPMM,7,2,0 183 1092
DLACPY,1,1 183 1091
SPMM,1,1,0 183 1090
SPMM,2,1,0 183 1089
SPMM,3,1,0 183 1088
SPMM,4,1,0 183 1087
SPMM,5,1,0 183 1086
SPMM,6,1,0 183 1085
SPMM,7,1,0 183 1084
DLACPY,0,1 183 1083
SPMM,0,0,0 183 1082
SPMM,1,0,0 183 1081
SPMM,2,0,0 183 1080
SPMM,3,0,0 183 1079
SPMM,4,0,0 183 1078
SPMM,5,0,0 183 1077
SPMM,6,0,0 183 1076
SPMM,7,0,0 183 1075
SPMM,8,0,0 201 1074
SPMM,9,0,0 201 1073
SPMM,10,0,0 201 1072
SPMM,11,0,0 201 1071
SPMM,12,0,0 201 1070
SPMM,13,0,0 201 1069
SPMM,14,0,0 201 1068
SPMM,15,0,0 201 1067
SPMM,8,1,0 201 1066
SPMM,9,1,0 201 1065
SPMM,10,1,0 201 1064
SPMM,11,1,0 201 1063
SPMM,12,1,0 201 1062
SPMM,13,1,0 201 1061
SPMM,14,1,0 201 1060
SPMM,15,1,0 201 1059
SPMM,8,2,0 201 1058
SPMM,11,2,0 201 1057
SPMM,12,2,0 201 1056
SPMM,13,2,0 201 1055
SPMM,14,2,0 201 1054
SPMM,15,2,0 201 1053
SPMM,8,3,0 201 1052
SPMM,8,4,0 201 1051
SPMM,11,4,0 201 1050
SPMM,12,4,0 201 1049
SPMM,14,4,0 201 1048
SPMM,15,4,0 201 1047
SPMM,8,5,0 201 1046
SPMM,8,6,0 201 1045
SPMM,11,6,0 201 1044
SPMM,12,6,0 201 1043
SPMM,15,6,0 201 1042
SPMM,8,7,0 201 1041
SPMM,11,7,0 201 1040
SPMM,12,7,0 201 1039
SPMM,13,7,0 201 1038
SPMM,14,7,0 201 1037
SPMM,15,7,0 201 1036
SPMM,24,0,0 186 1035
SPMM,30,0,0 186 1034
SPMM,30,1,0 186 1033
SPMM,24,2,0 186 1032
SPMM,30,2,0 186 1031
SPMM,30,3,0 186 1030
SPMM,30,4,0 186 1029
SPMM,30,5,0 186 1028
SPMM,30,6,0 186 1027
XTY,7,7,5 184 1026
XTY,6,6,5 184 1025
XTY,5,5,5 184 1024
XTY,4,4,5 184 1023
XTY,3,3,5 184 1022
XTY,2,2,5 184 1021
XTY,1,1,5 184 1020
XTY,0,0,5 184 1019
XY,8,3 177 1018
DLACPY,8,1 177 1017
XY,9,3 177 1016
DLACPY,9,1 177 1015
XY,10,3 177 1014
DLACPY,10,1 177 1013
XY,11,3 177 1012
DLACPY,11,1 177 1011
XY,12,3 177 1010
DLACPY,12,1 177 1009
XY,13,3 177 1008
DLACPY,13,1 177 1007
XY,14,3 177 1006
DLACPY,14,1 177 1005
XY,15,3 177 1004
DLACPY,15,1 177 1003
SPMM,16,15,0 208 1002
SPMM,17,15,0 208 1001
SPMM,18,15,0 208 1000
SPMM,19,15,0 208 999
SPMM,20,15,0 208 998
SPMM,21,15,0 208 997
SPMM,22,15,0 208 996
SPMM,23,15,0 208 995
UPDATE,15,1 210 994
UPDATE,14,1 210 993
UPDATE,13,1 210 992
UPDATE,12,1 210 991
UPDATE,11,1 210 990
UPDATE,10,1 210 989
UPDATE,9,1 210 988
UPDATE,8,1 210 987
XTY,15,15,4 195 986
XTY,14,14,4 195 985
XTY,13,13,4 195 984
XTY,12,12,4 195 983
XTY,11,11,4 195 982
XTY,10,10,4 195 981
XTY,9,9,4 195 980
XTY,8,8,4 195 979
SPMM,15,15,0 207 978
SPMM,14,14,0 207 977
SPMM,15,14,0 207 976
SPMM,13,13,0 207 975
SPMM,14,13,0 207 974
SPMM,15,13,0 207 973
SPMM,12,12,0 207 972
SPMM,13,12,0 207 971
SPMM,14,12,0 207 970
SPMM,15,12,0 207 969
SPMM,11,11,0 207 968
SPMM,12,11,0 207 967
SPMM,13,11,0 207 966
SPMM,14,11,0 207 965
SPMM,15,11,0 207 964
SPMM,10,10,0 207 963
SPMM,11,10,0 207 962
SPMM,12,10,0 207 961
SPMM,13,10,0 207 960
SPMM,15,10,0 207 959
SPMM,9,9,0 207 958
SPMM,10,9,0 207 957
SPMM,11,9,0 207 956
SPMM,12,9,0 207 955
SPMM,13,9,0 207 954
XTY,13,13,5 207 953
SPMM,14,9,0 207 952
XTY,14,14,5 207 951
SPMM,15,9,0 207 950
XTY,15,15,5 207 949
SPMM,8,8,0 207 948
XTY,8,8,5 207 947
SPMM,9,8,0 207 946
XTY,9,9,5 207 945
SPMM,10,8,0 207 944
XTY,10,10,5 207 943
SPMM,11,8,0 207 942
XTY,11,11,5 207 941
SPMM,12,8,0 207 940
XTY,12,12,5 207 939
XY,16,3 149 938
XY,17,3 149 937
XY,18,3 149 936
XY,19,3 149 935
XY,20,3 149 934
XY,21,3 149 933
XY,22,3 149 932
XY,23,3 149 931
DLACPY,23,1 159 930
SPMM,23,23,0 159 929
DLACPY,22,1 159 928
SPMM,22,22,0 159 927
SPMM,23,22,0 159 926
DLACPY,21,1 159 925
SPMM,21,21,0 159 924
SPMM,22,21,0 159 923
SPMM,23,21,0 159 922
DLACPY,20,1 159 921
SPMM,20,20,0 159 920
SPMM,21,20,0 159 919
SPMM,22,20,0 159 918
SPMM,23,20,0 159 917
DLACPY,19,1 159 916
SPMM,19,19,0 159 915
SPMM,20,19,0 159 914
SPMM,21,19,0 159 913
SPMM,22,19,0 159 912
SPMM,23,19,0 159 911
DLACPY,18,1 159 910
SPMM,18,18,0 159 909
SPMM,19,18,0 159 908
SPMM,20,18,0 159 907
SPMM,21,18,0 159 906
SPMM,22,18,0 159 905
SPMM,23,18,0 159 904
DLACPY,17,1 159 903
SPMM,17,17,0 159 902
SPMM,18,17,0 159 901
SPMM,19,17,0 159 900
SPMM,20,17,0 159 899
SPMM,21,17,0 159 898
SPMM,22,17,0 159 897
SPMM,23,17,0 159 896
DLACPY,16,1 159 895
SPMM,16,16,0 159 894
SPMM,17,16,0 159 893
SPMM,18,16,0 159 892
SPMM,19,16,0 159 891
SPMM,20,16,0 159 890
SPMM,21,16,0 159 889
SPMM,22,16,0 159 888
SPMM,23,16,0 159 887
SPMM,24,16,0 165 886
SPMM,25,16,0 165 885
SPMM,26,16,0 165 884
SPMM,27,16,0 165 883
SPMM,28,16,0 165 882
SPMM,29,16,0 165 881
SPMM,30,16,0 165 880
SPMM,24,17,0 165 879
SPMM,25,17,0 165 878
SPMM,26,17,0 165 877
SPMM,27,17,0 165 876
SPMM,28,17,0 165 875
SPMM,29,17,0 165 874
SPMM,30,17,0 165 873
SPMM,24,18,0 165 872
SPMM,30,18,0 165 871
SPMM,24,19,0 165 870
SPMM,27,19,0 165 869
SPMM,29,19,0 165 868
SPMM,30,19,0 165 867
SPMM,24,20,0 165 866
SPMM,27,20,0 165 865
SPMM,29,20,0 165 864
SPMM,30,20,0 165 863
SPMM,24,21,0 165 862
SPMM,27,21,0 165 861
SPMM,30,21,0 165 860
SPMM,24,22,0 165 859
SPMM,27,22,0 165 858
SPMM,28,22,0 165 857
SPMM,29,22,0 165 856
SPMM,30,22,0 165 855
SPMM,24,23,0 165 854
SPMM,30,23,0 165 853
UPDATE,16,1 166 852
UPDATE,17,1 166 851
UPDATE,18,1 166 850
UPDATE,19,1 166 849
UPDATE,20,1 166 848
UPDATE,21,1 166 847
UPDATE,22,1 166 846
UPDATE,23,1 166 845
XTY,16,16,4 167 844
XTY,17,17,4 167 843
XTY,18,18,4 167 842
XTY,19,19,4 167 841
XTY,20,0,4 167 840
XTY,21,1,4 167 839
XTY,22,2,4 167 838
XTY,23,3,4 167 837
XTY,0,0,4 209 836
XTY,1,1,4 209 835
XTY,2,2,4 209 834
XTY,3,3,4 209 833
XTY,4,4,4 209 832
XTY,5,5,4 209 831
XTY,6,6,4 209 830
XTY,7,7,4 209 829
RED,XARBUF,0 209 828
GET,8,2 81 827
GET,9,2 81 826
GET,10,2 81 825
GET,11,2 81 824
GET,12,2 81 823
GET,13,2 81 822
GET,14,2 81 821
GET,15,2 81 820
XTY,15,15,3 83 819
XTY,14,14,3 83 818
XTY,13,13,3 83 817
XTY,12,12,3 83 816
XTY,11,11,3 83 815
XTY,10,10,3 83 814
XTY,9,9,3 83 813
XTY,8,8,3 83 812
GET,16,2 78 811
XTY,16,16,3 78 810
GET,17,2 78 809
XTY,17,17,3 78 808
GET,18,2 78 807
XTY,18,18,3 78 806
GET,19,2 78 805
XTY,19,19,3 78 804
GET,20,2 78 803
XTY,20,0,3 78 802
GET,21,2 78 801
XTY,21,1,3 78 800
GET,22,2 78 799
XTY,22,2,3 78 798
GET,23,2 78 797
XTY,23,3,3 78 796
GET,24,2 80 795
XTY,24,4,3 80 794
GET,25,2 80 793
XTY,25,5,3 80 792
GET,26,2 80 791
XTY,26,6,3 80 790
GET,27,2 80 789
XTY,27,7,3 80 788
GET,28,2 80 787
XTY,28,8,3 80 786
GET,29,2 80 785
XTY,29,9,3 80 784
GET,30,2 80 783
XTY,30,10,3 80 782
_AP,15 55 781
GET,15,3 55 780
_AP,14 55 779
GET,14,3 55 778
_AP,13 55 777
GET,13,3 55 776
_AP,12 55 775
GET,12,3 55 774
_AP,11 55 773
GET,11,3 55 772
_AP,10 55 771
GET,10,3 55 770
_AP,9 55 769
GET,9,3 55 768
_AP,8 55 767
GET,8,3 55 766
_AP,23 63 765
GET,23,3 63 764
_AP,22 63 763
GET,22,3 63 762
_AP,21 63 761
GET,21,3 63 760
_AP,20 63 759
GET,20,3 63 758
_AP,19 63 757
GET,19,3 63 756
_AP,18 63 755
GET,18,3 63 754
_AP,17 63 753
GET,17,3 63 752
_AP,16 63 751
GET,16,3 63 750
_P,7 0 749
_P,6 0 748
_P,5 0 747
_P,4 0 746
_P,3 0 745
_P,2 0 744
_P,1 0 743
_P,0 0 742
GET,0,2 85 741
XTY,0,0,3 85 740
GET,1,2 85 739
XTY,1,1,3 85 738
GET,2,2 85 737
XTY,2,2,3 85 736
GET,3,2 85 735
XTY,3,3,3 85 734
GET,4,2 85 733
XTY,4,4,3 85 732
GET,5,2 85 731
XTY,5,5,3 85 730
GET,6,2 85 729
XTY,6,6,3 85 728
GET,7,2 85 727
XTY,7,7,3 85 726
RED,PBPBUF,0 85 725
CHOL,PBP 86 724
INV,PBP 86 723
XY,0,4 86 722
XY,1,4 86 721
XY,2,4 86 720
XY,3,4 86 719
XY,4,4 86 718
XY,5,4 86 717
XY,6,4 86 716
XY,7,4 86 715
DLACPY,7,2 110 714
XTY,7,7,9 110 713
DLACPY,6,2 110 712
XTY,6,6,9 110 711
DLACPY,5,2 110 710
XTY,5,5,9 110 709
DLACPY,4,2 110 708
XTY,4,4,9 110 707
DLACPY,3,2 110 706
XTY,3,3,9 110 705
DLACPY,2,2 110 704
XTY,2,2,9 110 703
DLACPY,1,2 110 702
XTY,1,1,9 110 701
DLACPY,0,2 110 700
XTY,0,0,9 110 699
UPDATE,0,2 126 698
UPDATE,1,2 126 697
UPDATE,2,2 126 696
UPDATE,3,2 126 695
UPDATE,4,2 126 694
UPDATE,5,2 126 693
UPDATE,6,2 126 692
UPDATE,7,2 126 691
XTY,0,0,6 111 690
XTY,1,1,6 111 689
XTY,2,2,6 111 688
XTY,3,3,6 111 687
XTY,4,4,6 111 686
XTY,5,5,6 111 685
XTY,6,6,6 111 684
XTY,7,7,6 111 683
XTY,0,0,7 193 682
XTY,1,1,7 193 681
XTY,2,2,7 193 680
XTY,3,3,7 193 679
XTY,4,4,7 193 678
XTY,5,5,7 193 677
XTY,6,6,7 193 676
XTY,7,7,7 193 675
XY,8,4 87 674
XY,9,4 87 673
XY,10,4 87 672
XY,11,4 87 671
XY,12,4 87 670
XY,13,4 87 669
XY,14,4 87 668
XY,15,4 87 667
DLACPY,15,2 117 666
XTY,15,15,6 117 665
DLACPY,14,2 117 664
XTY,14,14,6 117 663
DLACPY,13,2 117 662
XTY,13,13,6 117 661
DLACPY,12,2 117 660
XTY,12,12,6 117 659
DLACPY,11,2 117 658
XTY,11,11,6 117 657
DLACPY,10,2 117 656
XTY,10,10,6 117 655
DLACPY,9,2 117 654
XTY,9,9,6 117 653
DLACPY,8,2 117 652
XTY,8,8,6 117 651
UPDATE,8,2 118 650
UPDATE,9,2 118 649
UPDATE,10,2 118 648
UPDATE,11,2 118 647
UPDATE,12,2 118 646
UPDATE,13,2 118 645
UPDATE,14,2 118 644
UPDATE,15,2 118 643
XTY,8,8,9 128 642
XTY,9,9,9 128 641
XTY,10,10,9 128 640
XTY,11,11,9 128 639
XTY,12,12,9 128 638
XTY,13,13,9 128 637
XTY,14,14,9 128 636
XTY,15,15,9 128 635
XTY,8,8,10 185 634
XTY,9,9,10 185 633
XTY,10,10,10 185 632
XTY,11,11,10 185 631
XTY,12,12,10 185 630
XTY,13,13,10 185 629
XTY,14,14,10 185 628
XTY,15,15,10 185 627
XY,16,4 94 626
XY,17,4 94 625
XY,18,4 94 624
XY,19,4 94 623
XY,20,4 94 622
XY,21,4 94 621
XY,22,4 94 620
XY,23,4 94 619
DLACPY,23,2 137 618
UPDATE,23,2 137 617
XTY,23,3,6 137 616
DLACPY,22,2 137 615
UPDATE,22,2 137 614
XTY,22,2,6 137 613
DLACPY,21,2 137 612
UPDATE,21,2 137 611
XTY,21,1,6 137 610
DLACPY,20,2 137 609
UPDATE,20,2 137 608
XTY,20,0,6 137 607
DLACPY,19,2 137 606
UPDATE,19,2 137 605
XTY,19,19,6 137 604
DLACPY,18,2 137 603
UPDATE,18,2 137 602
XTY,18,18,6 137 601
DLACPY,17,2 137 600
UPDATE,17,2 137 599
XTY,17,17,6 137 598
DLACPY,16,2 137 597
UPDATE,16,2 137 596
XTY,16,16,6 137 595
XTY,18,18,7 217 594
XTY,19,19,7 217 593
XTY,20,0,7 217 592
SPMM,16,0,0 217 591
SPMM,17,0,0 217 590
SPMM,21,0,0 217 589
SPMM,22,0,0 217 588
SPMM,23,0,0 217 587
SPMM,16,2,0 217 586
SPMM,17,2,0 217 585
SPMM,21,2,0 217 584
SPMM,22,2,0 217 583
SPMM,23,2,0 217 582
XTY,23,3,7 217 581
SPMM,16,6,0 217 580
SPMM,17,6,0 217 579
SPMM,21,6,0 217 578
XTY,21,1,7 217 577
SPMM,16,7,0 217 576
XTY,16,16,7 217 575
SPMM,17,7,0 217 574
XTY,17,17,7 217 573
SPMM,22,7,0 217 572
XTY,22,2,7 217 571
XTY,22,2,5 218 570
XTY,17,17,5 218 569
XTY,16,16,5 218 568
XTY,21,1,5 218 567
XTY,23,3,5 218 566
XTY,20,0,5 218 565
XTY,19,19,5 218 564
XTY,18,18,5 218 563
XTY,16,16,9 138 562
XTY,17,17,9 138 561
XTY,18,18,9 138 560
XTY,19,19,9 138 559
XTY,20,0,9 138 558
XTY,21,1,9 138 557
XTY,22,2,9 138 556
XTY,23,3,9 138 555
XTY,16,16,10 168 554
XTY,17,17,10 168 553
XTY,18,18,10 168 552
XTY,19,19,10 168 551
XTY,20,0,10 168 550
XTY,21,1,10 168 549
XTY,22,2,10 168 548
XTY,23,3,10 168 547
XY,24,4 95 546
XY,25,4 95 545
XY,26,4 95 544
XY,27,4 95 543
XY,28,4 95 542
XY,29,4 95 541
XY,30,4 95 540
DLACPY,30,2 102 539
UPDATE,30,2 102 538
XTY,30,10,9 102 537
DLACPY,29,2 102 536
UPDATE,29,2 102 535
XTY,29,9,9 102 534
DLACPY,28,2 102 533
UPDATE,28,2 102 532
XTY,28,8,9 102 531
DLACPY,27,2 102 530
UPDATE,27,2 102 529
XTY,27,7,9 102 528
DLACPY,26,2 102 527
UPDATE,26,2 102 526
XTY,26,6,9 102 525
DLACPY,25,2 102 524
UPDATE,25,2 102 523
XTY,25,5,9 102 522
DLACPY,24,2 102 521
UPDATE,24,2 102 520
XTY,24,4,9 102 519
XTY,24,4,6 103 518
XTY,25,5,6 103 517
XTY,26,6,6 103 516
XTY,27,7,6 103 515
XTY,28,8,6 103 514
XTY,29,9,6 103 513
XTY,30,10,6 103 512
XTY,25,5,7 192 511
XTY,26,6,7 192 510
SPMM,24,15,0 192 509
XTY,24,4,7 192 508
SPMM,27,15,0 192 507
XTY,27,7,7 192 506
SPMM,28,15,0 192 505
XTY,28,8,7 192 504
SPMM,29,15,0 192 503
XTY,29,9,7 192 502
SPMM,30,15,0 192 501
SPMM,30,14,0 192 500
SPMM,30,13,0 192 499
SPMM,30,12,0 192 498
SPMM,30,11,0 192 497
SPMM,30,10,0 192 496
SPMM,30,9,0 192 495
SPMM,30,8,0 192 494
XTY,30,10,7 192 493
XTY,30,10,5 194 492
XTY,29,9,5 194 491
XTY,28,8,5 194 490
XTY,27,7,5 194 489
XTY,24,4,5 194 488
XTY,26,6,5 194 487
XTY,25,5,5 194 486
RED,RARBUF,0 219 485
TRANS,RAR 219 484
XTY,8,8,7 219 483
XTY,9,9,7 219 482
XTY,10,10,7 219 481
XTY,11,11,7 219 480
XTY,12,12,7 219 479
XTY,13,13,7 219 478
XTY,14,14,7 219 477
XTY,15,15,7 219 476
RED,RAPBUF,0 219 475
XTY,24,4,10 176 474
XTY,25,5,10 176 473
XTY,26,6,10 176 472
XTY,27,7,10 176 471
XTY,28,8,10 176 470
XTY,29,9,10 176 469
XTY,30,10,10 176 468
XTY,0,0,10 211 467
XTY,1,1,10 211 466
XTY,2,2,10 211 465
XTY,3,3,10 211 464
XTY,4,4,10 211 463
XTY,5,5,10 211 462
XTY,6,6,10 211 461
XTY,7,7,10 211 460
RED,RBPBUF,0 211 459
XY,0,5 96 458
XY,1,5 96 457
XY,2,5 96 456
XY,3,5 96 455
XY,4,5 96 454
XY,5,5 96 453
XY,6,5 96 452
XY,7,5 96 451
DLACPY,7,3 124 450
XTY,7,7,8 124 449
DLACPY,6,3 124 448
XTY,6,6,8 124 447
DLACPY,5,3 124 446
XTY,5,5,8 124 445
DLACPY,4,3 124 444
XTY,4,4,8 124 443
DLACPY,3,3 124 442
XTY,3,3,8 124 441
DLACPY,2,3 124 440
XTY,2,2,8 124 439
DLACPY,1,3 124 438
XTY,1,1,8 124 437
DLACPY,0,3 124 436
XTY,0,0,8 124 435
UPDATE,0,3 125 434
UPDATE,1,3 125 433
UPDATE,2,3 125 432
UPDATE,3,3 125 431
UPDATE,4,3 125 430
UPDATE,5,3 125 429
UPDATE,6,3 125 428
UPDATE,7,3 125 427
XY,8,5 129 426
DLACPY,8,3 129 425
XY,9,5 129 424
DLACPY,9,3 129 423
XY,10,5 129 422
DLACPY,10,3 129 421
XY,11,5 129 420
DLACPY,11,3 129 419
XY,12,5 129 418
DLACPY,12,3 129 417
XY,13,5 129 416
DLACPY,13,3 129 415
XY,14,5 129 414
DLACPY,14,3 129 413
XY,15,5 129 412
DLACPY,15,3 129 411
XTY,15,15,8 130 410
XTY,14,14,8 130 409
XTY,13,13,8 130 408
XTY,12,12,8 130 407
XTY,11,11,8 130 406
XTY,10,10,8 130 405
XTY,9,9,8 130 404
XTY,8,8,8 130 403
XY,16,5 127 402
XY,17,5 127 401
XY,18,5 127 400
XY,19,5 127 399
XY,20,5 127 398
XY,21,5 127 397
XY,22,5 127 396
XY,23,5 127 395
DLACPY,23,3 131 394
DLACPY,22,3 131 393
DLACPY,21,3 131 392
DLACPY,20,3 131 391
DLACPY,19,3 131 390
DLACPY,18,3 131 389
DLACPY,17,3 131 388
DLACPY,16,3 131 387
UPDATE,16,3 139 386
XTY,16,16,8 139 385
UPDATE,17,3 139 384
XTY,17,17,8 139 383
UPDATE,18,3 139 382
XTY,18,18,8 139 381
UPDATE,19,3 139 380
XTY,19,19,8 139 379
UPDATE,20,3 139 378
XTY,20,0,8 139 377
UPDATE,21,3 139 376
XTY,21,1,8 139 375
UPDATE,22,3 139 374
XTY,22,2,8 139 373
UPDATE,23,3 139 372
XTY,23,3,8 139 371
GET,24,3 93 370
XY,24,5 93 369
DLACPY,24,3 93 368
GET,25,3 93 367
XY,25,5 93 366
DLACPY,25,3 93 365
GET,26,3 93 364
XY,26,5 93 363
DLACPY,26,3 93 362
GET,27,3 93 361
XY,27,5 93 360
DLACPY,27,3 93 359
GET,28,3 93 358
XY,28,5 93 357
DLACPY,28,3 93 356
GET,29,3 93 355
XY,29,5 93 354
DLACPY,29,3 93 353
GET,30,3 93 352
XY,30,5 93 351
DLACPY,30,3 93 350
UPDATE,30,3 220 349
UPDATE,29,3 220 348
UPDATE,28,3 220 347
UPDATE,27,3 220 346
UPDATE,26,3 220 345
UPDATE,25,3 220 344
UPDATE,24,3 220 343
SPEUPDATE,RAR 220 342
RED,XBPBUF,0 220 341
UPDATE,0,1 220 340
UPDATE,1,1 220 339
UPDATE,2,1 220 338
UPDATE,3,1 220 337
UPDATE,4,1 220 336
UPDATE,5,1 220 335
UPDATE,6,1 220 334
UPDATE,7,1 220 333
XTY,30,10,8 104 332
XTY,29,9,8 104 331
XTY,28,8,8 104 330
XTY,27,7,8 104 329
XTY,26,6,8 104 328
XTY,25,5,8 104 327
XTY,24,4,8 104 326
RED,PAPBUF,0 221 325
SPEUPDATE,PAP 221 324
UPDATE,15,3 221 323
UPDATE,14,3 221 322
UPDATE,13,3 221 321
UPDATE,12,3 221 320
UPDATE,11,3 221 319
UPDATE,10,3 221 318
UPDATE,9,3 221 317
UPDATE,8,3 221 316
CONSTRUCTGB 222 315
RED,XAPBUF,0 222 314
CONSTRUCTGA1 222 313
CONSTRUCTGA2 222 312
EIGEN 222 311
XY,24,11 222 310
XY,25,11 222 309
XY,26,11 222 308
XY,27,11 222 307
XY,28,11 222 306
XY,29,11 222 305
XY,30,11 222 304
XY,0,6 228 303
XY,1,6 228 302
XY,2,6 228 301
XY,3,6 228 300
XY,4,6 228 299
XY,5,6 228 298
XY,6,6 228 297
XY,7,6 228 296
XY,8,6 233 295
XY,9,6 233 294
XY,10,6 233 293
XY,11,6 233 292
XY,12,6 233 291
XY,13,6 233 290
XY,14,6 233 289
XY,15,6 233 288
XY,8,7 289 287
ADD,8,1 289 286
XY,9,7 289 285
ADD,9,1 289 284
XY,10,7 289 283
ADD,10,1 289 282
XY,11,7 289 281
ADD,11,1 289 280
XY,12,7 289 279
ADD,12,1 289 278
XY,13,7 289 277
ADD,13,1 289 276
XY,14,7 289 275
ADD,14,1 289 274
XY,15,7 289 273
ADD,15,1 289 272
XY,24,6 260 271
XY,25,6 260 270
XY,26,6 260 269
XY,27,6 260 268
XY,28,6 260 267
XY,29,6 260 266
XY,30,6 260 265
XY,24,7 266 264
ADD,24,1 266 263
XY,25,7 266 262
ADD,25,1 266 261
XY,26,7 266 260
ADD,26,1 266 259
XY,27,7 266 258
ADD,27,1 266 257
XY,28,7 266 256
ADD,28,1 266 255
XY,29,7 266 254
ADD,29,1 266 253
XY,30,7 266 252
ADD,30,1 266 251
XY,24,10 351 250
ADD,24,3 351 249
XY,25,10 351 248
ADD,25,3 351 247
XY,26,10 351 246
ADD,26,3 351 245
XY,27,10 351 244
ADD,27,3 351 243
XY,28,10 351 242
ADD,28,3 351 241
XY,29,10 351 240
ADD,29,3 351 239
XY,30,10 351 238
ADD,30,3 351 237
XY,0,7 255 236
XY,1,7 255 235
XY,2,7 255 234
XY,3,7 255 233
XY,4,7 255 232
XY,5,7 255 231
XY,6,7 255 230
XY,7,7 255 229
ADD,7,1 267 228
ADD,6,1 267 227
ADD,5,1 267 226
ADD,4,1 267 225
ADD,3,1 267 224
ADD,2,1 267 223
ADD,1,1 267 222
ADD,0,1 267 221
XY,16,7 244 220
XY,17,7 244 219
XY,18,7 244 218
XY,19,7 244 217
XY,20,7 244 216
XY,21,7 244 215
XY,22,7 244 214
XY,23,7 244 213
XY,16,6 250 212
ADD,16,1 250 211
XY,17,6 250 210
ADD,17,1 250 209
XY,18,6 250 208
ADD,18,1 250 207
XY,19,6 250 206
ADD,19,1 250 205
XY,20,6 250 204
ADD,20,1 250 203
XY,21,6 250 202
ADD,21,1 250 201
XY,22,6 250 200
ADD,22,1 250 199
XY,23,6 250 198
ADD,23,1 250 197
XY,0,8 290 196
XY,1,8 290 195
XY,2,8 290 194
XY,3,8 290 193
XY,4,8 290 192
XY,5,8 290 191
XY,6,8 290 190
XY,7,8 290 189
XY,0,9 314 188
XY,1,9 314 187
XY,2,9 314 186
XY,3,9 314 185
XY,4,9 314 184
XY,5,9 314 183
XY,6,9 314 182
XY,7,9 314 181
XY,8,9 278 180
XY,9,9 278 179
XY,10,9 278 178
XY,11,9 278 177
XY,12,9 278 176
XY,13,9 278 175
XY,14,9 278 174
XY,15,9 278 173
XY,8,8 357 172
ADD,8,2 357 171
XY,9,8 357 170
ADD,9,2 357 169
XY,10,8 357 168
ADD,10,2 357 167
XY,11,8 357 166
ADD,11,2 357 165
XY,12,8 357 164
ADD,12,2 357 163
XY,13,8 357 162
ADD,13,2 357 161
XY,14,8 357 160
ADD,14,2 357 159
XY,15,8 357 158
ADD,15,2 357 157
XY,16,9 326 156
XY,17,9 326 155
XY,18,9 326 154
XY,19,9 326 153
XY,20,9 326 152
XY,21,9 326 151
XY,22,9 326 150
XY,23,9 326 149
XY,16,8 332 148
ADD,16,2 332 147
XY,17,8 332 146
ADD,17,2 332 145
XY,18,8 332 144
ADD,18,2 332 143
XY,19,8 332 142
ADD,19,2 332 141
XY,20,8 332 140
ADD,20,2 332 139
XY,21,8 332 138
ADD,21,2 332 137
XY,22,8 332 136
ADD,22,2 332 135
XY,23,8 332 134
ADD,23,2 332 133
XY,16,11 344 132
ADD,16,4 344 131
XY,17,11 344 130
ADD,17,4 344 129
XY,18,11 344 128
ADD,18,4 344 127
XY,19,11 344 126
ADD,19,4 344 125
XY,20,11 344 124
ADD,20,4 344 123
XY,21,11 344 122
ADD,21,4 344 121
XY,22,11 344 120
ADD,22,4 344 119
XY,23,11 344 118
ADD,23,4 344 117
XY,24,9 238 116
XY,25,9 238 115
XY,26,9 238 114
XY,27,9 238 113
XY,28,9 238 112
XY,29,9 238 111
XY,30,9 238 110
XY,24,8 296 109
ADD,24,2 296 108
XY,25,8 296 107
ADD,25,2 296 106
XY,26,8 296 105
ADD,26,2 296 104
XY,27,8 296 103
ADD,27,2 296 102
XY,28,8 296 101
ADD,28,2 296 100
XY,29,8 296 99
ADD,29,2 296 98
XY,30,8 296 97
ADD,30,2 296 96
ADD,30,4 321 95
ADD,29,4 321 94
ADD,28,4 321 93
ADD,27,4 321 92
ADD,26,4 321 91
ADD,25,4 321 90
ADD,24,4 321 89
XY,0,10 272 88
XY,1,10 272 87
XY,2,10 272 86
XY,3,10 272 85
XY,4,10 272 84
XY,5,10 272 83
XY,6,10 272 82
XY,7,10 272 81
ADD,7,3 273 80
ADD,6,3 273 79
ADD,5,3 273 78
ADD,4,3 273 77
ADD,3,3 273 76
ADD,2,3 273 75
ADD,1,3 273 74
ADD,0,3 273 73
XY,8,10 283 72
XY,9,10 283 71
XY,10,10 283 70
XY,11,10 283 69
XY,12,10 283 68
XY,13,10 283 67
XY,14,10 283 66
XY,15,10 283 65
ADD,15,3 308 64
ADD,14,3 308 63
ADD,13,3 308 62
ADD,12,3 308 61
ADD,11,3 308 60
ADD,10,3 308 59
ADD,9,3 308 58
ADD,8,3 308 57
XY,16,10 307 56
XY,17,10 307 55
XY,18,10 307 54
XY,19,10 307 53
XY,20,10 307 52
XY,21,10 307 51
XY,22,10 307 50
XY,23,10 307 49
ADD,23,3 345 48
ADD,22,3 345 47
ADD,21,3 345 46
ADD,20,3 345 45
ADD,19,3 345 44
ADD,18,3 345 43
ADD,17,3 345 42
ADD,16,3 345 41
XY,0,11 302 40
XY,1,11 302 39
XY,2,11 302 38
XY,3,11 302 37
XY,4,11 302 36
XY,5,11 302 35
XY,6,11 302 34
XY,7,11 302 33
ADD,7,2 320 32
ADD,7,4 320 31
ADD,6,2 320 30
ADD,6,4 320 29
ADD,5,2 320 28
ADD,5,4 320 27
ADD,4,2 320 26
ADD,4,4 320 25
ADD,3,2 320 24
ADD,3,4 320 23
ADD,2,2 320 22
ADD,2,4 320 21
ADD,1,2 320 20
ADD,1,4 320 19
ADD,0,2 320 18
ADD,0,4 320 17
XY,8,11 338 16
XY,9,11 338 15
XY,10,11 338 14
XY,11,11 338 13
XY,12,11 338 12
XY,13,11 338 11
XY,14,11 338 10
XY,15,11 338 9
ADD,15,4 358 8
ADD,14,4 358 7
ADD,13,4 358 6
ADD,12,4 358 5
ADD,11,4 358 4
ADD,10,4 358 3
ADD,9,4 358 2
ADD,8,4 358 1
