SETZERO,30,1 2 567
SETZERO,29,1 2 566
SETZERO,28,1 2 565
_X,23 2 564
XTY,23,3,20 2 563
_X,22 2 562
XTY,22,2,20 2 561
_X,21 2 560
XTY,21,1,20 2 559
_X,20 2 558
XTY,20,0,20 2 557
_X,15 2 556
XTY,15,15,20 2 555
_X,14 2 554
XTY,14,14,20 2 553
_X,13 2 552
XTY,13,13,20 2 551
_X,12 2 550
XTY,12,12,20 2 549
_X,7 2 548
XTY,7,7,20 2 547
_X,6 2 546
XTY,6,6,20 2 545
_X,5 2 544
XTY,5,5,20 2 543
_X,4 2 542
XTY,4,4,20 2 541
SETZERO,7,1 1 540
SETZERO,6,1 1 539
SETZERO,5,1 1 538
SETZERO,4,1 1 537
_X,30 1 536
XTY,30,10,20 1 535
_X,29 1 534
XTY,29,9,20 1 533
_X,28 1 532
XTY,28,8,20 1 531
_X,27 1 530
XTY,27,7,20 1 529
_X,26 1 528
XTY,26,6,20 1 527
_X,25 1 526
XTY,25,5,20 1 525
_X,24 1 524
XTY,24,4,20 1 523
SETZERO,19,1 0 522
SETZERO,18,1 0 521
SETZERO,17,1 0 520
SETZERO,16,1 0 519
_X,11 0 518
XTY,11,11,20 0 517
_X,10 0 516
XTY,10,10,20 0 515
_X,9 0 514
XTY,9,9,20 0 513
_X,8 0 512
XTY,8,8,20 0 511
SETZERO,23,1 3 510
SETZERO,22,1 3 509
SETZERO,21,1 3 508
SETZERO,20,1 3 507
SETZERO,3,1 3 506
SETZERO,2,1 3 505
SETZERO,1,1 3 504
SETZERO,0,1 3 503
_X,19 3 502
XTY,19,19,20 3 501
_X,18 3 500
XTY,18,18,20 3 499
_X,17 3 498
XTY,17,17,20 3 497
_X,16 3 496
XTY,16,16,20 3 495
_X,3 3 494
XTY,3,3,20 3 493
_X,2 3 492
XTY,2,2,20 3 491
_X,1 3 490
XTY,1,1,20 3 489
_X,0 3 488
XTY,0,0,20 3 487
RED,XBXBUF,0 3 486
CHOL,XBX 4 485
SETZERO,27,1 4 484
SETZERO,26,1 4 483
SETZERO,25,1 4 482
SETZERO,24,1 4 481
SETZERO,11,1 4 480
SETZERO,10,1 4 479
SETZERO,9,1 4 478
SETZERO,8,1 4 477
DLACPY,0,20 5 476
INV,XBX 12 475
XY,0,20 12 474
XY,1,20 12 473
XY,2,20 12 472
XY,3,20 12 471
XY,28,20 12 470
XY,29,20 12 469
XY,30,20 12 468
DLACPY,30,21 20 467
SPMM,30,30,0 20 466
DLACPY,29,21 20 465
SPMM,29,29,0 20 464
SPMM,30,29,0 20 463
DLACPY,28,21 20 462
SPMM,28,28,0 20 461
SPMM,29,28,0 20 460
SPMM,30,28,0 20 459
DLACPY,3,21 27 458
SPMM,3,3,0 27 457
SPMM,4,3,0 27 456
SPMM,5,3,0 27 455
SPMM,6,3,0 27 454
SPMM,7,3,0 27 453
DLACPY,2,21 27 452
SPMM,2,2,0 27 451
SPMM,3,2,0 27 450
SPMM,4,2,0 27 449
SPMM,5,2,0 27 448
SPMM,6,2,0 27 447
SPMM,7,2,0 27 446
DLACPY,1,21 27 445
SPMM,1,1,0 27 444
SPMM,2,1,0 27 443
SPMM,3,1,0 27 442
SPMM,4,1,0 27 441
SPMM,5,1,0 27 440
SPMM,6,1,0 27 439
SPMM,7,1,0 27 438
DLACPY,0,21 27 437
SPMM,0,0,0 27 436
SPMM,1,0,0 27 435
SPMM,2,0,0 27 434
SPMM,3,0,0 27 433
SPMM,4,0,0 27 432
SPMM,5,0,0 27 431
SPMM,6,0,0 27 430
SPMM,7,0,0 27 429
SPMM,8,0,0 43 428
SPMM,9,0,0 43 427
SPMM,10,0,0 43 426
SPMM,11,0,0 43 425
SPMM,8,1,0 43 424
SPMM,9,1,0 43 423
SPMM,10,1,0 43 422
SPMM,11,1,0 43 421
SPMM,8,2,0 43 420
SPMM,11,2,0 43 419
SPMM,8,3,0 43 418
SPMM,16,0,0 52 417
SPMM,17,0,0 52 416
SPMM,16,2,0 52 415
SPMM,17,2,0 52 414
SPMM,21,0,0 98 413
SPMM,22,0,0 98 412
SPMM,23,0,0 98 411
SPMM,21,2,0 98 410
SPMM,22,2,0 98 409
SPMM,23,2,0 98 408
XTY,3,3,21 28 407
XTY,2,2,21 28 406
XTY,1,1,21 28 405
XTY,0,0,21 28 404
XY,4,20 13 403
XY,5,20 13 402
XY,6,20 13 401
XY,7,20 13 400
DLACPY,7,21 34 399
SPMM,7,7,0 34 398
DLACPY,6,21 34 397
SPMM,6,6,0 34 396
SPMM,7,6,0 34 395
DLACPY,5,21 34 394
SPMM,5,5,0 34 393
SPMM,6,5,0 34 392
SPMM,7,5,0 34 391
DLACPY,4,21 34 390
SPMM,4,4,0 34 389
SPMM,5,4,0 34 388
SPMM,6,4,0 34 387
SPMM,7,4,0 34 386
SPMM,8,4,0 36 385
SPMM,11,4,0 36 384
SPMM,8,5,0 36 383
SPMM,8,6,0 36 382
SPMM,11,6,0 36 381
SPMM,8,7,0 36 380
SPMM,11,7,0 36 379
SPMM,30,4,0 95 378
SPMM,30,5,0 95 377
SPMM,30,6,0 95 376
XTY,7,7,21 35 375
XTY,6,6,21 35 374
XTY,5,5,21 35 373
XTY,4,4,21 35 372
XY,8,20 29 371
XY,9,20 29 370
XY,10,20 29 369
XY,11,20 29 368
DLACPY,11,21 49 367
SPMM,11,11,0 49 366
DLACPY,10,21 49 365
SPMM,10,10,0 49 364
SPMM,11,10,0 49 363
DLACPY,9,21 49 362
SPMM,9,9,0 49 361
SPMM,10,9,0 49 360
SPMM,11,9,0 49 359
DLACPY,8,21 49 358
SPMM,8,8,0 49 357
SPMM,9,8,0 49 356
SPMM,10,8,0 49 355
SPMM,11,8,0 49 354
SPMM,30,8,0 84 353
SPMM,30,9,0 84 352
SPMM,30,10,0 84 351
SPMM,30,11,0 84 350
XTY,11,11,21 50 349
XTY,10,10,21 50 348
XTY,9,9,21 50 347
XTY,8,8,21 50 346
XY,12,20 82 345
XY,13,20 82 344
XY,14,20 82 343
XY,15,20 82 342
DLACPY,15,21 91 341
SPMM,16,15,0 91 340
SPMM,17,15,0 91 339
SPMM,18,15,0 91 338
SPMM,19,15,0 91 337
SPMM,20,15,0 91 336
SPMM,21,15,0 91 335
SPMM,22,15,0 91 334
SPMM,23,15,0 91 333
DLACPY,14,21 91 332
DLACPY,13,21 91 331
DLACPY,12,21 91 330
SPMM,24,15,0 92 329
SPMM,27,15,0 92 328
SETZERO,15,1 99 327
SPMM,15,12,0 99 326
SPMM,15,13,0 99 325
SPMM,15,14,0 99 324
SPMM,15,15,0 99 323
SETZERO,14,1 99 322
SPMM,14,12,0 99 321
SPMM,14,13,0 99 320
SPMM,14,14,0 99 319
SETZERO,13,1 99 318
SPMM,13,12,0 99 317
SPMM,13,13,0 99 316
SETZERO,12,1 99 315
SPMM,12,12,0 99 314
SPMM,12,4,0 100 313
SPMM,12,6,0 100 312
SPMM,12,7,0 100 311
SPMM,13,7,0 100 310
SPMM,14,4,0 100 309
SPMM,14,7,0 100 308
SPMM,15,4,0 100 307
SPMM,15,6,0 100 306
SPMM,15,7,0 100 305
SPMM,12,8,0 101 304
SPMM,12,9,0 101 303
SPMM,12,10,0 101 302
SPMM,12,11,0 101 301
SPMM,13,9,0 101 300
SPMM,13,10,0 101 299
SPMM,13,11,0 101 298
SPMM,14,9,0 101 297
SPMM,14,11,0 101 296
SPMM,15,9,0 101 295
SPMM,15,10,0 101 294
SPMM,15,11,0 101 293
SPMM,12,0,0 102 292
SPMM,12,1,0 102 291
SPMM,12,2,0 102 290
XTY,12,12,21 102 289
SPMM,13,0,0 102 288
SPMM,13,1,0 102 287
SPMM,13,2,0 102 286
XTY,13,13,21 102 285
SPMM,14,0,0 102 284
SPMM,14,1,0 102 283
SPMM,14,2,0 102 282
XTY,14,14,21 102 281
SPMM,15,0,0 102 280
SPMM,15,1,0 102 279
SPMM,15,2,0 102 278
XTY,15,15,21 102 277
SPMM,30,12,0 94 276
SPMM,30,13,0 94 275
SPMM,30,14,0 94 274
SPMM,28,15,0 94 273
SPMM,29,15,0 94 272
SPMM,30,15,0 94 271
XY,16,20 51 270
XY,17,20 51 269
XY,18,20 51 268
XY,19,20 51 267
DLACPY,19,21 59 266
SPMM,19,19,0 59 265
DLACPY,18,21 59 264
SPMM,18,18,0 59 263
SPMM,19,18,0 59 262
DLACPY,17,21 59 261
SPMM,17,17,0 59 260
SPMM,18,17,0 59 259
SPMM,19,17,0 59 258
DLACPY,16,21 59 257
SPMM,16,16,0 59 256
SPMM,17,16,0 59 255
SPMM,18,16,0 59 254
SPMM,19,16,0 59 253
SPMM,20,16,0 64 252
SPMM,21,16,0 64 251
SPMM,22,16,0 64 250
SPMM,23,16,0 64 249
SPMM,20,17,0 64 248
SPMM,21,17,0 64 247
SPMM,22,17,0 64 246
SPMM,23,17,0 64 245
SPMM,20,18,0 64 244
SPMM,21,18,0 64 243
SPMM,22,18,0 64 242
SPMM,23,18,0 64 241
SPMM,20,19,0 64 240
SPMM,21,19,0 64 239
SPMM,22,19,0 64 238
SPMM,23,19,0 64 237
SPMM,24,16,0 83 236
SPMM,25,16,0 83 235
SPMM,26,16,0 83 234
SPMM,27,16,0 83 233
SPMM,24,17,0 83 232
SPMM,25,17,0 83 231
SPMM,26,17,0 83 230
SPMM,27,17,0 83 229
SPMM,24,18,0 83 228
SPMM,24,19,0 83 227
SPMM,27,19,0 83 226
SPMM,28,16,0 65 225
SPMM,29,16,0 65 224
SPMM,30,16,0 65 223
SPMM,28,17,0 65 222
SPMM,29,17,0 65 221
SPMM,30,17,0 65 220
SPMM,30,18,0 65 219
SPMM,29,19,0 65 218
SPMM,30,19,0 65 217
XTY,19,19,21 93 216
XTY,18,18,21 93 215
SPMM,16,6,0 93 214
SPMM,17,6,0 93 213
SPMM,16,7,0 93 212
XTY,16,16,21 93 211
SPMM,17,7,0 93 210
XTY,17,17,21 93 209
XY,20,20 78 208
XY,21,20 78 207
XY,22,20 78 206
XY,23,20 78 205
DLACPY,23,21 79 204
SPMM,23,23,0 79 203
DLACPY,22,21 79 202
SPMM,22,22,0 79 201
SPMM,23,22,0 79 200
DLACPY,21,21 79 199
SPMM,21,21,0 79 198
SPMM,22,21,0 79 197
SPMM,23,21,0 79 196
DLACPY,20,21 79 195
SPMM,20,20,0 79 194
SPMM,21,20,0 79 193
SPMM,22,20,0 79 192
SPMM,23,20,0 79 191
SPMM,24,20,0 80 190
SPMM,27,20,0 80 189
SPMM,24,21,0 80 188
SPMM,27,21,0 80 187
SPMM,24,22,0 80 186
SPMM,27,22,0 80 185
SPMM,24,23,0 80 184
SPMM,29,20,0 81 183
SPMM,30,20,0 81 182
SPMM,30,21,0 81 181
SPMM,28,22,0 81 180
SPMM,29,22,0 81 179
SPMM,30,22,0 81 178
SPMM,30,23,0 81 177
XY,24,20 53 176
XY,25,20 53 175
XY,26,20 53 174
XY,27,20 53 173
DLACPY,27,21 72 172
SPMM,27,27,0 72 171
DLACPY,26,21 72 170
SPMM,26,26,0 72 169
SPMM,27,26,0 72 168
DLACPY,25,21 72 167
SPMM,25,25,0 72 166
SPMM,26,25,0 72 165
SPMM,27,25,0 72 164
DLACPY,24,21 72 163
SPMM,24,24,0 72 162
SPMM,25,24,0 72 161
SPMM,26,24,0 72 160
SPMM,27,24,0 72 159
SPMM,28,24,0 73 158
SPMM,29,24,0 73 157
SPMM,30,24,0 73 156
SPMM,28,25,0 73 155
SPMM,29,25,0 73 154
SPMM,30,25,0 73 153
SPMM,28,26,0 73 152
SPMM,29,26,0 73 151
SPMM,30,26,0 73 150
SPMM,28,27,0 73 149
SPMM,29,27,0 73 148
SPMM,30,27,0 73 147
XTY,29,9,21 96 146
XTY,28,8,21 96 145
SPMM,30,0,0 96 144
SPMM,30,1,0 96 143
SPMM,30,2,0 96 142
SPMM,30,3,0 96 141
XTY,30,10,21 96 140
XTY,27,7,21 97 139
XTY,26,6,21 97 138
XTY,25,5,21 97 137
SPMM,24,0,0 97 136
SPMM,24,2,0 97 135
XTY,24,4,21 97 134
XTY,23,3,21 103 133
XTY,20,0,21 103 132
SPMM,21,6,0 103 131
XTY,21,1,21 103 130
SPMM,22,7,0 103 129
XTY,22,2,21 103 128
RED,XAXBUF,0 103 127
SPEUPDATE,XAX 104 126
EIGEN 104 125
XY,12,22 104 124
XY,13,22 104 123
XY,14,22 104 122
XY,15,22 104 121
XY,28,22 104 120
XY,29,22 104 119
XY,30,22 104 118
XY,0,21 106 117
DLACPY,0,22 106 116
XY,1,21 106 115
DLACPY,1,22 106 114
XY,2,21 106 113
DLACPY,2,22 106 112
XY,3,21 106 111
DLACPY,3,22 106 110
XY,20,21 106 109
DLACPY,20,22 106 108
XY,21,21 106 107
DLACPY,21,22 106 106
XY,22,21 106 105
DLACPY,22,22 106 104
XY,23,21 106 103
DLACPY,23,22 106 102
XY,4,21 109 101
DLACPY,4,22 109 100
XY,5,21 109 99
DLACPY,5,22 109 98
XY,6,21 109 97
DLACPY,6,22 109 96
XY,7,21 109 95
DLACPY,7,22 109 94
XY,24,21 109 93
XY,25,21 109 92
XY,26,21 109 91
XY,27,21 109 90
DLACPY,27,22 111 89
DLACPY,26,22 111 88
DLACPY,25,22 111 87
DLACPY,24,22 111 86
XY,16,21 111 85
DLACPY,16,22 111 84
XY,17,21 111 83
DLACPY,17,22 111 82
XY,18,21 111 81
DLACPY,18,22 111 80
XY,19,21 111 79
DLACPY,19,22 111 78
XY,12,21 110 77
DLACPY,12,22 110 76
XY,13,21 110 75
DLACPY,13,22 110 74
XY,14,21 110 73
DLACPY,14,22 110 72
XY,15,21 110 71
DLACPY,15,22 110 70
XY,28,21 110 69
DLACPY,28,22 110 68
XY,29,21 110 67
DLACPY,29,22 110 66
XY,30,21 110 65
DLACPY,30,22 110 64
XY,8,21 107 63
DLACPY,8,22 107 62
XY,9,21 107 61
DLACPY,9,22 107 60
XY,10,21 107 59
DLACPY,10,22 107 58
XY,11,21 107 57
DLACPY,11,22 107 56
XY,0,22 107 55
DLACPY,0,23 107 54
XY,1,22 107 53
DLACPY,1,23 107 52
XY,2,22 107 51
DLACPY,2,23 107 50
XY,3,22 107 49
DLACPY,3,23 107 48
XY,4,22 108 47
DLACPY,4,23 108 46
XY,5,22 108 45
DLACPY,5,23 108 44
XY,6,22 108 43
DLACPY,6,23 108 42
XY,7,22 108 41
DLACPY,7,23 108 40
XY,16,22 108 39
DLACPY,16,23 108 38
XY,17,22 108 37
DLACPY,17,23 108 36
XY,18,22 108 35
DLACPY,18,23 108 34
XY,19,22 108 33
DLACPY,19,23 108 32
XY,8,22 112 31
DLACPY,8,23 112 30
XY,9,22 112 29
DLACPY,9,23 112 28
XY,10,22 112 27
DLACPY,10,23 112 26
XY,11,22 112 25
DLACPY,11,23 112 24
XY,20,22 112 23
DLACPY,20,23 112 22
XY,21,22 112 21
DLACPY,21,23 112 20
XY,22,22 112 19
DLACPY,22,23 112 18
XY,23,22 112 17
DLACPY,23,23 112 16
DLACPY,30,23 105 15
DLACPY,29,23 105 14
DLACPY,28,23 105 13
DLACPY,15,23 105 12
DLACPY,14,23 105 11
DLACPY,13,23 105 10
DLACPY,12,23 105 9
XY,24,22 105 8
DLACPY,24,23 105 7
XY,25,22 105 6
DLACPY,25,23 105 5
XY,26,22 105 4
DLACPY,26,23 105 3
XY,27,22 105 2
DLACPY,27,23 105 1
