SETZERO,3,1 6 980
SETZERO,2,1 6 979
SETZERO,1,1 6 978
SETZERO,0,1 6 977
_AX,11 6 976
_AX,10 6 975
_AX,9 6 974
_AX,8 6 973
_X,11 6 972
_X,10 6 971
_X,9 6 970
_X,8 6 969
RESET,RN 0 968
_X,7 0 967
_X,6 0 966
_X,5 0 965
_X,4 0 964
_lambda 0 963
XY,4,1 0 962
XY,5,1 0 961
XY,6,1 0 960
XY,7,1 0 959
_AX,7 11 958
SUB,7,1 11 957
MULT,7 11 956
COL,7,7 11 955
_AX,6 11 954
SUB,6,1 11 953
MULT,6 11 952
COL,6,6 11 951
_AX,5 11 950
SUB,5,1 11 949
MULT,5 11 948
COL,5,5 11 947
_AX,4 11 946
SUB,4,1 11 945
MULT,4 11 944
COL,4,4 11 943
SETZERO,7,1 10 942
SETZERO,6,1 10 941
SETZERO,5,1 10 940
SETZERO,4,1 10 939
_AX,19 10 938
_AX,18 10 937
_AX,17 10 936
_AX,16 10 935
_X,3 10 934
XY,3,1 10 933
_X,2 10 932
XY,2,1 10 931
_X,1 10 930
XY,1,1 10 929
_X,0 10 928
XY,0,1 10 927
_AX,3 12 926
SUB,3,1 12 925
MULT,3 12 924
COL,3,3 12 923
_AX,2 12 922
SUB,2,1 12 921
MULT,2 12 920
COL,2,2 12 919
_AX,1 12 918
SUB,1,1 12 917
MULT,1 12 916
COL,1,1 12 915
_AX,0 12 914
SUB,0,1 12 913
MULT,0 12 912
COL,0,0 12 911
XY,8,1 7 910
SUB,8,1 7 909
MULT,8 7 908
XY,9,1 7 907
SUB,9,1 7 906
MULT,9 7 905
XY,10,1 7 904
SUB,10,1 7 903
MULT,10 7 902
XY,11,1 7 901
SUB,11,1 7 900
MULT,11 7 899
COL,11,11 8 898
COL,10,10 8 897
COL,9,9 8 896
COL,8,8 8 895
_AX,27 2 894
_AX,26 2 893
_AX,25 2 892
_AX,24 2 891
_X,15 2 890
XY,15,1 2 889
_X,14 2 888
XY,14,1 2 887
_X,13 2 886
XY,13,1 2 885
_X,12 2 884
XY,12,1 2 883
SETZERO,27,1 4 882
SETZERO,26,1 4 881
SETZERO,25,1 4 880
SETZERO,24,1 4 879
_X,27 4 878
XY,27,1 4 877
_X,26 4 876
XY,26,1 4 875
_X,25 4 874
XY,25,1 4 873
_X,24 4 872
XY,24,1 4 871
SETZERO,23,1 1 870
SETZERO,22,1 1 869
SETZERO,21,1 1 868
SETZERO,20,1 1 867
SETZERO,15,1 1 866
SETZERO,14,1 1 865
SETZERO,13,1 1 864
SETZERO,12,1 1 863
_X,30 1 862
XY,30,1 1 861
_X,29 1 860
XY,29,1 1 859
_X,28 1 858
XY,28,1 1 857
_AX,30 3 856
SUB,30,1 3 855
_AX,29 3 854
SUB,29,1 3 853
_AX,28 3 852
SUB,28,1 3 851
_X,23 3 850
XY,23,1 3 849
_X,22 3 848
XY,22,1 3 847
_X,21 3 846
XY,21,1 3 845
_X,20 3 844
XY,20,1 3 843
MULT,28 5 842
MULT,29 5 841
MULT,30 5 840
_AX,15 5 839
SUB,15,1 5 838
MULT,15 5 837
_AX,14 5 836
SUB,14,1 5 835
MULT,14 5 834
_AX,13 5 833
SUB,13,1 5 832
MULT,13 5 831
_AX,12 5 830
SUB,12,1 5 829
MULT,12 5 828
COL,30,10 14 827
COL,29,9 14 826
COL,28,8 14 825
SUB,24,1 14 824
MULT,24 14 823
COL,24,4 14 822
SUB,25,1 14 821
MULT,25 14 820
COL,25,5 14 819
SUB,26,1 14 818
MULT,26 14 817
COL,26,6 14 816
SUB,27,1 14 815
MULT,27 14 814
COL,27,7 14 813
COL,12,12 9 812
COL,13,13 9 811
COL,14,14 9 810
COL,15,15 9 809
SETZERO,19,1 9 808
SETZERO,18,1 9 807
SETZERO,17,1 9 806
SETZERO,16,1 9 805
SETZERO,11,1 9 804
SETZERO,10,1 9 803
SETZERO,9,1 9 802
SETZERO,8,1 9 801
_AX,23 13 800
SUB,23,1 13 799
MULT,23 13 798
_AX,22 13 797
SUB,22,1 13 796
MULT,22 13 795
_AX,21 13 794
SUB,21,1 13 793
MULT,21 13 792
_AX,20 13 791
SUB,20,1 13 790
MULT,20 13 789
COL,20,0 15 788
COL,21,1 15 787
COL,22,2 15 786
COL,23,3 15 785
_X,19 15 784
XY,19,1 15 783
_X,18 15 782
XY,18,1 15 781
_X,17 15 780
XY,17,1 15 779
_X,16 15 778
XY,16,1 15 777
SUB,16,1 16 776
MULT,16 16 775
COL,16,16 16 774
SUB,17,1 16 773
MULT,17 16 772
COL,17,17 16 771
SUB,18,1 16 770
MULT,18 16 769
COL,18,18 16 768
SUB,19,1 16 767
MULT,19 16 766
COL,19,19 16 765
RNRED,RNBUF 16 764
SQRT,RN 17 763
RESET,actMask 17 762
CONV,actMask 17 761
GET,0,1 17 760
XTY,0,0,1 17 759
GET,1,1 17 758
XTY,1,1,1 17 757
GET,2,1 17 756
XTY,2,2,1 17 755
GET,3,1 17 754
XTY,3,3,1 17 753
CONSTRUCTGB 17 752
SETZERO,30,1 17 751
SETZERO,29,1 17 750
SETZERO,28,1 17 749
GET,4,1 18 748
XTY,4,4,1 18 747
GET,5,1 18 746
XTY,5,5,1 18 745
GET,6,1 18 744
XTY,6,6,1 18 743
GET,7,1 18 742
XTY,7,7,1 18 741
GET,8,1 21 740
XTY,8,8,1 21 739
GET,9,1 21 738
XTY,9,9,1 21 737
GET,10,1 21 736
XTY,10,10,1 21 735
GET,11,1 21 734
XTY,11,11,1 21 733
GET,12,1 23 732
XTY,12,12,1 23 731
GET,13,1 23 730
XTY,13,13,1 23 729
GET,14,1 23 728
XTY,14,14,1 23 727
GET,15,1 23 726
XTY,15,15,1 23 725
GET,16,1 19 724
XTY,16,16,1 19 723
GET,17,1 19 722
XTY,17,17,1 19 721
GET,18,1 19 720
XTY,18,18,1 19 719
GET,19,1 19 718
XTY,19,19,1 19 717
GET,20,1 22 716
GET,21,1 22 715
GET,22,1 22 714
GET,23,1 22 713
GET,24,1 20 712
XTY,24,4,1 20 711
GET,25,1 20 710
XTY,25,5,1 20 709
GET,26,1 20 708
XTY,26,6,1 20 707
GET,27,1 20 706
XTY,27,7,1 20 705
GET,28,1 24 704
XTY,28,8,1 24 703
GET,29,1 24 702
XTY,29,9,1 24 701
GET,30,1 24 700
XTY,30,10,1 24 699
XTY,23,3,1 25 698
XTY,22,2,1 25 697
XTY,21,1,1 25 696
XTY,20,0,1 25 695
RED,temp2BUF,0 25 694
XY,4,2 30 693
SUB,4,2 30 692
XTY,4,4,2 30 691
XY,5,2 30 690
SUB,5,2 30 689
XTY,5,5,2 30 688
XY,6,2 30 687
SUB,6,2 30 686
XTY,6,6,2 30 685
XY,7,2 30 684
SUB,7,2 30 683
XTY,7,7,2 30 682
XY,0,2 29 681
XY,1,2 29 680
XY,2,2 29 679
XY,3,2 29 678
XY,12,2 29 677
XY,13,2 29 676
XY,14,2 29 675
XY,15,2 29 674
SUB,15,2 33 673
XTY,15,15,2 33 672
SUB,14,2 33 671
XTY,14,14,2 33 670
SUB,13,2 33 669
XTY,13,13,2 33 668
SUB,12,2 33 667
XTY,12,12,2 33 666
SUB,3,2 33 665
XTY,3,3,2 33 664
SUB,2,2 33 663
XTY,2,2,2 33 662
SUB,1,2 33 661
XTY,1,1,2 33 660
SUB,0,2 33 659
XTY,0,0,2 33 658
XY,16,2 26 657
XY,17,2 26 656
XY,18,2 26 655
XY,19,2 26 654
XY,20,2 27 653
XY,21,2 27 652
XY,22,2 27 651
XY,23,2 27 650
XY,24,2 27 649
XY,25,2 27 648
XY,26,2 27 647
XY,27,2 27 646
SUB,23,2 31 645
XTY,23,3,2 31 644
SUB,22,2 31 643
XTY,22,2,2 31 642
SUB,21,2 31 641
XTY,21,1,2 31 640
SUB,20,2 31 639
XTY,20,0,2 31 638
SUB,19,2 31 637
XTY,19,19,2 31 636
SUB,18,2 31 635
XTY,18,18,2 31 634
SUB,17,2 31 633
XTY,17,17,2 31 632
SUB,16,2 31 631
XTY,16,16,2 31 630
XY,8,2 28 629
XY,9,2 28 628
XY,10,2 28 627
XY,11,2 28 626
XY,28,2 28 625
XY,29,2 28 624
XY,30,2 28 623
SUB,11,2 32 622
XTY,11,11,2 32 621
SUB,10,2 32 620
XTY,10,10,2 32 619
SUB,9,2 32 618
XTY,9,9,2 32 617
SUB,8,2 32 616
XTY,8,8,2 32 615
SUB,27,2 32 614
XTY,27,7,2 32 613
SUB,26,2 32 612
XTY,26,6,2 32 611
SUB,25,2 32 610
XTY,25,5,2 32 609
SUB,24,2 32 608
XTY,24,4,2 32 607
SUB,30,2 34 606
XTY,30,10,2 34 605
SUB,29,2 34 604
XTY,29,9,2 34 603
SUB,28,2 34 602
XTY,28,8,2 34 601
RED,RBRBUF,0 34 600
CHOL,RBR 34 599
INV,RBR 34 598
XY,28,3 34 597
DLACPY,28,1 34 596
XY,29,3 34 595
DLACPY,29,1 34 594
XY,30,3 34 593
DLACPY,30,1 34 592
XY,4,3 35 591
XY,5,3 35 590
XY,6,3 35 589
XY,7,3 35 588
DLACPY,7,1 41 587
SPMM,8,7,0 41 586
SPMM,11,7,0 41 585
SPMM,12,7,0 41 584
SPMM,13,7,0 41 583
SPMM,14,7,0 41 582
SPMM,15,7,0 41 581
SPMM,16,7,0 41 580
SPMM,17,7,0 41 579
DLACPY,6,1 41 578
SPMM,8,6,0 41 577
SPMM,11,6,0 41 576
SPMM,12,6,0 41 575
SPMM,15,6,0 41 574
SPMM,16,6,0 41 573
SPMM,17,6,0 41 572
DLACPY,5,1 41 571
SPMM,8,5,0 41 570
DLACPY,4,1 41 569
SPMM,8,4,0 41 568
SPMM,11,4,0 41 567
SPMM,12,4,0 41 566
SPMM,14,4,0 41 565
SPMM,15,4,0 41 564
XY,0,3 36 563
XY,1,3 36 562
XY,2,3 36 561
XY,3,3 36 560
XY,8,3 36 559
XY,9,3 36 558
XY,10,3 36 557
XY,11,3 36 556
DLACPY,11,1 39 555
SPMM,11,11,0 39 554
SPMM,12,11,0 39 553
SPMM,13,11,0 39 552
SPMM,14,11,0 39 551
SPMM,15,11,0 39 550
DLACPY,10,1 39 549
SPMM,10,10,0 39 548
SPMM,11,10,0 39 547
SPMM,12,10,0 39 546
SPMM,13,10,0 39 545
SPMM,15,10,0 39 544
DLACPY,9,1 39 543
SPMM,9,9,0 39 542
SPMM,10,9,0 39 541
SPMM,11,9,0 39 540
SPMM,12,9,0 39 539
SPMM,13,9,0 39 538
SPMM,14,9,0 39 537
SPMM,15,9,0 39 536
DLACPY,8,1 39 535
SPMM,8,8,0 39 534
SPMM,9,8,0 39 533
SPMM,10,8,0 39 532
SPMM,11,8,0 39 531
SPMM,12,8,0 39 530
UPDATE,8,1 49 529
UPDATE,9,1 49 528
UPDATE,10,1 49 527
UPDATE,11,1 49 526
SPMM,30,4,0 49 525
UPDATE,4,1 49 524
SPMM,30,5,0 49 523
UPDATE,5,1 49 522
SPMM,30,6,0 49 521
UPDATE,6,1 49 520
UPDATE,7,1 49 519
DLACPY,3,1 44 518
SPMM,4,3,0 44 517
SPMM,5,3,0 44 516
SPMM,6,3,0 44 515
SPMM,7,3,0 44 514
SPMM,8,3,0 44 513
DLACPY,2,1 44 512
SPMM,4,2,0 44 511
SPMM,5,2,0 44 510
SPMM,6,2,0 44 509
SPMM,7,2,0 44 508
SPMM,8,2,0 44 507
SPMM,11,2,0 44 506
SPMM,12,2,0 44 505
SPMM,13,2,0 44 504
SPMM,14,2,0 44 503
SPMM,15,2,0 44 502
DLACPY,1,1 44 501
SPMM,4,1,0 44 500
SPMM,5,1,0 44 499
SPMM,6,1,0 44 498
SPMM,7,1,0 44 497
SPMM,8,1,0 44 496
SPMM,9,1,0 44 495
SPMM,10,1,0 44 494
SPMM,11,1,0 44 493
SPMM,12,1,0 44 492
SPMM,13,1,0 44 491
SPMM,14,1,0 44 490
SPMM,15,1,0 44 489
DLACPY,0,1 44 488
SPMM,4,0,0 44 487
SPMM,5,0,0 44 486
SPMM,6,0,0 44 485
SPMM,7,0,0 44 484
SPMM,8,0,0 44 483
SPMM,9,0,0 44 482
SPMM,10,0,0 44 481
SPMM,11,0,0 44 480
SPMM,12,0,0 44 479
SPMM,13,0,0 44 478
SPMM,14,0,0 44 477
SPMM,15,0,0 44 476
SPMM,4,4,0 55 475
XTY,4,4,5 55 474
SPMM,5,4,0 55 473
SPMM,6,4,0 55 472
SPMM,7,4,0 55 471
SPMM,5,5,0 55 470
XTY,5,5,5 55 469
SPMM,6,5,0 55 468
SPMM,7,5,0 55 467
SPMM,6,6,0 55 466
XTY,6,6,5 55 465
SPMM,7,6,0 55 464
SPMM,7,7,0 55 463
XTY,7,7,5 55 462
SPMM,16,0,0 45 461
SPMM,17,0,0 45 460
SPMM,16,2,0 45 459
SPMM,17,2,0 45 458
SPMM,21,0,0 46 457
SPMM,22,0,0 46 456
SPMM,23,0,0 46 455
SPMM,21,2,0 46 454
SPMM,22,2,0 46 453
SPMM,23,2,0 46 452
SPMM,30,0,0 47 451
SPMM,30,1,0 47 450
SPMM,30,2,0 47 449
SPMM,30,3,0 47 448
UPDATE,0,1 50 447
UPDATE,1,1 50 446
UPDATE,2,1 50 445
UPDATE,3,1 50 444
XTY,11,11,5 48 443
XTY,10,10,5 48 442
XTY,9,9,5 48 441
XTY,8,8,5 48 440
XTY,0,0,4 48 439
XTY,1,1,4 48 438
XTY,2,2,4 48 437
XTY,3,3,4 48 436
SPMM,0,0,0 52 435
XTY,0,0,5 52 434
SPMM,1,0,0 52 433
SPMM,2,0,0 52 432
SPMM,3,0,0 52 431
SPMM,1,1,0 52 430
XTY,1,1,5 52 429
SPMM,2,1,0 52 428
SPMM,3,1,0 52 427
SPMM,2,2,0 52 426
XTY,2,2,5 52 425
SPMM,3,2,0 52 424
SPMM,3,3,0 52 423
XTY,3,3,5 52 422
XY,16,3 37 421
XY,17,3 37 420
XY,18,3 37 419
XY,19,3 37 418
XY,20,3 37 417
XY,21,3 37 416
XY,22,3 37 415
XY,23,3 37 414
DLACPY,23,1 56 413
SPMM,23,23,0 56 412
SPMM,24,23,0 56 411
SPMM,30,23,0 56 410
DLACPY,22,1 56 409
SPMM,22,22,0 56 408
SPMM,23,22,0 56 407
SPMM,24,22,0 56 406
SPMM,27,22,0 56 405
SPMM,28,22,0 56 404
SPMM,29,22,0 56 403
SPMM,30,22,0 56 402
DLACPY,21,1 56 401
SPMM,21,21,0 56 400
SPMM,22,21,0 56 399
SPMM,23,21,0 56 398
SPMM,24,21,0 56 397
SPMM,27,21,0 56 396
SPMM,30,21,0 56 395
DLACPY,20,1 56 394
SPMM,20,20,0 56 393
SPMM,21,20,0 56 392
SPMM,22,20,0 56 391
SPMM,23,20,0 56 390
SPMM,24,20,0 56 389
SPMM,27,20,0 56 388
SPMM,29,20,0 56 387
SPMM,30,20,0 56 386
DLACPY,19,1 40 385
SPMM,20,19,0 40 384
SPMM,21,19,0 40 383
SPMM,22,19,0 40 382
SPMM,23,19,0 40 381
SPMM,29,19,0 40 380
SPMM,30,19,0 40 379
UPDATE,19,1 40 378
DLACPY,18,1 40 377
SPMM,20,18,0 40 376
SPMM,21,18,0 40 375
SPMM,22,18,0 40 374
SPMM,23,18,0 40 373
SPMM,30,18,0 40 372
UPDATE,18,1 40 371
DLACPY,17,1 40 370
SPMM,20,17,0 40 369
SPMM,21,17,0 40 368
SPMM,22,17,0 40 367
SPMM,23,17,0 40 366
SPMM,28,17,0 40 365
SPMM,29,17,0 40 364
SPMM,30,17,0 40 363
UPDATE,17,1 40 362
DLACPY,16,1 40 361
SPMM,20,16,0 40 360
SPMM,21,16,0 40 359
SPMM,22,16,0 40 358
SPMM,23,16,0 40 357
SPMM,28,16,0 40 356
SPMM,29,16,0 40 355
SPMM,30,16,0 40 354
UPDATE,16,1 40 353
SPMM,16,16,0 42 352
SPMM,17,16,0 42 351
SPMM,18,16,0 42 350
SPMM,19,16,0 42 349
SPMM,17,17,0 42 348
SPMM,18,17,0 42 347
SPMM,19,17,0 42 346
SPMM,18,18,0 42 345
SPMM,19,18,0 42 344
SPMM,19,19,0 42 343
SPMM,24,16,0 53 342
SPMM,25,16,0 53 341
SPMM,26,16,0 53 340
SPMM,27,16,0 53 339
SPMM,24,17,0 53 338
SPMM,25,17,0 53 337
SPMM,26,17,0 53 336
SPMM,27,17,0 53 335
SPMM,24,18,0 53 334
SPMM,24,19,0 53 333
SPMM,27,19,0 53 332
SPMM,30,8,0 53 331
SPMM,30,9,0 53 330
SPMM,30,10,0 53 329
SPMM,30,11,0 53 328
XTY,16,16,4 43 327
XTY,17,17,4 43 326
XTY,18,18,4 43 325
XTY,19,19,4 43 324
XTY,4,4,4 43 323
XTY,5,5,4 43 322
XTY,6,6,4 43 321
XTY,7,7,4 43 320
XY,12,3 38 319
XY,13,3 38 318
XY,14,3 38 317
XY,15,3 38 316
XY,24,3 38 315
XY,25,3 38 314
XY,26,3 38 313
XY,27,3 38 312
DLACPY,27,1 51 311
SPMM,27,27,0 51 310
SPMM,28,27,0 51 309
SPMM,29,27,0 51 308
SPMM,30,27,0 51 307
DLACPY,26,1 51 306
SPMM,26,26,0 51 305
SPMM,27,26,0 51 304
SPMM,28,26,0 51 303
SPMM,29,26,0 51 302
SPMM,30,26,0 51 301
DLACPY,25,1 51 300
SPMM,25,25,0 51 299
SPMM,26,25,0 51 298
SPMM,27,25,0 51 297
SPMM,28,25,0 51 296
SPMM,29,25,0 51 295
SPMM,30,25,0 51 294
DLACPY,24,1 51 293
SPMM,24,24,0 51 292
SPMM,25,24,0 51 291
SPMM,26,24,0 51 290
SPMM,27,24,0 51 289
SPMM,28,24,0 51 288
SPMM,29,24,0 51 287
SPMM,30,24,0 51 286
UPDATE,24,1 54 285
UPDATE,25,1 54 284
UPDATE,26,1 54 283
UPDATE,27,1 54 282
SPMM,30,30,0 54 281
SPMM,29,29,0 54 280
SPMM,30,29,0 54 279
SPMM,28,28,0 54 278
SPMM,29,28,0 54 277
SPMM,30,28,0 54 276
XTY,24,4,4 57 275
XTY,25,5,4 57 274
XTY,26,6,4 57 273
XTY,27,7,4 57 272
UPDATE,20,1 57 271
XTY,20,0,4 57 270
UPDATE,21,1 57 269
XTY,21,1,4 57 268
UPDATE,22,1 57 267
XTY,22,2,4 57 266
UPDATE,23,1 57 265
XTY,23,3,4 57 264
DLACPY,15,1 58 263
SPMM,15,15,0 58 262
SPMM,24,15,0 58 261
SPMM,27,15,0 58 260
DLACPY,14,1 58 259
SPMM,14,14,0 58 258
SPMM,15,14,0 58 257
DLACPY,13,1 58 256
SPMM,13,13,0 58 255
SPMM,14,13,0 58 254
SPMM,15,13,0 58 253
DLACPY,12,1 58 252
SPMM,12,12,0 58 251
SPMM,13,12,0 58 250
SPMM,14,12,0 58 249
SPMM,15,12,0 58 248
SPMM,16,15,0 62 247
XTY,16,16,5 62 246
SPMM,17,15,0 62 245
XTY,17,17,5 62 244
SPMM,18,15,0 62 243
XTY,18,18,5 62 242
SPMM,19,15,0 62 241
XTY,19,19,5 62 240
SPMM,30,12,0 63 239
SPMM,30,13,0 63 238
SPMM,30,14,0 63 237
SPMM,28,15,0 63 236
XTY,28,8,5 63 235
SPMM,29,15,0 63 234
XTY,29,9,5 63 233
SPMM,30,15,0 63 232
XTY,30,10,5 63 231
UPDATE,12,1 61 230
UPDATE,13,1 61 229
UPDATE,14,1 61 228
XTY,27,7,5 61 227
UPDATE,15,1 61 226
XTY,26,6,5 61 225
XTY,25,5,5 61 224
SPMM,24,0,0 61 223
SPMM,24,2,0 61 222
XTY,24,4,5 61 221
XTY,15,15,5 59 220
XTY,14,14,5 59 219
XTY,13,13,5 59 218
XTY,12,12,5 59 217
SPMM,20,15,0 59 216
SPMM,21,15,0 59 215
SPMM,22,15,0 59 214
SPMM,23,15,0 59 213
XTY,23,3,5 60 212
XTY,20,0,5 60 211
SPMM,21,6,0 60 210
XTY,21,1,5 60 209
SPMM,22,7,0 60 208
XTY,22,2,5 60 207
RED,RARBUF,0 64 206
TRANS,RAR 64 205
XTY,8,8,4 64 204
XTY,9,9,4 64 203
XTY,10,10,4 64 202
XTY,11,11,4 64 201
XTY,12,12,4 65 200
XTY,13,13,4 65 199
XTY,14,14,4 65 198
XTY,15,15,4 65 197
UPDATE,30,1 65 196
XTY,30,10,4 65 195
UPDATE,29,1 65 194
XTY,29,9,4 65 193
UPDATE,28,1 65 192
XTY,28,8,4 65 191
RED,XARBUF,0 65 190
SPEUPDATE,RAR 66 189
CONSTRUCTGA 66 188
EIGEN 66 187
XY,12,11 66 186
XY,13,11 66 185
XY,14,11 66 184
XY,15,11 66 183
XY,8,6 75 182
XY,9,6 75 181
XY,10,6 75 180
XY,11,6 75 179
XY,8,10 81 178
ADD,8,3 81 177
XY,9,10 81 176
ADD,9,3 81 175
XY,10,10 81 174
ADD,10,3 81 173
XY,11,10 81 172
ADD,11,3 81 171
XY,20,6 76 170
XY,21,6 76 169
XY,22,6 76 168
XY,23,6 76 167
XY,20,10 85 166
ADD,20,3 85 165
XY,21,10 85 164
ADD,21,3 85 163
XY,22,10 85 162
ADD,22,3 85 161
XY,23,10 85 160
ADD,23,3 85 159
XY,16,6 70 158
XY,17,6 70 157
XY,18,6 70 156
XY,19,6 70 155
XY,24,6 70 154
XY,25,6 70 153
XY,26,6 70 152
XY,27,6 70 151
XY,24,10 74 150
ADD,24,3 74 149
XY,25,10 74 148
ADD,25,3 74 147
XY,26,10 74 146
ADD,26,3 74 145
XY,27,10 74 144
ADD,27,3 74 143
XY,16,10 88 142
ADD,16,3 88 141
XY,17,10 88 140
ADD,17,3 88 139
XY,18,10 88 138
ADD,18,3 88 137
XY,19,10 88 136
ADD,19,3 88 135
XY,12,8 86 134
XY,13,8 86 133
XY,14,8 86 132
XY,15,8 86 131
ADD,15,4 90 130
ADD,14,4 90 129
ADD,13,4 90 128
ADD,12,4 90 127
XY,0,6 71 126
XY,1,6 71 125
XY,2,6 71 124
XY,3,6 71 123
XY,28,10 71 122
XY,29,10 71 121
XY,30,10 71 120
XY,28,6 72 119
ADD,28,3 72 118
XY,29,6 72 117
ADD,29,3 72 116
XY,30,6 72 115
ADD,30,3 72 114
XY,0,10 77 113
ADD,0,3 77 112
XY,1,10 77 111
ADD,1,3 77 110
XY,2,10 77 109
ADD,2,3 77 108
XY,3,10 77 107
ADD,3,3 77 106
XY,0,11 73 105
XY,1,11 73 104
XY,2,11 73 103
XY,3,11 73 102
XY,0,8 84 101
ADD,0,4 84 100
XY,1,8 84 99
ADD,1,4 84 98
XY,2,8 84 97
ADD,2,4 84 96
XY,3,8 84 95
ADD,3,4 84 94
XY,4,8 79 93
XY,5,8 79 92
XY,6,8 79 91
XY,7,8 79 90
XY,8,11 79 89
XY,9,11 79 88
XY,10,11 79 87
XY,11,11 79 86
XY,8,8 91 85
ADD,8,4 91 84
XY,9,8 91 83
ADD,9,4 91 82
XY,10,8 91 81
ADD,10,4 91 80
XY,11,8 91 79
ADD,11,4 91 78
XY,4,11 82 77
ADD,4,4 82 76
XY,5,11 82 75
ADD,5,4 82 74
XY,6,11 82 73
ADD,6,4 82 72
XY,7,11 82 71
ADD,7,4 82 70
XY,12,6 69 69
XY,13,6 69 68
XY,14,6 69 67
XY,15,6 69 66
XY,16,11 69 65
XY,17,11 69 64
XY,18,11 69 63
XY,19,11 69 62
XY,16,8 92 61
ADD,16,4 92 60
XY,17,8 92 59
ADD,17,4 92 58
XY,18,8 92 57
ADD,18,4 92 56
XY,19,8 92 55
ADD,19,4 92 54
XY,12,10 89 53
ADD,12,3 89 52
XY,13,10 89 51
ADD,13,3 89 50
XY,14,10 89 49
ADD,14,3 89 48
XY,15,10 89 47
ADD,15,3 89 46
XY,20,11 78 45
XY,21,11 78 44
XY,22,11 78 43
XY,23,11 78 42
XY,20,8 80 41
ADD,20,4 80 40
XY,21,8 80 39
ADD,21,4 80 38
XY,22,8 80 37
ADD,22,4 80 36
XY,23,8 80 35
ADD,23,4 80 34
XY,4,6 68 33
XY,5,6 68 32
XY,6,6 68 31
XY,7,6 68 30
XY,24,11 68 29
XY,25,11 68 28
XY,26,11 68 27
XY,27,11 68 26
XY,24,8 83 25
ADD,24,4 83 24
XY,25,8 83 23
ADD,25,4 83 22
XY,26,8 83 21
ADD,26,4 83 20
XY,27,8 83 19
ADD,27,4 83 18
XY,4,10 87 17
ADD,4,3 87 16
XY,5,10 87 15
ADD,5,3 87 14
XY,6,10 87 13
ADD,6,3 87 12
XY,7,10 87 11
ADD,7,3 87 10
XY,28,11 67 9
XY,29,11 67 8
XY,30,11 67 7
XY,28,8 93 6
ADD,28,4 93 5
XY,29,8 93 4
ADD,29,4 93 3
XY,30,8 93 2
ADD,30,4 93 1
