3663
22,0,1,_X,-1,0,3663
22,0,1,_X,-1,0,3662
22,0,1,_X,-1,0,3661
22,0,1,_AX,-1,0,3660
22,0,1,_AX,-1,0,3659
22,0,1,_AX,-1,0,3658
22,0,1,_AX,-1,0,3657
22,0,1,_P,-1,0,3656
22,0,1,_P,-1,0,3655
22,0,1,_P,-1,0,3654
22,0,1,_P,-1,0,3653
22,0,1,_X,-1,0,3652
22,0,1,_X,-1,0,3651
22,0,1,_X,-1,0,3650
22,0,1,_X,-1,0,3649
22,0,1,_P,-1,0,3648
22,0,1,_P,-1,0,3647
22,0,1,_P,-1,0,3646
22,0,1,_P,-1,0,3645
22,0,1,_X,-1,0,3644
22,0,1,_X,-1,0,3643
22,0,1,_X,-1,0,3642
22,0,1,_X,-1,0,3641
22,0,1,_P,-1,0,3640
22,0,1,_P,-1,0,3639
22,0,1,_P,-1,0,3638
22,0,1,_P,-1,0,3637
22,0,1,_P,-1,0,3636
22,0,1,_P,-1,0,3635
22,0,1,_P,-1,0,3634
22,0,1,_P,-1,0,3633
22,0,1,_lambda,-1,0,3632
5,1,20,0,1,0,3631
5,1,21,0,1,0,3630
5,1,22,0,1,0,3629
5,1,23,0,1,0,3628
5,1,28,0,1,0,3627
5,1,29,0,1,0,3626
5,1,30,0,1,0,3625
5,1,31,0,1,0,3624
5,1,48,0,1,0,3623
5,1,49,0,1,0,3622
5,1,50,0,1,0,3621
22,0,1,_P,-1,1,3620
22,0,1,_P,-1,1,3619
22,0,1,_P,-1,1,3618
22,0,1,_P,-1,1,3617
22,0,1,_X,-1,1,3616
5,1,47,0,1,1,3615
9,1,47,0,1,1,3614
10,1,47,0,-1,1,3613
22,0,1,_X,-1,1,3612
5,1,46,0,1,1,3611
9,1,46,0,1,1,3610
10,1,46,0,-1,1,3609
22,0,1,_X,-1,1,3608
5,1,45,0,1,1,3607
9,1,45,0,1,1,3606
10,1,45,0,-1,1,3605
22,0,1,_X,-1,1,3604
5,1,44,0,1,1,3603
9,1,44,0,1,1,3602
10,1,44,0,-1,1,3601
22,0,1,_P,-1,1,3600
22,0,1,_P,-1,1,3599
22,0,1,_P,-1,1,3598
22,0,1,_P,-1,1,3597
22,0,1,_AX,-1,1,3596
9,1,23,0,1,1,3595
10,1,23,0,-1,1,3594
22,0,1,_AX,-1,1,3593
9,1,22,0,1,1,3592
10,1,22,0,-1,1,3591
22,0,1,_AX,-1,1,3590
9,1,21,0,1,1,3589
10,1,21,0,-1,1,3588
22,0,1,_AX,-1,1,3587
9,1,20,0,1,1,3586
10,1,20,0,-1,1,3585
22,0,1,_X,-1,1,3584
5,1,3,0,1,1,3583
22,0,1,_X,-1,1,3582
5,1,2,0,1,1,3581
22,0,1,_X,-1,1,3580
5,1,1,0,1,1,3579
22,0,1,_X,-1,1,3578
5,1,0,0,1,1,3577
11,2,20,4,0,-1,2,3576
11,2,21,5,0,-1,2,3575
11,2,22,6,0,-1,2,3574
11,2,23,7,0,-1,2,3573
22,0,1,_AX,-1,2,3572
9,1,50,0,1,2,3571
22,0,1,_AX,-1,2,3570
9,1,49,0,1,2,3569
22,0,1,_AX,-1,2,3568
9,1,48,0,1,2,3567
22,0,1,_X,-1,2,3566
22,0,1,_X,-1,2,3565
22,0,1,_X,-1,2,3564
22,0,1,_X,-1,2,3563
22,0,1,_X,-1,2,3562
5,1,19,0,1,2,3561
22,0,1,_X,-1,2,3560
5,1,18,0,1,2,3559
22,0,1,_X,-1,2,3558
5,1,17,0,1,2,3557
22,0,1,_X,-1,2,3556
5,1,16,0,1,2,3555
22,0,1,_P,-1,2,3554
22,0,1,_P,-1,2,3553
22,0,1,_P,-1,2,3552
22,0,1,_P,-1,2,3551
22,0,1,_AX,-1,2,3550
22,0,1,_AX,-1,2,3549
22,0,1,_AX,-1,2,3548
22,0,1,_AX,-1,2,3547
22,0,1,_X,-1,2,3546
5,1,11,0,1,2,3545
9,1,11,0,1,2,3544
22,0,1,_X,-1,2,3543
5,1,10,0,1,2,3542
9,1,10,0,1,2,3541
22,0,1,_X,-1,2,3540
5,1,9,0,1,2,3539
9,1,9,0,1,2,3538
22,0,1,_X,-1,2,3537
5,1,8,0,1,2,3536
9,1,8,0,1,2,3535
10,1,8,0,-1,4,3534
11,2,8,8,0,-1,4,3533
10,1,9,0,-1,4,3532
11,2,9,9,0,-1,4,3531
10,1,10,0,-1,4,3530
11,2,10,10,0,-1,4,3529
10,1,11,0,-1,4,3528
11,2,11,11,0,-1,4,3527
10,1,48,0,-1,4,3526
10,1,49,0,-1,4,3525
10,1,50,0,-1,4,3524
22,0,1,_P,-1,4,3523
22,0,1,_P,-1,4,3522
22,0,1,_P,-1,4,3521
22,0,1,_P,-1,4,3520
22,0,1,_P,-1,4,3519
22,0,1,_P,-1,4,3518
22,0,1,_P,-1,4,3517
22,0,1,_P,-1,4,3516
22,0,1,_AX,-1,4,3515
22,0,1,_AX,-1,4,3514
22,0,1,_AX,-1,4,3513
22,0,1,_AX,-1,4,3512
22,0,1,_X,-1,4,3511
5,1,7,0,1,4,3510
9,1,7,0,1,4,3509
10,1,7,0,-1,4,3508
11,2,7,7,0,-1,4,3507
22,0,1,_X,-1,4,3506
5,1,6,0,1,4,3505
9,1,6,0,1,4,3504
10,1,6,0,-1,4,3503
11,2,6,6,0,-1,4,3502
22,0,1,_X,-1,4,3501
5,1,5,0,1,4,3500
9,1,5,0,1,4,3499
10,1,5,0,-1,4,3498
11,2,5,5,0,-1,4,3497
22,0,1,_X,-1,4,3496
5,1,4,0,1,4,3495
9,1,4,0,1,4,3494
10,1,4,0,-1,4,3493
11,2,4,4,0,-1,4,3492
5,1,36,0,1,3,3491
5,1,37,0,1,3,3490
5,1,38,0,1,3,3489
5,1,39,0,1,3,3488
11,2,44,12,0,-1,3,3487
11,2,45,13,0,-1,3,3486
11,2,46,14,0,-1,3,3485
11,2,47,15,0,-1,3,3484
1,0,1,RN,-1,3,3483
22,0,1,_X,-1,3,3482
5,1,35,0,1,3,3481
22,0,1,_X,-1,3,3480
5,1,34,0,1,3,3479
22,0,1,_X,-1,3,3478
5,1,33,0,1,3,3477
22,0,1,_X,-1,3,3476
5,1,32,0,1,3,3475
22,0,1,_AX,-1,3,3474
9,1,19,0,1,3,3473
10,1,19,0,-1,3,3472
11,2,19,3,0,-1,3,3471
22,0,1,_AX,-1,3,3470
9,1,18,0,1,3,3469
10,1,18,0,-1,3,3468
11,2,18,2,0,-1,3,3467
22,0,1,_AX,-1,3,3466
9,1,17,0,1,3,3465
10,1,17,0,-1,3,3464
11,2,17,1,0,-1,3,3463
22,0,1,_AX,-1,3,3462
9,1,16,0,1,3,3461
10,1,16,0,-1,3,3460
11,2,16,0,0,-1,3,3459
22,0,1,_P,-1,3,3458
22,0,1,_P,-1,3,3457
22,0,1,_P,-1,3,3456
22,0,1,_P,-1,3,3455
22,0,1,_P,-1,3,3454
22,0,1,_P,-1,3,3453
22,0,1,_P,-1,3,3452
22,0,1,_P,-1,3,3451
11,2,50,2,0,-1,5,3450
11,2,49,1,0,-1,5,3449
11,2,48,0,0,-1,5,3448
22,0,1,_AX,-1,5,3447
9,1,35,0,1,5,3446
10,1,35,0,-1,5,3445
11,2,35,3,0,-1,5,3444
22,0,1,_AX,-1,5,3443
9,1,34,0,1,5,3442
10,1,34,0,-1,5,3441
11,2,34,2,0,-1,5,3440
22,0,1,_AX,-1,5,3439
9,1,33,0,1,5,3438
10,1,33,0,-1,5,3437
11,2,33,1,0,-1,5,3436
22,0,1,_AX,-1,5,3435
9,1,32,0,1,5,3434
10,1,32,0,-1,5,3433
11,2,32,0,0,-1,5,3432
22,0,1,_AX,-1,5,3431
22,0,1,_AX,-1,5,3430
22,0,1,_AX,-1,5,3429
22,0,1,_AX,-1,5,3428
22,0,1,_X,-1,5,3427
5,1,15,0,1,5,3426
9,1,15,0,1,5,3425
10,1,15,0,-1,5,3424
11,2,15,15,0,-1,5,3423
22,0,1,_X,-1,5,3422
5,1,14,0,1,5,3421
9,1,14,0,1,5,3420
10,1,14,0,-1,5,3419
11,2,14,14,0,-1,5,3418
22,0,1,_X,-1,5,3417
5,1,13,0,1,5,3416
9,1,13,0,1,5,3415
10,1,13,0,-1,5,3414
11,2,13,13,0,-1,5,3413
22,0,1,_X,-1,5,3412
5,1,12,0,1,5,3411
9,1,12,0,1,5,3410
10,1,12,0,-1,5,3409
11,2,12,12,0,-1,5,3408
22,0,1,_P,-1,6,3407
22,0,1,_P,-1,6,3406
22,0,1,_P,-1,6,3405
22,0,1,_AX,-1,6,3404
22,0,1,_AX,-1,6,3403
22,0,1,_AX,-1,6,3402
22,0,1,_AX,-1,6,3401
22,0,1,_X,-1,6,3400
5,1,43,0,1,6,3399
9,1,43,0,1,6,3398
10,1,43,0,-1,6,3397
11,2,43,11,0,-1,6,3396
22,0,1,_X,-1,6,3395
5,1,42,0,1,6,3394
9,1,42,0,1,6,3393
10,1,42,0,-1,6,3392
11,2,42,10,0,-1,6,3391
22,0,1,_X,-1,6,3390
5,1,41,0,1,6,3389
9,1,41,0,1,6,3388
10,1,41,0,-1,6,3387
11,2,41,9,0,-1,6,3386
22,0,1,_X,-1,6,3385
5,1,40,0,1,6,3384
9,1,40,0,1,6,3383
10,1,40,0,-1,6,3382
11,2,40,8,0,-1,6,3381
22,0,1,_P,-1,6,3380
22,0,1,_P,-1,6,3379
22,0,1,_P,-1,6,3378
22,0,1,_P,-1,6,3377
22,0,1,_AX,-1,6,3376
9,1,31,0,1,6,3375
10,1,31,0,-1,6,3374
11,2,31,15,0,-1,6,3373
22,0,1,_AX,-1,6,3372
9,1,30,0,1,6,3371
10,1,30,0,-1,6,3370
11,2,30,14,0,-1,6,3369
22,0,1,_AX,-1,6,3368
9,1,29,0,1,6,3367
10,1,29,0,-1,6,3366
11,2,29,13,0,-1,6,3365
22,0,1,_AX,-1,6,3364
9,1,28,0,1,6,3363
10,1,28,0,-1,6,3362
11,2,28,12,0,-1,6,3361
22,0,1,_AX,-1,6,3360
22,0,1,_AX,-1,6,3359
22,0,1,_AX,-1,6,3358
22,0,1,_AX,-1,6,3357
22,0,1,_X,-1,6,3356
5,1,27,0,1,6,3355
9,1,27,0,1,6,3354
10,1,27,0,-1,6,3353
11,2,27,11,0,-1,6,3352
22,0,1,_X,-1,6,3351
5,1,26,0,1,6,3350
9,1,26,0,1,6,3349
10,1,26,0,-1,6,3348
11,2,26,10,0,-1,6,3347
22,0,1,_X,-1,6,3346
5,1,25,0,1,6,3345
9,1,25,0,1,6,3344
10,1,25,0,-1,6,3343
11,2,25,9,0,-1,6,3342
22,0,1,_X,-1,6,3341
5,1,24,0,1,6,3340
9,1,24,0,1,6,3339
10,1,24,0,-1,6,3338
11,2,24,8,0,-1,6,3337
22,0,1,_AX,-1,6,3336
9,1,3,0,1,6,3335
10,1,3,0,-1,6,3334
11,2,3,3,0,-1,6,3333
22,0,1,_AX,-1,6,3332
9,1,2,0,1,6,3331
10,1,2,0,-1,6,3330
11,2,2,2,0,-1,6,3329
22,0,1,_AX,-1,6,3328
9,1,1,0,1,6,3327
10,1,1,0,-1,6,3326
11,2,1,1,0,-1,6,3325
22,0,1,_AX,-1,6,3324
9,1,0,0,1,6,3323
10,1,0,0,-1,6,3322
11,2,0,0,0,-1,6,3321
19,1,11,0,1,7,3320
19,1,10,0,1,7,3319
19,1,9,0,1,7,3318
19,1,8,0,1,7,3317
22,0,1,_AP,-1,7,3316
22,0,1,_AP,-1,7,3315
22,0,1,_AP,-1,7,3314
22,0,1,_AP,-1,7,3313
22,0,1,_AP,-1,7,3312
22,0,1,_AP,-1,7,3311
22,0,1,_AP,-1,7,3310
22,0,1,_AP,-1,7,3309
22,0,1,_AP,-1,7,3308
22,0,1,_AP,-1,7,3307
22,0,1,_AP,-1,7,3306
22,0,1,_AP,-1,7,3305
22,0,1,_AP,-1,7,3304
22,0,1,_AP,-1,7,3303
22,0,1,_AP,-1,7,3302
22,0,1,_AX,-1,7,3301
9,1,39,0,1,7,3300
10,1,39,0,-1,7,3299
11,2,39,7,0,-1,7,3298
22,0,1,_AX,-1,7,3297
9,1,38,0,1,7,3296
10,1,38,0,-1,7,3295
11,2,38,6,0,-1,7,3294
22,0,1,_AX,-1,7,3293
9,1,37,0,1,7,3292
10,1,37,0,-1,7,3291
11,2,37,5,0,-1,7,3290
22,0,1,_AX,-1,7,3289
9,1,36,0,1,7,3288
10,1,36,0,-1,7,3287
11,2,36,4,0,-1,7,3286
12,0,1,RNBUF,-1,7,3285
13,0,1,RN,-1,7,3284
1,0,1,actMask,-1,7,3283
20,0,1,actMask,-1,7,3282
22,0,1,_AP,-1,7,3281
22,0,1,_AP,-1,7,3280
22,0,1,_AP,-1,7,3279
22,0,1,_AP,-1,7,3278
22,0,1,_AP,-1,7,3277
22,0,1,_AP,-1,7,3276
22,0,1,_AP,-1,7,3275
22,0,1,_AP,-1,7,3274
22,0,1,_AP,-1,7,3273
22,0,1,_AP,-1,7,3272
22,0,1,_AP,-1,7,3271
22,0,1,_AP,-1,7,3270
22,0,1,_AP,-1,7,3269
22,0,1,_AP,-1,7,3268
22,0,1,_AP,-1,7,3267
22,0,1,_AP,-1,7,3266
22,0,1,_AP,-1,7,3265
22,0,1,_AP,-1,7,3264
22,0,1,_AP,-1,7,3263
22,0,1,_AP,-1,7,3262
22,0,1,_AP,-1,7,3261
22,0,1,_AP,-1,7,3260
22,0,1,_AP,-1,7,3259
22,0,1,_AP,-1,7,3258
22,0,1,_AP,-1,7,3257
22,0,1,_AP,-1,7,3256
22,0,1,_AP,-1,7,3255
22,0,1,_AP,-1,7,3254
22,0,1,_AP,-1,7,3253
22,0,1,_AP,-1,7,3252
22,0,1,_AP,-1,7,3251
22,0,1,_AP,-1,7,3250
22,0,1,_AP,-1,7,3249
22,0,1,_AP,-1,7,3248
22,0,1,_AP,-1,7,3247
22,0,1,_AP,-1,7,3246
14,1,12,0,3,9,3245
14,1,13,0,3,9,3244
14,1,14,0,3,9,3243
14,1,15,0,3,9,3242
14,1,16,0,3,9,3241
14,1,17,0,3,9,3240
14,1,18,0,3,9,3239
14,1,19,0,3,9,3238
14,1,20,0,3,9,3237
14,1,21,0,3,9,3236
14,1,22,0,3,9,3235
14,1,23,0,3,9,3234
14,1,0,0,1,9,3233
3,2,0,0,0,1,9,3232
14,1,1,0,1,9,3231
3,2,1,1,0,1,9,3230
14,1,2,0,1,9,3229
3,2,2,2,0,1,9,3228
14,1,3,0,1,9,3227
3,2,3,3,0,1,9,3226
14,1,8,0,3,10,3225
14,1,9,0,3,10,3224
14,1,10,0,3,10,3223
14,1,11,0,3,10,3222
14,1,32,0,3,10,3221
14,1,33,0,3,10,3220
14,1,34,0,3,10,3219
14,1,35,0,3,10,3218
14,1,40,0,1,10,3217
14,1,41,0,1,10,3216
14,1,42,0,1,10,3215
14,1,43,0,1,10,3214
14,1,36,0,3,10,3213
14,1,37,0,3,10,3212
14,1,38,0,3,10,3211
14,1,39,0,3,10,3210
14,1,48,0,3,10,3209
14,1,49,0,3,10,3208
14,1,50,0,3,10,3207
3,2,43,11,0,1,12,3206
3,2,42,10,0,1,12,3205
3,2,41,9,0,1,12,3204
3,2,40,8,0,1,12,3203
14,1,4,0,1,12,3202
3,2,4,4,0,1,12,3201
14,1,5,0,1,12,3200
3,2,5,5,0,1,12,3199
14,1,6,0,1,12,3198
3,2,6,6,0,1,12,3197
14,1,7,0,1,12,3196
3,2,7,7,0,1,12,3195
14,1,12,0,1,12,3194
3,2,12,12,0,1,12,3193
14,1,13,0,1,12,3192
3,2,13,13,0,1,12,3191
14,1,14,0,1,12,3190
3,2,14,14,0,1,12,3189
14,1,15,0,1,12,3188
3,2,15,15,0,1,12,3187
14,1,24,0,1,12,3186
3,2,24,8,0,1,12,3185
14,1,25,0,1,12,3184
3,2,25,9,0,1,12,3183
14,1,26,0,1,12,3182
3,2,26,10,0,1,12,3181
14,1,27,0,1,12,3180
3,2,27,11,0,1,12,3179
14,1,28,0,1,12,3178
3,2,28,12,0,1,12,3177
14,1,29,0,1,12,3176
3,2,29,13,0,1,12,3175
14,1,30,0,1,12,3174
3,2,30,14,0,1,12,3173
14,1,31,0,1,12,3172
3,2,31,15,0,1,12,3171
14,1,32,0,1,12,3170
3,2,32,0,0,1,12,3169
14,1,33,0,1,12,3168
3,2,33,1,0,1,12,3167
14,1,34,0,1,12,3166
3,2,34,2,0,1,12,3165
14,1,35,0,1,12,3164
3,2,35,3,0,1,12,3163
14,1,4,0,3,8,3162
14,1,5,0,3,8,3161
14,1,6,0,3,8,3160
14,1,7,0,3,8,3159
14,1,24,0,3,8,3158
14,1,25,0,3,8,3157
14,1,26,0,3,8,3156
14,1,27,0,3,8,3155
14,1,28,0,3,8,3154
14,1,29,0,3,8,3153
14,1,30,0,3,8,3152
14,1,31,0,3,8,3151
14,1,44,0,1,8,3150
3,2,44,12,0,1,8,3149
14,1,45,0,1,8,3148
3,2,45,13,0,1,8,3147
14,1,46,0,1,8,3146
3,2,46,14,0,1,8,3145
14,1,47,0,1,8,3144
3,2,47,15,0,1,8,3143
14,1,44,0,3,8,3142
14,1,45,0,3,8,3141
14,1,46,0,3,8,3140
14,1,47,0,3,8,3139
14,1,0,0,3,11,3138
14,1,1,0,3,11,3137
14,1,2,0,3,11,3136
14,1,3,0,3,11,3135
14,1,20,0,1,11,3134
3,2,20,4,0,1,11,3133
14,1,21,0,1,11,3132
3,2,21,5,0,1,11,3131
14,1,22,0,1,11,3130
3,2,22,6,0,1,11,3129
14,1,23,0,1,11,3128
3,2,23,7,0,1,11,3127
14,1,36,0,1,11,3126
3,2,36,4,0,1,11,3125
14,1,37,0,1,11,3124
3,2,37,5,0,1,11,3123
14,1,38,0,1,11,3122
3,2,38,6,0,1,11,3121
14,1,39,0,1,11,3120
3,2,39,7,0,1,11,3119
14,1,40,0,3,11,3118
14,1,41,0,3,11,3117
14,1,42,0,3,11,3116
14,1,43,0,3,11,3115
14,1,8,0,1,13,3114
3,2,8,8,0,1,13,3113
14,1,9,0,1,13,3112
3,2,9,9,0,1,13,3111
14,1,10,0,1,13,3110
3,2,10,10,0,1,13,3109
14,1,11,0,1,13,3108
3,2,11,11,0,1,13,3107
14,1,16,0,1,13,3106
3,2,16,0,0,1,13,3105
14,1,17,0,1,13,3104
3,2,17,1,0,1,13,3103
14,1,18,0,1,13,3102
3,2,18,2,0,1,13,3101
14,1,19,0,1,13,3100
3,2,19,3,0,1,13,3099
14,1,48,0,1,13,3098
3,2,48,0,0,1,13,3097
14,1,49,0,1,13,3096
3,2,49,1,0,1,13,3095
14,1,50,0,1,13,3094
3,2,50,2,0,1,13,3093
4,1,0,1,temp2BUF,-1,13,3092
5,1,20,0,2,13,3091
5,1,21,0,2,13,3090
5,1,22,0,2,13,3089
5,1,23,0,2,13,3088
5,1,40,0,2,13,3087
5,1,41,0,2,13,3086
5,1,42,0,2,13,3085
5,1,43,0,2,13,3084
5,1,44,0,2,13,3083
5,1,45,0,2,13,3082
5,1,46,0,2,13,3081
5,1,47,0,2,13,3080
5,1,48,0,2,13,3079
5,1,49,0,2,13,3078
5,1,50,0,2,13,3077
5,1,0,0,2,14,3076
5,1,1,0,2,14,3075
5,1,2,0,2,14,3074
5,1,3,0,2,14,3073
5,1,4,0,2,14,3072
9,1,4,0,2,14,3071
3,2,4,4,0,2,14,3070
5,1,5,0,2,14,3069
9,1,5,0,2,14,3068
3,2,5,5,0,2,14,3067
5,1,6,0,2,14,3066
9,1,6,0,2,14,3065
3,2,6,6,0,2,14,3064
5,1,7,0,2,14,3063
9,1,7,0,2,14,3062
3,2,7,7,0,2,14,3061
5,1,8,0,2,14,3060
9,1,8,0,2,14,3059
3,2,8,8,0,2,14,3058
5,1,9,0,2,14,3057
9,1,9,0,2,14,3056
3,2,9,9,0,2,14,3055
5,1,10,0,2,14,3054
9,1,10,0,2,14,3053
3,2,10,10,0,2,14,3052
5,1,11,0,2,14,3051
9,1,11,0,2,14,3050
3,2,11,11,0,2,14,3049
5,1,16,0,2,14,3048
9,1,16,0,2,14,3047
3,2,16,0,0,2,14,3046
5,1,17,0,2,14,3045
9,1,17,0,2,14,3044
3,2,17,1,0,2,14,3043
5,1,18,0,2,14,3042
9,1,18,0,2,14,3041
3,2,18,2,0,2,14,3040
5,1,19,0,2,14,3039
9,1,19,0,2,14,3038
3,2,19,3,0,2,14,3037
5,1,24,0,2,14,3036
5,1,25,0,2,14,3035
5,1,26,0,2,14,3034
5,1,27,0,2,14,3033
5,1,36,0,2,14,3032
5,1,37,0,2,14,3031
5,1,38,0,2,14,3030
5,1,39,0,2,14,3029
9,1,39,0,2,16,3028
9,1,38,0,2,16,3027
9,1,37,0,2,16,3026
9,1,36,0,2,16,3025
9,1,47,0,2,16,3024
3,2,47,15,0,2,16,3023
9,1,46,0,2,16,3022
3,2,46,14,0,2,16,3021
9,1,45,0,2,16,3020
3,2,45,13,0,2,16,3019
9,1,44,0,2,16,3018
3,2,44,12,0,2,16,3017
9,1,43,0,2,16,3016
3,2,43,11,0,2,16,3015
9,1,42,0,2,16,3014
3,2,42,10,0,2,16,3013
9,1,41,0,2,16,3012
3,2,41,9,0,2,16,3011
9,1,40,0,2,16,3010
3,2,40,8,0,2,16,3009
14,1,8,0,2,16,3008
3,2,8,8,0,3,16,3007
14,1,9,0,2,16,3006
3,2,9,9,0,3,16,3005
14,1,10,0,2,16,3004
3,2,10,10,0,3,16,3003
14,1,11,0,2,16,3002
3,2,11,11,0,3,16,3001
14,1,12,0,2,16,3000
3,2,12,12,0,3,16,2999
14,1,13,0,2,16,2998
3,2,13,13,0,3,16,2997
14,1,14,0,2,16,2996
3,2,14,14,0,3,16,2995
14,1,15,0,2,16,2994
3,2,15,15,0,3,16,2993
14,1,32,0,2,16,2992
14,1,33,0,2,16,2991
14,1,34,0,2,16,2990
14,1,35,0,2,16,2989
14,1,48,0,2,16,2988
3,2,48,0,0,3,16,2987
14,1,49,0,2,16,2986
3,2,49,1,0,3,16,2985
14,1,50,0,2,16,2984
3,2,50,2,0,3,16,2983
3,2,35,3,0,3,17,2982
3,2,34,2,0,3,17,2981
3,2,33,1,0,3,17,2980
3,2,32,0,0,3,17,2979
9,1,3,0,2,17,2978
3,2,3,3,0,2,17,2977
9,1,2,0,2,17,2976
3,2,2,2,0,2,17,2975
9,1,1,0,2,17,2974
3,2,1,1,0,2,17,2973
9,1,0,0,2,17,2972
3,2,0,0,0,2,17,2971
14,1,4,0,2,17,2970
3,2,4,4,0,3,17,2969
14,1,5,0,2,17,2968
3,2,5,5,0,3,17,2967
14,1,6,0,2,17,2966
3,2,6,6,0,3,17,2965
14,1,7,0,2,17,2964
3,2,7,7,0,3,17,2963
14,1,28,0,2,17,2962
3,2,28,12,0,3,17,2961
14,1,29,0,2,17,2960
3,2,29,13,0,3,17,2959
14,1,30,0,2,17,2958
3,2,30,14,0,3,17,2957
14,1,31,0,2,17,2956
3,2,31,15,0,3,17,2955
14,1,36,0,2,17,2954
3,2,36,4,0,3,17,2953
14,1,37,0,2,17,2952
3,2,37,5,0,3,17,2951
14,1,38,0,2,17,2950
3,2,38,6,0,3,17,2949
14,1,39,0,2,17,2948
3,2,39,7,0,3,17,2947
14,1,44,0,2,17,2946
3,2,44,12,0,3,17,2945
14,1,45,0,2,17,2944
3,2,45,13,0,3,17,2943
14,1,46,0,2,17,2942
3,2,46,14,0,3,17,2941
14,1,47,0,2,17,2940
3,2,47,15,0,3,17,2939
9,1,27,0,2,15,2938
3,2,27,11,0,2,15,2937
9,1,26,0,2,15,2936
3,2,26,10,0,2,15,2935
9,1,25,0,2,15,2934
3,2,25,9,0,2,15,2933
9,1,24,0,2,15,2932
3,2,24,8,0,2,15,2931
5,1,12,0,2,15,2930
9,1,12,0,2,15,2929
3,2,12,12,0,2,15,2928
5,1,13,0,2,15,2927
9,1,13,0,2,15,2926
3,2,13,13,0,2,15,2925
5,1,14,0,2,15,2924
9,1,14,0,2,15,2923
3,2,14,14,0,2,15,2922
5,1,15,0,2,15,2921
9,1,15,0,2,15,2920
3,2,15,15,0,2,15,2919
5,1,28,0,2,15,2918
9,1,28,0,2,15,2917
3,2,28,12,0,2,15,2916
5,1,29,0,2,15,2915
9,1,29,0,2,15,2914
3,2,29,13,0,2,15,2913
5,1,30,0,2,15,2912
9,1,30,0,2,15,2911
3,2,30,14,0,2,15,2910
5,1,31,0,2,15,2909
9,1,31,0,2,15,2908
3,2,31,15,0,2,15,2907
5,1,32,0,2,15,2906
9,1,32,0,2,15,2905
3,2,32,0,0,2,15,2904
5,1,33,0,2,15,2903
9,1,33,0,2,15,2902
3,2,33,1,0,2,15,2901
5,1,34,0,2,15,2900
9,1,34,0,2,15,2899
3,2,34,2,0,2,15,2898
5,1,35,0,2,15,2897
9,1,35,0,2,15,2896
3,2,35,3,0,2,15,2895
3,2,36,4,0,2,18,2894
3,2,37,5,0,2,18,2893
3,2,38,6,0,2,18,2892
3,2,39,7,0,2,18,2891
9,1,50,0,2,18,2890
3,2,50,2,0,2,18,2889
9,1,49,0,2,18,2888
3,2,49,1,0,2,18,2887
9,1,48,0,2,18,2886
3,2,48,0,0,2,18,2885
9,1,23,0,2,18,2884
3,2,23,7,0,2,18,2883
9,1,22,0,2,18,2882
3,2,22,6,0,2,18,2881
9,1,21,0,2,18,2880
3,2,21,5,0,2,18,2879
9,1,20,0,2,18,2878
3,2,20,4,0,2,18,2877
4,1,0,1,RBRBUF,-1,18,2876
17,0,1,RBR,-1,18,2875
14,1,16,0,2,18,2874
3,2,16,0,0,3,18,2873
14,1,17,0,2,18,2872
3,2,17,1,0,3,18,2871
14,1,18,0,2,18,2870
3,2,18,2,0,3,18,2869
14,1,19,0,2,18,2868
3,2,19,3,0,3,18,2867
14,1,40,0,2,18,2866
3,2,40,8,0,3,18,2865
14,1,41,0,2,18,2864
3,2,41,9,0,3,18,2863
14,1,42,0,2,18,2862
3,2,42,10,0,3,18,2861
14,1,43,0,2,18,2860
3,2,43,11,0,3,18,2859
18,0,1,RBR,-1,19,2858
5,1,8,0,3,19,2857
5,1,9,0,3,19,2856
5,1,10,0,3,19,2855
5,1,11,0,3,19,2854
5,1,20,0,3,19,2853
5,1,21,0,3,19,2852
5,1,22,0,3,19,2851
5,1,23,0,3,19,2850
5,1,36,0,3,19,2849
5,1,37,0,3,19,2848
5,1,38,0,3,19,2847
5,1,39,0,3,19,2846
5,1,44,0,3,19,2845
5,1,45,0,3,19,2844
5,1,46,0,3,19,2843
5,1,47,0,3,19,2842
5,1,48,0,3,19,2841
5,1,49,0,3,19,2840
5,1,50,0,3,19,2839
5,1,0,0,3,20,2838
5,1,1,0,3,20,2837
5,1,2,0,3,20,2836
5,1,3,0,3,20,2835
5,1,24,0,3,20,2834
5,1,25,0,3,20,2833
5,1,26,0,3,20,2832
5,1,27,0,3,20,2831
5,1,40,0,3,20,2830
5,1,41,0,3,20,2829
5,1,42,0,3,20,2828
5,1,43,0,3,20,2827
14,1,24,0,2,20,2826
3,2,24,8,0,3,20,2825
14,1,25,0,2,20,2824
3,2,25,9,0,3,20,2823
14,1,26,0,2,20,2822
3,2,26,10,0,3,20,2821
14,1,27,0,2,20,2820
3,2,27,11,0,3,20,2819
5,1,4,0,3,21,2818
5,1,5,0,3,21,2817
5,1,6,0,3,21,2816
5,1,7,0,3,21,2815
5,1,12,0,3,21,2814
5,1,13,0,3,21,2813
5,1,14,0,3,21,2812
5,1,15,0,3,21,2811
5,1,16,0,3,21,2810
5,1,17,0,3,21,2809
5,1,18,0,3,21,2808
5,1,19,0,3,21,2807
5,1,28,0,3,21,2806
5,1,29,0,3,21,2805
5,1,30,0,3,21,2804
5,1,31,0,3,21,2803
5,1,32,0,3,21,2802
5,1,33,0,3,21,2801
5,1,34,0,3,21,2800
5,1,35,0,3,21,2799
14,1,0,0,2,21,2798
3,2,0,0,0,3,21,2797
14,1,1,0,2,21,2796
3,2,1,1,0,3,21,2795
14,1,2,0,2,21,2794
3,2,2,2,0,3,21,2793
14,1,3,0,2,21,2792
3,2,3,3,0,3,21,2791
14,1,20,0,2,21,2790
3,2,20,4,0,3,21,2789
14,1,21,0,2,21,2788
3,2,21,5,0,3,21,2787
14,1,22,0,2,21,2786
3,2,22,6,0,3,21,2785
14,1,23,0,2,21,2784
3,2,23,7,0,3,21,2783
4,1,0,1,PBPBUF,-1,21,2782
17,0,1,PBP,-1,21,2781
18,0,1,PBP,-1,22,2780
5,1,4,0,4,22,2779
5,1,5,0,4,22,2778
5,1,6,0,4,22,2777
5,1,7,0,4,22,2776
5,1,8,0,4,22,2775
5,1,9,0,4,22,2774
5,1,10,0,4,22,2773
5,1,11,0,4,22,2772
5,1,12,0,4,22,2771
5,1,13,0,4,22,2770
5,1,14,0,4,22,2769
5,1,15,0,4,22,2768
5,1,16,0,4,22,2767
5,1,17,0,4,22,2766
5,1,18,0,4,22,2765
5,1,19,0,4,22,2764
5,1,20,0,4,22,2763
5,1,21,0,4,22,2762
5,1,22,0,4,22,2761
5,1,23,0,4,22,2760
5,1,0,0,5,24,2759
5,1,1,0,5,24,2758
5,1,2,0,5,24,2757
5,1,3,0,5,24,2756
5,1,4,0,5,24,2755
5,1,5,0,5,24,2754
5,1,6,0,5,24,2753
5,1,7,0,5,24,2752
5,1,20,0,5,24,2751
5,1,21,0,5,24,2750
5,1,22,0,5,24,2749
5,1,23,0,5,24,2748
5,1,24,0,5,24,2747
7,1,24,0,3,24,2746
8,1,24,0,3,24,2745
5,1,25,0,5,24,2744
7,1,25,0,3,24,2743
8,1,25,0,3,24,2742
5,1,26,0,5,24,2741
7,1,26,0,3,24,2740
8,1,26,0,3,24,2739
5,1,27,0,5,24,2738
7,1,27,0,3,24,2737
8,1,27,0,3,24,2736
5,1,32,0,5,24,2735
5,1,33,0,5,24,2734
5,1,34,0,5,24,2733
5,1,35,0,5,24,2732
5,1,36,0,5,24,2731
5,1,37,0,5,24,2730
5,1,38,0,5,24,2729
5,1,39,0,5,24,2728
5,1,40,0,5,24,2727
5,1,41,0,5,24,2726
5,1,42,0,5,24,2725
5,1,43,0,5,24,2724
5,1,44,0,5,24,2723
7,1,44,0,3,24,2722
5,1,45,0,5,24,2721
7,1,45,0,3,24,2720
5,1,46,0,5,24,2719
7,1,46,0,3,24,2718
5,1,47,0,5,24,2717
7,1,47,0,3,24,2716
8,1,47,0,3,25,2715
8,1,46,0,3,25,2714
8,1,45,0,3,25,2713
8,1,44,0,3,25,2712
5,1,32,0,4,25,2711
5,1,33,0,4,25,2710
5,1,34,0,4,25,2709
5,1,35,0,4,25,2708
5,1,36,0,4,25,2707
5,1,37,0,4,25,2706
5,1,38,0,4,25,2705
5,1,39,0,4,25,2704
5,1,40,0,4,25,2703
5,1,41,0,4,25,2702
5,1,42,0,4,25,2701
5,1,43,0,4,25,2700
5,1,44,0,4,25,2699
5,1,45,0,4,25,2698
5,1,46,0,4,25,2697
5,1,47,0,4,25,2696
5,1,48,0,4,25,2695
5,1,49,0,4,25,2694
5,1,50,0,4,25,2693
5,1,8,0,5,25,2692
5,1,9,0,5,25,2691
5,1,10,0,5,25,2690
5,1,11,0,5,25,2689
5,1,16,0,5,25,2688
7,1,16,0,3,25,2687
8,1,16,0,3,25,2686
5,1,17,0,5,25,2685
7,1,17,0,3,25,2684
8,1,17,0,3,25,2683
5,1,18,0,5,25,2682
7,1,18,0,3,25,2681
8,1,18,0,3,25,2680
5,1,19,0,5,25,2679
7,1,19,0,3,25,2678
8,1,19,0,3,25,2677
5,1,28,0,5,25,2676
5,1,29,0,5,25,2675
5,1,30,0,5,25,2674
5,1,31,0,5,25,2673
7,1,47,0,2,26,2672
8,1,47,0,2,26,2671
3,2,47,15,0,9,26,2670
7,1,46,0,2,26,2669
8,1,46,0,2,26,2668
3,2,46,14,0,9,26,2667
7,1,45,0,2,26,2666
8,1,45,0,2,26,2665
3,2,45,13,0,9,26,2664
7,1,44,0,2,26,2663
8,1,44,0,2,26,2662
3,2,44,12,0,9,26,2661
7,1,39,0,2,26,2660
3,2,39,7,0,9,26,2659
7,1,38,0,2,26,2658
3,2,38,6,0,9,26,2657
7,1,37,0,2,26,2656
3,2,37,5,0,9,26,2655
7,1,36,0,2,26,2654
3,2,36,4,0,9,26,2653
7,1,39,0,3,26,2652
8,1,39,0,3,26,2651
3,2,39,7,0,8,26,2650
7,1,38,0,3,26,2649
8,1,38,0,3,26,2648
3,2,38,6,0,8,26,2647
7,1,37,0,3,26,2646
8,1,37,0,3,26,2645
3,2,37,5,0,8,26,2644
7,1,36,0,3,26,2643
8,1,36,0,3,26,2642
3,2,36,4,0,8,26,2641
7,1,19,0,2,26,2640
8,1,19,0,2,26,2639
3,2,19,3,0,6,26,2638
3,2,19,3,0,8,26,2637
7,1,18,0,2,26,2636
8,1,18,0,2,26,2635
3,2,18,2,0,6,26,2634
3,2,18,2,0,8,26,2633
7,1,17,0,2,26,2632
8,1,17,0,2,26,2631
3,2,17,1,0,6,26,2630
3,2,17,1,0,8,26,2629
7,1,16,0,2,26,2628
8,1,16,0,2,26,2627
3,2,16,0,0,6,26,2626
3,2,16,0,0,8,26,2625
5,1,0,0,4,23,2624
5,1,1,0,4,23,2623
5,1,2,0,4,23,2622
5,1,3,0,4,23,2621
5,1,24,0,4,23,2620
5,1,25,0,4,23,2619
5,1,26,0,4,23,2618
5,1,27,0,4,23,2617
5,1,28,0,4,23,2616
5,1,29,0,4,23,2615
5,1,30,0,4,23,2614
5,1,31,0,4,23,2613
5,1,12,0,5,23,2612
5,1,13,0,5,23,2611
5,1,14,0,5,23,2610
5,1,15,0,5,23,2609
5,1,48,0,5,23,2608
5,1,49,0,5,23,2607
5,1,50,0,5,23,2606
7,1,50,0,3,28,2605
8,1,50,0,3,28,2604
7,1,49,0,3,28,2603
8,1,49,0,3,28,2602
7,1,48,0,3,28,2601
8,1,48,0,3,28,2600
3,2,16,0,0,9,28,2599
3,2,17,1,0,9,28,2598
3,2,18,2,0,9,28,2597
3,2,19,3,0,9,28,2596
8,1,36,0,2,28,2595
8,1,37,0,2,28,2594
8,1,38,0,2,28,2593
8,1,39,0,2,28,2592
7,1,43,0,3,28,2591
7,1,42,0,3,28,2590
7,1,41,0,3,28,2589
7,1,40,0,3,28,2588
7,1,15,0,2,28,2587
8,1,15,0,2,28,2586
3,2,15,15,0,6,28,2585
3,2,15,15,0,9,28,2584
7,1,14,0,2,28,2583
8,1,14,0,2,28,2582
3,2,14,14,0,6,28,2581
3,2,14,14,0,9,28,2580
7,1,13,0,2,28,2579
8,1,13,0,2,28,2578
3,2,13,13,0,6,28,2577
3,2,13,13,0,9,28,2576
7,1,12,0,2,28,2575
8,1,12,0,2,28,2574
3,2,12,12,0,6,28,2573
3,2,12,12,0,9,28,2572
7,1,11,0,2,28,2571
3,2,11,11,0,9,28,2570
7,1,10,0,2,28,2569
3,2,10,10,0,9,28,2568
7,1,9,0,2,28,2567
3,2,9,9,0,9,28,2566
7,1,8,0,2,28,2565
3,2,8,8,0,9,28,2564
7,1,31,0,2,27,2563
8,1,31,0,2,27,2562
3,2,31,15,0,9,27,2561
7,1,30,0,2,27,2560
8,1,30,0,2,27,2559
3,2,30,14,0,9,27,2558
7,1,29,0,2,27,2557
8,1,29,0,2,27,2556
3,2,29,13,0,9,27,2555
7,1,28,0,2,27,2554
8,1,28,0,2,27,2553
3,2,28,12,0,9,27,2552
7,1,3,0,2,27,2551
8,1,3,0,2,27,2550
3,2,3,3,0,6,27,2549
3,2,3,3,0,9,27,2548
7,1,2,0,2,27,2547
8,1,2,0,2,27,2546
3,2,2,2,0,6,27,2545
3,2,2,2,0,9,27,2544
7,1,1,0,2,27,2543
8,1,1,0,2,27,2542
3,2,1,1,0,6,27,2541
3,2,1,1,0,9,27,2540
7,1,0,0,2,27,2539
8,1,0,0,2,27,2538
3,2,0,0,0,6,27,2537
3,2,0,0,0,9,27,2536
7,1,31,0,3,27,2535
3,2,31,15,0,8,27,2534
7,1,30,0,3,27,2533
3,2,30,14,0,8,27,2532
7,1,29,0,3,27,2531
3,2,29,13,0,8,27,2530
7,1,28,0,3,27,2529
3,2,28,12,0,8,27,2528
7,1,50,0,2,27,2527
3,2,50,2,0,9,27,2526
7,1,49,0,2,27,2525
3,2,49,1,0,9,27,2524
7,1,48,0,2,27,2523
3,2,48,0,0,9,27,2522
3,2,48,0,0,6,29,2521
3,2,48,0,0,8,29,2520
3,2,49,1,0,6,29,2519
3,2,49,1,0,8,29,2518
3,2,50,2,0,6,29,2517
3,2,50,2,0,8,29,2516
8,1,40,0,3,29,2515
8,1,41,0,3,29,2514
8,1,42,0,3,29,2513
8,1,43,0,3,29,2512
7,1,11,0,3,29,2511
8,1,11,0,3,29,2510
7,1,10,0,3,29,2509
8,1,10,0,3,29,2508
7,1,9,0,3,29,2507
8,1,9,0,3,29,2506
7,1,8,0,3,29,2505
8,1,8,0,3,29,2504
7,1,35,0,2,29,2503
8,1,35,0,2,29,2502
3,2,35,3,0,6,29,2501
3,2,35,3,0,9,29,2500
7,1,34,0,2,29,2499
8,1,34,0,2,29,2498
3,2,34,2,0,6,29,2497
3,2,34,2,0,9,29,2496
7,1,33,0,2,29,2495
8,1,33,0,2,29,2494
3,2,33,1,0,6,29,2493
3,2,33,1,0,9,29,2492
7,1,32,0,2,29,2491
8,1,32,0,2,29,2490
3,2,32,0,0,6,29,2489
3,2,32,0,0,9,29,2488
7,1,3,0,3,29,2487
3,2,3,3,0,8,29,2486
7,1,2,0,3,29,2485
3,2,2,2,0,8,29,2484
7,1,1,0,3,29,2483
3,2,1,1,0,8,29,2482
7,1,0,0,3,29,2481
3,2,0,0,0,8,29,2480
8,1,0,0,3,30,2479
8,1,1,0,3,30,2478
8,1,2,0,3,30,2477
8,1,3,0,3,30,2476
8,1,28,0,3,30,2475
8,1,29,0,3,30,2474
8,1,30,0,3,30,2473
8,1,31,0,3,30,2472
7,1,27,0,2,30,2471
3,2,27,11,0,6,30,2470
3,2,27,11,0,8,30,2469
3,2,27,11,0,9,30,2468
7,1,26,0,2,30,2467
3,2,26,10,0,6,30,2466
3,2,26,10,0,8,30,2465
3,2,26,10,0,9,30,2464
7,1,25,0,2,30,2463
3,2,25,9,0,6,30,2462
3,2,25,9,0,8,30,2461
3,2,25,9,0,9,30,2460
7,1,24,0,2,30,2459
3,2,24,8,0,6,30,2458
3,2,24,8,0,8,30,2457
3,2,24,8,0,9,30,2456
3,2,44,12,0,8,30,2455
3,2,45,13,0,8,30,2454
3,2,46,14,0,8,30,2453
3,2,47,15,0,8,30,2452
7,1,7,0,2,30,2451
8,1,7,0,2,30,2450
3,2,7,7,0,6,30,2449
3,2,7,7,0,9,30,2448
7,1,6,0,2,30,2447
8,1,6,0,2,30,2446
3,2,6,6,0,6,30,2445
3,2,6,6,0,9,30,2444
7,1,5,0,2,30,2443
8,1,5,0,2,30,2442
3,2,5,5,0,6,30,2441
3,2,5,5,0,9,30,2440
7,1,4,0,2,30,2439
8,1,4,0,2,30,2438
3,2,4,4,0,6,30,2437
3,2,4,4,0,9,30,2436
3,2,8,8,0,8,31,2435
3,2,9,9,0,8,31,2434
3,2,10,10,0,8,31,2433
3,2,11,11,0,8,31,2432
8,1,8,0,2,31,2431
8,1,9,0,2,31,2430
8,1,10,0,2,31,2429
8,1,11,0,2,31,2428
7,1,15,0,3,31,2427
8,1,15,0,3,31,2426
7,1,14,0,3,31,2425
8,1,14,0,3,31,2424
7,1,13,0,3,31,2423
8,1,13,0,3,31,2422
7,1,12,0,3,31,2421
8,1,12,0,3,31,2420
7,1,7,0,3,31,2419
8,1,7,0,3,31,2418
3,2,7,7,0,8,31,2417
7,1,6,0,3,31,2416
8,1,6,0,3,31,2415
3,2,6,6,0,8,31,2414
7,1,5,0,3,31,2413
8,1,5,0,3,31,2412
3,2,5,5,0,8,31,2411
7,1,4,0,3,31,2410
8,1,4,0,3,31,2409
3,2,4,4,0,8,31,2408
7,1,23,0,2,31,2407
8,1,23,0,2,31,2406
3,2,23,7,0,6,31,2405
3,2,23,7,0,9,31,2404
7,1,22,0,2,31,2403
8,1,22,0,2,31,2402
3,2,22,6,0,6,31,2401
3,2,22,6,0,9,31,2400
7,1,21,0,2,31,2399
8,1,21,0,2,31,2398
3,2,21,5,0,6,31,2397
3,2,21,5,0,9,31,2396
7,1,20,0,2,31,2395
8,1,20,0,2,31,2394
3,2,20,4,0,6,31,2393
3,2,20,4,0,9,31,2392
8,1,48,0,2,32,2391
8,1,49,0,2,32,2390
8,1,50,0,2,32,2389
3,2,28,12,0,6,32,2388
3,2,29,13,0,6,32,2387
3,2,30,14,0,6,32,2386
3,2,31,15,0,6,32,2385
3,2,8,8,0,6,32,2384
3,2,9,9,0,6,32,2383
3,2,10,10,0,6,32,2382
3,2,11,11,0,6,32,2381
3,2,36,4,0,6,32,2380
3,2,37,5,0,6,32,2379
3,2,38,6,0,6,32,2378
3,2,39,7,0,6,32,2377
3,2,44,12,0,6,32,2376
3,2,45,13,0,6,32,2375
3,2,46,14,0,6,32,2374
3,2,47,15,0,6,32,2373
7,1,43,0,2,32,2372
8,1,43,0,2,32,2371
3,2,43,11,0,6,32,2370
3,2,43,11,0,8,32,2369
3,2,43,11,0,9,32,2368
7,1,42,0,2,32,2367
8,1,42,0,2,32,2366
3,2,42,10,0,6,32,2365
3,2,42,10,0,8,32,2364
3,2,42,10,0,9,32,2363
7,1,41,0,2,32,2362
8,1,41,0,2,32,2361
3,2,41,9,0,6,32,2360
3,2,41,9,0,8,32,2359
3,2,41,9,0,9,32,2358
7,1,40,0,2,32,2357
8,1,40,0,2,32,2356
3,2,40,8,0,6,32,2355
4,1,0,1,XAPBUF,-1,32,2354
3,2,40,8,0,8,32,2353
3,2,40,8,0,9,32,2352
4,1,0,1,XBPBUF,-1,33,2351
3,2,12,12,0,8,33,2350
3,2,13,13,0,8,33,2349
3,2,14,14,0,8,33,2348
3,2,15,15,0,8,33,2347
8,1,24,0,2,33,2346
8,1,25,0,2,33,2345
8,1,26,0,2,33,2344
8,1,27,0,2,33,2343
7,1,35,0,3,33,2342
8,1,35,0,3,33,2341
3,2,35,3,0,8,33,2340
7,1,34,0,3,33,2339
8,1,34,0,3,33,2338
3,2,34,2,0,8,33,2337
7,1,33,0,3,33,2336
8,1,33,0,3,33,2335
3,2,33,1,0,8,33,2334
7,1,32,0,3,33,2333
8,1,32,0,3,33,2332
3,2,32,0,0,8,33,2331
7,1,23,0,3,33,2330
8,1,23,0,3,33,2329
3,2,23,7,0,8,33,2328
7,1,22,0,3,33,2327
8,1,22,0,3,33,2326
3,2,22,6,0,8,33,2325
7,1,21,0,3,33,2324
8,1,21,0,3,33,2323
3,2,21,5,0,8,33,2322
7,1,20,0,3,33,2321
8,1,20,0,3,33,2320
3,2,20,4,0,8,33,2319
4,1,0,1,PAPBUF,-1,33,2318
16,0,1,PAP,-1,33,2317
7,1,15,0,1,34,2316
7,1,14,0,1,34,2315
7,1,13,0,1,34,2314
7,1,12,0,1,34,2313
7,1,3,0,1,34,2312
3,2,3,3,0,10,34,2311
7,1,2,0,1,34,2310
3,2,2,2,0,10,34,2309
7,1,1,0,1,34,2308
3,2,1,1,0,10,34,2307
7,1,0,0,1,34,2306
3,2,0,0,0,10,34,2305
7,1,11,0,1,34,2304
2,3,8,11,0,0,-1,34,2303
2,3,9,11,0,0,-1,34,2302
2,3,10,11,0,0,-1,34,2301
2,3,11,11,0,0,-1,34,2300
7,1,10,0,1,34,2299
2,3,8,10,0,0,-1,34,2298
2,3,9,10,0,0,-1,34,2297
2,3,10,10,0,0,-1,34,2296
2,3,11,10,0,0,-1,34,2295
7,1,9,0,1,34,2294
2,3,8,9,0,0,-1,34,2293
2,3,9,9,0,0,-1,34,2292
2,3,10,9,0,0,-1,34,2291
2,3,11,9,0,0,-1,34,2290
7,1,8,0,1,34,2289
2,3,8,8,0,0,-1,34,2288
2,3,9,8,0,0,-1,34,2287
2,3,10,8,0,0,-1,34,2286
2,3,11,8,0,0,-1,34,2285
19,1,7,0,1,34,2284
2,3,7,12,0,0,-1,34,2283
2,3,7,13,0,0,-1,34,2282
2,3,7,14,0,0,-1,34,2281
19,1,6,0,1,34,2280
2,3,6,12,0,0,-1,34,2279
2,3,6,13,0,0,-1,34,2278
2,3,6,14,0,0,-1,34,2277
19,1,5,0,1,34,2276
2,3,5,12,0,0,-1,34,2275
2,3,5,13,0,0,-1,34,2274
2,3,5,14,0,0,-1,34,2273
19,1,4,0,1,34,2272
2,3,4,12,0,0,-1,34,2271
2,3,4,13,0,0,-1,34,2270
2,3,4,14,0,0,-1,34,2269
3,2,12,12,0,10,35,2268
3,2,13,13,0,10,35,2267
3,2,14,14,0,10,35,2266
3,2,15,15,0,10,35,2265
7,1,7,0,1,35,2264
2,3,4,7,0,0,-1,35,2263
2,3,5,7,0,0,-1,35,2262
2,3,6,7,0,0,-1,35,2261
2,3,7,7,0,0,-1,35,2260
8,1,7,0,1,35,2259
7,1,6,0,1,35,2258
2,3,4,6,0,0,-1,35,2257
2,3,5,6,0,0,-1,35,2256
2,3,6,6,0,0,-1,35,2255
2,3,7,6,0,0,-1,35,2254
8,1,6,0,1,35,2253
7,1,5,0,1,35,2252
2,3,4,5,0,0,-1,35,2251
2,3,5,5,0,0,-1,35,2250
2,3,6,5,0,0,-1,35,2249
2,3,7,5,0,0,-1,35,2248
8,1,5,0,1,35,2247
7,1,4,0,1,35,2246
2,3,4,4,0,0,-1,35,2245
2,3,5,4,0,0,-1,35,2244
2,3,6,4,0,0,-1,35,2243
2,3,7,4,0,0,-1,35,2242
8,1,4,0,1,35,2241
7,1,50,0,1,35,2240
8,1,50,0,1,35,2239
7,1,49,0,1,35,2238
8,1,49,0,1,35,2237
7,1,48,0,1,35,2236
8,1,48,0,1,35,2235
8,1,8,0,1,37,2234
8,1,9,0,1,37,2233
8,1,10,0,1,37,2232
8,1,11,0,1,37,2231
7,1,47,0,1,37,2230
3,2,47,15,0,4,37,2229
7,1,46,0,1,37,2228
3,2,46,14,0,4,37,2227
7,1,45,0,1,37,2226
3,2,45,13,0,4,37,2225
7,1,44,0,1,37,2224
3,2,44,12,0,4,37,2223
19,1,47,0,1,37,2222
2,3,47,15,0,0,-1,37,2221
2,3,47,44,0,0,-1,37,2220
2,3,47,45,0,0,-1,37,2219
2,3,47,46,0,0,-1,37,2218
2,3,47,47,0,0,-1,37,2217
2,3,47,48,0,0,-1,37,2216
2,3,47,49,0,0,-1,37,2215
2,3,47,50,0,0,-1,37,2214
19,1,46,0,1,37,2213
2,3,46,15,0,0,-1,37,2212
2,3,46,44,0,0,-1,37,2211
2,3,46,45,0,0,-1,37,2210
2,3,46,46,0,0,-1,37,2209
2,3,46,47,0,0,-1,37,2208
2,3,46,48,0,0,-1,37,2207
2,3,46,49,0,0,-1,37,2206
2,3,46,50,0,0,-1,37,2205
19,1,45,0,1,37,2204
2,3,45,15,0,0,-1,37,2203
2,3,45,44,0,0,-1,37,2202
2,3,45,45,0,0,-1,37,2201
2,3,45,46,0,0,-1,37,2200
2,3,45,47,0,0,-1,37,2199
2,3,45,48,0,0,-1,37,2198
2,3,45,49,0,0,-1,37,2197
2,3,45,50,0,0,-1,37,2196
19,1,44,0,1,37,2195
2,3,44,15,0,0,-1,37,2194
2,3,44,44,0,0,-1,37,2193
2,3,44,45,0,0,-1,37,2192
2,3,44,46,0,0,-1,37,2191
2,3,44,47,0,0,-1,37,2190
2,3,44,48,0,0,-1,37,2189
2,3,44,49,0,0,-1,37,2188
2,3,44,50,0,0,-1,37,2187
19,1,23,0,1,37,2186
2,3,23,14,0,0,-1,37,2185
2,3,23,15,0,0,-1,37,2184
2,3,23,44,0,0,-1,37,2183
2,3,23,45,0,0,-1,37,2182
2,3,23,46,0,0,-1,37,2181
2,3,23,47,0,0,-1,37,2180
2,3,23,48,0,0,-1,37,2179
2,3,23,49,0,0,-1,37,2178
2,3,23,50,0,0,-1,37,2177
19,1,22,0,1,37,2176
2,3,22,15,0,0,-1,37,2175
2,3,22,44,0,0,-1,37,2174
2,3,22,45,0,0,-1,37,2173
2,3,22,46,0,0,-1,37,2172
2,3,22,47,0,0,-1,37,2171
2,3,22,48,0,0,-1,37,2170
2,3,22,49,0,0,-1,37,2169
2,3,22,50,0,0,-1,37,2168
19,1,21,0,1,37,2167
2,3,21,14,0,0,-1,37,2166
2,3,21,15,0,0,-1,37,2165
2,3,21,44,0,0,-1,37,2164
2,3,21,45,0,0,-1,37,2163
2,3,21,46,0,0,-1,37,2162
2,3,21,47,0,0,-1,37,2161
2,3,21,48,0,0,-1,37,2160
2,3,21,49,0,0,-1,37,2159
2,3,21,50,0,0,-1,37,2158
19,1,20,0,1,37,2157
2,3,20,14,0,0,-1,37,2156
2,3,20,44,0,0,-1,37,2155
2,3,20,45,0,0,-1,37,2154
2,3,20,47,0,0,-1,37,2153
2,3,20,49,0,0,-1,37,2152
2,3,4,8,0,0,-1,36,2151
2,3,4,9,0,0,-1,36,2150
2,3,4,10,0,0,-1,36,2149
2,3,4,11,0,0,-1,36,2148
2,3,5,8,0,0,-1,36,2147
2,3,5,9,0,0,-1,36,2146
2,3,5,10,0,0,-1,36,2145
2,3,5,11,0,0,-1,36,2144
2,3,6,8,0,0,-1,36,2143
2,3,6,9,0,0,-1,36,2142
2,3,6,10,0,0,-1,36,2141
2,3,6,11,0,0,-1,36,2140
2,3,7,8,0,0,-1,36,2139
2,3,7,9,0,0,-1,36,2138
2,3,7,10,0,0,-1,36,2137
2,3,7,11,0,0,-1,36,2136
7,1,31,0,1,36,2135
8,1,31,0,1,36,2134
3,2,31,15,0,4,36,2133
7,1,30,0,1,36,2132
8,1,30,0,1,36,2131
3,2,30,14,0,4,36,2130
7,1,29,0,1,36,2129
8,1,29,0,1,36,2128
3,2,29,13,0,4,36,2127
7,1,28,0,1,36,2126
8,1,28,0,1,36,2125
3,2,28,12,0,4,36,2124
19,1,31,0,1,36,2123
2,3,31,28,0,0,-1,36,2122
2,3,31,29,0,0,-1,36,2121
2,3,31,30,0,0,-1,36,2120
2,3,31,31,0,0,-1,36,2119
19,1,30,0,1,36,2118
2,3,30,28,0,0,-1,36,2117
2,3,30,29,0,0,-1,36,2116
2,3,30,30,0,0,-1,36,2115
2,3,30,31,0,0,-1,36,2114
19,1,29,0,1,36,2113
2,3,29,28,0,0,-1,36,2112
2,3,29,29,0,0,-1,36,2111
2,3,29,30,0,0,-1,36,2110
2,3,29,31,0,0,-1,36,2109
19,1,28,0,1,36,2108
2,3,28,28,0,0,-1,36,2107
2,3,28,29,0,0,-1,36,2106
2,3,28,30,0,0,-1,36,2105
2,3,28,31,0,0,-1,36,2104
19,1,15,0,1,36,2103
2,3,15,14,0,0,-1,36,2102
2,3,15,15,0,0,-1,36,2101
2,3,15,28,0,0,-1,36,2100
2,3,15,29,0,0,-1,36,2099
2,3,15,30,0,0,-1,36,2098
2,3,15,31,0,0,-1,36,2097
19,1,14,0,1,36,2096
2,3,14,4,0,0,-1,36,2095
2,3,14,5,0,0,-1,36,2094
2,3,14,6,0,0,-1,36,2093
2,3,14,7,0,0,-1,36,2092
2,3,14,8,0,0,-1,36,2091
2,3,14,9,0,0,-1,36,2090
2,3,14,10,0,0,-1,36,2089
2,3,14,11,0,0,-1,36,2088
2,3,14,12,0,0,-1,36,2087
2,3,14,13,0,0,-1,36,2086
2,3,14,14,0,0,-1,36,2085
2,3,14,15,0,0,-1,36,2084
19,1,13,0,1,36,2083
2,3,13,4,0,0,-1,36,2082
2,3,13,5,0,0,-1,36,2081
2,3,13,6,0,0,-1,36,2080
2,3,13,7,0,0,-1,36,2079
2,3,13,8,0,0,-1,36,2078
2,3,13,9,0,0,-1,36,2077
2,3,13,10,0,0,-1,36,2076
2,3,13,11,0,0,-1,36,2075
2,3,13,12,0,0,-1,36,2074
2,3,13,13,0,0,-1,36,2073
2,3,13,14,0,0,-1,36,2072
19,1,12,0,1,36,2071
2,3,12,4,0,0,-1,36,2070
2,3,12,5,0,0,-1,36,2069
2,3,12,6,0,0,-1,36,2068
2,3,12,7,0,0,-1,36,2067
2,3,12,8,0,0,-1,36,2066
2,3,12,9,0,0,-1,36,2065
2,3,12,10,0,0,-1,36,2064
2,3,12,11,0,0,-1,36,2063
2,3,12,12,0,0,-1,36,2062
2,3,12,13,0,0,-1,36,2061
2,3,12,14,0,0,-1,36,2060
2,3,21,28,0,0,-1,38,2059
2,3,22,28,0,0,-1,38,2058
2,3,23,28,0,0,-1,38,2057
2,3,44,28,0,0,-1,38,2056
2,3,45,28,0,0,-1,38,2055
2,3,46,28,0,0,-1,38,2054
2,3,47,28,0,0,-1,38,2053
2,3,21,29,0,0,-1,38,2052
2,3,22,29,0,0,-1,38,2051
2,3,23,29,0,0,-1,38,2050
2,3,44,29,0,0,-1,38,2049
2,3,45,29,0,0,-1,38,2048
2,3,46,29,0,0,-1,38,2047
2,3,47,29,0,0,-1,38,2046
2,3,21,30,0,0,-1,38,2045
2,3,22,30,0,0,-1,38,2044
2,3,23,30,0,0,-1,38,2043
2,3,44,30,0,0,-1,38,2042
2,3,45,30,0,0,-1,38,2041
2,3,46,30,0,0,-1,38,2040
2,3,47,30,0,0,-1,38,2039
2,3,20,31,0,0,-1,38,2038
2,3,21,31,0,0,-1,38,2037
2,3,22,31,0,0,-1,38,2036
2,3,23,31,0,0,-1,38,2035
2,3,44,31,0,0,-1,38,2034
2,3,45,31,0,0,-1,38,2033
2,3,46,31,0,0,-1,38,2032
2,3,47,31,0,0,-1,38,2031
8,1,44,0,1,38,2030
8,1,45,0,1,38,2029
8,1,46,0,1,38,2028
8,1,47,0,1,38,2027
7,1,43,0,1,38,2026
2,3,21,43,0,0,-1,38,2025
2,3,22,43,0,0,-1,38,2024
2,3,23,43,0,0,-1,38,2023
2,3,44,43,0,0,-1,38,2022
2,3,45,43,0,0,-1,38,2021
2,3,46,43,0,0,-1,38,2020
2,3,47,43,0,0,-1,38,2019
8,1,43,0,1,38,2018
3,2,43,11,0,4,38,2017
3,2,43,11,0,10,38,2016
7,1,42,0,1,38,2015
2,3,20,42,0,0,-1,38,2014
2,3,21,42,0,0,-1,38,2013
2,3,22,42,0,0,-1,38,2012
2,3,23,42,0,0,-1,38,2011
2,3,44,42,0,0,-1,38,2010
2,3,45,42,0,0,-1,38,2009
2,3,46,42,0,0,-1,38,2008
2,3,47,42,0,0,-1,38,2007
8,1,42,0,1,38,2006
3,2,42,10,0,4,38,2005
3,2,42,10,0,10,38,2004
7,1,41,0,1,38,2003
2,3,20,41,0,0,-1,38,2002
2,3,21,41,0,0,-1,38,2001
2,3,22,41,0,0,-1,38,2000
2,3,23,41,0,0,-1,38,1999
2,3,44,41,0,0,-1,38,1998
2,3,45,41,0,0,-1,38,1997
2,3,46,41,0,0,-1,38,1996
2,3,47,41,0,0,-1,38,1995
8,1,41,0,1,38,1994
3,2,41,9,0,4,38,1993
3,2,41,9,0,10,38,1992
7,1,40,0,1,38,1991
2,3,20,40,0,0,-1,38,1990
2,3,21,40,0,0,-1,38,1989
2,3,22,40,0,0,-1,38,1988
2,3,23,40,0,0,-1,38,1987
2,3,44,40,0,0,-1,38,1986
2,3,45,40,0,0,-1,38,1985
2,3,46,40,0,0,-1,38,1984
2,3,47,40,0,0,-1,38,1983
8,1,40,0,1,38,1982
3,2,40,8,0,4,38,1981
3,2,40,8,0,10,38,1980
19,1,19,0,1,38,1979
2,3,19,41,0,0,-1,38,1978
2,3,19,42,0,0,-1,38,1977
2,3,19,43,0,0,-1,38,1976
19,1,18,0,1,38,1975
2,3,18,40,0,0,-1,38,1974
2,3,18,41,0,0,-1,38,1973
2,3,18,42,0,0,-1,38,1972
2,3,18,43,0,0,-1,38,1971
19,1,17,0,1,38,1970
2,3,17,40,0,0,-1,38,1969
2,3,17,41,0,0,-1,38,1968
2,3,17,42,0,0,-1,38,1967
2,3,17,43,0,0,-1,38,1966
19,1,16,0,1,38,1965
2,3,16,40,0,0,-1,38,1964
2,3,16,41,0,0,-1,38,1963
2,3,16,42,0,0,-1,38,1962
2,3,16,43,0,0,-1,38,1961
2,3,16,44,0,0,-1,40,1960
2,3,16,45,0,0,-1,40,1959
2,3,16,46,0,0,-1,40,1958
2,3,16,47,0,0,-1,40,1957
2,3,17,44,0,0,-1,40,1956
2,3,17,45,0,0,-1,40,1955
2,3,17,46,0,0,-1,40,1954
2,3,17,47,0,0,-1,40,1953
2,3,18,44,0,0,-1,40,1952
2,3,18,45,0,0,-1,40,1951
2,3,18,46,0,0,-1,40,1950
2,3,18,47,0,0,-1,40,1949
2,3,19,44,0,0,-1,40,1948
2,3,19,45,0,0,-1,40,1947
2,3,19,46,0,0,-1,40,1946
2,3,19,47,0,0,-1,40,1945
3,2,4,4,0,10,40,1944
3,2,5,5,0,10,40,1943
3,2,6,6,0,10,40,1942
3,2,7,7,0,10,40,1941
7,1,39,0,1,40,1940
2,3,16,39,0,0,-1,40,1939
2,3,17,39,0,0,-1,40,1938
2,3,18,39,0,0,-1,40,1937
2,3,19,39,0,0,-1,40,1936
2,3,21,39,0,0,-1,40,1935
2,3,22,39,0,0,-1,40,1934
2,3,23,39,0,0,-1,40,1933
2,3,44,39,0,0,-1,40,1932
2,3,45,39,0,0,-1,40,1931
2,3,46,39,0,0,-1,40,1930
2,3,47,39,0,0,-1,40,1929
8,1,39,0,1,40,1928
3,2,39,7,0,4,40,1927
3,2,39,7,0,10,40,1926
7,1,38,0,1,40,1925
2,3,16,38,0,0,-1,40,1924
2,3,17,38,0,0,-1,40,1923
2,3,18,38,0,0,-1,40,1922
2,3,19,38,0,0,-1,40,1921
2,3,21,38,0,0,-1,40,1920
2,3,22,38,0,0,-1,40,1919
2,3,23,38,0,0,-1,40,1918
2,3,44,38,0,0,-1,40,1917
2,3,45,38,0,0,-1,40,1916
2,3,46,38,0,0,-1,40,1915
2,3,47,38,0,0,-1,40,1914
8,1,38,0,1,40,1913
3,2,38,6,0,4,40,1912
3,2,38,6,0,10,40,1911
7,1,37,0,1,40,1910
2,3,16,37,0,0,-1,40,1909
2,3,17,37,0,0,-1,40,1908
2,3,18,37,0,0,-1,40,1907
2,3,21,37,0,0,-1,40,1906
2,3,22,37,0,0,-1,40,1905
2,3,23,37,0,0,-1,40,1904
2,3,44,37,0,0,-1,40,1903
2,3,45,37,0,0,-1,40,1902
2,3,46,37,0,0,-1,40,1901
2,3,47,37,0,0,-1,40,1900
8,1,37,0,1,40,1899
3,2,37,5,0,4,40,1898
3,2,37,5,0,10,40,1897
7,1,36,0,1,40,1896
2,3,16,36,0,0,-1,40,1895
2,3,17,36,0,0,-1,40,1894
2,3,18,36,0,0,-1,40,1893
2,3,20,36,0,0,-1,40,1892
2,3,21,36,0,0,-1,40,1891
2,3,22,36,0,0,-1,40,1890
2,3,23,36,0,0,-1,40,1889
2,3,44,36,0,0,-1,40,1888
2,3,45,36,0,0,-1,40,1887
2,3,46,36,0,0,-1,40,1886
2,3,47,36,0,0,-1,40,1885
8,1,36,0,1,40,1884
3,2,36,4,0,4,40,1883
3,2,36,4,0,10,40,1882
19,1,39,0,1,40,1881
2,3,39,36,0,0,-1,40,1880
2,3,39,37,0,0,-1,40,1879
2,3,39,38,0,0,-1,40,1878
2,3,39,39,0,0,-1,40,1877
19,1,38,0,1,40,1876
2,3,38,36,0,0,-1,40,1875
2,3,38,37,0,0,-1,40,1874
2,3,38,38,0,0,-1,40,1873
2,3,38,39,0,0,-1,40,1872
19,1,37,0,1,40,1871
2,3,37,36,0,0,-1,40,1870
2,3,37,37,0,0,-1,40,1869
2,3,37,38,0,0,-1,40,1868
2,3,37,39,0,0,-1,40,1867
19,1,36,0,1,40,1866
2,3,36,36,0,0,-1,40,1865
2,3,36,37,0,0,-1,40,1864
2,3,36,38,0,0,-1,40,1863
2,3,36,39,0,0,-1,40,1862
2,3,15,40,0,0,-1,39,1861
2,3,15,41,0,0,-1,39,1860
2,3,15,42,0,0,-1,39,1859
2,3,15,43,0,0,-1,39,1858
3,2,48,0,0,4,39,1857
3,2,49,1,0,4,39,1856
3,2,50,2,0,4,39,1855
8,1,0,0,1,39,1854
8,1,1,0,1,39,1853
8,1,2,0,1,39,1852
8,1,3,0,1,39,1851
8,1,12,0,1,39,1850
8,1,13,0,1,39,1849
8,1,14,0,1,39,1848
8,1,15,0,1,39,1847
7,1,19,0,1,39,1846
2,3,18,19,0,0,-1,39,1845
2,3,19,19,0,0,-1,39,1844
2,3,20,19,0,0,-1,39,1843
2,3,21,19,0,0,-1,39,1842
2,3,44,19,0,0,-1,39,1841
2,3,45,19,0,0,-1,39,1840
2,3,46,19,0,0,-1,39,1839
2,3,47,19,0,0,-1,39,1838
8,1,19,0,1,39,1837
3,2,19,3,0,4,39,1836
3,2,19,3,0,10,39,1835
7,1,18,0,1,39,1834
2,3,16,18,0,0,-1,39,1833
2,3,17,18,0,0,-1,39,1832
2,3,18,18,0,0,-1,39,1831
2,3,19,18,0,0,-1,39,1830
2,3,20,18,0,0,-1,39,1829
2,3,21,18,0,0,-1,39,1828
2,3,22,18,0,0,-1,39,1827
2,3,23,18,0,0,-1,39,1826
2,3,44,18,0,0,-1,39,1825
2,3,45,18,0,0,-1,39,1824
2,3,46,18,0,0,-1,39,1823
2,3,47,18,0,0,-1,39,1822
8,1,18,0,1,39,1821
3,2,18,2,0,4,39,1820
3,2,18,2,0,10,39,1819
7,1,17,0,1,39,1818
2,3,16,17,0,0,-1,39,1817
2,3,17,17,0,0,-1,39,1816
2,3,18,17,0,0,-1,39,1815
2,3,23,17,0,0,-1,39,1814
2,3,44,17,0,0,-1,39,1813
2,3,45,17,0,0,-1,39,1812
2,3,46,17,0,0,-1,39,1811
2,3,47,17,0,0,-1,39,1810
8,1,17,0,1,39,1809
3,2,17,1,0,4,39,1808
3,2,17,1,0,10,39,1807
7,1,16,0,1,39,1806
2,3,16,16,0,0,-1,39,1805
2,3,17,16,0,0,-1,39,1804
2,3,18,16,0,0,-1,39,1803
2,3,22,16,0,0,-1,39,1802
2,3,23,16,0,0,-1,39,1801
2,3,44,16,0,0,-1,39,1800
2,3,45,16,0,0,-1,39,1799
2,3,46,16,0,0,-1,39,1798
2,3,47,16,0,0,-1,39,1797
8,1,16,0,1,39,1796
3,2,16,0,0,4,39,1795
3,2,16,0,0,10,39,1794
7,1,23,0,1,41,1793
2,3,16,23,0,0,-1,41,1792
2,3,17,23,0,0,-1,41,1791
2,3,18,23,0,0,-1,41,1790
2,3,21,23,0,0,-1,41,1789
2,3,22,23,0,0,-1,41,1788
2,3,23,23,0,0,-1,41,1787
8,1,23,0,1,41,1786
3,2,23,7,0,10,41,1785
7,1,22,0,1,41,1784
2,3,16,22,0,0,-1,41,1783
2,3,18,22,0,0,-1,41,1782
2,3,21,22,0,0,-1,41,1781
2,3,22,22,0,0,-1,41,1780
2,3,23,22,0,0,-1,41,1779
8,1,22,0,1,41,1778
3,2,22,6,0,10,41,1777
7,1,21,0,1,41,1776
2,3,18,21,0,0,-1,41,1775
2,3,19,21,0,0,-1,41,1774
2,3,20,21,0,0,-1,41,1773
2,3,21,21,0,0,-1,41,1772
2,3,22,21,0,0,-1,41,1771
2,3,23,21,0,0,-1,41,1770
8,1,21,0,1,41,1769
3,2,21,5,0,10,41,1768
7,1,20,0,1,41,1767
2,3,18,20,0,0,-1,41,1766
2,3,19,20,0,0,-1,41,1765
2,3,20,20,0,0,-1,41,1764
2,3,21,20,0,0,-1,41,1763
8,1,20,0,1,41,1762
3,2,20,4,0,10,41,1761
19,1,43,0,1,41,1760
2,3,43,15,0,0,-1,41,1759
2,3,43,16,0,0,-1,41,1758
2,3,43,17,0,0,-1,41,1757
2,3,43,18,0,0,-1,41,1756
2,3,43,19,0,0,-1,41,1755
2,3,43,28,0,0,-1,41,1754
2,3,43,29,0,0,-1,41,1753
2,3,43,30,0,0,-1,41,1752
2,3,43,31,0,0,-1,41,1751
2,3,43,40,0,0,-1,41,1750
2,3,43,41,0,0,-1,41,1749
2,3,43,42,0,0,-1,41,1748
2,3,43,43,0,0,-1,41,1747
2,3,43,48,0,0,-1,41,1746
2,3,43,49,0,0,-1,41,1745
2,3,43,50,0,0,-1,41,1744
19,1,42,0,1,41,1743
2,3,42,15,0,0,-1,41,1742
2,3,42,16,0,0,-1,41,1741
2,3,42,17,0,0,-1,41,1740
2,3,42,18,0,0,-1,41,1739
2,3,42,19,0,0,-1,41,1738
2,3,42,28,0,0,-1,41,1737
2,3,42,29,0,0,-1,41,1736
2,3,42,30,0,0,-1,41,1735
2,3,42,31,0,0,-1,41,1734
2,3,42,40,0,0,-1,41,1733
2,3,42,41,0,0,-1,41,1732
2,3,42,42,0,0,-1,41,1731
2,3,42,43,0,0,-1,41,1730
2,3,42,48,0,0,-1,41,1729
2,3,42,49,0,0,-1,41,1728
2,3,42,50,0,0,-1,41,1727
19,1,41,0,1,41,1726
2,3,41,15,0,0,-1,41,1725
2,3,41,16,0,0,-1,41,1724
2,3,41,17,0,0,-1,41,1723
2,3,41,18,0,0,-1,41,1722
2,3,41,19,0,0,-1,41,1721
2,3,41,28,0,0,-1,41,1720
2,3,41,29,0,0,-1,41,1719
2,3,41,30,0,0,-1,41,1718
2,3,41,31,0,0,-1,41,1717
2,3,41,40,0,0,-1,41,1716
2,3,41,41,0,0,-1,41,1715
2,3,41,42,0,0,-1,41,1714
2,3,41,43,0,0,-1,41,1713
2,3,41,48,0,0,-1,41,1712
2,3,41,49,0,0,-1,41,1711
2,3,41,50,0,0,-1,41,1710
19,1,40,0,1,41,1709
2,3,40,15,0,0,-1,41,1708
2,3,40,16,0,0,-1,41,1707
2,3,40,17,0,0,-1,41,1706
2,3,40,18,0,0,-1,41,1705
2,3,40,28,0,0,-1,41,1704
2,3,40,29,0,0,-1,41,1703
2,3,40,30,0,0,-1,41,1702
2,3,40,31,0,0,-1,41,1701
2,3,40,40,0,0,-1,41,1700
2,3,40,41,0,0,-1,41,1699
2,3,40,42,0,0,-1,41,1698
2,3,40,43,0,0,-1,41,1697
2,3,40,48,0,0,-1,41,1696
2,3,40,49,0,0,-1,41,1695
2,3,40,50,0,0,-1,41,1694
2,3,16,28,0,0,-1,44,1693
2,3,16,29,0,0,-1,44,1692
2,3,16,30,0,0,-1,44,1691
2,3,16,31,0,0,-1,44,1690
2,3,17,28,0,0,-1,44,1689
2,3,17,29,0,0,-1,44,1688
2,3,17,30,0,0,-1,44,1687
2,3,17,31,0,0,-1,44,1686
2,3,18,28,0,0,-1,44,1685
2,3,18,29,0,0,-1,44,1684
2,3,18,30,0,0,-1,44,1683
2,3,18,31,0,0,-1,44,1682
2,3,19,31,0,0,-1,44,1681
2,3,8,4,0,0,-1,44,1680
2,3,9,4,0,0,-1,44,1679
2,3,10,4,0,0,-1,44,1678
2,3,11,4,0,0,-1,44,1677
2,3,8,5,0,0,-1,44,1676
2,3,9,5,0,0,-1,44,1675
2,3,10,5,0,0,-1,44,1674
2,3,11,5,0,0,-1,44,1673
2,3,8,6,0,0,-1,44,1672
2,3,9,6,0,0,-1,44,1671
2,3,10,6,0,0,-1,44,1670
2,3,11,6,0,0,-1,44,1669
2,3,8,7,0,0,-1,44,1668
2,3,9,7,0,0,-1,44,1667
2,3,10,7,0,0,-1,44,1666
2,3,11,7,0,0,-1,44,1665
19,1,27,0,1,44,1664
2,3,27,21,0,0,-1,44,1663
2,3,27,22,0,0,-1,44,1662
2,3,27,23,0,0,-1,44,1661
2,3,27,28,0,0,-1,44,1660
2,3,27,29,0,0,-1,44,1659
2,3,27,30,0,0,-1,44,1658
2,3,27,31,0,0,-1,44,1657
2,3,27,36,0,0,-1,44,1656
2,3,27,37,0,0,-1,44,1655
2,3,27,38,0,0,-1,44,1654
2,3,27,39,0,0,-1,44,1653
2,3,27,40,0,0,-1,44,1652
2,3,27,41,0,0,-1,44,1651
2,3,27,42,0,0,-1,44,1650
2,3,27,43,0,0,-1,44,1649
2,3,27,44,0,0,-1,44,1648
2,3,27,45,0,0,-1,44,1647
2,3,27,46,0,0,-1,44,1646
2,3,27,47,0,0,-1,44,1645
2,3,27,48,0,0,-1,44,1644
2,3,27,49,0,0,-1,44,1643
2,3,27,50,0,0,-1,44,1642
19,1,26,0,1,44,1641
2,3,26,0,0,0,-1,44,1640
2,3,26,1,0,0,-1,44,1639
2,3,26,2,0,0,-1,44,1638
2,3,26,3,0,0,-1,44,1637
2,3,26,4,0,0,-1,44,1636
2,3,26,5,0,0,-1,44,1635
2,3,26,20,0,0,-1,44,1634
2,3,26,21,0,0,-1,44,1633
2,3,26,22,0,0,-1,44,1632
2,3,26,23,0,0,-1,44,1631
2,3,26,28,0,0,-1,44,1630
2,3,26,29,0,0,-1,44,1629
2,3,26,30,0,0,-1,44,1628
2,3,26,31,0,0,-1,44,1627
2,3,26,36,0,0,-1,44,1626
2,3,26,37,0,0,-1,44,1625
2,3,26,38,0,0,-1,44,1624
2,3,26,39,0,0,-1,44,1623
2,3,26,40,0,0,-1,44,1622
2,3,26,41,0,0,-1,44,1621
2,3,26,42,0,0,-1,44,1620
2,3,26,43,0,0,-1,44,1619
2,3,26,44,0,0,-1,44,1618
2,3,26,45,0,0,-1,44,1617
2,3,26,46,0,0,-1,44,1616
2,3,26,47,0,0,-1,44,1615
2,3,26,48,0,0,-1,44,1614
2,3,26,49,0,0,-1,44,1613
2,3,26,50,0,0,-1,44,1612
19,1,25,0,1,44,1611
2,3,25,0,0,0,-1,44,1610
2,3,25,1,0,0,-1,44,1609
2,3,25,2,0,0,-1,44,1608
2,3,25,3,0,0,-1,44,1607
2,3,25,4,0,0,-1,44,1606
2,3,25,5,0,0,-1,44,1605
2,3,25,20,0,0,-1,44,1604
2,3,25,21,0,0,-1,44,1603
2,3,25,31,0,0,-1,44,1602
2,3,25,36,0,0,-1,44,1601
2,3,25,40,0,0,-1,44,1600
2,3,25,41,0,0,-1,44,1599
2,3,25,42,0,0,-1,44,1598
2,3,25,43,0,0,-1,44,1597
2,3,25,44,0,0,-1,44,1596
2,3,25,45,0,0,-1,44,1595
2,3,25,47,0,0,-1,44,1594
2,3,25,49,0,0,-1,44,1593
2,3,25,50,0,0,-1,44,1592
19,1,24,0,1,44,1591
2,3,24,0,0,0,-1,44,1590
2,3,24,1,0,0,-1,44,1589
2,3,24,2,0,0,-1,44,1588
2,3,24,3,0,0,-1,44,1587
2,3,24,4,0,0,-1,44,1586
2,3,24,5,0,0,-1,44,1585
2,3,24,20,0,0,-1,44,1584
2,3,24,21,0,0,-1,44,1583
2,3,24,22,0,0,-1,44,1582
2,3,24,23,0,0,-1,44,1581
2,3,24,28,0,0,-1,44,1580
2,3,24,29,0,0,-1,44,1579
2,3,24,30,0,0,-1,44,1578
2,3,24,31,0,0,-1,44,1577
2,3,24,36,0,0,-1,44,1576
2,3,24,37,0,0,-1,44,1575
2,3,24,38,0,0,-1,44,1574
2,3,24,39,0,0,-1,44,1573
2,3,24,40,0,0,-1,44,1572
2,3,24,41,0,0,-1,44,1571
2,3,24,42,0,0,-1,44,1570
2,3,24,43,0,0,-1,44,1569
2,3,24,44,0,0,-1,44,1568
2,3,24,45,0,0,-1,44,1567
2,3,24,46,0,0,-1,44,1566
2,3,24,47,0,0,-1,44,1565
2,3,24,48,0,0,-1,44,1564
2,3,24,49,0,0,-1,44,1563
2,3,24,50,0,0,-1,44,1562
2,3,4,20,0,0,-1,43,1561
2,3,5,20,0,0,-1,43,1560
2,3,44,20,0,0,-1,43,1559
2,3,45,20,0,0,-1,43,1558
2,3,47,20,0,0,-1,43,1557
2,3,4,21,0,0,-1,43,1556
2,3,5,21,0,0,-1,43,1555
2,3,44,21,0,0,-1,43,1554
2,3,45,21,0,0,-1,43,1553
2,3,46,21,0,0,-1,43,1552
2,3,47,21,0,0,-1,43,1551
2,3,44,22,0,0,-1,43,1550
2,3,45,22,0,0,-1,43,1549
2,3,46,22,0,0,-1,43,1548
2,3,47,22,0,0,-1,43,1547
2,3,44,23,0,0,-1,43,1546
2,3,45,23,0,0,-1,43,1545
2,3,46,23,0,0,-1,43,1544
2,3,47,23,0,0,-1,43,1543
2,3,4,18,0,0,-1,43,1542
2,3,5,18,0,0,-1,43,1541
2,3,4,19,0,0,-1,43,1540
2,3,5,19,0,0,-1,43,1539
2,3,16,48,0,0,-1,43,1538
2,3,16,49,0,0,-1,43,1537
2,3,16,50,0,0,-1,43,1536
2,3,17,48,0,0,-1,43,1535
2,3,17,49,0,0,-1,43,1534
2,3,17,50,0,0,-1,43,1533
2,3,18,0,0,0,-1,43,1532
2,3,18,1,0,0,-1,43,1531
2,3,18,2,0,0,-1,43,1530
2,3,18,3,0,0,-1,43,1529
2,3,18,48,0,0,-1,43,1528
2,3,18,49,0,0,-1,43,1527
2,3,18,50,0,0,-1,43,1526
2,3,19,0,0,0,-1,43,1525
2,3,19,1,0,0,-1,43,1524
2,3,19,2,0,0,-1,43,1523
2,3,19,3,0,0,-1,43,1522
2,3,19,50,0,0,-1,43,1521
2,3,15,44,0,0,-1,43,1520
2,3,15,45,0,0,-1,43,1519
2,3,15,46,0,0,-1,43,1518
2,3,15,47,0,0,-1,43,1517
2,3,15,48,0,0,-1,43,1516
2,3,15,49,0,0,-1,43,1515
2,3,15,50,0,0,-1,43,1514
2,3,20,4,0,0,-1,43,1513
2,3,20,5,0,0,-1,43,1512
2,3,21,4,0,0,-1,43,1511
2,3,21,5,0,0,-1,43,1510
3,2,8,8,0,10,43,1509
3,2,9,9,0,10,43,1508
3,2,10,10,0,10,43,1507
3,2,11,11,0,10,43,1506
2,3,11,1,0,0,-1,43,1505
2,3,8,2,0,0,-1,43,1504
2,3,9,2,0,0,-1,43,1503
2,3,10,2,0,0,-1,43,1502
2,3,11,2,0,0,-1,43,1501
2,3,8,3,0,0,-1,43,1500
2,3,9,3,0,0,-1,43,1499
2,3,10,3,0,0,-1,43,1498
2,3,11,3,0,0,-1,43,1497
3,2,12,12,0,4,43,1496
3,2,13,13,0,4,43,1495
3,2,14,14,0,4,43,1494
3,2,15,15,0,4,43,1493
2,3,40,36,0,0,-1,42,1492
2,3,40,37,0,0,-1,42,1491
2,3,40,38,0,0,-1,42,1490
2,3,40,39,0,0,-1,42,1489
2,3,41,36,0,0,-1,42,1488
2,3,41,37,0,0,-1,42,1487
2,3,41,38,0,0,-1,42,1486
2,3,41,39,0,0,-1,42,1485
2,3,42,36,0,0,-1,42,1484
2,3,42,37,0,0,-1,42,1483
2,3,42,38,0,0,-1,42,1482
2,3,42,39,0,0,-1,42,1481
2,3,43,36,0,0,-1,42,1480
2,3,43,37,0,0,-1,42,1479
2,3,43,38,0,0,-1,42,1478
2,3,43,39,0,0,-1,42,1477
2,3,14,20,0,0,-1,42,1476
3,2,20,4,0,4,42,1475
2,3,14,21,0,0,-1,42,1474
2,3,15,21,0,0,-1,42,1473
3,2,21,5,0,4,42,1472
2,3,15,22,0,0,-1,42,1471
3,2,22,6,0,4,42,1470
2,3,14,23,0,0,-1,42,1469
2,3,15,23,0,0,-1,42,1468
3,2,23,7,0,4,42,1467
19,1,35,0,1,42,1466
2,3,35,15,0,0,-1,42,1465
2,3,35,16,0,0,-1,42,1464
2,3,35,17,0,0,-1,42,1463
2,3,35,18,0,0,-1,42,1462
2,3,35,28,0,0,-1,42,1461
2,3,35,29,0,0,-1,42,1460
2,3,35,30,0,0,-1,42,1459
2,3,35,31,0,0,-1,42,1458
2,3,35,36,0,0,-1,42,1457
2,3,35,37,0,0,-1,42,1456
2,3,35,38,0,0,-1,42,1455
2,3,35,39,0,0,-1,42,1454
2,3,35,40,0,0,-1,42,1453
2,3,35,41,0,0,-1,42,1452
2,3,35,42,0,0,-1,42,1451
2,3,35,43,0,0,-1,42,1450
2,3,35,44,0,0,-1,42,1449
2,3,35,45,0,0,-1,42,1448
2,3,35,46,0,0,-1,42,1447
2,3,35,47,0,0,-1,42,1446
2,3,35,48,0,0,-1,42,1445
2,3,35,49,0,0,-1,42,1444
2,3,35,50,0,0,-1,42,1443
19,1,34,0,1,42,1442
2,3,34,15,0,0,-1,42,1441
2,3,34,16,0,0,-1,42,1440
2,3,34,17,0,0,-1,42,1439
2,3,34,18,0,0,-1,42,1438
2,3,34,28,0,0,-1,42,1437
2,3,34,29,0,0,-1,42,1436
2,3,34,30,0,0,-1,42,1435
2,3,34,31,0,0,-1,42,1434
2,3,34,36,0,0,-1,42,1433
2,3,34,37,0,0,-1,42,1432
2,3,34,38,0,0,-1,42,1431
2,3,34,39,0,0,-1,42,1430
2,3,34,40,0,0,-1,42,1429
2,3,34,41,0,0,-1,42,1428
2,3,34,42,0,0,-1,42,1427
2,3,34,43,0,0,-1,42,1426
2,3,34,44,0,0,-1,42,1425
2,3,34,45,0,0,-1,42,1424
2,3,34,46,0,0,-1,42,1423
2,3,34,47,0,0,-1,42,1422
2,3,34,48,0,0,-1,42,1421
2,3,34,49,0,0,-1,42,1420
2,3,34,50,0,0,-1,42,1419
19,1,33,0,1,42,1418
2,3,33,15,0,0,-1,42,1417
2,3,33,16,0,0,-1,42,1416
2,3,33,17,0,0,-1,42,1415
2,3,33,18,0,0,-1,42,1414
2,3,33,28,0,0,-1,42,1413
2,3,33,29,0,0,-1,42,1412
2,3,33,30,0,0,-1,42,1411
2,3,33,31,0,0,-1,42,1410
2,3,33,36,0,0,-1,42,1409
2,3,33,37,0,0,-1,42,1408
2,3,33,38,0,0,-1,42,1407
2,3,33,39,0,0,-1,42,1406
2,3,33,40,0,0,-1,42,1405
2,3,33,41,0,0,-1,42,1404
2,3,33,42,0,0,-1,42,1403
2,3,33,43,0,0,-1,42,1402
2,3,33,44,0,0,-1,42,1401
2,3,33,45,0,0,-1,42,1400
2,3,33,46,0,0,-1,42,1399
2,3,33,47,0,0,-1,42,1398
2,3,33,48,0,0,-1,42,1397
2,3,33,49,0,0,-1,42,1396
2,3,33,50,0,0,-1,42,1395
19,1,32,0,1,42,1394
2,3,32,15,0,0,-1,42,1393
2,3,32,16,0,0,-1,42,1392
2,3,32,17,0,0,-1,42,1391
2,3,32,18,0,0,-1,42,1390
2,3,32,28,0,0,-1,42,1389
2,3,32,29,0,0,-1,42,1388
2,3,32,30,0,0,-1,42,1387
2,3,32,31,0,0,-1,42,1386
2,3,32,36,0,0,-1,42,1385
2,3,32,37,0,0,-1,42,1384
2,3,32,38,0,0,-1,42,1383
2,3,32,39,0,0,-1,42,1382
2,3,32,40,0,0,-1,42,1381
2,3,32,41,0,0,-1,42,1380
2,3,32,42,0,0,-1,42,1379
2,3,32,43,0,0,-1,42,1378
2,3,32,44,0,0,-1,42,1377
2,3,32,45,0,0,-1,42,1376
2,3,32,46,0,0,-1,42,1375
2,3,32,47,0,0,-1,42,1374
2,3,32,48,0,0,-1,42,1373
2,3,32,49,0,0,-1,42,1372
2,3,32,50,0,0,-1,42,1371
2,3,20,0,0,0,-1,45,1370
2,3,20,1,0,0,-1,45,1369
2,3,20,2,0,0,-1,45,1368
2,3,20,3,0,0,-1,45,1367
2,3,21,1,0,0,-1,45,1366
2,3,21,2,0,0,-1,45,1365
2,3,21,3,0,0,-1,45,1364
7,1,35,0,1,45,1363
2,3,15,35,0,0,-1,45,1362
2,3,16,35,0,0,-1,45,1361
2,3,17,35,0,0,-1,45,1360
2,3,18,35,0,0,-1,45,1359
2,3,21,35,0,0,-1,45,1358
2,3,22,35,0,0,-1,45,1357
2,3,23,35,0,0,-1,45,1356
2,3,24,35,0,0,-1,45,1355
2,3,26,35,0,0,-1,45,1354
2,3,27,35,0,0,-1,45,1353
2,3,32,35,0,0,-1,45,1352
2,3,33,35,0,0,-1,45,1351
2,3,34,35,0,0,-1,45,1350
2,3,35,35,0,0,-1,45,1349
2,3,40,35,0,0,-1,45,1348
2,3,41,35,0,0,-1,45,1347
2,3,42,35,0,0,-1,45,1346
2,3,43,35,0,0,-1,45,1345
2,3,44,35,0,0,-1,45,1344
2,3,45,35,0,0,-1,45,1343
2,3,46,35,0,0,-1,45,1342
2,3,47,35,0,0,-1,45,1341
8,1,35,0,1,45,1340
3,2,35,3,0,4,45,1339
7,1,34,0,1,45,1338
2,3,15,34,0,0,-1,45,1337
2,3,16,34,0,0,-1,45,1336
2,3,17,34,0,0,-1,45,1335
2,3,18,34,0,0,-1,45,1334
2,3,21,34,0,0,-1,45,1333
2,3,22,34,0,0,-1,45,1332
2,3,23,34,0,0,-1,45,1331
2,3,24,34,0,0,-1,45,1330
2,3,26,34,0,0,-1,45,1329
2,3,27,34,0,0,-1,45,1328
2,3,32,34,0,0,-1,45,1327
2,3,33,34,0,0,-1,45,1326
2,3,34,34,0,0,-1,45,1325
2,3,35,34,0,0,-1,45,1324
2,3,40,34,0,0,-1,45,1323
2,3,41,34,0,0,-1,45,1322
2,3,42,34,0,0,-1,45,1321
2,3,43,34,0,0,-1,45,1320
2,3,44,34,0,0,-1,45,1319
2,3,45,34,0,0,-1,45,1318
2,3,46,34,0,0,-1,45,1317
2,3,47,34,0,0,-1,45,1316
8,1,34,0,1,45,1315
3,2,34,2,0,4,45,1314
7,1,33,0,1,45,1313
2,3,15,33,0,0,-1,45,1312
2,3,16,33,0,0,-1,45,1311
2,3,17,33,0,0,-1,45,1310
2,3,18,33,0,0,-1,45,1309
2,3,20,33,0,0,-1,45,1308
2,3,21,33,0,0,-1,45,1307
2,3,22,33,0,0,-1,45,1306
2,3,23,33,0,0,-1,45,1305
2,3,24,33,0,0,-1,45,1304
2,3,25,33,0,0,-1,45,1303
2,3,26,33,0,0,-1,45,1302
2,3,27,33,0,0,-1,45,1301
2,3,32,33,0,0,-1,45,1300
2,3,33,33,0,0,-1,45,1299
2,3,34,33,0,0,-1,45,1298
2,3,35,33,0,0,-1,45,1297
2,3,40,33,0,0,-1,45,1296
2,3,41,33,0,0,-1,45,1295
2,3,42,33,0,0,-1,45,1294
2,3,43,33,0,0,-1,45,1293
2,3,44,33,0,0,-1,45,1292
2,3,45,33,0,0,-1,45,1291
2,3,46,33,0,0,-1,45,1290
2,3,47,33,0,0,-1,45,1289
8,1,33,0,1,45,1288
3,2,33,1,0,4,45,1287
7,1,32,0,1,45,1286
2,3,15,32,0,0,-1,45,1285
2,3,16,32,0,0,-1,45,1284
2,3,17,32,0,0,-1,45,1283
2,3,18,32,0,0,-1,45,1282
2,3,20,32,0,0,-1,45,1281
2,3,21,32,0,0,-1,45,1280
2,3,22,32,0,0,-1,45,1279
2,3,23,32,0,0,-1,45,1278
2,3,24,32,0,0,-1,45,1277
2,3,25,32,0,0,-1,45,1276
2,3,26,32,0,0,-1,45,1275
2,3,27,32,0,0,-1,45,1274
2,3,32,32,0,0,-1,45,1273
2,3,33,32,0,0,-1,45,1272
2,3,34,32,0,0,-1,45,1271
2,3,35,32,0,0,-1,45,1270
2,3,40,32,0,0,-1,45,1269
2,3,41,32,0,0,-1,45,1268
2,3,42,32,0,0,-1,45,1267
2,3,43,32,0,0,-1,45,1266
2,3,44,32,0,0,-1,45,1265
2,3,45,32,0,0,-1,45,1264
2,3,46,32,0,0,-1,45,1263
2,3,47,32,0,0,-1,45,1262
8,1,32,0,1,45,1261
3,2,32,0,0,4,45,1260
7,1,27,0,1,46,1259
2,3,16,27,0,0,-1,46,1258
2,3,17,27,0,0,-1,46,1257
2,3,21,27,0,0,-1,46,1256
2,3,22,27,0,0,-1,46,1255
2,3,23,27,0,0,-1,46,1254
2,3,26,27,0,0,-1,46,1253
2,3,27,27,0,0,-1,46,1252
2,3,40,27,0,0,-1,46,1251
2,3,41,27,0,0,-1,46,1250
2,3,42,27,0,0,-1,46,1249
2,3,43,27,0,0,-1,46,1248
2,3,44,27,0,0,-1,46,1247
2,3,45,27,0,0,-1,46,1246
2,3,46,27,0,0,-1,46,1245
2,3,47,27,0,0,-1,46,1244
8,1,27,0,1,46,1243
3,2,27,11,0,4,46,1242
3,2,27,11,0,10,46,1241
7,1,26,0,1,46,1240
2,3,4,26,0,0,-1,46,1239
2,3,5,26,0,0,-1,46,1238
2,3,16,26,0,0,-1,46,1237
2,3,17,26,0,0,-1,46,1236
2,3,18,26,0,0,-1,46,1235
2,3,19,26,0,0,-1,46,1234
2,3,20,26,0,0,-1,46,1233
2,3,21,26,0,0,-1,46,1232
2,3,22,26,0,0,-1,46,1231
2,3,23,26,0,0,-1,46,1230
2,3,24,26,0,0,-1,46,1229
2,3,25,26,0,0,-1,46,1228
2,3,26,26,0,0,-1,46,1227
2,3,27,26,0,0,-1,46,1226
2,3,40,26,0,0,-1,46,1225
2,3,41,26,0,0,-1,46,1224
2,3,42,26,0,0,-1,46,1223
2,3,43,26,0,0,-1,46,1222
2,3,44,26,0,0,-1,46,1221
2,3,45,26,0,0,-1,46,1220
2,3,46,26,0,0,-1,46,1219
2,3,47,26,0,0,-1,46,1218
8,1,26,0,1,46,1217
3,2,26,10,0,4,46,1216
3,2,26,10,0,10,46,1215
7,1,25,0,1,46,1214
2,3,4,25,0,0,-1,46,1213
2,3,5,25,0,0,-1,46,1212
2,3,18,25,0,0,-1,46,1211
2,3,19,25,0,0,-1,46,1210
2,3,20,25,0,0,-1,46,1209
2,3,21,25,0,0,-1,46,1208
2,3,24,25,0,0,-1,46,1207
2,3,25,25,0,0,-1,46,1206
2,3,26,25,0,0,-1,46,1205
2,3,40,25,0,0,-1,46,1204
2,3,41,25,0,0,-1,46,1203
2,3,42,25,0,0,-1,46,1202
2,3,43,25,0,0,-1,46,1201
2,3,44,25,0,0,-1,46,1200
2,3,45,25,0,0,-1,46,1199
2,3,47,25,0,0,-1,46,1198
8,1,25,0,1,46,1197
3,2,25,9,0,4,46,1196
3,2,25,9,0,10,46,1195
7,1,24,0,1,46,1194
2,3,4,24,0,0,-1,46,1193
2,3,5,24,0,0,-1,46,1192
2,3,16,24,0,0,-1,46,1191
2,3,17,24,0,0,-1,46,1190
2,3,18,24,0,0,-1,46,1189
2,3,19,24,0,0,-1,46,1188
2,3,20,24,0,0,-1,46,1187
3,2,20,4,0,7,46,1186
2,3,21,24,0,0,-1,46,1185
3,2,21,5,0,7,46,1184
2,3,22,24,0,0,-1,46,1183
3,2,22,6,0,7,46,1182
2,3,23,24,0,0,-1,46,1181
3,2,23,7,0,7,46,1180
2,3,24,24,0,0,-1,46,1179
2,3,25,24,0,0,-1,46,1178
2,3,26,24,0,0,-1,46,1177
2,3,40,24,0,0,-1,46,1176
2,3,41,24,0,0,-1,46,1175
2,3,42,24,0,0,-1,46,1174
2,3,43,24,0,0,-1,46,1173
2,3,44,24,0,0,-1,46,1172
3,2,44,12,0,5,46,1171
2,3,45,24,0,0,-1,46,1170
3,2,45,13,0,5,46,1169
2,3,46,24,0,0,-1,46,1168
3,2,46,14,0,5,46,1167
2,3,47,24,0,0,-1,46,1166
3,2,47,15,0,5,46,1165
8,1,24,0,1,46,1164
3,2,24,8,0,4,46,1163
3,2,24,8,0,10,46,1162
3,2,47,15,0,7,47,1161
3,2,46,14,0,7,47,1160
3,2,45,13,0,7,47,1159
3,2,44,12,0,7,47,1158
3,2,23,7,0,5,47,1157
3,2,22,6,0,5,47,1156
3,2,21,5,0,5,47,1155
3,2,20,4,0,5,47,1154
2,3,14,24,0,0,-1,47,1153
2,3,15,24,0,0,-1,47,1152
2,3,14,25,0,0,-1,47,1151
2,3,14,26,0,0,-1,47,1150
2,3,15,26,0,0,-1,47,1149
2,3,15,27,0,0,-1,47,1148
3,2,32,0,0,10,47,1147
3,2,33,1,0,10,47,1146
3,2,34,2,0,10,47,1145
3,2,35,3,0,10,47,1144
2,3,32,20,0,0,-1,47,1143
2,3,32,21,0,0,-1,47,1142
2,3,32,22,0,0,-1,47,1141
2,3,32,23,0,0,-1,47,1140
2,3,33,20,0,0,-1,47,1139
2,3,33,21,0,0,-1,47,1138
2,3,33,22,0,0,-1,47,1137
2,3,33,23,0,0,-1,47,1136
2,3,34,21,0,0,-1,47,1135
2,3,34,22,0,0,-1,47,1134
2,3,34,23,0,0,-1,47,1133
2,3,35,21,0,0,-1,47,1132
2,3,35,22,0,0,-1,47,1131
2,3,35,23,0,0,-1,47,1130
2,3,40,20,0,0,-1,47,1129
2,3,40,21,0,0,-1,47,1128
2,3,40,22,0,0,-1,47,1127
2,3,40,23,0,0,-1,47,1126
2,3,40,44,0,0,-1,47,1125
2,3,40,45,0,0,-1,47,1124
2,3,40,46,0,0,-1,47,1123
2,3,40,47,0,0,-1,47,1122
3,2,40,8,0,5,47,1121
3,2,40,8,0,7,47,1120
2,3,41,20,0,0,-1,47,1119
2,3,41,21,0,0,-1,47,1118
2,3,41,22,0,0,-1,47,1117
2,3,41,23,0,0,-1,47,1116
2,3,41,44,0,0,-1,47,1115
2,3,41,45,0,0,-1,47,1114
2,3,41,46,0,0,-1,47,1113
2,3,41,47,0,0,-1,47,1112
3,2,41,9,0,5,47,1111
3,2,41,9,0,7,47,1110
2,3,42,20,0,0,-1,47,1109
2,3,42,21,0,0,-1,47,1108
2,3,42,22,0,0,-1,47,1107
2,3,42,23,0,0,-1,47,1106
2,3,42,44,0,0,-1,47,1105
2,3,42,45,0,0,-1,47,1104
2,3,42,46,0,0,-1,47,1103
2,3,42,47,0,0,-1,47,1102
3,2,42,10,0,5,47,1101
3,2,42,10,0,7,47,1100
2,3,43,21,0,0,-1,47,1099
2,3,43,22,0,0,-1,47,1098
2,3,43,23,0,0,-1,47,1097
2,3,43,44,0,0,-1,47,1096
2,3,43,45,0,0,-1,47,1095
2,3,43,46,0,0,-1,47,1094
2,3,43,47,0,0,-1,47,1093
3,2,43,11,0,5,47,1092
3,2,43,11,0,7,47,1091
2,3,15,36,0,0,-1,47,1090
2,3,15,37,0,0,-1,47,1089
2,3,15,38,0,0,-1,47,1088
2,3,15,39,0,0,-1,47,1087
2,3,16,15,0,0,-1,47,1086
2,3,18,14,0,0,-1,47,1085
2,3,18,15,0,0,-1,47,1084
2,3,19,14,0,0,-1,47,1083
3,2,16,0,0,5,49,1082
3,2,16,0,0,7,49,1081
3,2,17,1,0,5,49,1080
3,2,17,1,0,7,49,1079
2,3,18,4,0,0,-1,49,1078
2,3,18,5,0,0,-1,49,1077
3,2,18,2,0,5,49,1076
3,2,18,2,0,7,49,1075
2,3,19,4,0,0,-1,49,1074
2,3,19,5,0,0,-1,49,1073
3,2,19,3,0,5,49,1072
3,2,19,3,0,7,49,1071
2,3,8,12,0,0,-1,49,1070
2,3,9,12,0,0,-1,49,1069
2,3,10,12,0,0,-1,49,1068
2,3,11,12,0,0,-1,49,1067
2,3,8,13,0,0,-1,49,1066
2,3,9,13,0,0,-1,49,1065
2,3,10,13,0,0,-1,49,1064
2,3,11,13,0,0,-1,49,1063
2,3,8,14,0,0,-1,49,1062
3,2,8,8,0,5,49,1061
3,2,8,8,0,7,49,1060
2,3,9,14,0,0,-1,49,1059
3,2,9,9,0,5,49,1058
3,2,9,9,0,7,49,1057
2,3,10,14,0,0,-1,49,1056
3,2,10,10,0,5,49,1055
3,2,10,10,0,7,49,1054
2,3,11,14,0,0,-1,49,1053
3,2,11,11,0,5,49,1052
3,2,11,11,0,7,49,1051
19,1,50,0,1,49,1050
2,3,50,28,0,0,-1,49,1049
2,3,50,29,0,0,-1,49,1048
2,3,50,30,0,0,-1,49,1047
2,3,50,31,0,0,-1,49,1046
2,3,50,32,0,0,-1,49,1045
2,3,50,33,0,0,-1,49,1044
2,3,50,34,0,0,-1,49,1043
2,3,50,35,0,0,-1,49,1042
2,3,50,44,0,0,-1,49,1041
2,3,50,45,0,0,-1,49,1040
2,3,50,46,0,0,-1,49,1039
2,3,50,47,0,0,-1,49,1038
2,3,50,48,0,0,-1,49,1037
2,3,50,49,0,0,-1,49,1036
2,3,50,50,0,0,-1,49,1035
19,1,49,0,1,49,1034
2,3,49,28,0,0,-1,49,1033
2,3,49,29,0,0,-1,49,1032
2,3,49,30,0,0,-1,49,1031
2,3,49,31,0,0,-1,49,1030
2,3,49,32,0,0,-1,49,1029
2,3,49,33,0,0,-1,49,1028
2,3,49,34,0,0,-1,49,1027
2,3,49,35,0,0,-1,49,1026
2,3,49,44,0,0,-1,49,1025
2,3,49,45,0,0,-1,49,1024
2,3,49,46,0,0,-1,49,1023
2,3,49,47,0,0,-1,49,1022
2,3,49,48,0,0,-1,49,1021
2,3,49,49,0,0,-1,49,1020
2,3,49,50,0,0,-1,49,1019
19,1,48,0,1,49,1018
2,3,48,28,0,0,-1,49,1017
2,3,48,29,0,0,-1,49,1016
2,3,48,30,0,0,-1,49,1015
2,3,48,31,0,0,-1,49,1014
2,3,48,32,0,0,-1,49,1013
2,3,48,33,0,0,-1,49,1012
2,3,48,34,0,0,-1,49,1011
2,3,48,35,0,0,-1,49,1010
2,3,48,44,0,0,-1,49,1009
2,3,48,45,0,0,-1,49,1008
2,3,48,46,0,0,-1,49,1007
2,3,48,47,0,0,-1,49,1006
2,3,48,48,0,0,-1,49,1005
2,3,48,49,0,0,-1,49,1004
2,3,48,50,0,0,-1,49,1003
2,3,48,15,0,0,-1,50,1002
2,3,48,16,0,0,-1,50,1001
2,3,48,17,0,0,-1,50,1000
2,3,48,18,0,0,-1,50,999
2,3,48,21,0,0,-1,50,998
2,3,48,22,0,0,-1,50,997
2,3,48,23,0,0,-1,50,996
2,3,48,24,0,0,-1,50,995
2,3,48,26,0,0,-1,50,994
2,3,48,27,0,0,-1,50,993
2,3,48,36,0,0,-1,50,992
2,3,48,37,0,0,-1,50,991
2,3,48,38,0,0,-1,50,990
2,3,48,39,0,0,-1,50,989
2,3,48,40,0,0,-1,50,988
2,3,48,41,0,0,-1,50,987
2,3,48,42,0,0,-1,50,986
2,3,48,43,0,0,-1,50,985
3,2,48,0,0,5,50,984
3,2,48,0,0,7,50,983
2,3,49,15,0,0,-1,50,982
2,3,49,16,0,0,-1,50,981
2,3,49,17,0,0,-1,50,980
2,3,49,18,0,0,-1,50,979
2,3,49,20,0,0,-1,50,978
2,3,49,21,0,0,-1,50,977
2,3,49,22,0,0,-1,50,976
2,3,49,23,0,0,-1,50,975
2,3,49,24,0,0,-1,50,974
2,3,49,25,0,0,-1,50,973
2,3,49,26,0,0,-1,50,972
2,3,49,27,0,0,-1,50,971
2,3,49,36,0,0,-1,50,970
2,3,49,37,0,0,-1,50,969
2,3,49,38,0,0,-1,50,968
2,3,49,39,0,0,-1,50,967
2,3,49,40,0,0,-1,50,966
2,3,49,41,0,0,-1,50,965
2,3,49,42,0,0,-1,50,964
2,3,49,43,0,0,-1,50,963
3,2,49,1,0,5,50,962
3,2,49,1,0,7,50,961
2,3,50,15,0,0,-1,50,960
2,3,50,16,0,0,-1,50,959
2,3,50,17,0,0,-1,50,958
2,3,50,18,0,0,-1,50,957
2,3,50,19,0,0,-1,50,956
2,3,50,21,0,0,-1,50,955
2,3,50,22,0,0,-1,50,954
2,3,50,23,0,0,-1,50,953
2,3,50,24,0,0,-1,50,952
2,3,50,25,0,0,-1,50,951
2,3,50,26,0,0,-1,50,950
2,3,50,27,0,0,-1,50,949
2,3,50,36,0,0,-1,50,948
2,3,50,37,0,0,-1,50,947
2,3,50,38,0,0,-1,50,946
2,3,50,39,0,0,-1,50,945
2,3,50,40,0,0,-1,50,944
2,3,50,41,0,0,-1,50,943
2,3,50,42,0,0,-1,50,942
2,3,50,43,0,0,-1,50,941
3,2,50,2,0,5,50,940
3,2,50,2,0,7,50,939
3,2,5,5,0,5,50,938
3,2,5,5,0,7,50,937
3,2,6,6,0,5,50,936
3,2,6,6,0,7,50,935
2,3,4,3,0,0,-1,50,934
3,2,4,4,0,5,50,933
3,2,4,4,0,7,50,932
2,3,7,3,0,0,-1,50,931
3,2,7,7,0,5,50,930
3,2,7,7,0,7,50,929
2,3,32,24,0,0,-1,48,928
2,3,33,24,0,0,-1,48,927
2,3,34,24,0,0,-1,48,926
2,3,35,24,0,0,-1,48,925
2,3,32,25,0,0,-1,48,924
2,3,33,25,0,0,-1,48,923
2,3,32,26,0,0,-1,48,922
2,3,33,26,0,0,-1,48,921
2,3,34,26,0,0,-1,48,920
2,3,35,26,0,0,-1,48,919
2,3,32,27,0,0,-1,48,918
3,2,32,0,0,5,48,917
3,2,32,0,0,7,48,916
2,3,33,27,0,0,-1,48,915
3,2,33,1,0,5,48,914
3,2,33,1,0,7,48,913
2,3,34,27,0,0,-1,48,912
3,2,34,2,0,5,48,911
3,2,34,2,0,7,48,910
2,3,35,27,0,0,-1,48,909
3,2,35,3,0,5,48,908
3,2,35,3,0,7,48,907
2,3,24,14,0,0,-1,48,906
2,3,24,15,0,0,-1,48,905
2,3,24,16,0,0,-1,48,904
2,3,24,17,0,0,-1,48,903
2,3,24,18,0,0,-1,48,902
2,3,24,19,0,0,-1,48,901
3,2,24,8,0,5,48,900
3,2,24,8,0,7,48,899
2,3,25,14,0,0,-1,48,898
2,3,25,18,0,0,-1,48,897
2,3,25,19,0,0,-1,48,896
3,2,25,9,0,5,48,895
3,2,25,9,0,7,48,894
2,3,26,14,0,0,-1,48,893
2,3,26,15,0,0,-1,48,892
2,3,26,16,0,0,-1,48,891
2,3,26,17,0,0,-1,48,890
2,3,26,18,0,0,-1,48,889
2,3,26,19,0,0,-1,48,888
3,2,26,10,0,5,48,887
3,2,26,10,0,7,48,886
2,3,27,15,0,0,-1,48,885
2,3,27,16,0,0,-1,48,884
2,3,27,17,0,0,-1,48,883
3,2,27,11,0,5,48,882
3,2,27,11,0,7,48,881
2,3,15,16,0,0,-1,48,880
2,3,14,18,0,0,-1,48,879
2,3,15,18,0,0,-1,48,878
3,2,15,15,0,5,48,877
3,2,15,15,0,7,48,876
2,3,14,19,0,0,-1,48,875
2,3,12,2,0,0,-1,48,874
2,3,12,3,0,0,-1,48,873
3,2,12,12,0,5,48,872
3,2,12,12,0,7,48,871
2,3,13,3,0,0,-1,48,870
3,2,13,13,0,5,48,869
3,2,13,13,0,7,48,868
2,3,14,2,0,0,-1,48,867
2,3,14,3,0,0,-1,48,866
3,2,14,14,0,5,48,865
3,2,14,14,0,7,48,864
2,3,28,24,0,0,-1,51,863
2,3,29,24,0,0,-1,51,862
2,3,30,24,0,0,-1,51,861
2,3,31,24,0,0,-1,51,860
2,3,36,24,0,0,-1,51,859
2,3,37,24,0,0,-1,51,858
2,3,38,24,0,0,-1,51,857
2,3,39,24,0,0,-1,51,856
2,3,31,25,0,0,-1,51,855
2,3,36,25,0,0,-1,51,854
2,3,28,26,0,0,-1,51,853
2,3,29,26,0,0,-1,51,852
2,3,30,26,0,0,-1,51,851
2,3,31,26,0,0,-1,51,850
2,3,36,26,0,0,-1,51,849
2,3,37,26,0,0,-1,51,848
2,3,38,26,0,0,-1,51,847
2,3,39,26,0,0,-1,51,846
2,3,28,27,0,0,-1,51,845
2,3,29,27,0,0,-1,51,844
2,3,30,27,0,0,-1,51,843
2,3,31,27,0,0,-1,51,842
2,3,36,27,0,0,-1,51,841
2,3,37,27,0,0,-1,51,840
2,3,38,27,0,0,-1,51,839
2,3,39,27,0,0,-1,51,838
2,3,36,32,0,0,-1,51,837
2,3,37,32,0,0,-1,51,836
2,3,38,32,0,0,-1,51,835
2,3,39,32,0,0,-1,51,834
2,3,36,33,0,0,-1,51,833
2,3,37,33,0,0,-1,51,832
2,3,38,33,0,0,-1,51,831
2,3,39,33,0,0,-1,51,830
2,3,36,34,0,0,-1,51,829
2,3,37,34,0,0,-1,51,828
2,3,38,34,0,0,-1,51,827
2,3,39,34,0,0,-1,51,826
2,3,36,35,0,0,-1,51,825
2,3,37,35,0,0,-1,51,824
2,3,38,35,0,0,-1,51,823
2,3,39,35,0,0,-1,51,822
2,3,31,20,0,0,-1,51,821
2,3,36,20,0,0,-1,51,820
2,3,28,21,0,0,-1,51,819
2,3,29,21,0,0,-1,51,818
2,3,30,21,0,0,-1,51,817
2,3,31,21,0,0,-1,51,816
2,3,36,21,0,0,-1,51,815
2,3,37,21,0,0,-1,51,814
2,3,38,21,0,0,-1,51,813
2,3,39,21,0,0,-1,51,812
2,3,28,22,0,0,-1,51,811
2,3,29,22,0,0,-1,51,810
2,3,30,22,0,0,-1,51,809
2,3,31,22,0,0,-1,51,808
2,3,36,22,0,0,-1,51,807
2,3,37,22,0,0,-1,51,806
2,3,38,22,0,0,-1,51,805
2,3,39,22,0,0,-1,51,804
2,3,28,23,0,0,-1,51,803
2,3,29,23,0,0,-1,51,802
2,3,30,23,0,0,-1,51,801
2,3,31,23,0,0,-1,51,800
2,3,36,23,0,0,-1,51,799
2,3,37,23,0,0,-1,51,798
2,3,38,23,0,0,-1,51,797
2,3,39,23,0,0,-1,51,796
2,3,36,28,0,0,-1,51,795
2,3,36,29,0,0,-1,51,794
2,3,36,30,0,0,-1,51,793
2,3,36,31,0,0,-1,51,792
2,3,37,28,0,0,-1,51,791
2,3,37,29,0,0,-1,51,790
2,3,37,30,0,0,-1,51,789
2,3,37,31,0,0,-1,51,788
2,3,38,28,0,0,-1,51,787
2,3,38,29,0,0,-1,51,786
2,3,38,30,0,0,-1,51,785
2,3,38,31,0,0,-1,51,784
2,3,39,28,0,0,-1,51,783
2,3,39,29,0,0,-1,51,782
2,3,39,30,0,0,-1,51,781
2,3,39,31,0,0,-1,51,780
2,3,28,36,0,0,-1,51,779
2,3,29,36,0,0,-1,51,778
2,3,30,36,0,0,-1,51,777
2,3,31,36,0,0,-1,51,776
2,3,28,37,0,0,-1,51,775
2,3,29,37,0,0,-1,51,774
2,3,30,37,0,0,-1,51,773
2,3,31,37,0,0,-1,51,772
2,3,28,38,0,0,-1,51,771
2,3,29,38,0,0,-1,51,770
2,3,30,38,0,0,-1,51,769
2,3,31,38,0,0,-1,51,768
2,3,28,39,0,0,-1,51,767
2,3,29,39,0,0,-1,51,766
2,3,30,39,0,0,-1,51,765
2,3,31,39,0,0,-1,51,764
2,3,28,40,0,0,-1,51,763
2,3,29,40,0,0,-1,51,762
2,3,30,40,0,0,-1,51,761
2,3,31,40,0,0,-1,51,760
2,3,28,41,0,0,-1,51,759
2,3,29,41,0,0,-1,51,758
2,3,30,41,0,0,-1,51,757
2,3,31,41,0,0,-1,51,756
2,3,28,42,0,0,-1,51,755
2,3,29,42,0,0,-1,51,754
2,3,30,42,0,0,-1,51,753
2,3,31,42,0,0,-1,51,752
2,3,28,43,0,0,-1,51,751
2,3,29,43,0,0,-1,51,750
2,3,30,43,0,0,-1,51,749
2,3,31,43,0,0,-1,51,748
3,2,28,12,0,10,51,747
3,2,29,13,0,10,51,746
3,2,30,14,0,10,51,745
3,2,31,15,0,10,51,744
3,2,44,12,0,10,51,743
3,2,45,13,0,10,51,742
3,2,46,14,0,10,51,741
3,2,47,15,0,10,51,740
3,2,4,4,0,4,51,739
3,2,5,5,0,4,51,738
3,2,6,6,0,4,51,737
3,2,7,7,0,4,51,736
2,3,28,32,0,0,-1,52,735
2,3,29,32,0,0,-1,52,734
2,3,30,32,0,0,-1,52,733
2,3,31,32,0,0,-1,52,732
2,3,28,33,0,0,-1,52,731
2,3,29,33,0,0,-1,52,730
2,3,30,33,0,0,-1,52,729
2,3,31,33,0,0,-1,52,728
2,3,28,34,0,0,-1,52,727
2,3,29,34,0,0,-1,52,726
2,3,30,34,0,0,-1,52,725
2,3,31,34,0,0,-1,52,724
2,3,28,35,0,0,-1,52,723
2,3,29,35,0,0,-1,52,722
2,3,30,35,0,0,-1,52,721
2,3,31,35,0,0,-1,52,720
2,3,36,16,0,0,-1,52,719
2,3,37,16,0,0,-1,52,718
2,3,38,16,0,0,-1,52,717
2,3,39,16,0,0,-1,52,716
2,3,36,17,0,0,-1,52,715
2,3,37,17,0,0,-1,52,714
2,3,38,17,0,0,-1,52,713
2,3,39,17,0,0,-1,52,712
2,3,36,18,0,0,-1,52,711
2,3,37,18,0,0,-1,52,710
2,3,38,18,0,0,-1,52,709
2,3,39,18,0,0,-1,52,708
2,3,38,19,0,0,-1,52,707
2,3,39,19,0,0,-1,52,706
3,2,8,8,0,4,52,705
3,2,9,9,0,4,52,704
3,2,10,10,0,4,52,703
3,2,11,11,0,4,52,702
3,2,0,0,0,4,52,701
3,2,1,1,0,4,52,700
3,2,2,2,0,4,52,699
3,2,3,3,0,4,52,698
4,1,0,1,XARBUF,-1,52,697
21,0,1,CONSTRUCTGA1,-1,52,696
19,1,3,0,1,52,695
2,3,3,4,0,0,-1,52,694
2,3,3,7,0,0,-1,52,693
2,3,3,8,0,0,-1,52,692
2,3,3,9,0,0,-1,52,691
2,3,3,10,0,0,-1,52,690
2,3,3,11,0,0,-1,52,689
2,3,3,12,0,0,-1,52,688
2,3,3,13,0,0,-1,52,687
2,3,3,14,0,0,-1,52,686
2,3,3,20,0,0,-1,52,685
2,3,3,21,0,0,-1,52,684
19,1,2,0,1,52,683
2,3,2,8,0,0,-1,52,682
2,3,2,9,0,0,-1,52,681
2,3,2,10,0,0,-1,52,680
2,3,2,11,0,0,-1,52,679
2,3,2,12,0,0,-1,52,678
2,3,2,14,0,0,-1,52,677
2,3,2,20,0,0,-1,52,676
2,3,2,21,0,0,-1,52,675
19,1,1,0,1,52,674
2,3,1,11,0,0,-1,52,673
2,3,1,20,0,0,-1,52,672
2,3,1,21,0,0,-1,52,671
19,1,0,0,1,52,670
2,3,0,20,0,0,-1,52,669
2,3,0,0,0,0,-1,53,668
2,3,0,1,0,0,-1,53,667
2,3,0,18,0,0,-1,53,666
2,3,0,19,0,0,-1,53,665
2,3,0,24,0,0,-1,53,664
2,3,0,25,0,0,-1,53,663
2,3,0,26,0,0,-1,53,662
3,2,0,0,0,5,53,661
3,2,0,0,0,7,53,660
2,3,1,0,0,0,-1,53,659
2,3,1,1,0,0,-1,53,658
2,3,1,2,0,0,-1,53,657
2,3,1,18,0,0,-1,53,656
2,3,1,19,0,0,-1,53,655
2,3,1,24,0,0,-1,53,654
2,3,1,25,0,0,-1,53,653
2,3,1,26,0,0,-1,53,652
3,2,1,1,0,5,53,651
3,2,1,1,0,7,53,650
2,3,2,1,0,0,-1,53,649
2,3,2,2,0,0,-1,53,648
2,3,2,3,0,0,-1,53,647
2,3,2,18,0,0,-1,53,646
2,3,2,19,0,0,-1,53,645
2,3,2,24,0,0,-1,53,644
2,3,2,25,0,0,-1,53,643
2,3,2,26,0,0,-1,53,642
3,2,2,2,0,5,53,641
3,2,2,2,0,7,53,640
2,3,3,2,0,0,-1,53,639
2,3,3,3,0,0,-1,53,638
2,3,3,18,0,0,-1,53,637
2,3,3,19,0,0,-1,53,636
2,3,3,24,0,0,-1,53,635
2,3,3,25,0,0,-1,53,634
2,3,3,26,0,0,-1,53,633
3,2,3,3,0,5,53,632
3,2,3,3,0,7,53,631
2,3,28,16,0,0,-1,53,630
2,3,29,16,0,0,-1,53,629
2,3,30,16,0,0,-1,53,628
2,3,31,16,0,0,-1,53,627
2,3,28,17,0,0,-1,53,626
2,3,29,17,0,0,-1,53,625
2,3,30,17,0,0,-1,53,624
2,3,31,17,0,0,-1,53,623
2,3,28,18,0,0,-1,53,622
2,3,29,18,0,0,-1,53,621
2,3,30,18,0,0,-1,53,620
2,3,31,18,0,0,-1,53,619
2,3,31,19,0,0,-1,53,618
2,3,36,15,0,0,-1,53,617
2,3,36,40,0,0,-1,53,616
2,3,36,41,0,0,-1,53,615
2,3,36,42,0,0,-1,53,614
2,3,36,43,0,0,-1,53,613
2,3,36,44,0,0,-1,53,612
2,3,36,45,0,0,-1,53,611
2,3,36,46,0,0,-1,53,610
2,3,36,47,0,0,-1,53,609
2,3,36,48,0,0,-1,53,608
2,3,36,49,0,0,-1,53,607
2,3,36,50,0,0,-1,53,606
3,2,36,4,0,5,53,605
3,2,36,4,0,7,53,604
2,3,37,15,0,0,-1,53,603
2,3,37,40,0,0,-1,53,602
2,3,37,41,0,0,-1,53,601
2,3,37,42,0,0,-1,53,600
2,3,37,43,0,0,-1,53,599
2,3,37,44,0,0,-1,53,598
2,3,37,45,0,0,-1,53,597
2,3,37,46,0,0,-1,53,596
2,3,37,47,0,0,-1,53,595
2,3,37,48,0,0,-1,53,594
2,3,37,49,0,0,-1,53,593
2,3,37,50,0,0,-1,53,592
3,2,37,5,0,5,53,591
3,2,37,5,0,7,53,590
2,3,38,15,0,0,-1,53,589
2,3,38,40,0,0,-1,53,588
2,3,38,41,0,0,-1,53,587
2,3,38,42,0,0,-1,53,586
2,3,38,43,0,0,-1,53,585
2,3,38,44,0,0,-1,53,584
2,3,38,45,0,0,-1,53,583
2,3,38,46,0,0,-1,53,582
2,3,38,47,0,0,-1,53,581
2,3,38,48,0,0,-1,53,580
2,3,38,49,0,0,-1,53,579
2,3,38,50,0,0,-1,53,578
3,2,38,6,0,5,53,577
3,2,38,6,0,7,53,576
2,3,39,15,0,0,-1,53,575
2,3,39,40,0,0,-1,53,574
2,3,39,41,0,0,-1,53,573
2,3,39,42,0,0,-1,53,572
2,3,39,43,0,0,-1,53,571
2,3,39,44,0,0,-1,53,570
2,3,39,45,0,0,-1,53,569
2,3,39,46,0,0,-1,53,568
2,3,39,47,0,0,-1,53,567
2,3,39,48,0,0,-1,53,566
2,3,39,49,0,0,-1,53,565
2,3,39,50,0,0,-1,53,564
3,2,39,7,0,5,53,563
3,2,39,7,0,7,53,562
2,3,28,15,0,0,-1,53,561
2,3,28,44,0,0,-1,53,560
2,3,28,45,0,0,-1,53,559
2,3,28,46,0,0,-1,53,558
2,3,28,47,0,0,-1,53,557
2,3,28,48,0,0,-1,53,556
2,3,28,49,0,0,-1,53,555
2,3,28,50,0,0,-1,53,554
3,2,28,12,0,5,53,553
3,2,28,12,0,7,53,552
2,3,29,15,0,0,-1,53,551
2,3,29,44,0,0,-1,53,550
2,3,29,45,0,0,-1,53,549
2,3,29,46,0,0,-1,53,548
2,3,29,47,0,0,-1,53,547
2,3,29,48,0,0,-1,53,546
2,3,29,49,0,0,-1,53,545
2,3,29,50,0,0,-1,53,544
3,2,29,13,0,5,53,543
3,2,29,13,0,7,53,542
2,3,30,15,0,0,-1,53,541
2,3,30,44,0,0,-1,53,540
2,3,30,45,0,0,-1,53,539
2,3,30,46,0,0,-1,53,538
2,3,30,47,0,0,-1,53,537
2,3,30,48,0,0,-1,53,536
2,3,30,49,0,0,-1,53,535
2,3,30,50,0,0,-1,53,534
3,2,30,14,0,5,53,533
3,2,30,14,0,7,53,532
2,3,31,15,0,0,-1,53,531
2,3,31,44,0,0,-1,53,530
2,3,31,45,0,0,-1,53,529
2,3,31,46,0,0,-1,53,528
2,3,31,47,0,0,-1,53,527
2,3,31,48,0,0,-1,53,526
2,3,31,49,0,0,-1,53,525
2,3,31,50,0,0,-1,53,524
3,2,31,15,0,5,53,523
4,1,0,1,RARBUF,-1,53,522
3,2,31,15,0,7,53,521
4,1,0,1,RAPBUF,-1,53,520
3,2,48,0,0,10,53,519
3,2,49,1,0,10,53,518
3,2,50,2,0,10,53,517
4,1,0,1,RBPBUF,-1,53,516
21,0,1,CONSTRUCTGB,-1,53,515
15,0,1,RAR,-1,54,514
16,0,1,RAR,-1,54,513
21,0,1,CONSTRUCTGA2,-1,54,512
21,0,1,EIGEN,-1,54,511
5,1,12,0,6,54,510
5,1,13,0,6,54,509
5,1,14,0,6,54,508
5,1,15,0,6,54,507
5,1,24,0,6,54,506
5,1,25,0,6,54,505
5,1,26,0,6,54,504
5,1,27,0,6,54,503
5,1,32,0,6,54,502
5,1,33,0,6,54,501
5,1,34,0,6,54,500
5,1,35,0,6,54,499
5,1,40,0,6,54,498
5,1,41,0,6,54,497
5,1,42,0,6,54,496
5,1,43,0,6,54,495
5,1,48,0,6,54,494
5,1,49,0,6,54,493
5,1,50,0,6,54,492
5,1,4,0,7,54,491
5,1,5,0,7,54,490
5,1,6,0,7,54,489
5,1,7,0,7,54,488
5,1,20,0,11,54,487
5,1,21,0,11,54,486
5,1,22,0,11,54,485
5,1,23,0,11,54,484
5,1,16,0,6,57,483
5,1,17,0,6,57,482
5,1,18,0,6,57,481
5,1,19,0,6,57,480
5,1,28,0,6,57,479
5,1,29,0,6,57,478
5,1,30,0,6,57,477
5,1,31,0,6,57,476
5,1,36,0,6,57,475
5,1,37,0,6,57,474
5,1,38,0,6,57,473
5,1,39,0,6,57,472
5,1,16,0,7,57,471
6,1,16,0,1,57,470
5,1,17,0,7,57,469
6,1,17,0,1,57,468
5,1,18,0,7,57,467
6,1,18,0,1,57,466
5,1,19,0,7,57,465
6,1,19,0,1,57,464
5,1,36,0,7,57,463
6,1,36,0,1,57,462
5,1,37,0,7,57,461
6,1,37,0,1,57,460
5,1,38,0,7,57,459
6,1,38,0,1,57,458
5,1,39,0,7,57,457
6,1,39,0,1,57,456
5,1,12,0,7,60,455
6,1,12,0,1,60,454
5,1,13,0,7,60,453
6,1,13,0,1,60,452
5,1,14,0,7,60,451
6,1,14,0,1,60,450
5,1,15,0,7,60,449
6,1,15,0,1,60,448
5,1,16,0,10,60,447
6,1,16,0,3,60,446
5,1,17,0,10,60,445
6,1,17,0,3,60,444
5,1,18,0,10,60,443
6,1,18,0,3,60,442
5,1,19,0,10,60,441
6,1,19,0,3,60,440
5,1,32,0,11,60,439
5,1,33,0,11,60,438
5,1,34,0,11,60,437
5,1,35,0,11,60,436
5,1,36,0,11,60,435
5,1,37,0,11,60,434
5,1,38,0,11,60,433
5,1,39,0,11,60,432
5,1,8,0,7,58,431
5,1,9,0,7,58,430
5,1,10,0,7,58,429
5,1,11,0,7,58,428
5,1,28,0,7,58,427
6,1,28,0,1,58,426
5,1,29,0,7,58,425
6,1,29,0,1,58,424
5,1,30,0,7,58,423
6,1,30,0,1,58,422
5,1,31,0,7,58,421
6,1,31,0,1,58,420
5,1,44,0,7,58,419
5,1,45,0,7,58,418
5,1,46,0,7,58,417
5,1,47,0,7,58,416
5,1,36,0,9,58,415
5,1,37,0,9,58,414
5,1,38,0,9,58,413
5,1,39,0,9,58,412
5,1,0,0,6,59,411
5,1,1,0,6,59,410
5,1,2,0,6,59,409
5,1,3,0,6,59,408
5,1,8,0,6,59,407
6,1,8,0,1,59,406
5,1,9,0,6,59,405
6,1,9,0,1,59,404
5,1,10,0,6,59,403
6,1,10,0,1,59,402
5,1,11,0,6,59,401
6,1,11,0,1,59,400
5,1,44,0,6,59,399
6,1,44,0,1,59,398
5,1,45,0,6,59,397
6,1,45,0,1,59,396
5,1,46,0,6,59,395
6,1,46,0,1,59,394
5,1,47,0,6,59,393
6,1,47,0,1,59,392
5,1,0,0,7,59,391
6,1,0,0,1,59,390
5,1,1,0,7,59,389
6,1,1,0,1,59,388
5,1,2,0,7,59,387
6,1,2,0,1,59,386
5,1,3,0,7,59,385
6,1,3,0,1,59,384
5,1,36,0,8,59,383
6,1,36,0,2,59,382
5,1,37,0,8,59,381
6,1,37,0,2,59,380
5,1,38,0,8,59,379
6,1,38,0,2,59,378
5,1,39,0,8,59,377
6,1,39,0,2,59,376
5,1,0,0,10,59,375
6,1,0,0,3,59,374
5,1,1,0,10,59,373
6,1,1,0,3,59,372
5,1,2,0,10,59,371
6,1,2,0,3,59,370
5,1,3,0,10,59,369
6,1,3,0,3,59,368
5,1,32,0,7,68,367
5,1,33,0,7,68,366
5,1,34,0,7,68,365
5,1,35,0,7,68,364
5,1,28,0,10,68,363
6,1,28,0,3,68,362
5,1,29,0,10,68,361
6,1,29,0,3,68,360
5,1,30,0,10,68,359
6,1,30,0,3,68,358
5,1,31,0,10,68,357
6,1,31,0,3,68,356
5,1,44,0,10,68,355
6,1,44,0,3,68,354
5,1,45,0,10,68,353
6,1,45,0,3,68,352
5,1,46,0,10,68,351
6,1,46,0,3,68,350
5,1,47,0,10,68,349
6,1,47,0,3,68,348
5,1,12,0,11,68,347
5,1,13,0,11,68,346
5,1,14,0,11,68,345
5,1,15,0,11,68,344
5,1,0,0,8,55,343
5,1,1,0,8,55,342
5,1,2,0,8,55,341
5,1,3,0,8,55,340
5,1,28,0,8,55,339
5,1,29,0,8,55,338
5,1,30,0,8,55,337
5,1,31,0,8,55,336
5,1,28,0,9,55,335
5,1,29,0,9,55,334
5,1,30,0,9,55,333
5,1,31,0,9,55,332
5,1,32,0,9,55,331
5,1,33,0,9,55,330
5,1,34,0,9,55,329
5,1,35,0,9,55,328
5,1,44,0,9,55,327
5,1,45,0,9,55,326
5,1,46,0,9,55,325
5,1,47,0,9,55,324
5,1,48,0,9,55,323
5,1,49,0,9,55,322
5,1,50,0,9,55,321
5,1,4,0,8,63,320
5,1,5,0,8,63,319
5,1,6,0,8,63,318
5,1,7,0,8,63,317
5,1,48,0,8,63,316
6,1,48,0,2,63,315
5,1,49,0,8,63,314
6,1,49,0,2,63,313
5,1,50,0,8,63,312
6,1,50,0,2,63,311
5,1,20,0,10,63,310
5,1,21,0,10,63,309
5,1,22,0,10,63,308
5,1,23,0,10,63,307
5,1,48,0,11,63,306
6,1,48,0,4,63,305
5,1,49,0,11,63,304
6,1,49,0,4,63,303
5,1,50,0,11,63,302
6,1,50,0,4,63,301
5,1,20,0,6,56,300
5,1,21,0,6,56,299
5,1,22,0,6,56,298
5,1,23,0,6,56,297
5,1,40,0,9,56,296
5,1,41,0,9,56,295
5,1,42,0,9,56,294
5,1,43,0,9,56,293
5,1,40,0,10,56,292
5,1,41,0,10,56,291
5,1,42,0,10,56,290
5,1,43,0,10,56,289
5,1,0,0,11,56,288
5,1,1,0,11,56,287
5,1,2,0,11,56,286
5,1,3,0,11,56,285
5,1,4,0,11,56,284
5,1,5,0,11,56,283
5,1,6,0,11,56,282
5,1,7,0,11,56,281
5,1,40,0,7,61,280
6,1,40,0,1,61,279
5,1,41,0,7,61,278
6,1,41,0,1,61,277
5,1,42,0,7,61,276
6,1,42,0,1,61,275
5,1,43,0,7,61,274
6,1,43,0,1,61,273
5,1,40,0,8,61,272
6,1,40,0,2,61,271
5,1,41,0,8,61,270
6,1,41,0,2,61,269
5,1,42,0,8,61,268
6,1,42,0,2,61,267
5,1,43,0,8,61,266
6,1,43,0,2,61,265
5,1,24,0,10,61,264
5,1,25,0,10,61,263
5,1,26,0,10,61,262
5,1,27,0,10,61,261
5,1,48,0,10,61,260
5,1,49,0,10,61,259
5,1,50,0,10,61,258
5,1,24,0,8,62,257
5,1,25,0,8,62,256
5,1,26,0,8,62,255
5,1,27,0,8,62,254
5,1,12,0,9,62,253
5,1,13,0,9,62,252
5,1,14,0,9,62,251
5,1,15,0,9,62,250
5,1,36,0,10,62,249
5,1,37,0,10,62,248
5,1,38,0,10,62,247
5,1,39,0,10,62,246
5,1,40,0,11,62,245
6,1,40,0,4,62,244
5,1,41,0,11,62,243
6,1,41,0,4,62,242
5,1,42,0,11,62,241
6,1,42,0,4,62,240
5,1,43,0,11,62,239
6,1,43,0,4,62,238
5,1,16,0,8,65,237
5,1,17,0,8,65,236
5,1,18,0,8,65,235
5,1,19,0,8,65,234
5,1,44,0,8,65,233
6,1,44,0,2,65,232
5,1,45,0,8,65,231
6,1,45,0,2,65,230
5,1,46,0,8,65,229
6,1,46,0,2,65,228
5,1,47,0,8,65,227
6,1,47,0,2,65,226
5,1,16,0,9,65,225
6,1,16,0,2,65,224
5,1,17,0,9,65,223
6,1,17,0,2,65,222
5,1,18,0,9,65,221
6,1,18,0,2,65,220
5,1,19,0,9,65,219
6,1,19,0,2,65,218
5,1,24,0,9,65,217
6,1,24,0,2,65,216
5,1,25,0,9,65,215
6,1,25,0,2,65,214
5,1,26,0,9,65,213
6,1,26,0,2,65,212
5,1,27,0,9,65,211
6,1,27,0,2,65,210
5,1,16,0,11,65,209
6,1,16,0,4,65,208
5,1,17,0,11,65,207
6,1,17,0,4,65,206
5,1,18,0,11,65,205
6,1,18,0,4,65,204
5,1,19,0,11,65,203
6,1,19,0,4,65,202
5,1,44,0,11,65,201
6,1,44,0,4,65,200
5,1,45,0,11,65,199
6,1,45,0,4,65,198
5,1,46,0,11,65,197
6,1,46,0,4,65,196
5,1,47,0,11,65,195
6,1,47,0,4,65,194
6,1,43,0,3,64,193
6,1,42,0,3,64,192
6,1,41,0,3,64,191
6,1,40,0,3,64,190
5,1,4,0,6,64,189
6,1,4,0,1,64,188
5,1,5,0,6,64,187
6,1,5,0,1,64,186
5,1,6,0,6,64,185
6,1,6,0,1,64,184
5,1,7,0,6,64,183
6,1,7,0,1,64,182
5,1,8,0,8,64,181
5,1,9,0,8,64,180
5,1,10,0,8,64,179
5,1,11,0,8,64,178
5,1,4,0,9,64,177
5,1,5,0,9,64,176
5,1,6,0,9,64,175
5,1,7,0,9,64,174
5,1,8,0,9,64,173
6,1,8,0,2,64,172
5,1,9,0,9,64,171
6,1,9,0,2,64,170
5,1,10,0,9,64,169
6,1,10,0,2,64,168
5,1,11,0,9,64,167
6,1,11,0,2,64,166
5,1,8,0,10,64,165
6,1,8,0,3,64,164
5,1,9,0,10,64,163
6,1,9,0,3,64,162
5,1,10,0,10,64,161
6,1,10,0,3,64,160
5,1,11,0,10,64,159
6,1,11,0,3,64,158
5,1,8,0,11,64,157
6,1,8,0,4,64,156
5,1,9,0,11,64,155
6,1,9,0,4,64,154
5,1,10,0,11,64,153
6,1,10,0,4,64,152
5,1,11,0,11,64,151
6,1,11,0,4,64,150
6,1,7,0,2,69,149
6,1,6,0,2,69,148
6,1,5,0,2,69,147
6,1,4,0,2,69,146
6,1,39,0,3,69,145
6,1,38,0,3,69,144
6,1,37,0,3,69,143
6,1,36,0,3,69,142
5,1,12,0,8,69,141
6,1,12,0,2,69,140
6,1,12,0,4,69,139
5,1,13,0,8,69,138
6,1,13,0,2,69,137
6,1,13,0,4,69,136
5,1,14,0,8,69,135
6,1,14,0,2,69,134
6,1,14,0,4,69,133
5,1,15,0,8,69,132
6,1,15,0,2,69,131
6,1,15,0,4,69,130
6,1,31,0,2,67,129
6,1,30,0,2,67,128
6,1,29,0,2,67,127
6,1,28,0,2,67,126
6,1,39,0,4,67,125
6,1,38,0,4,67,124
6,1,37,0,4,67,123
6,1,36,0,4,67,122
5,1,32,0,8,67,121
6,1,32,0,2,67,120
6,1,32,0,4,67,119
5,1,33,0,8,67,118
6,1,33,0,2,67,117
6,1,33,0,4,67,116
5,1,34,0,8,67,115
6,1,34,0,2,67,114
6,1,34,0,4,67,113
5,1,35,0,8,67,112
6,1,35,0,2,67,111
6,1,35,0,4,67,110
5,1,4,0,10,67,109
6,1,4,0,3,67,108
5,1,5,0,10,67,107
6,1,5,0,3,67,106
5,1,6,0,10,67,105
6,1,6,0,3,67,104
5,1,7,0,10,67,103
6,1,7,0,3,67,102
5,1,24,0,11,67,101
6,1,24,0,4,67,100
5,1,25,0,11,67,99
6,1,25,0,4,67,98
5,1,26,0,11,67,97
6,1,26,0,4,67,96
5,1,27,0,11,67,95
6,1,27,0,4,67,94
5,1,28,0,11,67,93
6,1,28,0,4,67,92
5,1,29,0,11,67,91
6,1,29,0,4,67,90
5,1,30,0,11,67,89
6,1,30,0,4,67,88
5,1,31,0,11,67,87
6,1,31,0,4,67,86
5,1,20,0,7,66,85
6,1,20,0,1,66,84
6,1,20,0,3,66,83
5,1,21,0,7,66,82
6,1,21,0,1,66,81
6,1,21,0,3,66,80
5,1,22,0,7,66,79
6,1,22,0,1,66,78
6,1,22,0,3,66,77
5,1,23,0,7,66,76
6,1,23,0,1,66,75
6,1,23,0,3,66,74
5,1,20,0,8,66,73
5,1,21,0,8,66,72
5,1,22,0,8,66,71
5,1,23,0,8,66,70
5,1,0,0,9,66,69
5,1,1,0,9,66,68
5,1,2,0,9,66,67
5,1,3,0,9,66,66
5,1,20,0,9,66,65
6,1,20,0,2,66,64
6,1,20,0,4,66,63
5,1,21,0,9,66,62
6,1,21,0,2,66,61
6,1,21,0,4,66,60
5,1,22,0,9,66,59
6,1,22,0,2,66,58
6,1,22,0,4,66,57
5,1,23,0,9,66,56
6,1,23,0,2,66,55
6,1,23,0,4,66,54
5,1,12,0,10,66,53
6,1,12,0,3,66,52
5,1,13,0,10,66,51
6,1,13,0,3,66,50
5,1,14,0,10,66,49
6,1,14,0,3,66,48
5,1,15,0,10,66,47
6,1,15,0,3,66,46
5,1,32,0,10,66,45
5,1,33,0,10,66,44
5,1,34,0,10,66,43
5,1,35,0,10,66,42
6,1,3,0,2,70,41
6,1,3,0,4,70,40
6,1,2,0,2,70,39
6,1,2,0,4,70,38
6,1,1,0,2,70,37
6,1,1,0,4,70,36
6,1,0,0,2,70,35
6,1,0,0,4,70,34
6,1,4,0,4,70,33
6,1,5,0,4,70,32
6,1,6,0,4,70,31
6,1,7,0,4,70,30
6,1,35,0,1,70,29
6,1,35,0,3,70,28
6,1,34,0,1,70,27
6,1,34,0,3,70,26
6,1,33,0,1,70,25
6,1,33,0,3,70,24
6,1,32,0,1,70,23
6,1,32,0,3,70,22
5,1,24,0,7,70,21
6,1,24,0,1,70,20
6,1,24,0,3,70,19
5,1,25,0,7,70,18
6,1,25,0,1,70,17
6,1,25,0,3,70,16
5,1,26,0,7,70,15
6,1,26,0,1,70,14
6,1,26,0,3,70,13
5,1,27,0,7,70,12
6,1,27,0,1,70,11
6,1,27,0,3,70,10
5,1,48,0,7,70,9
6,1,48,0,1,70,8
6,1,48,0,3,70,7
5,1,49,0,7,70,6
6,1,49,0,1,70,5
6,1,49,0,3,70,4
5,1,50,0,7,70,3
6,1,50,0,1,70,2
6,1,50,0,3,70,1
