SETZERO,45,1 0 2633
SETZERO,44,1 0 2632
SETZERO,41,1 0 2631
SETZERO,40,1 0 2630
SETZERO,37,1 0 2629
SETZERO,36,1 0 2628
SETZERO,29,1 0 2627
SETZERO,28,1 0 2626
SETZERO,23,1 0 2625
SETZERO,22,1 0 2624
SETZERO,21,1 0 2623
SETZERO,20,1 0 2622
SETZERO,15,1 0 2621
SETZERO,14,1 0 2620
SETZERO,11,1 0 2619
SETZERO,10,1 0 2618
_X,47 0 2617
_X,46 0 2616
_AX,43 0 2615
_AX,42 0 2614
_X,39 0 2613
_X,38 0 2612
_X,37 0 2611
_X,36 0 2610
_X,31 0 2609
_X,30 0 2608
_AX,27 0 2607
_AX,26 0 2606
_AX,25 0 2605
_AX,24 0 2604
_X,25 0 2603
_X,24 0 2602
_X,19 0 2601
_X,18 0 2600
_X,17 0 2599
_X,16 0 2598
_X,15 0 2597
_X,14 0 2596
_X,5 0 2595
_X,4 0 2594
_X,1 0 2593
_X,0 0 2592
_lambda 0 2591
XY,0,1 0 2590
XY,1,1 0 2589
XY,4,1 0 2588
XY,5,1 0 2587
XY,14,1 0 2586
XY,15,1 0 2585
XY,16,1 0 2584
XY,17,1 0 2583
XY,18,1 0 2582
XY,19,1 0 2581
XY,24,1 0 2580
SUB,24,1 0 2579
MULT,24 0 2578
COL,24,8 0 2577
XY,25,1 0 2576
SUB,25,1 0 2575
MULT,25 0 2574
COL,25,9 0 2573
XY,30,1 0 2572
XY,31,1 0 2571
XY,36,1 0 2570
XY,37,1 0 2569
XY,38,1 0 2568
XY,39,1 0 2567
XY,46,1 0 2566
XY,47,1 0 2565
SETZERO,27,1 1 2564
SETZERO,26,1 1 2563
SETZERO,9,1 1 2562
SETZERO,8,1 1 2561
_X,43 1 2560
XY,43,1 1 2559
SUB,43,1 1 2558
MULT,43 1 2557
_X,42 1 2556
XY,42,1 1 2555
SUB,42,1 1 2554
MULT,42 1 2553
_AX,41 1 2552
_AX,40 1 2551
_X,41 1 2550
XY,41,1 1 2549
SUB,41,1 1 2548
MULT,41 1 2547
_X,40 1 2546
XY,40,1 1 2545
SUB,40,1 1 2544
MULT,40 1 2543
_AX,31 1 2542
SUB,31,1 1 2541
MULT,31 1 2540
COL,31,15 1 2539
_AX,30 1 2538
SUB,30,1 1 2537
MULT,30 1 2536
COL,30,14 1 2535
_X,27 1 2534
XY,27,1 1 2533
SUB,27,1 1 2532
MULT,27 1 2531
COL,27,11 1 2530
_X,26 1 2529
XY,26,1 1 2528
SUB,26,1 1 2527
MULT,26 1 2526
COL,26,10 1 2525
_X,23 1 2524
XY,23,1 1 2523
_X,22 1 2522
XY,22,1 1 2521
_AX,21 1 2520
_AX,20 1 2519
_X,21 1 2518
XY,21,1 1 2517
SUB,21,1 1 2516
_X,20 1 2515
XY,20,1 1 2514
SUB,20,1 1 2513
_X,9 1 2512
XY,9,1 1 2511
_X,8 1 2510
XY,8,1 1 2509
_AX,1 1 2508
SUB,1,1 1 2507
MULT,1 1 2506
COL,1,1 1 2505
_AX,0 1 2504
SUB,0,1 1 2503
MULT,0 1 2502
COL,0,0 1 2501
MULT,20 2 2500
COL,20,4 2 2499
MULT,21 2 2498
COL,21,5 2 2497
COL,40,8 2 2496
COL,41,9 2 2495
SETZERO,50,1 2 2494
SETZERO,49,1 2 2493
SETZERO,48,1 2 2492
SETZERO,47,1 2 2491
SETZERO,46,1 2 2490
SETZERO,39,1 2 2489
SETZERO,38,1 2 2488
SETZERO,33,1 2 2487
SETZERO,32,1 2 2486
SETZERO,25,1 2 2485
SETZERO,24,1 2 2484
SETZERO,17,1 2 2483
SETZERO,16,1 2 2482
_AX,47 2 2481
SUB,47,1 2 2480
MULT,47 2 2479
COL,47,15 2 2478
_AX,46 2 2477
SUB,46,1 2 2476
MULT,46 2 2475
COL,46,14 2 2474
_AX,37 2 2473
_AX,36 2 2472
_AX,19 2 2471
SUB,19,1 2 2470
MULT,19 2 2469
COL,19,3 2 2468
_AX,18 2 2467
SUB,18,1 2 2466
MULT,18 2 2465
COL,18,2 2 2464
_AX,17 2 2463
SUB,17,1 2 2462
MULT,17 2 2461
_AX,16 2 2460
SUB,16,1 2 2459
MULT,16 2 2458
_AX,11 2 2457
_AX,10 2 2456
_X,11 2 2455
XY,11,1 2 2454
_X,10 2 2453
XY,10,1 2 2452
_AX,9 2 2451
SUB,9,1 2 2450
MULT,9 2 2449
COL,9,9 2 2448
_AX,8 2 2447
SUB,8,1 2 2446
MULT,8 2 2445
COL,8,8 2 2444
_AX,5 2 2443
SUB,5,1 2 2442
MULT,5 2 2441
COL,5,5 2 2440
_AX,4 2 2439
SUB,4,1 2 2438
MULT,4 2 2437
COL,4,4 2 2436
SUB,10,1 3 2435
MULT,10 3 2434
COL,10,10 3 2433
SUB,11,1 3 2432
MULT,11 3 2431
COL,11,11 3 2430
COL,16,0 3 2429
COL,17,1 3 2428
SUB,36,1 3 2427
MULT,36 3 2426
COL,36,4 3 2425
SUB,37,1 3 2424
MULT,37 3 2423
COL,37,5 3 2422
COL,42,10 3 2421
COL,43,11 3 2420
_AX,50 3 2419
_X,50 3 2418
XY,50,1 3 2417
SUB,50,1 3 2416
MULT,50 3 2415
COL,50,2 3 2414
_AX,49 3 2413
_AX,48 3 2412
_X,49 3 2411
XY,49,1 3 2410
SUB,49,1 3 2409
MULT,49 3 2408
COL,49,1 3 2407
_X,48 3 2406
XY,48,1 3 2405
SUB,48,1 3 2404
MULT,48 3 2403
COL,48,0 3 2402
_AX,33 3 2401
_AX,32 3 2400
_X,33 3 2399
XY,33,1 3 2398
SUB,33,1 3 2397
MULT,33 3 2396
COL,33,1 3 2395
_X,32 3 2394
XY,32,1 3 2393
SUB,32,1 3 2392
MULT,32 3 2391
COL,32,0 3 2390
_AX,7 3 2389
_AX,6 3 2388
_X,7 3 2387
XY,7,1 3 2386
SUB,7,1 3 2385
MULT,7 3 2384
COL,7,7 3 2383
_X,6 3 2382
XY,6,1 3 2381
SUB,6,1 3 2380
MULT,6 3 2379
COL,6,6 3 2378
SETZERO,43,1 4 2377
SETZERO,42,1 4 2376
SETZERO,35,1 4 2375
SETZERO,34,1 4 2374
SETZERO,31,1 4 2373
SETZERO,30,1 4 2372
SETZERO,19,1 4 2371
SETZERO,18,1 4 2370
SETZERO,7,1 4 2369
SETZERO,6,1 4 2368
SETZERO,3,1 4 2367
SETZERO,2,1 4 2366
SETZERO,1,1 4 2365
SETZERO,0,1 4 2364
RESET,RN 4 2363
_X,45 4 2362
XY,45,1 4 2361
_X,44 4 2360
XY,44,1 4 2359
_AX,39 4 2358
SUB,39,1 4 2357
MULT,39 4 2356
COL,39,7 4 2355
_AX,38 4 2354
SUB,38,1 4 2353
MULT,38 4 2352
COL,38,6 4 2351
_AX,29 4 2350
_AX,28 4 2349
_X,29 4 2348
XY,29,1 4 2347
SUB,29,1 4 2346
MULT,29 4 2345
COL,29,13 4 2344
_X,28 4 2343
XY,28,1 4 2342
SUB,28,1 4 2341
MULT,28 4 2340
COL,28,12 4 2339
_AX,15 4 2338
SUB,15,1 4 2337
MULT,15 4 2336
COL,15,15 4 2335
_AX,14 4 2334
SUB,14,1 4 2333
MULT,14 4 2332
COL,14,14 4 2331
_AX,13 4 2330
_AX,12 4 2329
_X,13 4 2328
XY,13,1 4 2327
SUB,13,1 4 2326
MULT,13 4 2325
COL,13,13 4 2324
_X,12 4 2323
XY,12,1 4 2322
SUB,12,1 4 2321
MULT,12 4 2320
COL,12,12 4 2319
_AX,3 4 2318
_AX,2 4 2317
_X,3 4 2316
XY,3,1 4 2315
_X,2 4 2314
XY,2,1 4 2313
SUB,2,1 5 2312
MULT,2 5 2311
COL,2,2 5 2310
SUB,3,1 5 2309
MULT,3 5 2308
COL,3,3 5 2307
SETZERO,5,1 5 2306
SETZERO,4,1 5 2305
_AX,45 5 2304
SUB,45,1 5 2303
MULT,45 5 2302
COL,45,13 5 2301
_AX,44 5 2300
SUB,44,1 5 2299
MULT,44 5 2298
COL,44,12 5 2297
_AX,35 5 2296
_AX,34 5 2295
_X,35 5 2294
XY,35,1 5 2293
SUB,35,1 5 2292
MULT,35 5 2291
COL,35,3 5 2290
_X,34 5 2289
XY,34,1 5 2288
SUB,34,1 5 2287
MULT,34 5 2286
COL,34,2 5 2285
_AX,23 5 2284
SUB,23,1 5 2283
MULT,23 5 2282
COL,23,7 5 2281
_AX,22 5 2280
SUB,22,1 5 2279
MULT,22 5 2278
COL,22,6 5 2277
RNRED,RNBUF 5 2276
SQRT,RN 5 2275
RESET,actMask 5 2274
CONV,actMask 5 2273
GET,2,1 5 2272
XTY,2,2,1 5 2271
GET,3,1 5 2270
XTY,3,3,1 5 2269
GET,12,1 5 2268
XTY,12,12,1 5 2267
GET,13,1 5 2266
XTY,13,13,1 5 2265
GET,14,1 5 2264
XTY,14,14,1 5 2263
GET,15,1 5 2262
XTY,15,15,1 5 2261
GET,34,1 5 2260
XTY,34,2,1 5 2259
GET,35,1 5 2258
XTY,35,3,1 5 2257
GET,44,1 5 2256
XTY,44,12,1 5 2255
GET,45,1 5 2254
XTY,45,13,1 5 2253
GET,0,1 6 2252
XTY,0,0,1 6 2251
GET,1,1 6 2250
XTY,1,1,1 6 2249
GET,6,1 6 2248
XTY,6,6,1 6 2247
GET,7,1 6 2246
XTY,7,7,1 6 2245
GET,18,1 6 2244
GET,19,1 6 2243
GET,24,1 6 2242
XTY,24,8,1 6 2241
GET,25,1 6 2240
XTY,25,9,1 6 2239
GET,26,1 6 2238
XTY,26,10,1 6 2237
GET,27,1 6 2236
XTY,27,11,1 6 2235
GET,30,1 6 2234
XTY,30,14,1 6 2233
GET,31,1 6 2232
XTY,31,15,1 6 2231
GET,32,1 6 2230
XTY,32,0,1 6 2229
GET,33,1 6 2228
XTY,33,1,1 6 2227
GET,38,1 6 2226
XTY,38,6,1 6 2225
GET,39,1 6 2224
XTY,39,7,1 6 2223
GET,42,1 6 2222
GET,43,1 6 2221
GET,48,1 6 2220
XTY,48,0,1 6 2219
GET,49,1 6 2218
XTY,49,1,1 6 2217
XTY,43,11,1 7 2216
XTY,42,10,1 7 2215
XTY,19,3,1 7 2214
XTY,18,2,1 7 2213
GET,8,1 7 2212
XTY,8,8,1 7 2211
GET,9,1 7 2210
XTY,9,9,1 7 2209
GET,10,1 7 2208
XTY,10,10,1 7 2207
GET,11,1 7 2206
XTY,11,11,1 7 2205
GET,16,1 7 2204
XTY,16,0,1 7 2203
GET,17,1 7 2202
XTY,17,1,1 7 2201
GET,28,1 7 2200
XTY,28,12,1 7 2199
GET,29,1 7 2198
XTY,29,13,1 7 2197
GET,36,1 7 2196
XTY,36,4,1 7 2195
GET,37,1 7 2194
XTY,37,5,1 7 2193
GET,40,1 7 2192
XTY,40,8,1 7 2191
GET,41,1 7 2190
XTY,41,9,1 7 2189
GET,46,1 7 2188
XTY,46,14,1 7 2187
GET,47,1 7 2186
XTY,47,15,1 7 2185
GET,4,1 8 2184
XTY,4,4,1 8 2183
GET,5,1 8 2182
XTY,5,5,1 8 2181
GET,20,1 8 2180
XTY,20,4,1 8 2179
GET,21,1 8 2178
XTY,21,5,1 8 2177
GET,22,1 8 2176
XTY,22,6,1 8 2175
GET,23,1 8 2174
XTY,23,7,1 8 2173
GET,50,1 8 2172
XTY,50,2,1 8 2171
RED,temp2BUF,0 8 2170
XY,0,2 8 2169
XY,1,2 8 2168
XY,2,2 8 2167
XY,3,2 8 2166
XY,4,2 8 2165
XY,5,2 8 2164
XY,6,2 8 2163
XY,7,2 8 2162
XY,8,2 8 2161
XY,9,2 8 2160
XY,10,2 8 2159
XY,11,2 8 2158
XY,50,2 8 2157
XY,12,2 9 2156
XY,13,2 9 2155
XY,14,2 9 2154
XY,15,2 9 2153
XY,16,2 9 2152
XY,17,2 9 2151
XY,18,2 9 2150
XY,19,2 9 2149
XY,20,2 9 2148
XY,21,2 9 2147
XY,22,2 9 2146
XY,23,2 9 2145
XY,28,2 9 2144
XY,29,2 9 2143
XY,30,2 9 2142
XY,31,2 9 2141
XY,32,2 9 2140
XY,33,2 9 2139
XY,34,2 9 2138
XY,35,2 9 2137
XY,36,2 9 2136
XY,37,2 9 2135
XY,38,2 9 2134
XY,39,2 9 2133
XY,42,2 9 2132
XY,43,2 9 2131
XY,44,2 9 2130
XY,45,2 9 2129
XY,46,2 9 2128
XY,47,2 9 2127
XY,48,2 9 2126
XY,49,2 9 2125
SUB,47,2 10 2124
XTY,47,15,2 10 2123
SUB,46,2 10 2122
XTY,46,14,2 10 2121
SUB,43,2 10 2120
XTY,43,11,2 10 2119
SUB,42,2 10 2118
XTY,42,10,2 10 2117
SUB,37,2 10 2116
XTY,37,5,2 10 2115
SUB,36,2 10 2114
XTY,36,4,2 10 2113
SUB,35,2 10 2112
XTY,35,3,2 10 2111
SUB,34,2 10 2110
XTY,34,2,2 10 2109
SUB,33,2 10 2108
XTY,33,1,2 10 2107
SUB,32,2 10 2106
XTY,32,0,2 10 2105
SUB,31,2 10 2104
XTY,31,15,2 10 2103
SUB,30,2 10 2102
XTY,30,14,2 10 2101
SUB,29,2 10 2100
XTY,29,13,2 10 2099
SUB,28,2 10 2098
XTY,28,12,2 10 2097
SUB,23,2 10 2096
XTY,23,7,2 10 2095
SUB,22,2 10 2094
XTY,22,6,2 10 2093
SUB,17,2 10 2092
XTY,17,1,2 10 2091
SUB,16,2 10 2090
XTY,16,0,2 10 2089
SUB,13,2 10 2088
XTY,13,13,2 10 2087
SUB,12,2 10 2086
XTY,12,12,2 10 2085
SUB,11,2 10 2084
XTY,11,11,2 10 2083
SUB,10,2 10 2082
XTY,10,10,2 10 2081
SUB,9,2 10 2080
XTY,9,9,2 10 2079
SUB,8,2 10 2078
XTY,8,8,2 10 2077
SUB,5,2 10 2076
XTY,5,5,2 10 2075
SUB,4,2 10 2074
XTY,4,4,2 10 2073
SUB,1,2 10 2072
XTY,1,1,2 10 2071
SUB,0,2 10 2070
XTY,0,0,2 10 2069
XY,26,2 10 2068
SUB,26,2 10 2067
XTY,26,10,2 10 2066
XY,27,2 10 2065
SUB,27,2 10 2064
XTY,27,11,2 10 2063
XY,40,2 10 2062
XY,41,2 10 2061
SETZERO,13,1 10 2060
SETZERO,12,1 10 2059
SUB,41,2 11 2058
XTY,41,9,2 11 2057
SUB,40,2 11 2056
XTY,40,8,2 11 2055
SUB,49,2 11 2054
XTY,49,1,2 11 2053
SUB,48,2 11 2052
XTY,48,0,2 11 2051
SUB,45,2 11 2050
XTY,45,13,2 11 2049
SUB,44,2 11 2048
XTY,44,12,2 11 2047
SUB,39,2 11 2046
XTY,39,7,2 11 2045
SUB,38,2 11 2044
XTY,38,6,2 11 2043
SUB,21,2 11 2042
XTY,21,5,2 11 2041
SUB,20,2 11 2040
XTY,20,4,2 11 2039
SUB,19,2 11 2038
XTY,19,3,2 11 2037
SUB,18,2 11 2036
XTY,18,2,2 11 2035
SUB,15,2 11 2034
XTY,15,15,2 11 2033
SUB,14,2 11 2032
XTY,14,14,2 11 2031
SUB,50,2 11 2030
XTY,50,2,2 11 2029
SUB,7,2 11 2028
XTY,7,7,2 11 2027
SUB,6,2 11 2026
XTY,6,6,2 11 2025
SUB,3,2 11 2024
XTY,3,3,2 11 2023
SUB,2,2 11 2022
XTY,2,2,2 11 2021
XY,24,2 11 2020
SUB,24,2 11 2019
XTY,24,8,2 11 2018
XY,25,2 11 2017
SUB,25,2 11 2016
XTY,25,9,2 11 2015
RED,RBRBUF,0 11 2014
CHOL,RBR 11 2013
INV,RBR 11 2012
XY,2,3 11 2011
XY,3,3 11 2010
XY,26,3 11 2009
XY,27,3 11 2008
XY,28,3 11 2007
XY,29,3 11 2006
XY,44,3 11 2005
XY,45,3 11 2004
XY,48,3 11 2003
XY,49,3 11 2002
XY,50,3 11 2001
DLACPY,45,1 15 2000
SPMM,15,45,0 15 1999
SPMM,16,45,0 15 1998
SPMM,17,45,0 15 1997
SPMM,18,45,0 15 1996
SPMM,19,45,0 15 1995
SPMM,20,45,0 15 1994
SPMM,21,45,0 15 1993
SPMM,22,45,0 15 1992
SPMM,23,45,0 15 1991
SPMM,24,45,0 15 1990
SPMM,25,45,0 15 1989
SPMM,26,45,0 15 1988
SPMM,27,45,0 15 1987
SPMM,28,45,0 15 1986
SPMM,29,45,0 15 1985
SPMM,30,45,0 15 1984
SPMM,31,45,0 15 1983
SPMM,32,45,0 15 1982
SPMM,33,45,0 15 1981
SPMM,34,45,0 15 1980
SPMM,35,45,0 15 1979
SPMM,36,45,0 15 1978
SPMM,37,45,0 15 1977
SPMM,38,45,0 15 1976
SPMM,39,45,0 15 1975
SPMM,42,45,0 15 1974
SPMM,43,45,0 15 1973
SPMM,44,45,0 15 1972
SPMM,45,45,0 15 1971
SPMM,46,45,0 15 1970
SPMM,47,45,0 15 1969
SPMM,48,45,0 15 1968
SPMM,49,45,0 15 1967
SPMM,50,45,0 15 1966
UPDATE,45,1 15 1965
XTY,45,13,4 15 1964
DLACPY,44,1 15 1963
SPMM,15,44,0 15 1962
SPMM,16,44,0 15 1961
SPMM,17,44,0 15 1960
SPMM,18,44,0 15 1959
SPMM,19,44,0 15 1958
SPMM,20,44,0 15 1957
SPMM,21,44,0 15 1956
SPMM,22,44,0 15 1955
SPMM,23,44,0 15 1954
SPMM,24,44,0 15 1953
SPMM,25,44,0 15 1952
SPMM,26,44,0 15 1951
SPMM,27,44,0 15 1950
SPMM,28,44,0 15 1949
SPMM,29,44,0 15 1948
SPMM,30,44,0 15 1947
SPMM,31,44,0 15 1946
SPMM,32,44,0 15 1945
SPMM,33,44,0 15 1944
SPMM,34,44,0 15 1943
SPMM,35,44,0 15 1942
SPMM,36,44,0 15 1941
SPMM,37,44,0 15 1940
SPMM,38,44,0 15 1939
SPMM,39,44,0 15 1938
SPMM,42,44,0 15 1937
SPMM,43,44,0 15 1936
SPMM,44,44,0 15 1935
SPMM,45,44,0 15 1934
SPMM,46,44,0 15 1933
SPMM,47,44,0 15 1932
SPMM,48,44,0 15 1931
SPMM,49,44,0 15 1930
SPMM,50,44,0 15 1929
UPDATE,44,1 15 1928
XTY,44,12,4 15 1927
DLACPY,3,1 15 1926
SPMM,2,3,0 15 1925
SPMM,3,3,0 15 1924
SPMM,4,3,0 15 1923
SPMM,7,3,0 15 1922
SPMM,8,3,0 15 1921
SPMM,9,3,0 15 1920
SPMM,10,3,0 15 1919
SPMM,11,3,0 15 1918
SPMM,12,3,0 15 1917
SPMM,13,3,0 15 1916
SPMM,14,3,0 15 1915
SPMM,18,3,0 15 1914
SPMM,19,3,0 15 1913
SPMM,20,3,0 15 1912
SPMM,21,3,0 15 1911
SPMM,24,3,0 15 1910
SPMM,25,3,0 15 1909
SPMM,26,3,0 15 1908
XTY,3,3,4 15 1907
DLACPY,2,1 15 1906
SPMM,1,2,0 15 1905
SPMM,2,2,0 15 1904
SPMM,3,2,0 15 1903
SPMM,8,2,0 15 1902
SPMM,9,2,0 15 1901
SPMM,10,2,0 15 1900
SPMM,11,2,0 15 1899
SPMM,12,2,0 15 1898
SPMM,14,2,0 15 1897
SPMM,18,2,0 15 1896
SPMM,19,2,0 15 1895
SPMM,20,2,0 15 1894
SPMM,21,2,0 15 1893
SPMM,24,2,0 15 1892
SPMM,25,2,0 15 1891
SPMM,26,2,0 15 1890
XTY,2,2,4 15 1889
XY,0,3 12 1888
DLACPY,0,1 12 1887
SPMM,0,0,0 12 1886
SPMM,1,0,0 12 1885
SPMM,18,0,0 12 1884
SPMM,19,0,0 12 1883
SPMM,20,0,0 12 1882
SPMM,24,0,0 12 1881
SPMM,25,0,0 12 1880
UPDATE,0,1 12 1879
XTY,0,0,4 12 1878
XY,1,3 12 1877
DLACPY,1,1 12 1876
SPMM,0,1,0 12 1875
SPMM,1,1,0 12 1874
SPMM,2,1,0 12 1873
SPMM,18,1,0 12 1872
SPMM,19,1,0 12 1871
SPMM,20,1,0 12 1870
SPMM,21,1,0 12 1869
SPMM,24,1,0 12 1868
SPMM,25,1,0 12 1867
UPDATE,1,1 12 1866
XTY,1,1,4 12 1865
XY,10,3 12 1864
DLACPY,10,1 12 1863
SPMM,2,10,0 12 1862
SPMM,3,10,0 12 1861
SPMM,4,10,0 12 1860
SPMM,5,10,0 12 1859
SPMM,6,10,0 12 1858
SPMM,7,10,0 12 1857
SPMM,8,10,0 12 1856
SPMM,9,10,0 12 1855
SPMM,10,10,0 12 1854
SPMM,11,10,0 12 1853
SPMM,12,10,0 12 1852
SPMM,13,10,0 12 1851
SPMM,14,10,0 12 1850
UPDATE,10,1 12 1849
XTY,10,10,4 12 1848
XY,11,3 12 1847
DLACPY,11,1 12 1846
SPMM,2,11,0 12 1845
SPMM,3,11,0 12 1844
SPMM,4,11,0 12 1843
SPMM,5,11,0 12 1842
SPMM,6,11,0 12 1841
SPMM,7,11,0 12 1840
SPMM,8,11,0 12 1839
SPMM,9,11,0 12 1838
SPMM,10,11,0 12 1837
SPMM,11,11,0 12 1836
SPMM,12,11,0 12 1835
SPMM,13,11,0 12 1834
SPMM,14,11,0 12 1833
UPDATE,11,1 12 1832
XTY,11,11,4 12 1831
XY,12,3 12 1830
DLACPY,12,1 12 1829
SPMM,2,12,0 12 1828
SPMM,3,12,0 12 1827
SPMM,4,12,0 12 1826
SPMM,5,12,0 12 1825
SPMM,8,12,0 12 1824
SPMM,9,12,0 12 1823
SPMM,10,12,0 12 1822
SPMM,11,12,0 12 1821
SPMM,14,12,0 12 1820
UPDATE,12,1 12 1819
XY,13,3 12 1818
DLACPY,13,1 12 1817
SPMM,3,13,0 12 1816
SPMM,4,13,0 12 1815
SPMM,5,13,0 12 1814
SPMM,8,13,0 12 1813
SPMM,9,13,0 12 1812
SPMM,10,13,0 12 1811
SPMM,11,13,0 12 1810
SPMM,14,13,0 12 1809
UPDATE,13,1 12 1808
XY,16,3 12 1807
XY,17,3 12 1806
XY,20,3 12 1805
XY,21,3 12 1804
XY,38,3 12 1803
XY,39,3 12 1802
XY,40,3 12 1801
XY,41,3 12 1800
XY,42,3 12 1799
XY,43,3 12 1798
XY,46,3 12 1797
XY,47,3 12 1796
SPMM,6,13,0 13 1795
SPMM,7,13,0 13 1794
SPMM,12,13,0 13 1793
SPMM,13,13,0 13 1792
XTY,13,13,4 13 1791
SPMM,6,12,0 13 1790
SPMM,7,12,0 13 1789
SPMM,12,12,0 13 1788
SPMM,13,12,0 13 1787
XTY,12,12,4 13 1786
XY,4,3 13 1785
DLACPY,4,1 13 1784
SPMM,4,4,0 13 1783
SPMM,5,4,0 13 1782
SPMM,6,4,0 13 1781
SPMM,7,4,0 13 1780
SPMM,8,4,0 13 1779
SPMM,9,4,0 13 1778
SPMM,10,4,0 13 1777
SPMM,11,4,0 13 1776
SPMM,12,4,0 13 1775
SPMM,13,4,0 13 1774
XY,5,3 13 1773
DLACPY,5,1 13 1772
SPMM,4,5,0 13 1771
SPMM,5,5,0 13 1770
SPMM,6,5,0 13 1769
SPMM,7,5,0 13 1768
SPMM,8,5,0 13 1767
SPMM,9,5,0 13 1766
SPMM,10,5,0 13 1765
SPMM,11,5,0 13 1764
SPMM,12,5,0 13 1763
SPMM,13,5,0 13 1762
XY,6,3 13 1761
DLACPY,6,1 13 1760
SPMM,4,6,0 13 1759
SPMM,5,6,0 13 1758
SPMM,6,6,0 13 1757
SPMM,7,6,0 13 1756
SPMM,8,6,0 13 1755
SPMM,9,6,0 13 1754
SPMM,10,6,0 13 1753
SPMM,11,6,0 13 1752
SPMM,12,6,0 13 1751
SPMM,13,6,0 13 1750
SPMM,14,6,0 13 1749
UPDATE,6,1 13 1748
XTY,6,6,4 13 1747
XY,7,3 13 1746
DLACPY,7,1 13 1745
SPMM,3,7,0 13 1744
SPMM,4,7,0 13 1743
SPMM,5,7,0 13 1742
SPMM,6,7,0 13 1741
SPMM,7,7,0 13 1740
SPMM,8,7,0 13 1739
SPMM,9,7,0 13 1738
SPMM,10,7,0 13 1737
SPMM,11,7,0 13 1736
SPMM,12,7,0 13 1735
SPMM,13,7,0 13 1734
SPMM,14,7,0 13 1733
UPDATE,7,1 13 1732
XTY,7,7,4 13 1731
XY,8,3 13 1730
DLACPY,8,1 13 1729
SPMM,2,8,0 13 1728
SPMM,3,8,0 13 1727
SPMM,4,8,0 13 1726
SPMM,5,8,0 13 1725
SPMM,6,8,0 13 1724
SPMM,7,8,0 13 1723
SPMM,8,8,0 13 1722
SPMM,9,8,0 13 1721
SPMM,10,8,0 13 1720
SPMM,11,8,0 13 1719
SPMM,12,8,0 13 1718
SPMM,13,8,0 13 1717
SPMM,14,8,0 13 1716
UPDATE,8,1 13 1715
XTY,8,8,4 13 1714
XY,9,3 13 1713
DLACPY,9,1 13 1712
SPMM,2,9,0 13 1711
SPMM,3,9,0 13 1710
SPMM,4,9,0 13 1709
SPMM,5,9,0 13 1708
SPMM,6,9,0 13 1707
SPMM,7,9,0 13 1706
SPMM,8,9,0 13 1705
SPMM,9,9,0 13 1704
SPMM,10,9,0 13 1703
SPMM,11,9,0 13 1702
SPMM,12,9,0 13 1701
SPMM,13,9,0 13 1700
SPMM,14,9,0 13 1699
UPDATE,9,1 13 1698
XTY,9,9,4 13 1697
DLACPY,43,1 17 1696
SPMM,16,43,0 17 1695
SPMM,17,43,0 17 1694
SPMM,18,43,0 17 1693
SPMM,19,43,0 17 1692
SPMM,26,43,0 17 1691
SPMM,27,43,0 17 1690
SPMM,28,43,0 17 1689
SPMM,29,43,0 17 1688
SPMM,30,43,0 17 1687
SPMM,31,43,0 17 1686
SPMM,32,43,0 17 1685
SPMM,33,43,0 17 1684
SPMM,34,43,0 17 1683
SPMM,35,43,0 17 1682
SPMM,36,43,0 17 1681
SPMM,37,43,0 17 1680
SPMM,38,43,0 17 1679
SPMM,39,43,0 17 1678
SPMM,42,43,0 17 1677
SPMM,43,43,0 17 1676
SPMM,44,43,0 17 1675
SPMM,45,43,0 17 1674
SPMM,48,43,0 17 1673
SPMM,49,43,0 17 1672
SPMM,50,43,0 17 1671
DLACPY,42,1 17 1670
SPMM,16,42,0 17 1669
SPMM,17,42,0 17 1668
SPMM,18,42,0 17 1667
SPMM,19,42,0 17 1666
SPMM,26,42,0 17 1665
SPMM,27,42,0 17 1664
SPMM,28,42,0 17 1663
SPMM,29,42,0 17 1662
SPMM,30,42,0 17 1661
SPMM,31,42,0 17 1660
SPMM,32,42,0 17 1659
SPMM,33,42,0 17 1658
SPMM,34,42,0 17 1657
SPMM,35,42,0 17 1656
SPMM,36,42,0 17 1655
SPMM,37,42,0 17 1654
SPMM,38,42,0 17 1653
SPMM,39,42,0 17 1652
SPMM,42,42,0 17 1651
SPMM,43,42,0 17 1650
SPMM,44,42,0 17 1649
SPMM,45,42,0 17 1648
SPMM,48,42,0 17 1647
SPMM,49,42,0 17 1646
SPMM,50,42,0 17 1645
DLACPY,21,1 17 1644
SPMM,14,21,0 17 1643
SPMM,15,21,0 17 1642
SPMM,18,21,0 17 1641
SPMM,19,21,0 17 1640
SPMM,20,21,0 17 1639
SPMM,21,21,0 17 1638
SPMM,22,21,0 17 1637
SPMM,23,21,0 17 1636
SPMM,28,21,0 17 1635
SPMM,29,21,0 17 1634
SPMM,32,21,0 17 1633
SPMM,33,21,0 17 1632
SPMM,34,21,0 17 1631
SPMM,35,21,0 17 1630
SPMM,36,21,0 17 1629
SPMM,37,21,0 17 1628
SPMM,40,21,0 17 1627
SPMM,41,21,0 17 1626
SPMM,42,21,0 17 1625
SPMM,43,21,0 17 1624
SPMM,44,21,0 17 1623
SPMM,45,21,0 17 1622
SPMM,48,21,0 17 1621
SPMM,49,21,0 17 1620
DLACPY,20,1 17 1619
SPMM,14,20,0 17 1618
SPMM,18,20,0 17 1617
SPMM,19,20,0 17 1616
SPMM,20,20,0 17 1615
SPMM,21,20,0 17 1614
SPMM,32,20,0 17 1613
SPMM,33,20,0 17 1612
SPMM,36,20,0 17 1611
SPMM,40,20,0 17 1610
SPMM,41,20,0 17 1609
SPMM,42,20,0 17 1608
SPMM,44,20,0 17 1607
SPMM,45,20,0 17 1606
SPMM,49,20,0 17 1605
DLACPY,29,1 17 1604
SPMM,15,29,0 17 1603
SPMM,16,29,0 17 1602
SPMM,17,29,0 17 1601
SPMM,21,29,0 17 1600
SPMM,22,29,0 17 1599
SPMM,23,29,0 17 1598
SPMM,28,29,0 17 1597
SPMM,29,29,0 17 1596
SPMM,30,29,0 17 1595
SPMM,31,29,0 17 1594
SPMM,32,29,0 17 1593
SPMM,33,29,0 17 1592
SPMM,34,29,0 17 1591
SPMM,35,29,0 17 1590
SPMM,36,29,0 17 1589
SPMM,37,29,0 17 1588
SPMM,38,29,0 17 1587
SPMM,39,29,0 17 1586
SPMM,44,29,0 17 1585
SPMM,45,29,0 17 1584
SPMM,48,29,0 17 1583
SPMM,49,29,0 17 1582
SPMM,50,29,0 17 1581
DLACPY,28,1 17 1580
SPMM,15,28,0 17 1579
SPMM,16,28,0 17 1578
SPMM,17,28,0 17 1577
SPMM,21,28,0 17 1576
SPMM,22,28,0 17 1575
SPMM,23,28,0 17 1574
SPMM,28,28,0 17 1573
SPMM,29,28,0 17 1572
SPMM,30,28,0 17 1571
SPMM,31,28,0 17 1570
SPMM,32,28,0 17 1569
SPMM,33,28,0 17 1568
SPMM,34,28,0 17 1567
SPMM,35,28,0 17 1566
SPMM,36,28,0 17 1565
SPMM,37,28,0 17 1564
SPMM,38,28,0 17 1563
SPMM,39,28,0 17 1562
SPMM,44,28,0 17 1561
SPMM,45,28,0 17 1560
SPMM,48,28,0 17 1559
SPMM,49,28,0 17 1558
SPMM,50,28,0 17 1557
DLACPY,27,1 17 1556
SPMM,15,27,0 17 1555
SPMM,21,27,0 17 1554
SPMM,22,27,0 17 1553
SPMM,23,27,0 17 1552
SPMM,26,27,0 17 1551
SPMM,27,27,0 17 1550
SPMM,28,27,0 17 1549
SPMM,29,27,0 17 1548
SPMM,30,27,0 17 1547
SPMM,31,27,0 17 1546
SPMM,32,27,0 17 1545
SPMM,33,27,0 17 1544
SPMM,34,27,0 17 1543
SPMM,35,27,0 17 1542
SPMM,36,27,0 17 1541
SPMM,37,27,0 17 1540
SPMM,40,27,0 17 1539
SPMM,41,27,0 17 1538
SPMM,42,27,0 17 1537
SPMM,43,27,0 17 1536
SPMM,48,27,0 17 1535
SPMM,49,27,0 17 1534
DLACPY,26,1 17 1533
SPMM,14,26,0 17 1532
SPMM,15,26,0 17 1531
SPMM,18,26,0 17 1530
SPMM,19,26,0 17 1529
SPMM,20,26,0 17 1528
SPMM,21,26,0 17 1527
SPMM,22,26,0 17 1526
SPMM,23,26,0 17 1525
SPMM,24,26,0 17 1524
SPMM,25,26,0 17 1523
SPMM,26,26,0 17 1522
SPMM,27,26,0 17 1521
SPMM,28,26,0 17 1520
SPMM,29,26,0 17 1519
SPMM,30,26,0 17 1518
SPMM,31,26,0 17 1517
SPMM,32,26,0 17 1516
SPMM,33,26,0 17 1515
SPMM,34,26,0 17 1514
SPMM,35,26,0 17 1513
SPMM,36,26,0 17 1512
SPMM,37,26,0 17 1511
SPMM,40,26,0 17 1510
SPMM,41,26,0 17 1509
SPMM,42,26,0 17 1508
SPMM,43,26,0 17 1507
SPMM,48,26,0 17 1506
SPMM,49,26,0 17 1505
XY,24,3 17 1504
DLACPY,24,1 17 1503
SPMM,0,24,0 17 1502
SPMM,1,24,0 17 1501
SPMM,18,24,0 17 1500
SPMM,19,24,0 17 1499
SPMM,22,24,0 17 1498
SPMM,23,24,0 17 1497
SPMM,24,24,0 17 1496
SPMM,25,24,0 17 1495
SPMM,38,24,0 17 1494
SPMM,39,24,0 17 1493
SPMM,40,24,0 17 1492
SPMM,41,24,0 17 1491
SPMM,42,24,0 17 1490
SPMM,43,24,0 17 1489
SPMM,44,24,0 17 1488
SPMM,45,24,0 17 1487
SPMM,48,24,0 17 1486
SPMM,49,24,0 17 1485
XY,25,3 17 1484
DLACPY,25,1 17 1483
SPMM,0,25,0 17 1482
SPMM,1,25,0 17 1481
SPMM,18,25,0 17 1480
SPMM,19,25,0 17 1479
SPMM,24,25,0 17 1478
SPMM,25,25,0 17 1477
SPMM,40,25,0 17 1476
SPMM,41,25,0 17 1475
SPMM,42,25,0 17 1474
SPMM,43,25,0 17 1473
SPMM,44,25,0 17 1472
SPMM,45,25,0 17 1471
SPMM,49,25,0 17 1470
SPMM,26,25,0 18 1469
UPDATE,25,1 18 1468
SPMM,26,24,0 18 1467
UPDATE,24,1 18 1466
SPMM,38,26,0 18 1465
SPMM,39,26,0 18 1464
UPDATE,26,1 18 1463
SPMM,38,27,0 18 1462
SPMM,39,27,0 18 1461
UPDATE,27,1 18 1460
SPMM,26,28,0 18 1459
SPMM,27,28,0 18 1458
SPMM,42,28,0 18 1457
SPMM,43,28,0 18 1456
UPDATE,28,1 18 1455
XTY,28,12,4 18 1454
SPMM,26,29,0 18 1453
SPMM,27,29,0 18 1452
SPMM,42,29,0 18 1451
SPMM,43,29,0 18 1450
UPDATE,29,1 18 1449
XTY,29,13,4 18 1448
SPMM,31,20,0 18 1447
SPMM,47,20,0 18 1446
SPMM,30,21,0 18 1445
SPMM,31,21,0 18 1444
SPMM,46,21,0 18 1443
SPMM,47,21,0 18 1442
SPMM,15,42,0 18 1441
SPMM,24,42,0 18 1440
SPMM,25,42,0 18 1439
SPMM,46,42,0 18 1438
SPMM,47,42,0 18 1437
UPDATE,42,1 18 1436
XTY,42,10,4 18 1435
SPMM,15,43,0 18 1434
SPMM,24,43,0 18 1433
SPMM,25,43,0 18 1432
SPMM,46,43,0 18 1431
SPMM,47,43,0 18 1430
UPDATE,43,1 18 1429
XTY,43,11,4 18 1428
XY,30,3 18 1427
DLACPY,30,1 18 1426
SPMM,15,30,0 18 1425
SPMM,18,30,0 18 1424
SPMM,22,30,0 18 1423
SPMM,23,30,0 18 1422
SPMM,26,30,0 18 1421
SPMM,27,30,0 18 1420
SPMM,28,30,0 18 1419
SPMM,29,30,0 18 1418
SPMM,30,30,0 18 1417
SPMM,31,30,0 18 1416
SPMM,32,30,0 18 1415
SPMM,33,30,0 18 1414
SPMM,34,30,0 18 1413
SPMM,35,30,0 18 1412
SPMM,36,30,0 18 1411
SPMM,37,30,0 18 1410
SPMM,38,30,0 18 1409
SPMM,39,30,0 18 1408
SPMM,40,30,0 18 1407
SPMM,41,30,0 18 1406
SPMM,44,30,0 18 1405
SPMM,45,30,0 18 1404
SPMM,46,30,0 18 1403
SPMM,47,30,0 18 1402
SPMM,50,30,0 18 1401
UPDATE,30,1 18 1400
XTY,30,14,4 18 1399
XY,31,3 18 1398
DLACPY,31,1 18 1397
SPMM,15,31,0 18 1396
SPMM,18,31,0 18 1395
SPMM,19,31,0 18 1394
SPMM,22,31,0 18 1393
SPMM,23,31,0 18 1392
SPMM,26,31,0 18 1391
SPMM,27,31,0 18 1390
SPMM,28,31,0 18 1389
SPMM,29,31,0 18 1388
SPMM,30,31,0 18 1387
SPMM,31,31,0 18 1386
SPMM,32,31,0 18 1385
SPMM,33,31,0 18 1384
SPMM,34,31,0 18 1383
SPMM,35,31,0 18 1382
SPMM,36,31,0 18 1381
SPMM,37,31,0 18 1380
SPMM,38,31,0 18 1379
SPMM,39,31,0 18 1378
SPMM,40,31,0 18 1377
SPMM,41,31,0 18 1376
SPMM,44,31,0 18 1375
SPMM,45,31,0 18 1374
SPMM,46,31,0 18 1373
SPMM,47,31,0 18 1372
SPMM,50,31,0 18 1371
UPDATE,31,1 18 1370
XTY,31,15,4 18 1369
SPMM,42,31,0 19 1368
SPMM,43,31,0 19 1367
SPMM,48,31,0 19 1366
SPMM,49,31,0 19 1365
SPMM,42,30,0 19 1364
SPMM,43,30,0 19 1363
SPMM,48,30,0 19 1362
SPMM,49,30,0 19 1361
SPMM,20,25,0 19 1360
SPMM,21,25,0 19 1359
XTY,25,9,4 19 1358
SPMM,20,24,0 19 1357
SPMM,21,24,0 19 1356
XTY,24,8,4 19 1355
SPMM,50,26,0 19 1354
XTY,26,10,4 19 1353
SPMM,50,27,0 19 1352
XTY,27,11,4 19 1351
SPMM,40,28,0 19 1350
SPMM,41,28,0 19 1349
SPMM,40,29,0 19 1348
SPMM,41,29,0 19 1347
SPMM,0,20,0 19 1346
SPMM,1,20,0 19 1345
SPMM,4,20,0 19 1344
SPMM,5,20,0 19 1343
SPMM,24,20,0 19 1342
SPMM,25,20,0 19 1341
UPDATE,20,1 19 1340
XTY,20,4,4 19 1339
SPMM,1,21,0 19 1338
SPMM,4,21,0 19 1337
SPMM,5,21,0 19 1336
SPMM,24,21,0 19 1335
SPMM,25,21,0 19 1334
UPDATE,21,1 19 1333
XTY,21,5,4 19 1332
XY,22,3 19 1331
DLACPY,22,1 19 1330
SPMM,16,22,0 19 1329
SPMM,18,22,0 19 1328
SPMM,22,22,0 19 1327
SPMM,23,22,0 19 1326
SPMM,24,22,0 19 1325
SPMM,26,22,0 19 1324
SPMM,27,22,0 19 1323
SPMM,28,22,0 19 1322
SPMM,29,22,0 19 1321
SPMM,30,22,0 19 1320
SPMM,31,22,0 19 1319
SPMM,32,22,0 19 1318
SPMM,33,22,0 19 1317
SPMM,34,22,0 19 1316
SPMM,35,22,0 19 1315
SPMM,36,22,0 19 1314
SPMM,37,22,0 19 1313
SPMM,38,22,0 19 1312
SPMM,39,22,0 19 1311
SPMM,40,22,0 19 1310
SPMM,41,22,0 19 1309
SPMM,42,22,0 19 1308
SPMM,43,22,0 19 1307
SPMM,46,22,0 19 1306
SPMM,47,22,0 19 1305
SPMM,48,22,0 19 1304
SPMM,49,22,0 19 1303
SPMM,50,22,0 19 1302
UPDATE,22,1 19 1301
XTY,22,6,4 19 1300
XY,23,3 19 1299
DLACPY,23,1 19 1298
SPMM,16,23,0 19 1297
SPMM,17,23,0 19 1296
SPMM,18,23,0 19 1295
SPMM,22,23,0 19 1294
SPMM,23,23,0 19 1293
SPMM,24,23,0 19 1292
SPMM,26,23,0 19 1291
SPMM,27,23,0 19 1290
SPMM,28,23,0 19 1289
SPMM,29,23,0 19 1288
SPMM,30,23,0 19 1287
SPMM,31,23,0 19 1286
SPMM,32,23,0 19 1285
SPMM,33,23,0 19 1284
SPMM,34,23,0 19 1283
SPMM,35,23,0 19 1282
SPMM,36,23,0 19 1281
SPMM,37,23,0 19 1280
SPMM,38,23,0 19 1279
SPMM,39,23,0 19 1278
SPMM,40,23,0 19 1277
SPMM,41,23,0 19 1276
SPMM,42,23,0 19 1275
SPMM,43,23,0 19 1274
SPMM,46,23,0 19 1273
SPMM,47,23,0 19 1272
SPMM,48,23,0 19 1271
SPMM,49,23,0 19 1270
SPMM,50,23,0 19 1269
UPDATE,23,1 19 1268
XTY,23,7,4 19 1267
DLACPY,47,1 14 1266
SPMM,15,47,0 14 1265
SPMM,18,47,0 14 1264
SPMM,19,47,0 14 1263
SPMM,20,47,0 14 1262
SPMM,21,47,0 14 1261
SPMM,22,47,0 14 1260
SPMM,23,47,0 14 1259
SPMM,24,47,0 14 1258
SPMM,25,47,0 14 1257
SPMM,28,47,0 14 1256
SPMM,29,47,0 14 1255
SPMM,30,47,0 14 1254
SPMM,31,47,0 14 1253
SPMM,32,47,0 14 1252
SPMM,33,47,0 14 1251
SPMM,34,47,0 14 1250
SPMM,35,47,0 14 1249
SPMM,36,47,0 14 1248
SPMM,37,47,0 14 1247
SPMM,38,47,0 14 1246
SPMM,39,47,0 14 1245
SPMM,40,47,0 14 1244
SPMM,41,47,0 14 1243
SPMM,42,47,0 14 1242
SPMM,43,47,0 14 1241
SPMM,44,47,0 14 1240
SPMM,45,47,0 14 1239
SPMM,46,47,0 14 1238
SPMM,47,47,0 14 1237
SPMM,48,47,0 14 1236
SPMM,49,47,0 14 1235
SPMM,50,47,0 14 1234
UPDATE,47,1 14 1233
DLACPY,46,1 14 1232
SPMM,15,46,0 14 1231
SPMM,18,46,0 14 1230
SPMM,19,46,0 14 1229
SPMM,21,46,0 14 1228
SPMM,22,46,0 14 1227
SPMM,23,46,0 14 1226
SPMM,24,46,0 14 1225
SPMM,28,46,0 14 1224
SPMM,29,46,0 14 1223
SPMM,30,46,0 14 1222
SPMM,31,46,0 14 1221
SPMM,32,46,0 14 1220
SPMM,33,46,0 14 1219
SPMM,34,46,0 14 1218
SPMM,35,46,0 14 1217
SPMM,36,46,0 14 1216
SPMM,37,46,0 14 1215
SPMM,38,46,0 14 1214
SPMM,39,46,0 14 1213
SPMM,40,46,0 14 1212
SPMM,41,46,0 14 1211
SPMM,42,46,0 14 1210
SPMM,43,46,0 14 1209
SPMM,44,46,0 14 1208
SPMM,45,46,0 14 1207
SPMM,46,46,0 14 1206
SPMM,47,46,0 14 1205
SPMM,48,46,0 14 1204
SPMM,49,46,0 14 1203
SPMM,50,46,0 14 1202
UPDATE,46,1 14 1201
DLACPY,17,1 14 1200
SPMM,26,17,0 14 1199
SPMM,27,17,0 14 1198
SPMM,30,17,0 14 1197
SPMM,31,17,0 14 1196
SPMM,36,17,0 14 1195
SPMM,37,17,0 14 1194
SPMM,40,17,0 14 1193
SPMM,41,17,0 14 1192
SPMM,42,17,0 14 1191
SPMM,43,17,0 14 1190
SPMM,44,17,0 14 1189
SPMM,45,17,0 14 1188
SPMM,46,17,0 14 1187
SPMM,47,17,0 14 1186
SPMM,48,17,0 14 1185
SPMM,49,17,0 14 1184
SPMM,50,17,0 14 1183
UPDATE,17,1 14 1182
XTY,17,1,4 14 1181
DLACPY,16,1 14 1180
SPMM,15,16,0 14 1179
SPMM,26,16,0 14 1178
SPMM,27,16,0 14 1177
SPMM,30,16,0 14 1176
SPMM,31,16,0 14 1175
SPMM,36,16,0 14 1174
SPMM,37,16,0 14 1173
SPMM,40,16,0 14 1172
SPMM,41,16,0 14 1171
SPMM,42,16,0 14 1170
SPMM,43,16,0 14 1169
SPMM,44,16,0 14 1168
SPMM,45,16,0 14 1167
SPMM,46,16,0 14 1166
SPMM,47,16,0 14 1165
SPMM,48,16,0 14 1164
SPMM,49,16,0 14 1163
SPMM,50,16,0 14 1162
UPDATE,16,1 14 1161
XTY,16,0,4 14 1160
SPMM,16,16,0 16 1159
SPMM,17,16,0 16 1158
SPMM,18,16,0 16 1157
SPMM,22,16,0 16 1156
SPMM,23,16,0 16 1155
SPMM,24,16,0 16 1154
SPMM,28,16,0 16 1153
SPMM,29,16,0 16 1152
SPMM,32,16,0 16 1151
SPMM,33,16,0 16 1150
SPMM,34,16,0 16 1149
SPMM,35,16,0 16 1148
SPMM,38,16,0 16 1147
SPMM,39,16,0 16 1146
SPMM,16,17,0 16 1145
SPMM,17,17,0 16 1144
SPMM,18,17,0 16 1143
SPMM,23,17,0 16 1142
SPMM,24,17,0 16 1141
SPMM,28,17,0 16 1140
SPMM,29,17,0 16 1139
SPMM,32,17,0 16 1138
SPMM,33,17,0 16 1137
SPMM,34,17,0 16 1136
SPMM,35,17,0 16 1135
SPMM,38,17,0 16 1134
SPMM,39,17,0 16 1133
SPMM,16,46,0 16 1132
SPMM,17,46,0 16 1131
SPMM,26,46,0 16 1130
SPMM,27,46,0 16 1129
XTY,46,14,4 16 1128
SPMM,16,47,0 16 1127
SPMM,17,47,0 16 1126
SPMM,26,47,0 16 1125
SPMM,27,47,0 16 1124
XTY,47,15,4 16 1123
SPMM,14,5,0 16 1122
SPMM,18,5,0 16 1121
SPMM,19,5,0 16 1120
SPMM,20,5,0 16 1119
SPMM,21,5,0 16 1118
SPMM,24,5,0 16 1117
SPMM,25,5,0 16 1116
SPMM,26,5,0 16 1115
UPDATE,5,1 16 1114
XTY,5,5,4 16 1113
SPMM,3,4,0 16 1112
SPMM,14,4,0 16 1111
SPMM,18,4,0 16 1110
SPMM,19,4,0 16 1109
SPMM,20,4,0 16 1108
SPMM,21,4,0 16 1107
SPMM,24,4,0 16 1106
SPMM,25,4,0 16 1105
SPMM,26,4,0 16 1104
UPDATE,4,1 16 1103
XTY,4,4,4 16 1102
UPDATE,2,1 16 1101
UPDATE,3,1 16 1100
SPMM,40,44,0 16 1099
SPMM,41,44,0 16 1098
SPMM,40,45,0 16 1097
SPMM,41,45,0 16 1096
DLACPY,50,1 16 1095
SPMM,15,50,0 16 1094
SPMM,16,50,0 16 1093
SPMM,17,50,0 16 1092
SPMM,18,50,0 16 1091
SPMM,19,50,0 16 1090
SPMM,21,50,0 16 1089
SPMM,22,50,0 16 1088
SPMM,23,50,0 16 1087
SPMM,24,50,0 16 1086
SPMM,25,50,0 16 1085
SPMM,26,50,0 16 1084
SPMM,27,50,0 16 1083
SPMM,28,50,0 16 1082
SPMM,29,50,0 16 1081
SPMM,30,50,0 16 1080
SPMM,31,50,0 16 1079
SPMM,32,50,0 16 1078
SPMM,33,50,0 16 1077
SPMM,34,50,0 16 1076
SPMM,35,50,0 16 1075
SPMM,36,50,0 16 1074
SPMM,37,50,0 16 1073
SPMM,38,50,0 16 1072
SPMM,39,50,0 16 1071
SPMM,40,50,0 16 1070
SPMM,41,50,0 16 1069
SPMM,42,50,0 16 1068
SPMM,43,50,0 16 1067
SPMM,44,50,0 16 1066
SPMM,45,50,0 16 1065
SPMM,46,50,0 16 1064
SPMM,47,50,0 16 1063
SPMM,48,50,0 16 1062
SPMM,49,50,0 16 1061
SPMM,50,50,0 16 1060
UPDATE,50,1 16 1059
XTY,50,2,4 16 1058
DLACPY,49,1 16 1057
SPMM,15,49,0 16 1056
SPMM,16,49,0 16 1055
SPMM,17,49,0 16 1054
SPMM,18,49,0 16 1053
SPMM,20,49,0 16 1052
SPMM,21,49,0 16 1051
SPMM,22,49,0 16 1050
SPMM,23,49,0 16 1049
SPMM,24,49,0 16 1048
SPMM,25,49,0 16 1047
SPMM,26,49,0 16 1046
SPMM,27,49,0 16 1045
SPMM,28,49,0 16 1044
SPMM,29,49,0 16 1043
SPMM,30,49,0 16 1042
SPMM,31,49,0 16 1041
SPMM,32,49,0 16 1040
SPMM,33,49,0 16 1039
SPMM,34,49,0 16 1038
SPMM,35,49,0 16 1037
SPMM,36,49,0 16 1036
SPMM,37,49,0 16 1035
SPMM,38,49,0 16 1034
SPMM,39,49,0 16 1033
SPMM,40,49,0 16 1032
SPMM,41,49,0 16 1031
SPMM,42,49,0 16 1030
SPMM,43,49,0 16 1029
SPMM,44,49,0 16 1028
SPMM,45,49,0 16 1027
SPMM,46,49,0 16 1026
SPMM,47,49,0 16 1025
SPMM,48,49,0 16 1024
SPMM,49,49,0 16 1023
SPMM,50,49,0 16 1022
UPDATE,49,1 16 1021
XTY,49,1,4 16 1020
DLACPY,48,1 16 1019
SPMM,15,48,0 16 1018
SPMM,16,48,0 16 1017
SPMM,17,48,0 16 1016
SPMM,18,48,0 16 1015
SPMM,21,48,0 16 1014
SPMM,22,48,0 16 1013
SPMM,23,48,0 16 1012
SPMM,24,48,0 16 1011
SPMM,26,48,0 16 1010
SPMM,27,48,0 16 1009
SPMM,28,48,0 16 1008
SPMM,29,48,0 16 1007
SPMM,30,48,0 16 1006
SPMM,31,48,0 16 1005
SPMM,32,48,0 16 1004
SPMM,33,48,0 16 1003
SPMM,34,48,0 16 1002
SPMM,35,48,0 16 1001
SPMM,36,48,0 16 1000
SPMM,37,48,0 16 999
SPMM,38,48,0 16 998
SPMM,39,48,0 16 997
SPMM,40,48,0 16 996
SPMM,41,48,0 16 995
SPMM,42,48,0 16 994
SPMM,43,48,0 16 993
SPMM,44,48,0 16 992
SPMM,45,48,0 16 991
SPMM,46,48,0 16 990
SPMM,47,48,0 16 989
SPMM,48,48,0 16 988
SPMM,49,48,0 16 987
SPMM,50,48,0 16 986
UPDATE,48,1 16 985
XTY,48,0,4 16 984
XY,18,3 20 983
DLACPY,18,1 20 982
SPMM,0,18,0 20 981
SPMM,1,18,0 20 980
SPMM,2,18,0 20 979
SPMM,3,18,0 20 978
SPMM,4,18,0 20 977
SPMM,5,18,0 20 976
SPMM,14,18,0 20 975
SPMM,15,18,0 20 974
SPMM,16,18,0 20 973
SPMM,17,18,0 20 972
SPMM,20,18,0 20 971
SPMM,21,18,0 20 970
SPMM,22,18,0 20 969
SPMM,23,18,0 20 968
SPMM,24,18,0 20 967
SPMM,25,18,0 20 966
SPMM,26,18,0 20 965
SPMM,30,18,0 20 964
SPMM,31,18,0 20 963
SPMM,36,18,0 20 962
SPMM,37,18,0 20 961
SPMM,40,18,0 20 960
SPMM,41,18,0 20 959
SPMM,42,18,0 20 958
SPMM,43,18,0 20 957
SPMM,44,18,0 20 956
SPMM,45,18,0 20 955
XTY,18,2,4 20 954
XY,19,3 20 953
DLACPY,19,1 20 952
SPMM,0,19,0 20 951
SPMM,1,19,0 20 950
SPMM,2,19,0 20 949
SPMM,3,19,0 20 948
SPMM,4,19,0 20 947
SPMM,5,19,0 20 946
SPMM,14,19,0 20 945
SPMM,20,19,0 20 944
SPMM,21,19,0 20 943
SPMM,24,19,0 20 942
SPMM,25,19,0 20 941
SPMM,26,19,0 20 940
SPMM,31,19,0 20 939
SPMM,41,19,0 20 938
SPMM,42,19,0 20 937
SPMM,43,19,0 20 936
SPMM,44,19,0 20 935
SPMM,45,19,0 20 934
XTY,19,3,4 20 933
XY,36,3 20 932
DLACPY,36,1 20 931
SPMM,15,36,0 20 930
SPMM,16,36,0 20 929
SPMM,17,36,0 20 928
SPMM,20,36,0 20 927
SPMM,21,36,0 20 926
SPMM,26,36,0 20 925
SPMM,27,36,0 20 924
SPMM,28,36,0 20 923
SPMM,29,36,0 20 922
SPMM,30,36,0 20 921
SPMM,31,36,0 20 920
SPMM,32,36,0 20 919
SPMM,33,36,0 20 918
SPMM,34,36,0 20 917
SPMM,35,36,0 20 916
SPMM,36,36,0 20 915
SPMM,37,36,0 20 914
SPMM,38,36,0 20 913
SPMM,39,36,0 20 912
SPMM,40,36,0 20 911
SPMM,41,36,0 20 910
SPMM,44,36,0 20 909
SPMM,45,36,0 20 908
SPMM,46,36,0 20 907
SPMM,47,36,0 20 906
UPDATE,36,1 20 905
XTY,36,4,4 20 904
XY,37,3 20 903
DLACPY,37,1 20 902
SPMM,15,37,0 20 901
SPMM,16,37,0 20 900
SPMM,17,37,0 20 899
SPMM,21,37,0 20 898
SPMM,26,37,0 20 897
SPMM,27,37,0 20 896
SPMM,28,37,0 20 895
SPMM,29,37,0 20 894
SPMM,30,37,0 20 893
SPMM,31,37,0 20 892
SPMM,32,37,0 20 891
SPMM,33,37,0 20 890
SPMM,34,37,0 20 889
SPMM,35,37,0 20 888
SPMM,36,37,0 20 887
SPMM,37,37,0 20 886
SPMM,38,37,0 20 885
SPMM,39,37,0 20 884
SPMM,40,37,0 20 883
SPMM,41,37,0 20 882
SPMM,44,37,0 20 881
SPMM,45,37,0 20 880
SPMM,46,37,0 20 879
SPMM,47,37,0 20 878
UPDATE,37,1 20 877
XTY,37,5,4 20 876
SPMM,18,37,0 21 875
SPMM,18,36,0 21 874
UPDATE,19,1 21 873
SPMM,48,18,0 21 872
SPMM,49,18,0 21 871
UPDATE,18,1 21 870
SPMM,2,25,0 21 869
SPMM,3,25,0 21 868
SPMM,2,24,0 21 867
SPMM,3,24,0 21 866
SPMM,2,26,0 21 865
SPMM,3,26,0 21 864
SPMM,44,26,0 21 863
SPMM,45,26,0 21 862
SPMM,46,26,0 21 861
SPMM,47,26,0 21 860
SPMM,44,27,0 21 859
SPMM,45,27,0 21 858
SPMM,46,27,0 21 857
SPMM,47,27,0 21 856
SPMM,2,20,0 21 855
SPMM,3,20,0 21 854
SPMM,2,21,0 21 853
SPMM,3,21,0 21 852
XY,14,3 21 851
DLACPY,14,1 21 850
SPMM,2,14,0 21 849
XTY,2,2,5 21 848
SPMM,3,14,0 21 847
XTY,3,3,5 21 846
SPMM,6,14,0 21 845
XTY,6,6,5 21 844
SPMM,7,14,0 21 843
XTY,7,7,5 21 842
SPMM,8,14,0 21 841
XTY,8,8,5 21 840
SPMM,9,14,0 21 839
XTY,9,9,5 21 838
SPMM,12,14,0 21 837
XTY,12,12,5 21 836
SPMM,13,14,0 21 835
XTY,13,13,5 21 834
SPMM,14,14,0 21 833
SPMM,15,14,0 21 832
SPMM,18,14,0 21 831
SPMM,19,14,0 21 830
UPDATE,14,1 21 829
XTY,14,14,4 21 828
XY,15,3 21 827
DLACPY,15,1 21 826
SPMM,14,15,0 21 825
SPMM,15,15,0 21 824
SPMM,16,15,0 21 823
SPMM,18,15,0 21 822
SPMM,28,15,0 21 821
SPMM,29,15,0 21 820
SPMM,30,15,0 21 819
SPMM,31,15,0 21 818
SPMM,32,15,0 21 817
SPMM,33,15,0 21 816
SPMM,36,15,0 21 815
SPMM,37,15,0 21 814
SPMM,40,15,0 21 813
SPMM,41,15,0 21 812
SPMM,44,15,0 21 811
SPMM,45,15,0 21 810
SPMM,46,15,0 21 809
SPMM,47,15,0 21 808
SPMM,48,15,0 21 807
SPMM,49,15,0 21 806
SPMM,50,15,0 21 805
UPDATE,15,1 21 804
XTY,15,15,4 21 803
SPMM,21,15,0 22 802
SPMM,22,15,0 22 801
SPMM,23,15,0 22 800
SPMM,26,15,0 22 799
SPMM,27,15,0 22 798
SPMM,34,15,0 22 797
SPMM,35,15,0 22 796
SPMM,38,15,0 22 795
SPMM,39,15,0 22 794
SPMM,20,14,0 22 793
SPMM,21,14,0 22 792
SPMM,23,14,0 22 791
SPMM,26,14,0 22 790
SPMM,50,37,0 22 789
SPMM,50,36,0 22 788
SPMM,18,19,0 22 787
SPMM,19,19,0 22 786
SPMM,18,18,0 22 785
SPMM,19,18,0 22 784
SPMM,21,23,0 22 783
SPMM,21,22,0 22 782
SPMM,16,31,0 22 781
SPMM,17,31,0 22 780
SPMM,20,31,0 22 779
SPMM,21,31,0 22 778
SPMM,16,30,0 22 777
SPMM,17,30,0 22 776
SPMM,21,30,0 22 775
SPMM,16,26,0 22 774
SPMM,17,26,0 22 773
SPMM,16,27,0 22 772
SPMM,17,27,0 22 771
SPMM,26,20,0 22 770
SPMM,26,21,0 22 769
SPMM,27,21,0 22 768
SPMM,20,42,0 22 767
SPMM,21,42,0 22 766
SPMM,22,42,0 22 765
SPMM,23,42,0 22 764
SPMM,40,42,0 22 763
SPMM,41,42,0 22 762
SPMM,21,43,0 22 761
SPMM,22,43,0 22 760
SPMM,23,43,0 22 759
SPMM,40,43,0 22 758
SPMM,41,43,0 22 757
DLACPY,39,1 22 756
SPMM,15,39,0 22 755
SPMM,16,39,0 22 754
SPMM,17,39,0 22 753
SPMM,18,39,0 22 752
SPMM,19,39,0 22 751
SPMM,22,39,0 22 750
SPMM,23,39,0 22 749
SPMM,24,39,0 22 748
SPMM,28,39,0 22 747
SPMM,29,39,0 22 746
SPMM,30,39,0 22 745
SPMM,31,39,0 22 744
SPMM,32,39,0 22 743
SPMM,33,39,0 22 742
SPMM,34,39,0 22 741
SPMM,35,39,0 22 740
SPMM,36,39,0 22 739
SPMM,37,39,0 22 738
SPMM,38,39,0 22 737
SPMM,39,39,0 22 736
SPMM,40,39,0 22 735
SPMM,41,39,0 22 734
SPMM,42,39,0 22 733
SPMM,43,39,0 22 732
SPMM,46,39,0 22 731
SPMM,47,39,0 22 730
SPMM,48,39,0 22 729
SPMM,49,39,0 22 728
SPMM,50,39,0 22 727
XTY,39,7,4 22 726
DLACPY,38,1 22 725
SPMM,15,38,0 22 724
SPMM,16,38,0 22 723
SPMM,17,38,0 22 722
SPMM,18,38,0 22 721
SPMM,19,38,0 22 720
SPMM,22,38,0 22 719
SPMM,23,38,0 22 718
SPMM,24,38,0 22 717
SPMM,28,38,0 22 716
SPMM,29,38,0 22 715
SPMM,30,38,0 22 714
SPMM,31,38,0 22 713
SPMM,32,38,0 22 712
SPMM,33,38,0 22 711
SPMM,34,38,0 22 710
SPMM,35,38,0 22 709
SPMM,36,38,0 22 708
SPMM,37,38,0 22 707
SPMM,38,38,0 22 706
SPMM,39,38,0 22 705
SPMM,40,38,0 22 704
SPMM,41,38,0 22 703
SPMM,42,38,0 22 702
SPMM,43,38,0 22 701
SPMM,46,38,0 22 700
SPMM,47,38,0 22 699
SPMM,48,38,0 22 698
SPMM,49,38,0 22 697
SPMM,50,38,0 22 696
XTY,38,6,4 22 695
SPMM,26,38,0 23 694
SPMM,27,38,0 23 693
SPMM,44,38,0 23 692
SPMM,45,38,0 23 691
UPDATE,38,1 23 690
SPMM,26,39,0 23 689
SPMM,27,39,0 23 688
SPMM,44,39,0 23 687
SPMM,45,39,0 23 686
UPDATE,39,1 23 685
SPMM,42,15,0 23 684
SPMM,43,15,0 23 683
SPMM,4,14,0 23 682
SPMM,5,14,0 23 681
SPMM,22,37,0 23 680
SPMM,23,37,0 23 679
SPMM,22,36,0 23 678
SPMM,23,36,0 23 677
SPMM,38,19,0 23 676
SPMM,39,19,0 23 675
SPMM,38,18,0 23 674
SPMM,39,18,0 23 673
SPMM,4,25,0 23 672
SPMM,5,25,0 23 671
SPMM,4,24,0 23 670
SPMM,5,24,0 23 669
SPMM,4,26,0 23 668
XTY,4,4,5 23 667
SPMM,5,26,0 23 666
XTY,5,5,5 23 665
XY,34,3 23 664
DLACPY,34,1 23 663
SPMM,15,34,0 23 662
SPMM,16,34,0 23 661
SPMM,17,34,0 23 660
SPMM,21,34,0 23 659
SPMM,22,34,0 23 658
SPMM,23,34,0 23 657
SPMM,26,34,0 23 656
SPMM,27,34,0 23 655
SPMM,28,34,0 23 654
SPMM,29,34,0 23 653
SPMM,30,34,0 23 652
SPMM,31,34,0 23 651
SPMM,32,34,0 23 650
SPMM,33,34,0 23 649
SPMM,34,34,0 23 648
SPMM,35,34,0 23 647
SPMM,36,34,0 23 646
SPMM,37,34,0 23 645
SPMM,38,34,0 23 644
SPMM,39,34,0 23 643
SPMM,40,34,0 23 642
SPMM,41,34,0 23 641
SPMM,42,34,0 23 640
SPMM,43,34,0 23 639
SPMM,44,34,0 23 638
SPMM,45,34,0 23 637
SPMM,46,34,0 23 636
SPMM,47,34,0 23 635
SPMM,48,34,0 23 634
SPMM,49,34,0 23 633
SPMM,50,34,0 23 632
UPDATE,34,1 23 631
XTY,34,2,4 23 630
XY,35,3 23 629
DLACPY,35,1 23 628
SPMM,15,35,0 23 627
SPMM,16,35,0 23 626
SPMM,17,35,0 23 625
SPMM,21,35,0 23 624
SPMM,22,35,0 23 623
SPMM,23,35,0 23 622
SPMM,26,35,0 23 621
SPMM,27,35,0 23 620
SPMM,28,35,0 23 619
SPMM,29,35,0 23 618
SPMM,30,35,0 23 617
SPMM,31,35,0 23 616
SPMM,32,35,0 23 615
SPMM,33,35,0 23 614
SPMM,34,35,0 23 613
SPMM,35,35,0 23 612
SPMM,36,35,0 23 611
SPMM,37,35,0 23 610
SPMM,38,35,0 23 609
SPMM,39,35,0 23 608
SPMM,40,35,0 23 607
SPMM,41,35,0 23 606
SPMM,42,35,0 23 605
SPMM,43,35,0 23 604
SPMM,44,35,0 23 603
SPMM,45,35,0 23 602
SPMM,46,35,0 23 601
SPMM,47,35,0 23 600
SPMM,48,35,0 23 599
SPMM,49,35,0 23 598
SPMM,50,35,0 23 597
UPDATE,35,1 23 596
XTY,35,3,4 23 595
CONSTRUCTGB 23 594
SPMM,18,35,0 24 593
SPMM,18,34,0 24 592
SPMM,10,14,0 24 591
XTY,10,10,5 24 590
SPMM,11,14,0 24 589
SPMM,44,23,0 24 588
SPMM,45,23,0 24 587
SPMM,44,22,0 24 586
SPMM,45,22,0 24 585
SPMM,31,25,0 24 584
SPMM,36,25,0 24 583
SPMM,47,25,0 24 582
SPMM,50,25,0 24 581
SPMM,30,24,0 24 580
SPMM,31,24,0 24 579
SPMM,36,24,0 24 578
SPMM,37,24,0 24 577
SPMM,46,24,0 24 576
SPMM,47,24,0 24 575
SPMM,50,24,0 24 574
SPMM,0,26,0 24 573
XTY,0,0,5 24 572
SPMM,1,26,0 24 571
SPMM,46,28,0 24 570
SPMM,47,28,0 24 569
SPMM,46,29,0 24 568
SPMM,47,29,0 24 567
DLACPY,41,1 24 566
SPMM,15,41,0 24 565
SPMM,16,41,0 24 564
SPMM,17,41,0 24 563
SPMM,18,41,0 24 562
SPMM,19,41,0 24 561
SPMM,20,41,0 24 560
SPMM,21,41,0 24 559
SPMM,22,41,0 24 558
SPMM,23,41,0 24 557
SPMM,24,41,0 24 556
SPMM,25,41,0 24 555
SPMM,26,41,0 24 554
SPMM,27,41,0 24 553
SPMM,28,41,0 24 552
SPMM,29,41,0 24 551
SPMM,30,41,0 24 550
SPMM,31,41,0 24 549
SPMM,32,41,0 24 548
SPMM,33,41,0 24 547
SPMM,34,41,0 24 546
SPMM,35,41,0 24 545
SPMM,36,41,0 24 544
SPMM,37,41,0 24 543
SPMM,38,41,0 24 542
SPMM,39,41,0 24 541
SPMM,40,41,0 24 540
SPMM,41,41,0 24 539
SPMM,42,41,0 24 538
SPMM,43,41,0 24 537
SPMM,44,41,0 24 536
SPMM,45,41,0 24 535
SPMM,46,41,0 24 534
SPMM,47,41,0 24 533
SPMM,48,41,0 24 532
SPMM,49,41,0 24 531
UPDATE,41,1 24 530
DLACPY,40,1 24 529
SPMM,15,40,0 24 528
SPMM,16,40,0 24 527
SPMM,17,40,0 24 526
SPMM,18,40,0 24 525
SPMM,20,40,0 24 524
SPMM,21,40,0 24 523
SPMM,22,40,0 24 522
SPMM,23,40,0 24 521
SPMM,24,40,0 24 520
SPMM,25,40,0 24 519
SPMM,26,40,0 24 518
SPMM,27,40,0 24 517
SPMM,28,40,0 24 516
SPMM,29,40,0 24 515
SPMM,30,40,0 24 514
SPMM,31,40,0 24 513
SPMM,32,40,0 24 512
SPMM,33,40,0 24 511
SPMM,34,40,0 24 510
SPMM,35,40,0 24 509
SPMM,36,40,0 24 508
SPMM,37,40,0 24 507
SPMM,38,40,0 24 506
SPMM,39,40,0 24 505
SPMM,40,40,0 24 504
SPMM,41,40,0 24 503
SPMM,42,40,0 24 502
SPMM,43,40,0 24 501
SPMM,44,40,0 24 500
SPMM,45,40,0 24 499
SPMM,46,40,0 24 498
SPMM,47,40,0 24 497
SPMM,48,40,0 24 496
SPMM,49,40,0 24 495
UPDATE,40,1 24 494
SPMM,1,11,0 24 493
XTY,1,1,5 24 492
SPMM,11,1,0 24 491
XTY,11,11,5 24 490
SPMM,26,1,0 24 489
SPMM,26,0,0 24 488
SPMM,50,40,0 25 487
XTY,19,3,5 25 486
SPMM,50,41,0 25 485
SPMM,21,38,0 25 484
SPMM,21,39,0 25 483
SPMM,46,19,0 25 482
SPMM,47,19,0 25 481
SPMM,50,19,0 25 480
SPMM,34,18,0 25 479
SPMM,35,18,0 25 478
SPMM,46,18,0 25 477
SPMM,47,18,0 25 476
SPMM,50,18,0 25 475
SPMM,34,24,0 25 474
SPMM,35,24,0 25 473
SPMM,18,28,0 25 472
SPMM,18,29,0 25 471
SPMM,50,21,0 25 470
XY,32,3 25 469
DLACPY,32,1 25 468
SPMM,18,32,0 25 467
SPMM,20,32,0 25 466
SPMM,21,32,0 25 465
SPMM,22,32,0 25 464
SPMM,23,32,0 25 463
SPMM,26,32,0 25 462
SPMM,27,32,0 25 461
SPMM,28,32,0 25 460
SPMM,29,32,0 25 459
SPMM,30,32,0 25 458
SPMM,31,32,0 25 457
SPMM,32,32,0 25 456
SPMM,33,32,0 25 455
SPMM,34,32,0 25 454
SPMM,35,32,0 25 453
SPMM,36,32,0 25 452
SPMM,37,32,0 25 451
SPMM,40,32,0 25 450
SPMM,41,32,0 25 449
SPMM,46,32,0 25 448
SPMM,47,32,0 25 447
SPMM,50,32,0 25 446
UPDATE,32,1 25 445
XY,33,3 25 444
DLACPY,33,1 25 443
SPMM,18,33,0 25 442
XTY,18,2,5 25 441
SPMM,20,33,0 25 440
XTY,20,4,5 25 439
SPMM,21,33,0 25 438
XTY,21,5,5 25 437
SPMM,22,33,0 25 436
SPMM,23,33,0 25 435
SPMM,26,33,0 25 434
XTY,26,10,5 25 433
SPMM,27,33,0 25 432
XTY,27,11,5 25 431
SPMM,28,33,0 25 430
SPMM,29,33,0 25 429
SPMM,30,33,0 25 428
XTY,30,14,5 25 427
SPMM,31,33,0 25 426
XTY,31,15,5 25 425
SPMM,32,33,0 25 424
SPMM,33,33,0 25 423
SPMM,34,33,0 25 422
XTY,34,2,5 25 421
SPMM,35,33,0 25 420
XTY,35,3,5 25 419
SPMM,36,33,0 25 418
XTY,36,4,5 25 417
SPMM,37,33,0 25 416
XTY,37,5,5 25 415
SPMM,40,33,0 25 414
XTY,40,8,5 25 413
SPMM,41,33,0 25 412
XTY,41,9,5 25 411
SPMM,46,33,0 25 410
XTY,46,14,5 25 409
SPMM,47,33,0 25 408
XTY,47,15,5 25 407
SPMM,50,33,0 25 406
XTY,50,2,5 25 405
UPDATE,33,1 25 404
XTY,23,7,5 26 403
XTY,22,6,5 26 402
SPMM,15,33,0 26 401
SPMM,16,33,0 26 400
SPMM,17,33,0 26 399
SPMM,24,33,0 26 398
SPMM,25,33,0 26 397
SPMM,38,33,0 26 396
SPMM,39,33,0 26 395
SPMM,42,33,0 26 394
SPMM,43,33,0 26 393
SPMM,44,33,0 26 392
SPMM,45,33,0 26 391
SPMM,48,33,0 26 390
SPMM,49,33,0 26 389
SPMM,15,32,0 26 388
SPMM,16,32,0 26 387
SPMM,17,32,0 26 386
SPMM,24,32,0 26 385
SPMM,25,32,0 26 384
SPMM,38,32,0 26 383
SPMM,39,32,0 26 382
SPMM,42,32,0 26 381
SPMM,43,32,0 26 380
SPMM,44,32,0 26 379
XTY,44,12,5 26 378
SPMM,45,32,0 26 377
XTY,45,13,5 26 376
SPMM,48,32,0 26 375
SPMM,49,32,0 26 374
SPMM,24,35,0 26 373
SPMM,24,34,0 26 372
SPMM,24,15,0 26 371
SPMM,24,14,0 26 370
SPMM,25,14,0 26 369
SPMM,24,37,0 26 368
SPMM,42,37,0 26 367
SPMM,43,37,0 26 366
SPMM,48,37,0 26 365
SPMM,49,37,0 26 364
SPMM,24,36,0 26 363
SPMM,25,36,0 26 362
SPMM,42,36,0 26 361
XTY,42,10,5 26 360
SPMM,43,36,0 26 359
XTY,43,11,5 26 358
SPMM,48,36,0 26 357
XTY,48,0,5 26 356
SPMM,49,36,0 26 355
XTY,49,1,5 26 354
SPMM,28,18,0 26 353
SPMM,29,18,0 26 352
SPMM,32,18,0 26 351
SPMM,33,18,0 26 350
SPMM,14,23,0 26 349
SPMM,15,23,0 26 348
SPMM,15,22,0 26 347
SPMM,24,31,0 26 346
SPMM,25,31,0 26 345
XTY,25,9,5 26 344
SPMM,24,30,0 26 343
SPMM,14,25,0 26 342
SPMM,32,25,0 26 341
SPMM,33,25,0 26 340
SPMM,14,24,0 26 339
XTY,14,14,5 26 338
SPMM,15,24,0 26 337
XTY,15,15,5 26 336
SPMM,16,24,0 26 335
XTY,16,0,5 26 334
SPMM,17,24,0 26 333
XTY,17,1,5 26 332
SPMM,28,24,0 26 331
XTY,28,12,5 26 330
SPMM,29,24,0 26 329
XTY,29,13,5 26 328
SPMM,32,24,0 26 327
XTY,32,0,5 26 326
SPMM,33,24,0 26 325
XTY,33,1,5 26 324
SPMM,24,28,0 26 323
SPMM,24,29,0 26 322
XTY,24,8,5 26 321
SPMM,38,21,0 26 320
XTY,38,6,5 26 319
SPMM,39,21,0 26 318
XTY,39,7,5 26 317
RED,RARBUF,0 26 316
TRANS,RAR 27 315
SPEUPDATE,RAR 27 314
XTY,33,1,4 27 313
XTY,32,0,4 27 312
XTY,40,8,4 27 311
XTY,41,9,4 27 310
RED,XARBUF,0 27 309
CONSTRUCTGA 27 308
EIGEN 27 307
XY,32,6 27 306
XY,33,6 27 305
XY,40,6 27 304
XY,41,6 27 303
XY,44,6 27 302
XY,45,6 27 301
XY,46,6 27 300
XY,47,6 27 299
XY,0,8 27 298
XY,1,8 27 297
XY,10,8 27 296
XY,11,8 27 295
XY,14,8 27 294
XY,15,8 27 293
XY,16,8 27 292
XY,17,8 27 291
XY,30,8 27 290
XY,31,8 27 289
XY,18,8 28 288
XY,19,8 28 287
XY,20,8 28 286
XY,21,8 28 285
XY,22,8 28 284
XY,23,8 28 283
XY,24,8 28 282
XY,25,8 28 281
XY,26,8 28 280
XY,27,8 28 279
XY,28,8 28 278
XY,29,8 28 277
XY,32,8 28 276
XY,33,8 28 275
XY,34,8 28 274
XY,35,8 28 273
XY,36,8 28 272
XY,37,8 28 271
XY,38,8 28 270
XY,39,8 28 269
XY,40,8 28 268
XY,41,8 28 267
XY,42,8 28 266
XY,43,8 28 265
XY,44,8 28 264
XY,45,8 28 263
XY,46,8 28 262
XY,47,8 28 261
XY,48,8 28 260
XY,49,8 28 259
XY,50,8 28 258
XY,8,6 29 257
XY,9,6 29 256
XY,20,6 29 255
XY,21,6 29 254
XY,36,6 29 253
XY,37,6 29 252
XY,48,6 29 251
XY,49,6 29 250
XY,8,10 29 249
ADD,8,3 29 248
XY,9,10 29 247
ADD,9,3 29 246
XY,18,10 29 245
XY,19,10 29 244
XY,26,10 29 243
XY,27,10 29 242
XY,36,10 29 241
ADD,36,3 29 240
XY,37,10 29 239
ADD,37,3 29 238
XY,8,11 29 237
XY,9,11 29 236
XY,22,11 29 235
ADD,22,4 29 234
XY,23,11 29 233
ADD,23,4 29 232
XY,24,11 29 231
XY,25,11 29 230
XY,30,11 29 229
ADD,30,4 29 228
XY,31,11 29 227
ADD,31,4 29 226
XY,36,11 29 225
XY,37,11 29 224
XY,42,11 29 223
XY,43,11 29 222
XY,14,6 30 221
XY,15,6 30 220
XY,18,6 30 219
ADD,18,3 30 218
XY,19,6 30 217
ADD,19,3 30 216
XY,42,6 30 215
XY,43,6 30 214
XY,4,8 30 213
XY,5,8 30 212
XY,8,8 30 211
ADD,8,4 30 210
XY,9,8 30 209
ADD,9,4 30 208
XY,14,10 30 207
ADD,14,3 30 206
XY,15,10 30 205
ADD,15,3 30 204
XY,24,10 30 203
XY,25,10 30 202
XY,0,11 30 201
XY,1,11 30 200
XY,6,11 30 199
XY,7,11 30 198
XY,26,11 30 197
ADD,26,4 30 196
XY,27,11 30 195
ADD,27,4 30 194
XY,34,11 30 193
ADD,34,4 30 192
XY,35,11 30 191
ADD,35,4 30 190
ADD,1,4 33 189
ADD,0,4 33 188
ADD,43,4 33 187
ADD,42,4 33 186
ADD,37,4 33 185
ADD,36,4 33 184
XY,24,6 33 183
ADD,24,3 33 182
XY,25,6 33 181
ADD,25,3 33 180
XY,28,6 33 179
XY,29,6 33 178
XY,6,8 33 177
ADD,6,4 33 176
XY,7,8 33 175
ADD,7,4 33 174
XY,4,10 33 173
XY,5,10 33 172
XY,28,10 33 171
ADD,28,3 33 170
XY,29,10 33 169
ADD,29,3 33 168
XY,42,10 33 167
ADD,42,3 33 166
XY,43,10 33 165
ADD,43,3 33 164
XY,46,10 33 163
XY,47,10 33 162
XY,16,11 33 161
ADD,16,4 33 160
XY,17,11 33 159
ADD,17,4 33 158
XY,40,11 33 157
XY,41,11 33 156
XY,16,6 31 155
XY,17,6 31 154
XY,50,6 31 153
XY,2,8 31 152
XY,3,8 31 151
XY,10,10 31 150
XY,11,10 31 149
XY,16,10 31 148
ADD,16,3 31 147
XY,17,10 31 146
ADD,17,3 31 145
XY,32,10 31 144
ADD,32,3 31 143
XY,33,10 31 142
ADD,33,3 31 141
XY,34,10 31 140
XY,35,10 31 139
XY,44,10 31 138
ADD,44,3 31 137
XY,45,10 31 136
ADD,45,3 31 135
XY,20,11 31 134
ADD,20,4 31 133
XY,21,11 31 132
ADD,21,4 31 131
XY,28,11 31 130
ADD,28,4 31 129
XY,29,11 31 128
ADD,29,4 31 127
XY,46,11 31 126
XY,47,11 31 125
ADD,47,4 34 124
ADD,46,4 34 123
ADD,47,3 34 122
ADD,46,3 34 121
XY,0,6 34 120
XY,1,6 34 119
XY,2,6 34 118
XY,3,6 34 117
XY,4,6 34 116
ADD,4,3 34 115
XY,5,6 34 114
ADD,5,3 34 113
XY,6,6 34 112
XY,7,6 34 111
XY,0,10 34 110
ADD,0,3 34 109
XY,1,10 34 108
ADD,1,3 34 107
XY,2,10 34 106
ADD,2,3 34 105
XY,3,10 34 104
ADD,3,3 34 103
XY,6,10 34 102
ADD,6,3 34 101
XY,7,10 34 100
ADD,7,3 34 99
XY,20,10 34 98
XY,21,10 34 97
XY,38,11 34 96
ADD,38,4 34 95
XY,39,11 34 94
ADD,39,4 34 93
ADD,21,3 35 92
ADD,20,3 35 91
ADD,41,4 35 90
ADD,40,4 35 89
XY,26,6 35 88
ADD,26,3 35 87
XY,27,6 35 86
ADD,27,3 35 85
XY,38,6 35 84
XY,39,6 35 83
XY,12,8 35 82
XY,13,8 35 81
XY,12,10 35 80
XY,13,10 35 79
XY,38,10 35 78
ADD,38,3 35 77
XY,39,10 35 76
ADD,39,3 35 75
XY,4,11 35 74
ADD,4,4 35 73
XY,5,11 35 72
ADD,5,4 35 71
XY,10,11 35 70
ADD,10,4 35 69
XY,11,11 35 68
ADD,11,4 35 67
XY,12,11 35 66
ADD,12,4 35 65
XY,13,11 35 64
ADD,13,4 35 63
XY,50,11 35 62
ADD,50,4 36 61
XY,12,6 36 60
ADD,12,3 36 59
XY,13,6 36 58
ADD,13,3 36 57
XY,22,6 36 56
XY,23,6 36 55
XY,22,10 36 54
ADD,22,3 36 53
XY,23,10 36 52
ADD,23,3 36 51
XY,40,10 36 50
ADD,40,3 36 49
XY,41,10 36 48
ADD,41,3 36 47
XY,48,10 36 46
ADD,48,3 36 45
XY,49,10 36 44
ADD,49,3 36 43
XY,2,11 36 42
ADD,2,4 36 41
XY,3,11 36 40
ADD,3,4 36 39
XY,14,11 36 38
ADD,14,4 36 37
XY,15,11 36 36
ADD,15,4 36 35
XY,48,11 36 34
ADD,48,4 36 33
XY,49,11 36 32
ADD,49,4 36 31
ADD,25,4 32 30
ADD,24,4 32 29
XY,10,6 32 28
ADD,10,3 32 27
XY,11,6 32 26
ADD,11,3 32 25
XY,30,6 32 24
XY,31,6 32 23
XY,34,6 32 22
ADD,34,3 32 21
XY,35,6 32 20
ADD,35,3 32 19
XY,30,10 32 18
ADD,30,3 32 17
XY,31,10 32 16
ADD,31,3 32 15
XY,50,10 32 14
ADD,50,3 32 13
XY,18,11 32 12
ADD,18,4 32 11
XY,19,11 32 10
ADD,19,4 32 9
XY,32,11 32 8
ADD,32,4 32 7
XY,33,11 32 6
ADD,33,4 32 5
XY,44,11 32 4
ADD,44,4 32 3
XY,45,11 32 2
ADD,45,4 32 1
