SETZERO,31,1 1 1960
SETZERO,30,1 1 1959
SETZERO,29,1 1 1958
SETZERO,28,1 1 1957
SETZERO,27,1 1 1956
SETZERO,26,1 1 1955
SETZERO,25,1 1 1954
SETZERO,24,1 1 1953
SETZERO,23,1 1 1952
SETZERO,22,1 1 1951
SETZERO,21,1 1 1950
SETZERO,20,1 1 1949
SETZERO,19,1 1 1948
SETZERO,18,1 1 1947
SETZERO,17,1 1 1946
SETZERO,16,1 1 1945
SETZERO,15,1 1 1944
SETZERO,14,1 1 1943
SETZERO,13,1 1 1942
SETZERO,12,1 1 1941
SETZERO,11,1 1 1940
SETZERO,10,1 1 1939
SETZERO,9,1 1 1938
SETZERO,8,1 1 1937
SETZERO,7,1 1 1936
SETZERO,6,1 1 1935
SETZERO,5,1 1 1934
SETZERO,4,1 1 1933
SETZERO,3,1 1 1932
SETZERO,2,1 1 1931
SETZERO,1,1 1 1930
SETZERO,0,1 1 1929
_X,47 1 1928
XTY,47,15,20 1 1927
_X,46 1 1926
XTY,46,14,20 1 1925
_X,45 1 1924
XTY,45,13,20 1 1923
_X,44 1 1922
XTY,44,12,20 1 1921
_X,43 1 1920
XTY,43,11,20 1 1919
_X,42 1 1918
XTY,42,10,20 1 1917
_X,41 1 1916
XTY,41,9,20 1 1915
_X,40 1 1914
XTY,40,8,20 1 1913
_X,39 1 1912
XTY,39,7,20 1 1911
_X,38 1 1910
XTY,38,6,20 1 1909
_X,37 1 1908
XTY,37,5,20 1 1907
_X,36 1 1906
XTY,36,4,20 1 1905
_X,35 1 1904
XTY,35,3,20 1 1903
_X,34 1 1902
XTY,34,2,20 1 1901
_X,33 1 1900
XTY,33,1,20 1 1899
_X,32 1 1898
XTY,32,0,20 1 1897
SETZERO,50,1 0 1896
SETZERO,49,1 0 1895
SETZERO,48,1 0 1894
SETZERO,47,1 0 1893
SETZERO,46,1 0 1892
SETZERO,45,1 0 1891
SETZERO,44,1 0 1890
SETZERO,43,1 0 1889
SETZERO,42,1 0 1888
SETZERO,41,1 0 1887
SETZERO,40,1 0 1886
SETZERO,39,1 0 1885
SETZERO,38,1 0 1884
SETZERO,37,1 0 1883
SETZERO,36,1 0 1882
SETZERO,35,1 0 1881
SETZERO,34,1 0 1880
SETZERO,33,1 0 1879
SETZERO,32,1 0 1878
_X,50 0 1877
XTY,50,2,20 0 1876
_X,49 0 1875
XTY,49,1,20 0 1874
_X,48 0 1873
XTY,48,0,20 0 1872
_X,31 2 1871
XTY,31,15,20 2 1870
_X,30 2 1869
XTY,30,14,20 2 1868
_X,29 2 1867
XTY,29,13,20 2 1866
_X,28 2 1865
XTY,28,12,20 2 1864
_X,27 2 1863
XTY,27,11,20 2 1862
_X,26 2 1861
XTY,26,10,20 2 1860
_X,25 2 1859
XTY,25,9,20 2 1858
_X,24 2 1857
XTY,24,8,20 2 1856
_X,23 2 1855
XTY,23,7,20 2 1854
_X,22 2 1853
XTY,22,6,20 2 1852
_X,21 2 1851
XTY,21,5,20 2 1850
_X,20 2 1849
XTY,20,4,20 2 1848
_X,19 2 1847
XTY,19,3,20 2 1846
_X,18 2 1845
XTY,18,2,20 2 1844
_X,17 2 1843
XTY,17,1,20 2 1842
_X,16 2 1841
XTY,16,0,20 2 1840
_X,15 2 1839
XTY,15,15,20 2 1838
_X,14 2 1837
XTY,14,14,20 2 1836
_X,13 2 1835
XTY,13,13,20 2 1834
_X,12 2 1833
XTY,12,12,20 2 1832
_X,11 2 1831
XTY,11,11,20 2 1830
_X,10 2 1829
XTY,10,10,20 2 1828
_X,9 2 1827
XTY,9,9,20 2 1826
_X,8 2 1825
XTY,8,8,20 2 1824
_X,7 2 1823
XTY,7,7,20 2 1822
_X,6 2 1821
XTY,6,6,20 2 1820
_X,5 2 1819
XTY,5,5,20 2 1818
_X,4 2 1817
XTY,4,4,20 2 1816
_X,3 2 1815
XTY,3,3,20 2 1814
_X,2 2 1813
XTY,2,2,20 2 1812
_X,1 2 1811
XTY,1,1,20 2 1810
_X,0 2 1809
XTY,0,0,20 2 1808
RED,XBXBUF,0 2 1807
CHOL,XBX 2 1806
DLACPY,0,20 2 1805
INV,XBX 3 1804
XY,32,20 3 1803
XY,33,20 3 1802
XY,34,20 3 1801
XY,35,20 3 1800
XY,36,20 3 1799
XY,37,20 3 1798
XY,38,20 3 1797
XY,39,20 3 1796
XY,40,20 3 1795
XY,41,20 3 1794
XY,42,20 3 1793
XY,43,20 3 1792
XY,44,20 3 1791
XY,45,20 3 1790
XY,46,20 3 1789
XY,47,20 3 1788
DLACPY,47,21 25 1787
SPMM,32,47,0 25 1786
SPMM,33,47,0 25 1785
SPMM,34,47,0 25 1784
SPMM,35,47,0 25 1783
SPMM,36,47,0 25 1782
SPMM,37,47,0 25 1781
SPMM,38,47,0 25 1780
SPMM,39,47,0 25 1779
SPMM,40,47,0 25 1778
SPMM,41,47,0 25 1777
SPMM,42,47,0 25 1776
SPMM,43,47,0 25 1775
SPMM,44,47,0 25 1774
SPMM,45,47,0 25 1773
SPMM,46,47,0 25 1772
SPMM,47,47,0 25 1771
DLACPY,46,21 25 1770
SPMM,32,46,0 25 1769
SPMM,33,46,0 25 1768
SPMM,34,46,0 25 1767
SPMM,35,46,0 25 1766
SPMM,36,46,0 25 1765
SPMM,37,46,0 25 1764
SPMM,38,46,0 25 1763
SPMM,39,46,0 25 1762
SPMM,40,46,0 25 1761
SPMM,41,46,0 25 1760
SPMM,42,46,0 25 1759
SPMM,43,46,0 25 1758
SPMM,44,46,0 25 1757
SPMM,45,46,0 25 1756
SPMM,46,46,0 25 1755
SPMM,47,46,0 25 1754
DLACPY,45,21 25 1753
SPMM,32,45,0 25 1752
SPMM,33,45,0 25 1751
SPMM,34,45,0 25 1750
SPMM,35,45,0 25 1749
SPMM,36,45,0 25 1748
SPMM,37,45,0 25 1747
SPMM,38,45,0 25 1746
SPMM,39,45,0 25 1745
SPMM,40,45,0 25 1744
SPMM,41,45,0 25 1743
SPMM,42,45,0 25 1742
SPMM,43,45,0 25 1741
SPMM,44,45,0 25 1740
SPMM,45,45,0 25 1739
SPMM,46,45,0 25 1738
SPMM,47,45,0 25 1737
DLACPY,44,21 25 1736
SPMM,32,44,0 25 1735
SPMM,33,44,0 25 1734
SPMM,34,44,0 25 1733
SPMM,35,44,0 25 1732
SPMM,36,44,0 25 1731
SPMM,37,44,0 25 1730
SPMM,38,44,0 25 1729
SPMM,39,44,0 25 1728
SPMM,40,44,0 25 1727
SPMM,41,44,0 25 1726
SPMM,42,44,0 25 1725
SPMM,43,44,0 25 1724
SPMM,44,44,0 25 1723
SPMM,45,44,0 25 1722
SPMM,46,44,0 25 1721
SPMM,47,44,0 25 1720
DLACPY,43,21 25 1719
SPMM,32,43,0 25 1718
SPMM,33,43,0 25 1717
SPMM,34,43,0 25 1716
SPMM,35,43,0 25 1715
SPMM,36,43,0 25 1714
SPMM,37,43,0 25 1713
SPMM,38,43,0 25 1712
SPMM,39,43,0 25 1711
SPMM,40,43,0 25 1710
SPMM,41,43,0 25 1709
SPMM,42,43,0 25 1708
SPMM,43,43,0 25 1707
SPMM,44,43,0 25 1706
SPMM,45,43,0 25 1705
SPMM,46,43,0 25 1704
SPMM,47,43,0 25 1703
DLACPY,42,21 25 1702
SPMM,32,42,0 25 1701
SPMM,33,42,0 25 1700
SPMM,34,42,0 25 1699
SPMM,35,42,0 25 1698
SPMM,36,42,0 25 1697
SPMM,37,42,0 25 1696
SPMM,38,42,0 25 1695
SPMM,39,42,0 25 1694
SPMM,40,42,0 25 1693
SPMM,41,42,0 25 1692
SPMM,42,42,0 25 1691
SPMM,43,42,0 25 1690
SPMM,44,42,0 25 1689
SPMM,45,42,0 25 1688
SPMM,46,42,0 25 1687
SPMM,47,42,0 25 1686
DLACPY,41,21 25 1685
SPMM,32,41,0 25 1684
SPMM,33,41,0 25 1683
SPMM,34,41,0 25 1682
SPMM,35,41,0 25 1681
SPMM,36,41,0 25 1680
SPMM,37,41,0 25 1679
SPMM,38,41,0 25 1678
SPMM,39,41,0 25 1677
SPMM,40,41,0 25 1676
SPMM,41,41,0 25 1675
SPMM,42,41,0 25 1674
SPMM,43,41,0 25 1673
SPMM,44,41,0 25 1672
SPMM,45,41,0 25 1671
SPMM,46,41,0 25 1670
SPMM,47,41,0 25 1669
DLACPY,40,21 25 1668
SPMM,32,40,0 25 1667
SPMM,33,40,0 25 1666
SPMM,34,40,0 25 1665
SPMM,35,40,0 25 1664
SPMM,36,40,0 25 1663
SPMM,37,40,0 25 1662
SPMM,38,40,0 25 1661
SPMM,39,40,0 25 1660
SPMM,40,40,0 25 1659
SPMM,41,40,0 25 1658
SPMM,42,40,0 25 1657
SPMM,43,40,0 25 1656
SPMM,44,40,0 25 1655
SPMM,45,40,0 25 1654
SPMM,46,40,0 25 1653
SPMM,47,40,0 25 1652
DLACPY,39,21 25 1651
SPMM,32,39,0 25 1650
SPMM,33,39,0 25 1649
SPMM,34,39,0 25 1648
SPMM,35,39,0 25 1647
SPMM,36,39,0 25 1646
SPMM,37,39,0 25 1645
SPMM,38,39,0 25 1644
SPMM,39,39,0 25 1643
SPMM,40,39,0 25 1642
SPMM,41,39,0 25 1641
SPMM,42,39,0 25 1640
SPMM,43,39,0 25 1639
SPMM,44,39,0 25 1638
SPMM,45,39,0 25 1637
SPMM,46,39,0 25 1636
SPMM,47,39,0 25 1635
DLACPY,38,21 25 1634
SPMM,32,38,0 25 1633
SPMM,33,38,0 25 1632
SPMM,34,38,0 25 1631
SPMM,35,38,0 25 1630
SPMM,36,38,0 25 1629
SPMM,37,38,0 25 1628
SPMM,38,38,0 25 1627
SPMM,39,38,0 25 1626
SPMM,40,38,0 25 1625
SPMM,41,38,0 25 1624
SPMM,42,38,0 25 1623
SPMM,43,38,0 25 1622
SPMM,44,38,0 25 1621
SPMM,45,38,0 25 1620
SPMM,46,38,0 25 1619
SPMM,47,38,0 25 1618
DLACPY,37,21 25 1617
SPMM,32,37,0 25 1616
SPMM,33,37,0 25 1615
SPMM,34,37,0 25 1614
SPMM,35,37,0 25 1613
SPMM,36,37,0 25 1612
SPMM,37,37,0 25 1611
SPMM,38,37,0 25 1610
SPMM,39,37,0 25 1609
SPMM,40,37,0 25 1608
SPMM,41,37,0 25 1607
SPMM,42,37,0 25 1606
SPMM,43,37,0 25 1605
SPMM,44,37,0 25 1604
SPMM,45,37,0 25 1603
SPMM,46,37,0 25 1602
SPMM,47,37,0 25 1601
DLACPY,36,21 25 1600
SPMM,32,36,0 25 1599
SPMM,33,36,0 25 1598
SPMM,34,36,0 25 1597
SPMM,35,36,0 25 1596
SPMM,36,36,0 25 1595
SPMM,37,36,0 25 1594
SPMM,38,36,0 25 1593
SPMM,39,36,0 25 1592
SPMM,40,36,0 25 1591
SPMM,41,36,0 25 1590
SPMM,42,36,0 25 1589
SPMM,43,36,0 25 1588
SPMM,44,36,0 25 1587
SPMM,45,36,0 25 1586
SPMM,46,36,0 25 1585
SPMM,47,36,0 25 1584
DLACPY,35,21 25 1583
SPMM,32,35,0 25 1582
SPMM,33,35,0 25 1581
SPMM,34,35,0 25 1580
SPMM,35,35,0 25 1579
SPMM,36,35,0 25 1578
SPMM,37,35,0 25 1577
SPMM,38,35,0 25 1576
SPMM,39,35,0 25 1575
SPMM,40,35,0 25 1574
SPMM,41,35,0 25 1573
SPMM,42,35,0 25 1572
SPMM,43,35,0 25 1571
SPMM,44,35,0 25 1570
SPMM,45,35,0 25 1569
SPMM,46,35,0 25 1568
SPMM,47,35,0 25 1567
DLACPY,34,21 25 1566
SPMM,32,34,0 25 1565
SPMM,33,34,0 25 1564
SPMM,34,34,0 25 1563
SPMM,35,34,0 25 1562
SPMM,36,34,0 25 1561
SPMM,37,34,0 25 1560
SPMM,38,34,0 25 1559
SPMM,39,34,0 25 1558
SPMM,40,34,0 25 1557
SPMM,41,34,0 25 1556
SPMM,42,34,0 25 1555
SPMM,43,34,0 25 1554
SPMM,44,34,0 25 1553
SPMM,45,34,0 25 1552
SPMM,46,34,0 25 1551
SPMM,47,34,0 25 1550
DLACPY,33,21 25 1549
SPMM,32,33,0 25 1548
SPMM,33,33,0 25 1547
SPMM,34,33,0 25 1546
SPMM,35,33,0 25 1545
SPMM,36,33,0 25 1544
SPMM,37,33,0 25 1543
SPMM,38,33,0 25 1542
SPMM,39,33,0 25 1541
SPMM,40,33,0 25 1540
SPMM,41,33,0 25 1539
SPMM,42,33,0 25 1538
SPMM,43,33,0 25 1537
SPMM,44,33,0 25 1536
SPMM,45,33,0 25 1535
SPMM,46,33,0 25 1534
SPMM,47,33,0 25 1533
DLACPY,32,21 25 1532
SPMM,32,32,0 25 1531
SPMM,33,32,0 25 1530
SPMM,34,32,0 25 1529
SPMM,35,32,0 25 1528
SPMM,36,32,0 25 1527
SPMM,37,32,0 25 1526
SPMM,38,32,0 25 1525
SPMM,39,32,0 25 1524
SPMM,40,32,0 25 1523
SPMM,41,32,0 25 1522
SPMM,42,32,0 25 1521
SPMM,43,32,0 25 1520
SPMM,44,32,0 25 1519
SPMM,45,32,0 25 1518
SPMM,46,32,0 25 1517
SPMM,47,32,0 25 1516
SPMM,15,32,0 53 1515
SPMM,15,33,0 53 1514
SPMM,15,34,0 53 1513
SPMM,15,35,0 53 1512
SPMM,15,36,0 53 1511
SPMM,15,37,0 53 1510
SPMM,15,38,0 53 1509
SPMM,15,39,0 53 1508
SPMM,15,40,0 53 1507
SPMM,15,41,0 53 1506
SPMM,15,42,0 53 1505
SPMM,15,43,0 53 1504
SPMM,15,44,0 53 1503
SPMM,15,45,0 53 1502
SPMM,15,46,0 53 1501
SPMM,15,47,0 53 1500
SPMM,16,32,0 32 1499
SPMM,17,32,0 32 1498
SPMM,18,32,0 32 1497
SPMM,20,32,0 32 1496
SPMM,21,32,0 32 1495
SPMM,22,32,0 32 1494
SPMM,23,32,0 32 1493
SPMM,24,32,0 32 1492
SPMM,25,32,0 32 1491
SPMM,26,32,0 32 1490
SPMM,27,32,0 32 1489
SPMM,28,32,0 32 1488
SPMM,29,32,0 32 1487
SPMM,30,32,0 32 1486
SPMM,31,32,0 32 1485
SPMM,16,33,0 32 1484
SPMM,17,33,0 32 1483
SPMM,18,33,0 32 1482
SPMM,20,33,0 32 1481
SPMM,21,33,0 32 1480
SPMM,22,33,0 32 1479
SPMM,23,33,0 32 1478
SPMM,24,33,0 32 1477
SPMM,25,33,0 32 1476
SPMM,26,33,0 32 1475
SPMM,27,33,0 32 1474
SPMM,28,33,0 32 1473
SPMM,29,33,0 32 1472
SPMM,30,33,0 32 1471
SPMM,31,33,0 32 1470
SPMM,16,34,0 32 1469
SPMM,17,34,0 32 1468
SPMM,18,34,0 32 1467
SPMM,21,34,0 32 1466
SPMM,22,34,0 32 1465
SPMM,23,34,0 32 1464
SPMM,24,34,0 32 1463
SPMM,26,34,0 32 1462
SPMM,27,34,0 32 1461
SPMM,28,34,0 32 1460
SPMM,29,34,0 32 1459
SPMM,30,34,0 32 1458
SPMM,31,34,0 32 1457
SPMM,16,35,0 32 1456
SPMM,17,35,0 32 1455
SPMM,18,35,0 32 1454
SPMM,21,35,0 32 1453
SPMM,22,35,0 32 1452
SPMM,23,35,0 32 1451
SPMM,24,35,0 32 1450
SPMM,26,35,0 32 1449
SPMM,27,35,0 32 1448
SPMM,28,35,0 32 1447
SPMM,29,35,0 32 1446
SPMM,30,35,0 32 1445
SPMM,31,35,0 32 1444
SPMM,16,36,0 32 1443
SPMM,17,36,0 32 1442
SPMM,18,36,0 32 1441
SPMM,20,36,0 32 1440
SPMM,21,36,0 32 1439
SPMM,22,36,0 32 1438
SPMM,23,36,0 32 1437
SPMM,24,36,0 32 1436
SPMM,25,36,0 32 1435
SPMM,26,36,0 32 1434
SPMM,27,36,0 32 1433
SPMM,28,36,0 32 1432
SPMM,29,36,0 32 1431
SPMM,30,36,0 32 1430
SPMM,31,36,0 32 1429
SPMM,16,37,0 32 1428
SPMM,17,37,0 32 1427
SPMM,18,37,0 32 1426
SPMM,21,37,0 32 1425
SPMM,22,37,0 32 1424
SPMM,23,37,0 32 1423
SPMM,24,37,0 32 1422
SPMM,26,37,0 32 1421
SPMM,27,37,0 32 1420
SPMM,28,37,0 32 1419
SPMM,29,37,0 32 1418
SPMM,30,37,0 32 1417
SPMM,31,37,0 32 1416
SPMM,16,38,0 32 1415
SPMM,17,38,0 32 1414
SPMM,18,38,0 32 1413
SPMM,19,38,0 32 1412
SPMM,21,38,0 32 1411
SPMM,22,38,0 32 1410
SPMM,23,38,0 32 1409
SPMM,24,38,0 32 1408
SPMM,26,38,0 32 1407
SPMM,27,38,0 32 1406
SPMM,28,38,0 32 1405
SPMM,29,38,0 32 1404
SPMM,30,38,0 32 1403
SPMM,31,38,0 32 1402
SPMM,16,39,0 32 1401
SPMM,17,39,0 32 1400
SPMM,18,39,0 32 1399
SPMM,19,39,0 32 1398
SPMM,21,39,0 32 1397
SPMM,22,39,0 32 1396
SPMM,23,39,0 32 1395
SPMM,24,39,0 32 1394
SPMM,26,39,0 32 1393
SPMM,27,39,0 32 1392
SPMM,28,39,0 32 1391
SPMM,29,39,0 32 1390
SPMM,30,39,0 32 1389
SPMM,31,39,0 32 1388
SPMM,16,40,0 32 1387
SPMM,17,40,0 32 1386
SPMM,18,40,0 32 1385
SPMM,20,40,0 32 1384
SPMM,21,40,0 32 1383
SPMM,22,40,0 32 1382
SPMM,23,40,0 32 1381
SPMM,24,40,0 32 1380
SPMM,25,40,0 32 1379
SPMM,26,40,0 32 1378
SPMM,27,40,0 32 1377
SPMM,28,40,0 32 1376
SPMM,29,40,0 32 1375
SPMM,30,40,0 32 1374
SPMM,31,40,0 32 1373
SPMM,16,41,0 32 1372
SPMM,17,41,0 32 1371
SPMM,18,41,0 32 1370
SPMM,19,41,0 32 1369
SPMM,20,41,0 32 1368
SPMM,21,41,0 32 1367
SPMM,22,41,0 32 1366
SPMM,23,41,0 32 1365
SPMM,24,41,0 32 1364
SPMM,25,41,0 32 1363
SPMM,26,41,0 32 1362
SPMM,27,41,0 32 1361
SPMM,28,41,0 32 1360
SPMM,29,41,0 32 1359
SPMM,30,41,0 32 1358
SPMM,31,41,0 32 1357
SPMM,16,42,0 32 1356
SPMM,17,42,0 32 1355
SPMM,18,42,0 32 1354
SPMM,19,42,0 32 1353
SPMM,20,42,0 32 1352
SPMM,21,42,0 32 1351
SPMM,22,42,0 32 1350
SPMM,23,42,0 32 1349
SPMM,24,42,0 32 1348
SPMM,25,42,0 32 1347
SPMM,26,42,0 32 1346
SPMM,27,42,0 32 1345
SPMM,28,42,0 32 1344
SPMM,29,42,0 32 1343
SPMM,30,42,0 32 1342
SPMM,31,42,0 32 1341
SPMM,16,43,0 32 1340
SPMM,17,43,0 32 1339
SPMM,18,43,0 32 1338
SPMM,19,43,0 32 1337
SPMM,21,43,0 32 1336
SPMM,22,43,0 32 1335
SPMM,23,43,0 32 1334
SPMM,24,43,0 32 1333
SPMM,25,43,0 32 1332
SPMM,26,43,0 32 1331
SPMM,27,43,0 32 1330
SPMM,28,43,0 32 1329
SPMM,29,43,0 32 1328
SPMM,30,43,0 32 1327
SPMM,31,43,0 32 1326
SPMM,16,44,0 32 1325
SPMM,17,44,0 32 1324
SPMM,18,44,0 32 1323
SPMM,19,44,0 32 1322
SPMM,20,44,0 32 1321
SPMM,21,44,0 32 1320
SPMM,22,44,0 32 1319
SPMM,23,44,0 32 1318
SPMM,24,44,0 32 1317
SPMM,25,44,0 32 1316
SPMM,26,44,0 32 1315
SPMM,27,44,0 32 1314
SPMM,28,44,0 32 1313
SPMM,29,44,0 32 1312
SPMM,30,44,0 32 1311
SPMM,31,44,0 32 1310
SPMM,16,45,0 32 1309
SPMM,17,45,0 32 1308
SPMM,18,45,0 32 1307
SPMM,19,45,0 32 1306
SPMM,20,45,0 32 1305
SPMM,21,45,0 32 1304
SPMM,22,45,0 32 1303
SPMM,23,45,0 32 1302
SPMM,24,45,0 32 1301
SPMM,25,45,0 32 1300
SPMM,26,45,0 32 1299
SPMM,27,45,0 32 1298
SPMM,28,45,0 32 1297
SPMM,29,45,0 32 1296
SPMM,30,45,0 32 1295
SPMM,31,45,0 32 1294
SPMM,16,46,0 32 1293
SPMM,17,46,0 32 1292
SPMM,18,46,0 32 1291
SPMM,19,46,0 32 1290
SPMM,21,46,0 32 1289
SPMM,22,46,0 32 1288
SPMM,23,46,0 32 1287
SPMM,24,46,0 32 1286
SPMM,26,46,0 32 1285
SPMM,27,46,0 32 1284
SPMM,28,46,0 32 1283
SPMM,29,46,0 32 1282
SPMM,30,46,0 32 1281
SPMM,31,46,0 32 1280
SPMM,16,47,0 32 1279
SPMM,17,47,0 32 1278
SPMM,18,47,0 32 1277
SPMM,19,47,0 32 1276
SPMM,20,47,0 32 1275
SPMM,21,47,0 32 1274
SPMM,22,47,0 32 1273
SPMM,23,47,0 32 1272
SPMM,24,47,0 32 1271
SPMM,25,47,0 32 1270
SPMM,26,47,0 32 1269
SPMM,27,47,0 32 1268
SPMM,28,47,0 32 1267
SPMM,29,47,0 32 1266
SPMM,30,47,0 32 1265
SPMM,31,47,0 32 1264
SPMM,48,32,0 33 1263
SPMM,49,32,0 33 1262
SPMM,50,32,0 33 1261
SPMM,48,33,0 33 1260
SPMM,49,33,0 33 1259
SPMM,50,33,0 33 1258
SPMM,48,34,0 33 1257
SPMM,49,34,0 33 1256
SPMM,50,34,0 33 1255
SPMM,48,35,0 33 1254
SPMM,49,35,0 33 1253
SPMM,50,35,0 33 1252
SPMM,48,36,0 33 1251
SPMM,49,36,0 33 1250
SPMM,50,36,0 33 1249
SPMM,48,37,0 33 1248
SPMM,49,37,0 33 1247
SPMM,50,37,0 33 1246
SPMM,48,38,0 33 1245
SPMM,49,38,0 33 1244
SPMM,50,38,0 33 1243
SPMM,48,39,0 33 1242
SPMM,49,39,0 33 1241
SPMM,50,39,0 33 1240
SPMM,48,40,0 33 1239
SPMM,49,40,0 33 1238
SPMM,50,40,0 33 1237
SPMM,48,41,0 33 1236
SPMM,49,41,0 33 1235
SPMM,50,41,0 33 1234
SPMM,48,42,0 33 1233
SPMM,49,42,0 33 1232
SPMM,50,42,0 33 1231
SPMM,48,43,0 33 1230
SPMM,49,43,0 33 1229
SPMM,50,43,0 33 1228
SPMM,48,44,0 33 1227
SPMM,49,44,0 33 1226
SPMM,50,44,0 33 1225
SPMM,48,45,0 33 1224
SPMM,49,45,0 33 1223
SPMM,50,45,0 33 1222
SPMM,48,46,0 33 1221
SPMM,49,46,0 33 1220
SPMM,50,46,0 33 1219
SPMM,48,47,0 33 1218
SPMM,49,47,0 33 1217
SPMM,50,47,0 33 1216
XY,0,20 5 1215
XY,1,20 5 1214
XY,2,20 5 1213
XY,3,20 5 1212
XY,4,20 5 1211
XY,5,20 5 1210
XY,6,20 5 1209
XY,7,20 5 1208
XY,8,20 5 1207
XY,9,20 5 1206
XY,10,20 5 1205
XY,11,20 5 1204
XY,12,20 5 1203
XY,13,20 5 1202
XY,14,20 5 1201
XY,15,20 5 1200
DLACPY,15,21 12 1199
SPMM,14,15,0 12 1198
SPMM,15,15,0 12 1197
DLACPY,14,21 12 1196
SPMM,2,14,0 12 1195
SPMM,3,14,0 12 1194
SPMM,4,14,0 12 1193
SPMM,5,14,0 12 1192
SPMM,6,14,0 12 1191
SPMM,7,14,0 12 1190
SPMM,8,14,0 12 1189
SPMM,9,14,0 12 1188
SPMM,10,14,0 12 1187
SPMM,11,14,0 12 1186
SPMM,12,14,0 12 1185
SPMM,13,14,0 12 1184
SPMM,14,14,0 12 1183
SPMM,15,14,0 12 1182
DLACPY,13,21 12 1181
SPMM,3,13,0 12 1180
SPMM,4,13,0 12 1179
SPMM,5,13,0 12 1178
SPMM,6,13,0 12 1177
SPMM,7,13,0 12 1176
SPMM,8,13,0 12 1175
SPMM,9,13,0 12 1174
SPMM,10,13,0 12 1173
SPMM,11,13,0 12 1172
SPMM,12,13,0 12 1171
SPMM,13,13,0 12 1170
SPMM,14,13,0 12 1169
DLACPY,12,21 12 1168
SPMM,2,12,0 12 1167
SPMM,3,12,0 12 1166
SPMM,4,12,0 12 1165
SPMM,5,12,0 12 1164
SPMM,6,12,0 12 1163
SPMM,7,12,0 12 1162
SPMM,8,12,0 12 1161
SPMM,9,12,0 12 1160
SPMM,10,12,0 12 1159
SPMM,11,12,0 12 1158
SPMM,12,12,0 12 1157
SPMM,13,12,0 12 1156
SPMM,14,12,0 12 1155
DLACPY,11,21 12 1154
SPMM,1,11,0 12 1153
SPMM,2,11,0 12 1152
SPMM,3,11,0 12 1151
SPMM,4,11,0 12 1150
SPMM,5,11,0 12 1149
SPMM,6,11,0 12 1148
SPMM,7,11,0 12 1147
SPMM,8,11,0 12 1146
SPMM,9,11,0 12 1145
SPMM,10,11,0 12 1144
SPMM,11,11,0 12 1143
SPMM,12,11,0 12 1142
SPMM,13,11,0 12 1141
SPMM,14,11,0 12 1140
DLACPY,10,21 12 1139
SPMM,2,10,0 12 1138
SPMM,3,10,0 12 1137
SPMM,4,10,0 12 1136
SPMM,5,10,0 12 1135
SPMM,6,10,0 12 1134
SPMM,7,10,0 12 1133
SPMM,8,10,0 12 1132
SPMM,9,10,0 12 1131
SPMM,10,10,0 12 1130
SPMM,11,10,0 12 1129
SPMM,12,10,0 12 1128
SPMM,13,10,0 12 1127
SPMM,14,10,0 12 1126
DLACPY,9,21 12 1125
SPMM,2,9,0 12 1124
SPMM,3,9,0 12 1123
SPMM,4,9,0 12 1122
SPMM,5,9,0 12 1121
SPMM,6,9,0 12 1120
SPMM,7,9,0 12 1119
SPMM,8,9,0 12 1118
SPMM,9,9,0 12 1117
SPMM,10,9,0 12 1116
SPMM,11,9,0 12 1115
SPMM,12,9,0 12 1114
SPMM,13,9,0 12 1113
SPMM,14,9,0 12 1112
DLACPY,8,21 12 1111
SPMM,2,8,0 12 1110
SPMM,3,8,0 12 1109
SPMM,4,8,0 12 1108
SPMM,5,8,0 12 1107
SPMM,6,8,0 12 1106
SPMM,7,8,0 12 1105
SPMM,8,8,0 12 1104
SPMM,9,8,0 12 1103
SPMM,10,8,0 12 1102
SPMM,11,8,0 12 1101
SPMM,12,8,0 12 1100
SPMM,13,8,0 12 1099
SPMM,14,8,0 12 1098
DLACPY,7,21 12 1097
SPMM,3,7,0 12 1096
SPMM,4,7,0 12 1095
SPMM,5,7,0 12 1094
SPMM,6,7,0 12 1093
SPMM,7,7,0 12 1092
SPMM,8,7,0 12 1091
SPMM,9,7,0 12 1090
SPMM,10,7,0 12 1089
SPMM,11,7,0 12 1088
SPMM,12,7,0 12 1087
SPMM,13,7,0 12 1086
SPMM,14,7,0 12 1085
DLACPY,6,21 12 1084
SPMM,4,6,0 12 1083
SPMM,5,6,0 12 1082
SPMM,6,6,0 12 1081
SPMM,7,6,0 12 1080
SPMM,8,6,0 12 1079
SPMM,9,6,0 12 1078
SPMM,10,6,0 12 1077
SPMM,11,6,0 12 1076
SPMM,12,6,0 12 1075
SPMM,13,6,0 12 1074
SPMM,14,6,0 12 1073
DLACPY,5,21 12 1072
SPMM,4,5,0 12 1071
SPMM,5,5,0 12 1070
SPMM,6,5,0 12 1069
SPMM,7,5,0 12 1068
SPMM,8,5,0 12 1067
SPMM,9,5,0 12 1066
SPMM,10,5,0 12 1065
SPMM,11,5,0 12 1064
SPMM,12,5,0 12 1063
SPMM,13,5,0 12 1062
SPMM,14,5,0 12 1061
DLACPY,4,21 12 1060
SPMM,3,4,0 12 1059
SPMM,4,4,0 12 1058
SPMM,5,4,0 12 1057
SPMM,6,4,0 12 1056
SPMM,7,4,0 12 1055
SPMM,8,4,0 12 1054
SPMM,9,4,0 12 1053
SPMM,10,4,0 12 1052
SPMM,11,4,0 12 1051
SPMM,12,4,0 12 1050
SPMM,13,4,0 12 1049
SPMM,14,4,0 12 1048
DLACPY,3,21 12 1047
SPMM,2,3,0 12 1046
SPMM,3,3,0 12 1045
SPMM,4,3,0 12 1044
SPMM,7,3,0 12 1043
SPMM,8,3,0 12 1042
SPMM,9,3,0 12 1041
SPMM,10,3,0 12 1040
SPMM,11,3,0 12 1039
SPMM,12,3,0 12 1038
SPMM,13,3,0 12 1037
SPMM,14,3,0 12 1036
DLACPY,2,21 12 1035
SPMM,1,2,0 12 1034
SPMM,2,2,0 12 1033
SPMM,3,2,0 12 1032
SPMM,8,2,0 12 1031
SPMM,9,2,0 12 1030
SPMM,10,2,0 12 1029
SPMM,11,2,0 12 1028
SPMM,12,2,0 12 1027
SPMM,14,2,0 12 1026
DLACPY,1,21 12 1025
SPMM,0,1,0 12 1024
SPMM,1,1,0 12 1023
SPMM,2,1,0 12 1022
SPMM,11,1,0 12 1021
DLACPY,0,21 12 1020
SPMM,0,0,0 12 1019
SPMM,1,0,0 12 1018
SPMM,32,15,0 14 1017
SPMM,33,15,0 14 1016
SPMM,34,15,0 14 1015
SPMM,35,15,0 14 1014
SPMM,36,15,0 14 1013
SPMM,37,15,0 14 1012
SPMM,38,15,0 14 1011
SPMM,39,15,0 14 1010
SPMM,40,15,0 14 1009
SPMM,41,15,0 14 1008
SPMM,42,15,0 14 1007
SPMM,43,15,0 14 1006
SPMM,44,15,0 14 1005
SPMM,45,15,0 14 1004
SPMM,46,15,0 14 1003
SPMM,47,15,0 14 1002
SPMM,18,0,0 13 1001
SPMM,19,0,0 13 1000
SPMM,20,0,0 13 999
SPMM,24,0,0 13 998
SPMM,25,0,0 13 997
SPMM,26,0,0 13 996
SPMM,18,1,0 13 995
SPMM,19,1,0 13 994
SPMM,20,1,0 13 993
SPMM,21,1,0 13 992
SPMM,24,1,0 13 991
SPMM,25,1,0 13 990
SPMM,26,1,0 13 989
SPMM,18,2,0 13 988
SPMM,19,2,0 13 987
SPMM,20,2,0 13 986
SPMM,21,2,0 13 985
SPMM,24,2,0 13 984
SPMM,25,2,0 13 983
SPMM,26,2,0 13 982
SPMM,18,3,0 13 981
SPMM,19,3,0 13 980
SPMM,20,3,0 13 979
SPMM,21,3,0 13 978
SPMM,24,3,0 13 977
SPMM,25,3,0 13 976
SPMM,26,3,0 13 975
SPMM,18,4,0 13 974
SPMM,19,4,0 13 973
SPMM,20,4,0 13 972
SPMM,21,4,0 13 971
SPMM,24,4,0 13 970
SPMM,25,4,0 13 969
SPMM,26,4,0 13 968
SPMM,18,5,0 13 967
SPMM,19,5,0 13 966
SPMM,20,5,0 13 965
SPMM,21,5,0 13 964
SPMM,24,5,0 13 963
SPMM,25,5,0 13 962
SPMM,26,5,0 13 961
SPMM,18,14,0 13 960
SPMM,19,14,0 13 959
SPMM,20,14,0 13 958
SPMM,21,14,0 13 957
SPMM,23,14,0 13 956
SPMM,24,14,0 13 955
SPMM,25,14,0 13 954
SPMM,26,14,0 13 953
SPMM,16,15,0 13 952
SPMM,18,15,0 13 951
SPMM,21,15,0 13 950
SPMM,22,15,0 13 949
SPMM,23,15,0 13 948
SPMM,24,15,0 13 947
SPMM,26,15,0 13 946
SPMM,27,15,0 13 945
SPMM,28,15,0 13 944
SPMM,29,15,0 13 943
SPMM,30,15,0 13 942
SPMM,31,15,0 13 941
XY,16,20 4 940
XY,17,20 4 939
XY,18,20 4 938
XY,19,20 4 937
XY,20,20 4 936
XY,21,20 4 935
XY,22,20 4 934
XY,23,20 4 933
XY,24,20 4 932
XY,25,20 4 931
XY,26,20 4 930
XY,27,20 4 929
XY,28,20 4 928
XY,29,20 4 927
XY,30,20 4 926
XY,31,20 4 925
DLACPY,31,21 41 924
SPMM,16,31,0 41 923
SPMM,17,31,0 41 922
SPMM,18,31,0 41 921
SPMM,19,31,0 41 920
SPMM,20,31,0 41 919
SPMM,21,31,0 41 918
SPMM,22,31,0 41 917
SPMM,23,31,0 41 916
SPMM,24,31,0 41 915
SPMM,25,31,0 41 914
SPMM,26,31,0 41 913
SPMM,27,31,0 41 912
SPMM,28,31,0 41 911
SPMM,29,31,0 41 910
SPMM,30,31,0 41 909
SPMM,31,31,0 41 908
DLACPY,30,21 41 907
SPMM,16,30,0 41 906
SPMM,17,30,0 41 905
SPMM,18,30,0 41 904
SPMM,21,30,0 41 903
SPMM,22,30,0 41 902
SPMM,23,30,0 41 901
SPMM,24,30,0 41 900
SPMM,26,30,0 41 899
SPMM,27,30,0 41 898
SPMM,28,30,0 41 897
SPMM,29,30,0 41 896
SPMM,30,30,0 41 895
SPMM,31,30,0 41 894
DLACPY,29,21 41 893
SPMM,16,29,0 41 892
SPMM,17,29,0 41 891
SPMM,18,29,0 41 890
SPMM,21,29,0 41 889
SPMM,22,29,0 41 888
SPMM,23,29,0 41 887
SPMM,24,29,0 41 886
SPMM,26,29,0 41 885
SPMM,27,29,0 41 884
SPMM,28,29,0 41 883
SPMM,29,29,0 41 882
SPMM,30,29,0 41 881
SPMM,31,29,0 41 880
DLACPY,28,21 41 879
SPMM,16,28,0 41 878
SPMM,17,28,0 41 877
SPMM,18,28,0 41 876
SPMM,21,28,0 41 875
SPMM,22,28,0 41 874
SPMM,23,28,0 41 873
SPMM,24,28,0 41 872
SPMM,26,28,0 41 871
SPMM,27,28,0 41 870
SPMM,28,28,0 41 869
SPMM,29,28,0 41 868
SPMM,30,28,0 41 867
SPMM,31,28,0 41 866
DLACPY,27,21 41 865
SPMM,16,27,0 41 864
SPMM,17,27,0 41 863
SPMM,21,27,0 41 862
SPMM,22,27,0 41 861
SPMM,23,27,0 41 860
SPMM,26,27,0 41 859
SPMM,27,27,0 41 858
SPMM,28,27,0 41 857
SPMM,29,27,0 41 856
SPMM,30,27,0 41 855
SPMM,31,27,0 41 854
DLACPY,26,21 41 853
SPMM,16,26,0 41 852
SPMM,17,26,0 41 851
SPMM,18,26,0 41 850
SPMM,19,26,0 41 849
SPMM,20,26,0 41 848
SPMM,21,26,0 41 847
SPMM,22,26,0 41 846
SPMM,23,26,0 41 845
SPMM,24,26,0 41 844
SPMM,25,26,0 41 843
SPMM,26,26,0 41 842
SPMM,27,26,0 41 841
SPMM,28,26,0 41 840
SPMM,29,26,0 41 839
SPMM,30,26,0 41 838
SPMM,31,26,0 41 837
DLACPY,25,21 41 836
SPMM,18,25,0 41 835
SPMM,19,25,0 41 834
SPMM,20,25,0 41 833
SPMM,21,25,0 41 832
SPMM,24,25,0 41 831
SPMM,25,25,0 41 830
SPMM,26,25,0 41 829
SPMM,31,25,0 41 828
DLACPY,24,21 41 827
SPMM,16,24,0 41 826
SPMM,17,24,0 41 825
SPMM,18,24,0 41 824
SPMM,19,24,0 41 823
SPMM,20,24,0 41 822
SPMM,21,24,0 41 821
SPMM,22,24,0 41 820
SPMM,23,24,0 41 819
SPMM,24,24,0 41 818
SPMM,25,24,0 41 817
SPMM,26,24,0 41 816
SPMM,28,24,0 41 815
SPMM,29,24,0 41 814
SPMM,30,24,0 41 813
SPMM,31,24,0 41 812
DLACPY,23,21 41 811
SPMM,16,23,0 41 810
SPMM,17,23,0 41 809
SPMM,18,23,0 41 808
SPMM,21,23,0 41 807
SPMM,22,23,0 41 806
SPMM,23,23,0 41 805
SPMM,24,23,0 41 804
SPMM,26,23,0 41 803
SPMM,27,23,0 41 802
SPMM,28,23,0 41 801
SPMM,29,23,0 41 800
SPMM,30,23,0 41 799
SPMM,31,23,0 41 798
DLACPY,22,21 41 797
SPMM,16,22,0 41 796
SPMM,18,22,0 41 795
SPMM,21,22,0 41 794
SPMM,22,22,0 41 793
SPMM,23,22,0 41 792
SPMM,24,22,0 41 791
SPMM,26,22,0 41 790
SPMM,27,22,0 41 789
SPMM,28,22,0 41 788
SPMM,29,22,0 41 787
SPMM,30,22,0 41 786
SPMM,31,22,0 41 785
DLACPY,21,21 41 784
SPMM,18,21,0 41 783
SPMM,19,21,0 41 782
SPMM,20,21,0 41 781
SPMM,21,21,0 41 780
SPMM,22,21,0 41 779
SPMM,23,21,0 41 778
SPMM,24,21,0 41 777
SPMM,25,21,0 41 776
SPMM,26,21,0 41 775
SPMM,27,21,0 41 774
SPMM,28,21,0 41 773
SPMM,29,21,0 41 772
SPMM,30,21,0 41 771
SPMM,31,21,0 41 770
DLACPY,20,21 41 769
SPMM,18,20,0 41 768
SPMM,19,20,0 41 767
SPMM,20,20,0 41 766
SPMM,21,20,0 41 765
SPMM,24,20,0 41 764
SPMM,25,20,0 41 763
SPMM,26,20,0 41 762
SPMM,31,20,0 41 761
DLACPY,19,21 41 760
SPMM,18,19,0 41 759
SPMM,19,19,0 41 758
SPMM,20,19,0 41 757
SPMM,21,19,0 41 756
SPMM,24,19,0 41 755
SPMM,25,19,0 41 754
SPMM,26,19,0 41 753
SPMM,31,19,0 41 752
DLACPY,18,21 41 751
SPMM,16,18,0 41 750
SPMM,17,18,0 41 749
SPMM,18,18,0 41 748
SPMM,19,18,0 41 747
SPMM,20,18,0 41 746
SPMM,21,18,0 41 745
SPMM,22,18,0 41 744
SPMM,23,18,0 41 743
SPMM,24,18,0 41 742
SPMM,25,18,0 41 741
SPMM,26,18,0 41 740
SPMM,28,18,0 41 739
SPMM,29,18,0 41 738
SPMM,30,18,0 41 737
SPMM,31,18,0 41 736
DLACPY,17,21 41 735
SPMM,16,17,0 41 734
SPMM,17,17,0 41 733
SPMM,18,17,0 41 732
SPMM,23,17,0 41 731
SPMM,24,17,0 41 730
SPMM,26,17,0 41 729
SPMM,27,17,0 41 728
SPMM,28,17,0 41 727
SPMM,29,17,0 41 726
SPMM,30,17,0 41 725
SPMM,31,17,0 41 724
DLACPY,16,21 41 723
SPMM,16,16,0 41 722
SPMM,17,16,0 41 721
SPMM,18,16,0 41 720
SPMM,22,16,0 41 719
SPMM,23,16,0 41 718
SPMM,24,16,0 41 717
SPMM,26,16,0 41 716
SPMM,27,16,0 41 715
SPMM,28,16,0 41 714
SPMM,29,16,0 41 713
SPMM,30,16,0 41 712
SPMM,31,16,0 41 711
SPMM,15,16,0 54 710
SPMM,0,18,0 54 709
SPMM,1,18,0 54 708
SPMM,2,18,0 54 707
SPMM,3,18,0 54 706
SPMM,4,18,0 54 705
SPMM,5,18,0 54 704
SPMM,14,18,0 54 703
SPMM,15,18,0 54 702
SPMM,0,19,0 54 701
SPMM,1,19,0 54 700
SPMM,2,19,0 54 699
SPMM,3,19,0 54 698
SPMM,4,19,0 54 697
SPMM,5,19,0 54 696
SPMM,14,19,0 54 695
SPMM,0,20,0 54 694
SPMM,1,20,0 54 693
SPMM,2,20,0 54 692
SPMM,3,20,0 54 691
SPMM,4,20,0 54 690
SPMM,5,20,0 54 689
SPMM,14,20,0 54 688
SPMM,1,21,0 54 687
SPMM,2,21,0 54 686
SPMM,3,21,0 54 685
SPMM,4,21,0 54 684
SPMM,5,21,0 54 683
SPMM,14,21,0 54 682
SPMM,15,21,0 54 681
SPMM,15,22,0 54 680
SPMM,14,23,0 54 679
SPMM,15,23,0 54 678
SPMM,0,24,0 54 677
SPMM,1,24,0 54 676
SPMM,2,24,0 54 675
SPMM,3,24,0 54 674
SPMM,4,24,0 54 673
SPMM,5,24,0 54 672
SPMM,14,24,0 54 671
SPMM,15,24,0 54 670
SPMM,0,25,0 54 669
SPMM,1,25,0 54 668
SPMM,2,25,0 54 667
SPMM,3,25,0 54 666
SPMM,4,25,0 54 665
SPMM,5,25,0 54 664
SPMM,14,25,0 54 663
SPMM,0,26,0 54 662
SPMM,1,26,0 54 661
SPMM,2,26,0 54 660
SPMM,3,26,0 54 659
SPMM,4,26,0 54 658
SPMM,5,26,0 54 657
SPMM,14,26,0 54 656
SPMM,15,26,0 54 655
SPMM,15,27,0 54 654
SPMM,15,28,0 54 653
SPMM,15,29,0 54 652
SPMM,15,30,0 54 651
SPMM,15,31,0 54 650
SPMM,48,16,0 42 649
SPMM,49,16,0 42 648
SPMM,50,16,0 42 647
SPMM,48,17,0 42 646
SPMM,49,17,0 42 645
SPMM,50,17,0 42 644
SPMM,48,18,0 42 643
SPMM,49,18,0 42 642
SPMM,50,18,0 42 641
SPMM,50,19,0 42 640
SPMM,49,20,0 42 639
SPMM,48,21,0 42 638
SPMM,49,21,0 42 637
SPMM,50,21,0 42 636
SPMM,48,22,0 42 635
SPMM,49,22,0 42 634
SPMM,50,22,0 42 633
SPMM,48,23,0 42 632
SPMM,49,23,0 42 631
SPMM,50,23,0 42 630
SPMM,48,24,0 42 629
SPMM,49,24,0 42 628
SPMM,50,24,0 42 627
SPMM,49,25,0 42 626
SPMM,50,25,0 42 625
SPMM,48,26,0 42 624
SPMM,49,26,0 42 623
SPMM,50,26,0 42 622
SPMM,48,27,0 42 621
SPMM,49,27,0 42 620
SPMM,50,27,0 42 619
SPMM,48,28,0 42 618
SPMM,49,28,0 42 617
SPMM,50,28,0 42 616
SPMM,48,29,0 42 615
SPMM,49,29,0 42 614
SPMM,50,29,0 42 613
SPMM,48,30,0 42 612
SPMM,49,30,0 42 611
SPMM,50,30,0 42 610
SPMM,48,31,0 42 609
SPMM,49,31,0 42 608
SPMM,50,31,0 42 607
XY,48,20 15 606
DLACPY,48,21 15 605
XY,49,20 15 604
DLACPY,49,21 15 603
XY,50,20 15 602
DLACPY,50,21 15 601
SPMM,15,50,0 55 600
SPMM,15,49,0 55 599
SPMM,15,48,0 55 598
SPMM,16,50,0 16 597
SPMM,17,50,0 16 596
SPMM,18,50,0 16 595
SPMM,19,50,0 16 594
SPMM,21,50,0 16 593
SPMM,22,50,0 16 592
SPMM,23,50,0 16 591
SPMM,24,50,0 16 590
SPMM,25,50,0 16 589
SPMM,26,50,0 16 588
SPMM,27,50,0 16 587
SPMM,28,50,0 16 586
SPMM,29,50,0 16 585
SPMM,30,50,0 16 584
SPMM,31,50,0 16 583
SPMM,16,49,0 16 582
SPMM,17,49,0 16 581
SPMM,18,49,0 16 580
SPMM,20,49,0 16 579
SPMM,21,49,0 16 578
SPMM,22,49,0 16 577
SPMM,23,49,0 16 576
SPMM,24,49,0 16 575
SPMM,25,49,0 16 574
SPMM,26,49,0 16 573
SPMM,27,49,0 16 572
SPMM,28,49,0 16 571
SPMM,29,49,0 16 570
SPMM,30,49,0 16 569
SPMM,31,49,0 16 568
SPMM,16,48,0 16 567
SPMM,17,48,0 16 566
SPMM,18,48,0 16 565
SPMM,21,48,0 16 564
SPMM,22,48,0 16 563
SPMM,23,48,0 16 562
SPMM,24,48,0 16 561
SPMM,26,48,0 16 560
SPMM,27,48,0 16 559
SPMM,28,48,0 16 558
SPMM,29,48,0 16 557
SPMM,30,48,0 16 556
SPMM,31,48,0 16 555
XTY,31,15,21 43 554
XTY,30,14,21 43 553
XTY,29,13,21 43 552
XTY,28,12,21 43 551
XTY,27,11,21 43 550
XTY,26,10,21 43 549
XTY,24,8,21 43 548
XTY,23,7,21 43 547
XTY,22,6,21 43 546
XTY,21,5,21 43 545
XTY,18,2,21 43 544
XTY,17,1,21 43 543
XTY,16,0,21 43 542
XTY,25,9,21 43 541
XTY,20,4,21 43 540
XTY,19,3,21 43 539
SPMM,32,50,0 17 538
SPMM,33,50,0 17 537
SPMM,34,50,0 17 536
SPMM,35,50,0 17 535
SPMM,36,50,0 17 534
SPMM,37,50,0 17 533
SPMM,38,50,0 17 532
SPMM,39,50,0 17 531
SPMM,40,50,0 17 530
SPMM,41,50,0 17 529
SPMM,42,50,0 17 528
SPMM,43,50,0 17 527
SPMM,44,50,0 17 526
SPMM,45,50,0 17 525
SPMM,46,50,0 17 524
SPMM,47,50,0 17 523
SPMM,32,49,0 17 522
SPMM,33,49,0 17 521
SPMM,34,49,0 17 520
SPMM,35,49,0 17 519
SPMM,36,49,0 17 518
SPMM,37,49,0 17 517
SPMM,38,49,0 17 516
SPMM,39,49,0 17 515
SPMM,40,49,0 17 514
SPMM,41,49,0 17 513
SPMM,42,49,0 17 512
SPMM,43,49,0 17 511
SPMM,44,49,0 17 510
SPMM,45,49,0 17 509
SPMM,46,49,0 17 508
SPMM,47,49,0 17 507
SPMM,32,48,0 17 506
SPMM,33,48,0 17 505
SPMM,34,48,0 17 504
SPMM,35,48,0 17 503
SPMM,36,48,0 17 502
SPMM,37,48,0 17 501
SPMM,38,48,0 17 500
SPMM,39,48,0 17 499
SPMM,40,48,0 17 498
SPMM,41,48,0 17 497
SPMM,42,48,0 17 496
SPMM,43,48,0 17 495
SPMM,44,48,0 17 494
SPMM,45,48,0 17 493
SPMM,46,48,0 17 492
SPMM,47,48,0 17 491
SPMM,32,16,0 52 490
SPMM,33,16,0 52 489
SPMM,34,16,0 52 488
SPMM,35,16,0 52 487
SPMM,36,16,0 52 486
SPMM,37,16,0 52 485
SPMM,38,16,0 52 484
SPMM,39,16,0 52 483
SPMM,40,16,0 52 482
SPMM,41,16,0 52 481
SPMM,42,16,0 52 480
SPMM,43,16,0 52 479
SPMM,44,16,0 52 478
SPMM,45,16,0 52 477
SPMM,46,16,0 52 476
SPMM,47,16,0 52 475
SPMM,32,17,0 52 474
SPMM,33,17,0 52 473
SPMM,34,17,0 52 472
SPMM,35,17,0 52 471
SPMM,36,17,0 52 470
SPMM,37,17,0 52 469
SPMM,38,17,0 52 468
SPMM,39,17,0 52 467
SPMM,40,17,0 52 466
SPMM,41,17,0 52 465
SPMM,42,17,0 52 464
SPMM,43,17,0 52 463
SPMM,44,17,0 52 462
SPMM,45,17,0 52 461
SPMM,46,17,0 52 460
SPMM,47,17,0 52 459
SPMM,32,18,0 52 458
SPMM,33,18,0 52 457
SPMM,34,18,0 52 456
SPMM,35,18,0 52 455
SPMM,36,18,0 52 454
SPMM,37,18,0 52 453
SPMM,38,18,0 52 452
SPMM,39,18,0 52 451
SPMM,40,18,0 52 450
SPMM,41,18,0 52 449
SPMM,42,18,0 52 448
SPMM,43,18,0 52 447
SPMM,44,18,0 52 446
SPMM,45,18,0 52 445
SPMM,46,18,0 52 444
SPMM,47,18,0 52 443
SPMM,38,19,0 52 442
SPMM,39,19,0 52 441
SPMM,41,19,0 52 440
SPMM,42,19,0 52 439
SPMM,43,19,0 52 438
SPMM,44,19,0 52 437
SPMM,45,19,0 52 436
SPMM,46,19,0 52 435
SPMM,47,19,0 52 434
SPMM,32,20,0 52 433
SPMM,33,20,0 52 432
SPMM,36,20,0 52 431
SPMM,40,20,0 52 430
SPMM,41,20,0 52 429
SPMM,42,20,0 52 428
SPMM,44,20,0 52 427
SPMM,45,20,0 52 426
SPMM,47,20,0 52 425
SPMM,32,21,0 52 424
SPMM,33,21,0 52 423
SPMM,34,21,0 52 422
SPMM,35,21,0 52 421
SPMM,36,21,0 52 420
SPMM,37,21,0 52 419
SPMM,38,21,0 52 418
SPMM,39,21,0 52 417
SPMM,40,21,0 52 416
SPMM,41,21,0 52 415
SPMM,42,21,0 52 414
SPMM,43,21,0 52 413
SPMM,44,21,0 52 412
SPMM,45,21,0 52 411
SPMM,46,21,0 52 410
SPMM,47,21,0 52 409
SPMM,32,22,0 52 408
SPMM,33,22,0 52 407
SPMM,34,22,0 52 406
SPMM,35,22,0 52 405
SPMM,36,22,0 52 404
SPMM,37,22,0 52 403
SPMM,38,22,0 52 402
SPMM,39,22,0 52 401
SPMM,40,22,0 52 400
SPMM,41,22,0 52 399
SPMM,42,22,0 52 398
SPMM,43,22,0 52 397
SPMM,44,22,0 52 396
SPMM,45,22,0 52 395
SPMM,46,22,0 52 394
SPMM,47,22,0 52 393
SPMM,32,23,0 52 392
SPMM,33,23,0 52 391
SPMM,34,23,0 52 390
SPMM,35,23,0 52 389
SPMM,36,23,0 52 388
SPMM,37,23,0 52 387
SPMM,38,23,0 52 386
SPMM,39,23,0 52 385
SPMM,40,23,0 52 384
SPMM,41,23,0 52 383
SPMM,42,23,0 52 382
SPMM,43,23,0 52 381
SPMM,44,23,0 52 380
SPMM,45,23,0 52 379
SPMM,46,23,0 52 378
SPMM,47,23,0 52 377
SPMM,32,24,0 52 376
SPMM,33,24,0 52 375
SPMM,34,24,0 52 374
SPMM,35,24,0 52 373
SPMM,36,24,0 52 372
SPMM,37,24,0 52 371
SPMM,38,24,0 52 370
SPMM,39,24,0 52 369
SPMM,40,24,0 52 368
SPMM,41,24,0 52 367
SPMM,42,24,0 52 366
SPMM,43,24,0 52 365
SPMM,44,24,0 52 364
SPMM,45,24,0 52 363
SPMM,46,24,0 52 362
SPMM,47,24,0 52 361
SPMM,32,25,0 52 360
SPMM,33,25,0 52 359
SPMM,36,25,0 52 358
SPMM,40,25,0 52 357
SPMM,41,25,0 52 356
SPMM,42,25,0 52 355
SPMM,43,25,0 52 354
SPMM,44,25,0 52 353
SPMM,45,25,0 52 352
SPMM,47,25,0 52 351
SPMM,32,26,0 52 350
SPMM,33,26,0 52 349
SPMM,34,26,0 52 348
SPMM,35,26,0 52 347
SPMM,36,26,0 52 346
SPMM,37,26,0 52 345
SPMM,38,26,0 52 344
SPMM,39,26,0 52 343
SPMM,40,26,0 52 342
SPMM,41,26,0 52 341
SPMM,42,26,0 52 340
SPMM,43,26,0 52 339
SPMM,44,26,0 52 338
SPMM,45,26,0 52 337
SPMM,46,26,0 52 336
SPMM,47,26,0 52 335
SPMM,32,27,0 52 334
SPMM,33,27,0 52 333
SPMM,34,27,0 52 332
SPMM,35,27,0 52 331
SPMM,36,27,0 52 330
SPMM,37,27,0 52 329
SPMM,38,27,0 52 328
SPMM,39,27,0 52 327
SPMM,40,27,0 52 326
SPMM,41,27,0 52 325
SPMM,42,27,0 52 324
SPMM,43,27,0 52 323
SPMM,44,27,0 52 322
SPMM,45,27,0 52 321
SPMM,46,27,0 52 320
SPMM,47,27,0 52 319
SPMM,32,28,0 52 318
SPMM,33,28,0 52 317
SPMM,34,28,0 52 316
SPMM,35,28,0 52 315
SPMM,36,28,0 52 314
SPMM,37,28,0 52 313
SPMM,38,28,0 52 312
SPMM,39,28,0 52 311
SPMM,40,28,0 52 310
SPMM,41,28,0 52 309
SPMM,42,28,0 52 308
SPMM,43,28,0 52 307
SPMM,44,28,0 52 306
SPMM,45,28,0 52 305
SPMM,46,28,0 52 304
SPMM,47,28,0 52 303
SPMM,32,29,0 52 302
SPMM,33,29,0 52 301
SPMM,34,29,0 52 300
SPMM,35,29,0 52 299
SPMM,36,29,0 52 298
SPMM,37,29,0 52 297
SPMM,38,29,0 52 296
SPMM,39,29,0 52 295
SPMM,40,29,0 52 294
SPMM,41,29,0 52 293
SPMM,42,29,0 52 292
SPMM,43,29,0 52 291
SPMM,44,29,0 52 290
SPMM,45,29,0 52 289
SPMM,46,29,0 52 288
SPMM,47,29,0 52 287
SPMM,32,30,0 52 286
SPMM,33,30,0 52 285
SPMM,34,30,0 52 284
SPMM,35,30,0 52 283
SPMM,36,30,0 52 282
SPMM,37,30,0 52 281
SPMM,38,30,0 52 280
SPMM,39,30,0 52 279
SPMM,40,30,0 52 278
SPMM,41,30,0 52 277
SPMM,42,30,0 52 276
SPMM,43,30,0 52 275
SPMM,44,30,0 52 274
SPMM,45,30,0 52 273
SPMM,46,30,0 52 272
SPMM,47,30,0 52 271
SPMM,32,31,0 52 270
XTY,32,0,21 52 269
SPMM,33,31,0 52 268
XTY,33,1,21 52 267
SPMM,34,31,0 52 266
XTY,34,2,21 52 265
SPMM,35,31,0 52 264
XTY,35,3,21 52 263
SPMM,36,31,0 52 262
XTY,36,4,21 52 261
SPMM,37,31,0 52 260
XTY,37,5,21 52 259
SPMM,38,31,0 52 258
XTY,38,6,21 52 257
SPMM,39,31,0 52 256
XTY,39,7,21 52 255
SPMM,40,31,0 52 254
XTY,40,8,21 52 253
SPMM,41,31,0 52 252
XTY,41,9,21 52 251
SPMM,42,31,0 52 250
XTY,42,10,21 52 249
SPMM,43,31,0 52 248
XTY,43,11,21 52 247
SPMM,44,31,0 52 246
XTY,44,12,21 52 245
SPMM,45,31,0 52 244
XTY,45,13,21 52 243
SPMM,46,31,0 52 242
XTY,46,14,21 52 241
SPMM,47,31,0 52 240
XTY,47,15,21 52 239
SPMM,48,50,0 18 238
SPMM,49,50,0 18 237
SPMM,50,50,0 18 236
SPMM,48,49,0 18 235
SPMM,49,49,0 18 234
SPMM,50,49,0 18 233
SPMM,48,48,0 18 232
SPMM,49,48,0 18 231
SPMM,50,48,0 18 230
SPMM,48,15,0 44 229
XTY,48,0,21 44 228
SPMM,49,15,0 44 227
XTY,49,1,21 44 226
SPMM,50,15,0 44 225
XTY,50,2,21 44 224
XTY,15,15,21 56 223
XTY,14,14,21 56 222
XTY,5,5,21 56 221
XTY,4,4,21 56 220
XTY,3,3,21 56 219
XTY,2,2,21 56 218
XTY,1,1,21 56 217
XTY,0,0,21 56 216
XTY,11,11,21 56 215
XTY,12,12,21 56 214
XTY,10,10,21 56 213
XTY,9,9,21 56 212
XTY,8,8,21 56 211
XTY,13,13,21 56 210
XTY,7,7,21 56 209
XTY,6,6,21 56 208
RED,XAXBUF,0 56 207
SPEUPDATE,XAX 56 206
EIGEN 56 205
XY,0,21 59 204
DLACPY,0,22 59 203
XY,1,21 59 202
DLACPY,1,22 59 201
XY,2,21 59 200
DLACPY,2,22 59 199
XY,3,21 59 198
DLACPY,3,22 59 197
XY,4,21 59 196
DLACPY,4,22 59 195
XY,5,21 59 194
DLACPY,5,22 59 193
XY,6,21 59 192
DLACPY,6,22 59 191
XY,7,21 59 190
DLACPY,7,22 59 189
XY,8,21 59 188
DLACPY,8,22 59 187
XY,9,21 59 186
DLACPY,9,22 59 185
XY,10,21 59 184
DLACPY,10,22 59 183
XY,11,21 59 182
DLACPY,11,22 59 181
XY,12,21 59 180
DLACPY,12,22 59 179
XY,13,21 59 178
DLACPY,13,22 59 177
XY,14,21 59 176
DLACPY,14,22 59 175
XY,15,21 59 174
DLACPY,15,22 59 173
XY,0,22 59 172
DLACPY,0,23 59 171
XY,1,22 59 170
DLACPY,1,23 59 169
XY,2,22 59 168
DLACPY,2,23 59 167
XY,3,22 59 166
DLACPY,3,23 59 165
XY,4,22 59 164
DLACPY,4,23 59 163
XY,5,22 59 162
DLACPY,5,23 59 161
XY,6,22 59 160
DLACPY,6,23 59 159
XY,7,22 59 158
DLACPY,7,23 59 157
XY,8,22 59 156
DLACPY,8,23 59 155
XY,9,22 59 154
DLACPY,9,23 59 153
XY,10,22 59 152
DLACPY,10,23 59 151
XY,11,22 59 150
DLACPY,11,23 59 149
XY,12,22 59 148
DLACPY,12,23 59 147
XY,13,22 59 146
DLACPY,13,23 59 145
XY,14,22 59 144
DLACPY,14,23 59 143
XY,15,22 59 142
DLACPY,15,23 59 141
XY,48,21 57 140
DLACPY,48,22 57 139
XY,49,21 57 138
DLACPY,49,22 57 137
XY,50,21 57 136
DLACPY,50,22 57 135
XY,16,22 57 134
DLACPY,16,23 57 133
XY,17,22 57 132
DLACPY,17,23 57 131
XY,18,22 57 130
DLACPY,18,23 57 129
XY,19,22 57 128
DLACPY,19,23 57 127
XY,20,22 57 126
DLACPY,20,23 57 125
XY,21,22 57 124
DLACPY,21,23 57 123
XY,22,22 57 122
DLACPY,22,23 57 121
XY,23,22 57 120
DLACPY,23,23 57 119
XY,24,22 57 118
DLACPY,24,23 57 117
XY,25,22 57 116
DLACPY,25,23 57 115
XY,26,22 57 114
DLACPY,26,23 57 113
XY,27,22 57 112
DLACPY,27,23 57 111
XY,28,22 57 110
DLACPY,28,23 57 109
XY,29,22 57 108
DLACPY,29,23 57 107
XY,30,22 57 106
DLACPY,30,23 57 105
XY,31,22 57 104
DLACPY,31,23 57 103
XY,16,21 58 102
DLACPY,16,22 58 101
XY,17,21 58 100
DLACPY,17,22 58 99
XY,18,21 58 98
DLACPY,18,22 58 97
XY,19,21 58 96
DLACPY,19,22 58 95
XY,20,21 58 94
DLACPY,20,22 58 93
XY,21,21 58 92
DLACPY,21,22 58 91
XY,22,21 58 90
DLACPY,22,22 58 89
XY,23,21 58 88
DLACPY,23,22 58 87
XY,24,21 58 86
DLACPY,24,22 58 85
XY,25,21 58 84
DLACPY,25,22 58 83
XY,26,21 58 82
DLACPY,26,22 58 81
XY,27,21 58 80
DLACPY,27,22 58 79
XY,28,21 58 78
DLACPY,28,22 58 77
XY,29,21 58 76
DLACPY,29,22 58 75
XY,30,21 58 74
DLACPY,30,22 58 73
XY,31,21 58 72
DLACPY,31,22 58 71
XY,32,22 58 70
DLACPY,32,23 58 69
XY,33,22 58 68
DLACPY,33,23 58 67
XY,34,22 58 66
DLACPY,34,23 58 65
XY,35,22 58 64
DLACPY,35,23 58 63
XY,36,22 58 62
DLACPY,36,23 58 61
XY,37,22 58 60
DLACPY,37,23 58 59
XY,38,22 58 58
DLACPY,38,23 58 57
XY,39,22 58 56
DLACPY,39,23 58 55
XY,40,22 58 54
DLACPY,40,23 58 53
XY,41,22 58 52
DLACPY,41,23 58 51
XY,42,22 58 50
DLACPY,42,23 58 49
XY,43,22 58 48
DLACPY,43,23 58 47
XY,44,22 58 46
DLACPY,44,23 58 45
XY,45,22 58 44
DLACPY,45,23 58 43
XY,46,22 58 42
DLACPY,46,23 58 41
XY,47,22 58 40
DLACPY,47,23 58 39
XY,32,21 60 38
DLACPY,32,22 60 37
XY,33,21 60 36
DLACPY,33,22 60 35
XY,34,21 60 34
DLACPY,34,22 60 33
XY,35,21 60 32
DLACPY,35,22 60 31
XY,36,21 60 30
DLACPY,36,22 60 29
XY,37,21 60 28
DLACPY,37,22 60 27
XY,38,21 60 26
DLACPY,38,22 60 25
XY,39,21 60 24
DLACPY,39,22 60 23
XY,40,21 60 22
DLACPY,40,22 60 21
XY,41,21 60 20
DLACPY,41,22 60 19
XY,42,21 60 18
DLACPY,42,22 60 17
XY,43,21 60 16
DLACPY,43,22 60 15
XY,44,21 60 14
DLACPY,44,22 60 13
XY,45,21 60 12
DLACPY,45,22 60 11
XY,46,21 60 10
DLACPY,46,22 60 9
XY,47,21 60 8
DLACPY,47,22 60 7
XY,48,22 60 6
DLACPY,48,23 60 5
XY,49,22 60 4
DLACPY,49,23 60 3
XY,50,22 60 2
DLACPY,50,23 60 1
