1960
19,1,50,0,1,0,1960
19,1,49,0,1,0,1959
19,1,48,0,1,0,1958
19,1,45,0,1,0,1957
19,1,44,0,1,0,1956
19,1,43,0,1,0,1955
19,1,42,0,1,0,1954
19,1,35,0,1,0,1953
19,1,34,0,1,0,1952
19,1,33,0,1,0,1951
19,1,32,0,1,0,1950
19,1,29,0,1,0,1949
19,1,28,0,1,0,1948
19,1,27,0,1,0,1947
19,1,26,0,1,0,1946
19,1,25,0,1,0,1945
19,1,24,0,1,0,1944
19,1,23,0,1,0,1943
19,1,22,0,1,0,1942
19,1,21,0,1,0,1941
19,1,20,0,1,0,1940
19,1,19,0,1,0,1939
19,1,18,0,1,0,1938
19,1,15,0,1,0,1937
19,1,14,0,1,0,1936
19,1,13,0,1,0,1935
19,1,12,0,1,0,1934
19,1,11,0,1,0,1933
19,1,10,0,1,0,1932
19,1,7,0,1,0,1931
19,1,6,0,1,0,1930
19,1,3,0,1,0,1929
19,1,2,0,1,0,1928
19,1,1,0,1,0,1927
19,1,0,0,1,0,1926
22,0,1,_X,-1,0,1925
3,2,47,15,0,20,0,1924
22,0,1,_X,-1,0,1923
3,2,46,14,0,20,0,1922
22,0,1,_X,-1,0,1921
3,2,45,13,0,20,0,1920
22,0,1,_X,-1,0,1919
3,2,44,12,0,20,0,1918
22,0,1,_X,-1,0,1917
3,2,37,5,0,20,0,1916
22,0,1,_X,-1,0,1915
3,2,36,4,0,20,0,1914
22,0,1,_X,-1,0,1913
3,2,35,3,0,20,0,1912
22,0,1,_X,-1,0,1911
3,2,34,2,0,20,0,1910
22,0,1,_X,-1,0,1909
3,2,33,1,0,20,0,1908
22,0,1,_X,-1,0,1907
3,2,32,0,0,20,0,1906
22,0,1,_X,-1,0,1905
3,2,29,13,0,20,0,1904
22,0,1,_X,-1,0,1903
3,2,28,12,0,20,0,1902
22,0,1,_X,-1,0,1901
3,2,27,11,0,20,0,1900
22,0,1,_X,-1,0,1899
3,2,26,10,0,20,0,1898
22,0,1,_X,-1,0,1897
3,2,25,9,0,20,0,1896
22,0,1,_X,-1,0,1895
3,2,24,8,0,20,0,1894
22,0,1,_X,-1,0,1893
3,2,23,7,0,20,0,1892
22,0,1,_X,-1,0,1891
3,2,22,6,0,20,0,1890
22,0,1,_X,-1,0,1889
3,2,21,5,0,20,0,1888
22,0,1,_X,-1,0,1887
3,2,20,4,0,20,0,1886
22,0,1,_X,-1,0,1885
3,2,15,15,0,20,0,1884
22,0,1,_X,-1,0,1883
3,2,14,14,0,20,0,1882
22,0,1,_X,-1,0,1881
3,2,13,13,0,20,0,1880
22,0,1,_X,-1,0,1879
3,2,12,12,0,20,0,1878
22,0,1,_X,-1,0,1877
3,2,7,7,0,20,0,1876
22,0,1,_X,-1,0,1875
3,2,6,6,0,20,0,1874
19,1,47,0,1,1,1873
19,1,46,0,1,1,1872
19,1,41,0,1,1,1871
19,1,40,0,1,1,1870
19,1,39,0,1,1,1869
19,1,38,0,1,1,1868
19,1,37,0,1,1,1867
19,1,36,0,1,1,1866
19,1,31,0,1,1,1865
19,1,30,0,1,1,1864
19,1,17,0,1,1,1863
19,1,16,0,1,1,1862
19,1,9,0,1,1,1861
19,1,8,0,1,1,1860
19,1,5,0,1,1,1859
19,1,4,0,1,1,1858
22,0,1,_X,-1,1,1857
3,2,50,2,0,20,1,1856
22,0,1,_X,-1,1,1855
3,2,49,1,0,20,1,1854
22,0,1,_X,-1,1,1853
3,2,48,0,0,20,1,1852
22,0,1,_X,-1,1,1851
3,2,43,11,0,20,1,1850
22,0,1,_X,-1,1,1849
3,2,42,10,0,20,1,1848
22,0,1,_X,-1,1,1847
3,2,41,9,0,20,1,1846
22,0,1,_X,-1,1,1845
3,2,40,8,0,20,1,1844
22,0,1,_X,-1,1,1843
3,2,39,7,0,20,1,1842
22,0,1,_X,-1,1,1841
3,2,38,6,0,20,1,1840
22,0,1,_X,-1,1,1839
3,2,31,15,0,20,1,1838
22,0,1,_X,-1,1,1837
3,2,30,14,0,20,1,1836
22,0,1,_X,-1,1,1835
3,2,19,3,0,20,1,1834
22,0,1,_X,-1,1,1833
3,2,18,2,0,20,1,1832
22,0,1,_X,-1,1,1831
3,2,17,1,0,20,1,1830
22,0,1,_X,-1,1,1829
3,2,16,0,0,20,1,1828
22,0,1,_X,-1,1,1827
3,2,11,11,0,20,1,1826
22,0,1,_X,-1,1,1825
3,2,10,10,0,20,1,1824
22,0,1,_X,-1,1,1823
3,2,9,9,0,20,1,1822
22,0,1,_X,-1,1,1821
3,2,8,8,0,20,1,1820
22,0,1,_X,-1,1,1819
3,2,5,5,0,20,1,1818
22,0,1,_X,-1,1,1817
3,2,4,4,0,20,1,1816
22,0,1,_X,-1,1,1815
3,2,3,3,0,20,1,1814
22,0,1,_X,-1,1,1813
3,2,2,2,0,20,1,1812
22,0,1,_X,-1,1,1811
3,2,1,1,0,20,1,1810
22,0,1,_X,-1,1,1809
3,2,0,0,0,20,1,1808
4,1,0,1,XBXBUF,-1,1,1807
17,0,1,XBX,-1,1,1806
7,1,0,0,20,1,1805
18,0,1,XBX,-1,1,1804
5,1,18,0,20,1,1803
5,1,19,0,20,1,1802
5,1,20,0,20,1,1801
5,1,21,0,20,1,1800
5,1,34,0,20,1,1799
5,1,35,0,20,1,1798
5,1,36,0,20,1,1797
5,1,37,0,20,1,1796
5,1,44,0,20,1,1795
5,1,45,0,20,1,1794
5,1,48,0,20,1,1793
5,1,49,0,20,1,1792
7,1,49,0,21,20,1791
2,3,16,49,0,0,-1,20,1790
2,3,17,49,0,0,-1,20,1789
2,3,22,49,0,0,-1,20,1788
2,3,23,49,0,0,-1,20,1787
2,3,28,49,0,0,-1,20,1786
2,3,29,49,0,0,-1,20,1785
2,3,30,49,0,0,-1,20,1784
2,3,31,49,0,0,-1,20,1783
2,3,40,49,0,0,-1,20,1782
2,3,41,49,0,0,-1,20,1781
2,3,42,49,0,0,-1,20,1780
2,3,43,49,0,0,-1,20,1779
2,3,44,49,0,0,-1,20,1778
2,3,45,49,0,0,-1,20,1777
2,3,46,49,0,0,-1,20,1776
2,3,47,49,0,0,-1,20,1775
2,3,48,49,0,0,-1,20,1774
2,3,49,49,0,0,-1,20,1773
2,3,50,49,0,0,-1,20,1772
7,1,48,0,21,20,1771
2,3,16,48,0,0,-1,20,1770
2,3,17,48,0,0,-1,20,1769
2,3,22,48,0,0,-1,20,1768
2,3,23,48,0,0,-1,20,1767
2,3,28,48,0,0,-1,20,1766
2,3,29,48,0,0,-1,20,1765
2,3,30,48,0,0,-1,20,1764
2,3,31,48,0,0,-1,20,1763
2,3,40,48,0,0,-1,20,1762
2,3,41,48,0,0,-1,20,1761
2,3,42,48,0,0,-1,20,1760
2,3,43,48,0,0,-1,20,1759
2,3,44,48,0,0,-1,20,1758
2,3,45,48,0,0,-1,20,1757
2,3,46,48,0,0,-1,20,1756
2,3,47,48,0,0,-1,20,1755
2,3,48,48,0,0,-1,20,1754
2,3,49,48,0,0,-1,20,1753
2,3,50,48,0,0,-1,20,1752
7,1,45,0,21,24,1751
2,3,28,45,0,0,-1,24,1750
2,3,29,45,0,0,-1,24,1749
2,3,32,45,0,0,-1,24,1748
2,3,33,45,0,0,-1,24,1747
2,3,34,45,0,0,-1,24,1746
2,3,35,45,0,0,-1,24,1745
2,3,36,45,0,0,-1,24,1744
2,3,37,45,0,0,-1,24,1743
2,3,38,45,0,0,-1,24,1742
2,3,39,45,0,0,-1,24,1741
2,3,40,45,0,0,-1,24,1740
2,3,41,45,0,0,-1,24,1739
2,3,42,45,0,0,-1,24,1738
2,3,43,45,0,0,-1,24,1737
2,3,44,45,0,0,-1,24,1736
2,3,45,45,0,0,-1,24,1735
2,3,46,45,0,0,-1,24,1734
2,3,47,45,0,0,-1,24,1733
2,3,48,45,0,0,-1,24,1732
2,3,49,45,0,0,-1,24,1731
7,1,44,0,21,24,1730
2,3,28,44,0,0,-1,24,1729
2,3,29,44,0,0,-1,24,1728
2,3,32,44,0,0,-1,24,1727
2,3,33,44,0,0,-1,24,1726
2,3,34,44,0,0,-1,24,1725
2,3,35,44,0,0,-1,24,1724
2,3,36,44,0,0,-1,24,1723
2,3,37,44,0,0,-1,24,1722
2,3,38,44,0,0,-1,24,1721
2,3,39,44,0,0,-1,24,1720
2,3,40,44,0,0,-1,24,1719
2,3,41,44,0,0,-1,24,1718
2,3,42,44,0,0,-1,24,1717
2,3,43,44,0,0,-1,24,1716
2,3,44,44,0,0,-1,24,1715
2,3,45,44,0,0,-1,24,1714
2,3,46,44,0,0,-1,24,1713
2,3,47,44,0,0,-1,24,1712
2,3,48,44,0,0,-1,24,1711
2,3,49,44,0,0,-1,24,1710
7,1,35,0,21,37,1709
2,3,26,35,0,0,-1,37,1708
2,3,27,35,0,0,-1,37,1707
2,3,28,35,0,0,-1,37,1706
2,3,29,35,0,0,-1,37,1705
2,3,30,35,0,0,-1,37,1704
2,3,31,35,0,0,-1,37,1703
2,3,32,35,0,0,-1,37,1702
2,3,33,35,0,0,-1,37,1701
2,3,34,35,0,0,-1,37,1700
2,3,35,35,0,0,-1,37,1699
2,3,36,35,0,0,-1,37,1698
2,3,37,35,0,0,-1,37,1697
2,3,40,35,0,0,-1,37,1696
2,3,41,35,0,0,-1,37,1695
2,3,42,35,0,0,-1,37,1694
2,3,43,35,0,0,-1,37,1693
2,3,46,35,0,0,-1,37,1692
2,3,47,35,0,0,-1,37,1691
2,3,48,35,0,0,-1,37,1690
2,3,49,35,0,0,-1,37,1689
7,1,34,0,21,37,1688
2,3,26,34,0,0,-1,37,1687
2,3,27,34,0,0,-1,37,1686
2,3,28,34,0,0,-1,37,1685
2,3,29,34,0,0,-1,37,1684
2,3,30,34,0,0,-1,37,1683
2,3,31,34,0,0,-1,37,1682
2,3,32,34,0,0,-1,37,1681
2,3,33,34,0,0,-1,37,1680
2,3,34,34,0,0,-1,37,1679
2,3,35,34,0,0,-1,37,1678
2,3,36,34,0,0,-1,37,1677
2,3,37,34,0,0,-1,37,1676
2,3,40,34,0,0,-1,37,1675
2,3,41,34,0,0,-1,37,1674
2,3,42,34,0,0,-1,37,1673
2,3,43,34,0,0,-1,37,1672
2,3,46,34,0,0,-1,37,1671
2,3,47,34,0,0,-1,37,1670
2,3,48,34,0,0,-1,37,1669
2,3,49,34,0,0,-1,37,1668
7,1,21,0,21,32,1667
2,3,14,21,0,0,-1,32,1666
2,3,15,21,0,0,-1,32,1665
2,3,22,21,0,0,-1,32,1664
2,3,23,21,0,0,-1,32,1663
2,3,24,21,0,0,-1,32,1662
2,3,25,21,0,0,-1,32,1661
2,3,26,21,0,0,-1,32,1660
2,3,27,21,0,0,-1,32,1659
2,3,28,21,0,0,-1,32,1658
2,3,29,21,0,0,-1,32,1657
2,3,30,21,0,0,-1,32,1656
2,3,31,21,0,0,-1,32,1655
2,3,38,21,0,0,-1,32,1654
2,3,39,21,0,0,-1,32,1653
2,3,40,21,0,0,-1,32,1652
2,3,41,21,0,0,-1,32,1651
2,3,42,21,0,0,-1,32,1650
2,3,43,21,0,0,-1,32,1649
2,3,48,21,0,0,-1,32,1648
2,3,49,21,0,0,-1,32,1647
7,1,20,0,21,32,1646
2,3,14,20,0,0,-1,32,1645
2,3,24,20,0,0,-1,32,1644
2,3,25,20,0,0,-1,32,1643
2,3,26,20,0,0,-1,32,1642
2,3,31,20,0,0,-1,32,1641
2,3,40,20,0,0,-1,32,1640
2,3,41,20,0,0,-1,32,1639
2,3,42,20,0,0,-1,32,1638
2,3,49,20,0,0,-1,32,1637
5,1,6,0,20,3,1636
7,1,6,0,21,3,1635
2,3,4,6,0,0,-1,3,1634
2,3,5,6,0,0,-1,3,1633
2,3,6,6,0,0,-1,3,1632
2,3,7,6,0,0,-1,3,1631
2,3,8,6,0,0,-1,3,1630
2,3,9,6,0,0,-1,3,1629
2,3,10,6,0,0,-1,3,1628
2,3,11,6,0,0,-1,3,1627
2,3,12,6,0,0,-1,3,1626
2,3,13,6,0,0,-1,3,1625
2,3,14,6,0,0,-1,3,1624
5,1,7,0,20,3,1623
7,1,7,0,21,3,1622
2,3,3,7,0,0,-1,3,1621
2,3,4,7,0,0,-1,3,1620
2,3,5,7,0,0,-1,3,1619
2,3,6,7,0,0,-1,3,1618
2,3,7,7,0,0,-1,3,1617
2,3,8,7,0,0,-1,3,1616
2,3,9,7,0,0,-1,3,1615
2,3,10,7,0,0,-1,3,1614
2,3,11,7,0,0,-1,3,1613
2,3,12,7,0,0,-1,3,1612
2,3,13,7,0,0,-1,3,1611
2,3,14,7,0,0,-1,3,1610
5,1,26,0,20,3,1609
5,1,27,0,20,3,1608
5,1,30,0,20,3,1607
5,1,31,0,20,3,1606
7,1,31,0,21,29,1605
2,3,20,31,0,0,-1,29,1604
2,3,21,31,0,0,-1,29,1603
2,3,26,31,0,0,-1,29,1602
2,3,27,31,0,0,-1,29,1601
2,3,30,31,0,0,-1,29,1600
2,3,31,31,0,0,-1,29,1599
2,3,32,31,0,0,-1,29,1598
2,3,33,31,0,0,-1,29,1597
2,3,34,31,0,0,-1,29,1596
2,3,35,31,0,0,-1,29,1595
2,3,36,31,0,0,-1,29,1594
2,3,37,31,0,0,-1,29,1593
2,3,38,31,0,0,-1,29,1592
2,3,39,31,0,0,-1,29,1591
2,3,42,31,0,0,-1,29,1590
2,3,43,31,0,0,-1,29,1589
2,3,46,31,0,0,-1,29,1588
2,3,47,31,0,0,-1,29,1587
2,3,50,31,0,0,-1,29,1586
7,1,30,0,21,29,1585
2,3,21,30,0,0,-1,29,1584
2,3,26,30,0,0,-1,29,1583
2,3,27,30,0,0,-1,29,1582
2,3,30,30,0,0,-1,29,1581
2,3,31,30,0,0,-1,29,1580
2,3,32,30,0,0,-1,29,1579
2,3,33,30,0,0,-1,29,1578
2,3,34,30,0,0,-1,29,1577
2,3,35,30,0,0,-1,29,1576
2,3,36,30,0,0,-1,29,1575
2,3,37,30,0,0,-1,29,1574
2,3,38,30,0,0,-1,29,1573
2,3,39,30,0,0,-1,29,1572
2,3,42,30,0,0,-1,29,1571
2,3,43,30,0,0,-1,29,1570
2,3,46,30,0,0,-1,29,1569
2,3,47,30,0,0,-1,29,1568
2,3,50,30,0,0,-1,29,1567
7,1,27,0,21,33,1566
2,3,16,27,0,0,-1,33,1565
2,3,17,27,0,0,-1,33,1564
2,3,22,27,0,0,-1,33,1563
2,3,23,27,0,0,-1,33,1562
2,3,28,27,0,0,-1,33,1561
2,3,29,27,0,0,-1,33,1560
2,3,30,27,0,0,-1,33,1559
2,3,31,27,0,0,-1,33,1558
2,3,36,27,0,0,-1,33,1557
2,3,37,27,0,0,-1,33,1556
2,3,44,27,0,0,-1,33,1555
2,3,45,27,0,0,-1,33,1554
2,3,46,27,0,0,-1,33,1553
2,3,47,27,0,0,-1,33,1552
2,3,48,27,0,0,-1,33,1551
2,3,49,27,0,0,-1,33,1550
7,1,26,0,21,33,1549
2,3,16,26,0,0,-1,33,1548
2,3,17,26,0,0,-1,33,1547
2,3,18,26,0,0,-1,33,1546
2,3,19,26,0,0,-1,33,1545
2,3,22,26,0,0,-1,33,1544
2,3,23,26,0,0,-1,33,1543
2,3,24,26,0,0,-1,33,1542
2,3,25,26,0,0,-1,33,1541
2,3,28,26,0,0,-1,33,1540
2,3,29,26,0,0,-1,33,1539
2,3,30,26,0,0,-1,33,1538
2,3,31,26,0,0,-1,33,1537
2,3,36,26,0,0,-1,33,1536
2,3,37,26,0,0,-1,33,1535
2,3,44,26,0,0,-1,33,1534
2,3,45,26,0,0,-1,33,1533
2,3,46,26,0,0,-1,33,1532
2,3,47,26,0,0,-1,33,1531
2,3,48,26,0,0,-1,33,1530
2,3,49,26,0,0,-1,33,1529
5,1,4,0,20,2,1528
5,1,5,0,20,2,1527
5,1,12,0,20,2,1526
7,1,12,0,21,2,1525
2,3,2,12,0,0,-1,2,1524
2,3,3,12,0,0,-1,2,1523
2,3,8,12,0,0,-1,2,1522
2,3,9,12,0,0,-1,2,1521
2,3,10,12,0,0,-1,2,1520
2,3,11,12,0,0,-1,2,1519
2,3,12,12,0,0,-1,2,1518
2,3,13,12,0,0,-1,2,1517
5,1,13,0,20,2,1516
7,1,13,0,21,2,1515
2,3,3,13,0,0,-1,2,1514
2,3,8,13,0,0,-1,2,1513
2,3,9,13,0,0,-1,2,1512
2,3,10,13,0,0,-1,2,1511
2,3,11,13,0,0,-1,2,1510
2,3,12,13,0,0,-1,2,1509
2,3,13,13,0,0,-1,2,1508
5,1,14,0,20,2,1507
5,1,15,0,20,2,1506
5,1,16,0,20,2,1505
5,1,17,0,20,2,1504
5,1,24,0,20,2,1503
5,1,25,0,20,2,1502
5,1,38,0,20,2,1501
5,1,39,0,20,2,1500
2,3,4,13,0,0,-1,5,1499
2,3,5,13,0,0,-1,5,1498
2,3,4,12,0,0,-1,5,1497
2,3,5,12,0,0,-1,5,1496
5,1,2,0,20,5,1495
5,1,3,0,20,5,1494
5,1,10,0,20,5,1493
7,1,10,0,21,5,1492
2,3,2,10,0,0,-1,5,1491
2,3,3,10,0,0,-1,5,1490
2,3,4,10,0,0,-1,5,1489
2,3,5,10,0,0,-1,5,1488
2,3,6,10,0,0,-1,5,1487
2,3,7,10,0,0,-1,5,1486
2,3,8,10,0,0,-1,5,1485
2,3,9,10,0,0,-1,5,1484
2,3,10,10,0,0,-1,5,1483
2,3,11,10,0,0,-1,5,1482
2,3,12,10,0,0,-1,5,1481
2,3,13,10,0,0,-1,5,1480
2,3,14,10,0,0,-1,5,1479
5,1,11,0,20,5,1478
7,1,11,0,21,5,1477
2,3,2,11,0,0,-1,5,1476
2,3,3,11,0,0,-1,5,1475
2,3,4,11,0,0,-1,5,1474
2,3,5,11,0,0,-1,5,1473
2,3,6,11,0,0,-1,5,1472
2,3,7,11,0,0,-1,5,1471
2,3,8,11,0,0,-1,5,1470
2,3,9,11,0,0,-1,5,1469
2,3,10,11,0,0,-1,5,1468
2,3,11,11,0,0,-1,5,1467
2,3,12,11,0,0,-1,5,1466
2,3,13,11,0,0,-1,5,1465
2,3,14,11,0,0,-1,5,1464
2,3,6,13,0,0,-1,4,1463
2,3,7,13,0,0,-1,4,1462
2,3,14,13,0,0,-1,4,1461
2,3,6,12,0,0,-1,4,1460
2,3,7,12,0,0,-1,4,1459
2,3,14,12,0,0,-1,4,1458
5,1,0,0,20,4,1457
5,1,1,0,20,4,1456
5,1,8,0,20,4,1455
5,1,9,0,20,4,1454
5,1,22,0,20,4,1453
5,1,23,0,20,4,1452
5,1,28,0,20,4,1451
5,1,29,0,20,4,1450
5,1,32,0,20,4,1449
5,1,33,0,20,4,1448
5,1,50,0,20,4,1447
7,1,50,0,21,4,1446
2,3,48,50,0,0,-1,4,1445
2,3,49,50,0,0,-1,4,1444
2,3,50,50,0,0,-1,4,1443
7,1,33,0,21,26,1442
2,3,30,33,0,0,-1,26,1441
2,3,31,33,0,0,-1,26,1440
2,3,34,33,0,0,-1,26,1439
2,3,35,33,0,0,-1,26,1438
2,3,36,33,0,0,-1,26,1437
2,3,37,33,0,0,-1,26,1436
2,3,44,33,0,0,-1,26,1435
2,3,45,33,0,0,-1,26,1434
7,1,32,0,21,26,1433
2,3,30,32,0,0,-1,26,1432
2,3,31,32,0,0,-1,26,1431
2,3,34,32,0,0,-1,26,1430
2,3,35,32,0,0,-1,26,1429
2,3,36,32,0,0,-1,26,1428
2,3,37,32,0,0,-1,26,1427
2,3,44,32,0,0,-1,26,1426
2,3,45,32,0,0,-1,26,1425
7,1,29,0,21,26,1424
2,3,26,29,0,0,-1,26,1423
2,3,27,29,0,0,-1,26,1422
2,3,28,29,0,0,-1,26,1421
2,3,29,29,0,0,-1,26,1420
2,3,30,29,0,0,-1,26,1419
2,3,31,29,0,0,-1,26,1418
2,3,36,29,0,0,-1,26,1417
2,3,37,29,0,0,-1,26,1416
2,3,44,29,0,0,-1,26,1415
2,3,45,29,0,0,-1,26,1414
7,1,28,0,21,26,1413
2,3,26,28,0,0,-1,26,1412
2,3,27,28,0,0,-1,26,1411
2,3,28,28,0,0,-1,26,1410
2,3,29,28,0,0,-1,26,1409
2,3,30,28,0,0,-1,26,1408
2,3,31,28,0,0,-1,26,1407
2,3,36,28,0,0,-1,26,1406
2,3,37,28,0,0,-1,26,1405
2,3,44,28,0,0,-1,26,1404
2,3,45,28,0,0,-1,26,1403
2,3,32,28,0,0,-1,34,1402
2,3,33,28,0,0,-1,34,1401
2,3,32,29,0,0,-1,34,1400
2,3,33,29,0,0,-1,34,1399
2,3,50,26,0,0,-1,34,1398
2,3,50,27,0,0,-1,34,1397
2,3,16,30,0,0,-1,34,1396
2,3,17,30,0,0,-1,34,1395
2,3,16,31,0,0,-1,34,1394
2,3,17,31,0,0,-1,34,1393
7,1,19,0,21,34,1392
2,3,18,19,0,0,-1,34,1391
2,3,19,19,0,0,-1,34,1390
2,3,20,19,0,0,-1,34,1389
2,3,21,19,0,0,-1,34,1388
2,3,24,19,0,0,-1,34,1387
2,3,25,19,0,0,-1,34,1386
2,3,26,19,0,0,-1,34,1385
7,1,18,0,21,34,1384
2,3,16,18,0,0,-1,34,1383
2,3,17,18,0,0,-1,34,1382
2,3,18,18,0,0,-1,34,1381
2,3,19,18,0,0,-1,34,1380
2,3,20,18,0,0,-1,34,1379
2,3,21,18,0,0,-1,34,1378
2,3,22,18,0,0,-1,34,1377
2,3,23,18,0,0,-1,34,1376
2,3,24,18,0,0,-1,34,1375
2,3,25,18,0,0,-1,34,1374
2,3,26,18,0,0,-1,34,1373
2,3,48,18,0,0,-1,34,1372
2,3,49,18,0,0,-1,34,1371
2,3,32,18,0,0,-1,35,1370
2,3,33,18,0,0,-1,35,1369
2,3,20,32,0,0,-1,35,1368
2,3,21,32,0,0,-1,35,1367
2,3,20,33,0,0,-1,35,1366
2,3,21,33,0,0,-1,35,1365
7,1,25,0,21,35,1364
2,3,0,25,0,0,-1,35,1363
2,3,1,25,0,0,-1,35,1362
2,3,2,25,0,0,-1,35,1361
2,3,3,25,0,0,-1,35,1360
2,3,4,25,0,0,-1,35,1359
2,3,5,25,0,0,-1,35,1358
2,3,18,25,0,0,-1,35,1357
2,3,19,25,0,0,-1,35,1356
2,3,24,25,0,0,-1,35,1355
2,3,25,25,0,0,-1,35,1354
2,3,44,25,0,0,-1,35,1353
2,3,45,25,0,0,-1,35,1352
7,1,24,0,21,35,1351
2,3,0,24,0,0,-1,35,1350
2,3,1,24,0,0,-1,35,1349
2,3,2,24,0,0,-1,35,1348
2,3,3,24,0,0,-1,35,1347
2,3,4,24,0,0,-1,35,1346
2,3,5,24,0,0,-1,35,1345
2,3,16,24,0,0,-1,35,1344
2,3,17,24,0,0,-1,35,1343
2,3,18,24,0,0,-1,35,1342
2,3,19,24,0,0,-1,35,1341
2,3,24,24,0,0,-1,35,1340
2,3,25,24,0,0,-1,35,1339
2,3,44,24,0,0,-1,35,1338
2,3,45,24,0,0,-1,35,1337
2,3,4,20,0,0,-1,35,1336
2,3,5,20,0,0,-1,35,1335
2,3,4,21,0,0,-1,35,1334
2,3,5,21,0,0,-1,35,1333
2,3,48,28,0,0,-1,27,1332
2,3,49,28,0,0,-1,27,1331
2,3,48,29,0,0,-1,27,1330
2,3,49,29,0,0,-1,27,1329
2,3,40,32,0,0,-1,27,1328
2,3,41,32,0,0,-1,27,1327
2,3,46,32,0,0,-1,27,1326
2,3,47,32,0,0,-1,27,1325
2,3,48,32,0,0,-1,27,1324
2,3,49,32,0,0,-1,27,1323
2,3,40,33,0,0,-1,27,1322
2,3,41,33,0,0,-1,27,1321
2,3,46,33,0,0,-1,27,1320
2,3,47,33,0,0,-1,27,1319
2,3,48,33,0,0,-1,27,1318
2,3,49,33,0,0,-1,27,1317
7,1,37,0,21,27,1316
2,3,16,37,0,0,-1,27,1315
2,3,17,37,0,0,-1,27,1314
2,3,26,37,0,0,-1,27,1313
2,3,27,37,0,0,-1,27,1312
2,3,30,37,0,0,-1,27,1311
2,3,31,37,0,0,-1,27,1310
2,3,36,37,0,0,-1,27,1309
2,3,37,37,0,0,-1,27,1308
2,3,40,37,0,0,-1,27,1307
2,3,41,37,0,0,-1,27,1306
2,3,44,37,0,0,-1,27,1305
2,3,45,37,0,0,-1,27,1304
7,1,36,0,21,27,1303
2,3,16,36,0,0,-1,27,1302
2,3,17,36,0,0,-1,27,1301
2,3,26,36,0,0,-1,27,1300
2,3,27,36,0,0,-1,27,1299
2,3,30,36,0,0,-1,27,1298
2,3,31,36,0,0,-1,27,1297
2,3,36,36,0,0,-1,27,1296
2,3,37,36,0,0,-1,27,1295
2,3,40,36,0,0,-1,27,1294
2,3,41,36,0,0,-1,27,1293
2,3,44,36,0,0,-1,27,1292
2,3,45,36,0,0,-1,27,1291
2,3,22,36,0,0,-1,28,1290
2,3,23,36,0,0,-1,28,1289
2,3,28,36,0,0,-1,28,1288
2,3,29,36,0,0,-1,28,1287
2,3,42,36,0,0,-1,28,1286
2,3,43,36,0,0,-1,28,1285
2,3,22,37,0,0,-1,28,1284
2,3,23,37,0,0,-1,28,1283
2,3,28,37,0,0,-1,28,1282
2,3,29,37,0,0,-1,28,1281
2,3,42,37,0,0,-1,28,1280
2,3,43,37,0,0,-1,28,1279
2,3,22,28,0,0,-1,28,1278
2,3,23,28,0,0,-1,28,1277
2,3,40,28,0,0,-1,28,1276
2,3,41,28,0,0,-1,28,1275
2,3,46,28,0,0,-1,28,1274
2,3,47,28,0,0,-1,28,1273
2,3,50,28,0,0,-1,28,1272
2,3,22,29,0,0,-1,28,1271
2,3,23,29,0,0,-1,28,1270
2,3,40,29,0,0,-1,28,1269
2,3,41,29,0,0,-1,28,1268
2,3,46,29,0,0,-1,28,1267
2,3,47,29,0,0,-1,28,1266
2,3,50,29,0,0,-1,28,1265
2,3,22,32,0,0,-1,28,1264
2,3,23,32,0,0,-1,28,1263
2,3,28,32,0,0,-1,28,1262
2,3,29,32,0,0,-1,28,1261
2,3,38,32,0,0,-1,28,1260
2,3,39,32,0,0,-1,28,1259
2,3,50,32,0,0,-1,28,1258
2,3,22,33,0,0,-1,28,1257
2,3,23,33,0,0,-1,28,1256
2,3,28,33,0,0,-1,28,1255
2,3,29,33,0,0,-1,28,1254
2,3,38,33,0,0,-1,28,1253
2,3,39,33,0,0,-1,28,1252
2,3,50,33,0,0,-1,28,1251
2,3,46,36,0,0,-1,38,1250
2,3,47,36,0,0,-1,38,1249
2,3,46,37,0,0,-1,38,1248
2,3,47,37,0,0,-1,38,1247
2,3,14,18,0,0,-1,38,1246
2,3,15,18,0,0,-1,38,1245
2,3,14,19,0,0,-1,38,1244
2,3,20,26,0,0,-1,38,1243
2,3,21,26,0,0,-1,38,1242
2,3,26,26,0,0,-1,38,1241
2,3,27,26,0,0,-1,38,1240
2,3,42,26,0,0,-1,38,1239
2,3,43,26,0,0,-1,38,1238
2,3,21,27,0,0,-1,38,1237
2,3,26,27,0,0,-1,38,1236
2,3,27,27,0,0,-1,38,1235
2,3,42,27,0,0,-1,38,1234
2,3,43,27,0,0,-1,38,1233
2,3,15,30,0,0,-1,38,1232
2,3,15,31,0,0,-1,38,1231
2,3,2,20,0,0,-1,38,1230
2,3,3,20,0,0,-1,38,1229
2,3,2,21,0,0,-1,38,1228
2,3,3,21,0,0,-1,38,1227
2,3,15,34,0,0,-1,38,1226
2,3,16,34,0,0,-1,38,1225
2,3,17,34,0,0,-1,38,1224
2,3,21,34,0,0,-1,38,1223
2,3,50,34,0,0,-1,38,1222
2,3,15,35,0,0,-1,38,1221
2,3,16,35,0,0,-1,38,1220
2,3,17,35,0,0,-1,38,1219
2,3,21,35,0,0,-1,38,1218
2,3,50,35,0,0,-1,38,1217
2,3,34,36,0,0,-1,31,1216
2,3,35,36,0,0,-1,31,1215
2,3,48,36,0,0,-1,31,1214
2,3,49,36,0,0,-1,31,1213
2,3,34,37,0,0,-1,31,1212
2,3,35,37,0,0,-1,31,1211
2,3,48,37,0,0,-1,31,1210
2,3,49,37,0,0,-1,31,1209
2,3,16,28,0,0,-1,31,1208
2,3,17,28,0,0,-1,31,1207
2,3,21,28,0,0,-1,31,1206
2,3,16,29,0,0,-1,31,1205
2,3,17,29,0,0,-1,31,1204
2,3,21,29,0,0,-1,31,1203
2,3,22,30,0,0,-1,31,1202
2,3,23,30,0,0,-1,31,1201
2,3,22,31,0,0,-1,31,1200
2,3,23,31,0,0,-1,31,1199
2,3,32,36,0,0,-1,30,1198
2,3,33,36,0,0,-1,30,1197
2,3,50,36,0,0,-1,30,1196
2,3,32,37,0,0,-1,30,1195
2,3,33,37,0,0,-1,30,1194
2,3,50,37,0,0,-1,30,1193
2,3,38,28,0,0,-1,30,1192
2,3,39,28,0,0,-1,30,1191
2,3,42,28,0,0,-1,30,1190
2,3,43,28,0,0,-1,30,1189
2,3,38,29,0,0,-1,30,1188
2,3,39,29,0,0,-1,30,1187
2,3,42,29,0,0,-1,30,1186
2,3,43,29,0,0,-1,30,1185
2,3,40,30,0,0,-1,30,1184
2,3,41,30,0,0,-1,30,1183
2,3,44,30,0,0,-1,30,1182
2,3,45,30,0,0,-1,30,1181
2,3,40,31,0,0,-1,30,1180
2,3,41,31,0,0,-1,30,1179
2,3,44,31,0,0,-1,30,1178
2,3,45,31,0,0,-1,30,1177
7,1,9,0,21,6,1176
2,3,2,9,0,0,-1,6,1175
2,3,3,9,0,0,-1,6,1174
2,3,4,9,0,0,-1,6,1173
2,3,5,9,0,0,-1,6,1172
2,3,6,9,0,0,-1,6,1171
2,3,7,9,0,0,-1,6,1170
2,3,10,9,0,0,-1,6,1169
2,3,11,9,0,0,-1,6,1168
2,3,12,9,0,0,-1,6,1167
2,3,13,9,0,0,-1,6,1166
2,3,14,9,0,0,-1,6,1165
7,1,8,0,21,6,1164
2,3,2,8,0,0,-1,6,1163
2,3,3,8,0,0,-1,6,1162
2,3,4,8,0,0,-1,6,1161
2,3,5,8,0,0,-1,6,1160
2,3,6,8,0,0,-1,6,1159
2,3,7,8,0,0,-1,6,1158
2,3,10,8,0,0,-1,6,1157
2,3,11,8,0,0,-1,6,1156
2,3,12,8,0,0,-1,6,1155
2,3,13,8,0,0,-1,6,1154
2,3,14,8,0,0,-1,6,1153
7,1,3,0,21,6,1152
2,3,2,3,0,0,-1,6,1151
2,3,3,3,0,0,-1,6,1150
2,3,7,3,0,0,-1,6,1149
7,1,2,0,21,6,1148
2,3,1,2,0,0,-1,6,1147
2,3,2,2,0,0,-1,6,1146
2,3,3,2,0,0,-1,6,1145
2,3,8,2,0,0,-1,7,1144
2,3,9,2,0,0,-1,7,1143
2,3,10,2,0,0,-1,7,1142
2,3,11,2,0,0,-1,7,1141
2,3,12,2,0,0,-1,7,1140
2,3,14,2,0,0,-1,7,1139
2,3,18,2,0,0,-1,7,1138
2,3,19,2,0,0,-1,7,1137
2,3,20,2,0,0,-1,7,1136
2,3,21,2,0,0,-1,7,1135
2,3,4,3,0,0,-1,7,1134
2,3,8,3,0,0,-1,7,1133
2,3,9,3,0,0,-1,7,1132
2,3,10,3,0,0,-1,7,1131
2,3,11,3,0,0,-1,7,1130
2,3,12,3,0,0,-1,7,1129
2,3,13,3,0,0,-1,7,1128
2,3,14,3,0,0,-1,7,1127
2,3,18,3,0,0,-1,7,1126
2,3,19,3,0,0,-1,7,1125
2,3,20,3,0,0,-1,7,1124
2,3,21,3,0,0,-1,7,1123
2,3,8,8,0,0,-1,7,1122
2,3,9,8,0,0,-1,7,1121
2,3,8,9,0,0,-1,7,1120
2,3,9,9,0,0,-1,7,1119
2,3,1,11,0,0,-1,7,1118
5,1,40,0,20,7,1117
5,1,41,0,20,7,1116
5,1,42,0,20,7,1115
5,1,43,0,20,7,1114
7,1,43,0,21,22,1113
2,3,26,43,0,0,-1,22,1112
2,3,27,43,0,0,-1,22,1111
2,3,28,43,0,0,-1,22,1110
2,3,29,43,0,0,-1,22,1109
2,3,30,43,0,0,-1,22,1108
2,3,31,43,0,0,-1,22,1107
2,3,36,43,0,0,-1,22,1106
2,3,37,43,0,0,-1,22,1105
2,3,38,43,0,0,-1,22,1104
2,3,39,43,0,0,-1,22,1103
2,3,40,43,0,0,-1,22,1102
2,3,41,43,0,0,-1,22,1101
2,3,42,43,0,0,-1,22,1100
2,3,43,43,0,0,-1,22,1099
2,3,44,43,0,0,-1,22,1098
2,3,45,43,0,0,-1,22,1097
2,3,46,43,0,0,-1,22,1096
2,3,47,43,0,0,-1,22,1095
2,3,48,43,0,0,-1,22,1094
2,3,49,43,0,0,-1,22,1093
7,1,42,0,21,22,1092
2,3,26,42,0,0,-1,22,1091
2,3,27,42,0,0,-1,22,1090
2,3,28,42,0,0,-1,22,1089
2,3,29,42,0,0,-1,22,1088
2,3,30,42,0,0,-1,22,1087
2,3,31,42,0,0,-1,22,1086
2,3,36,42,0,0,-1,22,1085
2,3,37,42,0,0,-1,22,1084
2,3,38,42,0,0,-1,22,1083
2,3,39,42,0,0,-1,22,1082
2,3,40,42,0,0,-1,22,1081
2,3,41,42,0,0,-1,22,1080
2,3,42,42,0,0,-1,22,1079
2,3,43,42,0,0,-1,22,1078
2,3,44,42,0,0,-1,22,1077
2,3,45,42,0,0,-1,22,1076
2,3,46,42,0,0,-1,22,1075
2,3,47,42,0,0,-1,22,1074
2,3,48,42,0,0,-1,22,1073
2,3,49,42,0,0,-1,22,1072
7,1,41,0,21,16,1071
2,3,28,41,0,0,-1,16,1070
2,3,29,41,0,0,-1,16,1069
2,3,30,41,0,0,-1,16,1068
2,3,31,41,0,0,-1,16,1067
2,3,34,41,0,0,-1,16,1066
2,3,35,41,0,0,-1,16,1065
2,3,36,41,0,0,-1,16,1064
2,3,37,41,0,0,-1,16,1063
2,3,38,41,0,0,-1,16,1062
2,3,39,41,0,0,-1,16,1061
2,3,40,41,0,0,-1,16,1060
2,3,41,41,0,0,-1,16,1059
2,3,42,41,0,0,-1,16,1058
2,3,43,41,0,0,-1,16,1057
2,3,44,41,0,0,-1,16,1056
2,3,45,41,0,0,-1,16,1055
2,3,46,41,0,0,-1,16,1054
2,3,47,41,0,0,-1,16,1053
2,3,48,41,0,0,-1,16,1052
2,3,49,41,0,0,-1,16,1051
7,1,40,0,21,16,1050
2,3,28,40,0,0,-1,16,1049
2,3,29,40,0,0,-1,16,1048
2,3,30,40,0,0,-1,16,1047
2,3,31,40,0,0,-1,16,1046
2,3,34,40,0,0,-1,16,1045
2,3,35,40,0,0,-1,16,1044
2,3,36,40,0,0,-1,16,1043
2,3,37,40,0,0,-1,16,1042
2,3,38,40,0,0,-1,16,1041
2,3,39,40,0,0,-1,16,1040
2,3,40,40,0,0,-1,16,1039
2,3,41,40,0,0,-1,16,1038
2,3,42,40,0,0,-1,16,1037
2,3,43,40,0,0,-1,16,1036
2,3,44,40,0,0,-1,16,1035
2,3,45,40,0,0,-1,16,1034
2,3,46,40,0,0,-1,16,1033
2,3,47,40,0,0,-1,16,1032
2,3,48,40,0,0,-1,16,1031
2,3,49,40,0,0,-1,16,1030
2,3,50,40,0,0,-1,25,1029
2,3,50,41,0,0,-1,25,1028
2,3,16,42,0,0,-1,25,1027
2,3,17,42,0,0,-1,25,1026
2,3,16,43,0,0,-1,25,1025
2,3,17,43,0,0,-1,25,1024
2,3,15,44,0,0,-1,25,1023
2,3,16,44,0,0,-1,25,1022
2,3,17,44,0,0,-1,25,1021
2,3,18,44,0,0,-1,25,1020
2,3,19,44,0,0,-1,25,1019
2,3,20,44,0,0,-1,25,1018
2,3,21,44,0,0,-1,25,1017
2,3,22,44,0,0,-1,25,1016
2,3,23,44,0,0,-1,25,1015
2,3,24,44,0,0,-1,25,1014
2,3,25,44,0,0,-1,25,1013
2,3,26,44,0,0,-1,25,1012
2,3,27,44,0,0,-1,25,1011
2,3,30,44,0,0,-1,25,1010
2,3,31,44,0,0,-1,25,1009
2,3,50,44,0,0,-1,25,1008
2,3,15,45,0,0,-1,25,1007
2,3,16,45,0,0,-1,25,1006
2,3,17,45,0,0,-1,25,1005
2,3,18,45,0,0,-1,25,1004
2,3,19,45,0,0,-1,25,1003
2,3,20,45,0,0,-1,25,1002
2,3,21,45,0,0,-1,25,1001
2,3,22,45,0,0,-1,25,1000
2,3,23,45,0,0,-1,25,999
2,3,24,45,0,0,-1,25,998
2,3,25,45,0,0,-1,25,997
2,3,26,45,0,0,-1,25,996
2,3,27,45,0,0,-1,25,995
2,3,30,45,0,0,-1,25,994
2,3,31,45,0,0,-1,25,993
2,3,50,45,0,0,-1,25,992
7,1,39,0,21,13,991
2,3,16,39,0,0,-1,13,990
2,3,17,39,0,0,-1,13,989
2,3,21,39,0,0,-1,13,988
2,3,22,39,0,0,-1,13,987
2,3,23,39,0,0,-1,13,986
2,3,28,39,0,0,-1,13,985
2,3,29,39,0,0,-1,13,984
2,3,30,39,0,0,-1,13,983
2,3,31,39,0,0,-1,13,982
2,3,32,39,0,0,-1,13,981
2,3,33,39,0,0,-1,13,980
2,3,34,39,0,0,-1,13,979
2,3,35,39,0,0,-1,13,978
2,3,38,39,0,0,-1,13,977
2,3,39,39,0,0,-1,13,976
2,3,42,39,0,0,-1,13,975
2,3,43,39,0,0,-1,13,974
2,3,46,39,0,0,-1,13,973
2,3,47,39,0,0,-1,13,972
7,1,38,0,21,13,971
2,3,16,38,0,0,-1,13,970
2,3,17,38,0,0,-1,13,969
2,3,21,38,0,0,-1,13,968
2,3,22,38,0,0,-1,13,967
2,3,23,38,0,0,-1,13,966
2,3,28,38,0,0,-1,13,965
2,3,29,38,0,0,-1,13,964
2,3,30,38,0,0,-1,13,963
2,3,31,38,0,0,-1,13,962
2,3,32,38,0,0,-1,13,961
2,3,33,38,0,0,-1,13,960
2,3,34,38,0,0,-1,13,959
2,3,35,38,0,0,-1,13,958
2,3,38,38,0,0,-1,13,957
2,3,39,38,0,0,-1,13,956
2,3,42,38,0,0,-1,13,955
2,3,43,38,0,0,-1,13,954
2,3,46,38,0,0,-1,13,953
2,3,47,38,0,0,-1,13,952
7,1,5,0,21,8,951
2,3,4,5,0,0,-1,8,950
2,3,5,5,0,0,-1,8,949
2,3,6,5,0,0,-1,8,948
2,3,7,5,0,0,-1,8,947
2,3,8,5,0,0,-1,8,946
2,3,9,5,0,0,-1,8,945
2,3,10,5,0,0,-1,8,944
2,3,11,5,0,0,-1,8,943
2,3,12,5,0,0,-1,8,942
2,3,13,5,0,0,-1,8,941
2,3,14,5,0,0,-1,8,940
2,3,18,5,0,0,-1,8,939
2,3,19,5,0,0,-1,8,938
2,3,20,5,0,0,-1,8,937
2,3,21,5,0,0,-1,8,936
2,3,24,5,0,0,-1,8,935
2,3,25,5,0,0,-1,8,934
7,1,4,0,21,8,933
2,3,3,4,0,0,-1,8,932
2,3,4,4,0,0,-1,8,931
2,3,5,4,0,0,-1,8,930
2,3,6,4,0,0,-1,8,929
2,3,7,4,0,0,-1,8,928
2,3,8,4,0,0,-1,8,927
2,3,9,4,0,0,-1,8,926
2,3,10,4,0,0,-1,8,925
2,3,11,4,0,0,-1,8,924
2,3,12,4,0,0,-1,8,923
2,3,13,4,0,0,-1,8,922
2,3,14,4,0,0,-1,8,921
2,3,18,4,0,0,-1,8,920
2,3,19,4,0,0,-1,8,919
2,3,20,4,0,0,-1,8,918
2,3,21,4,0,0,-1,8,917
2,3,24,4,0,0,-1,8,916
2,3,25,4,0,0,-1,8,915
2,3,26,4,0,0,-1,9,914
2,3,26,5,0,0,-1,9,913
2,3,24,2,0,0,-1,9,912
2,3,25,2,0,0,-1,9,911
2,3,26,2,0,0,-1,9,910
2,3,24,3,0,0,-1,9,909
2,3,25,3,0,0,-1,9,908
2,3,26,3,0,0,-1,9,907
7,1,1,0,21,9,906
2,3,0,1,0,0,-1,9,905
2,3,1,1,0,0,-1,9,904
2,3,2,1,0,0,-1,9,903
2,3,11,1,0,0,-1,9,902
2,3,18,1,0,0,-1,9,901
2,3,19,1,0,0,-1,9,900
2,3,20,1,0,0,-1,9,899
2,3,21,1,0,0,-1,9,898
2,3,24,1,0,0,-1,9,897
2,3,25,1,0,0,-1,9,896
7,1,0,0,21,9,895
2,3,0,0,0,0,-1,9,894
2,3,1,0,0,0,-1,9,893
2,3,18,0,0,0,-1,9,892
2,3,19,0,0,0,-1,9,891
2,3,20,0,0,0,-1,9,890
2,3,24,0,0,0,-1,9,889
2,3,25,0,0,0,-1,9,888
5,1,46,0,20,9,887
5,1,47,0,20,9,886
2,3,20,24,0,0,-1,36,885
2,3,21,24,0,0,-1,36,884
2,3,22,24,0,0,-1,36,883
2,3,23,24,0,0,-1,36,882
2,3,36,24,0,0,-1,36,881
2,3,37,24,0,0,-1,36,880
2,3,20,25,0,0,-1,36,879
2,3,21,25,0,0,-1,36,878
2,3,36,25,0,0,-1,36,877
2,3,0,18,0,0,-1,36,876
2,3,1,18,0,0,-1,36,875
2,3,0,19,0,0,-1,36,874
2,3,1,19,0,0,-1,36,873
2,3,34,28,0,0,-1,36,872
2,3,35,28,0,0,-1,36,871
2,3,34,29,0,0,-1,36,870
2,3,35,29,0,0,-1,36,869
2,3,15,32,0,0,-1,36,868
2,3,15,33,0,0,-1,36,867
2,3,0,26,0,0,-1,36,866
2,3,1,26,0,0,-1,36,865
2,3,32,26,0,0,-1,36,864
2,3,33,26,0,0,-1,36,863
2,3,32,27,0,0,-1,36,862
2,3,33,27,0,0,-1,36,861
2,3,0,20,0,0,-1,36,860
3,2,0,0,0,21,36,859
2,3,1,20,0,0,-1,36,858
2,3,44,20,0,0,-1,36,857
2,3,45,20,0,0,-1,36,856
2,3,1,21,0,0,-1,36,855
3,2,1,1,0,21,36,854
2,3,44,21,0,0,-1,36,853
2,3,45,21,0,0,-1,36,852
7,1,47,0,21,10,851
2,3,32,47,0,0,-1,10,850
2,3,33,47,0,0,-1,10,849
2,3,40,47,0,0,-1,10,848
2,3,41,47,0,0,-1,10,847
2,3,46,47,0,0,-1,10,846
2,3,47,47,0,0,-1,10,845
2,3,50,47,0,0,-1,10,844
7,1,46,0,21,10,843
2,3,32,46,0,0,-1,10,842
2,3,33,46,0,0,-1,10,841
2,3,40,46,0,0,-1,10,840
2,3,41,46,0,0,-1,10,839
2,3,46,46,0,0,-1,10,838
2,3,47,46,0,0,-1,10,837
2,3,50,46,0,0,-1,10,836
7,1,23,0,21,10,835
2,3,16,23,0,0,-1,10,834
2,3,17,23,0,0,-1,10,833
2,3,26,23,0,0,-1,10,832
2,3,27,23,0,0,-1,10,831
2,3,40,23,0,0,-1,10,830
2,3,41,23,0,0,-1,10,829
2,3,44,23,0,0,-1,10,828
2,3,45,23,0,0,-1,10,827
2,3,48,23,0,0,-1,10,826
2,3,49,23,0,0,-1,10,825
7,1,22,0,21,10,824
2,3,16,22,0,0,-1,10,823
2,3,26,22,0,0,-1,10,822
2,3,27,22,0,0,-1,10,821
2,3,40,22,0,0,-1,10,820
2,3,41,22,0,0,-1,10,819
2,3,44,22,0,0,-1,10,818
2,3,45,22,0,0,-1,10,817
2,3,48,22,0,0,-1,10,816
2,3,49,22,0,0,-1,10,815
2,3,18,46,0,0,-1,23,814
2,3,19,46,0,0,-1,23,813
2,3,18,47,0,0,-1,23,812
2,3,19,47,0,0,-1,23,811
2,3,40,38,0,0,-1,23,810
2,3,41,38,0,0,-1,23,809
2,3,40,39,0,0,-1,23,808
2,3,41,39,0,0,-1,23,807
2,3,15,42,0,0,-1,23,806
2,3,18,42,0,0,-1,23,805
2,3,19,42,0,0,-1,23,804
2,3,20,42,0,0,-1,23,803
2,3,21,42,0,0,-1,23,802
2,3,22,42,0,0,-1,23,801
2,3,23,42,0,0,-1,23,800
2,3,24,42,0,0,-1,23,799
2,3,25,42,0,0,-1,23,798
2,3,32,42,0,0,-1,23,797
2,3,33,42,0,0,-1,23,796
2,3,34,42,0,0,-1,23,795
2,3,35,42,0,0,-1,23,794
2,3,50,42,0,0,-1,23,793
2,3,15,43,0,0,-1,23,792
2,3,18,43,0,0,-1,23,791
2,3,19,43,0,0,-1,23,790
2,3,21,43,0,0,-1,23,789
2,3,22,43,0,0,-1,23,788
2,3,23,43,0,0,-1,23,787
2,3,24,43,0,0,-1,23,786
2,3,25,43,0,0,-1,23,785
2,3,32,43,0,0,-1,23,784
2,3,33,43,0,0,-1,23,783
2,3,34,43,0,0,-1,23,782
2,3,35,43,0,0,-1,23,781
2,3,50,43,0,0,-1,23,780
2,3,24,48,0,0,-1,23,779
2,3,24,49,0,0,-1,23,778
2,3,25,49,0,0,-1,23,777
2,3,44,46,0,0,-1,17,776
2,3,45,46,0,0,-1,17,775
2,3,44,47,0,0,-1,17,774
2,3,45,47,0,0,-1,17,773
2,3,18,38,0,0,-1,17,772
2,3,19,38,0,0,-1,17,771
2,3,26,38,0,0,-1,17,770
2,3,27,38,0,0,-1,17,769
2,3,18,39,0,0,-1,17,768
2,3,19,39,0,0,-1,17,767
2,3,26,39,0,0,-1,17,766
2,3,27,39,0,0,-1,17,765
2,3,15,40,0,0,-1,17,764
2,3,16,40,0,0,-1,17,763
2,3,17,40,0,0,-1,17,762
2,3,18,40,0,0,-1,17,761
2,3,20,40,0,0,-1,17,760
2,3,21,40,0,0,-1,17,759
2,3,22,40,0,0,-1,17,758
2,3,23,40,0,0,-1,17,757
2,3,24,40,0,0,-1,17,756
2,3,25,40,0,0,-1,17,755
2,3,26,40,0,0,-1,17,754
2,3,27,40,0,0,-1,17,753
2,3,15,41,0,0,-1,17,752
2,3,16,41,0,0,-1,17,751
2,3,17,41,0,0,-1,17,750
2,3,18,41,0,0,-1,17,749
2,3,19,41,0,0,-1,17,748
2,3,20,41,0,0,-1,17,747
2,3,21,41,0,0,-1,17,746
2,3,22,41,0,0,-1,17,745
2,3,23,41,0,0,-1,17,744
2,3,24,41,0,0,-1,17,743
2,3,25,41,0,0,-1,17,742
2,3,26,41,0,0,-1,17,741
2,3,27,41,0,0,-1,17,740
2,3,46,50,0,0,-1,17,739
2,3,47,50,0,0,-1,17,738
2,3,18,22,0,0,-1,11,737
2,3,30,22,0,0,-1,11,736
2,3,31,22,0,0,-1,11,735
2,3,32,22,0,0,-1,11,734
2,3,33,22,0,0,-1,11,733
2,3,18,23,0,0,-1,11,732
2,3,30,23,0,0,-1,11,731
2,3,31,23,0,0,-1,11,730
2,3,32,23,0,0,-1,11,729
2,3,33,23,0,0,-1,11,728
7,1,17,0,21,11,727
2,3,16,17,0,0,-1,11,726
2,3,17,17,0,0,-1,11,725
2,3,28,17,0,0,-1,11,724
2,3,29,17,0,0,-1,11,723
2,3,30,17,0,0,-1,11,722
2,3,31,17,0,0,-1,11,721
2,3,32,17,0,0,-1,11,720
2,3,33,17,0,0,-1,11,719
2,3,38,17,0,0,-1,11,718
2,3,39,17,0,0,-1,11,717
2,3,40,17,0,0,-1,11,716
2,3,41,17,0,0,-1,11,715
2,3,46,17,0,0,-1,11,714
2,3,47,17,0,0,-1,11,713
7,1,16,0,21,11,712
2,3,16,16,0,0,-1,11,711
2,3,17,16,0,0,-1,11,710
2,3,28,16,0,0,-1,11,709
2,3,29,16,0,0,-1,11,708
2,3,30,16,0,0,-1,11,707
2,3,31,16,0,0,-1,11,706
2,3,32,16,0,0,-1,11,705
2,3,33,16,0,0,-1,11,704
2,3,38,16,0,0,-1,11,703
2,3,39,16,0,0,-1,11,702
2,3,40,16,0,0,-1,11,701
2,3,41,16,0,0,-1,11,700
2,3,46,16,0,0,-1,11,699
2,3,47,16,0,0,-1,11,698
2,3,34,16,0,0,-1,14,697
2,3,35,16,0,0,-1,14,696
2,3,36,16,0,0,-1,14,695
2,3,37,16,0,0,-1,14,694
2,3,34,17,0,0,-1,14,693
2,3,35,17,0,0,-1,14,692
2,3,36,17,0,0,-1,14,691
2,3,37,17,0,0,-1,14,690
2,3,22,22,0,0,-1,14,689
2,3,23,22,0,0,-1,14,688
2,3,38,22,0,0,-1,14,687
2,3,39,22,0,0,-1,14,686
2,3,42,22,0,0,-1,14,685
2,3,43,22,0,0,-1,14,684
2,3,22,23,0,0,-1,14,683
2,3,23,23,0,0,-1,14,682
2,3,38,23,0,0,-1,14,681
2,3,39,23,0,0,-1,14,680
2,3,42,23,0,0,-1,14,679
2,3,43,23,0,0,-1,14,678
2,3,16,46,0,0,-1,14,677
2,3,17,46,0,0,-1,14,676
2,3,48,46,0,0,-1,14,675
2,3,49,46,0,0,-1,14,674
2,3,16,47,0,0,-1,14,673
2,3,17,47,0,0,-1,14,672
2,3,48,47,0,0,-1,14,671
2,3,49,47,0,0,-1,14,670
2,3,44,38,0,0,-1,14,669
2,3,45,38,0,0,-1,14,668
2,3,48,38,0,0,-1,14,667
2,3,49,38,0,0,-1,14,666
2,3,44,39,0,0,-1,14,665
2,3,45,39,0,0,-1,14,664
2,3,48,39,0,0,-1,14,663
2,3,49,39,0,0,-1,14,662
2,3,28,50,0,0,-1,14,661
2,3,29,50,0,0,-1,14,660
2,3,32,50,0,0,-1,14,659
2,3,33,50,0,0,-1,14,658
2,3,42,16,0,0,-1,18,657
2,3,43,16,0,0,-1,18,656
2,3,42,17,0,0,-1,18,655
2,3,43,17,0,0,-1,18,654
2,3,15,46,0,0,-1,18,653
2,3,22,46,0,0,-1,18,652
2,3,23,46,0,0,-1,18,651
2,3,28,46,0,0,-1,18,650
2,3,29,46,0,0,-1,18,649
2,3,15,47,0,0,-1,18,648
2,3,22,47,0,0,-1,18,647
2,3,23,47,0,0,-1,18,646
2,3,28,47,0,0,-1,18,645
2,3,29,47,0,0,-1,18,644
2,3,32,40,0,0,-1,18,643
2,3,33,40,0,0,-1,18,642
2,3,32,41,0,0,-1,18,641
2,3,33,41,0,0,-1,18,640
2,3,15,50,0,0,-1,18,639
2,3,18,50,0,0,-1,18,638
2,3,19,50,0,0,-1,18,637
2,3,21,50,0,0,-1,18,636
2,3,34,50,0,0,-1,18,635
2,3,35,50,0,0,-1,18,634
2,3,36,50,0,0,-1,18,633
2,3,37,50,0,0,-1,18,632
2,3,40,50,0,0,-1,18,631
2,3,41,50,0,0,-1,18,630
2,3,26,16,0,0,-1,15,629
2,3,27,16,0,0,-1,15,628
2,3,44,16,0,0,-1,15,627
2,3,45,16,0,0,-1,15,626
2,3,26,17,0,0,-1,15,625
2,3,27,17,0,0,-1,15,624
2,3,44,17,0,0,-1,15,623
2,3,45,17,0,0,-1,15,622
2,3,21,22,0,0,-1,15,621
2,3,28,22,0,0,-1,15,620
2,3,29,22,0,0,-1,15,619
2,3,50,22,0,0,-1,15,618
2,3,21,23,0,0,-1,15,617
2,3,28,23,0,0,-1,15,616
2,3,29,23,0,0,-1,15,615
2,3,50,23,0,0,-1,15,614
2,3,26,46,0,0,-1,15,613
2,3,27,46,0,0,-1,15,612
2,3,26,47,0,0,-1,15,611
2,3,27,47,0,0,-1,15,610
2,3,15,38,0,0,-1,15,609
2,3,24,38,0,0,-1,15,608
2,3,50,38,0,0,-1,15,607
2,3,15,39,0,0,-1,15,606
2,3,24,39,0,0,-1,15,605
2,3,50,39,0,0,-1,15,604
2,3,16,50,0,0,-1,15,603
2,3,17,50,0,0,-1,15,602
2,3,30,50,0,0,-1,15,601
2,3,31,50,0,0,-1,15,600
2,3,15,16,0,0,-1,12,599
2,3,18,16,0,0,-1,12,598
2,3,22,16,0,0,-1,12,597
2,3,23,16,0,0,-1,12,596
2,3,48,16,0,0,-1,12,595
2,3,49,16,0,0,-1,12,594
2,3,18,17,0,0,-1,12,593
2,3,23,17,0,0,-1,12,592
2,3,48,17,0,0,-1,12,591
2,3,49,17,0,0,-1,12,590
2,3,24,22,0,0,-1,12,589
2,3,34,22,0,0,-1,12,588
2,3,35,22,0,0,-1,12,587
2,3,46,22,0,0,-1,12,586
2,3,47,22,0,0,-1,12,585
2,3,24,23,0,0,-1,12,584
2,3,34,23,0,0,-1,12,583
2,3,35,23,0,0,-1,12,582
2,3,46,23,0,0,-1,12,581
2,3,47,23,0,0,-1,12,580
2,3,21,46,0,0,-1,12,579
2,3,30,46,0,0,-1,12,578
2,3,31,46,0,0,-1,12,577
2,3,34,46,0,0,-1,12,576
2,3,35,46,0,0,-1,12,575
2,3,38,46,0,0,-1,12,574
2,3,39,46,0,0,-1,12,573
2,3,20,47,0,0,-1,12,572
2,3,21,47,0,0,-1,12,571
2,3,30,47,0,0,-1,12,570
2,3,31,47,0,0,-1,12,569
2,3,34,47,0,0,-1,12,568
2,3,35,47,0,0,-1,12,567
2,3,38,47,0,0,-1,12,566
2,3,39,47,0,0,-1,12,565
2,3,24,16,0,0,-1,19,564
2,3,50,16,0,0,-1,19,563
2,3,24,17,0,0,-1,19,562
2,3,50,17,0,0,-1,19,561
2,3,15,22,0,0,-1,19,560
2,3,14,23,0,0,-1,19,559
2,3,15,23,0,0,-1,19,558
2,3,36,46,0,0,-1,19,557
2,3,37,46,0,0,-1,19,556
2,3,42,46,0,0,-1,19,555
2,3,43,46,0,0,-1,19,554
2,3,36,47,0,0,-1,19,553
2,3,37,47,0,0,-1,19,552
2,3,42,47,0,0,-1,19,551
2,3,43,47,0,0,-1,19,550
2,3,36,38,0,0,-1,19,549
2,3,37,38,0,0,-1,19,548
2,3,36,39,0,0,-1,19,547
2,3,37,39,0,0,-1,19,546
2,3,22,50,0,0,-1,19,545
2,3,23,50,0,0,-1,19,544
2,3,26,50,0,0,-1,19,543
2,3,27,50,0,0,-1,19,542
2,3,38,50,0,0,-1,19,541
2,3,39,50,0,0,-1,19,540
2,3,42,50,0,0,-1,19,539
2,3,43,50,0,0,-1,19,538
2,3,44,50,0,0,-1,19,537
2,3,45,50,0,0,-1,19,536
2,3,36,22,0,0,-1,21,535
2,3,37,22,0,0,-1,21,534
2,3,36,23,0,0,-1,21,533
2,3,37,23,0,0,-1,21,532
2,3,24,46,0,0,-1,21,531
2,3,24,47,0,0,-1,21,530
2,3,25,47,0,0,-1,21,529
2,3,24,50,0,0,-1,21,528
2,3,25,50,0,0,-1,21,527
2,3,15,48,0,0,-1,21,526
2,3,18,48,0,0,-1,21,525
2,3,21,48,0,0,-1,21,524
2,3,26,48,0,0,-1,21,523
2,3,27,48,0,0,-1,21,522
2,3,32,48,0,0,-1,21,521
2,3,33,48,0,0,-1,21,520
2,3,34,48,0,0,-1,21,519
2,3,35,48,0,0,-1,21,518
2,3,36,48,0,0,-1,21,517
2,3,37,48,0,0,-1,21,516
2,3,38,48,0,0,-1,21,515
2,3,39,48,0,0,-1,21,514
2,3,15,49,0,0,-1,21,513
2,3,18,49,0,0,-1,21,512
2,3,20,49,0,0,-1,21,511
2,3,21,49,0,0,-1,21,510
2,3,26,49,0,0,-1,21,509
2,3,27,49,0,0,-1,21,508
2,3,32,49,0,0,-1,21,507
2,3,33,49,0,0,-1,21,506
2,3,34,49,0,0,-1,21,505
2,3,35,49,0,0,-1,21,504
2,3,36,49,0,0,-1,21,503
2,3,37,49,0,0,-1,21,502
2,3,38,49,0,0,-1,21,501
2,3,39,49,0,0,-1,21,500
2,3,32,24,0,0,-1,39,499
2,3,33,24,0,0,-1,39,498
2,3,32,25,0,0,-1,39,497
2,3,33,25,0,0,-1,39,496
2,3,32,32,0,0,-1,39,495
2,3,33,32,0,0,-1,39,494
2,3,32,33,0,0,-1,39,493
2,3,33,33,0,0,-1,39,492
7,1,15,0,21,39,491
2,3,26,15,0,0,-1,39,490
2,3,27,15,0,0,-1,39,489
2,3,32,15,0,0,-1,39,488
2,3,33,15,0,0,-1,39,487
2,3,36,15,0,0,-1,39,486
2,3,37,15,0,0,-1,39,485
2,3,42,15,0,0,-1,39,484
2,3,43,15,0,0,-1,39,483
7,1,14,0,21,39,482
2,3,10,14,0,0,-1,39,481
2,3,11,14,0,0,-1,39,480
2,3,12,14,0,0,-1,39,479
2,3,13,14,0,0,-1,39,478
2,3,26,14,0,0,-1,39,477
2,3,32,20,0,0,-1,39,476
2,3,33,20,0,0,-1,39,475
2,3,32,21,0,0,-1,39,474
3,2,32,0,0,21,39,473
2,3,33,21,0,0,-1,39,472
3,2,33,1,0,21,39,471
2,3,34,15,0,0,-1,44,470
2,3,35,15,0,0,-1,44,469
2,3,15,36,0,0,-1,44,468
2,3,18,36,0,0,-1,44,467
2,3,15,37,0,0,-1,44,466
2,3,18,37,0,0,-1,44,465
2,3,42,24,0,0,-1,44,464
2,3,43,24,0,0,-1,44,463
2,3,42,25,0,0,-1,44,462
2,3,43,25,0,0,-1,44,461
2,3,18,28,0,0,-1,44,460
2,3,18,29,0,0,-1,44,459
2,3,18,32,0,0,-1,44,458
2,3,24,32,0,0,-1,44,457
2,3,25,32,0,0,-1,44,456
2,3,42,32,0,0,-1,44,455
2,3,43,32,0,0,-1,44,454
2,3,18,33,0,0,-1,44,453
2,3,24,33,0,0,-1,44,452
2,3,25,33,0,0,-1,44,451
2,3,42,33,0,0,-1,44,450
2,3,43,33,0,0,-1,44,449
2,3,48,30,0,0,-1,44,448
2,3,49,30,0,0,-1,44,447
2,3,48,31,0,0,-1,44,446
2,3,49,31,0,0,-1,44,445
2,3,18,20,0,0,-1,44,444
2,3,19,20,0,0,-1,44,443
2,3,18,21,0,0,-1,44,442
2,3,19,21,0,0,-1,44,441
2,3,18,34,0,0,-1,44,440
2,3,18,35,0,0,-1,44,439
3,2,13,13,0,21,41,438
3,2,12,12,0,21,41,437
2,3,6,14,0,0,-1,41,436
3,2,6,6,0,21,41,435
2,3,7,14,0,0,-1,41,434
3,2,7,7,0,21,41,433
2,3,8,14,0,0,-1,41,432
3,2,8,8,0,21,41,431
2,3,9,14,0,0,-1,41,430
3,2,9,9,0,21,41,429
2,3,20,14,0,0,-1,41,428
2,3,21,14,0,0,-1,41,427
2,3,21,15,0,0,-1,41,426
2,3,28,15,0,0,-1,41,425
2,3,29,15,0,0,-1,41,424
2,3,38,15,0,0,-1,41,423
2,3,39,15,0,0,-1,41,422
2,3,40,15,0,0,-1,41,421
2,3,41,15,0,0,-1,41,420
2,3,44,18,0,0,-1,41,419
2,3,45,18,0,0,-1,41,418
2,3,44,19,0,0,-1,41,417
2,3,45,19,0,0,-1,41,416
2,3,44,34,0,0,-1,41,415
2,3,45,34,0,0,-1,41,414
2,3,44,35,0,0,-1,41,413
2,3,45,35,0,0,-1,41,412
3,2,11,11,0,21,40,411
3,2,10,10,0,21,40,410
2,3,2,14,0,0,-1,40,409
2,3,3,14,0,0,-1,40,408
2,3,18,14,0,0,-1,40,407
2,3,19,14,0,0,-1,40,406
2,3,23,14,0,0,-1,40,405
2,3,18,15,0,0,-1,40,404
2,3,22,15,0,0,-1,40,403
2,3,23,15,0,0,-1,40,402
2,3,46,15,0,0,-1,40,401
2,3,47,15,0,0,-1,40,400
2,3,50,15,0,0,-1,40,399
2,3,48,24,0,0,-1,40,398
2,3,49,24,0,0,-1,40,397
2,3,49,25,0,0,-1,40,396
2,3,2,18,0,0,-1,40,395
2,3,3,18,0,0,-1,40,394
2,3,2,19,0,0,-1,40,393
2,3,3,19,0,0,-1,40,392
2,3,2,26,0,0,-1,40,391
3,2,2,2,0,21,40,390
2,3,3,26,0,0,-1,40,389
3,2,3,3,0,21,40,388
2,3,4,26,0,0,-1,40,387
2,3,5,26,0,0,-1,40,386
2,3,4,14,0,0,-1,42,385
2,3,5,14,0,0,-1,42,384
2,3,30,15,0,0,-1,42,383
2,3,31,15,0,0,-1,42,382
2,3,44,15,0,0,-1,42,381
3,2,44,12,0,21,42,380
2,3,45,15,0,0,-1,42,379
3,2,45,13,0,21,42,378
2,3,48,15,0,0,-1,42,377
2,3,49,15,0,0,-1,42,376
2,3,26,24,0,0,-1,42,375
2,3,26,25,0,0,-1,42,374
2,3,4,18,0,0,-1,42,373
2,3,5,18,0,0,-1,42,372
2,3,36,18,0,0,-1,42,371
2,3,37,18,0,0,-1,42,370
2,3,4,19,0,0,-1,42,369
3,2,4,4,0,21,42,368
2,3,5,19,0,0,-1,42,367
3,2,5,5,0,21,42,366
2,3,36,20,0,0,-1,42,365
2,3,36,21,0,0,-1,42,364
3,2,36,4,0,21,42,363
2,3,37,21,0,0,-1,42,362
3,2,37,5,0,21,42,361
2,3,24,14,0,0,-1,43,360
2,3,25,14,0,0,-1,43,359
2,3,16,15,0,0,-1,43,358
2,3,24,15,0,0,-1,43,357
2,3,38,36,0,0,-1,43,356
2,3,39,36,0,0,-1,43,355
2,3,38,37,0,0,-1,43,354
2,3,39,37,0,0,-1,43,353
2,3,28,24,0,0,-1,43,352
2,3,29,24,0,0,-1,43,351
2,3,38,24,0,0,-1,43,350
2,3,39,24,0,0,-1,43,349
2,3,50,24,0,0,-1,43,348
2,3,50,25,0,0,-1,43,347
2,3,38,18,0,0,-1,43,346
2,3,39,18,0,0,-1,43,345
2,3,38,19,0,0,-1,43,344
2,3,39,19,0,0,-1,43,343
2,3,16,32,0,0,-1,43,342
2,3,17,32,0,0,-1,43,341
2,3,16,33,0,0,-1,43,340
3,2,16,0,0,21,43,339
2,3,17,33,0,0,-1,43,338
3,2,17,1,0,21,43,337
2,3,24,30,0,0,-1,43,336
2,3,24,31,0,0,-1,43,335
2,3,25,31,0,0,-1,43,334
2,3,24,34,0,0,-1,43,333
2,3,24,35,0,0,-1,43,332
2,3,14,14,0,0,-1,45,331
2,3,15,14,0,0,-1,45,330
2,3,14,15,0,0,-1,45,329
2,3,15,15,0,0,-1,45,328
2,3,26,0,0,0,-1,45,327
2,3,26,1,0,0,-1,45,326
2,3,14,24,0,0,-1,45,325
2,3,15,24,0,0,-1,45,324
2,3,30,24,0,0,-1,45,323
2,3,31,24,0,0,-1,45,322
2,3,46,24,0,0,-1,45,321
2,3,47,24,0,0,-1,45,320
2,3,14,25,0,0,-1,45,319
2,3,31,25,0,0,-1,45,318
2,3,47,25,0,0,-1,45,317
2,3,30,18,0,0,-1,45,316
3,2,30,14,0,21,45,315
2,3,31,18,0,0,-1,45,314
2,3,34,18,0,0,-1,45,313
2,3,35,18,0,0,-1,45,312
2,3,31,19,0,0,-1,45,311
3,2,31,15,0,21,45,310
2,3,15,28,0,0,-1,45,309
2,3,15,29,0,0,-1,45,308
2,3,26,32,0,0,-1,45,307
2,3,27,32,0,0,-1,45,306
2,3,26,33,0,0,-1,45,305
3,2,26,10,0,21,45,304
2,3,27,33,0,0,-1,45,303
3,2,27,11,0,21,45,302
2,3,14,26,0,0,-1,45,301
3,2,14,14,0,21,45,300
2,3,15,26,0,0,-1,45,299
2,3,38,26,0,0,-1,45,298
2,3,39,26,0,0,-1,45,297
2,3,15,27,0,0,-1,45,296
3,2,15,15,0,21,45,295
2,3,38,27,0,0,-1,45,294
2,3,39,27,0,0,-1,45,293
2,3,18,30,0,0,-1,45,292
2,3,18,31,0,0,-1,45,291
3,2,18,2,0,21,45,290
2,3,19,31,0,0,-1,45,289
3,2,19,3,0,21,45,288
2,3,34,21,0,0,-1,45,287
2,3,35,21,0,0,-1,45,286
2,3,50,21,0,0,-1,45,285
2,3,22,34,0,0,-1,45,284
2,3,23,34,0,0,-1,45,283
2,3,38,34,0,0,-1,45,282
2,3,39,34,0,0,-1,45,281
2,3,22,35,0,0,-1,45,280
3,2,22,6,0,21,45,279
2,3,23,35,0,0,-1,45,278
3,2,23,7,0,21,45,277
2,3,38,35,0,0,-1,45,276
3,2,38,6,0,21,45,275
2,3,39,35,0,0,-1,45,274
3,2,39,7,0,21,45,273
3,2,49,1,0,21,46,272
3,2,48,0,0,21,46,271
2,3,20,36,0,0,-1,46,270
2,3,21,36,0,0,-1,46,269
2,3,24,36,0,0,-1,46,268
2,3,25,36,0,0,-1,46,267
3,2,25,9,0,21,46,266
2,3,21,37,0,0,-1,46,265
2,3,24,37,0,0,-1,46,264
2,3,34,24,0,0,-1,46,263
2,3,35,24,0,0,-1,46,262
2,3,40,24,0,0,-1,46,261
2,3,41,24,0,0,-1,46,260
2,3,40,25,0,0,-1,46,259
2,3,41,25,0,0,-1,46,258
2,3,28,18,0,0,-1,46,257
2,3,29,18,0,0,-1,46,256
2,3,40,18,0,0,-1,46,255
2,3,41,18,0,0,-1,46,254
2,3,42,18,0,0,-1,46,253
2,3,43,18,0,0,-1,46,252
2,3,46,18,0,0,-1,46,251
2,3,47,18,0,0,-1,46,250
2,3,50,18,0,0,-1,46,249
2,3,41,19,0,0,-1,46,248
2,3,42,19,0,0,-1,46,247
3,2,42,10,0,21,46,246
2,3,43,19,0,0,-1,46,245
3,2,43,11,0,21,46,244
2,3,46,19,0,0,-1,46,243
2,3,47,19,0,0,-1,46,242
2,3,50,19,0,0,-1,46,241
3,2,50,2,0,21,46,240
2,3,24,28,0,0,-1,46,239
2,3,24,29,0,0,-1,46,238
3,2,24,8,0,21,46,237
2,3,40,26,0,0,-1,46,236
2,3,41,26,0,0,-1,46,235
2,3,40,27,0,0,-1,46,234
3,2,40,8,0,21,46,233
2,3,41,27,0,0,-1,46,232
3,2,41,9,0,21,46,231
2,3,28,30,0,0,-1,46,230
2,3,29,30,0,0,-1,46,229
2,3,28,31,0,0,-1,46,228
3,2,28,12,0,21,46,227
2,3,29,31,0,0,-1,46,226
3,2,29,13,0,21,46,225
2,3,20,20,0,0,-1,46,224
2,3,21,20,0,0,-1,46,223
2,3,47,20,0,0,-1,46,222
2,3,20,21,0,0,-1,46,221
3,2,20,4,0,21,46,220
2,3,21,21,0,0,-1,46,219
3,2,21,5,0,21,46,218
2,3,46,21,0,0,-1,46,217
3,2,46,14,0,21,46,216
2,3,47,21,0,0,-1,46,215
3,2,47,15,0,21,46,214
2,3,34,26,0,0,-1,47,213
2,3,35,26,0,0,-1,47,212
2,3,34,27,0,0,-1,47,211
3,2,34,2,0,21,47,210
2,3,35,27,0,0,-1,47,209
3,2,35,3,0,21,47,208
4,1,0,1,XAXBUF,-1,47,207
16,0,1,XAX,-1,47,206
21,0,1,EIGEN,-1,47,205
5,1,14,0,22,47,204
5,1,15,0,22,47,203
5,1,16,0,22,47,202
5,1,17,0,22,47,201
5,1,18,0,22,47,200
5,1,19,0,22,47,199
5,1,20,0,22,47,198
5,1,21,0,22,47,197
5,1,24,0,22,47,196
5,1,25,0,22,47,195
5,1,26,0,22,47,194
7,1,26,0,23,47,193
5,1,27,0,22,47,192
7,1,27,0,23,47,191
5,1,28,0,22,47,190
5,1,29,0,22,47,189
5,1,30,0,22,47,188
7,1,30,0,23,47,187
5,1,31,0,22,47,186
7,1,31,0,23,47,185
5,1,34,0,22,47,184
5,1,35,0,22,47,183
5,1,38,0,22,47,182
5,1,39,0,22,47,181
5,1,40,0,22,47,180
5,1,41,0,22,47,179
5,1,42,0,22,47,178
5,1,43,0,22,47,177
5,1,46,0,22,47,176
5,1,47,0,22,47,175
5,1,50,0,22,47,174
7,1,43,0,23,50,173
7,1,42,0,23,50,172
7,1,21,0,23,50,171
7,1,20,0,23,50,170
5,1,4,0,21,50,169
7,1,4,0,22,50,168
5,1,5,0,21,50,167
7,1,5,0,22,50,166
5,1,28,0,21,50,165
7,1,28,0,22,50,164
5,1,29,0,21,50,163
7,1,29,0,22,50,162
5,1,34,0,21,50,161
7,1,34,0,22,50,160
5,1,35,0,21,50,159
7,1,35,0,22,50,158
5,1,40,0,21,50,157
7,1,40,0,22,50,156
5,1,41,0,21,50,155
7,1,41,0,22,50,154
5,1,42,0,21,50,153
7,1,42,0,22,50,152
5,1,43,0,21,50,151
7,1,43,0,22,50,150
5,1,44,0,21,50,149
7,1,44,0,22,50,148
5,1,45,0,21,50,147
7,1,45,0,22,50,146
5,1,0,0,22,50,145
7,1,0,0,23,50,144
5,1,1,0,22,50,143
7,1,1,0,23,50,142
5,1,2,0,22,50,141
7,1,2,0,23,50,140
5,1,3,0,22,50,139
7,1,3,0,23,50,138
5,1,8,0,22,50,137
7,1,8,0,23,50,136
5,1,9,0,22,50,135
7,1,9,0,23,50,134
5,1,12,0,22,50,133
7,1,12,0,23,50,132
5,1,13,0,22,50,131
7,1,13,0,23,50,130
7,1,50,0,23,48,129
7,1,41,0,23,48,128
7,1,40,0,23,48,127
7,1,35,0,23,48,126
7,1,34,0,23,48,125
7,1,25,0,23,48,124
7,1,24,0,23,48,123
5,1,18,0,21,48,122
7,1,18,0,22,48,121
5,1,19,0,21,48,120
7,1,19,0,22,48,119
5,1,20,0,21,48,118
7,1,20,0,22,48,117
5,1,21,0,21,48,116
7,1,21,0,22,48,115
5,1,24,0,21,48,114
7,1,24,0,22,48,113
5,1,25,0,21,48,112
7,1,25,0,22,48,111
5,1,32,0,21,48,110
7,1,32,0,22,48,109
5,1,33,0,21,48,108
7,1,33,0,22,48,107
5,1,36,0,21,48,106
7,1,36,0,22,48,105
5,1,37,0,21,48,104
7,1,37,0,22,48,103
5,1,38,0,21,48,102
7,1,38,0,22,48,101
5,1,39,0,21,48,100
7,1,39,0,22,48,99
5,1,46,0,21,48,98
7,1,46,0,22,48,97
5,1,47,0,21,48,96
7,1,47,0,22,48,95
5,1,48,0,21,48,94
7,1,48,0,22,48,93
5,1,49,0,21,48,92
7,1,49,0,22,48,91
5,1,32,0,22,48,90
7,1,32,0,23,48,89
5,1,33,0,22,48,88
7,1,33,0,23,48,87
7,1,47,0,23,51,86
7,1,46,0,23,51,85
7,1,39,0,23,51,84
7,1,38,0,23,51,83
7,1,29,0,23,51,82
7,1,28,0,23,51,81
7,1,17,0,23,51,80
7,1,16,0,23,51,79
5,1,0,0,21,51,78
7,1,0,0,22,51,77
5,1,1,0,21,51,76
7,1,1,0,22,51,75
5,1,16,0,21,51,74
7,1,16,0,22,51,73
5,1,17,0,21,51,72
7,1,17,0,22,51,71
5,1,22,0,21,51,70
7,1,22,0,22,51,69
5,1,23,0,21,51,68
7,1,23,0,22,51,67
5,1,50,0,21,51,66
7,1,50,0,22,51,65
5,1,4,0,22,51,64
7,1,4,0,23,51,63
5,1,5,0,22,51,62
7,1,5,0,23,51,61
5,1,6,0,22,51,60
7,1,6,0,23,51,59
5,1,7,0,22,51,58
7,1,7,0,23,51,57
5,1,22,0,22,51,56
7,1,22,0,23,51,55
5,1,23,0,22,51,54
7,1,23,0,23,51,53
5,1,36,0,22,51,52
7,1,36,0,23,51,51
5,1,37,0,22,51,50
7,1,37,0,23,51,49
5,1,44,0,22,51,48
7,1,44,0,23,51,47
5,1,45,0,22,51,46
7,1,45,0,23,51,45
7,1,19,0,23,49,44
7,1,18,0,23,49,43
7,1,15,0,23,49,42
7,1,14,0,23,49,41
5,1,2,0,21,49,40
7,1,2,0,22,49,39
5,1,3,0,21,49,38
7,1,3,0,22,49,37
5,1,6,0,21,49,36
7,1,6,0,22,49,35
5,1,7,0,21,49,34
7,1,7,0,22,49,33
5,1,8,0,21,49,32
7,1,8,0,22,49,31
5,1,9,0,21,49,30
7,1,9,0,22,49,29
5,1,10,0,21,49,28
7,1,10,0,22,49,27
5,1,11,0,21,49,26
7,1,11,0,22,49,25
5,1,12,0,21,49,24
7,1,12,0,22,49,23
5,1,13,0,21,49,22
7,1,13,0,22,49,21
5,1,14,0,21,49,20
7,1,14,0,22,49,19
5,1,15,0,21,49,18
7,1,15,0,22,49,17
5,1,26,0,21,49,16
7,1,26,0,22,49,15
5,1,27,0,21,49,14
7,1,27,0,22,49,13
5,1,30,0,21,49,12
7,1,30,0,22,49,11
5,1,31,0,21,49,10
7,1,31,0,22,49,9
5,1,10,0,22,49,8
7,1,10,0,23,49,7
5,1,11,0,22,49,6
7,1,11,0,23,49,5
5,1,48,0,22,49,4
7,1,48,0,23,49,3
5,1,49,0,22,49,2
7,1,49,0,23,49,1
