3663
1,0,1,RN,-1,2,3663
22,0,1,_P,-1,2,3662
22,0,1,_P,-1,2,3661
22,0,1,_P,-1,2,3660
22,0,1,_P,-1,2,3659
22,0,1,_P,-1,2,3658
22,0,1,_P,-1,2,3657
22,0,1,_P,-1,2,3656
22,0,1,_P,-1,2,3655
22,0,1,_P,-1,2,3654
22,0,1,_P,-1,2,3653
22,0,1,_P,-1,2,3652
22,0,1,_P,-1,2,3651
22,0,1,_P,-1,2,3650
22,0,1,_P,-1,2,3649
22,0,1,_P,-1,2,3648
22,0,1,_P,-1,2,3647
22,0,1,_X,-1,2,3646
22,0,1,_X,-1,2,3645
22,0,1,_X,-1,2,3644
22,0,1,_X,-1,2,3643
22,0,1,_X,-1,2,3642
22,0,1,_X,-1,2,3641
22,0,1,_X,-1,2,3640
22,0,1,_X,-1,2,3639
22,0,1,_X,-1,2,3638
22,0,1,_X,-1,2,3637
22,0,1,_X,-1,2,3636
22,0,1,_X,-1,2,3635
22,0,1,_X,-1,2,3634
22,0,1,_X,-1,2,3633
22,0,1,_X,-1,2,3632
22,0,1,_X,-1,2,3631
22,0,1,_X,-1,1,3630
22,0,1,_X,-1,1,3629
22,0,1,_X,-1,1,3628
22,0,1,_AX,-1,1,3627
22,0,1,_AX,-1,1,3626
22,0,1,_AX,-1,1,3625
22,0,1,_AX,-1,1,3624
22,0,1,_AX,-1,1,3623
22,0,1,_AX,-1,1,3622
22,0,1,_AX,-1,1,3621
22,0,1,_AX,-1,1,3620
22,0,1,_AX,-1,1,3619
22,0,1,_AX,-1,1,3618
22,0,1,_AX,-1,1,3617
22,0,1,_AX,-1,1,3616
22,0,1,_AX,-1,1,3615
22,0,1,_AX,-1,1,3614
22,0,1,_AX,-1,1,3613
22,0,1,_AX,-1,1,3612
22,0,1,_X,-1,3,3611
22,0,1,_X,-1,3,3610
22,0,1,_X,-1,3,3609
22,0,1,_X,-1,3,3608
22,0,1,_X,-1,3,3607
22,0,1,_X,-1,3,3606
22,0,1,_X,-1,3,3605
22,0,1,_X,-1,3,3604
22,0,1,_X,-1,3,3603
22,0,1,_X,-1,3,3602
22,0,1,_X,-1,3,3601
22,0,1,_X,-1,3,3600
22,0,1,_X,-1,3,3599
22,0,1,_X,-1,3,3598
22,0,1,_X,-1,3,3597
22,0,1,_X,-1,3,3596
22,0,1,_lambda,-1,3,3595
5,1,48,0,1,3,3594
5,1,49,0,1,3,3593
5,1,50,0,1,3,3592
22,0,1,_AX,-1,9,3591
9,1,50,0,1,9,3590
10,1,50,0,-1,9,3589
11,2,50,2,0,-1,9,3588
22,0,1,_AX,-1,9,3587
9,1,49,0,1,9,3586
10,1,49,0,-1,9,3585
11,2,49,1,0,-1,9,3584
22,0,1,_AX,-1,9,3583
9,1,48,0,1,9,3582
10,1,48,0,-1,9,3581
11,2,48,0,0,-1,9,3580
5,1,0,0,1,5,3579
5,1,1,0,1,5,3578
5,1,2,0,1,5,3577
5,1,3,0,1,5,3576
5,1,4,0,1,5,3575
5,1,5,0,1,5,3574
5,1,6,0,1,5,3573
5,1,7,0,1,5,3572
5,1,8,0,1,5,3571
5,1,9,0,1,5,3570
5,1,10,0,1,5,3569
5,1,11,0,1,5,3568
5,1,12,0,1,5,3567
5,1,13,0,1,5,3566
5,1,14,0,1,5,3565
5,1,15,0,1,5,3564
22,0,1,_P,-1,5,3563
22,0,1,_P,-1,5,3562
22,0,1,_P,-1,5,3561
22,0,1,_P,-1,5,3560
22,0,1,_P,-1,5,3559
22,0,1,_P,-1,5,3558
22,0,1,_P,-1,5,3557
22,0,1,_P,-1,5,3556
22,0,1,_P,-1,5,3555
22,0,1,_P,-1,5,3554
22,0,1,_P,-1,5,3553
22,0,1,_P,-1,5,3552
22,0,1,_P,-1,5,3551
22,0,1,_P,-1,5,3550
22,0,1,_P,-1,5,3549
22,0,1,_P,-1,5,3548
5,1,16,0,1,4,3547
5,1,17,0,1,4,3546
5,1,18,0,1,4,3545
5,1,19,0,1,4,3544
5,1,20,0,1,4,3543
5,1,21,0,1,4,3542
5,1,22,0,1,4,3541
5,1,23,0,1,4,3540
5,1,24,0,1,4,3539
5,1,25,0,1,4,3538
5,1,26,0,1,4,3537
5,1,27,0,1,4,3536
5,1,28,0,1,4,3535
5,1,29,0,1,4,3534
5,1,30,0,1,4,3533
5,1,31,0,1,4,3532
22,0,1,_X,-1,6,3531
5,1,47,0,1,6,3530
22,0,1,_X,-1,6,3529
5,1,46,0,1,6,3528
22,0,1,_X,-1,6,3527
5,1,45,0,1,6,3526
22,0,1,_X,-1,6,3525
5,1,44,0,1,6,3524
22,0,1,_X,-1,6,3523
5,1,43,0,1,6,3522
22,0,1,_X,-1,6,3521
5,1,42,0,1,6,3520
22,0,1,_X,-1,6,3519
5,1,41,0,1,6,3518
22,0,1,_X,-1,6,3517
5,1,40,0,1,6,3516
22,0,1,_X,-1,6,3515
5,1,39,0,1,6,3514
22,0,1,_X,-1,6,3513
5,1,38,0,1,6,3512
22,0,1,_X,-1,6,3511
5,1,37,0,1,6,3510
22,0,1,_X,-1,6,3509
5,1,36,0,1,6,3508
22,0,1,_X,-1,6,3507
5,1,35,0,1,6,3506
22,0,1,_X,-1,6,3505
5,1,34,0,1,6,3504
22,0,1,_X,-1,6,3503
5,1,33,0,1,6,3502
22,0,1,_X,-1,6,3501
5,1,32,0,1,6,3500
22,0,1,_AX,-1,6,3499
22,0,1,_AX,-1,6,3498
22,0,1,_AX,-1,6,3497
22,0,1,_AX,-1,6,3496
22,0,1,_AX,-1,6,3495
22,0,1,_AX,-1,6,3494
22,0,1,_AX,-1,6,3493
22,0,1,_AX,-1,6,3492
22,0,1,_AX,-1,6,3491
22,0,1,_AX,-1,6,3490
22,0,1,_AX,-1,6,3489
22,0,1,_AX,-1,6,3488
22,0,1,_AX,-1,6,3487
22,0,1,_AX,-1,6,3486
22,0,1,_AX,-1,6,3485
22,0,1,_AX,-1,6,3484
9,1,32,0,1,8,3483
10,1,32,0,-1,8,3482
11,2,32,0,0,-1,8,3481
9,1,33,0,1,8,3480
10,1,33,0,-1,8,3479
11,2,33,1,0,-1,8,3478
9,1,34,0,1,8,3477
10,1,34,0,-1,8,3476
11,2,34,2,0,-1,8,3475
9,1,35,0,1,8,3474
10,1,35,0,-1,8,3473
11,2,35,3,0,-1,8,3472
9,1,36,0,1,8,3471
10,1,36,0,-1,8,3470
11,2,36,4,0,-1,8,3469
9,1,37,0,1,8,3468
10,1,37,0,-1,8,3467
11,2,37,5,0,-1,8,3466
9,1,38,0,1,8,3465
10,1,38,0,-1,8,3464
11,2,38,6,0,-1,8,3463
9,1,39,0,1,8,3462
10,1,39,0,-1,8,3461
11,2,39,7,0,-1,8,3460
9,1,40,0,1,8,3459
10,1,40,0,-1,8,3458
11,2,40,8,0,-1,8,3457
9,1,41,0,1,8,3456
10,1,41,0,-1,8,3455
11,2,41,9,0,-1,8,3454
9,1,42,0,1,8,3453
10,1,42,0,-1,8,3452
11,2,42,10,0,-1,8,3451
9,1,43,0,1,8,3450
10,1,43,0,-1,8,3449
11,2,43,11,0,-1,8,3448
9,1,44,0,1,8,3447
10,1,44,0,-1,8,3446
11,2,44,12,0,-1,8,3445
9,1,45,0,1,8,3444
10,1,45,0,-1,8,3443
11,2,45,13,0,-1,8,3442
9,1,46,0,1,8,3441
10,1,46,0,-1,8,3440
11,2,46,14,0,-1,8,3439
9,1,47,0,1,8,3438
10,1,47,0,-1,8,3437
11,2,47,15,0,-1,8,3436
9,1,0,0,1,7,3435
10,1,0,0,-1,7,3434
11,2,0,0,0,-1,7,3433
9,1,1,0,1,7,3432
10,1,1,0,-1,7,3431
11,2,1,1,0,-1,7,3430
9,1,2,0,1,7,3429
10,1,2,0,-1,7,3428
11,2,2,2,0,-1,7,3427
9,1,3,0,1,7,3426
10,1,3,0,-1,7,3425
11,2,3,3,0,-1,7,3424
9,1,4,0,1,7,3423
10,1,4,0,-1,7,3422
11,2,4,4,0,-1,7,3421
9,1,5,0,1,7,3420
10,1,5,0,-1,7,3419
11,2,5,5,0,-1,7,3418
9,1,6,0,1,7,3417
10,1,6,0,-1,7,3416
11,2,6,6,0,-1,7,3415
9,1,7,0,1,7,3414
10,1,7,0,-1,7,3413
11,2,7,7,0,-1,7,3412
9,1,8,0,1,7,3411
10,1,8,0,-1,7,3410
11,2,8,8,0,-1,7,3409
9,1,9,0,1,7,3408
10,1,9,0,-1,7,3407
11,2,9,9,0,-1,7,3406
9,1,10,0,1,7,3405
10,1,10,0,-1,7,3404
11,2,10,10,0,-1,7,3403
9,1,11,0,1,7,3402
10,1,11,0,-1,7,3401
11,2,11,11,0,-1,7,3400
9,1,12,0,1,7,3399
10,1,12,0,-1,7,3398
11,2,12,12,0,-1,7,3397
9,1,13,0,1,7,3396
10,1,13,0,-1,7,3395
11,2,13,13,0,-1,7,3394
9,1,14,0,1,7,3393
10,1,14,0,-1,7,3392
11,2,14,14,0,-1,7,3391
9,1,15,0,1,7,3390
10,1,15,0,-1,7,3389
11,2,15,15,0,-1,7,3388
22,0,1,_AX,-1,10,3387
9,1,31,0,1,10,3386
10,1,31,0,-1,10,3385
11,2,31,15,0,-1,10,3384
22,0,1,_AX,-1,10,3383
9,1,30,0,1,10,3382
10,1,30,0,-1,10,3381
11,2,30,14,0,-1,10,3380
22,0,1,_AX,-1,10,3379
9,1,29,0,1,10,3378
10,1,29,0,-1,10,3377
11,2,29,13,0,-1,10,3376
22,0,1,_AX,-1,10,3375
9,1,28,0,1,10,3374
10,1,28,0,-1,10,3373
11,2,28,12,0,-1,10,3372
22,0,1,_AX,-1,10,3371
9,1,27,0,1,10,3370
10,1,27,0,-1,10,3369
11,2,27,11,0,-1,10,3368
22,0,1,_AX,-1,10,3367
9,1,26,0,1,10,3366
10,1,26,0,-1,10,3365
11,2,26,10,0,-1,10,3364
22,0,1,_AX,-1,10,3363
9,1,25,0,1,10,3362
10,1,25,0,-1,10,3361
11,2,25,9,0,-1,10,3360
22,0,1,_AX,-1,10,3359
9,1,24,0,1,10,3358
10,1,24,0,-1,10,3357
11,2,24,8,0,-1,10,3356
22,0,1,_AX,-1,10,3355
9,1,23,0,1,10,3354
10,1,23,0,-1,10,3353
11,2,23,7,0,-1,10,3352
22,0,1,_AX,-1,10,3351
9,1,22,0,1,10,3350
10,1,22,0,-1,10,3349
11,2,22,6,0,-1,10,3348
22,0,1,_AX,-1,10,3347
9,1,21,0,1,10,3346
10,1,21,0,-1,10,3345
11,2,21,5,0,-1,10,3344
22,0,1,_AX,-1,10,3343
9,1,20,0,1,10,3342
10,1,20,0,-1,10,3341
11,2,20,4,0,-1,10,3340
22,0,1,_AX,-1,10,3339
9,1,19,0,1,10,3338
10,1,19,0,-1,10,3337
11,2,19,3,0,-1,10,3336
22,0,1,_AX,-1,10,3335
9,1,18,0,1,10,3334
10,1,18,0,-1,10,3333
11,2,18,2,0,-1,10,3332
22,0,1,_AX,-1,10,3331
9,1,17,0,1,10,3330
10,1,17,0,-1,10,3329
11,2,17,1,0,-1,10,3328
22,0,1,_AX,-1,10,3327
9,1,16,0,1,10,3326
10,1,16,0,-1,10,3325
11,2,16,0,0,-1,10,3324
12,0,1,RNBUF,-1,10,3323
13,0,1,RN,-1,10,3322
22,0,1,_AP,-1,10,3321
22,0,1,_AP,-1,10,3320
22,0,1,_AP,-1,10,3319
22,0,1,_AP,-1,10,3318
22,0,1,_AP,-1,10,3317
22,0,1,_AP,-1,10,3316
22,0,1,_AP,-1,10,3315
22,0,1,_AP,-1,10,3314
22,0,1,_AP,-1,10,3313
22,0,1,_AP,-1,10,3312
22,0,1,_AP,-1,10,3311
22,0,1,_AP,-1,10,3310
22,0,1,_AP,-1,10,3309
22,0,1,_AP,-1,10,3308
22,0,1,_AP,-1,10,3307
22,0,1,_AP,-1,10,3306
1,0,1,actMask,-1,11,3305
20,0,1,actMask,-1,11,3304
14,1,0,0,3,11,3303
14,1,1,0,3,11,3302
14,1,2,0,3,11,3301
14,1,3,0,3,11,3300
14,1,4,0,3,11,3299
14,1,5,0,3,11,3298
14,1,6,0,3,11,3297
14,1,7,0,3,11,3296
14,1,8,0,3,11,3295
14,1,9,0,3,11,3294
14,1,10,0,3,11,3293
14,1,11,0,3,11,3292
14,1,12,0,3,11,3291
14,1,13,0,3,11,3290
14,1,14,0,3,11,3289
14,1,15,0,3,11,3288
14,1,0,0,1,17,3287
3,2,0,0,0,1,17,3286
14,1,1,0,1,17,3285
3,2,1,1,0,1,17,3284
14,1,2,0,1,17,3283
3,2,2,2,0,1,17,3282
14,1,3,0,1,17,3281
3,2,3,3,0,1,17,3280
14,1,4,0,1,17,3279
3,2,4,4,0,1,17,3278
14,1,5,0,1,17,3277
3,2,5,5,0,1,17,3276
14,1,6,0,1,17,3275
3,2,6,6,0,1,17,3274
14,1,7,0,1,17,3273
3,2,7,7,0,1,17,3272
14,1,8,0,1,17,3271
3,2,8,8,0,1,17,3270
14,1,9,0,1,17,3269
3,2,9,9,0,1,17,3268
14,1,10,0,1,17,3267
3,2,10,10,0,1,17,3266
14,1,11,0,1,17,3265
3,2,11,11,0,1,17,3264
14,1,12,0,1,17,3263
3,2,12,12,0,1,17,3262
14,1,13,0,1,17,3261
3,2,13,13,0,1,17,3260
14,1,14,0,1,17,3259
3,2,14,14,0,1,17,3258
14,1,15,0,1,17,3257
3,2,15,15,0,1,17,3256
14,1,48,0,1,14,3255
3,2,48,0,0,1,14,3254
14,1,49,0,1,14,3253
3,2,49,1,0,1,14,3252
14,1,50,0,1,14,3251
3,2,50,2,0,1,14,3250
14,1,16,0,1,12,3249
14,1,17,0,1,12,3248
14,1,18,0,1,12,3247
14,1,19,0,1,12,3246
14,1,20,0,1,12,3245
14,1,21,0,1,12,3244
14,1,22,0,1,12,3243
14,1,23,0,1,12,3242
14,1,24,0,1,12,3241
14,1,25,0,1,12,3240
14,1,26,0,1,12,3239
14,1,27,0,1,12,3238
14,1,28,0,1,12,3237
14,1,29,0,1,12,3236
14,1,30,0,1,12,3235
14,1,31,0,1,12,3234
22,0,1,_AP,-1,12,3233
14,1,50,0,3,12,3232
22,0,1,_AP,-1,12,3231
14,1,49,0,3,12,3230
22,0,1,_AP,-1,12,3229
14,1,48,0,3,12,3228
3,2,31,15,0,1,15,3227
3,2,30,14,0,1,15,3226
3,2,29,13,0,1,15,3225
3,2,28,12,0,1,15,3224
3,2,27,11,0,1,15,3223
3,2,26,10,0,1,15,3222
3,2,25,9,0,1,15,3221
3,2,24,8,0,1,15,3220
3,2,23,7,0,1,15,3219
3,2,22,6,0,1,15,3218
3,2,21,5,0,1,15,3217
3,2,20,4,0,1,15,3216
3,2,19,3,0,1,15,3215
3,2,18,2,0,1,15,3214
3,2,17,1,0,1,15,3213
3,2,16,0,0,1,15,3212
22,0,1,_AP,-1,15,3211
14,1,31,0,3,15,3210
22,0,1,_AP,-1,15,3209
14,1,30,0,3,15,3208
22,0,1,_AP,-1,15,3207
14,1,29,0,3,15,3206
22,0,1,_AP,-1,15,3205
14,1,28,0,3,15,3204
22,0,1,_AP,-1,15,3203
14,1,27,0,3,15,3202
22,0,1,_AP,-1,15,3201
14,1,26,0,3,15,3200
22,0,1,_AP,-1,15,3199
14,1,25,0,3,15,3198
22,0,1,_AP,-1,15,3197
14,1,24,0,3,15,3196
22,0,1,_AP,-1,15,3195
14,1,23,0,3,15,3194
22,0,1,_AP,-1,15,3193
14,1,22,0,3,15,3192
22,0,1,_AP,-1,15,3191
14,1,21,0,3,15,3190
22,0,1,_AP,-1,15,3189
14,1,20,0,3,15,3188
22,0,1,_AP,-1,15,3187
14,1,19,0,3,15,3186
22,0,1,_AP,-1,15,3185
14,1,18,0,3,15,3184
22,0,1,_AP,-1,15,3183
14,1,17,0,3,15,3182
22,0,1,_AP,-1,15,3181
14,1,16,0,3,15,3180
22,0,1,_P,-1,0,3179
22,0,1,_P,-1,0,3178
22,0,1,_P,-1,0,3177
22,0,1,_AP,-1,0,3176
22,0,1,_AP,-1,0,3175
22,0,1,_AP,-1,0,3174
22,0,1,_AP,-1,0,3173
22,0,1,_AP,-1,0,3172
22,0,1,_AP,-1,0,3171
22,0,1,_AP,-1,0,3170
22,0,1,_AP,-1,0,3169
22,0,1,_AP,-1,0,3168
22,0,1,_AP,-1,0,3167
22,0,1,_AP,-1,0,3166
22,0,1,_AP,-1,0,3165
22,0,1,_AP,-1,0,3164
22,0,1,_AP,-1,0,3163
22,0,1,_AP,-1,0,3162
22,0,1,_AP,-1,0,3161
22,0,1,_P,-1,0,3160
22,0,1,_P,-1,0,3159
22,0,1,_P,-1,0,3158
22,0,1,_P,-1,0,3157
22,0,1,_P,-1,0,3156
22,0,1,_P,-1,0,3155
22,0,1,_P,-1,0,3154
22,0,1,_P,-1,0,3153
22,0,1,_P,-1,0,3152
22,0,1,_P,-1,0,3151
22,0,1,_P,-1,0,3150
22,0,1,_P,-1,0,3149
22,0,1,_P,-1,0,3148
22,0,1,_P,-1,0,3147
22,0,1,_P,-1,0,3146
22,0,1,_P,-1,0,3145
14,1,32,0,3,13,3144
14,1,33,0,3,13,3143
14,1,34,0,3,13,3142
14,1,35,0,3,13,3141
14,1,36,0,3,13,3140
14,1,37,0,3,13,3139
14,1,38,0,3,13,3138
14,1,39,0,3,13,3137
14,1,40,0,3,13,3136
14,1,41,0,3,13,3135
14,1,42,0,3,13,3134
14,1,43,0,3,13,3133
14,1,44,0,3,13,3132
14,1,45,0,3,13,3131
14,1,46,0,3,13,3130
14,1,47,0,3,13,3129
14,1,32,0,1,13,3128
14,1,33,0,1,13,3127
14,1,34,0,1,13,3126
14,1,35,0,1,13,3125
14,1,36,0,1,13,3124
14,1,37,0,1,13,3123
14,1,38,0,1,13,3122
14,1,39,0,1,13,3121
14,1,40,0,1,13,3120
14,1,41,0,1,13,3119
14,1,42,0,1,13,3118
14,1,43,0,1,13,3117
14,1,44,0,1,13,3116
14,1,45,0,1,13,3115
14,1,46,0,1,13,3114
14,1,47,0,1,13,3113
3,2,47,15,0,1,16,3112
3,2,46,14,0,1,16,3111
3,2,45,13,0,1,16,3110
3,2,44,12,0,1,16,3109
3,2,43,11,0,1,16,3108
3,2,42,10,0,1,16,3107
3,2,41,9,0,1,16,3106
3,2,40,8,0,1,16,3105
3,2,39,7,0,1,16,3104
3,2,38,6,0,1,16,3103
3,2,37,5,0,1,16,3102
3,2,36,4,0,1,16,3101
3,2,35,3,0,1,16,3100
3,2,34,2,0,1,16,3099
3,2,33,1,0,1,16,3098
3,2,32,0,0,1,16,3097
4,1,0,1,temp2BUF,-1,18,3096
5,1,0,0,2,18,3095
5,1,1,0,2,18,3094
5,1,2,0,2,18,3093
5,1,3,0,2,18,3092
5,1,4,0,2,18,3091
5,1,5,0,2,18,3090
5,1,6,0,2,18,3089
5,1,7,0,2,18,3088
5,1,8,0,2,18,3087
5,1,9,0,2,18,3086
5,1,10,0,2,18,3085
5,1,11,0,2,18,3084
5,1,12,0,2,18,3083
5,1,13,0,2,18,3082
5,1,14,0,2,18,3081
5,1,15,0,2,18,3080
5,1,32,0,2,18,3079
5,1,33,0,2,18,3078
5,1,34,0,2,18,3077
5,1,35,0,2,18,3076
5,1,36,0,2,18,3075
5,1,37,0,2,18,3074
5,1,38,0,2,18,3073
5,1,39,0,2,18,3072
5,1,40,0,2,18,3071
5,1,41,0,2,18,3070
5,1,42,0,2,18,3069
5,1,43,0,2,18,3068
5,1,44,0,2,18,3067
5,1,45,0,2,18,3066
5,1,46,0,2,18,3065
5,1,47,0,2,18,3064
9,1,47,0,2,19,3063
3,2,47,15,0,2,19,3062
9,1,46,0,2,19,3061
3,2,46,14,0,2,19,3060
9,1,45,0,2,19,3059
3,2,45,13,0,2,19,3058
9,1,44,0,2,19,3057
3,2,44,12,0,2,19,3056
9,1,43,0,2,19,3055
3,2,43,11,0,2,19,3054
9,1,42,0,2,19,3053
3,2,42,10,0,2,19,3052
9,1,41,0,2,19,3051
3,2,41,9,0,2,19,3050
9,1,40,0,2,19,3049
3,2,40,8,0,2,19,3048
9,1,39,0,2,19,3047
3,2,39,7,0,2,19,3046
9,1,38,0,2,19,3045
3,2,38,6,0,2,19,3044
9,1,37,0,2,19,3043
3,2,37,5,0,2,19,3042
9,1,36,0,2,19,3041
3,2,36,4,0,2,19,3040
9,1,35,0,2,19,3039
3,2,35,3,0,2,19,3038
9,1,34,0,2,19,3037
3,2,34,2,0,2,19,3036
9,1,33,0,2,19,3035
3,2,33,1,0,2,19,3034
9,1,32,0,2,19,3033
3,2,32,0,0,2,19,3032
14,1,0,0,2,19,3031
3,2,0,0,0,3,19,3030
14,1,1,0,2,19,3029
3,2,1,1,0,3,19,3028
14,1,2,0,2,19,3027
3,2,2,2,0,3,19,3026
14,1,3,0,2,19,3025
3,2,3,3,0,3,19,3024
14,1,4,0,2,19,3023
3,2,4,4,0,3,19,3022
14,1,5,0,2,19,3021
3,2,5,5,0,3,19,3020
14,1,6,0,2,19,3019
3,2,6,6,0,3,19,3018
14,1,7,0,2,19,3017
3,2,7,7,0,3,19,3016
14,1,8,0,2,19,3015
3,2,8,8,0,3,19,3014
14,1,9,0,2,19,3013
3,2,9,9,0,3,19,3012
14,1,10,0,2,19,3011
3,2,10,10,0,3,19,3010
14,1,11,0,2,19,3009
3,2,11,11,0,3,19,3008
14,1,12,0,2,19,3007
3,2,12,12,0,3,19,3006
14,1,13,0,2,19,3005
3,2,13,13,0,3,19,3004
14,1,14,0,2,19,3003
3,2,14,14,0,3,19,3002
14,1,15,0,2,19,3001
3,2,15,15,0,3,19,3000
9,1,15,0,2,21,2999
3,2,15,15,0,2,21,2998
9,1,14,0,2,21,2997
3,2,14,14,0,2,21,2996
9,1,13,0,2,21,2995
3,2,13,13,0,2,21,2994
9,1,12,0,2,21,2993
3,2,12,12,0,2,21,2992
9,1,11,0,2,21,2991
3,2,11,11,0,2,21,2990
9,1,10,0,2,21,2989
3,2,10,10,0,2,21,2988
9,1,9,0,2,21,2987
3,2,9,9,0,2,21,2986
9,1,8,0,2,21,2985
3,2,8,8,0,2,21,2984
9,1,7,0,2,21,2983
3,2,7,7,0,2,21,2982
9,1,6,0,2,21,2981
3,2,6,6,0,2,21,2980
9,1,5,0,2,21,2979
3,2,5,5,0,2,21,2978
9,1,4,0,2,21,2977
3,2,4,4,0,2,21,2976
9,1,3,0,2,21,2975
3,2,3,3,0,2,21,2974
9,1,2,0,2,21,2973
3,2,2,2,0,2,21,2972
9,1,1,0,2,21,2971
3,2,1,1,0,2,21,2970
9,1,0,0,2,21,2969
3,2,0,0,0,2,21,2968
14,1,32,0,2,21,2967
14,1,33,0,2,21,2966
14,1,34,0,2,21,2965
14,1,35,0,2,21,2964
14,1,36,0,2,21,2963
14,1,37,0,2,21,2962
14,1,38,0,2,21,2961
14,1,39,0,2,21,2960
14,1,40,0,2,21,2959
14,1,41,0,2,21,2958
14,1,42,0,2,21,2957
14,1,43,0,2,21,2956
14,1,44,0,2,21,2955
14,1,45,0,2,21,2954
14,1,46,0,2,21,2953
14,1,47,0,2,21,2952
5,1,16,0,2,20,2951
5,1,17,0,2,20,2950
5,1,18,0,2,20,2949
5,1,19,0,2,20,2948
5,1,20,0,2,20,2947
5,1,21,0,2,20,2946
5,1,22,0,2,20,2945
5,1,23,0,2,20,2944
5,1,24,0,2,20,2943
5,1,25,0,2,20,2942
5,1,26,0,2,20,2941
5,1,27,0,2,20,2940
5,1,28,0,2,20,2939
5,1,29,0,2,20,2938
5,1,30,0,2,20,2937
5,1,31,0,2,20,2936
14,1,48,0,2,20,2935
3,2,48,0,0,3,20,2934
14,1,49,0,2,20,2933
3,2,49,1,0,3,20,2932
14,1,50,0,2,20,2931
3,2,50,2,0,3,20,2930
9,1,31,0,2,22,2929
3,2,31,15,0,2,22,2928
9,1,30,0,2,22,2927
3,2,30,14,0,2,22,2926
9,1,29,0,2,22,2925
3,2,29,13,0,2,22,2924
9,1,28,0,2,22,2923
3,2,28,12,0,2,22,2922
9,1,27,0,2,22,2921
3,2,27,11,0,2,22,2920
9,1,26,0,2,22,2919
3,2,26,10,0,2,22,2918
9,1,25,0,2,22,2917
3,2,25,9,0,2,22,2916
9,1,24,0,2,22,2915
3,2,24,8,0,2,22,2914
9,1,23,0,2,22,2913
3,2,23,7,0,2,22,2912
9,1,22,0,2,22,2911
3,2,22,6,0,2,22,2910
9,1,21,0,2,22,2909
3,2,21,5,0,2,22,2908
9,1,20,0,2,22,2907
3,2,20,4,0,2,22,2906
9,1,19,0,2,22,2905
3,2,19,3,0,2,22,2904
9,1,18,0,2,22,2903
3,2,18,2,0,2,22,2902
9,1,17,0,2,22,2901
3,2,17,1,0,2,22,2900
9,1,16,0,2,22,2899
3,2,16,0,0,2,22,2898
3,2,47,15,0,3,22,2897
3,2,46,14,0,3,22,2896
3,2,45,13,0,3,22,2895
3,2,44,12,0,3,22,2894
3,2,43,11,0,3,22,2893
3,2,42,10,0,3,22,2892
3,2,41,9,0,3,22,2891
3,2,40,8,0,3,22,2890
3,2,39,7,0,3,22,2889
3,2,38,6,0,3,22,2888
3,2,37,5,0,3,22,2887
3,2,36,4,0,3,22,2886
3,2,35,3,0,3,22,2885
3,2,34,2,0,3,22,2884
3,2,33,1,0,3,22,2883
3,2,32,0,0,3,22,2882
14,1,16,0,2,23,2881
3,2,16,0,0,3,23,2880
14,1,17,0,2,23,2879
3,2,17,1,0,3,23,2878
14,1,18,0,2,23,2877
3,2,18,2,0,3,23,2876
14,1,19,0,2,23,2875
3,2,19,3,0,3,23,2874
14,1,20,0,2,23,2873
3,2,20,4,0,3,23,2872
14,1,21,0,2,23,2871
3,2,21,5,0,3,23,2870
14,1,22,0,2,23,2869
3,2,22,6,0,3,23,2868
14,1,23,0,2,23,2867
3,2,23,7,0,3,23,2866
14,1,24,0,2,23,2865
3,2,24,8,0,3,23,2864
14,1,25,0,2,23,2863
3,2,25,9,0,3,23,2862
14,1,26,0,2,23,2861
3,2,26,10,0,3,23,2860
14,1,27,0,2,23,2859
3,2,27,11,0,3,23,2858
14,1,28,0,2,23,2857
3,2,28,12,0,3,23,2856
14,1,29,0,2,23,2855
3,2,29,13,0,3,23,2854
14,1,30,0,2,23,2853
3,2,30,14,0,3,23,2852
14,1,31,0,2,23,2851
3,2,31,15,0,3,23,2850
4,1,0,1,PBPBUF,-1,23,2849
17,0,1,PBP,-1,23,2848
18,0,1,PBP,-1,23,2847
5,1,16,0,4,23,2846
5,1,17,0,4,23,2845
5,1,18,0,4,23,2844
5,1,19,0,4,23,2843
5,1,20,0,4,23,2842
5,1,21,0,4,23,2841
5,1,22,0,4,23,2840
5,1,23,0,4,23,2839
5,1,24,0,4,23,2838
5,1,25,0,4,23,2837
5,1,26,0,4,23,2836
5,1,27,0,4,23,2835
5,1,28,0,4,23,2834
5,1,29,0,4,23,2833
5,1,30,0,4,23,2832
5,1,31,0,4,23,2831
7,1,31,0,2,30,2830
8,1,31,0,2,30,2829
3,2,31,15,0,6,30,2828
7,1,30,0,2,30,2827
8,1,30,0,2,30,2826
3,2,30,14,0,6,30,2825
7,1,29,0,2,30,2824
8,1,29,0,2,30,2823
3,2,29,13,0,6,30,2822
7,1,28,0,2,30,2821
8,1,28,0,2,30,2820
3,2,28,12,0,6,30,2819
7,1,27,0,2,30,2818
8,1,27,0,2,30,2817
3,2,27,11,0,6,30,2816
7,1,26,0,2,30,2815
8,1,26,0,2,30,2814
3,2,26,10,0,6,30,2813
7,1,25,0,2,30,2812
8,1,25,0,2,30,2811
3,2,25,9,0,6,30,2810
7,1,24,0,2,30,2809
8,1,24,0,2,30,2808
3,2,24,8,0,6,30,2807
7,1,23,0,2,30,2806
8,1,23,0,2,30,2805
3,2,23,7,0,6,30,2804
7,1,22,0,2,30,2803
8,1,22,0,2,30,2802
3,2,22,6,0,6,30,2801
7,1,21,0,2,30,2800
8,1,21,0,2,30,2799
3,2,21,5,0,6,30,2798
7,1,20,0,2,30,2797
8,1,20,0,2,30,2796
3,2,20,4,0,6,30,2795
7,1,19,0,2,30,2794
8,1,19,0,2,30,2793
3,2,19,3,0,6,30,2792
7,1,18,0,2,30,2791
8,1,18,0,2,30,2790
3,2,18,2,0,6,30,2789
7,1,17,0,2,30,2788
8,1,17,0,2,30,2787
3,2,17,1,0,6,30,2786
7,1,16,0,2,30,2785
8,1,16,0,2,30,2784
3,2,16,0,0,6,30,2783
3,2,16,0,0,9,31,2782
3,2,17,1,0,9,31,2781
3,2,18,2,0,9,31,2780
3,2,19,3,0,9,31,2779
3,2,20,4,0,9,31,2778
3,2,21,5,0,9,31,2777
3,2,22,6,0,9,31,2776
3,2,23,7,0,9,31,2775
3,2,24,8,0,9,31,2774
3,2,25,9,0,9,31,2773
3,2,26,10,0,9,31,2772
3,2,27,11,0,9,31,2771
3,2,28,12,0,9,31,2770
3,2,29,13,0,9,31,2769
3,2,30,14,0,9,31,2768
3,2,31,15,0,9,31,2767
5,1,0,0,4,34,2766
7,1,0,0,2,34,2765
8,1,0,0,2,34,2764
3,2,0,0,0,9,34,2763
5,1,1,0,4,34,2762
7,1,1,0,2,34,2761
8,1,1,0,2,34,2760
3,2,1,1,0,9,34,2759
5,1,2,0,4,34,2758
7,1,2,0,2,34,2757
8,1,2,0,2,34,2756
3,2,2,2,0,9,34,2755
5,1,3,0,4,34,2754
7,1,3,0,2,34,2753
8,1,3,0,2,34,2752
3,2,3,3,0,9,34,2751
5,1,4,0,4,34,2750
7,1,4,0,2,34,2749
8,1,4,0,2,34,2748
3,2,4,4,0,9,34,2747
5,1,5,0,4,34,2746
7,1,5,0,2,34,2745
8,1,5,0,2,34,2744
3,2,5,5,0,9,34,2743
5,1,6,0,4,34,2742
7,1,6,0,2,34,2741
8,1,6,0,2,34,2740
3,2,6,6,0,9,34,2739
5,1,7,0,4,34,2738
7,1,7,0,2,34,2737
8,1,7,0,2,34,2736
3,2,7,7,0,9,34,2735
5,1,8,0,4,34,2734
7,1,8,0,2,34,2733
8,1,8,0,2,34,2732
3,2,8,8,0,9,34,2731
5,1,9,0,4,34,2730
7,1,9,0,2,34,2729
8,1,9,0,2,34,2728
3,2,9,9,0,9,34,2727
5,1,10,0,4,34,2726
7,1,10,0,2,34,2725
8,1,10,0,2,34,2724
3,2,10,10,0,9,34,2723
5,1,11,0,4,34,2722
7,1,11,0,2,34,2721
8,1,11,0,2,34,2720
3,2,11,11,0,9,34,2719
5,1,12,0,4,34,2718
7,1,12,0,2,34,2717
8,1,12,0,2,34,2716
3,2,12,12,0,9,34,2715
5,1,13,0,4,34,2714
7,1,13,0,2,34,2713
8,1,13,0,2,34,2712
3,2,13,13,0,9,34,2711
5,1,14,0,4,34,2710
7,1,14,0,2,34,2709
8,1,14,0,2,34,2708
3,2,14,14,0,9,34,2707
5,1,15,0,4,34,2706
7,1,15,0,2,34,2705
8,1,15,0,2,34,2704
3,2,15,15,0,9,34,2703
5,1,32,0,4,29,2702
7,1,32,0,2,29,2701
3,2,32,0,0,6,29,2700
5,1,33,0,4,29,2699
7,1,33,0,2,29,2698
3,2,33,1,0,6,29,2697
5,1,34,0,4,29,2696
7,1,34,0,2,29,2695
3,2,34,2,0,6,29,2694
5,1,35,0,4,29,2693
7,1,35,0,2,29,2692
3,2,35,3,0,6,29,2691
5,1,36,0,4,29,2690
7,1,36,0,2,29,2689
3,2,36,4,0,6,29,2688
5,1,37,0,4,29,2687
7,1,37,0,2,29,2686
3,2,37,5,0,6,29,2685
5,1,38,0,4,29,2684
7,1,38,0,2,29,2683
3,2,38,6,0,6,29,2682
5,1,39,0,4,29,2681
7,1,39,0,2,29,2680
3,2,39,7,0,6,29,2679
5,1,40,0,4,29,2678
7,1,40,0,2,29,2677
3,2,40,8,0,6,29,2676
5,1,41,0,4,29,2675
7,1,41,0,2,29,2674
3,2,41,9,0,6,29,2673
5,1,42,0,4,29,2672
7,1,42,0,2,29,2671
3,2,42,10,0,6,29,2670
5,1,43,0,4,29,2669
7,1,43,0,2,29,2668
3,2,43,11,0,6,29,2667
5,1,44,0,4,29,2666
7,1,44,0,2,29,2665
3,2,44,12,0,6,29,2664
5,1,45,0,4,29,2663
7,1,45,0,2,29,2662
3,2,45,13,0,6,29,2661
5,1,46,0,4,29,2660
7,1,46,0,2,29,2659
3,2,46,14,0,6,29,2658
5,1,47,0,4,29,2657
7,1,47,0,2,29,2656
3,2,47,15,0,6,29,2655
5,1,0,0,5,26,2654
7,1,0,0,3,26,2653
8,1,0,0,3,26,2652
5,1,1,0,5,26,2651
7,1,1,0,3,26,2650
8,1,1,0,3,26,2649
5,1,2,0,5,26,2648
7,1,2,0,3,26,2647
8,1,2,0,3,26,2646
5,1,3,0,5,26,2645
7,1,3,0,3,26,2644
8,1,3,0,3,26,2643
5,1,4,0,5,26,2642
7,1,4,0,3,26,2641
8,1,4,0,3,26,2640
5,1,5,0,5,26,2639
7,1,5,0,3,26,2638
8,1,5,0,3,26,2637
5,1,6,0,5,26,2636
7,1,6,0,3,26,2635
8,1,6,0,3,26,2634
5,1,7,0,5,26,2633
7,1,7,0,3,26,2632
8,1,7,0,3,26,2631
5,1,8,0,5,26,2630
7,1,8,0,3,26,2629
8,1,8,0,3,26,2628
5,1,9,0,5,26,2627
7,1,9,0,3,26,2626
8,1,9,0,3,26,2625
5,1,10,0,5,26,2624
7,1,10,0,3,26,2623
8,1,10,0,3,26,2622
5,1,11,0,5,26,2621
7,1,11,0,3,26,2620
8,1,11,0,3,26,2619
5,1,12,0,5,26,2618
7,1,12,0,3,26,2617
8,1,12,0,3,26,2616
5,1,13,0,5,26,2615
7,1,13,0,3,26,2614
8,1,13,0,3,26,2613
5,1,14,0,5,26,2612
7,1,14,0,3,26,2611
8,1,14,0,3,26,2610
5,1,15,0,5,26,2609
7,1,15,0,3,26,2608
8,1,15,0,3,26,2607
5,1,16,0,5,27,2606
7,1,16,0,3,27,2605
8,1,16,0,3,27,2604
5,1,17,0,5,27,2603
7,1,17,0,3,27,2602
8,1,17,0,3,27,2601
5,1,18,0,5,27,2600
7,1,18,0,3,27,2599
8,1,18,0,3,27,2598
5,1,19,0,5,27,2597
7,1,19,0,3,27,2596
8,1,19,0,3,27,2595
5,1,20,0,5,27,2594
7,1,20,0,3,27,2593
8,1,20,0,3,27,2592
5,1,21,0,5,27,2591
7,1,21,0,3,27,2590
8,1,21,0,3,27,2589
5,1,22,0,5,27,2588
7,1,22,0,3,27,2587
8,1,22,0,3,27,2586
5,1,23,0,5,27,2585
7,1,23,0,3,27,2584
8,1,23,0,3,27,2583
5,1,24,0,5,27,2582
7,1,24,0,3,27,2581
8,1,24,0,3,27,2580
5,1,25,0,5,27,2579
7,1,25,0,3,27,2578
8,1,25,0,3,27,2577
5,1,26,0,5,27,2576
7,1,26,0,3,27,2575
8,1,26,0,3,27,2574
5,1,27,0,5,27,2573
7,1,27,0,3,27,2572
8,1,27,0,3,27,2571
5,1,28,0,5,27,2570
7,1,28,0,3,27,2569
8,1,28,0,3,27,2568
5,1,29,0,5,27,2567
7,1,29,0,3,27,2566
8,1,29,0,3,27,2565
5,1,30,0,5,27,2564
7,1,30,0,3,27,2563
8,1,30,0,3,27,2562
5,1,31,0,5,27,2561
7,1,31,0,3,27,2560
8,1,31,0,3,27,2559
3,2,31,15,0,8,32,2558
3,2,30,14,0,8,32,2557
3,2,29,13,0,8,32,2556
3,2,28,12,0,8,32,2555
3,2,27,11,0,8,32,2554
3,2,26,10,0,8,32,2553
3,2,25,9,0,8,32,2552
3,2,24,8,0,8,32,2551
3,2,23,7,0,8,32,2550
3,2,22,6,0,8,32,2549
3,2,21,5,0,8,32,2548
3,2,20,4,0,8,32,2547
3,2,19,3,0,8,32,2546
3,2,18,2,0,8,32,2545
3,2,17,1,0,8,32,2544
3,2,16,0,0,8,32,2543
3,2,47,15,0,9,32,2542
3,2,46,14,0,9,32,2541
3,2,45,13,0,9,32,2540
3,2,44,12,0,9,32,2539
3,2,43,11,0,9,32,2538
3,2,42,10,0,9,32,2537
3,2,41,9,0,9,32,2536
3,2,40,8,0,9,32,2535
3,2,39,7,0,9,32,2534
3,2,38,6,0,9,32,2533
3,2,37,5,0,9,32,2532
3,2,36,4,0,9,32,2531
3,2,35,3,0,9,32,2530
3,2,34,2,0,9,32,2529
3,2,33,1,0,9,32,2528
3,2,32,0,0,9,32,2527
5,1,48,0,4,24,2526
5,1,49,0,4,24,2525
5,1,50,0,4,24,2524
5,1,48,0,5,24,2523
7,1,48,0,3,24,2522
8,1,48,0,3,24,2521
5,1,49,0,5,24,2520
7,1,49,0,3,24,2519
8,1,49,0,3,24,2518
5,1,50,0,5,24,2517
7,1,50,0,3,24,2516
8,1,50,0,3,24,2515
7,1,50,0,2,25,2514
3,2,50,2,0,8,25,2513
3,2,50,2,0,9,25,2512
7,1,49,0,2,25,2511
3,2,49,1,0,8,25,2510
3,2,49,1,0,9,25,2509
7,1,48,0,2,25,2508
3,2,48,0,0,8,25,2507
3,2,48,0,0,9,25,2506
8,1,48,0,2,33,2505
8,1,49,0,2,33,2504
8,1,50,0,2,33,2503
8,1,47,0,2,33,2502
8,1,46,0,2,33,2501
8,1,45,0,2,33,2500
8,1,44,0,2,33,2499
8,1,43,0,2,33,2498
8,1,42,0,2,33,2497
8,1,41,0,2,33,2496
8,1,40,0,2,33,2495
8,1,39,0,2,33,2494
8,1,38,0,2,33,2493
8,1,37,0,2,33,2492
8,1,36,0,2,33,2491
8,1,35,0,2,33,2490
8,1,34,0,2,33,2489
8,1,33,0,2,33,2488
8,1,32,0,2,33,2487
5,1,32,0,5,33,2486
7,1,32,0,3,33,2485
8,1,32,0,3,33,2484
3,2,32,0,0,8,33,2483
5,1,33,0,5,33,2482
7,1,33,0,3,33,2481
8,1,33,0,3,33,2480
3,2,33,1,0,8,33,2479
5,1,34,0,5,33,2478
7,1,34,0,3,33,2477
8,1,34,0,3,33,2476
3,2,34,2,0,8,33,2475
5,1,35,0,5,33,2474
7,1,35,0,3,33,2473
8,1,35,0,3,33,2472
3,2,35,3,0,8,33,2471
5,1,36,0,5,33,2470
7,1,36,0,3,33,2469
8,1,36,0,3,33,2468
3,2,36,4,0,8,33,2467
5,1,37,0,5,33,2466
7,1,37,0,3,33,2465
8,1,37,0,3,33,2464
3,2,37,5,0,8,33,2463
5,1,38,0,5,33,2462
7,1,38,0,3,33,2461
8,1,38,0,3,33,2460
3,2,38,6,0,8,33,2459
5,1,39,0,5,33,2458
7,1,39,0,3,33,2457
8,1,39,0,3,33,2456
3,2,39,7,0,8,33,2455
5,1,40,0,5,33,2454
7,1,40,0,3,33,2453
8,1,40,0,3,33,2452
3,2,40,8,0,8,33,2451
5,1,41,0,5,33,2450
7,1,41,0,3,33,2449
8,1,41,0,3,33,2448
3,2,41,9,0,8,33,2447
5,1,42,0,5,33,2446
7,1,42,0,3,33,2445
8,1,42,0,3,33,2444
3,2,42,10,0,8,33,2443
5,1,43,0,5,33,2442
7,1,43,0,3,33,2441
8,1,43,0,3,33,2440
3,2,43,11,0,8,33,2439
5,1,44,0,5,33,2438
7,1,44,0,3,33,2437
8,1,44,0,3,33,2436
3,2,44,12,0,8,33,2435
5,1,45,0,5,33,2434
7,1,45,0,3,33,2433
8,1,45,0,3,33,2432
3,2,45,13,0,8,33,2431
5,1,46,0,5,33,2430
7,1,46,0,3,33,2429
8,1,46,0,3,33,2428
3,2,46,14,0,8,33,2427
5,1,47,0,5,33,2426
7,1,47,0,3,33,2425
8,1,47,0,3,33,2424
3,2,47,15,0,8,33,2423
3,2,15,15,0,8,35,2422
3,2,14,14,0,8,35,2421
3,2,13,13,0,8,35,2420
3,2,12,12,0,8,35,2419
3,2,11,11,0,8,35,2418
3,2,10,10,0,8,35,2417
3,2,9,9,0,8,35,2416
3,2,8,8,0,8,35,2415
3,2,7,7,0,8,35,2414
3,2,6,6,0,8,35,2413
3,2,5,5,0,8,35,2412
3,2,4,4,0,8,35,2411
3,2,3,3,0,8,35,2410
3,2,2,2,0,8,35,2409
3,2,1,1,0,8,35,2408
3,2,0,0,0,8,35,2407
4,1,0,1,PAPBUF,-1,35,2406
3,2,15,15,0,6,35,2405
3,2,14,14,0,6,35,2404
3,2,13,13,0,6,35,2403
3,2,12,12,0,6,35,2402
3,2,11,11,0,6,35,2401
3,2,10,10,0,6,35,2400
3,2,9,9,0,6,35,2399
3,2,8,8,0,6,35,2398
3,2,7,7,0,6,35,2397
3,2,6,6,0,6,35,2396
3,2,5,5,0,6,35,2395
3,2,4,4,0,6,35,2394
3,2,3,3,0,6,35,2393
3,2,2,2,0,6,35,2392
3,2,1,1,0,6,35,2391
3,2,0,0,0,6,35,2390
3,2,48,0,0,6,28,2389
3,2,49,1,0,6,28,2388
3,2,50,2,0,6,28,2387
5,1,48,0,2,36,2386
9,1,48,0,2,36,2385
3,2,48,0,0,2,36,2384
5,1,49,0,2,36,2383
9,1,49,0,2,36,2382
3,2,49,1,0,2,36,2381
5,1,50,0,2,36,2380
9,1,50,0,2,36,2379
3,2,50,2,0,2,36,2378
4,1,0,1,RBRBUF,-1,36,2377
17,0,1,RBR,-1,36,2376
19,1,50,0,1,36,2375
19,1,49,0,1,36,2374
19,1,48,0,1,36,2373
18,0,1,RBR,-1,37,2372
5,1,32,0,3,37,2371
5,1,33,0,3,37,2370
5,1,34,0,3,37,2369
5,1,35,0,3,37,2368
5,1,36,0,3,37,2367
5,1,37,0,3,37,2366
5,1,38,0,3,37,2365
5,1,39,0,3,37,2364
5,1,40,0,3,37,2363
5,1,41,0,3,37,2362
5,1,42,0,3,37,2361
5,1,43,0,3,37,2360
5,1,44,0,3,37,2359
5,1,45,0,3,37,2358
5,1,46,0,3,37,2357
5,1,47,0,3,37,2356
5,1,48,0,3,37,2355
5,1,49,0,3,37,2354
5,1,50,0,3,37,2353
7,1,50,0,1,38,2352
2,3,48,50,0,0,-1,38,2351
2,3,49,50,0,0,-1,38,2350
2,3,50,50,0,0,-1,38,2349
3,2,50,2,0,4,38,2348
7,1,49,0,1,38,2347
2,3,48,49,0,0,-1,38,2346
2,3,49,49,0,0,-1,38,2345
2,3,50,49,0,0,-1,38,2344
3,2,49,1,0,4,38,2343
7,1,48,0,1,38,2342
2,3,48,48,0,0,-1,38,2341
2,3,49,48,0,0,-1,38,2340
2,3,50,48,0,0,-1,38,2339
3,2,48,0,0,4,38,2338
5,1,0,0,3,40,2337
5,1,1,0,3,40,2336
5,1,2,0,3,40,2335
5,1,3,0,3,40,2334
5,1,4,0,3,40,2333
5,1,5,0,3,40,2332
5,1,6,0,3,40,2331
5,1,7,0,3,40,2330
5,1,8,0,3,40,2329
5,1,9,0,3,40,2328
5,1,10,0,3,40,2327
5,1,11,0,3,40,2326
5,1,12,0,3,40,2325
5,1,13,0,3,40,2324
5,1,14,0,3,40,2323
5,1,15,0,3,40,2322
19,1,15,0,1,40,2321
2,3,15,48,0,0,-1,40,2320
2,3,15,49,0,0,-1,40,2319
2,3,15,50,0,0,-1,40,2318
19,1,14,0,1,40,2317
19,1,13,0,1,40,2316
19,1,12,0,1,40,2315
19,1,11,0,1,40,2314
19,1,10,0,1,40,2313
19,1,9,0,1,40,2312
19,1,8,0,1,40,2311
19,1,7,0,1,40,2310
19,1,6,0,1,40,2309
19,1,5,0,1,40,2308
19,1,4,0,1,40,2307
19,1,3,0,1,40,2306
19,1,2,0,1,40,2305
19,1,1,0,1,40,2304
19,1,0,0,1,40,2303
8,1,48,0,1,41,2302
8,1,49,0,1,41,2301
8,1,50,0,1,41,2300
19,1,31,0,1,41,2299
2,3,31,48,0,0,-1,41,2298
2,3,31,49,0,0,-1,41,2297
2,3,31,50,0,0,-1,41,2296
19,1,30,0,1,41,2295
2,3,30,48,0,0,-1,41,2294
2,3,30,49,0,0,-1,41,2293
2,3,30,50,0,0,-1,41,2292
19,1,29,0,1,41,2291
2,3,29,48,0,0,-1,41,2290
2,3,29,49,0,0,-1,41,2289
2,3,29,50,0,0,-1,41,2288
19,1,28,0,1,41,2287
2,3,28,48,0,0,-1,41,2286
2,3,28,49,0,0,-1,41,2285
2,3,28,50,0,0,-1,41,2284
19,1,27,0,1,41,2283
2,3,27,48,0,0,-1,41,2282
2,3,27,49,0,0,-1,41,2281
2,3,27,50,0,0,-1,41,2280
19,1,26,0,1,41,2279
2,3,26,48,0,0,-1,41,2278
2,3,26,49,0,0,-1,41,2277
2,3,26,50,0,0,-1,41,2276
19,1,25,0,1,41,2275
2,3,25,49,0,0,-1,41,2274
2,3,25,50,0,0,-1,41,2273
19,1,24,0,1,41,2272
2,3,24,48,0,0,-1,41,2271
2,3,24,49,0,0,-1,41,2270
2,3,24,50,0,0,-1,41,2269
19,1,23,0,1,41,2268
2,3,23,48,0,0,-1,41,2267
2,3,23,49,0,0,-1,41,2266
2,3,23,50,0,0,-1,41,2265
19,1,22,0,1,41,2264
2,3,22,48,0,0,-1,41,2263
2,3,22,49,0,0,-1,41,2262
2,3,22,50,0,0,-1,41,2261
19,1,21,0,1,41,2260
2,3,21,48,0,0,-1,41,2259
2,3,21,49,0,0,-1,41,2258
2,3,21,50,0,0,-1,41,2257
19,1,20,0,1,41,2256
2,3,20,49,0,0,-1,41,2255
19,1,19,0,1,41,2254
2,3,19,50,0,0,-1,41,2253
19,1,18,0,1,41,2252
2,3,18,48,0,0,-1,41,2251
2,3,18,49,0,0,-1,41,2250
2,3,18,50,0,0,-1,41,2249
19,1,17,0,1,41,2248
2,3,17,48,0,0,-1,41,2247
2,3,17,49,0,0,-1,41,2246
2,3,17,50,0,0,-1,41,2245
19,1,16,0,1,41,2244
2,3,16,48,0,0,-1,41,2243
2,3,16,49,0,0,-1,41,2242
2,3,16,50,0,0,-1,41,2241
7,1,15,0,1,42,2240
2,3,14,15,0,0,-1,42,2239
2,3,15,15,0,0,-1,42,2238
2,3,16,15,0,0,-1,42,2237
2,3,18,15,0,0,-1,42,2236
2,3,21,15,0,0,-1,42,2235
2,3,22,15,0,0,-1,42,2234
2,3,23,15,0,0,-1,42,2233
2,3,24,15,0,0,-1,42,2232
2,3,26,15,0,0,-1,42,2231
2,3,27,15,0,0,-1,42,2230
2,3,28,15,0,0,-1,42,2229
2,3,29,15,0,0,-1,42,2228
2,3,30,15,0,0,-1,42,2227
2,3,31,15,0,0,-1,42,2226
7,1,14,0,1,42,2225
2,3,2,14,0,0,-1,42,2224
2,3,3,14,0,0,-1,42,2223
2,3,4,14,0,0,-1,42,2222
2,3,5,14,0,0,-1,42,2221
2,3,6,14,0,0,-1,42,2220
2,3,7,14,0,0,-1,42,2219
2,3,8,14,0,0,-1,42,2218
2,3,9,14,0,0,-1,42,2217
2,3,10,14,0,0,-1,42,2216
2,3,11,14,0,0,-1,42,2215
2,3,12,14,0,0,-1,42,2214
2,3,13,14,0,0,-1,42,2213
2,3,14,14,0,0,-1,42,2212
2,3,15,14,0,0,-1,42,2211
2,3,18,14,0,0,-1,42,2210
2,3,19,14,0,0,-1,42,2209
2,3,20,14,0,0,-1,42,2208
2,3,21,14,0,0,-1,42,2207
2,3,23,14,0,0,-1,42,2206
2,3,24,14,0,0,-1,42,2205
2,3,25,14,0,0,-1,42,2204
2,3,26,14,0,0,-1,42,2203
7,1,13,0,1,42,2202
2,3,3,13,0,0,-1,42,2201
2,3,4,13,0,0,-1,42,2200
2,3,5,13,0,0,-1,42,2199
2,3,6,13,0,0,-1,42,2198
2,3,7,13,0,0,-1,42,2197
2,3,8,13,0,0,-1,42,2196
2,3,9,13,0,0,-1,42,2195
2,3,10,13,0,0,-1,42,2194
2,3,11,13,0,0,-1,42,2193
2,3,12,13,0,0,-1,42,2192
2,3,13,13,0,0,-1,42,2191
2,3,14,13,0,0,-1,42,2190
7,1,12,0,1,42,2189
2,3,2,12,0,0,-1,42,2188
2,3,3,12,0,0,-1,42,2187
2,3,4,12,0,0,-1,42,2186
2,3,5,12,0,0,-1,42,2185
2,3,6,12,0,0,-1,42,2184
2,3,7,12,0,0,-1,42,2183
2,3,8,12,0,0,-1,42,2182
2,3,9,12,0,0,-1,42,2181
2,3,10,12,0,0,-1,42,2180
2,3,11,12,0,0,-1,42,2179
2,3,12,12,0,0,-1,42,2178
2,3,13,12,0,0,-1,42,2177
2,3,14,12,0,0,-1,42,2176
7,1,11,0,1,42,2175
2,3,1,11,0,0,-1,42,2174
2,3,2,11,0,0,-1,42,2173
2,3,3,11,0,0,-1,42,2172
2,3,4,11,0,0,-1,42,2171
2,3,5,11,0,0,-1,42,2170
2,3,6,11,0,0,-1,42,2169
2,3,7,11,0,0,-1,42,2168
2,3,8,11,0,0,-1,42,2167
2,3,9,11,0,0,-1,42,2166
2,3,10,11,0,0,-1,42,2165
2,3,11,11,0,0,-1,42,2164
2,3,12,11,0,0,-1,42,2163
2,3,13,11,0,0,-1,42,2162
2,3,14,11,0,0,-1,42,2161
7,1,10,0,1,42,2160
2,3,2,10,0,0,-1,42,2159
2,3,3,10,0,0,-1,42,2158
2,3,4,10,0,0,-1,42,2157
2,3,5,10,0,0,-1,42,2156
2,3,6,10,0,0,-1,42,2155
2,3,7,10,0,0,-1,42,2154
2,3,8,10,0,0,-1,42,2153
2,3,9,10,0,0,-1,42,2152
2,3,10,10,0,0,-1,42,2151
2,3,11,10,0,0,-1,42,2150
2,3,12,10,0,0,-1,42,2149
2,3,13,10,0,0,-1,42,2148
2,3,14,10,0,0,-1,42,2147
7,1,9,0,1,42,2146
2,3,2,9,0,0,-1,42,2145
2,3,3,9,0,0,-1,42,2144
2,3,4,9,0,0,-1,42,2143
2,3,5,9,0,0,-1,42,2142
2,3,6,9,0,0,-1,42,2141
2,3,7,9,0,0,-1,42,2140
2,3,8,9,0,0,-1,42,2139
2,3,9,9,0,0,-1,42,2138
2,3,10,9,0,0,-1,42,2137
2,3,11,9,0,0,-1,42,2136
2,3,12,9,0,0,-1,42,2135
2,3,13,9,0,0,-1,42,2134
2,3,14,9,0,0,-1,42,2133
7,1,8,0,1,42,2132
2,3,2,8,0,0,-1,42,2131
2,3,3,8,0,0,-1,42,2130
2,3,4,8,0,0,-1,42,2129
2,3,5,8,0,0,-1,42,2128
2,3,6,8,0,0,-1,42,2127
2,3,7,8,0,0,-1,42,2126
2,3,8,8,0,0,-1,42,2125
2,3,9,8,0,0,-1,42,2124
2,3,10,8,0,0,-1,42,2123
2,3,11,8,0,0,-1,42,2122
2,3,12,8,0,0,-1,42,2121
2,3,13,8,0,0,-1,42,2120
2,3,14,8,0,0,-1,42,2119
7,1,7,0,1,42,2118
2,3,3,7,0,0,-1,42,2117
2,3,4,7,0,0,-1,42,2116
2,3,5,7,0,0,-1,42,2115
2,3,6,7,0,0,-1,42,2114
2,3,7,7,0,0,-1,42,2113
2,3,8,7,0,0,-1,42,2112
2,3,9,7,0,0,-1,42,2111
2,3,10,7,0,0,-1,42,2110
2,3,11,7,0,0,-1,42,2109
2,3,12,7,0,0,-1,42,2108
2,3,13,7,0,0,-1,42,2107
2,3,14,7,0,0,-1,42,2106
7,1,6,0,1,42,2105
2,3,4,6,0,0,-1,42,2104
2,3,5,6,0,0,-1,42,2103
2,3,6,6,0,0,-1,42,2102
2,3,7,6,0,0,-1,42,2101
2,3,8,6,0,0,-1,42,2100
2,3,9,6,0,0,-1,42,2099
2,3,10,6,0,0,-1,42,2098
2,3,11,6,0,0,-1,42,2097
2,3,12,6,0,0,-1,42,2096
2,3,13,6,0,0,-1,42,2095
2,3,14,6,0,0,-1,42,2094
7,1,5,0,1,42,2093
2,3,4,5,0,0,-1,42,2092
2,3,5,5,0,0,-1,42,2091
2,3,6,5,0,0,-1,42,2090
2,3,7,5,0,0,-1,42,2089
2,3,8,5,0,0,-1,42,2088
2,3,9,5,0,0,-1,42,2087
2,3,10,5,0,0,-1,42,2086
2,3,11,5,0,0,-1,42,2085
2,3,12,5,0,0,-1,42,2084
2,3,13,5,0,0,-1,42,2083
2,3,14,5,0,0,-1,42,2082
2,3,18,5,0,0,-1,42,2081
2,3,19,5,0,0,-1,42,2080
2,3,20,5,0,0,-1,42,2079
2,3,21,5,0,0,-1,42,2078
2,3,24,5,0,0,-1,42,2077
2,3,25,5,0,0,-1,42,2076
2,3,26,5,0,0,-1,42,2075
7,1,4,0,1,42,2074
2,3,3,4,0,0,-1,42,2073
2,3,4,4,0,0,-1,42,2072
2,3,5,4,0,0,-1,42,2071
2,3,6,4,0,0,-1,42,2070
2,3,7,4,0,0,-1,42,2069
2,3,8,4,0,0,-1,42,2068
2,3,9,4,0,0,-1,42,2067
2,3,10,4,0,0,-1,42,2066
2,3,11,4,0,0,-1,42,2065
2,3,12,4,0,0,-1,42,2064
2,3,13,4,0,0,-1,42,2063
2,3,14,4,0,0,-1,42,2062
2,3,18,4,0,0,-1,42,2061
2,3,19,4,0,0,-1,42,2060
2,3,20,4,0,0,-1,42,2059
2,3,21,4,0,0,-1,42,2058
2,3,24,4,0,0,-1,42,2057
2,3,25,4,0,0,-1,42,2056
2,3,26,4,0,0,-1,42,2055
7,1,3,0,1,42,2054
2,3,2,3,0,0,-1,42,2053
2,3,3,3,0,0,-1,42,2052
2,3,4,3,0,0,-1,42,2051
2,3,7,3,0,0,-1,42,2050
2,3,8,3,0,0,-1,42,2049
2,3,9,3,0,0,-1,42,2048
2,3,10,3,0,0,-1,42,2047
2,3,11,3,0,0,-1,42,2046
2,3,12,3,0,0,-1,42,2045
2,3,13,3,0,0,-1,42,2044
2,3,14,3,0,0,-1,42,2043
2,3,18,3,0,0,-1,42,2042
2,3,19,3,0,0,-1,42,2041
2,3,20,3,0,0,-1,42,2040
2,3,21,3,0,0,-1,42,2039
2,3,24,3,0,0,-1,42,2038
2,3,25,3,0,0,-1,42,2037
2,3,26,3,0,0,-1,42,2036
7,1,2,0,1,42,2035
2,3,1,2,0,0,-1,42,2034
2,3,2,2,0,0,-1,42,2033
2,3,3,2,0,0,-1,42,2032
2,3,8,2,0,0,-1,42,2031
2,3,9,2,0,0,-1,42,2030
2,3,10,2,0,0,-1,42,2029
2,3,11,2,0,0,-1,42,2028
2,3,12,2,0,0,-1,42,2027
2,3,14,2,0,0,-1,42,2026
2,3,18,2,0,0,-1,42,2025
2,3,19,2,0,0,-1,42,2024
2,3,20,2,0,0,-1,42,2023
2,3,21,2,0,0,-1,42,2022
2,3,24,2,0,0,-1,42,2021
2,3,25,2,0,0,-1,42,2020
2,3,26,2,0,0,-1,42,2019
7,1,1,0,1,42,2018
2,3,0,1,0,0,-1,42,2017
2,3,1,1,0,0,-1,42,2016
2,3,2,1,0,0,-1,42,2015
2,3,11,1,0,0,-1,42,2014
2,3,18,1,0,0,-1,42,2013
2,3,19,1,0,0,-1,42,2012
2,3,20,1,0,0,-1,42,2011
2,3,21,1,0,0,-1,42,2010
2,3,24,1,0,0,-1,42,2009
2,3,25,1,0,0,-1,42,2008
2,3,26,1,0,0,-1,42,2007
7,1,0,0,1,42,2006
2,3,0,0,0,0,-1,42,2005
2,3,1,0,0,0,-1,42,2004
2,3,18,0,0,0,-1,42,2003
2,3,19,0,0,0,-1,42,2002
2,3,20,0,0,0,-1,42,2001
2,3,24,0,0,0,-1,42,2000
2,3,25,0,0,0,-1,42,1999
2,3,26,0,0,0,-1,42,1998
8,1,0,0,1,44,1997
3,2,0,0,0,4,44,1996
8,1,1,0,1,44,1995
3,2,1,1,0,4,44,1994
8,1,2,0,1,44,1993
3,2,2,2,0,4,44,1992
8,1,3,0,1,44,1991
3,2,3,3,0,4,44,1990
8,1,4,0,1,44,1989
3,2,4,4,0,4,44,1988
8,1,5,0,1,44,1987
3,2,5,5,0,4,44,1986
8,1,6,0,1,44,1985
3,2,6,6,0,4,44,1984
8,1,7,0,1,44,1983
3,2,7,7,0,4,44,1982
8,1,8,0,1,44,1981
3,2,8,8,0,4,44,1980
8,1,9,0,1,44,1979
3,2,9,9,0,4,44,1978
8,1,10,0,1,44,1977
3,2,10,10,0,4,44,1976
8,1,11,0,1,44,1975
3,2,11,11,0,4,44,1974
8,1,12,0,1,44,1973
3,2,12,12,0,4,44,1972
8,1,13,0,1,44,1971
3,2,13,13,0,4,44,1970
8,1,14,0,1,44,1969
3,2,14,14,0,4,44,1968
2,3,48,15,0,0,-1,44,1967
2,3,49,15,0,0,-1,44,1966
2,3,50,15,0,0,-1,44,1965
8,1,15,0,1,44,1964
3,2,15,15,0,4,44,1963
5,1,16,0,3,45,1962
7,1,16,0,1,45,1961
2,3,15,16,0,0,-1,45,1960
2,3,16,16,0,0,-1,45,1959
2,3,17,16,0,0,-1,45,1958
2,3,18,16,0,0,-1,45,1957
2,3,22,16,0,0,-1,45,1956
2,3,23,16,0,0,-1,45,1955
2,3,24,16,0,0,-1,45,1954
2,3,26,16,0,0,-1,45,1953
2,3,27,16,0,0,-1,45,1952
2,3,28,16,0,0,-1,45,1951
2,3,29,16,0,0,-1,45,1950
2,3,30,16,0,0,-1,45,1949
2,3,31,16,0,0,-1,45,1948
5,1,17,0,3,45,1947
7,1,17,0,1,45,1946
2,3,16,17,0,0,-1,45,1945
2,3,17,17,0,0,-1,45,1944
2,3,18,17,0,0,-1,45,1943
2,3,23,17,0,0,-1,45,1942
2,3,24,17,0,0,-1,45,1941
2,3,26,17,0,0,-1,45,1940
2,3,27,17,0,0,-1,45,1939
2,3,28,17,0,0,-1,45,1938
2,3,29,17,0,0,-1,45,1937
2,3,30,17,0,0,-1,45,1936
2,3,31,17,0,0,-1,45,1935
5,1,18,0,3,45,1934
7,1,18,0,1,45,1933
2,3,0,18,0,0,-1,45,1932
2,3,1,18,0,0,-1,45,1931
2,3,2,18,0,0,-1,45,1930
2,3,3,18,0,0,-1,45,1929
2,3,4,18,0,0,-1,45,1928
2,3,5,18,0,0,-1,45,1927
2,3,14,18,0,0,-1,45,1926
2,3,15,18,0,0,-1,45,1925
2,3,16,18,0,0,-1,45,1924
2,3,17,18,0,0,-1,45,1923
2,3,18,18,0,0,-1,45,1922
2,3,19,18,0,0,-1,45,1921
2,3,20,18,0,0,-1,45,1920
2,3,21,18,0,0,-1,45,1919
2,3,22,18,0,0,-1,45,1918
2,3,23,18,0,0,-1,45,1917
2,3,24,18,0,0,-1,45,1916
2,3,25,18,0,0,-1,45,1915
2,3,26,18,0,0,-1,45,1914
2,3,28,18,0,0,-1,45,1913
2,3,29,18,0,0,-1,45,1912
2,3,30,18,0,0,-1,45,1911
2,3,31,18,0,0,-1,45,1910
5,1,19,0,3,45,1909
7,1,19,0,1,45,1908
2,3,0,19,0,0,-1,45,1907
2,3,1,19,0,0,-1,45,1906
2,3,2,19,0,0,-1,45,1905
2,3,3,19,0,0,-1,45,1904
2,3,4,19,0,0,-1,45,1903
2,3,5,19,0,0,-1,45,1902
2,3,14,19,0,0,-1,45,1901
2,3,18,19,0,0,-1,45,1900
2,3,19,19,0,0,-1,45,1899
2,3,20,19,0,0,-1,45,1898
2,3,21,19,0,0,-1,45,1897
2,3,24,19,0,0,-1,45,1896
2,3,25,19,0,0,-1,45,1895
2,3,26,19,0,0,-1,45,1894
2,3,31,19,0,0,-1,45,1893
5,1,20,0,3,45,1892
7,1,20,0,1,45,1891
2,3,0,20,0,0,-1,45,1890
2,3,1,20,0,0,-1,45,1889
2,3,2,20,0,0,-1,45,1888
2,3,3,20,0,0,-1,45,1887
2,3,4,20,0,0,-1,45,1886
2,3,5,20,0,0,-1,45,1885
2,3,14,20,0,0,-1,45,1884
2,3,18,20,0,0,-1,45,1883
2,3,19,20,0,0,-1,45,1882
2,3,20,20,0,0,-1,45,1881
2,3,21,20,0,0,-1,45,1880
2,3,24,20,0,0,-1,45,1879
2,3,25,20,0,0,-1,45,1878
2,3,26,20,0,0,-1,45,1877
2,3,31,20,0,0,-1,45,1876
5,1,21,0,3,45,1875
7,1,21,0,1,45,1874
2,3,1,21,0,0,-1,45,1873
2,3,2,21,0,0,-1,45,1872
2,3,3,21,0,0,-1,45,1871
2,3,4,21,0,0,-1,45,1870
2,3,5,21,0,0,-1,45,1869
2,3,14,21,0,0,-1,45,1868
2,3,15,21,0,0,-1,45,1867
2,3,18,21,0,0,-1,45,1866
2,3,19,21,0,0,-1,45,1865
2,3,20,21,0,0,-1,45,1864
2,3,21,21,0,0,-1,45,1863
2,3,22,21,0,0,-1,45,1862
2,3,23,21,0,0,-1,45,1861
2,3,24,21,0,0,-1,45,1860
2,3,25,21,0,0,-1,45,1859
2,3,26,21,0,0,-1,45,1858
2,3,27,21,0,0,-1,45,1857
2,3,28,21,0,0,-1,45,1856
2,3,29,21,0,0,-1,45,1855
2,3,30,21,0,0,-1,45,1854
2,3,31,21,0,0,-1,45,1853
5,1,22,0,3,45,1852
7,1,22,0,1,45,1851
2,3,15,22,0,0,-1,45,1850
2,3,16,22,0,0,-1,45,1849
2,3,18,22,0,0,-1,45,1848
2,3,21,22,0,0,-1,45,1847
2,3,22,22,0,0,-1,45,1846
2,3,23,22,0,0,-1,45,1845
2,3,24,22,0,0,-1,45,1844
2,3,26,22,0,0,-1,45,1843
2,3,27,22,0,0,-1,45,1842
2,3,28,22,0,0,-1,45,1841
2,3,29,22,0,0,-1,45,1840
2,3,30,22,0,0,-1,45,1839
2,3,31,22,0,0,-1,45,1838
5,1,23,0,3,45,1837
7,1,23,0,1,45,1836
2,3,14,23,0,0,-1,45,1835
2,3,15,23,0,0,-1,45,1834
2,3,16,23,0,0,-1,45,1833
2,3,17,23,0,0,-1,45,1832
2,3,18,23,0,0,-1,45,1831
2,3,21,23,0,0,-1,45,1830
2,3,22,23,0,0,-1,45,1829
2,3,23,23,0,0,-1,45,1828
2,3,24,23,0,0,-1,45,1827
2,3,26,23,0,0,-1,45,1826
2,3,27,23,0,0,-1,45,1825
2,3,28,23,0,0,-1,45,1824
2,3,29,23,0,0,-1,45,1823
2,3,30,23,0,0,-1,45,1822
2,3,31,23,0,0,-1,45,1821
5,1,24,0,3,45,1820
7,1,24,0,1,45,1819
2,3,0,24,0,0,-1,45,1818
2,3,1,24,0,0,-1,45,1817
2,3,2,24,0,0,-1,45,1816
2,3,3,24,0,0,-1,45,1815
2,3,4,24,0,0,-1,45,1814
2,3,5,24,0,0,-1,45,1813
2,3,14,24,0,0,-1,45,1812
2,3,15,24,0,0,-1,45,1811
2,3,16,24,0,0,-1,45,1810
2,3,17,24,0,0,-1,45,1809
2,3,18,24,0,0,-1,45,1808
2,3,19,24,0,0,-1,45,1807
2,3,20,24,0,0,-1,45,1806
2,3,21,24,0,0,-1,45,1805
2,3,22,24,0,0,-1,45,1804
2,3,23,24,0,0,-1,45,1803
2,3,24,24,0,0,-1,45,1802
2,3,25,24,0,0,-1,45,1801
2,3,26,24,0,0,-1,45,1800
2,3,28,24,0,0,-1,45,1799
2,3,29,24,0,0,-1,45,1798
2,3,30,24,0,0,-1,45,1797
2,3,31,24,0,0,-1,45,1796
5,1,25,0,3,45,1795
7,1,25,0,1,45,1794
2,3,0,25,0,0,-1,45,1793
2,3,1,25,0,0,-1,45,1792
2,3,2,25,0,0,-1,45,1791
2,3,3,25,0,0,-1,45,1790
2,3,4,25,0,0,-1,45,1789
2,3,5,25,0,0,-1,45,1788
2,3,14,25,0,0,-1,45,1787
2,3,18,25,0,0,-1,45,1786
2,3,19,25,0,0,-1,45,1785
2,3,20,25,0,0,-1,45,1784
2,3,21,25,0,0,-1,45,1783
2,3,24,25,0,0,-1,45,1782
2,3,25,25,0,0,-1,45,1781
2,3,26,25,0,0,-1,45,1780
2,3,31,25,0,0,-1,45,1779
5,1,26,0,3,45,1778
7,1,26,0,1,45,1777
2,3,0,26,0,0,-1,45,1776
2,3,1,26,0,0,-1,45,1775
2,3,2,26,0,0,-1,45,1774
2,3,3,26,0,0,-1,45,1773
2,3,4,26,0,0,-1,45,1772
2,3,5,26,0,0,-1,45,1771
2,3,14,26,0,0,-1,45,1770
2,3,15,26,0,0,-1,45,1769
2,3,16,26,0,0,-1,45,1768
2,3,17,26,0,0,-1,45,1767
2,3,18,26,0,0,-1,45,1766
2,3,19,26,0,0,-1,45,1765
2,3,20,26,0,0,-1,45,1764
2,3,21,26,0,0,-1,45,1763
2,3,22,26,0,0,-1,45,1762
2,3,23,26,0,0,-1,45,1761
2,3,24,26,0,0,-1,45,1760
2,3,25,26,0,0,-1,45,1759
2,3,26,26,0,0,-1,45,1758
2,3,27,26,0,0,-1,45,1757
2,3,28,26,0,0,-1,45,1756
2,3,29,26,0,0,-1,45,1755
2,3,30,26,0,0,-1,45,1754
2,3,31,26,0,0,-1,45,1753
5,1,27,0,3,45,1752
7,1,27,0,1,45,1751
2,3,15,27,0,0,-1,45,1750
2,3,16,27,0,0,-1,45,1749
2,3,17,27,0,0,-1,45,1748
2,3,21,27,0,0,-1,45,1747
2,3,22,27,0,0,-1,45,1746
2,3,23,27,0,0,-1,45,1745
2,3,26,27,0,0,-1,45,1744
2,3,27,27,0,0,-1,45,1743
2,3,28,27,0,0,-1,45,1742
2,3,29,27,0,0,-1,45,1741
2,3,30,27,0,0,-1,45,1740
2,3,31,27,0,0,-1,45,1739
5,1,28,0,3,45,1738
7,1,28,0,1,45,1737
2,3,15,28,0,0,-1,45,1736
2,3,16,28,0,0,-1,45,1735
2,3,17,28,0,0,-1,45,1734
2,3,18,28,0,0,-1,45,1733
2,3,21,28,0,0,-1,45,1732
2,3,22,28,0,0,-1,45,1731
2,3,23,28,0,0,-1,45,1730
2,3,24,28,0,0,-1,45,1729
2,3,26,28,0,0,-1,45,1728
2,3,27,28,0,0,-1,45,1727
2,3,28,28,0,0,-1,45,1726
2,3,29,28,0,0,-1,45,1725
2,3,30,28,0,0,-1,45,1724
2,3,31,28,0,0,-1,45,1723
5,1,29,0,3,45,1722
7,1,29,0,1,45,1721
2,3,15,29,0,0,-1,45,1720
2,3,16,29,0,0,-1,45,1719
2,3,17,29,0,0,-1,45,1718
2,3,18,29,0,0,-1,45,1717
2,3,21,29,0,0,-1,45,1716
2,3,22,29,0,0,-1,45,1715
2,3,23,29,0,0,-1,45,1714
2,3,24,29,0,0,-1,45,1713
2,3,26,29,0,0,-1,45,1712
2,3,27,29,0,0,-1,45,1711
2,3,28,29,0,0,-1,45,1710
2,3,29,29,0,0,-1,45,1709
2,3,30,29,0,0,-1,45,1708
2,3,31,29,0,0,-1,45,1707
5,1,30,0,3,45,1706
7,1,30,0,1,45,1705
2,3,15,30,0,0,-1,45,1704
2,3,16,30,0,0,-1,45,1703
2,3,17,30,0,0,-1,45,1702
2,3,18,30,0,0,-1,45,1701
2,3,21,30,0,0,-1,45,1700
2,3,22,30,0,0,-1,45,1699
2,3,23,30,0,0,-1,45,1698
2,3,24,30,0,0,-1,45,1697
2,3,26,30,0,0,-1,45,1696
2,3,27,30,0,0,-1,45,1695
2,3,28,30,0,0,-1,45,1694
2,3,29,30,0,0,-1,45,1693
2,3,30,30,0,0,-1,45,1692
2,3,31,30,0,0,-1,45,1691
5,1,31,0,3,45,1690
7,1,31,0,1,45,1689
2,3,15,31,0,0,-1,45,1688
2,3,16,31,0,0,-1,45,1687
2,3,17,31,0,0,-1,45,1686
2,3,18,31,0,0,-1,45,1685
2,3,19,31,0,0,-1,45,1684
2,3,20,31,0,0,-1,45,1683
2,3,21,31,0,0,-1,45,1682
2,3,22,31,0,0,-1,45,1681
2,3,23,31,0,0,-1,45,1680
2,3,24,31,0,0,-1,45,1679
2,3,25,31,0,0,-1,45,1678
2,3,26,31,0,0,-1,45,1677
2,3,27,31,0,0,-1,45,1676
2,3,28,31,0,0,-1,45,1675
2,3,29,31,0,0,-1,45,1674
2,3,30,31,0,0,-1,45,1673
2,3,31,31,0,0,-1,45,1672
2,3,48,31,0,0,-1,47,1671
2,3,49,31,0,0,-1,47,1670
2,3,50,31,0,0,-1,47,1669
2,3,48,30,0,0,-1,47,1668
2,3,49,30,0,0,-1,47,1667
2,3,50,30,0,0,-1,47,1666
2,3,48,29,0,0,-1,47,1665
2,3,49,29,0,0,-1,47,1664
2,3,50,29,0,0,-1,47,1663
2,3,48,28,0,0,-1,47,1662
2,3,49,28,0,0,-1,47,1661
2,3,50,28,0,0,-1,47,1660
2,3,48,27,0,0,-1,47,1659
2,3,49,27,0,0,-1,47,1658
2,3,50,27,0,0,-1,47,1657
2,3,48,26,0,0,-1,47,1656
2,3,49,26,0,0,-1,47,1655
2,3,50,26,0,0,-1,47,1654
2,3,49,25,0,0,-1,47,1653
2,3,50,25,0,0,-1,47,1652
2,3,48,24,0,0,-1,47,1651
2,3,49,24,0,0,-1,47,1650
2,3,50,24,0,0,-1,47,1649
2,3,48,23,0,0,-1,47,1648
2,3,49,23,0,0,-1,47,1647
2,3,50,23,0,0,-1,47,1646
2,3,48,22,0,0,-1,47,1645
2,3,49,22,0,0,-1,47,1644
2,3,50,22,0,0,-1,47,1643
2,3,48,21,0,0,-1,47,1642
2,3,49,21,0,0,-1,47,1641
2,3,50,21,0,0,-1,47,1640
2,3,49,20,0,0,-1,47,1639
2,3,50,19,0,0,-1,47,1638
2,3,48,18,0,0,-1,47,1637
2,3,49,18,0,0,-1,47,1636
2,3,50,18,0,0,-1,47,1635
2,3,48,17,0,0,-1,47,1634
2,3,49,17,0,0,-1,47,1633
2,3,50,17,0,0,-1,47,1632
2,3,48,16,0,0,-1,47,1631
2,3,49,16,0,0,-1,47,1630
2,3,50,16,0,0,-1,47,1629
8,1,31,0,1,46,1628
3,2,31,15,0,4,46,1627
3,2,31,15,0,10,46,1626
8,1,30,0,1,46,1625
3,2,30,14,0,4,46,1624
3,2,30,14,0,10,46,1623
8,1,29,0,1,46,1622
3,2,29,13,0,4,46,1621
3,2,29,13,0,10,46,1620
8,1,28,0,1,46,1619
3,2,28,12,0,4,46,1618
3,2,28,12,0,10,46,1617
8,1,27,0,1,46,1616
3,2,27,11,0,4,46,1615
3,2,27,11,0,10,46,1614
8,1,26,0,1,46,1613
3,2,26,10,0,4,46,1612
3,2,26,10,0,10,46,1611
8,1,25,0,1,46,1610
3,2,25,9,0,4,46,1609
3,2,25,9,0,10,46,1608
8,1,24,0,1,46,1607
3,2,24,8,0,4,46,1606
3,2,24,8,0,10,46,1605
8,1,23,0,1,46,1604
3,2,23,7,0,4,46,1603
3,2,23,7,0,10,46,1602
8,1,22,0,1,46,1601
3,2,22,6,0,4,46,1600
3,2,22,6,0,10,46,1599
8,1,21,0,1,46,1598
3,2,21,5,0,4,46,1597
3,2,21,5,0,10,46,1596
8,1,20,0,1,46,1595
3,2,20,4,0,4,46,1594
3,2,20,4,0,10,46,1593
8,1,19,0,1,46,1592
3,2,19,3,0,4,46,1591
3,2,19,3,0,10,46,1590
8,1,18,0,1,46,1589
3,2,18,2,0,4,46,1588
3,2,18,2,0,10,46,1587
8,1,17,0,1,46,1586
3,2,17,1,0,4,46,1585
3,2,17,1,0,10,46,1584
8,1,16,0,1,46,1583
3,2,16,0,0,4,46,1582
3,2,16,0,0,10,46,1581
3,2,48,0,0,10,39,1580
3,2,49,1,0,10,39,1579
3,2,50,2,0,10,39,1578
19,1,47,0,1,39,1577
2,3,47,48,0,0,-1,39,1576
2,3,47,49,0,0,-1,39,1575
2,3,47,50,0,0,-1,39,1574
19,1,46,0,1,39,1573
2,3,46,48,0,0,-1,39,1572
2,3,46,49,0,0,-1,39,1571
2,3,46,50,0,0,-1,39,1570
19,1,45,0,1,39,1569
2,3,45,48,0,0,-1,39,1568
2,3,45,49,0,0,-1,39,1567
2,3,45,50,0,0,-1,39,1566
19,1,44,0,1,39,1565
2,3,44,48,0,0,-1,39,1564
2,3,44,49,0,0,-1,39,1563
2,3,44,50,0,0,-1,39,1562
19,1,43,0,1,39,1561
2,3,43,48,0,0,-1,39,1560
2,3,43,49,0,0,-1,39,1559
2,3,43,50,0,0,-1,39,1558
19,1,42,0,1,39,1557
2,3,42,48,0,0,-1,39,1556
2,3,42,49,0,0,-1,39,1555
2,3,42,50,0,0,-1,39,1554
19,1,41,0,1,39,1553
2,3,41,48,0,0,-1,39,1552
2,3,41,49,0,0,-1,39,1551
2,3,41,50,0,0,-1,39,1550
19,1,40,0,1,39,1549
2,3,40,48,0,0,-1,39,1548
2,3,40,49,0,0,-1,39,1547
2,3,40,50,0,0,-1,39,1546
19,1,39,0,1,39,1545
2,3,39,48,0,0,-1,39,1544
2,3,39,49,0,0,-1,39,1543
2,3,39,50,0,0,-1,39,1542
19,1,38,0,1,39,1541
2,3,38,48,0,0,-1,39,1540
2,3,38,49,0,0,-1,39,1539
2,3,38,50,0,0,-1,39,1538
19,1,37,0,1,39,1537
2,3,37,48,0,0,-1,39,1536
2,3,37,49,0,0,-1,39,1535
2,3,37,50,0,0,-1,39,1534
19,1,36,0,1,39,1533
2,3,36,48,0,0,-1,39,1532
2,3,36,49,0,0,-1,39,1531
2,3,36,50,0,0,-1,39,1530
19,1,35,0,1,39,1529
2,3,35,48,0,0,-1,39,1528
2,3,35,49,0,0,-1,39,1527
2,3,35,50,0,0,-1,39,1526
19,1,34,0,1,39,1525
2,3,34,48,0,0,-1,39,1524
2,3,34,49,0,0,-1,39,1523
2,3,34,50,0,0,-1,39,1522
19,1,33,0,1,39,1521
2,3,33,48,0,0,-1,39,1520
2,3,33,49,0,0,-1,39,1519
2,3,33,50,0,0,-1,39,1518
19,1,32,0,1,39,1517
2,3,32,48,0,0,-1,39,1516
2,3,32,49,0,0,-1,39,1515
2,3,32,50,0,0,-1,39,1514
2,3,32,15,0,0,-1,43,1513
2,3,33,15,0,0,-1,43,1512
2,3,34,15,0,0,-1,43,1511
2,3,35,15,0,0,-1,43,1510
2,3,36,15,0,0,-1,43,1509
2,3,37,15,0,0,-1,43,1508
2,3,38,15,0,0,-1,43,1507
2,3,39,15,0,0,-1,43,1506
2,3,40,15,0,0,-1,43,1505
2,3,41,15,0,0,-1,43,1504
2,3,42,15,0,0,-1,43,1503
2,3,43,15,0,0,-1,43,1502
2,3,44,15,0,0,-1,43,1501
2,3,45,15,0,0,-1,43,1500
2,3,46,15,0,0,-1,43,1499
2,3,47,15,0,0,-1,43,1498
7,1,47,0,1,48,1497
2,3,32,47,0,0,-1,48,1496
2,3,33,47,0,0,-1,48,1495
2,3,34,47,0,0,-1,48,1494
2,3,35,47,0,0,-1,48,1493
2,3,36,47,0,0,-1,48,1492
2,3,37,47,0,0,-1,48,1491
2,3,38,47,0,0,-1,48,1490
2,3,39,47,0,0,-1,48,1489
2,3,40,47,0,0,-1,48,1488
2,3,41,47,0,0,-1,48,1487
2,3,42,47,0,0,-1,48,1486
2,3,43,47,0,0,-1,48,1485
2,3,44,47,0,0,-1,48,1484
2,3,45,47,0,0,-1,48,1483
2,3,46,47,0,0,-1,48,1482
2,3,47,47,0,0,-1,48,1481
7,1,46,0,1,48,1480
2,3,32,46,0,0,-1,48,1479
2,3,33,46,0,0,-1,48,1478
2,3,34,46,0,0,-1,48,1477
2,3,35,46,0,0,-1,48,1476
2,3,36,46,0,0,-1,48,1475
2,3,37,46,0,0,-1,48,1474
2,3,38,46,0,0,-1,48,1473
2,3,39,46,0,0,-1,48,1472
2,3,40,46,0,0,-1,48,1471
2,3,41,46,0,0,-1,48,1470
2,3,42,46,0,0,-1,48,1469
2,3,43,46,0,0,-1,48,1468
2,3,44,46,0,0,-1,48,1467
2,3,45,46,0,0,-1,48,1466
2,3,46,46,0,0,-1,48,1465
2,3,47,46,0,0,-1,48,1464
7,1,45,0,1,48,1463
2,3,32,45,0,0,-1,48,1462
2,3,33,45,0,0,-1,48,1461
2,3,34,45,0,0,-1,48,1460
2,3,35,45,0,0,-1,48,1459
2,3,36,45,0,0,-1,48,1458
2,3,37,45,0,0,-1,48,1457
2,3,38,45,0,0,-1,48,1456
2,3,39,45,0,0,-1,48,1455
2,3,40,45,0,0,-1,48,1454
2,3,41,45,0,0,-1,48,1453
2,3,42,45,0,0,-1,48,1452
2,3,43,45,0,0,-1,48,1451
2,3,44,45,0,0,-1,48,1450
2,3,45,45,0,0,-1,48,1449
2,3,46,45,0,0,-1,48,1448
2,3,47,45,0,0,-1,48,1447
7,1,44,0,1,48,1446
2,3,32,44,0,0,-1,48,1445
2,3,33,44,0,0,-1,48,1444
2,3,34,44,0,0,-1,48,1443
2,3,35,44,0,0,-1,48,1442
2,3,36,44,0,0,-1,48,1441
2,3,37,44,0,0,-1,48,1440
2,3,38,44,0,0,-1,48,1439
2,3,39,44,0,0,-1,48,1438
2,3,40,44,0,0,-1,48,1437
2,3,41,44,0,0,-1,48,1436
2,3,42,44,0,0,-1,48,1435
2,3,43,44,0,0,-1,48,1434
2,3,44,44,0,0,-1,48,1433
2,3,45,44,0,0,-1,48,1432
2,3,46,44,0,0,-1,48,1431
2,3,47,44,0,0,-1,48,1430
7,1,43,0,1,48,1429
2,3,32,43,0,0,-1,48,1428
2,3,33,43,0,0,-1,48,1427
2,3,34,43,0,0,-1,48,1426
2,3,35,43,0,0,-1,48,1425
2,3,36,43,0,0,-1,48,1424
2,3,37,43,0,0,-1,48,1423
2,3,38,43,0,0,-1,48,1422
2,3,39,43,0,0,-1,48,1421
2,3,40,43,0,0,-1,48,1420
2,3,41,43,0,0,-1,48,1419
2,3,42,43,0,0,-1,48,1418
2,3,43,43,0,0,-1,48,1417
2,3,44,43,0,0,-1,48,1416
2,3,45,43,0,0,-1,48,1415
2,3,46,43,0,0,-1,48,1414
2,3,47,43,0,0,-1,48,1413
7,1,42,0,1,48,1412
2,3,32,42,0,0,-1,48,1411
2,3,33,42,0,0,-1,48,1410
2,3,34,42,0,0,-1,48,1409
2,3,35,42,0,0,-1,48,1408
2,3,36,42,0,0,-1,48,1407
2,3,37,42,0,0,-1,48,1406
2,3,38,42,0,0,-1,48,1405
2,3,39,42,0,0,-1,48,1404
2,3,40,42,0,0,-1,48,1403
2,3,41,42,0,0,-1,48,1402
2,3,42,42,0,0,-1,48,1401
2,3,43,42,0,0,-1,48,1400
2,3,44,42,0,0,-1,48,1399
2,3,45,42,0,0,-1,48,1398
2,3,46,42,0,0,-1,48,1397
2,3,47,42,0,0,-1,48,1396
7,1,41,0,1,48,1395
2,3,32,41,0,0,-1,48,1394
2,3,33,41,0,0,-1,48,1393
2,3,34,41,0,0,-1,48,1392
2,3,35,41,0,0,-1,48,1391
2,3,36,41,0,0,-1,48,1390
2,3,37,41,0,0,-1,48,1389
2,3,38,41,0,0,-1,48,1388
2,3,39,41,0,0,-1,48,1387
2,3,40,41,0,0,-1,48,1386
2,3,41,41,0,0,-1,48,1385
2,3,42,41,0,0,-1,48,1384
2,3,43,41,0,0,-1,48,1383
2,3,44,41,0,0,-1,48,1382
2,3,45,41,0,0,-1,48,1381
2,3,46,41,0,0,-1,48,1380
2,3,47,41,0,0,-1,48,1379
7,1,40,0,1,48,1378
2,3,32,40,0,0,-1,48,1377
2,3,33,40,0,0,-1,48,1376
2,3,34,40,0,0,-1,48,1375
2,3,35,40,0,0,-1,48,1374
2,3,36,40,0,0,-1,48,1373
2,3,37,40,0,0,-1,48,1372
2,3,38,40,0,0,-1,48,1371
2,3,39,40,0,0,-1,48,1370
2,3,40,40,0,0,-1,48,1369
2,3,41,40,0,0,-1,48,1368
2,3,42,40,0,0,-1,48,1367
2,3,43,40,0,0,-1,48,1366
2,3,44,40,0,0,-1,48,1365
2,3,45,40,0,0,-1,48,1364
2,3,46,40,0,0,-1,48,1363
2,3,47,40,0,0,-1,48,1362
7,1,39,0,1,48,1361
2,3,32,39,0,0,-1,48,1360
2,3,33,39,0,0,-1,48,1359
2,3,34,39,0,0,-1,48,1358
2,3,35,39,0,0,-1,48,1357
2,3,36,39,0,0,-1,48,1356
2,3,37,39,0,0,-1,48,1355
2,3,38,39,0,0,-1,48,1354
2,3,39,39,0,0,-1,48,1353
2,3,40,39,0,0,-1,48,1352
2,3,41,39,0,0,-1,48,1351
2,3,42,39,0,0,-1,48,1350
2,3,43,39,0,0,-1,48,1349
2,3,44,39,0,0,-1,48,1348
2,3,45,39,0,0,-1,48,1347
2,3,46,39,0,0,-1,48,1346
2,3,47,39,0,0,-1,48,1345
7,1,38,0,1,48,1344
2,3,32,38,0,0,-1,48,1343
2,3,33,38,0,0,-1,48,1342
2,3,34,38,0,0,-1,48,1341
2,3,35,38,0,0,-1,48,1340
2,3,36,38,0,0,-1,48,1339
2,3,37,38,0,0,-1,48,1338
2,3,38,38,0,0,-1,48,1337
2,3,39,38,0,0,-1,48,1336
2,3,40,38,0,0,-1,48,1335
2,3,41,38,0,0,-1,48,1334
2,3,42,38,0,0,-1,48,1333
2,3,43,38,0,0,-1,48,1332
2,3,44,38,0,0,-1,48,1331
2,3,45,38,0,0,-1,48,1330
2,3,46,38,0,0,-1,48,1329
2,3,47,38,0,0,-1,48,1328
7,1,37,0,1,48,1327
2,3,32,37,0,0,-1,48,1326
2,3,33,37,0,0,-1,48,1325
2,3,34,37,0,0,-1,48,1324
2,3,35,37,0,0,-1,48,1323
2,3,36,37,0,0,-1,48,1322
2,3,37,37,0,0,-1,48,1321
2,3,38,37,0,0,-1,48,1320
2,3,39,37,0,0,-1,48,1319
2,3,40,37,0,0,-1,48,1318
2,3,41,37,0,0,-1,48,1317
2,3,42,37,0,0,-1,48,1316
2,3,43,37,0,0,-1,48,1315
2,3,44,37,0,0,-1,48,1314
2,3,45,37,0,0,-1,48,1313
2,3,46,37,0,0,-1,48,1312
2,3,47,37,0,0,-1,48,1311
7,1,36,0,1,48,1310
2,3,32,36,0,0,-1,48,1309
2,3,33,36,0,0,-1,48,1308
2,3,34,36,0,0,-1,48,1307
2,3,35,36,0,0,-1,48,1306
2,3,36,36,0,0,-1,48,1305
2,3,37,36,0,0,-1,48,1304
2,3,38,36,0,0,-1,48,1303
2,3,39,36,0,0,-1,48,1302
2,3,40,36,0,0,-1,48,1301
2,3,41,36,0,0,-1,48,1300
2,3,42,36,0,0,-1,48,1299
2,3,43,36,0,0,-1,48,1298
2,3,44,36,0,0,-1,48,1297
2,3,45,36,0,0,-1,48,1296
2,3,46,36,0,0,-1,48,1295
2,3,47,36,0,0,-1,48,1294
7,1,35,0,1,48,1293
2,3,32,35,0,0,-1,48,1292
2,3,33,35,0,0,-1,48,1291
2,3,34,35,0,0,-1,48,1290
2,3,35,35,0,0,-1,48,1289
2,3,36,35,0,0,-1,48,1288
2,3,37,35,0,0,-1,48,1287
2,3,38,35,0,0,-1,48,1286
2,3,39,35,0,0,-1,48,1285
2,3,40,35,0,0,-1,48,1284
2,3,41,35,0,0,-1,48,1283
2,3,42,35,0,0,-1,48,1282
2,3,43,35,0,0,-1,48,1281
2,3,44,35,0,0,-1,48,1280
2,3,45,35,0,0,-1,48,1279
2,3,46,35,0,0,-1,48,1278
2,3,47,35,0,0,-1,48,1277
7,1,34,0,1,48,1276
2,3,32,34,0,0,-1,48,1275
2,3,33,34,0,0,-1,48,1274
2,3,34,34,0,0,-1,48,1273
2,3,35,34,0,0,-1,48,1272
2,3,36,34,0,0,-1,48,1271
2,3,37,34,0,0,-1,48,1270
2,3,38,34,0,0,-1,48,1269
2,3,39,34,0,0,-1,48,1268
2,3,40,34,0,0,-1,48,1267
2,3,41,34,0,0,-1,48,1266
2,3,42,34,0,0,-1,48,1265
2,3,43,34,0,0,-1,48,1264
2,3,44,34,0,0,-1,48,1263
2,3,45,34,0,0,-1,48,1262
2,3,46,34,0,0,-1,48,1261
2,3,47,34,0,0,-1,48,1260
7,1,33,0,1,48,1259
2,3,32,33,0,0,-1,48,1258
2,3,33,33,0,0,-1,48,1257
2,3,34,33,0,0,-1,48,1256
2,3,35,33,0,0,-1,48,1255
2,3,36,33,0,0,-1,48,1254
2,3,37,33,0,0,-1,48,1253
2,3,38,33,0,0,-1,48,1252
2,3,39,33,0,0,-1,48,1251
2,3,40,33,0,0,-1,48,1250
2,3,41,33,0,0,-1,48,1249
2,3,42,33,0,0,-1,48,1248
2,3,43,33,0,0,-1,48,1247
2,3,44,33,0,0,-1,48,1246
2,3,45,33,0,0,-1,48,1245
2,3,46,33,0,0,-1,48,1244
2,3,47,33,0,0,-1,48,1243
7,1,32,0,1,48,1242
2,3,32,32,0,0,-1,48,1241
2,3,33,32,0,0,-1,48,1240
2,3,34,32,0,0,-1,48,1239
2,3,35,32,0,0,-1,48,1238
2,3,36,32,0,0,-1,48,1237
2,3,37,32,0,0,-1,48,1236
2,3,38,32,0,0,-1,48,1235
2,3,39,32,0,0,-1,48,1234
2,3,40,32,0,0,-1,48,1233
2,3,41,32,0,0,-1,48,1232
2,3,42,32,0,0,-1,48,1231
2,3,43,32,0,0,-1,48,1230
2,3,44,32,0,0,-1,48,1229
2,3,45,32,0,0,-1,48,1228
2,3,46,32,0,0,-1,48,1227
2,3,47,32,0,0,-1,48,1226
2,3,32,16,0,0,-1,49,1225
2,3,32,17,0,0,-1,49,1224
2,3,32,18,0,0,-1,49,1223
2,3,32,20,0,0,-1,49,1222
2,3,32,21,0,0,-1,49,1221
2,3,32,22,0,0,-1,49,1220
2,3,32,23,0,0,-1,49,1219
2,3,32,24,0,0,-1,49,1218
2,3,32,25,0,0,-1,49,1217
2,3,32,26,0,0,-1,49,1216
2,3,32,27,0,0,-1,49,1215
2,3,32,28,0,0,-1,49,1214
2,3,32,29,0,0,-1,49,1213
2,3,32,30,0,0,-1,49,1212
2,3,32,31,0,0,-1,49,1211
3,2,32,0,0,7,49,1210
2,3,33,16,0,0,-1,49,1209
2,3,33,17,0,0,-1,49,1208
2,3,33,18,0,0,-1,49,1207
2,3,33,20,0,0,-1,49,1206
2,3,33,21,0,0,-1,49,1205
2,3,33,22,0,0,-1,49,1204
2,3,33,23,0,0,-1,49,1203
2,3,33,24,0,0,-1,49,1202
2,3,33,25,0,0,-1,49,1201
2,3,33,26,0,0,-1,49,1200
2,3,33,27,0,0,-1,49,1199
2,3,33,28,0,0,-1,49,1198
2,3,33,29,0,0,-1,49,1197
2,3,33,30,0,0,-1,49,1196
2,3,33,31,0,0,-1,49,1195
3,2,33,1,0,7,49,1194
2,3,34,16,0,0,-1,49,1193
2,3,34,17,0,0,-1,49,1192
2,3,34,18,0,0,-1,49,1191
2,3,34,21,0,0,-1,49,1190
2,3,34,22,0,0,-1,49,1189
2,3,34,23,0,0,-1,49,1188
2,3,34,24,0,0,-1,49,1187
2,3,34,26,0,0,-1,49,1186
2,3,34,27,0,0,-1,49,1185
2,3,34,28,0,0,-1,49,1184
2,3,34,29,0,0,-1,49,1183
2,3,34,30,0,0,-1,49,1182
2,3,34,31,0,0,-1,49,1181
3,2,34,2,0,7,49,1180
2,3,35,16,0,0,-1,49,1179
2,3,35,17,0,0,-1,49,1178
2,3,35,18,0,0,-1,49,1177
2,3,35,21,0,0,-1,49,1176
2,3,35,22,0,0,-1,49,1175
2,3,35,23,0,0,-1,49,1174
2,3,35,24,0,0,-1,49,1173
2,3,35,26,0,0,-1,49,1172
2,3,35,27,0,0,-1,49,1171
2,3,35,28,0,0,-1,49,1170
2,3,35,29,0,0,-1,49,1169
2,3,35,30,0,0,-1,49,1168
2,3,35,31,0,0,-1,49,1167
3,2,35,3,0,7,49,1166
2,3,36,16,0,0,-1,49,1165
2,3,36,17,0,0,-1,49,1164
2,3,36,18,0,0,-1,49,1163
2,3,36,20,0,0,-1,49,1162
2,3,36,21,0,0,-1,49,1161
2,3,36,22,0,0,-1,49,1160
2,3,36,23,0,0,-1,49,1159
2,3,36,24,0,0,-1,49,1158
2,3,36,25,0,0,-1,49,1157
2,3,36,26,0,0,-1,49,1156
2,3,36,27,0,0,-1,49,1155
2,3,36,28,0,0,-1,49,1154
2,3,36,29,0,0,-1,49,1153
2,3,36,30,0,0,-1,49,1152
2,3,36,31,0,0,-1,49,1151
3,2,36,4,0,7,49,1150
2,3,37,16,0,0,-1,49,1149
2,3,37,17,0,0,-1,49,1148
2,3,37,18,0,0,-1,49,1147
2,3,37,21,0,0,-1,49,1146
2,3,37,22,0,0,-1,49,1145
2,3,37,23,0,0,-1,49,1144
2,3,37,24,0,0,-1,49,1143
2,3,37,26,0,0,-1,49,1142
2,3,37,27,0,0,-1,49,1141
2,3,37,28,0,0,-1,49,1140
2,3,37,29,0,0,-1,49,1139
2,3,37,30,0,0,-1,49,1138
2,3,37,31,0,0,-1,49,1137
3,2,37,5,0,7,49,1136
2,3,38,16,0,0,-1,49,1135
2,3,38,17,0,0,-1,49,1134
2,3,38,18,0,0,-1,49,1133
2,3,38,19,0,0,-1,49,1132
2,3,38,21,0,0,-1,49,1131
2,3,38,22,0,0,-1,49,1130
2,3,38,23,0,0,-1,49,1129
2,3,38,24,0,0,-1,49,1128
2,3,38,26,0,0,-1,49,1127
2,3,38,27,0,0,-1,49,1126
2,3,38,28,0,0,-1,49,1125
2,3,38,29,0,0,-1,49,1124
2,3,38,30,0,0,-1,49,1123
2,3,38,31,0,0,-1,49,1122
3,2,38,6,0,7,49,1121
2,3,39,16,0,0,-1,49,1120
2,3,39,17,0,0,-1,49,1119
2,3,39,18,0,0,-1,49,1118
2,3,39,19,0,0,-1,49,1117
2,3,39,21,0,0,-1,49,1116
2,3,39,22,0,0,-1,49,1115
2,3,39,23,0,0,-1,49,1114
2,3,39,24,0,0,-1,49,1113
2,3,39,26,0,0,-1,49,1112
2,3,39,27,0,0,-1,49,1111
2,3,39,28,0,0,-1,49,1110
2,3,39,29,0,0,-1,49,1109
2,3,39,30,0,0,-1,49,1108
2,3,39,31,0,0,-1,49,1107
3,2,39,7,0,7,49,1106
2,3,40,16,0,0,-1,49,1105
2,3,40,17,0,0,-1,49,1104
2,3,40,18,0,0,-1,49,1103
2,3,40,20,0,0,-1,49,1102
2,3,40,21,0,0,-1,49,1101
2,3,40,22,0,0,-1,49,1100
2,3,40,23,0,0,-1,49,1099
2,3,40,24,0,0,-1,49,1098
2,3,40,25,0,0,-1,49,1097
2,3,40,26,0,0,-1,49,1096
2,3,40,27,0,0,-1,49,1095
2,3,40,28,0,0,-1,49,1094
2,3,40,29,0,0,-1,49,1093
2,3,40,30,0,0,-1,49,1092
2,3,40,31,0,0,-1,49,1091
3,2,40,8,0,7,49,1090
2,3,41,16,0,0,-1,49,1089
2,3,41,17,0,0,-1,49,1088
2,3,41,18,0,0,-1,49,1087
2,3,41,19,0,0,-1,49,1086
2,3,41,20,0,0,-1,49,1085
2,3,41,21,0,0,-1,49,1084
2,3,41,22,0,0,-1,49,1083
2,3,41,23,0,0,-1,49,1082
2,3,41,24,0,0,-1,49,1081
2,3,41,25,0,0,-1,49,1080
2,3,41,26,0,0,-1,49,1079
2,3,41,27,0,0,-1,49,1078
2,3,41,28,0,0,-1,49,1077
2,3,41,29,0,0,-1,49,1076
2,3,41,30,0,0,-1,49,1075
2,3,41,31,0,0,-1,49,1074
3,2,41,9,0,7,49,1073
2,3,42,16,0,0,-1,49,1072
2,3,42,17,0,0,-1,49,1071
2,3,42,18,0,0,-1,49,1070
2,3,42,19,0,0,-1,49,1069
2,3,42,20,0,0,-1,49,1068
2,3,42,21,0,0,-1,49,1067
2,3,42,22,0,0,-1,49,1066
2,3,42,23,0,0,-1,49,1065
2,3,42,24,0,0,-1,49,1064
2,3,42,25,0,0,-1,49,1063
2,3,42,26,0,0,-1,49,1062
2,3,42,27,0,0,-1,49,1061
2,3,42,28,0,0,-1,49,1060
2,3,42,29,0,0,-1,49,1059
2,3,42,30,0,0,-1,49,1058
2,3,42,31,0,0,-1,49,1057
3,2,42,10,0,7,49,1056
2,3,43,16,0,0,-1,49,1055
2,3,43,17,0,0,-1,49,1054
2,3,43,18,0,0,-1,49,1053
2,3,43,19,0,0,-1,49,1052
2,3,43,21,0,0,-1,49,1051
2,3,43,22,0,0,-1,49,1050
2,3,43,23,0,0,-1,49,1049
2,3,43,24,0,0,-1,49,1048
2,3,43,25,0,0,-1,49,1047
2,3,43,26,0,0,-1,49,1046
2,3,43,27,0,0,-1,49,1045
2,3,43,28,0,0,-1,49,1044
2,3,43,29,0,0,-1,49,1043
2,3,43,30,0,0,-1,49,1042
2,3,43,31,0,0,-1,49,1041
3,2,43,11,0,7,49,1040
2,3,44,16,0,0,-1,49,1039
2,3,44,17,0,0,-1,49,1038
2,3,44,18,0,0,-1,49,1037
2,3,44,19,0,0,-1,49,1036
2,3,44,20,0,0,-1,49,1035
2,3,44,21,0,0,-1,49,1034
2,3,44,22,0,0,-1,49,1033
2,3,44,23,0,0,-1,49,1032
2,3,44,24,0,0,-1,49,1031
2,3,44,25,0,0,-1,49,1030
2,3,44,26,0,0,-1,49,1029
2,3,44,27,0,0,-1,49,1028
2,3,44,28,0,0,-1,49,1027
2,3,44,29,0,0,-1,49,1026
2,3,44,30,0,0,-1,49,1025
2,3,44,31,0,0,-1,49,1024
3,2,44,12,0,7,49,1023
2,3,45,16,0,0,-1,49,1022
2,3,45,17,0,0,-1,49,1021
2,3,45,18,0,0,-1,49,1020
2,3,45,19,0,0,-1,49,1019
2,3,45,20,0,0,-1,49,1018
2,3,45,21,0,0,-1,49,1017
2,3,45,22,0,0,-1,49,1016
2,3,45,23,0,0,-1,49,1015
2,3,45,24,0,0,-1,49,1014
2,3,45,25,0,0,-1,49,1013
2,3,45,26,0,0,-1,49,1012
2,3,45,27,0,0,-1,49,1011
2,3,45,28,0,0,-1,49,1010
2,3,45,29,0,0,-1,49,1009
2,3,45,30,0,0,-1,49,1008
2,3,45,31,0,0,-1,49,1007
3,2,45,13,0,7,49,1006
2,3,46,16,0,0,-1,49,1005
2,3,46,17,0,0,-1,49,1004
2,3,46,18,0,0,-1,49,1003
2,3,46,19,0,0,-1,49,1002
2,3,46,21,0,0,-1,49,1001
2,3,46,22,0,0,-1,49,1000
2,3,46,23,0,0,-1,49,999
2,3,46,24,0,0,-1,49,998
2,3,46,26,0,0,-1,49,997
2,3,46,27,0,0,-1,49,996
2,3,46,28,0,0,-1,49,995
2,3,46,29,0,0,-1,49,994
2,3,46,30,0,0,-1,49,993
2,3,46,31,0,0,-1,49,992
3,2,46,14,0,7,49,991
2,3,47,16,0,0,-1,49,990
2,3,47,17,0,0,-1,49,989
2,3,47,18,0,0,-1,49,988
2,3,47,19,0,0,-1,49,987
2,3,47,20,0,0,-1,49,986
2,3,47,21,0,0,-1,49,985
2,3,47,22,0,0,-1,49,984
2,3,47,23,0,0,-1,49,983
2,3,47,24,0,0,-1,49,982
2,3,47,25,0,0,-1,49,981
2,3,47,26,0,0,-1,49,980
2,3,47,27,0,0,-1,49,979
2,3,47,28,0,0,-1,49,978
2,3,47,29,0,0,-1,49,977
2,3,47,30,0,0,-1,49,976
2,3,47,31,0,0,-1,49,975
3,2,47,15,0,7,49,974
3,2,47,15,0,5,50,973
3,2,46,14,0,5,50,972
3,2,45,13,0,5,50,971
3,2,44,12,0,5,50,970
3,2,43,11,0,5,50,969
3,2,42,10,0,5,50,968
3,2,41,9,0,5,50,967
3,2,40,8,0,5,50,966
3,2,39,7,0,5,50,965
3,2,38,6,0,5,50,964
3,2,37,5,0,5,50,963
3,2,36,4,0,5,50,962
3,2,35,3,0,5,50,961
3,2,34,2,0,5,50,960
3,2,33,1,0,5,50,959
3,2,32,0,0,5,50,958
2,3,16,32,0,0,-1,52,957
2,3,17,32,0,0,-1,52,956
2,3,18,32,0,0,-1,52,955
2,3,20,32,0,0,-1,52,954
2,3,21,32,0,0,-1,52,953
2,3,22,32,0,0,-1,52,952
2,3,23,32,0,0,-1,52,951
2,3,24,32,0,0,-1,52,950
2,3,25,32,0,0,-1,52,949
2,3,26,32,0,0,-1,52,948
2,3,27,32,0,0,-1,52,947
2,3,28,32,0,0,-1,52,946
2,3,29,32,0,0,-1,52,945
2,3,30,32,0,0,-1,52,944
2,3,31,32,0,0,-1,52,943
2,3,16,33,0,0,-1,52,942
2,3,17,33,0,0,-1,52,941
2,3,18,33,0,0,-1,52,940
2,3,20,33,0,0,-1,52,939
2,3,21,33,0,0,-1,52,938
2,3,22,33,0,0,-1,52,937
2,3,23,33,0,0,-1,52,936
2,3,24,33,0,0,-1,52,935
2,3,25,33,0,0,-1,52,934
2,3,26,33,0,0,-1,52,933
2,3,27,33,0,0,-1,52,932
2,3,28,33,0,0,-1,52,931
2,3,29,33,0,0,-1,52,930
2,3,30,33,0,0,-1,52,929
2,3,31,33,0,0,-1,52,928
2,3,16,34,0,0,-1,52,927
2,3,17,34,0,0,-1,52,926
2,3,18,34,0,0,-1,52,925
2,3,21,34,0,0,-1,52,924
2,3,22,34,0,0,-1,52,923
2,3,23,34,0,0,-1,52,922
2,3,24,34,0,0,-1,52,921
2,3,26,34,0,0,-1,52,920
2,3,27,34,0,0,-1,52,919
2,3,28,34,0,0,-1,52,918
2,3,29,34,0,0,-1,52,917
2,3,30,34,0,0,-1,52,916
2,3,31,34,0,0,-1,52,915
2,3,16,35,0,0,-1,52,914
2,3,17,35,0,0,-1,52,913
2,3,18,35,0,0,-1,52,912
2,3,21,35,0,0,-1,52,911
2,3,22,35,0,0,-1,52,910
2,3,23,35,0,0,-1,52,909
2,3,24,35,0,0,-1,52,908
2,3,26,35,0,0,-1,52,907
2,3,27,35,0,0,-1,52,906
2,3,28,35,0,0,-1,52,905
2,3,29,35,0,0,-1,52,904
2,3,30,35,0,0,-1,52,903
2,3,31,35,0,0,-1,52,902
2,3,16,36,0,0,-1,52,901
2,3,17,36,0,0,-1,52,900
2,3,18,36,0,0,-1,52,899
2,3,20,36,0,0,-1,52,898
2,3,21,36,0,0,-1,52,897
2,3,22,36,0,0,-1,52,896
2,3,23,36,0,0,-1,52,895
2,3,24,36,0,0,-1,52,894
2,3,25,36,0,0,-1,52,893
2,3,26,36,0,0,-1,52,892
2,3,27,36,0,0,-1,52,891
2,3,28,36,0,0,-1,52,890
2,3,29,36,0,0,-1,52,889
2,3,30,36,0,0,-1,52,888
2,3,31,36,0,0,-1,52,887
2,3,16,37,0,0,-1,52,886
2,3,17,37,0,0,-1,52,885
2,3,18,37,0,0,-1,52,884
2,3,21,37,0,0,-1,52,883
2,3,22,37,0,0,-1,52,882
2,3,23,37,0,0,-1,52,881
2,3,24,37,0,0,-1,52,880
2,3,26,37,0,0,-1,52,879
2,3,27,37,0,0,-1,52,878
2,3,28,37,0,0,-1,52,877
2,3,29,37,0,0,-1,52,876
2,3,30,37,0,0,-1,52,875
2,3,31,37,0,0,-1,52,874
2,3,16,38,0,0,-1,52,873
2,3,17,38,0,0,-1,52,872
2,3,18,38,0,0,-1,52,871
2,3,19,38,0,0,-1,52,870
2,3,21,38,0,0,-1,52,869
2,3,22,38,0,0,-1,52,868
2,3,23,38,0,0,-1,52,867
2,3,24,38,0,0,-1,52,866
2,3,26,38,0,0,-1,52,865
2,3,27,38,0,0,-1,52,864
2,3,28,38,0,0,-1,52,863
2,3,29,38,0,0,-1,52,862
2,3,30,38,0,0,-1,52,861
2,3,31,38,0,0,-1,52,860
2,3,16,39,0,0,-1,52,859
2,3,17,39,0,0,-1,52,858
2,3,18,39,0,0,-1,52,857
2,3,19,39,0,0,-1,52,856
2,3,21,39,0,0,-1,52,855
2,3,22,39,0,0,-1,52,854
2,3,23,39,0,0,-1,52,853
2,3,24,39,0,0,-1,52,852
2,3,26,39,0,0,-1,52,851
2,3,27,39,0,0,-1,52,850
2,3,28,39,0,0,-1,52,849
2,3,29,39,0,0,-1,52,848
2,3,30,39,0,0,-1,52,847
2,3,31,39,0,0,-1,52,846
2,3,16,40,0,0,-1,52,845
2,3,17,40,0,0,-1,52,844
2,3,18,40,0,0,-1,52,843
2,3,20,40,0,0,-1,52,842
2,3,21,40,0,0,-1,52,841
2,3,22,40,0,0,-1,52,840
2,3,23,40,0,0,-1,52,839
2,3,24,40,0,0,-1,52,838
2,3,25,40,0,0,-1,52,837
2,3,26,40,0,0,-1,52,836
2,3,27,40,0,0,-1,52,835
2,3,28,40,0,0,-1,52,834
2,3,29,40,0,0,-1,52,833
2,3,30,40,0,0,-1,52,832
2,3,31,40,0,0,-1,52,831
2,3,16,41,0,0,-1,52,830
2,3,17,41,0,0,-1,52,829
2,3,18,41,0,0,-1,52,828
2,3,19,41,0,0,-1,52,827
2,3,20,41,0,0,-1,52,826
2,3,21,41,0,0,-1,52,825
2,3,22,41,0,0,-1,52,824
2,3,23,41,0,0,-1,52,823
2,3,24,41,0,0,-1,52,822
2,3,25,41,0,0,-1,52,821
2,3,26,41,0,0,-1,52,820
2,3,27,41,0,0,-1,52,819
2,3,28,41,0,0,-1,52,818
2,3,29,41,0,0,-1,52,817
2,3,30,41,0,0,-1,52,816
2,3,31,41,0,0,-1,52,815
2,3,16,42,0,0,-1,52,814
2,3,17,42,0,0,-1,52,813
2,3,18,42,0,0,-1,52,812
2,3,19,42,0,0,-1,52,811
2,3,20,42,0,0,-1,52,810
2,3,21,42,0,0,-1,52,809
2,3,22,42,0,0,-1,52,808
2,3,23,42,0,0,-1,52,807
2,3,24,42,0,0,-1,52,806
2,3,25,42,0,0,-1,52,805
2,3,26,42,0,0,-1,52,804
2,3,27,42,0,0,-1,52,803
2,3,28,42,0,0,-1,52,802
2,3,29,42,0,0,-1,52,801
2,3,30,42,0,0,-1,52,800
2,3,31,42,0,0,-1,52,799
2,3,16,43,0,0,-1,52,798
2,3,17,43,0,0,-1,52,797
2,3,18,43,0,0,-1,52,796
2,3,19,43,0,0,-1,52,795
2,3,21,43,0,0,-1,52,794
2,3,22,43,0,0,-1,52,793
2,3,23,43,0,0,-1,52,792
2,3,24,43,0,0,-1,52,791
2,3,25,43,0,0,-1,52,790
2,3,26,43,0,0,-1,52,789
2,3,27,43,0,0,-1,52,788
2,3,28,43,0,0,-1,52,787
2,3,29,43,0,0,-1,52,786
2,3,30,43,0,0,-1,52,785
2,3,31,43,0,0,-1,52,784
2,3,16,44,0,0,-1,52,783
2,3,17,44,0,0,-1,52,782
2,3,18,44,0,0,-1,52,781
2,3,19,44,0,0,-1,52,780
2,3,20,44,0,0,-1,52,779
2,3,21,44,0,0,-1,52,778
2,3,22,44,0,0,-1,52,777
2,3,23,44,0,0,-1,52,776
2,3,24,44,0,0,-1,52,775
2,3,25,44,0,0,-1,52,774
2,3,26,44,0,0,-1,52,773
2,3,27,44,0,0,-1,52,772
2,3,28,44,0,0,-1,52,771
2,3,29,44,0,0,-1,52,770
2,3,30,44,0,0,-1,52,769
2,3,31,44,0,0,-1,52,768
2,3,16,45,0,0,-1,52,767
2,3,17,45,0,0,-1,52,766
2,3,18,45,0,0,-1,52,765
2,3,19,45,0,0,-1,52,764
2,3,20,45,0,0,-1,52,763
2,3,21,45,0,0,-1,52,762
2,3,22,45,0,0,-1,52,761
2,3,23,45,0,0,-1,52,760
2,3,24,45,0,0,-1,52,759
2,3,25,45,0,0,-1,52,758
2,3,26,45,0,0,-1,52,757
2,3,27,45,0,0,-1,52,756
2,3,28,45,0,0,-1,52,755
2,3,29,45,0,0,-1,52,754
2,3,30,45,0,0,-1,52,753
2,3,31,45,0,0,-1,52,752
2,3,16,46,0,0,-1,52,751
2,3,17,46,0,0,-1,52,750
2,3,18,46,0,0,-1,52,749
2,3,19,46,0,0,-1,52,748
2,3,21,46,0,0,-1,52,747
2,3,22,46,0,0,-1,52,746
2,3,23,46,0,0,-1,52,745
2,3,24,46,0,0,-1,52,744
2,3,26,46,0,0,-1,52,743
2,3,27,46,0,0,-1,52,742
2,3,28,46,0,0,-1,52,741
2,3,29,46,0,0,-1,52,740
2,3,30,46,0,0,-1,52,739
2,3,31,46,0,0,-1,52,738
2,3,16,47,0,0,-1,52,737
3,2,16,0,0,7,52,736
2,3,17,47,0,0,-1,52,735
3,2,17,1,0,7,52,734
2,3,18,47,0,0,-1,52,733
3,2,18,2,0,7,52,732
2,3,19,47,0,0,-1,52,731
3,2,19,3,0,7,52,730
2,3,20,47,0,0,-1,52,729
3,2,20,4,0,7,52,728
2,3,21,47,0,0,-1,52,727
3,2,21,5,0,7,52,726
2,3,22,47,0,0,-1,52,725
3,2,22,6,0,7,52,724
2,3,23,47,0,0,-1,52,723
3,2,23,7,0,7,52,722
2,3,24,47,0,0,-1,52,721
3,2,24,8,0,7,52,720
2,3,25,47,0,0,-1,52,719
3,2,25,9,0,7,52,718
2,3,26,47,0,0,-1,52,717
3,2,26,10,0,7,52,716
2,3,27,47,0,0,-1,52,715
3,2,27,11,0,7,52,714
2,3,28,47,0,0,-1,52,713
3,2,28,12,0,7,52,712
2,3,29,47,0,0,-1,52,711
3,2,29,13,0,7,52,710
2,3,30,47,0,0,-1,52,709
3,2,30,14,0,7,52,708
2,3,31,47,0,0,-1,52,707
3,2,31,15,0,7,52,706
3,2,31,15,0,5,53,705
3,2,30,14,0,5,53,704
3,2,29,13,0,5,53,703
3,2,28,12,0,5,53,702
3,2,27,11,0,5,53,701
3,2,26,10,0,5,53,700
3,2,25,9,0,5,53,699
3,2,24,8,0,5,53,698
3,2,23,7,0,5,53,697
3,2,22,6,0,5,53,696
3,2,21,5,0,5,53,695
3,2,20,4,0,5,53,694
3,2,19,3,0,5,53,693
3,2,18,2,0,5,53,692
3,2,17,1,0,5,53,691
3,2,16,0,0,5,53,690
2,3,48,32,0,0,-1,54,689
2,3,49,32,0,0,-1,54,688
2,3,50,32,0,0,-1,54,687
2,3,48,33,0,0,-1,54,686
2,3,49,33,0,0,-1,54,685
2,3,50,33,0,0,-1,54,684
2,3,48,34,0,0,-1,54,683
2,3,49,34,0,0,-1,54,682
2,3,50,34,0,0,-1,54,681
2,3,48,35,0,0,-1,54,680
2,3,49,35,0,0,-1,54,679
2,3,50,35,0,0,-1,54,678
2,3,48,36,0,0,-1,54,677
2,3,49,36,0,0,-1,54,676
2,3,50,36,0,0,-1,54,675
2,3,48,37,0,0,-1,54,674
2,3,49,37,0,0,-1,54,673
2,3,50,37,0,0,-1,54,672
2,3,48,38,0,0,-1,54,671
2,3,49,38,0,0,-1,54,670
2,3,50,38,0,0,-1,54,669
2,3,48,39,0,0,-1,54,668
2,3,49,39,0,0,-1,54,667
2,3,50,39,0,0,-1,54,666
2,3,48,40,0,0,-1,54,665
2,3,49,40,0,0,-1,54,664
2,3,50,40,0,0,-1,54,663
2,3,48,41,0,0,-1,54,662
2,3,49,41,0,0,-1,54,661
2,3,50,41,0,0,-1,54,660
2,3,48,42,0,0,-1,54,659
2,3,49,42,0,0,-1,54,658
2,3,50,42,0,0,-1,54,657
2,3,48,43,0,0,-1,54,656
2,3,49,43,0,0,-1,54,655
2,3,50,43,0,0,-1,54,654
2,3,48,44,0,0,-1,54,653
2,3,49,44,0,0,-1,54,652
2,3,50,44,0,0,-1,54,651
2,3,48,45,0,0,-1,54,650
2,3,49,45,0,0,-1,54,649
2,3,50,45,0,0,-1,54,648
2,3,48,46,0,0,-1,54,647
2,3,49,46,0,0,-1,54,646
2,3,50,46,0,0,-1,54,645
2,3,48,47,0,0,-1,54,644
3,2,48,0,0,5,54,643
3,2,48,0,0,7,54,642
2,3,49,47,0,0,-1,54,641
3,2,49,1,0,5,54,640
3,2,49,1,0,7,54,639
2,3,50,47,0,0,-1,54,638
3,2,50,2,0,5,54,637
3,2,50,2,0,7,54,636
2,3,15,32,0,0,-1,55,635
2,3,15,33,0,0,-1,55,634
2,3,15,34,0,0,-1,55,633
2,3,15,35,0,0,-1,55,632
2,3,15,36,0,0,-1,55,631
2,3,15,37,0,0,-1,55,630
2,3,15,38,0,0,-1,55,629
2,3,15,39,0,0,-1,55,628
2,3,15,40,0,0,-1,55,627
2,3,15,41,0,0,-1,55,626
2,3,15,42,0,0,-1,55,625
2,3,15,43,0,0,-1,55,624
2,3,15,44,0,0,-1,55,623
2,3,15,45,0,0,-1,55,622
2,3,15,46,0,0,-1,55,621
2,3,15,47,0,0,-1,55,620
3,2,15,15,0,5,55,619
3,2,15,15,0,7,55,618
3,2,14,14,0,5,55,617
3,2,14,14,0,7,55,616
3,2,5,5,0,5,55,615
3,2,5,5,0,7,55,614
3,2,4,4,0,5,55,613
3,2,4,4,0,7,55,612
3,2,3,3,0,5,55,611
3,2,3,3,0,7,55,610
3,2,2,2,0,5,55,609
3,2,2,2,0,7,55,608
3,2,1,1,0,5,55,607
3,2,1,1,0,7,55,606
3,2,0,0,0,5,55,605
3,2,0,0,0,7,55,604
3,2,11,11,0,5,55,603
3,2,11,11,0,7,55,602
3,2,12,12,0,5,55,601
3,2,12,12,0,7,55,600
3,2,10,10,0,5,55,599
3,2,10,10,0,7,55,598
3,2,9,9,0,5,55,597
3,2,9,9,0,7,55,596
3,2,8,8,0,5,55,595
3,2,8,8,0,7,55,594
3,2,13,13,0,5,55,593
3,2,13,13,0,7,55,592
3,2,7,7,0,5,55,591
3,2,7,7,0,7,55,590
3,2,6,6,0,5,55,589
3,2,6,6,0,7,55,588
4,1,0,1,RAPBUF,-1,55,587
8,1,32,0,1,51,586
3,2,32,0,0,4,51,585
3,2,32,0,0,10,51,584
8,1,33,0,1,51,583
3,2,33,1,0,4,51,582
3,2,33,1,0,10,51,581
8,1,34,0,1,51,580
3,2,34,2,0,4,51,579
3,2,34,2,0,10,51,578
8,1,35,0,1,51,577
3,2,35,3,0,4,51,576
3,2,35,3,0,10,51,575
8,1,36,0,1,51,574
3,2,36,4,0,4,51,573
3,2,36,4,0,10,51,572
8,1,37,0,1,51,571
3,2,37,5,0,4,51,570
3,2,37,5,0,10,51,569
8,1,38,0,1,51,568
3,2,38,6,0,4,51,567
3,2,38,6,0,10,51,566
8,1,39,0,1,51,565
3,2,39,7,0,4,51,564
3,2,39,7,0,10,51,563
8,1,40,0,1,51,562
3,2,40,8,0,4,51,561
3,2,40,8,0,10,51,560
8,1,41,0,1,51,559
3,2,41,9,0,4,51,558
3,2,41,9,0,10,51,557
8,1,42,0,1,51,556
3,2,42,10,0,4,51,555
3,2,42,10,0,10,51,554
8,1,43,0,1,51,553
3,2,43,11,0,4,51,552
3,2,43,11,0,10,51,551
8,1,44,0,1,51,550
3,2,44,12,0,4,51,549
3,2,44,12,0,10,51,548
8,1,45,0,1,51,547
3,2,45,13,0,4,51,546
3,2,45,13,0,10,51,545
8,1,46,0,1,51,544
3,2,46,14,0,4,51,543
3,2,46,14,0,10,51,542
8,1,47,0,1,51,541
3,2,47,15,0,4,51,540
3,2,47,15,0,10,51,539
4,1,0,1,XARBUF,-1,56,538
4,1,0,1,RARBUF,-1,56,537
15,0,1,RAR,-1,56,536
16,0,1,RAR,-1,56,535
3,2,0,0,0,10,56,534
3,2,1,1,0,10,56,533
3,2,2,2,0,10,56,532
3,2,3,3,0,10,56,531
3,2,4,4,0,10,56,530
3,2,5,5,0,10,56,529
3,2,6,6,0,10,56,528
3,2,7,7,0,10,56,527
3,2,8,8,0,10,56,526
3,2,9,9,0,10,56,525
3,2,10,10,0,10,56,524
3,2,11,11,0,10,56,523
3,2,12,12,0,10,56,522
3,2,13,13,0,10,56,521
3,2,14,14,0,10,56,520
3,2,15,15,0,10,56,519
4,1,0,1,RBPBUF,-1,56,518
4,1,0,1,XAPBUF,-1,56,517
21,0,1,CONSTRUCTGA1,-1,56,516
16,0,1,PAP,-1,56,515
21,0,1,CONSTRUCTGA2,-1,56,514
4,1,0,1,XBPBUF,-1,56,513
21,0,1,CONSTRUCTGB,-1,56,512
21,0,1,EIGEN,-1,56,511
5,1,16,0,6,58,510
5,1,17,0,6,58,509
5,1,18,0,6,58,508
5,1,19,0,6,58,507
5,1,20,0,6,58,506
5,1,21,0,6,58,505
5,1,22,0,6,58,504
5,1,23,0,6,58,503
5,1,24,0,6,58,502
5,1,25,0,6,58,501
5,1,26,0,6,58,500
5,1,27,0,6,58,499
5,1,28,0,6,58,498
5,1,29,0,6,58,497
5,1,30,0,6,58,496
5,1,31,0,6,58,495
5,1,16,0,7,76,494
6,1,16,0,1,76,493
5,1,17,0,7,76,492
6,1,17,0,1,76,491
5,1,18,0,7,76,490
6,1,18,0,1,76,489
5,1,19,0,7,76,488
6,1,19,0,1,76,487
5,1,20,0,7,76,486
6,1,20,0,1,76,485
5,1,21,0,7,76,484
6,1,21,0,1,76,483
5,1,22,0,7,76,482
6,1,22,0,1,76,481
5,1,23,0,7,76,480
6,1,23,0,1,76,479
5,1,24,0,7,76,478
6,1,24,0,1,76,477
5,1,25,0,7,76,476
6,1,25,0,1,76,475
5,1,26,0,7,76,474
6,1,26,0,1,76,473
5,1,27,0,7,76,472
6,1,27,0,1,76,471
5,1,28,0,7,76,470
6,1,28,0,1,76,469
5,1,29,0,7,76,468
6,1,29,0,1,76,467
5,1,30,0,7,76,466
6,1,30,0,1,76,465
5,1,31,0,7,76,464
6,1,31,0,1,76,463
5,1,16,0,10,78,462
6,1,16,0,3,78,461
5,1,17,0,10,78,460
6,1,17,0,3,78,459
5,1,18,0,10,78,458
6,1,18,0,3,78,457
5,1,19,0,10,78,456
6,1,19,0,3,78,455
5,1,20,0,10,78,454
6,1,20,0,3,78,453
5,1,21,0,10,78,452
6,1,21,0,3,78,451
5,1,22,0,10,78,450
6,1,22,0,3,78,449
5,1,23,0,10,78,448
6,1,23,0,3,78,447
5,1,24,0,10,78,446
6,1,24,0,3,78,445
5,1,25,0,10,78,444
6,1,25,0,3,78,443
5,1,26,0,10,78,442
6,1,26,0,3,78,441
5,1,27,0,10,78,440
6,1,27,0,3,78,439
5,1,28,0,10,78,438
6,1,28,0,3,78,437
5,1,29,0,10,78,436
6,1,29,0,3,78,435
5,1,30,0,10,78,434
6,1,30,0,3,78,433
5,1,31,0,10,78,432
6,1,31,0,3,78,431
5,1,48,0,6,62,430
5,1,49,0,6,62,429
5,1,50,0,6,62,428
5,1,0,0,7,63,427
5,1,1,0,7,63,426
5,1,2,0,7,63,425
5,1,3,0,7,63,424
5,1,4,0,7,63,423
5,1,5,0,7,63,422
5,1,6,0,7,63,421
5,1,7,0,7,63,420
5,1,8,0,7,63,419
5,1,9,0,7,63,418
5,1,10,0,7,63,417
5,1,11,0,7,63,416
5,1,12,0,7,63,415
5,1,13,0,7,63,414
5,1,14,0,7,63,413
5,1,15,0,7,63,412
5,1,0,0,6,64,411
6,1,0,0,1,64,410
5,1,1,0,6,64,409
6,1,1,0,1,64,408
5,1,2,0,6,64,407
6,1,2,0,1,64,406
5,1,3,0,6,64,405
6,1,3,0,1,64,404
5,1,4,0,6,64,403
6,1,4,0,1,64,402
5,1,5,0,6,64,401
6,1,5,0,1,64,400
5,1,6,0,6,64,399
6,1,6,0,1,64,398
5,1,7,0,6,64,397
6,1,7,0,1,64,396
5,1,8,0,6,64,395
6,1,8,0,1,64,394
5,1,9,0,6,64,393
6,1,9,0,1,64,392
5,1,10,0,6,64,391
6,1,10,0,1,64,390
5,1,11,0,6,64,389
6,1,11,0,1,64,388
5,1,12,0,6,64,387
6,1,12,0,1,64,386
5,1,13,0,6,64,385
6,1,13,0,1,64,384
5,1,14,0,6,64,383
6,1,14,0,1,64,382
5,1,15,0,6,64,381
6,1,15,0,1,64,380
5,1,0,0,10,66,379
6,1,0,0,3,66,378
5,1,1,0,10,66,377
6,1,1,0,3,66,376
5,1,2,0,10,66,375
6,1,2,0,3,66,374
5,1,3,0,10,66,373
6,1,3,0,3,66,372
5,1,4,0,10,66,371
6,1,4,0,3,66,370
5,1,5,0,10,66,369
6,1,5,0,3,66,368
5,1,6,0,10,66,367
6,1,6,0,3,66,366
5,1,7,0,10,66,365
6,1,7,0,3,66,364
5,1,8,0,10,66,363
6,1,8,0,3,66,362
5,1,9,0,10,66,361
6,1,9,0,3,66,360
5,1,10,0,10,66,359
6,1,10,0,3,66,358
5,1,11,0,10,66,357
6,1,11,0,3,66,356
5,1,12,0,10,66,355
6,1,12,0,3,66,354
5,1,13,0,10,66,353
6,1,13,0,3,66,352
5,1,14,0,10,66,351
6,1,14,0,3,66,350
5,1,15,0,10,66,349
6,1,15,0,3,66,348
5,1,32,0,7,59,347
5,1,33,0,7,59,346
5,1,34,0,7,59,345
5,1,35,0,7,59,344
5,1,36,0,7,59,343
5,1,37,0,7,59,342
5,1,38,0,7,59,341
5,1,39,0,7,59,340
5,1,40,0,7,59,339
5,1,41,0,7,59,338
5,1,42,0,7,59,337
5,1,43,0,7,59,336
5,1,44,0,7,59,335
5,1,45,0,7,59,334
5,1,46,0,7,59,333
5,1,47,0,7,59,332
5,1,32,0,6,60,331
6,1,32,0,1,60,330
5,1,33,0,6,60,329
6,1,33,0,1,60,328
5,1,34,0,6,60,327
6,1,34,0,1,60,326
5,1,35,0,6,60,325
6,1,35,0,1,60,324
5,1,36,0,6,60,323
6,1,36,0,1,60,322
5,1,37,0,6,60,321
6,1,37,0,1,60,320
5,1,38,0,6,60,319
6,1,38,0,1,60,318
5,1,39,0,6,60,317
6,1,39,0,1,60,316
5,1,40,0,6,60,315
6,1,40,0,1,60,314
5,1,41,0,6,60,313
6,1,41,0,1,60,312
5,1,42,0,6,60,311
6,1,42,0,1,60,310
5,1,43,0,6,60,309
6,1,43,0,1,60,308
5,1,44,0,6,60,307
6,1,44,0,1,60,306
5,1,45,0,6,60,305
6,1,45,0,1,60,304
5,1,46,0,6,60,303
6,1,46,0,1,60,302
5,1,47,0,6,60,301
6,1,47,0,1,60,300
5,1,32,0,10,81,299
6,1,32,0,3,81,298
5,1,33,0,10,81,297
6,1,33,0,3,81,296
5,1,34,0,10,81,295
6,1,34,0,3,81,294
5,1,35,0,10,81,293
6,1,35,0,3,81,292
5,1,36,0,10,81,291
6,1,36,0,3,81,290
5,1,37,0,10,81,289
6,1,37,0,3,81,288
5,1,38,0,10,81,287
6,1,38,0,3,81,286
5,1,39,0,10,81,285
6,1,39,0,3,81,284
5,1,40,0,10,81,283
6,1,40,0,3,81,282
5,1,41,0,10,81,281
6,1,41,0,3,81,280
5,1,42,0,10,81,279
6,1,42,0,3,81,278
5,1,43,0,10,81,277
6,1,43,0,3,81,276
5,1,44,0,10,81,275
6,1,44,0,3,81,274
5,1,45,0,10,81,273
6,1,45,0,3,81,272
5,1,46,0,10,81,271
6,1,46,0,3,81,270
5,1,47,0,10,81,269
6,1,47,0,3,81,268
5,1,48,0,7,57,267
5,1,49,0,7,57,266
5,1,50,0,7,57,265
5,1,32,0,8,68,264
5,1,33,0,8,68,263
5,1,34,0,8,68,262
5,1,35,0,8,68,261
5,1,36,0,8,68,260
5,1,37,0,8,68,259
5,1,38,0,8,68,258
5,1,39,0,8,68,257
5,1,40,0,8,68,256
5,1,41,0,8,68,255
5,1,42,0,8,68,254
5,1,43,0,8,68,253
5,1,44,0,8,68,252
5,1,45,0,8,68,251
5,1,46,0,8,68,250
5,1,47,0,8,68,249
5,1,32,0,9,69,248
6,1,32,0,2,69,247
5,1,33,0,9,69,246
6,1,33,0,2,69,245
5,1,34,0,9,69,244
6,1,34,0,2,69,243
5,1,35,0,9,69,242
6,1,35,0,2,69,241
5,1,36,0,9,69,240
6,1,36,0,2,69,239
5,1,37,0,9,69,238
6,1,37,0,2,69,237
5,1,38,0,9,69,236
6,1,38,0,2,69,235
5,1,39,0,9,69,234
6,1,39,0,2,69,233
5,1,40,0,9,69,232
6,1,40,0,2,69,231
5,1,41,0,9,69,230
6,1,41,0,2,69,229
5,1,42,0,9,69,228
6,1,42,0,2,69,227
5,1,43,0,9,69,226
6,1,43,0,2,69,225
5,1,44,0,9,69,224
6,1,44,0,2,69,223
5,1,45,0,9,69,222
6,1,45,0,2,69,221
5,1,46,0,9,69,220
6,1,46,0,2,69,219
5,1,47,0,9,69,218
6,1,47,0,2,69,217
5,1,32,0,11,74,216
6,1,32,0,4,74,215
5,1,33,0,11,74,214
6,1,33,0,4,74,213
5,1,34,0,11,74,212
6,1,34,0,4,74,211
5,1,35,0,11,74,210
6,1,35,0,4,74,209
5,1,36,0,11,74,208
6,1,36,0,4,74,207
5,1,37,0,11,74,206
6,1,37,0,4,74,205
5,1,38,0,11,74,204
6,1,38,0,4,74,203
5,1,39,0,11,74,202
6,1,39,0,4,74,201
5,1,40,0,11,74,200
6,1,40,0,4,74,199
5,1,41,0,11,74,198
6,1,41,0,4,74,197
5,1,42,0,11,74,196
6,1,42,0,4,74,195
5,1,43,0,11,74,194
6,1,43,0,4,74,193
5,1,44,0,11,74,192
6,1,44,0,4,74,191
5,1,45,0,11,74,190
6,1,45,0,4,74,189
5,1,46,0,11,74,188
6,1,46,0,4,74,187
5,1,47,0,11,74,186
6,1,47,0,4,74,185
5,1,0,0,9,77,184
5,1,1,0,9,77,183
5,1,2,0,9,77,182
5,1,3,0,9,77,181
5,1,4,0,9,77,180
5,1,5,0,9,77,179
5,1,6,0,9,77,178
5,1,7,0,9,77,177
5,1,8,0,9,77,176
5,1,9,0,9,77,175
5,1,10,0,9,77,174
5,1,11,0,9,77,173
5,1,12,0,9,77,172
5,1,13,0,9,77,171
5,1,14,0,9,77,170
5,1,15,0,9,77,169
5,1,16,0,9,67,168
5,1,17,0,9,67,167
5,1,18,0,9,67,166
5,1,19,0,9,67,165
5,1,20,0,9,67,164
5,1,21,0,9,67,163
5,1,22,0,9,67,162
5,1,23,0,9,67,161
5,1,24,0,9,67,160
5,1,25,0,9,67,159
5,1,26,0,9,67,158
5,1,27,0,9,67,157
5,1,28,0,9,67,156
5,1,29,0,9,67,155
5,1,30,0,9,67,154
5,1,31,0,9,67,153
5,1,16,0,8,70,152
6,1,16,0,2,70,151
5,1,17,0,8,70,150
6,1,17,0,2,70,149
5,1,18,0,8,70,148
6,1,18,0,2,70,147
5,1,19,0,8,70,146
6,1,19,0,2,70,145
5,1,20,0,8,70,144
6,1,20,0,2,70,143
5,1,21,0,8,70,142
6,1,21,0,2,70,141
5,1,22,0,8,70,140
6,1,22,0,2,70,139
5,1,23,0,8,70,138
6,1,23,0,2,70,137
5,1,24,0,8,70,136
6,1,24,0,2,70,135
5,1,25,0,8,70,134
6,1,25,0,2,70,133
5,1,26,0,8,70,132
6,1,26,0,2,70,131
5,1,27,0,8,70,130
6,1,27,0,2,70,129
5,1,28,0,8,70,128
6,1,28,0,2,70,127
5,1,29,0,8,70,126
6,1,29,0,2,70,125
5,1,30,0,8,70,124
6,1,30,0,2,70,123
5,1,31,0,8,70,122
6,1,31,0,2,70,121
5,1,48,0,9,65,120
5,1,49,0,9,65,119
5,1,50,0,9,65,118
5,1,48,0,10,72,117
5,1,49,0,10,72,116
5,1,50,0,10,72,115
6,1,50,0,1,82,114
6,1,50,0,3,82,113
6,1,49,0,1,82,112
6,1,49,0,3,82,111
6,1,48,0,1,82,110
6,1,48,0,3,82,109
5,1,0,0,11,75,108
5,1,1,0,11,75,107
5,1,2,0,11,75,106
5,1,3,0,11,75,105
5,1,4,0,11,75,104
5,1,5,0,11,75,103
5,1,6,0,11,75,102
5,1,7,0,11,75,101
5,1,8,0,11,75,100
5,1,9,0,11,75,99
5,1,10,0,11,75,98
5,1,11,0,11,75,97
5,1,12,0,11,75,96
5,1,13,0,11,75,95
5,1,14,0,11,75,94
5,1,15,0,11,75,93
5,1,0,0,8,80,92
6,1,0,0,2,80,91
6,1,0,0,4,80,90
5,1,1,0,8,80,89
6,1,1,0,2,80,88
6,1,1,0,4,80,87
5,1,2,0,8,80,86
6,1,2,0,2,80,85
6,1,2,0,4,80,84
5,1,3,0,8,80,83
6,1,3,0,2,80,82
6,1,3,0,4,80,81
5,1,4,0,8,80,80
6,1,4,0,2,80,79
6,1,4,0,4,80,78
5,1,5,0,8,80,77
6,1,5,0,2,80,76
6,1,5,0,4,80,75
5,1,6,0,8,80,74
6,1,6,0,2,80,73
6,1,6,0,4,80,72
5,1,7,0,8,80,71
6,1,7,0,2,80,70
6,1,7,0,4,80,69
5,1,8,0,8,80,68
6,1,8,0,2,80,67
6,1,8,0,4,80,66
5,1,9,0,8,80,65
6,1,9,0,2,80,64
6,1,9,0,4,80,63
5,1,10,0,8,80,62
6,1,10,0,2,80,61
6,1,10,0,4,80,60
5,1,11,0,8,80,59
6,1,11,0,2,80,58
6,1,11,0,4,80,57
5,1,12,0,8,80,56
6,1,12,0,2,80,55
6,1,12,0,4,80,54
5,1,13,0,8,80,53
6,1,13,0,2,80,52
6,1,13,0,4,80,51
5,1,14,0,8,80,50
6,1,14,0,2,80,49
6,1,14,0,4,80,48
5,1,15,0,8,80,47
6,1,15,0,2,80,46
6,1,15,0,4,80,45
5,1,16,0,11,71,44
5,1,17,0,11,71,43
5,1,18,0,11,71,42
5,1,19,0,11,71,41
5,1,20,0,11,71,40
5,1,21,0,11,71,39
5,1,22,0,11,71,38
5,1,23,0,11,71,37
5,1,24,0,11,71,36
5,1,25,0,11,71,35
5,1,26,0,11,71,34
5,1,27,0,11,71,33
5,1,28,0,11,71,32
5,1,29,0,11,71,31
5,1,30,0,11,71,30
5,1,31,0,11,71,29
6,1,31,0,4,73,28
6,1,30,0,4,73,27
6,1,29,0,4,73,26
6,1,28,0,4,73,25
6,1,27,0,4,73,24
6,1,26,0,4,73,23
6,1,25,0,4,73,22
6,1,24,0,4,73,21
6,1,23,0,4,73,20
6,1,22,0,4,73,19
6,1,21,0,4,73,18
6,1,20,0,4,73,17
6,1,19,0,4,73,16
6,1,18,0,4,73,15
6,1,17,0,4,73,14
6,1,16,0,4,73,13
5,1,48,0,11,61,12
5,1,49,0,11,61,11
5,1,50,0,11,61,10
5,1,48,0,8,79,9
6,1,48,0,2,79,8
6,1,48,0,4,79,7
5,1,49,0,8,79,6
6,1,49,0,2,79,5
6,1,49,0,4,79,4
5,1,50,0,8,79,3
6,1,50,0,2,79,2
6,1,50,0,4,79,1
